{
  "currentPage": 563,
  "totalItems": 21025,
  "totalPages": 841,
  "items": [
    {
      "id": 344837898,
      "eventId": 627562,
      "siteUnitNumber": 12591,
      "bathingSite": "LITTLEHAMPTON",
      "eventStart": "2022-09-04T23:35:00",
      "eventStop": "2022-09-05T00:08:00",
      "duration": 33,
      "status": "Genuine",
      "associatedSiteId": 109968,
      "outfallName": "FORD ROAD ARUNDEL",
      "isImpacting": true,
      "overFlowSiteId": 0,
      "historicSpillsList": [
        {
          "id": 344837898,
          "eventId": 627562,
          "siteUnitNumber": 12591,
          "bathingSite": "LITTLEHAMPTON",
          "eventStart": "2022-09-04T23:35:00",
          "eventStop": "2022-09-05T00:08:00",
          "duration": 33,
          "status": "Genuine",
          "associatedSiteId": 109968,
          "outfallName": "FORD ROAD ARUNDEL",
          "isImpacting": true,
          "overFlowSiteId": 108002
        }
      ]
    },
    {
      "id": 344822895,
      "eventId": 627549,
      "siteUnitNumber": 12661,
      "bathingSite": "LANGSTONE HARBOUR",
      "eventStart": "2022-09-04T23:10:02",
      "eventStop": "2022-09-05T00:08:00",
      "duration": 57,
      "status": "Genuine",
      "associatedSiteId": 109817,
      "outfallName": "MAINLAND DRAYTON",
      "isImpacting": true,
      "overFlowSiteId": 0,
      "historicSpillsList": [
        {
          "id": 344822895,
          "eventId": 627549,
          "siteUnitNumber": 12661,
          "bathingSite": "LANGSTONE HARBOUR",
          "eventStart": "2022-09-04T23:10:02",
          "eventStop": "2022-09-05T00:08:00",
          "duration": 57,
          "status": "Genuine",
          "associatedSiteId": 109817,
          "outfallName": "MAINLAND DRAYTON",
          "isImpacting": true,
          "overFlowSiteId": 115960
        }
      ]
    },
    {
      "id": 344836865,
      "eventId": 627584,
      "siteUnitNumber": 12591,
      "bathingSite": "LITTLEHAMPTON",
      "eventStart": "2022-09-04T23:30:00",
      "eventStop": "2022-09-05T00:00:00",
      "duration": 30,
      "status": "Not Genuine",
      "associatedSiteId": 109961,
      "outfallName": "TOWN QUAY ARUNDEL",
      "isImpacting": false,
      "overFlowSiteId": 0,
      "historicSpillsList": []
    },
    {
      "id": 344847965,
      "eventId": 627597,
      "siteUnitNumber": 12617,
      "bathingSite": "COWES",
      "eventStart": "2022-09-04T23:35:00",
      "eventStop": "2022-09-04T23:56:00",
      "duration": 21,
      "status": "Genuine",
      "associatedSiteId": 110701,
      "outfallName": "TERMINUS ROAD COWES 2",
      "isImpacting": true,
      "overFlowSiteId": 0,
      "historicSpillsList": [
        {
          "id": 344847965,
          "eventId": 627597,
          "siteUnitNumber": 12617,
          "bathingSite": "COWES",
          "eventStart": "2022-09-04T23:35:00",
          "eventStop": "2022-09-04T23:56:00",
          "duration": 21,
          "status": "Genuine",
          "associatedSiteId": 110701,
          "outfallName": "TERMINUS ROAD COWES 2",
          "isImpacting": true,
          "overFlowSiteId": 108562
        },
        {
          "id": 344847966,
          "eventId": 627597,
          "siteUnitNumber": 12616,
          "bathingSite": "GURNARD",
          "eventStart": "2022-09-04T23:35:00",
          "eventStop": "2022-09-04T23:56:00",
          "duration": 21,
          "status": "Genuine",
          "associatedSiteId": 110701,
          "outfallName": "TERMINUS ROAD COWES 2",
          "isImpacting": true,
          "overFlowSiteId": 108562,
          "historicSpillsList": []
        }
      ]
    },
    {
      "id": 344823632,
      "eventId": 627558,
      "siteUnitNumber": 12604,
      "bathingSite": "SOUTHSEA EAST",
      "eventStart": "2022-09-04T23:44:00",
      "eventStop": "2022-09-04T23:51:00",
      "duration": 7,
      "status": "Genuine",
      "associatedSiteId": 109822,
      "outfallName": "PIER ROAD SOUTHSEA",
      "isImpacting": true,
      "overFlowSiteId": 0,
      "historicSpillsList": [
        {
          "id": 344823632,
          "eventId": 627558,
          "siteUnitNumber": 12604,
          "bathingSite": "SOUTHSEA EAST",
          "eventStart": "2022-09-04T23:44:00",
          "eventStop": "2022-09-04T23:51:00",
          "duration": 7,
          "status": "Genuine",
          "associatedSiteId": 109822,
          "outfallName": "PIER ROAD SOUTHSEA",
          "isImpacting": true,
          "overFlowSiteId": 108469
        },
        {
          "id": 344823633,
          "eventId": 627558,
          "siteUnitNumber": 12605,
          "bathingSite": "STOKES BAY",
          "eventStart": "2022-09-04T23:44:00",
          "eventStop": "2022-09-04T23:51:00",
          "duration": 7,
          "status": "Genuine",
          "associatedSiteId": 109822,
          "outfallName": "PIER ROAD SOUTHSEA",
          "isImpacting": true,
          "overFlowSiteId": 108469,
          "historicSpillsList": []
        }
      ]
    },
    {
      "id": 344822947,
      "eventId": 627540,
      "siteUnitNumber": 12661,
      "bathingSite": "LANGSTONE HARBOUR",
      "eventStart": "2022-09-04T22:51:00",
      "eventStop": "2022-09-04T23:50:00",
      "duration": 59,
      "status": "Genuine",
      "associatedSiteId": 109818,
      "outfallName": "KIRTLEY CLOSE DRAYTON",
      "isImpacting": true,
      "overFlowSiteId": 0,
      "historicSpillsList": [
        {
          "id": 344822947,
          "eventId": 627540,
          "siteUnitNumber": 12661,
          "bathingSite": "LANGSTONE HARBOUR",
          "eventStart": "2022-09-04T22:51:00",
          "eventStop": "2022-09-04T23:50:00",
          "duration": 59,
          "status": "Genuine",
          "associatedSiteId": 109818,
          "outfallName": "KIRTLEY CLOSE DRAYTON",
          "isImpacting": true,
          "overFlowSiteId": 108774
        }
      ]
    },
    {
      "id": 344847969,
      "eventId": 627557,
      "siteUnitNumber": 12616,
      "bathingSite": "GURNARD",
      "eventStart": "2022-09-04T23:41:00",
      "eventStop": "2022-09-04T23:48:00",
      "duration": 7,
      "status": "Genuine",
      "associatedSiteId": 110701,
      "outfallName": "TERMINUS ROAD COWES 2",
      "isImpacting": true,
      "overFlowSiteId": 0,
      "historicSpillsList": [
        {
          "id": 344847969,
          "eventId": 627557,
          "siteUnitNumber": 12616,
          "bathingSite": "GURNARD",
          "eventStart": "2022-09-04T23:41:00",
          "eventStop": "2022-09-04T23:48:00",
          "duration": 7,
          "status": "Genuine",
          "associatedSiteId": 110701,
          "outfallName": "TERMINUS ROAD COWES 2",
          "isImpacting": true,
          "overFlowSiteId": 108563
        },
        {
          "id": 344847970,
          "eventId": 627557,
          "siteUnitNumber": 12617,
          "bathingSite": "COWES",
          "eventStart": "2022-09-04T23:41:00",
          "eventStop": "2022-09-04T23:48:00",
          "duration": 7,
          "status": "Genuine",
          "associatedSiteId": 110701,
          "outfallName": "TERMINUS ROAD COWES 2",
          "isImpacting": true,
          "overFlowSiteId": 108563,
          "historicSpillsList": []
        }
      ]
    },
    {
      "id": 344818859,
      "eventId": 627543,
      "siteUnitNumber": 12606,
      "bathingSite": "LEE-ON-SOLENT",
      "eventStart": "2022-09-04T23:02:46",
      "eventStop": "2022-09-04T23:36:20",
      "duration": 33,
      "status": "Genuine",
      "associatedSiteId": 109715,
      "outfallName": "SALTERNS ROAD HILL HEAD",
      "isImpacting": true,
      "overFlowSiteId": 0,
      "historicSpillsList": [
        {
          "id": 344818860,
          "eventId": 627543,
          "siteUnitNumber": 12607,
          "bathingSite": "HILLHEAD",
          "eventStart": "2022-09-04T23:02:46",
          "eventStop": "2022-09-04T23:36:20",
          "duration": 33,
          "status": "Genuine",
          "associatedSiteId": 109715,
          "outfallName": "SALTERNS ROAD HILL HEAD",
          "isImpacting": true,
          "overFlowSiteId": 108441,
          "historicSpillsList": []
        }
      ]
    },
    {
      "id": 344823039,
      "eventId": 627537,
      "siteUnitNumber": 12661,
      "bathingSite": "LANGSTONE HARBOUR",
      "eventStart": "2022-09-04T22:56:00",
      "eventStop": "2022-09-04T23:09:00",
      "duration": 13,
      "status": "Genuine",
      "associatedSiteId": 109820,
      "outfallName": "ST ANDREWS ROAD PORTSMOUTH",
      "isImpacting": true,
      "overFlowSiteId": 0,
      "historicSpillsList": [
        {
          "id": 344823039,
          "eventId": 627537,
          "siteUnitNumber": 12661,
          "bathingSite": "LANGSTONE HARBOUR",
          "eventStart": "2022-09-04T22:56:00",
          "eventStop": "2022-09-04T23:09:00",
          "duration": 13,
          "status": "Genuine",
          "associatedSiteId": 109820,
          "outfallName": "ST ANDREWS ROAD PORTSMOUTH",
          "isImpacting": true,
          "overFlowSiteId": 108474
        }
      ]
    },
    {
      "id": 344847967,
      "eventId": 627596,
      "siteUnitNumber": 12616,
      "bathingSite": "GURNARD",
      "eventStart": "2022-09-04T22:37:00",
      "eventStop": "2022-09-04T22:57:00",
      "duration": 20,
      "status": "Genuine",
      "associatedSiteId": 110701,
      "outfallName": "TERMINUS ROAD COWES 2",
      "isImpacting": true,
      "overFlowSiteId": 0,
      "historicSpillsList": [
        {
          "id": 344847967,
          "eventId": 627596,
          "siteUnitNumber": 12616,
          "bathingSite": "GURNARD",
          "eventStart": "2022-09-04T22:37:00",
          "eventStop": "2022-09-04T22:57:00",
          "duration": 20,
          "status": "Genuine",
          "associatedSiteId": 110701,
          "outfallName": "TERMINUS ROAD COWES 2",
          "isImpacting": true,
          "overFlowSiteId": 108562
        },
        {
          "id": 344847968,
          "eventId": 627596,
          "siteUnitNumber": 12617,
          "bathingSite": "COWES",
          "eventStart": "2022-09-04T22:37:00",
          "eventStop": "2022-09-04T22:57:00",
          "duration": 20,
          "status": "Genuine",
          "associatedSiteId": 110701,
          "outfallName": "TERMINUS ROAD COWES 2",
          "isImpacting": true,
          "overFlowSiteId": 108562,
          "historicSpillsList": []
        }
      ]
    },
    {
      "id": 344847971,
      "eventId": 627526,
      "siteUnitNumber": 12616,
      "bathingSite": "GURNARD",
      "eventStart": "2022-09-04T22:43:00",
      "eventStop": "2022-09-04T22:47:00",
      "duration": 4,
      "status": "Genuine",
      "associatedSiteId": 110701,
      "outfallName": "TERMINUS ROAD COWES 2",
      "isImpacting": true,
      "overFlowSiteId": 0,
      "historicSpillsList": [
        {
          "id": 344847971,
          "eventId": 627526,
          "siteUnitNumber": 12616,
          "bathingSite": "GURNARD",
          "eventStart": "2022-09-04T22:43:00",
          "eventStop": "2022-09-04T22:47:00",
          "duration": 4,
          "status": "Genuine",
          "associatedSiteId": 110701,
          "outfallName": "TERMINUS ROAD COWES 2",
          "isImpacting": true,
          "overFlowSiteId": 108563
        },
        {
          "id": 344847972,
          "eventId": 627526,
          "siteUnitNumber": 12617,
          "bathingSite": "COWES",
          "eventStart": "2022-09-04T22:43:00",
          "eventStop": "2022-09-04T22:47:00",
          "duration": 4,
          "status": "Genuine",
          "associatedSiteId": 110701,
          "outfallName": "TERMINUS ROAD COWES 2",
          "isImpacting": true,
          "overFlowSiteId": 108563,
          "historicSpillsList": []
        }
      ]
    },
    {
      "id": 344833006,
      "eventId": 627025,
      "siteUnitNumber": 12619,
      "bathingSite": "SEAGROVE",
      "eventStart": "2022-09-03T07:56:39",
      "eventStop": "2022-09-03T08:27:31",
      "duration": 30,
      "status": "Genuine",
      "associatedSiteId": 109938,
      "outfallName": "THE POINT BEMBRIDGE",
      "isImpacting": true,
      "overFlowSiteId": 0,
      "historicSpillsList": [
        {
          "id": 344833007,
          "eventId": 627025,
          "siteUnitNumber": 12620,
          "bathingSite": "ST HELENS",
          "eventStart": "2022-09-03T07:56:39",
          "eventStop": "2022-09-03T08:27:31",
          "duration": 30,
          "status": "Genuine",
          "associatedSiteId": 109938,
          "outfallName": "THE POINT BEMBRIDGE",
          "isImpacting": true,
          "overFlowSiteId": 110194,
          "historicSpillsList": []
        }
      ]
    },
    {
      "id": 344822834,
      "eventId": 628405,
      "siteUnitNumber": 12611,
      "bathingSite": "CHRISTCHURCH BAY",
      "eventStart": "2022-09-02T09:42:00",
      "eventStop": "2022-09-02T09:56:00",
      "duration": 14,
      "status": "Not Genuine",
      "associatedSiteId": 109802,
      "outfallName": "SUNNYFIELD ROAD BARTON ON SEA",
      "isImpacting": true,
      "overFlowSiteId": 0,
      "historicSpillsList": []
    },
    {
      "id": 344849061,
      "eventId": 626779,
      "siteUnitNumber": 12582,
      "bathingSite": "SEAFORD",
      "eventStart": "2022-09-02T02:43:00",
      "eventStop": "2022-09-02T03:11:52",
      "duration": 28,
      "status": "Genuine",
      "associatedSiteId": 110920,
      "outfallName": "NEWHAVEN",
      "isImpacting": false,
      "overFlowSiteId": 0,
      "historicSpillsList": []
    },
    {
      "id": 344834340,
      "eventId": 626719,
      "siteUnitNumber": 12582,
      "bathingSite": "SEAFORD",
      "eventStart": "2022-09-01T21:45:00",
      "eventStop": "2022-09-01T22:39:00",
      "duration": 54,
      "status": "Genuine",
      "associatedSiteId": 109957,
      "outfallName": "PORTOBELLO BRIGHTON NO2",
      "isImpacting": false,
      "overFlowSiteId": 0,
      "historicSpillsList": []
    },
    {
      "id": 344849060,
      "eventId": 626725,
      "siteUnitNumber": 12582,
      "bathingSite": "SEAFORD",
      "eventStart": "2022-09-01T21:54:58",
      "eventStop": "2022-09-01T22:19:37",
      "duration": 24,
      "status": "Genuine",
      "associatedSiteId": 110920,
      "outfallName": "NEWHAVEN",
      "isImpacting": false,
      "overFlowSiteId": 0,
      "historicSpillsList": []
    },
    {
      "id": 344832202,
      "eventId": 626688,
      "siteUnitNumber": 12586,
      "bathingSite": "HOVE",
      "eventStart": "2022-09-01T19:45:30",
      "eventStop": "2022-09-01T21:29:10",
      "duration": 103,
      "status": "Genuine",
      "associatedSiteId": 109929,
      "outfallName": "SHOREHAM NO1",
      "isImpacting": true,
      "overFlowSiteId": 0,
      "historicSpillsList": [
        {
          "id": 344832202,
          "eventId": 626688,
          "siteUnitNumber": 12586,
          "bathingSite": "HOVE",
          "eventStart": "2022-09-01T19:45:30",
          "eventStop": "2022-09-01T21:29:10",
          "duration": 103,
          "status": "Genuine",
          "associatedSiteId": 109929,
          "outfallName": "SHOREHAM NO1",
          "isImpacting": true,
          "overFlowSiteId": 115434
        },
        {
          "id": 344832203,
          "eventId": 626688,
          "siteUnitNumber": 12587,
          "bathingSite": "SOUTHWICK",
          "eventStart": "2022-09-01T19:45:30",
          "eventStop": "2022-09-01T21:29:10",
          "duration": 103,
          "status": "Genuine",
          "associatedSiteId": 109929,
          "outfallName": "SHOREHAM NO1",
          "isImpacting": true,
          "overFlowSiteId": 115434,
          "historicSpillsList": []
        },
        {
          "id": 344832204,
          "eventId": 626688,
          "siteUnitNumber": 12588,
          "bathingSite": "SHOREHAM BEACH",
          "eventStart": "2022-09-01T19:45:30",
          "eventStop": "2022-09-01T21:29:10",
          "duration": 103,
          "status": "Genuine",
          "associatedSiteId": 109929,
          "outfallName": "SHOREHAM NO1",
          "isImpacting": true,
          "overFlowSiteId": 115434,
          "historicSpillsList": []
        }
      ]
    },
    {
      "id": 344812663,
      "eventId": 625964,
      "siteUnitNumber": 12544,
      "bathingSite": "SHEERNESS",
      "eventStart": "2022-08-29T05:43:50",
      "eventStop": "2022-08-29T07:00:00",
      "duration": 76,
      "status": "Not Genuine",
      "associatedSiteId": 109614,
      "outfallName": "BRIELLE WAY WESTMINSTER",
      "isImpacting": true,
      "overFlowSiteId": 0,
      "historicSpillsList": []
    },
    {
      "id": 344854705,
      "eventId": 625628,
      "siteUnitNumber": 12614,
      "bathingSite": "TOTLAND BAY",
      "eventStart": "2022-08-27T07:22:40",
      "eventStop": "2022-08-27T08:30:00",
      "duration": 67,
      "status": "Not Genuine",
      "associatedSiteId": 116022,
      "outfallName": "HURST POINT VIEW TOTLAND",
      "isImpacting": true,
      "overFlowSiteId": 0,
      "historicSpillsList": []
    },
    {
      "id": 344823634,
      "eventId": 625312,
      "siteUnitNumber": 12604,
      "bathingSite": "SOUTHSEA EAST",
      "eventStart": "2022-08-25T19:20:47",
      "eventStop": "2022-08-26T04:55:00",
      "duration": 574,
      "status": "Genuine",
      "associatedSiteId": 109822,
      "outfallName": "PIER ROAD SOUTHSEA",
      "isImpacting": true,
      "overFlowSiteId": 0,
      "historicSpillsList": [
        {
          "id": 344823634,
          "eventId": 625312,
          "siteUnitNumber": 12604,
          "bathingSite": "SOUTHSEA EAST",
          "eventStart": "2022-08-25T19:20:47",
          "eventStop": "2022-08-26T04:55:00",
          "duration": 574,
          "status": "Genuine",
          "associatedSiteId": 109822,
          "outfallName": "PIER ROAD SOUTHSEA",
          "isImpacting": true,
          "overFlowSiteId": 108469
        },
        {
          "id": 344823635,
          "eventId": 625312,
          "siteUnitNumber": 12605,
          "bathingSite": "STOKES BAY",
          "eventStart": "2022-08-25T19:20:47",
          "eventStop": "2022-08-26T04:55:00",
          "duration": 574,
          "status": "Genuine",
          "associatedSiteId": 109822,
          "outfallName": "PIER ROAD SOUTHSEA",
          "isImpacting": true,
          "overFlowSiteId": 108469,
          "historicSpillsList": []
        }
      ]
    },
    {
      "id": 344841737,
      "eventId": 624788,
      "siteUnitNumber": 12622,
      "bathingSite": "WHITECLIFF BAY",
      "eventStart": "2022-08-25T06:02:00",
      "eventStop": "2022-08-25T19:15:00",
      "duration": 793,
      "status": "Genuine",
      "associatedSiteId": 110096,
      "outfallName": "SANDOWN NO1",
      "isImpacting": true,
      "overFlowSiteId": 0,
      "historicSpillsList": [
        {
          "id": 344841737,
          "eventId": 624788,
          "siteUnitNumber": 12622,
          "bathingSite": "WHITECLIFF BAY",
          "eventStart": "2022-08-25T06:02:00",
          "eventStop": "2022-08-25T19:15:00",
          "duration": 793,
          "status": "Genuine",
          "associatedSiteId": 110096,
          "outfallName": "SANDOWN NO1",
          "isImpacting": true,
          "overFlowSiteId": 115453
        },
        {
          "id": 344841739,
          "eventId": 624788,
          "siteUnitNumber": 12624,
          "bathingSite": "SANDOWN",
          "eventStart": "2022-08-25T06:02:00",
          "eventStop": "2022-08-25T19:15:00",
          "duration": 793,
          "status": "Genuine",
          "associatedSiteId": 110096,
          "outfallName": "SANDOWN NO1",
          "isImpacting": true,
          "overFlowSiteId": 115453,
          "historicSpillsList": []
        }
      ]
    },
    {
      "id": 344840149,
      "eventId": 624998,
      "siteUnitNumber": 12623,
      "bathingSite": "YAVERLAND",
      "eventStart": "2022-08-25T08:15:00",
      "eventStop": "2022-08-25T14:00:00",
      "duration": 345,
      "status": "Not Genuine",
      "associatedSiteId": 110029,
      "outfallName": "HOPE BEACH SHANKLIN NEW",
      "isImpacting": false,
      "overFlowSiteId": 0,
      "historicSpillsList": []
    },
    {
      "id": 344821028,
      "eventId": 624750,
      "siteUnitNumber": 12617,
      "bathingSite": "COWES",
      "eventStart": "2022-08-25T05:40:29",
      "eventStop": "2022-08-25T13:26:00",
      "duration": 465,
      "status": "Genuine",
      "associatedSiteId": 109777,
      "outfallName": "APPLEY PARK RYDE TRANSFER",
      "isImpacting": true,
      "overFlowSiteId": 0,
      "historicSpillsList": [
        {
          "id": 344821029,
          "eventId": 624750,
          "siteUnitNumber": 12618,
          "bathingSite": "RYDE",
          "eventStart": "2022-08-25T05:40:29",
          "eventStop": "2022-08-25T13:26:00",
          "duration": 465,
          "status": "Genuine",
          "associatedSiteId": 109777,
          "outfallName": "APPLEY PARK RYDE TRANSFER",
          "isImpacting": true,
          "overFlowSiteId": 108941,
          "historicSpillsList": []
        }
      ]
    },
    {
      "id": 344849059,
      "eventId": 624678,
      "siteUnitNumber": 12582,
      "bathingSite": "SEAFORD",
      "eventStart": "2022-08-25T04:45:31",
      "eventStop": "2022-08-25T13:03:21",
      "duration": 497,
      "status": "Genuine",
      "associatedSiteId": 110920,
      "outfallName": "NEWHAVEN",
      "isImpacting": false,
      "overFlowSiteId": 0,
      "historicSpillsList": []
    },
    {
      "id": 344830468,
      "eventId": 625175,
      "siteUnitNumber": 12576,
      "bathingSite": "ST LEONARDS",
      "eventStart": "2022-08-25T12:21:10",
      "eventStop": "2022-08-25T13:00:36",
      "duration": 39,
      "status": "Genuine",
      "associatedSiteId": 109903,
      "outfallName": "BEXHILL & HASTINGS NO2",
      "isImpacting": true,
      "overFlowSiteId": 0,
      "historicSpillsList": [
        {
          "id": 344830468,
          "eventId": 625175,
          "siteUnitNumber": 12576,
          "bathingSite": "ST LEONARDS",
          "eventStart": "2022-08-25T12:21:10",
          "eventStop": "2022-08-25T13:00:36",
          "duration": 39,
          "status": "Genuine",
          "associatedSiteId": 109903,
          "outfallName": "BEXHILL & HASTINGS NO2",
          "isImpacting": true,
          "overFlowSiteId": 115398
        },
        {
          "id": 344830469,
          "eventId": 625175,
          "siteUnitNumber": 12577,
          "bathingSite": "BEXHILL",
          "eventStart": "2022-08-25T12:21:10",
          "eventStop": "2022-08-25T13:00:36",
          "duration": 39,
          "status": "Genuine",
          "associatedSiteId": 109903,
          "outfallName": "BEXHILL & HASTINGS NO2",
          "isImpacting": true,
          "overFlowSiteId": 115398,
          "historicSpillsList": []
        }
      ]
    }
  ]
}