{
  "currentPage": 215,
  "totalItems": 21025,
  "totalPages": 841,
  "items": [
    {
      "id": 344775713,
      "eventId": 861464,
      "siteUnitNumber": 12616,
      "bathingSite": "GURNARD",
      "eventStart": "2023-09-20T14:49:10",
      "eventStop": "2023-09-20T21:10:00",
      "duration": 380,
      "status": "Genuine",
      "associatedSiteId": 109706,
      "outfallName": "HIGH STREET COWES",
      "isImpacting": false,
      "overFlowSiteId": 0,
      "historicSpillsList": []
    },
    {
      "id": 344780374,
      "eventId": 862421,
      "siteUnitNumber": 12661,
      "bathingSite": "LANGSTONE HARBOUR",
      "eventStart": "2023-09-20T20:16:00",
      "eventStop": "2023-09-20T21:07:00",
      "duration": 51,
      "status": "Genuine",
      "associatedSiteId": 109819,
      "outfallName": "COURT LANE COSHAM",
      "isImpacting": true,
      "overFlowSiteId": 0,
      "historicSpillsList": [
        {
          "id": 344780374,
          "eventId": 862421,
          "siteUnitNumber": 12661,
          "bathingSite": "LANGSTONE HARBOUR",
          "eventStart": "2023-09-20T20:16:00",
          "eventStop": "2023-09-20T21:07:00",
          "duration": 51,
          "status": "Genuine",
          "associatedSiteId": 109819,
          "outfallName": "COURT LANE COSHAM",
          "isImpacting": true,
          "overFlowSiteId": 115958
        }
      ]
    },
    {
      "id": 344770465,
      "eventId": 861537,
      "siteUnitNumber": 12616,
      "bathingSite": "GURNARD",
      "eventStart": "2023-09-20T17:26:39",
      "eventStop": "2023-09-20T21:02:00",
      "duration": 215,
      "status": "Genuine",
      "associatedSiteId": 109650,
      "outfallName": "MARSH ROAD GURNARD",
      "isImpacting": true,
      "overFlowSiteId": 0,
      "historicSpillsList": [
        {
          "id": 344770465,
          "eventId": 861537,
          "siteUnitNumber": 12616,
          "bathingSite": "GURNARD",
          "eventStart": "2023-09-20T17:26:39",
          "eventStop": "2023-09-20T21:02:00",
          "duration": 215,
          "status": "Genuine",
          "associatedSiteId": 109650,
          "outfallName": "MARSH ROAD GURNARD",
          "isImpacting": true,
          "overFlowSiteId": 107441
        }
      ]
    },
    {
      "id": 344795127,
      "eventId": 861829,
      "siteUnitNumber": 12591,
      "bathingSite": "LITTLEHAMPTON",
      "eventStart": "2023-09-20T19:42:45",
      "eventStop": "2023-09-20T21:01:00",
      "duration": 78,
      "status": "Genuine",
      "associatedSiteId": 109968,
      "outfallName": "FORD ROAD ARUNDEL",
      "isImpacting": true,
      "overFlowSiteId": 0,
      "historicSpillsList": [
        {
          "id": 344795127,
          "eventId": 861829,
          "siteUnitNumber": 12591,
          "bathingSite": "LITTLEHAMPTON",
          "eventStart": "2023-09-20T19:42:45",
          "eventStop": "2023-09-20T21:01:00",
          "duration": 78,
          "status": "Genuine",
          "associatedSiteId": 109968,
          "outfallName": "FORD ROAD ARUNDEL",
          "isImpacting": true,
          "overFlowSiteId": 108002
        }
      ]
    },
    {
      "id": 344797407,
      "eventId": 861838,
      "siteUnitNumber": 12623,
      "bathingSite": "YAVERLAND",
      "eventStart": "2023-09-20T20:05:35",
      "eventStop": "2023-09-20T20:56:00",
      "duration": 50,
      "status": "Genuine",
      "associatedSiteId": 110029,
      "outfallName": "HOPE BEACH SHANKLIN NEW",
      "isImpacting": false,
      "overFlowSiteId": 0,
      "historicSpillsList": []
    },
    {
      "id": 344780328,
      "eventId": 861836,
      "siteUnitNumber": 12661,
      "bathingSite": "LANGSTONE HARBOUR",
      "eventStart": "2023-09-20T20:04:56",
      "eventStop": "2023-09-20T20:56:00",
      "duration": 51,
      "status": "Genuine",
      "associatedSiteId": 109818,
      "outfallName": "KIRTLEY CLOSE DRAYTON",
      "isImpacting": true,
      "overFlowSiteId": 0,
      "historicSpillsList": [
        {
          "id": 344780328,
          "eventId": 861836,
          "siteUnitNumber": 12661,
          "bathingSite": "LANGSTONE HARBOUR",
          "eventStart": "2023-09-20T20:04:56",
          "eventStop": "2023-09-20T20:56:00",
          "duration": 51,
          "status": "Genuine",
          "associatedSiteId": 109818,
          "outfallName": "KIRTLEY CLOSE DRAYTON",
          "isImpacting": true,
          "overFlowSiteId": 108774
        }
      ]
    },
    {
      "id": 344779385,
      "eventId": 862494,
      "siteUnitNumber": 12618,
      "bathingSite": "RYDE",
      "eventStart": "2023-09-20T20:22:00",
      "eventStop": "2023-09-20T20:49:00",
      "duration": 27,
      "status": "Genuine",
      "associatedSiteId": 109780,
      "outfallName": "LADIES WALK BINSTEAD",
      "isImpacting": true,
      "overFlowSiteId": 0,
      "historicSpillsList": [
        {
          "id": 344779385,
          "eventId": 862494,
          "siteUnitNumber": 12618,
          "bathingSite": "RYDE",
          "eventStart": "2023-09-20T20:22:00",
          "eventStop": "2023-09-20T20:49:00",
          "duration": 27,
          "status": "Genuine",
          "associatedSiteId": 109780,
          "outfallName": "LADIES WALK BINSTEAD",
          "isImpacting": true,
          "overFlowSiteId": 107406
        }
      ]
    },
    {
      "id": 344792664,
      "eventId": 861552,
      "siteUnitNumber": 12594,
      "bathingSite": "BOGNOR REGIS EAST",
      "eventStart": "2023-09-20T17:45:00",
      "eventStop": "2023-09-20T20:45:00",
      "duration": 180,
      "status": "Genuine",
      "associatedSiteId": 109959,
      "outfallName": "WEST PARK BOGNOR REGIS",
      "isImpacting": false,
      "overFlowSiteId": 0,
      "historicSpillsList": []
    },
    {
      "id": 344797753,
      "eventId": 861846,
      "siteUnitNumber": 12582,
      "bathingSite": "SEAFORD",
      "eventStart": "2023-09-20T20:18:54",
      "eventStop": "2023-09-20T20:37:19",
      "duration": 18,
      "status": "Genuine",
      "associatedSiteId": 110047,
      "outfallName": "CLIFF END SEAFORD",
      "isImpacting": true,
      "overFlowSiteId": 0,
      "historicSpillsList": [
        {
          "id": 344797753,
          "eventId": 861846,
          "siteUnitNumber": 12582,
          "bathingSite": "SEAFORD",
          "eventStart": "2023-09-20T20:18:54",
          "eventStop": "2023-09-20T20:37:19",
          "duration": 18,
          "status": "Genuine",
          "associatedSiteId": 110047,
          "outfallName": "CLIFF END SEAFORD",
          "isImpacting": true,
          "overFlowSiteId": 101257
        }
      ]
    },
    {
      "id": 344772377,
      "eventId": 861771,
      "siteUnitNumber": 12615,
      "bathingSite": "COLWELL BAY",
      "eventStart": "2023-09-20T19:32:00",
      "eventStop": "2023-09-20T20:32:00",
      "duration": 60,
      "status": "Genuine",
      "associatedSiteId": 109658,
      "outfallName": "MONKS LANE LINSTONE CHINE",
      "isImpacting": false,
      "overFlowSiteId": 0,
      "historicSpillsList": []
    },
    {
      "id": 344786940,
      "eventId": 861839,
      "siteUnitNumber": 12576,
      "bathingSite": "ST LEONARDS",
      "eventStart": "2023-09-20T20:06:13",
      "eventStop": "2023-09-20T20:30:00",
      "duration": 23,
      "status": "Genuine",
      "associatedSiteId": 109903,
      "outfallName": "BEXHILL & HASTINGS NO2",
      "isImpacting": true,
      "overFlowSiteId": 0,
      "historicSpillsList": [
        {
          "id": 344786940,
          "eventId": 861839,
          "siteUnitNumber": 12576,
          "bathingSite": "ST LEONARDS",
          "eventStart": "2023-09-20T20:06:13",
          "eventStop": "2023-09-20T20:30:00",
          "duration": 23,
          "status": "Genuine",
          "associatedSiteId": 109903,
          "outfallName": "BEXHILL & HASTINGS NO2",
          "isImpacting": true,
          "overFlowSiteId": 115398
        },
        {
          "id": 344786941,
          "eventId": 861839,
          "siteUnitNumber": 12577,
          "bathingSite": "BEXHILL",
          "eventStart": "2023-09-20T20:06:13",
          "eventStop": "2023-09-20T20:30:00",
          "duration": 23,
          "status": "Genuine",
          "associatedSiteId": 109903,
          "outfallName": "BEXHILL & HASTINGS NO2",
          "isImpacting": true,
          "overFlowSiteId": 115398,
          "historicSpillsList": []
        }
      ]
    },
    {
      "id": 344774769,
      "eventId": 861369,
      "siteUnitNumber": 12616,
      "bathingSite": "GURNARD",
      "eventStart": "2023-09-20T15:06:00",
      "eventStop": "2023-09-20T20:25:00",
      "duration": 319,
      "status": "Genuine",
      "associatedSiteId": 109704,
      "outfallName": "EGYPT POINT COWES",
      "isImpacting": true,
      "overFlowSiteId": 0,
      "historicSpillsList": [
        {
          "id": 344774770,
          "eventId": 861369,
          "siteUnitNumber": 12617,
          "bathingSite": "COWES",
          "eventStart": "2023-09-20T15:06:00",
          "eventStop": "2023-09-20T20:25:00",
          "duration": 319,
          "status": "Genuine",
          "associatedSiteId": 109704,
          "outfallName": "EGYPT POINT COWES",
          "isImpacting": true,
          "overFlowSiteId": 116213,
          "historicSpillsList": []
        }
      ]
    },
    {
      "id": 344804805,
      "eventId": 861358,
      "siteUnitNumber": 12616,
      "bathingSite": "GURNARD",
      "eventStart": "2023-09-20T14:29:00",
      "eventStop": "2023-09-20T20:25:00",
      "duration": 356,
      "status": "Genuine",
      "associatedSiteId": 110701,
      "outfallName": "TERMINUS ROAD COWES 2",
      "isImpacting": true,
      "overFlowSiteId": 0,
      "historicSpillsList": [
        {
          "id": 344804805,
          "eventId": 861358,
          "siteUnitNumber": 12616,
          "bathingSite": "GURNARD",
          "eventStart": "2023-09-20T14:29:00",
          "eventStop": "2023-09-20T20:25:00",
          "duration": 356,
          "status": "Genuine",
          "associatedSiteId": 110701,
          "outfallName": "TERMINUS ROAD COWES 2",
          "isImpacting": true,
          "overFlowSiteId": 108563
        },
        {
          "id": 344804806,
          "eventId": 861358,
          "siteUnitNumber": 12617,
          "bathingSite": "COWES",
          "eventStart": "2023-09-20T14:29:00",
          "eventStop": "2023-09-20T20:25:00",
          "duration": 356,
          "status": "Genuine",
          "associatedSiteId": 110701,
          "outfallName": "TERMINUS ROAD COWES 2",
          "isImpacting": true,
          "overFlowSiteId": 108563,
          "historicSpillsList": []
        }
      ]
    },
    {
      "id": 344779387,
      "eventId": 861811,
      "siteUnitNumber": 12618,
      "bathingSite": "RYDE",
      "eventStart": "2023-09-20T19:59:00",
      "eventStop": "2023-09-20T20:21:00",
      "duration": 22,
      "status": "Genuine",
      "associatedSiteId": 109780,
      "outfallName": "LADIES WALK BINSTEAD",
      "isImpacting": true,
      "overFlowSiteId": 0,
      "historicSpillsList": [
        {
          "id": 344779387,
          "eventId": 861811,
          "siteUnitNumber": 12618,
          "bathingSite": "RYDE",
          "eventStart": "2023-09-20T19:59:00",
          "eventStop": "2023-09-20T20:21:00",
          "duration": 22,
          "status": "Genuine",
          "associatedSiteId": 109780,
          "outfallName": "LADIES WALK BINSTEAD",
          "isImpacting": true,
          "overFlowSiteId": 107406
        }
      ]
    },
    {
      "id": 344797138,
      "eventId": 861759,
      "siteUnitNumber": 12625,
      "bathingSite": "SHANKLIN",
      "eventStart": "2023-09-20T19:55:23",
      "eventStop": "2023-09-20T20:20:54",
      "duration": 25,
      "status": "Genuine",
      "associatedSiteId": 110024,
      "outfallName": "EASTERN GARDENS SANDOWN",
      "isImpacting": true,
      "overFlowSiteId": 0,
      "historicSpillsList": [
        {
          "id": 344797138,
          "eventId": 861759,
          "siteUnitNumber": 12625,
          "bathingSite": "SHANKLIN",
          "eventStart": "2023-09-20T19:55:23",
          "eventStop": "2023-09-20T20:20:54",
          "duration": 25,
          "status": "Genuine",
          "associatedSiteId": 110024,
          "outfallName": "EASTERN GARDENS SANDOWN",
          "isImpacting": true,
          "overFlowSiteId": 108039
        },
        {
          "id": 344797139,
          "eventId": 861759,
          "siteUnitNumber": 12623,
          "bathingSite": "YAVERLAND",
          "eventStart": "2023-09-20T19:55:23",
          "eventStop": "2023-09-20T20:20:54",
          "duration": 25,
          "status": "Genuine",
          "associatedSiteId": 110024,
          "outfallName": "EASTERN GARDENS SANDOWN",
          "isImpacting": true,
          "overFlowSiteId": 108039,
          "historicSpillsList": []
        },
        {
          "id": 344797140,
          "eventId": 861759,
          "siteUnitNumber": 12624,
          "bathingSite": "SANDOWN",
          "eventStart": "2023-09-20T19:55:23",
          "eventStop": "2023-09-20T20:20:54",
          "duration": 25,
          "status": "Genuine",
          "associatedSiteId": 110024,
          "outfallName": "EASTERN GARDENS SANDOWN",
          "isImpacting": true,
          "overFlowSiteId": 108039,
          "historicSpillsList": []
        }
      ]
    },
    {
      "id": 344772211,
      "eventId": 861689,
      "siteUnitNumber": 12614,
      "bathingSite": "TOTLAND BAY",
      "eventStart": "2023-09-20T19:07:00",
      "eventStop": "2023-09-20T20:16:00",
      "duration": 69,
      "status": "Genuine",
      "associatedSiteId": 109657,
      "outfallName": "THE PROMENADE TOTLAND PIER NO2",
      "isImpacting": false,
      "overFlowSiteId": 0,
      "historicSpillsList": []
    },
    {
      "id": 344769730,
      "eventId": 861808,
      "siteUnitNumber": 12618,
      "bathingSite": "RYDE",
      "eventStart": "2023-09-20T19:54:28",
      "eventStop": "2023-09-20T20:15:00",
      "duration": 20,
      "status": "Genuine",
      "associatedSiteId": 102050,
      "outfallName": "ESPLANADE SEAVIEW",
      "isImpacting": false,
      "overFlowSiteId": 0,
      "historicSpillsList": []
    },
    {
      "id": 344781613,
      "eventId": 861802,
      "siteUnitNumber": 12548,
      "bathingSite": "TANKERTON",
      "eventStart": "2023-09-20T19:52:18",
      "eventStop": "2023-09-20T20:14:47",
      "duration": 22,
      "status": "Genuine",
      "associatedSiteId": 109830,
      "outfallName": "SWALECLIFFE NO1",
      "isImpacting": false,
      "overFlowSiteId": 0,
      "historicSpillsList": []
    },
    {
      "id": 344780428,
      "eventId": 861760,
      "siteUnitNumber": 12661,
      "bathingSite": "LANGSTONE HARBOUR",
      "eventStart": "2023-09-20T20:01:00",
      "eventStop": "2023-09-20T20:03:00",
      "duration": 2,
      "status": "Genuine",
      "associatedSiteId": 109820,
      "outfallName": "ST ANDREWS ROAD PORTSMOUTH",
      "isImpacting": true,
      "overFlowSiteId": 0,
      "historicSpillsList": [
        {
          "id": 344780428,
          "eventId": 861760,
          "siteUnitNumber": 12661,
          "bathingSite": "LANGSTONE HARBOUR",
          "eventStart": "2023-09-20T20:01:00",
          "eventStop": "2023-09-20T20:03:00",
          "duration": 2,
          "status": "Genuine",
          "associatedSiteId": 109820,
          "outfallName": "ST ANDREWS ROAD PORTSMOUTH",
          "isImpacting": true,
          "overFlowSiteId": 108474
        }
      ]
    },
    {
      "id": 344779475,
      "eventId": 861511,
      "siteUnitNumber": 12618,
      "bathingSite": "RYDE",
      "eventStart": "2023-09-20T19:38:00",
      "eventStop": "2023-09-20T20:03:00",
      "duration": 25,
      "status": "Genuine",
      "associatedSiteId": 109781,
      "outfallName": "SPENCER ROAD RYDE",
      "isImpacting": true,
      "overFlowSiteId": 0,
      "historicSpillsList": [
        {
          "id": 344779475,
          "eventId": 861511,
          "siteUnitNumber": 12618,
          "bathingSite": "RYDE",
          "eventStart": "2023-09-20T19:38:00",
          "eventStop": "2023-09-20T20:03:00",
          "duration": 25,
          "status": "Genuine",
          "associatedSiteId": 109781,
          "outfallName": "SPENCER ROAD RYDE",
          "isImpacting": true,
          "overFlowSiteId": 108566
        }
      ]
    },
    {
      "id": 344779482,
      "eventId": 861798,
      "siteUnitNumber": 12618,
      "bathingSite": "RYDE",
      "eventStart": "2023-09-20T19:46:33",
      "eventStop": "2023-09-20T20:00:46",
      "duration": 14,
      "status": "Genuine",
      "associatedSiteId": 109782,
      "outfallName": "AUGUSTA ROAD RYDE",
      "isImpacting": true,
      "overFlowSiteId": 0,
      "historicSpillsList": [
        {
          "id": 344779482,
          "eventId": 861798,
          "siteUnitNumber": 12618,
          "bathingSite": "RYDE",
          "eventStart": "2023-09-20T19:46:33",
          "eventStop": "2023-09-20T20:00:46",
          "duration": 14,
          "status": "Genuine",
          "associatedSiteId": 109782,
          "outfallName": "AUGUSTA ROAD RYDE",
          "isImpacting": true,
          "overFlowSiteId": 102348
        }
      ]
    },
    {
      "id": 344786938,
      "eventId": 861679,
      "siteUnitNumber": 12576,
      "bathingSite": "ST LEONARDS",
      "eventStart": "2023-09-20T18:35:22",
      "eventStop": "2023-09-20T20:00:00",
      "duration": 84,
      "status": "Genuine",
      "associatedSiteId": 109903,
      "outfallName": "BEXHILL & HASTINGS NO2",
      "isImpacting": true,
      "overFlowSiteId": 0,
      "historicSpillsList": [
        {
          "id": 344786938,
          "eventId": 861679,
          "siteUnitNumber": 12576,
          "bathingSite": "ST LEONARDS",
          "eventStart": "2023-09-20T18:35:22",
          "eventStop": "2023-09-20T20:00:00",
          "duration": 84,
          "status": "Genuine",
          "associatedSiteId": 109903,
          "outfallName": "BEXHILL & HASTINGS NO2",
          "isImpacting": true,
          "overFlowSiteId": 115398
        },
        {
          "id": 344786939,
          "eventId": 861679,
          "siteUnitNumber": 12577,
          "bathingSite": "BEXHILL",
          "eventStart": "2023-09-20T18:35:22",
          "eventStop": "2023-09-20T20:00:00",
          "duration": 84,
          "status": "Genuine",
          "associatedSiteId": 109903,
          "outfallName": "BEXHILL & HASTINGS NO2",
          "isImpacting": true,
          "overFlowSiteId": 115398,
          "historicSpillsList": []
        }
      ]
    },
    {
      "id": 344780201,
      "eventId": 861597,
      "siteUnitNumber": 12610,
      "bathingSite": "MILFORD-ON-SEA",
      "eventStart": "2023-09-20T19:27:00",
      "eventStop": "2023-09-20T19:55:00",
      "duration": 28,
      "status": "Genuine",
      "associatedSiteId": 109801,
      "outfallName": "BECTON LANE BARTON ON SEA",
      "isImpacting": false,
      "overFlowSiteId": 0,
      "historicSpillsList": []
    },
    {
      "id": 344772417,
      "eventId": 861728,
      "siteUnitNumber": 12615,
      "bathingSite": "COLWELL BAY",
      "eventStart": "2023-09-20T19:04:00",
      "eventStop": "2023-09-20T19:52:00",
      "duration": 48,
      "status": "Genuine",
      "associatedSiteId": 109663,
      "outfallName": "THE INSTITUTE YARMOUTH NO1",
      "isImpacting": false,
      "overFlowSiteId": 0,
      "historicSpillsList": []
    },
    {
      "id": 344773737,
      "eventId": 861775,
      "siteUnitNumber": 12616,
      "bathingSite": "GURNARD",
      "eventStart": "2023-09-20T19:32:17",
      "eventStop": "2023-09-20T19:47:06",
      "duration": 14,
      "status": "Genuine",
      "associatedSiteId": 109700,
      "outfallName": "MARKET HILL COWES",
      "isImpacting": false,
      "overFlowSiteId": 0,
      "historicSpillsList": []
    }
  ]
}