{
  "currentPage": 413,
  "totalItems": 21025,
  "totalPages": 841,
  "items": [
    {
      "id": 344791598,
      "eventId": 711570,
      "siteUnitNumber": 12582,
      "bathingSite": "SEAFORD",
      "eventStart": "2022-12-30T08:38:01",
      "eventStop": "2022-12-30T11:45:00",
      "duration": 186,
      "status": "Genuine",
      "associatedSiteId": 109957,
      "outfallName": "PORTOBELLO BRIGHTON NO2",
      "isImpacting": false,
      "overFlowSiteId": 0,
      "historicSpillsList": []
    },
    {
      "id": 344779395,
      "eventId": 717888,
      "siteUnitNumber": 12618,
      "bathingSite": "RYDE",
      "eventStart": "2022-12-30T09:06:00",
      "eventStop": "2022-12-30T11:37:00",
      "duration": 151,
      "status": "Genuine",
      "associatedSiteId": 109780,
      "outfallName": "LADIES WALK BINSTEAD",
      "isImpacting": true,
      "overFlowSiteId": 0,
      "historicSpillsList": [
        {
          "id": 344779395,
          "eventId": 717888,
          "siteUnitNumber": 12618,
          "bathingSite": "RYDE",
          "eventStart": "2022-12-30T09:06:00",
          "eventStop": "2022-12-30T11:37:00",
          "duration": 151,
          "status": "Genuine",
          "associatedSiteId": 109780,
          "outfallName": "LADIES WALK BINSTEAD",
          "isImpacting": true,
          "overFlowSiteId": 107406
        }
      ]
    },
    {
      "id": 344769835,
      "eventId": 711761,
      "siteUnitNumber": 12618,
      "bathingSite": "RYDE",
      "eventStart": "2022-12-30T09:47:00",
      "eventStop": "2022-12-30T11:32:00",
      "duration": 105,
      "status": "Genuine",
      "associatedSiteId": 102971,
      "outfallName": "SPRING VALE",
      "isImpacting": false,
      "overFlowSiteId": 0,
      "historicSpillsList": []
    },
    {
      "id": 344780962,
      "eventId": 711506,
      "siteUnitNumber": 12605,
      "bathingSite": "STOKES BAY",
      "eventStart": "2022-12-30T08:12:09",
      "eventStop": "2022-12-30T11:24:00",
      "duration": 191,
      "status": "Genuine",
      "associatedSiteId": 109822,
      "outfallName": "PIER ROAD SOUTHSEA",
      "isImpacting": true,
      "overFlowSiteId": 0,
      "historicSpillsList": [
        {
          "id": 344780962,
          "eventId": 711506,
          "siteUnitNumber": 12605,
          "bathingSite": "STOKES BAY",
          "eventStart": "2022-12-30T08:12:09",
          "eventStop": "2022-12-30T11:24:00",
          "duration": 191,
          "status": "Genuine",
          "associatedSiteId": 109822,
          "outfallName": "PIER ROAD SOUTHSEA",
          "isImpacting": true,
          "overFlowSiteId": 108469
        },
        {
          "id": 344780963,
          "eventId": 711506,
          "siteUnitNumber": 12604,
          "bathingSite": "SOUTHSEA EAST",
          "eventStart": "2022-12-30T08:12:09",
          "eventStop": "2022-12-30T11:24:00",
          "duration": 191,
          "status": "Genuine",
          "associatedSiteId": 109822,
          "outfallName": "PIER ROAD SOUTHSEA",
          "isImpacting": true,
          "overFlowSiteId": 108469,
          "historicSpillsList": []
        }
      ]
    },
    {
      "id": 344776231,
      "eventId": 711768,
      "siteUnitNumber": 12606,
      "bathingSite": "LEE-ON-SOLENT",
      "eventStart": "2022-12-30T09:48:17",
      "eventStop": "2022-12-30T11:23:53",
      "duration": 95,
      "status": "Genuine",
      "associatedSiteId": 109715,
      "outfallName": "SALTERNS ROAD HILL HEAD",
      "isImpacting": true,
      "overFlowSiteId": 0,
      "historicSpillsList": [
        {
          "id": 344776232,
          "eventId": 711768,
          "siteUnitNumber": 12607,
          "bathingSite": "HILLHEAD",
          "eventStart": "2022-12-30T09:48:17",
          "eventStop": "2022-12-30T11:23:53",
          "duration": 95,
          "status": "Genuine",
          "associatedSiteId": 109715,
          "outfallName": "SALTERNS ROAD HILL HEAD",
          "isImpacting": true,
          "overFlowSiteId": 108441,
          "historicSpillsList": []
        }
      ]
    },
    {
      "id": 344806802,
      "eventId": 711778,
      "siteUnitNumber": 12617,
      "bathingSite": "COWES",
      "eventStart": "2022-12-30T09:53:29",
      "eventStop": "2022-12-30T11:13:08",
      "duration": 79,
      "status": "Genuine",
      "associatedSiteId": 111069,
      "outfallName": "MEDHAM FARM NORTHWOOD",
      "isImpacting": false,
      "overFlowSiteId": 0,
      "historicSpillsList": []
    },
    {
      "id": 344790026,
      "eventId": 711708,
      "siteUnitNumber": 12581,
      "bathingSite": "BIRLING GAP",
      "eventStart": "2022-12-30T09:27:37",
      "eventStop": "2022-12-30T10:57:44",
      "duration": 90,
      "status": "Not Genuine",
      "associatedSiteId": 109936,
      "outfallName": "EAST DEAN",
      "isImpacting": false,
      "overFlowSiteId": 0,
      "historicSpillsList": []
    },
    {
      "id": 344774393,
      "eventId": 711799,
      "siteUnitNumber": 12616,
      "bathingSite": "GURNARD",
      "eventStart": "2022-12-30T10:22:23",
      "eventStop": "2022-12-30T10:55:20",
      "duration": 32,
      "status": "Genuine",
      "associatedSiteId": 109702,
      "outfallName": "ALBANY ROAD EAST COWES",
      "isImpacting": false,
      "overFlowSiteId": 0,
      "historicSpillsList": []
    },
    {
      "id": 344780276,
      "eventId": 711620,
      "siteUnitNumber": 12661,
      "bathingSite": "LANGSTONE HARBOUR",
      "eventStart": "2022-12-30T09:04:00",
      "eventStop": "2022-12-30T10:40:00",
      "duration": 96,
      "status": "Genuine",
      "associatedSiteId": 109817,
      "outfallName": "MAINLAND DRAYTON",
      "isImpacting": true,
      "overFlowSiteId": 0,
      "historicSpillsList": [
        {
          "id": 344780276,
          "eventId": 711620,
          "siteUnitNumber": 12661,
          "bathingSite": "LANGSTONE HARBOUR",
          "eventStart": "2022-12-30T09:04:00",
          "eventStop": "2022-12-30T10:40:00",
          "duration": 96,
          "status": "Genuine",
          "associatedSiteId": 109817,
          "outfallName": "MAINLAND DRAYTON",
          "isImpacting": true,
          "overFlowSiteId": 115960
        }
      ]
    },
    {
      "id": 344772427,
      "eventId": 711667,
      "siteUnitNumber": 12615,
      "bathingSite": "COLWELL BAY",
      "eventStart": "2022-12-30T09:15:00",
      "eventStop": "2022-12-30T10:39:00",
      "duration": 84,
      "status": "Genuine",
      "associatedSiteId": 109663,
      "outfallName": "THE INSTITUTE YARMOUTH NO1",
      "isImpacting": false,
      "overFlowSiteId": 0,
      "historicSpillsList": []
    },
    {
      "id": 344772173,
      "eventId": 711734,
      "siteUnitNumber": 12616,
      "bathingSite": "GURNARD",
      "eventStart": "2022-12-30T09:47:56",
      "eventStop": "2022-12-30T10:30:00",
      "duration": 42,
      "status": "Not Genuine",
      "associatedSiteId": 109654,
      "outfallName": "WHITFORD BRIDGE NORTHWOOD",
      "isImpacting": true,
      "overFlowSiteId": 0,
      "historicSpillsList": []
    },
    {
      "id": 344773893,
      "eventId": 712365,
      "siteUnitNumber": 12616,
      "bathingSite": "GURNARD",
      "eventStart": "2022-12-30T07:34:00",
      "eventStop": "2022-12-30T10:29:00",
      "duration": 175,
      "status": "Genuine",
      "associatedSiteId": 109700,
      "outfallName": "MARKET HILL COWES",
      "isImpacting": false,
      "overFlowSiteId": 0,
      "historicSpillsList": []
    },
    {
      "id": 344769838,
      "eventId": 711584,
      "siteUnitNumber": 12618,
      "bathingSite": "RYDE",
      "eventStart": "2022-12-30T08:58:00",
      "eventStop": "2022-12-30T10:25:00",
      "duration": 87,
      "status": "Genuine",
      "associatedSiteId": 102971,
      "outfallName": "SPRING VALE",
      "isImpacting": false,
      "overFlowSiteId": 0,
      "historicSpillsList": []
    },
    {
      "id": 344795823,
      "eventId": 712009,
      "siteUnitNumber": 12591,
      "bathingSite": "LITTLEHAMPTON",
      "eventStart": "2022-12-30T06:17:23",
      "eventStop": "2022-12-30T10:00:00",
      "duration": 222,
      "status": "Genuine",
      "associatedSiteId": 109977,
      "outfallName": "FORESHORE TANK LITTLEHAMPTON",
      "isImpacting": true,
      "overFlowSiteId": 0,
      "historicSpillsList": [
        {
          "id": 344795823,
          "eventId": 712009,
          "siteUnitNumber": 12591,
          "bathingSite": "LITTLEHAMPTON",
          "eventStart": "2022-12-30T06:17:23",
          "eventStop": "2022-12-30T10:00:00",
          "duration": 222,
          "status": "Genuine",
          "associatedSiteId": 109977,
          "outfallName": "FORESHORE TANK LITTLEHAMPTON",
          "isImpacting": true,
          "overFlowSiteId": 109390
        }
      ]
    },
    {
      "id": 344774395,
      "eventId": 711545,
      "siteUnitNumber": 12616,
      "bathingSite": "GURNARD",
      "eventStart": "2022-12-30T08:38:47",
      "eventStop": "2022-12-30T09:18:19",
      "duration": 39,
      "status": "Genuine",
      "associatedSiteId": 109702,
      "outfallName": "ALBANY ROAD EAST COWES",
      "isImpacting": false,
      "overFlowSiteId": 0,
      "historicSpillsList": []
    },
    {
      "id": 344779400,
      "eventId": 711578,
      "siteUnitNumber": 12618,
      "bathingSite": "RYDE",
      "eventStart": "2022-12-30T08:49:00",
      "eventStop": "2022-12-30T09:05:00",
      "duration": 16,
      "status": "Genuine",
      "associatedSiteId": 109780,
      "outfallName": "LADIES WALK BINSTEAD",
      "isImpacting": true,
      "overFlowSiteId": 0,
      "historicSpillsList": [
        {
          "id": 344779400,
          "eventId": 711578,
          "siteUnitNumber": 12618,
          "bathingSite": "RYDE",
          "eventStart": "2022-12-30T08:49:00",
          "eventStop": "2022-12-30T09:05:00",
          "duration": 16,
          "status": "Genuine",
          "associatedSiteId": 109780,
          "outfallName": "LADIES WALK BINSTEAD",
          "isImpacting": true,
          "overFlowSiteId": 107406
        }
      ]
    },
    {
      "id": 344783383,
      "eventId": 711536,
      "siteUnitNumber": 12662,
      "bathingSite": "CHICHESTER HARBOUR",
      "eventStart": "2022-12-30T08:26:02",
      "eventStop": "2022-12-30T08:45:00",
      "duration": 18,
      "status": "Not Genuine",
      "associatedSiteId": 109836,
      "outfallName": "CHICHESTER",
      "isImpacting": true,
      "overFlowSiteId": 0,
      "historicSpillsList": []
    },
    {
      "id": 344794699,
      "eventId": 718178,
      "siteUnitNumber": 12591,
      "bathingSite": "LITTLEHAMPTON",
      "eventStart": "2022-12-30T07:50:00",
      "eventStop": "2022-12-30T08:10:00",
      "duration": 20,
      "status": "Genuine",
      "associatedSiteId": 109965,
      "outfallName": "SEA ROAD LITTLEHAMPTON",
      "isImpacting": false,
      "overFlowSiteId": 0,
      "historicSpillsList": []
    },
    {
      "id": 344794698,
      "eventId": 718177,
      "siteUnitNumber": 12591,
      "bathingSite": "LITTLEHAMPTON",
      "eventStart": "2022-12-30T06:11:00",
      "eventStop": "2022-12-30T07:07:00",
      "duration": 56,
      "status": "Genuine",
      "associatedSiteId": 109965,
      "outfallName": "SEA ROAD LITTLEHAMPTON",
      "isImpacting": false,
      "overFlowSiteId": 0,
      "historicSpillsList": []
    },
    {
      "id": 344802041,
      "eventId": 711394,
      "siteUnitNumber": 12619,
      "bathingSite": "SEAGROVE",
      "eventStart": "2022-12-30T06:00:34",
      "eventStop": "2022-12-30T06:41:46",
      "duration": 41,
      "status": "Genuine",
      "associatedSiteId": 110097,
      "outfallName": "SANDOWN NO2",
      "isImpacting": true,
      "overFlowSiteId": 0,
      "historicSpillsList": [
        {
          "id": 344802034,
          "eventId": 711394,
          "siteUnitNumber": 12623,
          "bathingSite": "YAVERLAND",
          "eventStart": "2022-12-30T06:00:34",
          "eventStop": "2022-12-30T06:41:46",
          "duration": 41,
          "status": "Genuine",
          "associatedSiteId": 110097,
          "outfallName": "SANDOWN NO2",
          "isImpacting": true,
          "overFlowSiteId": 115454,
          "historicSpillsList": []
        },
        {
          "id": 344802035,
          "eventId": 711394,
          "siteUnitNumber": 12624,
          "bathingSite": "SANDOWN",
          "eventStart": "2022-12-30T06:00:34",
          "eventStop": "2022-12-30T06:41:46",
          "duration": 41,
          "status": "Genuine",
          "associatedSiteId": 110097,
          "outfallName": "SANDOWN NO2",
          "isImpacting": true,
          "overFlowSiteId": 115454,
          "historicSpillsList": []
        },
        {
          "id": 344802036,
          "eventId": 711394,
          "siteUnitNumber": 12625,
          "bathingSite": "SHANKLIN",
          "eventStart": "2022-12-30T06:00:34",
          "eventStop": "2022-12-30T06:41:46",
          "duration": 41,
          "status": "Genuine",
          "associatedSiteId": 110097,
          "outfallName": "SANDOWN NO2",
          "isImpacting": true,
          "overFlowSiteId": 115454,
          "historicSpillsList": []
        }
      ]
    },
    {
      "id": 344795826,
      "eventId": 708001,
      "siteUnitNumber": 12591,
      "bathingSite": "LITTLEHAMPTON",
      "eventStart": "2022-12-27T19:05:57",
      "eventStop": "2022-12-30T06:12:47",
      "duration": 3546,
      "status": "Genuine",
      "associatedSiteId": 109977,
      "outfallName": "FORESHORE TANK LITTLEHAMPTON",
      "isImpacting": true,
      "overFlowSiteId": 0,
      "historicSpillsList": [
        {
          "id": 344795826,
          "eventId": 708001,
          "siteUnitNumber": 12591,
          "bathingSite": "LITTLEHAMPTON",
          "eventStart": "2022-12-27T19:05:57",
          "eventStop": "2022-12-30T06:12:47",
          "duration": 3546,
          "status": "Genuine",
          "associatedSiteId": 109977,
          "outfallName": "FORESHORE TANK LITTLEHAMPTON",
          "isImpacting": true,
          "overFlowSiteId": 109390
        }
      ]
    },
    {
      "id": 344773895,
      "eventId": 711554,
      "siteUnitNumber": 12616,
      "bathingSite": "GURNARD",
      "eventStart": "2022-12-30T05:24:33",
      "eventStop": "2022-12-30T06:04:00",
      "duration": 39,
      "status": "Genuine",
      "associatedSiteId": 109700,
      "outfallName": "MARKET HILL COWES",
      "isImpacting": false,
      "overFlowSiteId": 0,
      "historicSpillsList": []
    },
    {
      "id": 344802038,
      "eventId": 711350,
      "siteUnitNumber": 12623,
      "bathingSite": "YAVERLAND",
      "eventStart": "2022-12-30T04:49:49",
      "eventStop": "2022-12-30T05:40:32",
      "duration": 50,
      "status": "Genuine",
      "associatedSiteId": 110097,
      "outfallName": "SANDOWN NO2",
      "isImpacting": true,
      "overFlowSiteId": 0,
      "historicSpillsList": [
        {
          "id": 344802038,
          "eventId": 711350,
          "siteUnitNumber": 12623,
          "bathingSite": "YAVERLAND",
          "eventStart": "2022-12-30T04:49:49",
          "eventStop": "2022-12-30T05:40:32",
          "duration": 50,
          "status": "Genuine",
          "associatedSiteId": 110097,
          "outfallName": "SANDOWN NO2",
          "isImpacting": true,
          "overFlowSiteId": 115454
        },
        {
          "id": 344802039,
          "eventId": 711350,
          "siteUnitNumber": 12624,
          "bathingSite": "SANDOWN",
          "eventStart": "2022-12-30T04:49:49",
          "eventStop": "2022-12-30T05:40:32",
          "duration": 50,
          "status": "Genuine",
          "associatedSiteId": 110097,
          "outfallName": "SANDOWN NO2",
          "isImpacting": true,
          "overFlowSiteId": 115454,
          "historicSpillsList": []
        },
        {
          "id": 344802040,
          "eventId": 711350,
          "siteUnitNumber": 12625,
          "bathingSite": "SHANKLIN",
          "eventStart": "2022-12-30T04:49:49",
          "eventStop": "2022-12-30T05:40:32",
          "duration": 50,
          "status": "Genuine",
          "associatedSiteId": 110097,
          "outfallName": "SANDOWN NO2",
          "isImpacting": true,
          "overFlowSiteId": 115454,
          "historicSpillsList": []
        }
      ]
    },
    {
      "id": 344794697,
      "eventId": 718157,
      "siteUnitNumber": 12591,
      "bathingSite": "LITTLEHAMPTON",
      "eventStart": "2022-12-30T04:33:00",
      "eventStop": "2022-12-30T05:22:00",
      "duration": 49,
      "status": "Genuine",
      "associatedSiteId": 109965,
      "outfallName": "SEA ROAD LITTLEHAMPTON",
      "isImpacting": false,
      "overFlowSiteId": 0,
      "historicSpillsList": []
    },
    {
      "id": 344802043,
      "eventId": 711327,
      "siteUnitNumber": 12624,
      "bathingSite": "SANDOWN",
      "eventStart": "2022-12-30T03:55:01",
      "eventStop": "2022-12-30T04:39:53",
      "duration": 44,
      "status": "Genuine",
      "associatedSiteId": 110097,
      "outfallName": "SANDOWN NO2",
      "isImpacting": true,
      "overFlowSiteId": 0,
      "historicSpillsList": [
        {
          "id": 344802043,
          "eventId": 711327,
          "siteUnitNumber": 12624,
          "bathingSite": "SANDOWN",
          "eventStart": "2022-12-30T03:55:01",
          "eventStop": "2022-12-30T04:39:53",
          "duration": 44,
          "status": "Genuine",
          "associatedSiteId": 110097,
          "outfallName": "SANDOWN NO2",
          "isImpacting": true,
          "overFlowSiteId": 115454
        },
        {
          "id": 344802044,
          "eventId": 711327,
          "siteUnitNumber": 12625,
          "bathingSite": "SHANKLIN",
          "eventStart": "2022-12-30T03:55:01",
          "eventStop": "2022-12-30T04:39:53",
          "duration": 44,
          "status": "Genuine",
          "associatedSiteId": 110097,
          "outfallName": "SANDOWN NO2",
          "isImpacting": true,
          "overFlowSiteId": 115454,
          "historicSpillsList": []
        },
        {
          "id": 344802052,
          "eventId": 711327,
          "siteUnitNumber": 12623,
          "bathingSite": "YAVERLAND",
          "eventStart": "2022-12-30T03:55:01",
          "eventStop": "2022-12-30T04:39:53",
          "duration": 44,
          "status": "Genuine",
          "associatedSiteId": 110097,
          "outfallName": "SANDOWN NO2",
          "isImpacting": true,
          "overFlowSiteId": 115454,
          "historicSpillsList": []
        }
      ]
    }
  ]
}