{
  "currentPage": 234,
  "totalItems": 18701,
  "totalPages": 749,
  "items": [
    {
      "id": 343988998,
      "eventId": 840380,
      "siteUnitNumber": 12622,
      "bathingSite": "WHITECLIFF BAY",
      "eventStart": "2023-07-23T09:06:00",
      "eventStop": "2023-07-23T09:28:00",
      "duration": 22,
      "status": "Genuine",
      "associatedSiteId": 110096,
      "outfallName": "SANDOWN NO1",
      "isImpacting": false,
      "overFlowSiteId": 0,
      "historicSpillsList": []
    },
    {
      "id": 343989002,
      "eventId": 840379,
      "siteUnitNumber": 12622,
      "bathingSite": "WHITECLIFF BAY",
      "eventStart": "2023-07-23T06:11:00",
      "eventStop": "2023-07-23T06:40:00",
      "duration": 29,
      "status": "Genuine",
      "associatedSiteId": 110096,
      "outfallName": "SANDOWN NO1",
      "isImpacting": false,
      "overFlowSiteId": 0,
      "historicSpillsList": []
    },
    {
      "id": 343989005,
      "eventId": 840378,
      "siteUnitNumber": 12622,
      "bathingSite": "WHITECLIFF BAY",
      "eventStart": "2023-07-23T05:03:00",
      "eventStop": "2023-07-23T05:24:00",
      "duration": 21,
      "status": "Genuine",
      "associatedSiteId": 110096,
      "outfallName": "SANDOWN NO1",
      "isImpacting": false,
      "overFlowSiteId": 0,
      "historicSpillsList": []
    },
    {
      "id": 343991779,
      "eventId": 839652,
      "siteUnitNumber": 12619,
      "bathingSite": "SEAGROVE",
      "eventStart": "2023-07-22T21:02:00",
      "eventStop": "2023-07-23T05:23:00",
      "duration": 501,
      "status": "Genuine",
      "associatedSiteId": 110097,
      "outfallName": "SANDOWN NO2",
      "isImpacting": true,
      "overFlowSiteId": 0,
      "historicSpillsList": [
        {
          "id": 343991772,
          "eventId": 839652,
          "siteUnitNumber": 12623,
          "bathingSite": "YAVERLAND",
          "eventStart": "2023-07-22T21:02:00",
          "eventStop": "2023-07-23T05:23:00",
          "duration": 501,
          "status": "Genuine",
          "associatedSiteId": 110097,
          "outfallName": "SANDOWN NO2",
          "isImpacting": true,
          "overFlowSiteId": 115454,
          "historicSpillsList": []
        },
        {
          "id": 343991773,
          "eventId": 839652,
          "siteUnitNumber": 12624,
          "bathingSite": "SANDOWN",
          "eventStart": "2023-07-22T21:02:00",
          "eventStop": "2023-07-23T05:23:00",
          "duration": 501,
          "status": "Genuine",
          "associatedSiteId": 110097,
          "outfallName": "SANDOWN NO2",
          "isImpacting": true,
          "overFlowSiteId": 115454,
          "historicSpillsList": []
        },
        {
          "id": 343991774,
          "eventId": 839652,
          "siteUnitNumber": 12625,
          "bathingSite": "SHANKLIN",
          "eventStart": "2023-07-22T21:02:00",
          "eventStop": "2023-07-23T05:23:00",
          "duration": 501,
          "status": "Genuine",
          "associatedSiteId": 110097,
          "outfallName": "SANDOWN NO2",
          "isImpacting": true,
          "overFlowSiteId": 115454,
          "historicSpillsList": []
        }
      ]
    },
    {
      "id": 343989009,
      "eventId": 839651,
      "siteUnitNumber": 12622,
      "bathingSite": "WHITECLIFF BAY",
      "eventStart": "2023-07-22T17:24:21",
      "eventStop": "2023-07-23T04:37:00",
      "duration": 672,
      "status": "Genuine",
      "associatedSiteId": 110096,
      "outfallName": "SANDOWN NO1",
      "isImpacting": true,
      "overFlowSiteId": 0,
      "historicSpillsList": [
        {
          "id": 343989009,
          "eventId": 839651,
          "siteUnitNumber": 12622,
          "bathingSite": "WHITECLIFF BAY",
          "eventStart": "2023-07-22T17:24:21",
          "eventStop": "2023-07-23T04:37:00",
          "duration": 672,
          "status": "Genuine",
          "associatedSiteId": 110096,
          "outfallName": "SANDOWN NO1",
          "isImpacting": true,
          "overFlowSiteId": 115453
        },
        {
          "id": 343989010,
          "eventId": 839651,
          "siteUnitNumber": 12623,
          "bathingSite": "YAVERLAND",
          "eventStart": "2023-07-22T17:24:21",
          "eventStop": "2023-07-23T04:37:00",
          "duration": 672,
          "status": "Genuine",
          "associatedSiteId": 110096,
          "outfallName": "SANDOWN NO1",
          "isImpacting": true,
          "overFlowSiteId": 115453,
          "historicSpillsList": []
        },
        {
          "id": 343989011,
          "eventId": 839651,
          "siteUnitNumber": 12624,
          "bathingSite": "SANDOWN",
          "eventStart": "2023-07-22T17:24:21",
          "eventStop": "2023-07-23T04:37:00",
          "duration": 672,
          "status": "Genuine",
          "associatedSiteId": 110096,
          "outfallName": "SANDOWN NO1",
          "isImpacting": true,
          "overFlowSiteId": 115453,
          "historicSpillsList": []
        }
      ]
    },
    {
      "id": 343965989,
      "eventId": 839725,
      "siteUnitNumber": 12616,
      "bathingSite": "GURNARD",
      "eventStart": "2023-07-22T20:06:44",
      "eventStop": "2023-07-23T02:27:00",
      "duration": 380,
      "status": "Genuine",
      "associatedSiteId": 109705,
      "outfallName": "SPRINGHILL COWES TRANSFER",
      "isImpacting": true,
      "overFlowSiteId": 0,
      "historicSpillsList": [
        {
          "id": 343965990,
          "eventId": 839725,
          "siteUnitNumber": 12617,
          "bathingSite": "COWES",
          "eventStart": "2023-07-22T20:06:44",
          "eventStop": "2023-07-23T02:27:00",
          "duration": 380,
          "status": "Genuine",
          "associatedSiteId": 109705,
          "outfallName": "SPRINGHILL COWES TRANSFER",
          "isImpacting": true,
          "overFlowSiteId": 108943,
          "historicSpillsList": []
        }
      ]
    },
    {
      "id": 343968377,
      "eventId": 839890,
      "siteUnitNumber": 12661,
      "bathingSite": "LANGSTONE HARBOUR",
      "eventStart": "2023-07-23T02:02:30",
      "eventStop": "2023-07-23T02:14:22",
      "duration": 11,
      "status": "Genuine",
      "associatedSiteId": 109773,
      "outfallName": "BUDDS FARM HAVANT NO2",
      "isImpacting": true,
      "overFlowSiteId": 0,
      "historicSpillsList": [
        {
          "id": 343968377,
          "eventId": 839890,
          "siteUnitNumber": 12661,
          "bathingSite": "LANGSTONE HARBOUR",
          "eventStart": "2023-07-23T02:02:30",
          "eventStop": "2023-07-23T02:14:22",
          "duration": 11,
          "status": "Genuine",
          "associatedSiteId": 109773,
          "outfallName": "BUDDS FARM HAVANT NO2",
          "isImpacting": true,
          "overFlowSiteId": 116279
        }
      ]
    },
    {
      "id": 343968379,
      "eventId": 839816,
      "siteUnitNumber": 12661,
      "bathingSite": "LANGSTONE HARBOUR",
      "eventStart": "2023-07-22T23:37:00",
      "eventStop": "2023-07-23T02:04:00",
      "duration": 147,
      "status": "Genuine",
      "associatedSiteId": 109773,
      "outfallName": "BUDDS FARM HAVANT NO2",
      "isImpacting": true,
      "overFlowSiteId": 0,
      "historicSpillsList": [
        {
          "id": 343968379,
          "eventId": 839816,
          "siteUnitNumber": 12661,
          "bathingSite": "LANGSTONE HARBOUR",
          "eventStart": "2023-07-22T23:37:00",
          "eventStop": "2023-07-23T02:04:00",
          "duration": 147,
          "status": "Genuine",
          "associatedSiteId": 109773,
          "outfallName": "BUDDS FARM HAVANT NO2",
          "isImpacting": true,
          "overFlowSiteId": 115936
        }
      ]
    },
    {
      "id": 343968378,
      "eventId": 839834,
      "siteUnitNumber": 12661,
      "bathingSite": "LANGSTONE HARBOUR",
      "eventStart": "2023-07-22T23:38:34",
      "eventStop": "2023-07-23T01:51:30",
      "duration": 132,
      "status": "Genuine",
      "associatedSiteId": 109773,
      "outfallName": "BUDDS FARM HAVANT NO2",
      "isImpacting": true,
      "overFlowSiteId": 0,
      "historicSpillsList": [
        {
          "id": 343968378,
          "eventId": 839834,
          "siteUnitNumber": 12661,
          "bathingSite": "LANGSTONE HARBOUR",
          "eventStart": "2023-07-22T23:38:34",
          "eventStop": "2023-07-23T01:51:30",
          "duration": 132,
          "status": "Genuine",
          "associatedSiteId": 109773,
          "outfallName": "BUDDS FARM HAVANT NO2",
          "isImpacting": true,
          "overFlowSiteId": 116279
        }
      ]
    },
    {
      "id": 343961433,
      "eventId": 869405,
      "siteUnitNumber": 12616,
      "bathingSite": "GURNARD",
      "eventStart": "2023-07-23T00:40:00",
      "eventStop": "2023-07-23T00:45:00",
      "duration": 5,
      "status": "Genuine",
      "associatedSiteId": 109652,
      "outfallName": "WOODVALE TRANSFER NO1",
      "isImpacting": true,
      "overFlowSiteId": 0,
      "historicSpillsList": [
        {
          "id": 343961434,
          "eventId": 869405,
          "siteUnitNumber": 12617,
          "bathingSite": "COWES",
          "eventStart": "2023-07-23T00:40:00",
          "eventStop": "2023-07-23T00:45:00",
          "duration": 5,
          "status": "Genuine",
          "associatedSiteId": 109652,
          "outfallName": "WOODVALE TRANSFER NO1",
          "isImpacting": true,
          "overFlowSiteId": 115966,
          "historicSpillsList": []
        }
      ]
    },
    {
      "id": 343970034,
      "eventId": 839957,
      "siteUnitNumber": 12618,
      "bathingSite": "RYDE",
      "eventStart": "2023-07-22T23:27:00",
      "eventStop": "2023-07-23T00:43:00",
      "duration": 76,
      "status": "Genuine",
      "associatedSiteId": 109778,
      "outfallName": "PRINCE CONSORT RYDE NEW",
      "isImpacting": true,
      "overFlowSiteId": 0,
      "historicSpillsList": [
        {
          "id": 343970034,
          "eventId": 839957,
          "siteUnitNumber": 12618,
          "bathingSite": "RYDE",
          "eventStart": "2023-07-22T23:27:00",
          "eventStop": "2023-07-23T00:43:00",
          "duration": 76,
          "status": "Genuine",
          "associatedSiteId": 109778,
          "outfallName": "PRINCE CONSORT RYDE NEW",
          "isImpacting": true,
          "overFlowSiteId": 108043
        }
      ]
    },
    {
      "id": 343995679,
      "eventId": 839684,
      "siteUnitNumber": 12616,
      "bathingSite": "GURNARD",
      "eventStart": "2023-07-22T08:21:00",
      "eventStop": "2023-07-23T00:15:00",
      "duration": 954,
      "status": "Genuine",
      "associatedSiteId": 110701,
      "outfallName": "TERMINUS ROAD COWES 2",
      "isImpacting": true,
      "overFlowSiteId": 0,
      "historicSpillsList": [
        {
          "id": 343995679,
          "eventId": 839684,
          "siteUnitNumber": 12616,
          "bathingSite": "GURNARD",
          "eventStart": "2023-07-22T08:21:00",
          "eventStop": "2023-07-23T00:15:00",
          "duration": 954,
          "status": "Genuine",
          "associatedSiteId": 110701,
          "outfallName": "TERMINUS ROAD COWES 2",
          "isImpacting": true,
          "overFlowSiteId": 108562
        },
        {
          "id": 343995680,
          "eventId": 839684,
          "siteUnitNumber": 12617,
          "bathingSite": "COWES",
          "eventStart": "2023-07-22T08:21:00",
          "eventStop": "2023-07-23T00:15:00",
          "duration": 954,
          "status": "Genuine",
          "associatedSiteId": 110701,
          "outfallName": "TERMINUS ROAD COWES 2",
          "isImpacting": true,
          "overFlowSiteId": 108562,
          "historicSpillsList": []
        }
      ]
    },
    {
      "id": 344000334,
      "eventId": 839728,
      "siteUnitNumber": 12614,
      "bathingSite": "TOTLAND BAY",
      "eventStart": "2023-07-22T20:20:14",
      "eventStop": "2023-07-22T23:56:00",
      "duration": 215,
      "status": "Genuine",
      "associatedSiteId": 115498,
      "outfallName": "NORTON TRANSFER IOW",
      "isImpacting": true,
      "overFlowSiteId": 0,
      "historicSpillsList": [
        {
          "id": 344000334,
          "eventId": 839728,
          "siteUnitNumber": 12614,
          "bathingSite": "TOTLAND BAY",
          "eventStart": "2023-07-22T20:20:14",
          "eventStop": "2023-07-22T23:56:00",
          "duration": 215,
          "status": "Genuine",
          "associatedSiteId": 115498,
          "outfallName": "NORTON TRANSFER IOW",
          "isImpacting": true,
          "overFlowSiteId": 109524
        },
        {
          "id": 344000335,
          "eventId": 839728,
          "siteUnitNumber": 12615,
          "bathingSite": "COLWELL BAY",
          "eventStart": "2023-07-22T20:20:14",
          "eventStop": "2023-07-22T23:56:00",
          "duration": 215,
          "status": "Genuine",
          "associatedSiteId": 115498,
          "outfallName": "NORTON TRANSFER IOW",
          "isImpacting": true,
          "overFlowSiteId": 109524,
          "historicSpillsList": []
        }
      ]
    },
    {
      "id": 343961435,
      "eventId": 869404,
      "siteUnitNumber": 12616,
      "bathingSite": "GURNARD",
      "eventStart": "2023-07-22T23:44:00",
      "eventStop": "2023-07-22T23:49:00",
      "duration": 5,
      "status": "Genuine",
      "associatedSiteId": 109652,
      "outfallName": "WOODVALE TRANSFER NO1",
      "isImpacting": true,
      "overFlowSiteId": 0,
      "historicSpillsList": [
        {
          "id": 343961436,
          "eventId": 869404,
          "siteUnitNumber": 12617,
          "bathingSite": "COWES",
          "eventStart": "2023-07-22T23:44:00",
          "eventStop": "2023-07-22T23:49:00",
          "duration": 5,
          "status": "Genuine",
          "associatedSiteId": 109652,
          "outfallName": "WOODVALE TRANSFER NO1",
          "isImpacting": true,
          "overFlowSiteId": 115966,
          "historicSpillsList": []
        }
      ]
    },
    {
      "id": 343995677,
      "eventId": 839933,
      "siteUnitNumber": 12616,
      "bathingSite": "GURNARD",
      "eventStart": "2023-07-22T23:26:00",
      "eventStop": "2023-07-22T23:35:00",
      "duration": 9,
      "status": "Genuine",
      "associatedSiteId": 110701,
      "outfallName": "TERMINUS ROAD COWES 2",
      "isImpacting": true,
      "overFlowSiteId": 0,
      "historicSpillsList": [
        {
          "id": 343995677,
          "eventId": 839933,
          "siteUnitNumber": 12616,
          "bathingSite": "GURNARD",
          "eventStart": "2023-07-22T23:26:00",
          "eventStop": "2023-07-22T23:35:00",
          "duration": 9,
          "status": "Genuine",
          "associatedSiteId": 110701,
          "outfallName": "TERMINUS ROAD COWES 2",
          "isImpacting": true,
          "overFlowSiteId": 108563
        },
        {
          "id": 343995678,
          "eventId": 839933,
          "siteUnitNumber": 12617,
          "bathingSite": "COWES",
          "eventStart": "2023-07-22T23:26:00",
          "eventStop": "2023-07-22T23:35:00",
          "duration": 9,
          "status": "Genuine",
          "associatedSiteId": 110701,
          "outfallName": "TERMINUS ROAD COWES 2",
          "isImpacting": true,
          "overFlowSiteId": 108563,
          "historicSpillsList": []
        }
      ]
    },
    {
      "id": 343961437,
      "eventId": 869403,
      "siteUnitNumber": 12616,
      "bathingSite": "GURNARD",
      "eventStart": "2023-07-22T23:03:00",
      "eventStop": "2023-07-22T23:09:00",
      "duration": 6,
      "status": "Genuine",
      "associatedSiteId": 109652,
      "outfallName": "WOODVALE TRANSFER NO1",
      "isImpacting": true,
      "overFlowSiteId": 0,
      "historicSpillsList": [
        {
          "id": 343961438,
          "eventId": 869403,
          "siteUnitNumber": 12617,
          "bathingSite": "COWES",
          "eventStart": "2023-07-22T23:03:00",
          "eventStop": "2023-07-22T23:09:00",
          "duration": 6,
          "status": "Genuine",
          "associatedSiteId": 109652,
          "outfallName": "WOODVALE TRANSFER NO1",
          "isImpacting": true,
          "overFlowSiteId": 115966,
          "historicSpillsList": []
        }
      ]
    },
    {
      "id": 343961439,
      "eventId": 869399,
      "siteUnitNumber": 12616,
      "bathingSite": "GURNARD",
      "eventStart": "2023-07-22T22:38:00",
      "eventStop": "2023-07-22T22:44:00",
      "duration": 6,
      "status": "Genuine",
      "associatedSiteId": 109652,
      "outfallName": "WOODVALE TRANSFER NO1",
      "isImpacting": true,
      "overFlowSiteId": 0,
      "historicSpillsList": [
        {
          "id": 343961440,
          "eventId": 869399,
          "siteUnitNumber": 12617,
          "bathingSite": "COWES",
          "eventStart": "2023-07-22T22:38:00",
          "eventStop": "2023-07-22T22:44:00",
          "duration": 6,
          "status": "Genuine",
          "associatedSiteId": 109652,
          "outfallName": "WOODVALE TRANSFER NO1",
          "isImpacting": true,
          "overFlowSiteId": 115966,
          "historicSpillsList": []
        }
      ]
    },
    {
      "id": 343995681,
      "eventId": 839677,
      "siteUnitNumber": 12616,
      "bathingSite": "GURNARD",
      "eventStart": "2023-07-22T18:20:00",
      "eventStop": "2023-07-22T22:23:00",
      "duration": 243,
      "status": "Genuine",
      "associatedSiteId": 110701,
      "outfallName": "TERMINUS ROAD COWES 2",
      "isImpacting": true,
      "overFlowSiteId": 0,
      "historicSpillsList": [
        {
          "id": 343995681,
          "eventId": 839677,
          "siteUnitNumber": 12616,
          "bathingSite": "GURNARD",
          "eventStart": "2023-07-22T18:20:00",
          "eventStop": "2023-07-22T22:23:00",
          "duration": 243,
          "status": "Genuine",
          "associatedSiteId": 110701,
          "outfallName": "TERMINUS ROAD COWES 2",
          "isImpacting": true,
          "overFlowSiteId": 108563
        },
        {
          "id": 343995682,
          "eventId": 839677,
          "siteUnitNumber": 12617,
          "bathingSite": "COWES",
          "eventStart": "2023-07-22T18:20:00",
          "eventStop": "2023-07-22T22:23:00",
          "duration": 243,
          "status": "Genuine",
          "associatedSiteId": 110701,
          "outfallName": "TERMINUS ROAD COWES 2",
          "isImpacting": true,
          "overFlowSiteId": 108563,
          "historicSpillsList": []
        }
      ]
    },
    {
      "id": 343961441,
      "eventId": 869398,
      "siteUnitNumber": 12616,
      "bathingSite": "GURNARD",
      "eventStart": "2023-07-22T22:12:00",
      "eventStop": "2023-07-22T22:18:00",
      "duration": 6,
      "status": "Genuine",
      "associatedSiteId": 109652,
      "outfallName": "WOODVALE TRANSFER NO1",
      "isImpacting": true,
      "overFlowSiteId": 0,
      "historicSpillsList": [
        {
          "id": 343961442,
          "eventId": 869398,
          "siteUnitNumber": 12617,
          "bathingSite": "COWES",
          "eventStart": "2023-07-22T22:12:00",
          "eventStop": "2023-07-22T22:18:00",
          "duration": 6,
          "status": "Genuine",
          "associatedSiteId": 109652,
          "outfallName": "WOODVALE TRANSFER NO1",
          "isImpacting": true,
          "overFlowSiteId": 115966,
          "historicSpillsList": []
        }
      ]
    },
    {
      "id": 343985279,
      "eventId": 839720,
      "siteUnitNumber": 12591,
      "bathingSite": "LITTLEHAMPTON",
      "eventStart": "2023-07-22T21:54:00",
      "eventStop": "2023-07-22T22:16:00",
      "duration": 22,
      "status": "Genuine",
      "associatedSiteId": 109965,
      "outfallName": "SEA ROAD LITTLEHAMPTON",
      "isImpacting": false,
      "overFlowSiteId": 0,
      "historicSpillsList": []
    },
    {
      "id": 343965589,
      "eventId": 839755,
      "siteUnitNumber": 12616,
      "bathingSite": "GURNARD",
      "eventStart": "2023-07-22T22:12:00",
      "eventStop": "2023-07-22T22:15:00",
      "duration": 3,
      "status": "Genuine",
      "associatedSiteId": 109704,
      "outfallName": "EGYPT POINT COWES",
      "isImpacting": true,
      "overFlowSiteId": 0,
      "historicSpillsList": [
        {
          "id": 343965590,
          "eventId": 839755,
          "siteUnitNumber": 12617,
          "bathingSite": "COWES",
          "eventStart": "2023-07-22T22:12:00",
          "eventStop": "2023-07-22T22:15:00",
          "duration": 3,
          "status": "Genuine",
          "associatedSiteId": 109704,
          "outfallName": "EGYPT POINT COWES",
          "isImpacting": true,
          "overFlowSiteId": 116213,
          "historicSpillsList": []
        }
      ]
    },
    {
      "id": 343961443,
      "eventId": 869396,
      "siteUnitNumber": 12616,
      "bathingSite": "GURNARD",
      "eventStart": "2023-07-22T21:50:00",
      "eventStop": "2023-07-22T21:56:00",
      "duration": 6,
      "status": "Genuine",
      "associatedSiteId": 109652,
      "outfallName": "WOODVALE TRANSFER NO1",
      "isImpacting": true,
      "overFlowSiteId": 0,
      "historicSpillsList": [
        {
          "id": 343961444,
          "eventId": 869396,
          "siteUnitNumber": 12617,
          "bathingSite": "COWES",
          "eventStart": "2023-07-22T21:50:00",
          "eventStop": "2023-07-22T21:56:00",
          "duration": 6,
          "status": "Genuine",
          "associatedSiteId": 109652,
          "outfallName": "WOODVALE TRANSFER NO1",
          "isImpacting": true,
          "overFlowSiteId": 115966,
          "historicSpillsList": []
        }
      ]
    },
    {
      "id": 343961473,
      "eventId": 839764,
      "siteUnitNumber": 12616,
      "bathingSite": "GURNARD",
      "eventStart": "2023-07-22T21:27:00",
      "eventStop": "2023-07-22T21:33:00",
      "duration": 6,
      "status": "Genuine",
      "associatedSiteId": 109652,
      "outfallName": "WOODVALE TRANSFER NO1",
      "isImpacting": true,
      "overFlowSiteId": 0,
      "historicSpillsList": [
        {
          "id": 343961474,
          "eventId": 839764,
          "siteUnitNumber": 12617,
          "bathingSite": "COWES",
          "eventStart": "2023-07-22T21:27:00",
          "eventStop": "2023-07-22T21:33:00",
          "duration": 6,
          "status": "Genuine",
          "associatedSiteId": 109652,
          "outfallName": "WOODVALE TRANSFER NO1",
          "isImpacting": true,
          "overFlowSiteId": 115966,
          "historicSpillsList": []
        }
      ]
    },
    {
      "id": 343983492,
      "eventId": 839721,
      "siteUnitNumber": 12595,
      "bathingSite": "BOGNOR REGIS (ALDWICK)",
      "eventStart": "2023-07-22T20:07:00",
      "eventStop": "2023-07-22T20:50:00",
      "duration": 43,
      "status": "Genuine",
      "associatedSiteId": 109959,
      "outfallName": "WEST PARK BOGNOR REGIS",
      "isImpacting": true,
      "overFlowSiteId": 0,
      "historicSpillsList": [
        {
          "id": 343983493,
          "eventId": 839721,
          "siteUnitNumber": 12596,
          "bathingSite": "PAGHAM",
          "eventStart": "2023-07-22T20:07:00",
          "eventStop": "2023-07-22T20:50:00",
          "duration": 43,
          "status": "Genuine",
          "associatedSiteId": 109959,
          "outfallName": "WEST PARK BOGNOR REGIS",
          "isImpacting": true,
          "overFlowSiteId": 108160,
          "historicSpillsList": []
        }
      ]
    },
    {
      "id": 343985939,
      "eventId": 839710,
      "siteUnitNumber": 12591,
      "bathingSite": "LITTLEHAMPTON",
      "eventStart": "2023-07-22T19:15:00",
      "eventStop": "2023-07-22T20:19:00",
      "duration": 64,
      "status": "Genuine",
      "associatedSiteId": 109968,
      "outfallName": "FORD ROAD ARUNDEL",
      "isImpacting": true,
      "overFlowSiteId": 0,
      "historicSpillsList": [
        {
          "id": 343985939,
          "eventId": 839710,
          "siteUnitNumber": 12591,
          "bathingSite": "LITTLEHAMPTON",
          "eventStart": "2023-07-22T19:15:00",
          "eventStop": "2023-07-22T20:19:00",
          "duration": 64,
          "status": "Genuine",
          "associatedSiteId": 109968,
          "outfallName": "FORD ROAD ARUNDEL",
          "isImpacting": true,
          "overFlowSiteId": 108002
        }
      ]
    }
  ]
}