{
  "currentPage": 519,
  "totalItems": 21025,
  "totalPages": 841,
  "items": [
    {
      "id": 344849621,
      "eventId": 656366,
      "siteUnitNumber": 12662,
      "bathingSite": "CHICHESTER HARBOUR",
      "eventStart": "2022-11-04T02:41:00",
      "eventStop": "2022-11-04T03:23:00",
      "duration": 42,
      "status": "Genuine",
      "associatedSiteId": 111600,
      "outfallName": "MILL LANE FISHBOURNE",
      "isImpacting": true,
      "overFlowSiteId": 0,
      "historicSpillsList": [
        {
          "id": 344849621,
          "eventId": 656366,
          "siteUnitNumber": 12662,
          "bathingSite": "CHICHESTER HARBOUR",
          "eventStart": "2022-11-04T02:41:00",
          "eventStop": "2022-11-04T03:23:00",
          "duration": 42,
          "status": "Genuine",
          "associatedSiteId": 111600,
          "outfallName": "MILL LANE FISHBOURNE",
          "isImpacting": true,
          "overFlowSiteId": 111371
        }
      ]
    },
    {
      "id": 344812746,
      "eventId": 655717,
      "siteUnitNumber": 12544,
      "bathingSite": "SHEERNESS",
      "eventStart": "2022-11-04T02:20:00",
      "eventStop": "2022-11-04T03:00:00",
      "duration": 40,
      "status": "Genuine",
      "associatedSiteId": 109616,
      "outfallName": "SOUTH STREET QUEENBOROUGH",
      "isImpacting": true,
      "overFlowSiteId": 0,
      "historicSpillsList": [
        {
          "id": 344812746,
          "eventId": 655717,
          "siteUnitNumber": 12544,
          "bathingSite": "SHEERNESS",
          "eventStart": "2022-11-04T02:20:00",
          "eventStop": "2022-11-04T03:00:00",
          "duration": 40,
          "status": "Genuine",
          "associatedSiteId": 109616,
          "outfallName": "SOUTH STREET QUEENBOROUGH",
          "isImpacting": true,
          "overFlowSiteId": 108732
        }
      ]
    },
    {
      "id": 344821866,
      "eventId": 660063,
      "siteUnitNumber": 12618,
      "bathingSite": "RYDE",
      "eventStart": "2022-11-03T04:34:00",
      "eventStop": "2022-11-04T02:54:00",
      "duration": 1340,
      "status": "Genuine",
      "associatedSiteId": 109778,
      "outfallName": "PRINCE CONSORT RYDE NEW",
      "isImpacting": true,
      "overFlowSiteId": 0,
      "historicSpillsList": [
        {
          "id": 344821866,
          "eventId": 660063,
          "siteUnitNumber": 12618,
          "bathingSite": "RYDE",
          "eventStart": "2022-11-03T04:34:00",
          "eventStop": "2022-11-04T02:54:00",
          "duration": 1340,
          "status": "Genuine",
          "associatedSiteId": 109778,
          "outfallName": "PRINCE CONSORT RYDE NEW",
          "isImpacting": true,
          "overFlowSiteId": 108043
        }
      ]
    },
    {
      "id": 344854449,
      "eventId": 655553,
      "siteUnitNumber": 12577,
      "bathingSite": "BEXHILL",
      "eventStart": "2022-11-04T00:15:00",
      "eventStop": "2022-11-04T02:51:27",
      "duration": 156,
      "status": "Genuine",
      "associatedSiteId": 115503,
      "outfallName": "COODEN BEACH BEXHILL",
      "isImpacting": true,
      "overFlowSiteId": 0,
      "historicSpillsList": [
        {
          "id": 344854449,
          "eventId": 655553,
          "siteUnitNumber": 12577,
          "bathingSite": "BEXHILL",
          "eventStart": "2022-11-04T00:15:00",
          "eventStop": "2022-11-04T02:51:27",
          "duration": 156,
          "status": "Genuine",
          "associatedSiteId": 115503,
          "outfallName": "COODEN BEACH BEXHILL",
          "isImpacting": true,
          "overFlowSiteId": 108029
        },
        {
          "id": 344854450,
          "eventId": 655553,
          "siteUnitNumber": 12578,
          "bathingSite": "NORMANS BAY",
          "eventStart": "2022-11-04T00:15:00",
          "eventStop": "2022-11-04T02:51:27",
          "duration": 156,
          "status": "Genuine",
          "associatedSiteId": 115503,
          "outfallName": "COODEN BEACH BEXHILL",
          "isImpacting": true,
          "overFlowSiteId": 108029,
          "historicSpillsList": []
        }
      ]
    },
    {
      "id": 344834280,
      "eventId": 655655,
      "siteUnitNumber": 12582,
      "bathingSite": "SEAFORD",
      "eventStart": "2022-11-04T01:05:11",
      "eventStop": "2022-11-04T02:49:37",
      "duration": 104,
      "status": "Genuine",
      "associatedSiteId": 109957,
      "outfallName": "PORTOBELLO BRIGHTON NO2",
      "isImpacting": false,
      "overFlowSiteId": 0,
      "historicSpillsList": []
    },
    {
      "id": 344832133,
      "eventId": 656120,
      "siteUnitNumber": 12586,
      "bathingSite": "HOVE",
      "eventStart": "2022-11-03T22:47:00",
      "eventStop": "2022-11-04T02:49:00",
      "duration": 242,
      "status": "Genuine",
      "associatedSiteId": 109929,
      "outfallName": "SHOREHAM NO1",
      "isImpacting": true,
      "overFlowSiteId": 0,
      "historicSpillsList": [
        {
          "id": 344832133,
          "eventId": 656120,
          "siteUnitNumber": 12586,
          "bathingSite": "HOVE",
          "eventStart": "2022-11-03T22:47:00",
          "eventStop": "2022-11-04T02:49:00",
          "duration": 242,
          "status": "Genuine",
          "associatedSiteId": 109929,
          "outfallName": "SHOREHAM NO1",
          "isImpacting": true,
          "overFlowSiteId": 115434
        },
        {
          "id": 344832134,
          "eventId": 656120,
          "siteUnitNumber": 12587,
          "bathingSite": "SOUTHWICK",
          "eventStart": "2022-11-03T22:47:00",
          "eventStop": "2022-11-04T02:49:00",
          "duration": 242,
          "status": "Genuine",
          "associatedSiteId": 109929,
          "outfallName": "SHOREHAM NO1",
          "isImpacting": true,
          "overFlowSiteId": 115434,
          "historicSpillsList": []
        },
        {
          "id": 344832135,
          "eventId": 656120,
          "siteUnitNumber": 12588,
          "bathingSite": "SHOREHAM BEACH",
          "eventStart": "2022-11-03T22:47:00",
          "eventStop": "2022-11-04T02:49:00",
          "duration": 242,
          "status": "Genuine",
          "associatedSiteId": 109929,
          "outfallName": "SHOREHAM NO1",
          "isImpacting": true,
          "overFlowSiteId": 115434,
          "historicSpillsList": []
        }
      ]
    },
    {
      "id": 344813113,
      "eventId": 655025,
      "siteUnitNumber": 12616,
      "bathingSite": "GURNARD",
      "eventStart": "2022-11-03T18:43:48",
      "eventStop": "2022-11-04T02:31:00",
      "duration": 467,
      "status": "Genuine",
      "associatedSiteId": 109650,
      "outfallName": "MARSH ROAD GURNARD",
      "isImpacting": true,
      "overFlowSiteId": 0,
      "historicSpillsList": [
        {
          "id": 344813113,
          "eventId": 655025,
          "siteUnitNumber": 12616,
          "bathingSite": "GURNARD",
          "eventStart": "2022-11-03T18:43:48",
          "eventStop": "2022-11-04T02:31:00",
          "duration": 467,
          "status": "Genuine",
          "associatedSiteId": 109650,
          "outfallName": "MARSH ROAD GURNARD",
          "isImpacting": true,
          "overFlowSiteId": 107441
        }
      ]
    },
    {
      "id": 344813027,
      "eventId": 656629,
      "siteUnitNumber": 12544,
      "bathingSite": "SHEERNESS",
      "eventStart": "2022-11-04T02:15:00",
      "eventStop": "2022-11-04T02:30:00",
      "duration": 15,
      "status": "Genuine",
      "associatedSiteId": 109621,
      "outfallName": "NOREEN AVENUE SHEERNESS",
      "isImpacting": true,
      "overFlowSiteId": 0,
      "historicSpillsList": [
        {
          "id": 344813027,
          "eventId": 656629,
          "siteUnitNumber": 12544,
          "bathingSite": "SHEERNESS",
          "eventStart": "2022-11-04T02:15:00",
          "eventStop": "2022-11-04T02:30:00",
          "duration": 15,
          "status": "Genuine",
          "associatedSiteId": 109621,
          "outfallName": "NOREEN AVENUE SHEERNESS",
          "isImpacting": true,
          "overFlowSiteId": 108809
        },
        {
          "id": 344813028,
          "eventId": 656629,
          "siteUnitNumber": 12550,
          "bathingSite": "MINSTER LEAS",
          "eventStart": "2022-11-04T02:15:00",
          "eventStop": "2022-11-04T02:30:00",
          "duration": 15,
          "status": "Genuine",
          "associatedSiteId": 109621,
          "outfallName": "NOREEN AVENUE SHEERNESS",
          "isImpacting": true,
          "overFlowSiteId": 108809,
          "historicSpillsList": []
        }
      ]
    },
    {
      "id": 344826283,
      "eventId": 655694,
      "siteUnitNumber": 12544,
      "bathingSite": "SHEERNESS",
      "eventStart": "2022-11-04T01:55:33",
      "eventStop": "2022-11-04T02:30:00",
      "duration": 34,
      "status": "Genuine",
      "associatedSiteId": 109869,
      "outfallName": "GRAIN NO2",
      "isImpacting": true,
      "overFlowSiteId": 0,
      "historicSpillsList": [
        {
          "id": 344826283,
          "eventId": 655694,
          "siteUnitNumber": 12544,
          "bathingSite": "SHEERNESS",
          "eventStart": "2022-11-04T01:55:33",
          "eventStop": "2022-11-04T02:30:00",
          "duration": 34,
          "status": "Genuine",
          "associatedSiteId": 109869,
          "outfallName": "GRAIN NO2",
          "isImpacting": true,
          "overFlowSiteId": 115411
        }
      ]
    },
    {
      "id": 344840320,
      "eventId": 655664,
      "siteUnitNumber": 12582,
      "bathingSite": "SEAFORD",
      "eventStart": "2022-11-04T01:26:29",
      "eventStop": "2022-11-04T02:29:00",
      "duration": 62,
      "status": "Genuine",
      "associatedSiteId": 110046,
      "outfallName": "BEACH ROAD NEWHAVEN",
      "isImpacting": false,
      "overFlowSiteId": 0,
      "historicSpillsList": []
    },
    {
      "id": 344838231,
      "eventId": 655216,
      "siteUnitNumber": 12595,
      "bathingSite": "BOGNOR REGIS (ALDWICK)",
      "eventStart": "2022-11-03T21:28:00",
      "eventStop": "2022-11-04T02:28:00",
      "duration": 300,
      "status": "Genuine",
      "associatedSiteId": 109972,
      "outfallName": "BOGNOR MAIN",
      "isImpacting": true,
      "overFlowSiteId": 0,
      "historicSpillsList": [
        {
          "id": 344838239,
          "eventId": 655216,
          "siteUnitNumber": 12593,
          "bathingSite": "FELPHAM",
          "eventStart": "2022-11-03T21:28:00",
          "eventStop": "2022-11-04T02:28:00",
          "duration": 300,
          "status": "Genuine",
          "associatedSiteId": 109972,
          "outfallName": "BOGNOR MAIN",
          "isImpacting": true,
          "overFlowSiteId": 107412,
          "historicSpillsList": []
        }
      ]
    },
    {
      "id": 344849620,
      "eventId": 656365,
      "siteUnitNumber": 12662,
      "bathingSite": "CHICHESTER HARBOUR",
      "eventStart": "2022-11-03T22:08:00",
      "eventStop": "2022-11-04T02:26:00",
      "duration": 258,
      "status": "Genuine",
      "associatedSiteId": 111600,
      "outfallName": "MILL LANE FISHBOURNE",
      "isImpacting": true,
      "overFlowSiteId": 0,
      "historicSpillsList": [
        {
          "id": 344849620,
          "eventId": 656365,
          "siteUnitNumber": 12662,
          "bathingSite": "CHICHESTER HARBOUR",
          "eventStart": "2022-11-03T22:08:00",
          "eventStop": "2022-11-04T02:26:00",
          "duration": 258,
          "status": "Genuine",
          "associatedSiteId": 111600,
          "outfallName": "MILL LANE FISHBOURNE",
          "isImpacting": true,
          "overFlowSiteId": 111371
        }
      ]
    },
    {
      "id": 344812651,
      "eventId": 655847,
      "siteUnitNumber": 12544,
      "bathingSite": "SHEERNESS",
      "eventStart": "2022-11-03T19:30:00",
      "eventStop": "2022-11-04T02:24:14",
      "duration": 414,
      "status": "Not Genuine",
      "associatedSiteId": 109614,
      "outfallName": "BRIELLE WAY WESTMINSTER",
      "isImpacting": false,
      "overFlowSiteId": 0,
      "historicSpillsList": []
    },
    {
      "id": 344840311,
      "eventId": 655758,
      "siteUnitNumber": 12582,
      "bathingSite": "SEAFORD",
      "eventStart": "2022-11-04T01:26:00",
      "eventStop": "2022-11-04T02:15:00",
      "duration": 49,
      "status": "Genuine",
      "associatedSiteId": 110043,
      "outfallName": "WEST PIER NEWHAVEN",
      "isImpacting": true,
      "overFlowSiteId": 0,
      "historicSpillsList": [
        {
          "id": 344840311,
          "eventId": 655758,
          "siteUnitNumber": 12582,
          "bathingSite": "SEAFORD",
          "eventStart": "2022-11-04T01:26:00",
          "eventStop": "2022-11-04T02:15:00",
          "duration": 49,
          "status": "Genuine",
          "associatedSiteId": 110043,
          "outfallName": "WEST PIER NEWHAVEN",
          "isImpacting": true,
          "overFlowSiteId": 115953
        }
      ]
    },
    {
      "id": 344838440,
      "eventId": 656232,
      "siteUnitNumber": 12591,
      "bathingSite": "LITTLEHAMPTON",
      "eventStart": "2022-11-03T23:00:00",
      "eventStop": "2022-11-04T02:15:00",
      "duration": 195,
      "status": "Genuine",
      "associatedSiteId": 109977,
      "outfallName": "FORESHORE TANK LITTLEHAMPTON",
      "isImpacting": true,
      "overFlowSiteId": 0,
      "historicSpillsList": [
        {
          "id": 344838440,
          "eventId": 656232,
          "siteUnitNumber": 12591,
          "bathingSite": "LITTLEHAMPTON",
          "eventStart": "2022-11-03T23:00:00",
          "eventStop": "2022-11-04T02:15:00",
          "duration": 195,
          "status": "Genuine",
          "associatedSiteId": 109977,
          "outfallName": "FORESHORE TANK LITTLEHAMPTON",
          "isImpacting": true,
          "overFlowSiteId": 109390
        }
      ]
    },
    {
      "id": 344834282,
      "eventId": 655221,
      "siteUnitNumber": 12582,
      "bathingSite": "SEAFORD",
      "eventStart": "2022-11-03T22:45:00",
      "eventStop": "2022-11-04T02:15:00",
      "duration": 210,
      "status": "Genuine",
      "associatedSiteId": 109957,
      "outfallName": "PORTOBELLO BRIGHTON NO2",
      "isImpacting": false,
      "overFlowSiteId": 0,
      "historicSpillsList": []
    },
    {
      "id": 344854405,
      "eventId": 655565,
      "siteUnitNumber": 12577,
      "bathingSite": "BEXHILL",
      "eventStart": "2022-11-04T00:41:00",
      "eventStop": "2022-11-04T02:14:00",
      "duration": 93,
      "status": "Genuine",
      "associatedSiteId": 115500,
      "outfallName": "BEXHILL DOWN",
      "isImpacting": true,
      "overFlowSiteId": 0,
      "historicSpillsList": [
        {
          "id": 344854405,
          "eventId": 655565,
          "siteUnitNumber": 12577,
          "bathingSite": "BEXHILL",
          "eventStart": "2022-11-04T00:41:00",
          "eventStop": "2022-11-04T02:14:00",
          "duration": 93,
          "status": "Genuine",
          "associatedSiteId": 115500,
          "outfallName": "BEXHILL DOWN",
          "isImpacting": true,
          "overFlowSiteId": 107638
        }
      ]
    },
    {
      "id": 344822988,
      "eventId": 656468,
      "siteUnitNumber": 12661,
      "bathingSite": "LANGSTONE HARBOUR",
      "eventStart": "2022-11-03T18:21:00",
      "eventStop": "2022-11-04T02:03:00",
      "duration": 462,
      "status": "Genuine",
      "associatedSiteId": 109819,
      "outfallName": "COURT LANE COSHAM",
      "isImpacting": true,
      "overFlowSiteId": 0,
      "historicSpillsList": [
        {
          "id": 344822988,
          "eventId": 656468,
          "siteUnitNumber": 12661,
          "bathingSite": "LANGSTONE HARBOUR",
          "eventStart": "2022-11-03T18:21:00",
          "eventStop": "2022-11-04T02:03:00",
          "duration": 462,
          "status": "Genuine",
          "associatedSiteId": 109819,
          "outfallName": "COURT LANE COSHAM",
          "isImpacting": true,
          "overFlowSiteId": 115958
        }
      ]
    },
    {
      "id": 344822389,
      "eventId": 655233,
      "siteUnitNumber": 12618,
      "bathingSite": "RYDE",
      "eventStart": "2022-11-03T21:13:13",
      "eventStop": "2022-11-04T02:00:00",
      "duration": 286,
      "status": "Genuine",
      "associatedSiteId": 109787,
      "outfallName": "SALTERNS ROAD SEAVIEW",
      "isImpacting": true,
      "overFlowSiteId": 0,
      "historicSpillsList": [
        {
          "id": 344822389,
          "eventId": 655233,
          "siteUnitNumber": 12618,
          "bathingSite": "RYDE",
          "eventStart": "2022-11-03T21:13:13",
          "eventStop": "2022-11-04T02:00:00",
          "duration": 286,
          "status": "Genuine",
          "associatedSiteId": 109787,
          "outfallName": "SALTERNS ROAD SEAVIEW",
          "isImpacting": true,
          "overFlowSiteId": 107411
        },
        {
          "id": 344822390,
          "eventId": 655233,
          "siteUnitNumber": 12619,
          "bathingSite": "SEAGROVE",
          "eventStart": "2022-11-03T21:13:13",
          "eventStop": "2022-11-04T02:00:00",
          "duration": 286,
          "status": "Genuine",
          "associatedSiteId": 109787,
          "outfallName": "SALTERNS ROAD SEAVIEW",
          "isImpacting": true,
          "overFlowSiteId": 107411,
          "historicSpillsList": []
        },
        {
          "id": 344822391,
          "eventId": 655233,
          "siteUnitNumber": 12620,
          "bathingSite": "ST HELENS",
          "eventStart": "2022-11-03T21:13:13",
          "eventStop": "2022-11-04T02:00:00",
          "duration": 286,
          "status": "Genuine",
          "associatedSiteId": 109787,
          "outfallName": "SALTERNS ROAD SEAVIEW",
          "isImpacting": true,
          "overFlowSiteId": 107411,
          "historicSpillsList": []
        }
      ]
    },
    {
      "id": 344817577,
      "eventId": 654968,
      "siteUnitNumber": 12616,
      "bathingSite": "GURNARD",
      "eventStart": "2022-11-03T18:35:00",
      "eventStop": "2022-11-04T01:59:00",
      "duration": 444,
      "status": "Genuine",
      "associatedSiteId": 109704,
      "outfallName": "EGYPT POINT COWES",
      "isImpacting": true,
      "overFlowSiteId": 0,
      "historicSpillsList": [
        {
          "id": 344817578,
          "eventId": 654968,
          "siteUnitNumber": 12617,
          "bathingSite": "COWES",
          "eventStart": "2022-11-03T18:35:00",
          "eventStop": "2022-11-04T01:59:00",
          "duration": 444,
          "status": "Genuine",
          "associatedSiteId": 109704,
          "outfallName": "EGYPT POINT COWES",
          "isImpacting": true,
          "overFlowSiteId": 116213,
          "historicSpillsList": []
        }
      ]
    },
    {
      "id": 344854589,
      "eventId": 666312,
      "siteUnitNumber": 12577,
      "bathingSite": "BEXHILL",
      "eventStart": "2022-11-04T00:02:00",
      "eventStop": "2022-11-04T01:50:00",
      "duration": 108,
      "status": "Genuine",
      "associatedSiteId": 115504,
      "outfallName": "HARTFIELD ROAD BEXHILL",
      "isImpacting": false,
      "overFlowSiteId": 0,
      "historicSpillsList": []
    },
    {
      "id": 344818727,
      "eventId": 656314,
      "siteUnitNumber": 12616,
      "bathingSite": "GURNARD",
      "eventStart": "2022-11-03T18:31:00",
      "eventStop": "2022-11-04T01:44:00",
      "duration": 433,
      "status": "Genuine",
      "associatedSiteId": 109707,
      "outfallName": "MEDINA ROAD COWES",
      "isImpacting": false,
      "overFlowSiteId": 0,
      "historicSpillsList": []
    },
    {
      "id": 344841505,
      "eventId": 655600,
      "siteUnitNumber": 12622,
      "bathingSite": "WHITECLIFF BAY",
      "eventStart": "2022-11-04T00:41:34",
      "eventStop": "2022-11-04T01:32:00",
      "duration": 50,
      "status": "Genuine",
      "associatedSiteId": 110096,
      "outfallName": "SANDOWN NO1",
      "isImpacting": true,
      "overFlowSiteId": 0,
      "historicSpillsList": [
        {
          "id": 344841505,
          "eventId": 655600,
          "siteUnitNumber": 12622,
          "bathingSite": "WHITECLIFF BAY",
          "eventStart": "2022-11-04T00:41:34",
          "eventStop": "2022-11-04T01:32:00",
          "duration": 50,
          "status": "Genuine",
          "associatedSiteId": 110096,
          "outfallName": "SANDOWN NO1",
          "isImpacting": true,
          "overFlowSiteId": 115453
        }
      ]
    },
    {
      "id": 344849540,
      "eventId": 655727,
      "siteUnitNumber": 12576,
      "bathingSite": "ST LEONARDS",
      "eventStart": "2022-11-04T00:05:00",
      "eventStop": "2022-11-04T01:15:00",
      "duration": 70,
      "status": "Genuine",
      "associatedSiteId": 111370,
      "outfallName": "YORK ROAD BEXHILL",
      "isImpacting": false,
      "overFlowSiteId": 0,
      "historicSpillsList": []
    },
    {
      "id": 344823965,
      "eventId": 655413,
      "siteUnitNumber": 12601,
      "bathingSite": "BEACHLANDS CENTRAL",
      "eventStart": "2022-11-03T23:15:00",
      "eventStop": "2022-11-04T01:08:00",
      "duration": 113,
      "status": "Genuine",
      "associatedSiteId": 109823,
      "outfallName": "FORT CUMBERLAND NO1",
      "isImpacting": true,
      "overFlowSiteId": 0,
      "historicSpillsList": [
        {
          "id": 344823969,
          "eventId": 655413,
          "siteUnitNumber": 12661,
          "bathingSite": "LANGSTONE HARBOUR",
          "eventStart": "2022-11-03T23:15:00",
          "eventStop": "2022-11-04T01:08:00",
          "duration": 113,
          "status": "Genuine",
          "associatedSiteId": 109823,
          "outfallName": "FORT CUMBERLAND NO1",
          "isImpacting": true,
          "overFlowSiteId": 110658,
          "historicSpillsList": []
        }
      ]
    }
  ]
}