{
  "currentPage": 812,
  "totalItems": 21025,
  "totalPages": 841,
  "items": [
    {
      "id": 344868700,
      "eventId": 328590,
      "siteUnitNumber": 12662,
      "bathingSite": "CHICHESTER HARBOUR",
      "eventStart": "2021-01-29T07:50:45",
      "eventStop": "2021-01-29T08:06:34",
      "duration": 15,
      "status": "Genuine",
      "associatedSiteId": 109836,
      "outfallName": "CHICHESTER",
      "isImpacting": true,
      "overFlowSiteId": 0,
      "historicSpillsList": [
        {
          "id": 344868700,
          "eventId": 328590,
          "siteUnitNumber": 12662,
          "bathingSite": "CHICHESTER HARBOUR",
          "eventStart": "2021-01-29T07:50:45",
          "eventStop": "2021-01-29T08:06:34",
          "duration": 15,
          "status": "Genuine",
          "associatedSiteId": 109836,
          "outfallName": "CHICHESTER",
          "isImpacting": true,
          "overFlowSiteId": 115401
        }
      ]
    },
    {
      "id": 344891797,
      "eventId": 328445,
      "siteUnitNumber": 12582,
      "bathingSite": "SEAFORD",
      "eventStart": "2021-01-29T06:23:56",
      "eventStop": "2021-01-29T06:50:34",
      "duration": 26,
      "status": "Genuine",
      "associatedSiteId": 110920,
      "outfallName": "NEWHAVEN",
      "isImpacting": true,
      "overFlowSiteId": 0,
      "historicSpillsList": [
        {
          "id": 344891797,
          "eventId": 328445,
          "siteUnitNumber": 12582,
          "bathingSite": "SEAFORD",
          "eventStart": "2021-01-29T06:23:56",
          "eventStop": "2021-01-29T06:50:34",
          "duration": 26,
          "status": "Genuine",
          "associatedSiteId": 110920,
          "outfallName": "NEWHAVEN",
          "isImpacting": true,
          "overFlowSiteId": 116065
        }
      ]
    },
    {
      "id": 344868701,
      "eventId": 328405,
      "siteUnitNumber": 12662,
      "bathingSite": "CHICHESTER HARBOUR",
      "eventStart": "2021-01-29T05:19:08",
      "eventStop": "2021-01-29T06:09:51",
      "duration": 50,
      "status": "Genuine",
      "associatedSiteId": 109836,
      "outfallName": "CHICHESTER",
      "isImpacting": true,
      "overFlowSiteId": 0,
      "historicSpillsList": [
        {
          "id": 344868701,
          "eventId": 328405,
          "siteUnitNumber": 12662,
          "bathingSite": "CHICHESTER HARBOUR",
          "eventStart": "2021-01-29T05:19:08",
          "eventStop": "2021-01-29T06:09:51",
          "duration": 50,
          "status": "Genuine",
          "associatedSiteId": 109836,
          "outfallName": "CHICHESTER",
          "isImpacting": true,
          "overFlowSiteId": 115401
        }
      ]
    },
    {
      "id": 344858612,
      "eventId": 328630,
      "siteUnitNumber": 12551,
      "bathingSite": "HERNE BAY",
      "eventStart": "2021-01-29T04:42:00",
      "eventStop": "2021-01-29T05:55:00",
      "duration": 73,
      "status": "Genuine",
      "associatedSiteId": 109682,
      "outfallName": "MAY STREET HERNE BAY NO3",
      "isImpacting": true,
      "overFlowSiteId": 0,
      "historicSpillsList": [
        {
          "id": 344858612,
          "eventId": 328630,
          "siteUnitNumber": 12551,
          "bathingSite": "HERNE BAY",
          "eventStart": "2021-01-29T04:42:00",
          "eventStop": "2021-01-29T05:55:00",
          "duration": 73,
          "status": "Genuine",
          "associatedSiteId": 109682,
          "outfallName": "MAY STREET HERNE BAY NO3",
          "isImpacting": true,
          "overFlowSiteId": 115418
        }
      ]
    },
    {
      "id": 344855536,
      "eventId": 328107,
      "siteUnitNumber": 12544,
      "bathingSite": "SHEERNESS",
      "eventStart": "2021-01-29T01:05:00",
      "eventStop": "2021-01-29T05:41:00",
      "duration": 276,
      "status": "Genuine",
      "associatedSiteId": 109619,
      "outfallName": "WARDS HILL ROAD MINSTER IOS",
      "isImpacting": true,
      "overFlowSiteId": 0,
      "historicSpillsList": [
        {
          "id": 344855536,
          "eventId": 328107,
          "siteUnitNumber": 12544,
          "bathingSite": "SHEERNESS",
          "eventStart": "2021-01-29T01:05:00",
          "eventStop": "2021-01-29T05:41:00",
          "duration": 276,
          "status": "Genuine",
          "associatedSiteId": 109619,
          "outfallName": "WARDS HILL ROAD MINSTER IOS",
          "isImpacting": true,
          "overFlowSiteId": 107413
        },
        {
          "id": 344855537,
          "eventId": 328107,
          "siteUnitNumber": 12550,
          "bathingSite": "MINSTER LEAS",
          "eventStart": "2021-01-29T01:05:00",
          "eventStop": "2021-01-29T05:41:00",
          "duration": 276,
          "status": "Genuine",
          "associatedSiteId": 109619,
          "outfallName": "WARDS HILL ROAD MINSTER IOS",
          "isImpacting": true,
          "overFlowSiteId": 107413,
          "historicSpillsList": []
        }
      ]
    },
    {
      "id": 344891796,
      "eventId": 327777,
      "siteUnitNumber": 12582,
      "bathingSite": "SEAFORD",
      "eventStart": "2021-01-28T21:59:25",
      "eventStop": "2021-01-29T04:59:52",
      "duration": 420,
      "status": "Genuine",
      "associatedSiteId": 110920,
      "outfallName": "NEWHAVEN",
      "isImpacting": true,
      "overFlowSiteId": 0,
      "historicSpillsList": [
        {
          "id": 344891796,
          "eventId": 327777,
          "siteUnitNumber": 12582,
          "bathingSite": "SEAFORD",
          "eventStart": "2021-01-28T21:59:25",
          "eventStop": "2021-01-29T04:59:52",
          "duration": 420,
          "status": "Genuine",
          "associatedSiteId": 110920,
          "outfallName": "NEWHAVEN",
          "isImpacting": true,
          "overFlowSiteId": 116065
        }
      ]
    },
    {
      "id": 344858715,
      "eventId": 329209,
      "siteUnitNumber": 12563,
      "bathingSite": "RAMSGATE SANDS",
      "eventStart": "2021-01-29T02:15:00",
      "eventStop": "2021-01-29T04:49:00",
      "duration": 154,
      "status": "Genuine",
      "associatedSiteId": 109686,
      "outfallName": "MILITARY ROAD RAMSGATE NO2",
      "isImpacting": true,
      "overFlowSiteId": 0,
      "historicSpillsList": [
        {
          "id": 344858715,
          "eventId": 329209,
          "siteUnitNumber": 12563,
          "bathingSite": "RAMSGATE SANDS",
          "eventStart": "2021-01-29T02:15:00",
          "eventStop": "2021-01-29T04:49:00",
          "duration": 154,
          "status": "Genuine",
          "associatedSiteId": 109686,
          "outfallName": "MILITARY ROAD RAMSGATE NO2",
          "isImpacting": true,
          "overFlowSiteId": 116124
        },
        {
          "id": 344858716,
          "eventId": 329209,
          "siteUnitNumber": 12564,
          "bathingSite": "RAMSGATE WESTERN UNDERCLIFFE",
          "eventStart": "2021-01-29T02:15:00",
          "eventStop": "2021-01-29T04:49:00",
          "duration": 154,
          "status": "Genuine",
          "associatedSiteId": 109686,
          "outfallName": "MILITARY ROAD RAMSGATE NO2",
          "isImpacting": true,
          "overFlowSiteId": 116124,
          "historicSpillsList": []
        }
      ]
    },
    {
      "id": 344896755,
      "eventId": 328242,
      "siteUnitNumber": 12577,
      "bathingSite": "BEXHILL",
      "eventStart": "2021-01-29T01:26:00",
      "eventStop": "2021-01-29T04:36:00",
      "duration": 190,
      "status": "Genuine",
      "associatedSiteId": 115500,
      "outfallName": "BEXHILL DOWN",
      "isImpacting": true,
      "overFlowSiteId": 0,
      "historicSpillsList": [
        {
          "id": 344896755,
          "eventId": 328242,
          "siteUnitNumber": 12577,
          "bathingSite": "BEXHILL",
          "eventStart": "2021-01-29T01:26:00",
          "eventStop": "2021-01-29T04:36:00",
          "duration": 190,
          "status": "Genuine",
          "associatedSiteId": 115500,
          "outfallName": "BEXHILL DOWN",
          "isImpacting": true,
          "overFlowSiteId": 107638
        }
      ]
    },
    {
      "id": 344882294,
      "eventId": 327907,
      "siteUnitNumber": 12567,
      "bathingSite": "FOLKESTONE",
      "eventStart": "2021-01-28T23:15:57",
      "eventStop": "2021-01-29T04:36:00",
      "duration": 320,
      "status": "Genuine",
      "associatedSiteId": 110010,
      "outfallName": "THE STADE FOLKESTONE",
      "isImpacting": true,
      "overFlowSiteId": 0,
      "historicSpillsList": [
        {
          "id": 344882294,
          "eventId": 327907,
          "siteUnitNumber": 12567,
          "bathingSite": "FOLKESTONE",
          "eventStart": "2021-01-28T23:15:57",
          "eventStop": "2021-01-29T04:36:00",
          "duration": 320,
          "status": "Genuine",
          "associatedSiteId": 110010,
          "outfallName": "THE STADE FOLKESTONE",
          "isImpacting": true,
          "overFlowSiteId": 108909
        }
      ]
    },
    {
      "id": 344892360,
      "eventId": 328154,
      "siteUnitNumber": 12549,
      "bathingSite": "HERNE BAY CENTRAL",
      "eventStart": "2021-01-29T01:00:00",
      "eventStop": "2021-01-29T04:30:00",
      "duration": 210,
      "status": "Genuine",
      "associatedSiteId": 111724,
      "outfallName": "GAINSBOROUGH DRIVE HERNE BAY",
      "isImpacting": true,
      "overFlowSiteId": 0,
      "historicSpillsList": [
        {
          "id": 344892360,
          "eventId": 328154,
          "siteUnitNumber": 12549,
          "bathingSite": "HERNE BAY CENTRAL",
          "eventStart": "2021-01-29T01:00:00",
          "eventStop": "2021-01-29T04:30:00",
          "duration": 210,
          "status": "Genuine",
          "associatedSiteId": 111724,
          "outfallName": "GAINSBOROUGH DRIVE HERNE BAY",
          "isImpacting": true,
          "overFlowSiteId": 111725
        },
        {
          "id": 344892361,
          "eventId": 328154,
          "siteUnitNumber": 12551,
          "bathingSite": "HERNE BAY",
          "eventStart": "2021-01-29T01:00:00",
          "eventStop": "2021-01-29T04:30:00",
          "duration": 210,
          "status": "Genuine",
          "associatedSiteId": 111724,
          "outfallName": "GAINSBOROUGH DRIVE HERNE BAY",
          "isImpacting": true,
          "overFlowSiteId": 111725,
          "historicSpillsList": []
        }
      ]
    },
    {
      "id": 344858614,
      "eventId": 328629,
      "siteUnitNumber": 12551,
      "bathingSite": "HERNE BAY",
      "eventStart": "2021-01-29T01:31:00",
      "eventStop": "2021-01-29T04:20:00",
      "duration": 169,
      "status": "Genuine",
      "associatedSiteId": 109682,
      "outfallName": "MAY STREET HERNE BAY NO3",
      "isImpacting": true,
      "overFlowSiteId": 0,
      "historicSpillsList": [
        {
          "id": 344858614,
          "eventId": 328629,
          "siteUnitNumber": 12551,
          "bathingSite": "HERNE BAY",
          "eventStart": "2021-01-29T01:31:00",
          "eventStop": "2021-01-29T04:20:00",
          "duration": 169,
          "status": "Genuine",
          "associatedSiteId": 109682,
          "outfallName": "MAY STREET HERNE BAY NO3",
          "isImpacting": true,
          "overFlowSiteId": 115418
        }
      ]
    },
    {
      "id": 344866352,
      "eventId": 327846,
      "siteUnitNumber": 12604,
      "bathingSite": "SOUTHSEA EAST",
      "eventStart": "2021-01-28T22:27:13",
      "eventStop": "2021-01-29T04:13:00",
      "duration": 345,
      "status": "Genuine",
      "associatedSiteId": 109822,
      "outfallName": "PIER ROAD SOUTHSEA",
      "isImpacting": true,
      "overFlowSiteId": 0,
      "historicSpillsList": [
        {
          "id": 344866352,
          "eventId": 327846,
          "siteUnitNumber": 12604,
          "bathingSite": "SOUTHSEA EAST",
          "eventStart": "2021-01-28T22:27:13",
          "eventStop": "2021-01-29T04:13:00",
          "duration": 345,
          "status": "Genuine",
          "associatedSiteId": 109822,
          "outfallName": "PIER ROAD SOUTHSEA",
          "isImpacting": true,
          "overFlowSiteId": 108469
        },
        {
          "id": 344866353,
          "eventId": 327846,
          "siteUnitNumber": 12605,
          "bathingSite": "STOKES BAY",
          "eventStart": "2021-01-28T22:27:13",
          "eventStop": "2021-01-29T04:13:00",
          "duration": 345,
          "status": "Genuine",
          "associatedSiteId": 109822,
          "outfallName": "PIER ROAD SOUTHSEA",
          "isImpacting": true,
          "overFlowSiteId": 108469,
          "historicSpillsList": []
        }
      ]
    },
    {
      "id": 344858508,
      "eventId": 328341,
      "siteUnitNumber": 12549,
      "bathingSite": "HERNE BAY CENTRAL",
      "eventStart": "2021-01-29T03:00:00",
      "eventStop": "2021-01-29T03:39:00",
      "duration": 39,
      "status": "Genuine",
      "associatedSiteId": 109678,
      "outfallName": "EDDINGTON LANE HERNE BAY NO2",
      "isImpacting": true,
      "overFlowSiteId": 0,
      "historicSpillsList": [
        {
          "id": 344858508,
          "eventId": 328341,
          "siteUnitNumber": 12549,
          "bathingSite": "HERNE BAY CENTRAL",
          "eventStart": "2021-01-29T03:00:00",
          "eventStop": "2021-01-29T03:39:00",
          "duration": 39,
          "status": "Genuine",
          "associatedSiteId": 109678,
          "outfallName": "EDDINGTON LANE HERNE BAY NO2",
          "isImpacting": true,
          "overFlowSiteId": 108093
        },
        {
          "id": 344858509,
          "eventId": 328341,
          "siteUnitNumber": 12551,
          "bathingSite": "HERNE BAY",
          "eventStart": "2021-01-29T03:00:00",
          "eventStop": "2021-01-29T03:39:00",
          "duration": 39,
          "status": "Genuine",
          "associatedSiteId": 109678,
          "outfallName": "EDDINGTON LANE HERNE BAY NO2",
          "isImpacting": true,
          "overFlowSiteId": 108093,
          "historicSpillsList": []
        }
      ]
    },
    {
      "id": 344891369,
      "eventId": 327806,
      "siteUnitNumber": 12620,
      "bathingSite": "ST HELENS",
      "eventStart": "2021-01-28T22:01:23",
      "eventStop": "2021-01-29T03:20:08",
      "duration": 318,
      "status": "Genuine",
      "associatedSiteId": 110761,
      "outfallName": "BRADING",
      "isImpacting": true,
      "overFlowSiteId": 0,
      "historicSpillsList": [
        {
          "id": 344891369,
          "eventId": 327806,
          "siteUnitNumber": 12620,
          "bathingSite": "ST HELENS",
          "eventStart": "2021-01-28T22:01:23",
          "eventStop": "2021-01-29T03:20:08",
          "duration": 318,
          "status": "Genuine",
          "associatedSiteId": 110761,
          "outfallName": "BRADING",
          "isImpacting": true,
          "overFlowSiteId": 113676
        }
      ]
    },
    {
      "id": 344882179,
      "eventId": 328347,
      "siteUnitNumber": 12546,
      "bathingSite": "LEYSDOWN",
      "eventStart": "2021-01-29T02:15:00",
      "eventStop": "2021-01-29T03:15:00",
      "duration": 60,
      "status": "Genuine",
      "associatedSiteId": 109998,
      "outfallName": "MUSTARDS ROAD LEYSDOWN ON SEA",
      "isImpacting": true,
      "overFlowSiteId": 0,
      "historicSpillsList": [
        {
          "id": 344882179,
          "eventId": 328347,
          "siteUnitNumber": 12546,
          "bathingSite": "LEYSDOWN",
          "eventStart": "2021-01-29T02:15:00",
          "eventStop": "2021-01-29T03:15:00",
          "duration": 60,
          "status": "Genuine",
          "associatedSiteId": 109998,
          "outfallName": "MUSTARDS ROAD LEYSDOWN ON SEA",
          "isImpacting": true,
          "overFlowSiteId": 108113
        }
      ]
    },
    {
      "id": 344858246,
      "eventId": 328221,
      "siteUnitNumber": 12549,
      "bathingSite": "HERNE BAY CENTRAL",
      "eventStart": "2021-01-29T01:43:00",
      "eventStop": "2021-01-29T03:02:00",
      "duration": 79,
      "status": "Genuine",
      "associatedSiteId": 109676,
      "outfallName": "KINGS HALL HERNE BAY A",
      "isImpacting": true,
      "overFlowSiteId": 0,
      "historicSpillsList": [
        {
          "id": 344858246,
          "eventId": 328221,
          "siteUnitNumber": 12549,
          "bathingSite": "HERNE BAY CENTRAL",
          "eventStart": "2021-01-29T01:43:00",
          "eventStop": "2021-01-29T03:02:00",
          "duration": 79,
          "status": "Genuine",
          "associatedSiteId": 109676,
          "outfallName": "KINGS HALL HERNE BAY A",
          "isImpacting": true,
          "overFlowSiteId": 108096
        },
        {
          "id": 344858247,
          "eventId": 328221,
          "siteUnitNumber": 12551,
          "bathingSite": "HERNE BAY",
          "eventStart": "2021-01-29T01:43:00",
          "eventStop": "2021-01-29T03:02:00",
          "duration": 79,
          "status": "Genuine",
          "associatedSiteId": 109676,
          "outfallName": "KINGS HALL HERNE BAY A",
          "isImpacting": true,
          "overFlowSiteId": 108096,
          "historicSpillsList": []
        }
      ]
    },
    {
      "id": 344858335,
      "eventId": 329083,
      "siteUnitNumber": 12549,
      "bathingSite": "HERNE BAY CENTRAL",
      "eventStart": "2021-01-29T01:17:00",
      "eventStop": "2021-01-29T03:02:00",
      "duration": 105,
      "status": "Genuine",
      "associatedSiteId": 109677,
      "outfallName": "EDDINGTON LANE HERNE BAY NO1",
      "isImpacting": true,
      "overFlowSiteId": 0,
      "historicSpillsList": [
        {
          "id": 344858335,
          "eventId": 329083,
          "siteUnitNumber": 12549,
          "bathingSite": "HERNE BAY CENTRAL",
          "eventStart": "2021-01-29T01:17:00",
          "eventStop": "2021-01-29T03:02:00",
          "duration": 105,
          "status": "Genuine",
          "associatedSiteId": 109677,
          "outfallName": "EDDINGTON LANE HERNE BAY NO1",
          "isImpacting": true,
          "overFlowSiteId": 108091
        },
        {
          "id": 344858336,
          "eventId": 329083,
          "siteUnitNumber": 12551,
          "bathingSite": "HERNE BAY",
          "eventStart": "2021-01-29T01:17:00",
          "eventStop": "2021-01-29T03:02:00",
          "duration": 105,
          "status": "Genuine",
          "associatedSiteId": 109677,
          "outfallName": "EDDINGTON LANE HERNE BAY NO1",
          "isImpacting": true,
          "overFlowSiteId": 108091,
          "historicSpillsList": []
        }
      ]
    },
    {
      "id": 344855641,
      "eventId": 328386,
      "siteUnitNumber": 12616,
      "bathingSite": "GURNARD",
      "eventStart": "2021-01-28T22:46:56",
      "eventStop": "2021-01-29T03:01:59",
      "duration": 255,
      "status": "Genuine",
      "associatedSiteId": 109650,
      "outfallName": "MARSH ROAD GURNARD",
      "isImpacting": true,
      "overFlowSiteId": 0,
      "historicSpillsList": [
        {
          "id": 344855641,
          "eventId": 328386,
          "siteUnitNumber": 12616,
          "bathingSite": "GURNARD",
          "eventStart": "2021-01-28T22:46:56",
          "eventStop": "2021-01-29T03:01:59",
          "duration": 255,
          "status": "Genuine",
          "associatedSiteId": 109650,
          "outfallName": "MARSH ROAD GURNARD",
          "isImpacting": true,
          "overFlowSiteId": 107441
        },
        {
          "id": 344855642,
          "eventId": 328386,
          "siteUnitNumber": 12617,
          "bathingSite": "COWES",
          "eventStart": "2021-01-28T22:46:56",
          "eventStop": "2021-01-29T03:01:59",
          "duration": 255,
          "status": "Genuine",
          "associatedSiteId": 109650,
          "outfallName": "MARSH ROAD GURNARD",
          "isImpacting": true,
          "overFlowSiteId": 107441,
          "historicSpillsList": []
        }
      ]
    },
    {
      "id": 344870384,
      "eventId": 328279,
      "siteUnitNumber": 12568,
      "bathingSite": "SANDGATE",
      "eventStart": "2021-01-29T02:33:50",
      "eventStop": "2021-01-29T02:38:51",
      "duration": 5,
      "status": "Genuine",
      "associatedSiteId": 109896,
      "outfallName": "RANGE ROAD HYTHE K SHORT",
      "isImpacting": true,
      "overFlowSiteId": 0,
      "historicSpillsList": [
        {
          "id": 344870384,
          "eventId": 328279,
          "siteUnitNumber": 12568,
          "bathingSite": "SANDGATE",
          "eventStart": "2021-01-29T02:33:50",
          "eventStop": "2021-01-29T02:38:51",
          "duration": 5,
          "status": "Genuine",
          "associatedSiteId": 109896,
          "outfallName": "RANGE ROAD HYTHE K SHORT",
          "isImpacting": true,
          "overFlowSiteId": 116112
        },
        {
          "id": 344870385,
          "eventId": 328279,
          "siteUnitNumber": 12569,
          "bathingSite": "HYTHE",
          "eventStart": "2021-01-29T02:33:50",
          "eventStop": "2021-01-29T02:38:51",
          "duration": 5,
          "status": "Genuine",
          "associatedSiteId": 109896,
          "outfallName": "RANGE ROAD HYTHE K SHORT",
          "isImpacting": true,
          "overFlowSiteId": 116112,
          "historicSpillsList": []
        }
      ]
    },
    {
      "id": 344865112,
      "eventId": 327899,
      "siteUnitNumber": 12618,
      "bathingSite": "RYDE",
      "eventStart": "2021-01-28T22:47:35",
      "eventStop": "2021-01-29T02:37:25",
      "duration": 229,
      "status": "Genuine",
      "associatedSiteId": 109790,
      "outfallName": "GREAT PRESTON ROAD RYDE",
      "isImpacting": true,
      "overFlowSiteId": 0,
      "historicSpillsList": [
        {
          "id": 344865112,
          "eventId": 327899,
          "siteUnitNumber": 12618,
          "bathingSite": "RYDE",
          "eventStart": "2021-01-28T22:47:35",
          "eventStop": "2021-01-29T02:37:25",
          "duration": 229,
          "status": "Genuine",
          "associatedSiteId": 109790,
          "outfallName": "GREAT PRESTON ROAD RYDE",
          "isImpacting": true,
          "overFlowSiteId": 109304
        },
        {
          "id": 344865113,
          "eventId": 327899,
          "siteUnitNumber": 12619,
          "bathingSite": "SEAGROVE",
          "eventStart": "2021-01-28T22:47:35",
          "eventStop": "2021-01-29T02:37:25",
          "duration": 229,
          "status": "Genuine",
          "associatedSiteId": 109790,
          "outfallName": "GREAT PRESTON ROAD RYDE",
          "isImpacting": true,
          "overFlowSiteId": 109304,
          "historicSpillsList": []
        }
      ]
    },
    {
      "id": 344885687,
      "eventId": 328226,
      "siteUnitNumber": 12623,
      "bathingSite": "YAVERLAND",
      "eventStart": "2021-01-29T01:15:36",
      "eventStop": "2021-01-29T02:18:50",
      "duration": 63,
      "status": "Genuine",
      "associatedSiteId": 110096,
      "outfallName": "SANDOWN NO1",
      "isImpacting": true,
      "overFlowSiteId": 0,
      "historicSpillsList": [
        {
          "id": 344885687,
          "eventId": 328226,
          "siteUnitNumber": 12623,
          "bathingSite": "YAVERLAND",
          "eventStart": "2021-01-29T01:15:36",
          "eventStop": "2021-01-29T02:18:50",
          "duration": 63,
          "status": "Genuine",
          "associatedSiteId": 110096,
          "outfallName": "SANDOWN NO1",
          "isImpacting": true,
          "overFlowSiteId": 115453
        },
        {
          "id": 344885688,
          "eventId": 328226,
          "siteUnitNumber": 12624,
          "bathingSite": "SANDOWN",
          "eventStart": "2021-01-29T01:15:36",
          "eventStop": "2021-01-29T02:18:50",
          "duration": 63,
          "status": "Genuine",
          "associatedSiteId": 110096,
          "outfallName": "SANDOWN NO1",
          "isImpacting": true,
          "overFlowSiteId": 115453,
          "historicSpillsList": []
        },
        {
          "id": 344885694,
          "eventId": 328226,
          "siteUnitNumber": 12622,
          "bathingSite": "WHITECLIFF BAY",
          "eventStart": "2021-01-29T01:15:36",
          "eventStop": "2021-01-29T02:18:50",
          "duration": 63,
          "status": "Genuine",
          "associatedSiteId": 110096,
          "outfallName": "SANDOWN NO1",
          "isImpacting": true,
          "overFlowSiteId": 115453,
          "historicSpillsList": []
        }
      ]
    },
    {
      "id": 344875183,
      "eventId": 328367,
      "siteUnitNumber": 12586,
      "bathingSite": "HOVE",
      "eventStart": "2021-01-28T22:04:49",
      "eventStop": "2021-01-29T02:05:37",
      "duration": 240,
      "status": "Genuine",
      "associatedSiteId": 109929,
      "outfallName": "SHOREHAM NO1",
      "isImpacting": true,
      "overFlowSiteId": 0,
      "historicSpillsList": [
        {
          "id": 344875183,
          "eventId": 328367,
          "siteUnitNumber": 12586,
          "bathingSite": "HOVE",
          "eventStart": "2021-01-28T22:04:49",
          "eventStop": "2021-01-29T02:05:37",
          "duration": 240,
          "status": "Genuine",
          "associatedSiteId": 109929,
          "outfallName": "SHOREHAM NO1",
          "isImpacting": true,
          "overFlowSiteId": 115434
        },
        {
          "id": 344875184,
          "eventId": 328367,
          "siteUnitNumber": 12587,
          "bathingSite": "SOUTHWICK",
          "eventStart": "2021-01-28T22:04:49",
          "eventStop": "2021-01-29T02:05:37",
          "duration": 240,
          "status": "Genuine",
          "associatedSiteId": 109929,
          "outfallName": "SHOREHAM NO1",
          "isImpacting": true,
          "overFlowSiteId": 115434,
          "historicSpillsList": []
        },
        {
          "id": 344875185,
          "eventId": 328367,
          "siteUnitNumber": 12588,
          "bathingSite": "SHOREHAM BEACH",
          "eventStart": "2021-01-28T22:04:49",
          "eventStop": "2021-01-29T02:05:37",
          "duration": 240,
          "status": "Genuine",
          "associatedSiteId": 109929,
          "outfallName": "SHOREHAM NO1",
          "isImpacting": true,
          "overFlowSiteId": 115434,
          "historicSpillsList": []
        }
      ]
    },
    {
      "id": 344870388,
      "eventId": 328264,
      "siteUnitNumber": 12568,
      "bathingSite": "SANDGATE",
      "eventStart": "2021-01-29T01:57:53",
      "eventStop": "2021-01-29T02:03:12",
      "duration": 5,
      "status": "Genuine",
      "associatedSiteId": 109896,
      "outfallName": "RANGE ROAD HYTHE K SHORT",
      "isImpacting": true,
      "overFlowSiteId": 0,
      "historicSpillsList": [
        {
          "id": 344870388,
          "eventId": 328264,
          "siteUnitNumber": 12568,
          "bathingSite": "SANDGATE",
          "eventStart": "2021-01-29T01:57:53",
          "eventStop": "2021-01-29T02:03:12",
          "duration": 5,
          "status": "Genuine",
          "associatedSiteId": 109896,
          "outfallName": "RANGE ROAD HYTHE K SHORT",
          "isImpacting": true,
          "overFlowSiteId": 116112
        },
        {
          "id": 344870389,
          "eventId": 328264,
          "siteUnitNumber": 12569,
          "bathingSite": "HYTHE",
          "eventStart": "2021-01-29T01:57:53",
          "eventStop": "2021-01-29T02:03:12",
          "duration": 5,
          "status": "Genuine",
          "associatedSiteId": 109896,
          "outfallName": "RANGE ROAD HYTHE K SHORT",
          "isImpacting": true,
          "overFlowSiteId": 116112,
          "historicSpillsList": []
        }
      ]
    },
    {
      "id": 344864518,
      "eventId": 330947,
      "siteUnitNumber": 12618,
      "bathingSite": "RYDE",
      "eventStart": "2021-01-28T23:02:00",
      "eventStop": "2021-01-29T01:49:00",
      "duration": 167,
      "status": "Genuine",
      "associatedSiteId": 109778,
      "outfallName": "PRINCE CONSORT RYDE NEW",
      "isImpacting": true,
      "overFlowSiteId": 0,
      "historicSpillsList": [
        {
          "id": 344864518,
          "eventId": 330947,
          "siteUnitNumber": 12618,
          "bathingSite": "RYDE",
          "eventStart": "2021-01-28T23:02:00",
          "eventStop": "2021-01-29T01:49:00",
          "duration": 167,
          "status": "Genuine",
          "associatedSiteId": 109778,
          "outfallName": "PRINCE CONSORT RYDE NEW",
          "isImpacting": true,
          "overFlowSiteId": 108043
        }
      ]
    },
    {
      "id": 344880587,
      "eventId": 328513,
      "siteUnitNumber": 12591,
      "bathingSite": "LITTLEHAMPTON",
      "eventStart": "2021-01-29T01:15:00",
      "eventStop": "2021-01-29T01:46:00",
      "duration": 31,
      "status": "Genuine",
      "associatedSiteId": 109968,
      "outfallName": "FORD ROAD ARUNDEL",
      "isImpacting": true,
      "overFlowSiteId": 0,
      "historicSpillsList": [
        {
          "id": 344880587,
          "eventId": 328513,
          "siteUnitNumber": 12591,
          "bathingSite": "LITTLEHAMPTON",
          "eventStart": "2021-01-29T01:15:00",
          "eventStop": "2021-01-29T01:46:00",
          "duration": 31,
          "status": "Genuine",
          "associatedSiteId": 109968,
          "outfallName": "FORD ROAD ARUNDEL",
          "isImpacting": true,
          "overFlowSiteId": 108002
        }
      ]
    }
  ]
}