{
  "currentPage": 374,
  "totalItems": 21025,
  "totalPages": 841,
  "items": [
    {
      "id": 344774875,
      "eventId": 729017,
      "siteUnitNumber": 12616,
      "bathingSite": "GURNARD",
      "eventStart": "2023-01-12T11:00:00",
      "eventStop": "2023-01-13T02:00:00",
      "duration": 900,
      "status": "Not Genuine",
      "associatedSiteId": 109704,
      "outfallName": "EGYPT POINT COWES",
      "isImpacting": false,
      "overFlowSiteId": 0,
      "historicSpillsList": []
    },
    {
      "id": 344805073,
      "eventId": 730338,
      "siteUnitNumber": 12616,
      "bathingSite": "GURNARD",
      "eventStart": "2023-01-12T09:33:00",
      "eventStop": "2023-01-13T01:37:00",
      "duration": 964,
      "status": "Genuine",
      "associatedSiteId": 110701,
      "outfallName": "TERMINUS ROAD COWES 2",
      "isImpacting": true,
      "overFlowSiteId": 0,
      "historicSpillsList": [
        {
          "id": 344805073,
          "eventId": 730338,
          "siteUnitNumber": 12616,
          "bathingSite": "GURNARD",
          "eventStart": "2023-01-12T09:33:00",
          "eventStop": "2023-01-13T01:37:00",
          "duration": 964,
          "status": "Genuine",
          "associatedSiteId": 110701,
          "outfallName": "TERMINUS ROAD COWES 2",
          "isImpacting": true,
          "overFlowSiteId": 108563
        },
        {
          "id": 344805074,
          "eventId": 730338,
          "siteUnitNumber": 12617,
          "bathingSite": "COWES",
          "eventStart": "2023-01-12T09:33:00",
          "eventStop": "2023-01-13T01:37:00",
          "duration": 964,
          "status": "Genuine",
          "associatedSiteId": 110701,
          "outfallName": "TERMINUS ROAD COWES 2",
          "isImpacting": true,
          "overFlowSiteId": 108563,
          "historicSpillsList": []
        }
      ]
    },
    {
      "id": 344770853,
      "eventId": 730149,
      "siteUnitNumber": 12616,
      "bathingSite": "GURNARD",
      "eventStart": "2023-01-13T01:25:00",
      "eventStop": "2023-01-13T01:31:00",
      "duration": 6,
      "status": "Genuine",
      "associatedSiteId": 109652,
      "outfallName": "WOODVALE TRANSFER NO1",
      "isImpacting": true,
      "overFlowSiteId": 0,
      "historicSpillsList": [
        {
          "id": 344770853,
          "eventId": 730149,
          "siteUnitNumber": 12616,
          "bathingSite": "GURNARD",
          "eventStart": "2023-01-13T01:25:00",
          "eventStop": "2023-01-13T01:31:00",
          "duration": 6,
          "status": "Genuine",
          "associatedSiteId": 109652,
          "outfallName": "WOODVALE TRANSFER NO1",
          "isImpacting": true,
          "overFlowSiteId": 115966
        }
      ]
    },
    {
      "id": 344806341,
      "eventId": 729693,
      "siteUnitNumber": 12582,
      "bathingSite": "SEAFORD",
      "eventStart": "2023-01-13T00:03:18",
      "eventStop": "2023-01-13T01:30:29",
      "duration": 87,
      "status": "Genuine",
      "associatedSiteId": 110920,
      "outfallName": "NEWHAVEN",
      "isImpacting": false,
      "overFlowSiteId": 0,
      "historicSpillsList": []
    },
    {
      "id": 344806874,
      "eventId": 728486,
      "siteUnitNumber": 12577,
      "bathingSite": "BEXHILL",
      "eventStart": "2023-01-12T01:58:00",
      "eventStop": "2023-01-13T01:01:00",
      "duration": 1383,
      "status": "Genuine",
      "associatedSiteId": 111338,
      "outfallName": "GALLEY HILL BEXHILL",
      "isImpacting": true,
      "overFlowSiteId": 0,
      "historicSpillsList": [
        {
          "id": 344806874,
          "eventId": 728486,
          "siteUnitNumber": 12577,
          "bathingSite": "BEXHILL",
          "eventStart": "2023-01-12T01:58:00",
          "eventStop": "2023-01-13T01:01:00",
          "duration": 1383,
          "status": "Genuine",
          "associatedSiteId": 111338,
          "outfallName": "GALLEY HILL BEXHILL",
          "isImpacting": true,
          "overFlowSiteId": 116162
        }
      ]
    },
    {
      "id": 344770855,
      "eventId": 730148,
      "siteUnitNumber": 12616,
      "bathingSite": "GURNARD",
      "eventStart": "2023-01-12T22:02:00",
      "eventStop": "2023-01-13T00:59:00",
      "duration": 177,
      "status": "Genuine",
      "associatedSiteId": 109652,
      "outfallName": "WOODVALE TRANSFER NO1",
      "isImpacting": true,
      "overFlowSiteId": 0,
      "historicSpillsList": [
        {
          "id": 344770856,
          "eventId": 730148,
          "siteUnitNumber": 12617,
          "bathingSite": "COWES",
          "eventStart": "2023-01-12T22:02:00",
          "eventStop": "2023-01-13T00:59:00",
          "duration": 177,
          "status": "Genuine",
          "associatedSiteId": 109652,
          "outfallName": "WOODVALE TRANSFER NO1",
          "isImpacting": true,
          "overFlowSiteId": 115966,
          "historicSpillsList": []
        }
      ]
    },
    {
      "id": 344779248,
      "eventId": 741020,
      "siteUnitNumber": 12618,
      "bathingSite": "RYDE",
      "eventStart": "2023-01-12T22:47:00",
      "eventStop": "2023-01-13T00:29:00",
      "duration": 102,
      "status": "Genuine",
      "associatedSiteId": 109778,
      "outfallName": "PRINCE CONSORT RYDE NEW",
      "isImpacting": true,
      "overFlowSiteId": 0,
      "historicSpillsList": [
        {
          "id": 344779248,
          "eventId": 741020,
          "siteUnitNumber": 12618,
          "bathingSite": "RYDE",
          "eventStart": "2023-01-12T22:47:00",
          "eventStop": "2023-01-13T00:29:00",
          "duration": 102,
          "status": "Genuine",
          "associatedSiteId": 109778,
          "outfallName": "PRINCE CONSORT RYDE NEW",
          "isImpacting": true,
          "overFlowSiteId": 108043
        }
      ]
    },
    {
      "id": 344806677,
      "eventId": 729701,
      "siteUnitNumber": 12573,
      "bathingSite": "CAMBER",
      "eventStart": "2023-01-12T22:24:00",
      "eventStop": "2023-01-13T00:15:00",
      "duration": 111,
      "status": "Genuine",
      "associatedSiteId": 110958,
      "outfallName": "RYE",
      "isImpacting": false,
      "overFlowSiteId": 0,
      "historicSpillsList": []
    },
    {
      "id": 344781792,
      "eventId": 729470,
      "siteUnitNumber": 12548,
      "bathingSite": "TANKERTON",
      "eventStart": "2023-01-12T17:36:09",
      "eventStop": "2023-01-13T00:00:03",
      "duration": 383,
      "status": "Genuine",
      "associatedSiteId": 109830,
      "outfallName": "SWALECLIFFE NO1",
      "isImpacting": true,
      "overFlowSiteId": 0,
      "historicSpillsList": [
        {
          "id": 344781792,
          "eventId": 729470,
          "siteUnitNumber": 12548,
          "bathingSite": "TANKERTON",
          "eventStart": "2023-01-12T17:36:09",
          "eventStop": "2023-01-13T00:00:03",
          "duration": 383,
          "status": "Genuine",
          "associatedSiteId": 109830,
          "outfallName": "SWALECLIFFE NO1",
          "isImpacting": true,
          "overFlowSiteId": 115444
        },
        {
          "id": 344781793,
          "eventId": 729470,
          "siteUnitNumber": 12549,
          "bathingSite": "HERNE BAY CENTRAL",
          "eventStart": "2023-01-12T17:36:09",
          "eventStop": "2023-01-13T00:00:03",
          "duration": 383,
          "status": "Genuine",
          "associatedSiteId": 109830,
          "outfallName": "SWALECLIFFE NO1",
          "isImpacting": true,
          "overFlowSiteId": 115444,
          "historicSpillsList": []
        }
      ]
    },
    {
      "id": 344795202,
      "eventId": 728987,
      "siteUnitNumber": 12591,
      "bathingSite": "LITTLEHAMPTON",
      "eventStart": "2023-01-12T09:54:00",
      "eventStop": "2023-01-12T23:39:00",
      "duration": 825,
      "status": "Genuine",
      "associatedSiteId": 109968,
      "outfallName": "FORD ROAD ARUNDEL",
      "isImpacting": true,
      "overFlowSiteId": 0,
      "historicSpillsList": [
        {
          "id": 344795202,
          "eventId": 728987,
          "siteUnitNumber": 12591,
          "bathingSite": "LITTLEHAMPTON",
          "eventStart": "2023-01-12T09:54:00",
          "eventStop": "2023-01-12T23:39:00",
          "duration": 825,
          "status": "Genuine",
          "associatedSiteId": 109968,
          "outfallName": "FORD ROAD ARUNDEL",
          "isImpacting": true,
          "overFlowSiteId": 108002
        }
      ]
    },
    {
      "id": 344785742,
      "eventId": 729662,
      "siteUnitNumber": 12568,
      "bathingSite": "SANDGATE",
      "eventStart": "2023-01-12T22:48:00",
      "eventStop": "2023-01-12T23:31:00",
      "duration": 43,
      "status": "Genuine",
      "associatedSiteId": 109897,
      "outfallName": "RANGE ROAD HYTHE K LONG",
      "isImpacting": false,
      "overFlowSiteId": 0,
      "historicSpillsList": []
    },
    {
      "id": 344774867,
      "eventId": 730275,
      "siteUnitNumber": 12616,
      "bathingSite": "GURNARD",
      "eventStart": "2023-01-12T22:15:00",
      "eventStop": "2023-01-12T23:13:00",
      "duration": 58,
      "status": "Genuine",
      "associatedSiteId": 109704,
      "outfallName": "EGYPT POINT COWES",
      "isImpacting": true,
      "overFlowSiteId": 0,
      "historicSpillsList": [
        {
          "id": 344774868,
          "eventId": 730275,
          "siteUnitNumber": 12617,
          "bathingSite": "COWES",
          "eventStart": "2023-01-12T22:15:00",
          "eventStop": "2023-01-12T23:13:00",
          "duration": 58,
          "status": "Genuine",
          "associatedSiteId": 109704,
          "outfallName": "EGYPT POINT COWES",
          "isImpacting": true,
          "overFlowSiteId": 116213,
          "historicSpillsList": []
        }
      ]
    },
    {
      "id": 344775799,
      "eventId": 729650,
      "siteUnitNumber": 12616,
      "bathingSite": "GURNARD",
      "eventStart": "2023-01-12T22:35:36",
      "eventStop": "2023-01-12T22:39:46",
      "duration": 4,
      "status": "Genuine",
      "associatedSiteId": 109706,
      "outfallName": "HIGH STREET COWES",
      "isImpacting": false,
      "overFlowSiteId": 0,
      "historicSpillsList": []
    },
    {
      "id": 344811737,
      "eventId": 728316,
      "siteUnitNumber": 12577,
      "bathingSite": "BEXHILL",
      "eventStart": "2023-01-11T20:24:47",
      "eventStop": "2023-01-12T22:15:00",
      "duration": 1550,
      "status": "Genuine",
      "associatedSiteId": 115500,
      "outfallName": "BEXHILL DOWN",
      "isImpacting": true,
      "overFlowSiteId": 0,
      "historicSpillsList": [
        {
          "id": 344811737,
          "eventId": 728316,
          "siteUnitNumber": 12577,
          "bathingSite": "BEXHILL",
          "eventStart": "2023-01-11T20:24:47",
          "eventStop": "2023-01-12T22:15:00",
          "duration": 1550,
          "status": "Genuine",
          "associatedSiteId": 115500,
          "outfallName": "BEXHILL DOWN",
          "isImpacting": true,
          "overFlowSiteId": 107638
        }
      ]
    },
    {
      "id": 344806676,
      "eventId": 729700,
      "siteUnitNumber": 12573,
      "bathingSite": "CAMBER",
      "eventStart": "2023-01-12T20:59:00",
      "eventStop": "2023-01-12T22:08:00",
      "duration": 69,
      "status": "Genuine",
      "associatedSiteId": 110958,
      "outfallName": "RYE",
      "isImpacting": false,
      "overFlowSiteId": 0,
      "historicSpillsList": []
    },
    {
      "id": 344806340,
      "eventId": 728860,
      "siteUnitNumber": 12582,
      "bathingSite": "SEAFORD",
      "eventStart": "2023-01-12T07:51:11",
      "eventStop": "2023-01-12T22:02:18",
      "duration": 851,
      "status": "Genuine",
      "associatedSiteId": 110920,
      "outfallName": "NEWHAVEN",
      "isImpacting": false,
      "overFlowSiteId": 0,
      "historicSpillsList": []
    },
    {
      "id": 344770857,
      "eventId": 730147,
      "siteUnitNumber": 12616,
      "bathingSite": "GURNARD",
      "eventStart": "2023-01-12T21:32:00",
      "eventStop": "2023-01-12T21:38:00",
      "duration": 6,
      "status": "Genuine",
      "associatedSiteId": 109652,
      "outfallName": "WOODVALE TRANSFER NO1",
      "isImpacting": true,
      "overFlowSiteId": 0,
      "historicSpillsList": [
        {
          "id": 344770858,
          "eventId": 730147,
          "siteUnitNumber": 12617,
          "bathingSite": "COWES",
          "eventStart": "2023-01-12T21:32:00",
          "eventStop": "2023-01-12T21:38:00",
          "duration": 6,
          "status": "Genuine",
          "associatedSiteId": 109652,
          "outfallName": "WOODVALE TRANSFER NO1",
          "isImpacting": true,
          "overFlowSiteId": 115966,
          "historicSpillsList": []
        }
      ]
    },
    {
      "id": 344785746,
      "eventId": 729614,
      "siteUnitNumber": 12568,
      "bathingSite": "SANDGATE",
      "eventStart": "2023-01-12T20:47:00",
      "eventStop": "2023-01-12T21:22:00",
      "duration": 35,
      "status": "Genuine",
      "associatedSiteId": 109897,
      "outfallName": "RANGE ROAD HYTHE K LONG",
      "isImpacting": false,
      "overFlowSiteId": 0,
      "historicSpillsList": []
    },
    {
      "id": 344779250,
      "eventId": 741019,
      "siteUnitNumber": 12618,
      "bathingSite": "RYDE",
      "eventStart": "2023-01-12T20:10:00",
      "eventStop": "2023-01-12T21:22:00",
      "duration": 72,
      "status": "Genuine",
      "associatedSiteId": 109778,
      "outfallName": "PRINCE CONSORT RYDE NEW",
      "isImpacting": true,
      "overFlowSiteId": 0,
      "historicSpillsList": [
        {
          "id": 344779250,
          "eventId": 741019,
          "siteUnitNumber": 12618,
          "bathingSite": "RYDE",
          "eventStart": "2023-01-12T20:10:00",
          "eventStop": "2023-01-12T21:22:00",
          "duration": 72,
          "status": "Genuine",
          "associatedSiteId": 109778,
          "outfallName": "PRINCE CONSORT RYDE NEW",
          "isImpacting": true,
          "overFlowSiteId": 108043
        }
      ]
    },
    {
      "id": 344770859,
      "eventId": 730146,
      "siteUnitNumber": 12616,
      "bathingSite": "GURNARD",
      "eventStart": "2023-01-12T21:03:00",
      "eventStop": "2023-01-12T21:09:00",
      "duration": 6,
      "status": "Genuine",
      "associatedSiteId": 109652,
      "outfallName": "WOODVALE TRANSFER NO1",
      "isImpacting": true,
      "overFlowSiteId": 0,
      "historicSpillsList": [
        {
          "id": 344770860,
          "eventId": 730146,
          "siteUnitNumber": 12617,
          "bathingSite": "COWES",
          "eventStart": "2023-01-12T21:03:00",
          "eventStop": "2023-01-12T21:09:00",
          "duration": 6,
          "status": "Genuine",
          "associatedSiteId": 109652,
          "outfallName": "WOODVALE TRANSFER NO1",
          "isImpacting": true,
          "overFlowSiteId": 115966,
          "historicSpillsList": []
        }
      ]
    },
    {
      "id": 344770861,
      "eventId": 730145,
      "siteUnitNumber": 12616,
      "bathingSite": "GURNARD",
      "eventStart": "2023-01-12T20:35:00",
      "eventStop": "2023-01-12T20:42:00",
      "duration": 7,
      "status": "Genuine",
      "associatedSiteId": 109652,
      "outfallName": "WOODVALE TRANSFER NO1",
      "isImpacting": true,
      "overFlowSiteId": 0,
      "historicSpillsList": [
        {
          "id": 344770862,
          "eventId": 730145,
          "siteUnitNumber": 12617,
          "bathingSite": "COWES",
          "eventStart": "2023-01-12T20:35:00",
          "eventStop": "2023-01-12T20:42:00",
          "duration": 7,
          "status": "Genuine",
          "associatedSiteId": 109652,
          "outfallName": "WOODVALE TRANSFER NO1",
          "isImpacting": true,
          "overFlowSiteId": 115966,
          "historicSpillsList": []
        }
      ]
    },
    {
      "id": 344770863,
      "eventId": 730144,
      "siteUnitNumber": 12616,
      "bathingSite": "GURNARD",
      "eventStart": "2023-01-12T20:06:00",
      "eventStop": "2023-01-12T20:11:00",
      "duration": 5,
      "status": "Genuine",
      "associatedSiteId": 109652,
      "outfallName": "WOODVALE TRANSFER NO1",
      "isImpacting": true,
      "overFlowSiteId": 0,
      "historicSpillsList": [
        {
          "id": 344770864,
          "eventId": 730144,
          "siteUnitNumber": 12617,
          "bathingSite": "COWES",
          "eventStart": "2023-01-12T20:06:00",
          "eventStop": "2023-01-12T20:11:00",
          "duration": 5,
          "status": "Genuine",
          "associatedSiteId": 109652,
          "outfallName": "WOODVALE TRANSFER NO1",
          "isImpacting": true,
          "overFlowSiteId": 115966,
          "historicSpillsList": []
        }
      ]
    },
    {
      "id": 344781295,
      "eventId": 729590,
      "siteUnitNumber": 12604,
      "bathingSite": "SOUTHSEA EAST",
      "eventStart": "2023-01-12T19:27:00",
      "eventStop": "2023-01-12T20:11:00",
      "duration": 44,
      "status": "Genuine",
      "associatedSiteId": 109823,
      "outfallName": "FORT CUMBERLAND NO1",
      "isImpacting": true,
      "overFlowSiteId": 0,
      "historicSpillsList": [
        {
          "id": 344781296,
          "eventId": 729590,
          "siteUnitNumber": 12661,
          "bathingSite": "LANGSTONE HARBOUR",
          "eventStart": "2023-01-12T19:27:00",
          "eventStop": "2023-01-12T20:11:00",
          "duration": 44,
          "status": "Genuine",
          "associatedSiteId": 109823,
          "outfallName": "FORT CUMBERLAND NO1",
          "isImpacting": true,
          "overFlowSiteId": 110658,
          "historicSpillsList": []
        }
      ]
    },
    {
      "id": 344779249,
      "eventId": 729444,
      "siteUnitNumber": 12618,
      "bathingSite": "RYDE",
      "eventStart": "2023-01-12T17:15:00",
      "eventStop": "2023-01-12T20:10:00",
      "duration": 175,
      "status": "Genuine",
      "associatedSiteId": 109778,
      "outfallName": "PRINCE CONSORT RYDE NEW",
      "isImpacting": true,
      "overFlowSiteId": 0,
      "historicSpillsList": [
        {
          "id": 344779249,
          "eventId": 729444,
          "siteUnitNumber": 12618,
          "bathingSite": "RYDE",
          "eventStart": "2023-01-12T17:15:00",
          "eventStop": "2023-01-12T20:10:00",
          "duration": 175,
          "status": "Genuine",
          "associatedSiteId": 109778,
          "outfallName": "PRINCE CONSORT RYDE NEW",
          "isImpacting": true,
          "overFlowSiteId": 108043
        }
      ]
    },
    {
      "id": 344785744,
      "eventId": 729006,
      "siteUnitNumber": 12568,
      "bathingSite": "SANDGATE",
      "eventStart": "2023-01-12T11:16:00",
      "eventStop": "2023-01-12T20:07:00",
      "duration": 531,
      "status": "Genuine",
      "associatedSiteId": 109897,
      "outfallName": "RANGE ROAD HYTHE K LONG",
      "isImpacting": true,
      "overFlowSiteId": 0,
      "historicSpillsList": [
        {
          "id": 344785744,
          "eventId": 729006,
          "siteUnitNumber": 12568,
          "bathingSite": "SANDGATE",
          "eventStart": "2023-01-12T11:16:00",
          "eventStop": "2023-01-12T20:07:00",
          "duration": 531,
          "status": "Genuine",
          "associatedSiteId": 109897,
          "outfallName": "RANGE ROAD HYTHE K LONG",
          "isImpacting": true,
          "overFlowSiteId": 116048
        },
        {
          "id": 344785745,
          "eventId": 729006,
          "siteUnitNumber": 12569,
          "bathingSite": "HYTHE",
          "eventStart": "2023-01-12T11:16:00",
          "eventStop": "2023-01-12T20:07:00",
          "duration": 531,
          "status": "Genuine",
          "associatedSiteId": 109897,
          "outfallName": "RANGE ROAD HYTHE K LONG",
          "isImpacting": true,
          "overFlowSiteId": 116048,
          "historicSpillsList": []
        }
      ]
    }
  ]
}