{
  "currentPage": 262,
  "totalItems": 21025,
  "totalPages": 841,
  "items": [
    {
      "id": 344783903,
      "eventId": 826661,
      "siteUnitNumber": 12579,
      "bathingSite": "PEVENSEY BAY",
      "eventStart": "2023-06-14T14:13:12",
      "eventStop": "2023-06-14T17:00:00",
      "duration": 166,
      "status": "Not Genuine",
      "associatedSiteId": 109891,
      "outfallName": "MONTAGUE WAY WESTHAM",
      "isImpacting": false,
      "overFlowSiteId": 0,
      "historicSpillsList": []
    },
    {
      "id": 344783902,
      "eventId": 826258,
      "siteUnitNumber": 12579,
      "bathingSite": "PEVENSEY BAY",
      "eventStart": "2023-06-13T10:02:44",
      "eventStop": "2023-06-13T10:25:35",
      "duration": 22,
      "status": "Not Genuine",
      "associatedSiteId": 109891,
      "outfallName": "MONTAGUE WAY WESTHAM",
      "isImpacting": false,
      "overFlowSiteId": 0,
      "historicSpillsList": []
    },
    {
      "id": 344811527,
      "eventId": 826219,
      "siteUnitNumber": 12577,
      "bathingSite": "BEXHILL",
      "eventStart": "2023-06-13T09:09:16",
      "eventStop": "2023-06-13T09:58:59",
      "duration": 49,
      "status": "Not Genuine",
      "associatedSiteId": 115499,
      "outfallName": "BROCKLEY ROAD BEXHILL",
      "isImpacting": true,
      "overFlowSiteId": 0,
      "historicSpillsList": []
    },
    {
      "id": 344781679,
      "eventId": 825951,
      "siteUnitNumber": 12548,
      "bathingSite": "TANKERTON",
      "eventStart": "2023-06-12T10:28:02",
      "eventStop": "2023-06-12T11:03:28",
      "duration": 35,
      "status": "Genuine",
      "associatedSiteId": 109830,
      "outfallName": "SWALECLIFFE NO1",
      "isImpacting": false,
      "overFlowSiteId": 0,
      "historicSpillsList": []
    },
    {
      "id": 344782544,
      "eventId": 825936,
      "siteUnitNumber": 12548,
      "bathingSite": "TANKERTON",
      "eventStart": "2023-06-12T09:56:25",
      "eventStop": "2023-06-12T10:00:38",
      "duration": 4,
      "status": "Genuine",
      "associatedSiteId": 109831,
      "outfallName": "TANKERTON CIRCUS",
      "isImpacting": true,
      "overFlowSiteId": 0,
      "historicSpillsList": [
        {
          "id": 344782544,
          "eventId": 825936,
          "siteUnitNumber": 12548,
          "bathingSite": "TANKERTON",
          "eventStart": "2023-06-12T09:56:25",
          "eventStop": "2023-06-12T10:00:38",
          "duration": 4,
          "status": "Genuine",
          "associatedSiteId": 109831,
          "outfallName": "TANKERTON CIRCUS",
          "isImpacting": true,
          "overFlowSiteId": 103281
        }
      ]
    },
    {
      "id": 344806274,
      "eventId": 825823,
      "siteUnitNumber": 12582,
      "bathingSite": "SEAFORD",
      "eventStart": "2023-06-12T01:50:55",
      "eventStop": "2023-06-12T02:00:04",
      "duration": 9,
      "status": "Genuine",
      "associatedSiteId": 110920,
      "outfallName": "NEWHAVEN",
      "isImpacting": false,
      "overFlowSiteId": 0,
      "historicSpillsList": []
    },
    {
      "id": 344809564,
      "eventId": 825699,
      "siteUnitNumber": 12615,
      "bathingSite": "COLWELL BAY",
      "eventStart": "2023-06-11T09:15:00",
      "eventStop": "2023-06-11T14:08:00",
      "duration": 293,
      "status": "Genuine",
      "associatedSiteId": 115498,
      "outfallName": "NORTON TRANSFER IOW",
      "isImpacting": true,
      "overFlowSiteId": 0,
      "historicSpillsList": [
        {
          "id": 344809564,
          "eventId": 825699,
          "siteUnitNumber": 12615,
          "bathingSite": "COLWELL BAY",
          "eventStart": "2023-06-11T09:15:00",
          "eventStop": "2023-06-11T14:08:00",
          "duration": 293,
          "status": "Genuine",
          "associatedSiteId": 115498,
          "outfallName": "NORTON TRANSFER IOW",
          "isImpacting": true,
          "overFlowSiteId": 108544
        },
        {
          "id": 344809565,
          "eventId": 825699,
          "siteUnitNumber": 12614,
          "bathingSite": "TOTLAND BAY",
          "eventStart": "2023-06-11T09:15:00",
          "eventStop": "2023-06-11T14:08:00",
          "duration": 293,
          "status": "Genuine",
          "associatedSiteId": 115498,
          "outfallName": "NORTON TRANSFER IOW",
          "isImpacting": true,
          "overFlowSiteId": 108544,
          "historicSpillsList": []
        }
      ]
    },
    {
      "id": 344809562,
      "eventId": 825701,
      "siteUnitNumber": 12614,
      "bathingSite": "TOTLAND BAY",
      "eventStart": "2023-06-11T09:10:00",
      "eventStop": "2023-06-11T11:24:00",
      "duration": 134,
      "status": "Genuine",
      "associatedSiteId": 115498,
      "outfallName": "NORTON TRANSFER IOW",
      "isImpacting": true,
      "overFlowSiteId": 0,
      "historicSpillsList": [
        {
          "id": 344809562,
          "eventId": 825701,
          "siteUnitNumber": 12614,
          "bathingSite": "TOTLAND BAY",
          "eventStart": "2023-06-11T09:10:00",
          "eventStop": "2023-06-11T11:24:00",
          "duration": 134,
          "status": "Genuine",
          "associatedSiteId": 115498,
          "outfallName": "NORTON TRANSFER IOW",
          "isImpacting": true,
          "overFlowSiteId": 109524
        },
        {
          "id": 344809563,
          "eventId": 825701,
          "siteUnitNumber": 12615,
          "bathingSite": "COLWELL BAY",
          "eventStart": "2023-06-11T09:10:00",
          "eventStop": "2023-06-11T11:24:00",
          "duration": 134,
          "status": "Genuine",
          "associatedSiteId": 115498,
          "outfallName": "NORTON TRANSFER IOW",
          "isImpacting": true,
          "overFlowSiteId": 109524,
          "historicSpillsList": []
        }
      ]
    },
    {
      "id": 344773479,
      "eventId": 825395,
      "siteUnitNumber": 12563,
      "bathingSite": "RAMSGATE SANDS",
      "eventStart": "2023-06-10T15:23:54",
      "eventStop": "2023-06-10T15:26:59",
      "duration": 3,
      "status": "Not Genuine",
      "associatedSiteId": 109686,
      "outfallName": "MILITARY ROAD RAMSGATE NO2",
      "isImpacting": true,
      "overFlowSiteId": 0,
      "historicSpillsList": []
    },
    {
      "id": 344773529,
      "eventId": 825379,
      "siteUnitNumber": 12564,
      "bathingSite": "RAMSGATE WESTERN UNDERCLIFFE",
      "eventStart": "2023-06-10T13:44:35",
      "eventStop": "2023-06-10T13:47:09",
      "duration": 2,
      "status": "Not Genuine",
      "associatedSiteId": 109688,
      "outfallName": "FOADS HILL CLIFFS END",
      "isImpacting": true,
      "overFlowSiteId": 0,
      "historicSpillsList": []
    },
    {
      "id": 344770387,
      "eventId": 825259,
      "siteUnitNumber": 12544,
      "bathingSite": "SHEERNESS",
      "eventStart": "2023-06-10T02:00:00",
      "eventStop": "2023-06-10T02:02:00",
      "duration": 2,
      "status": "Not Genuine",
      "associatedSiteId": 109621,
      "outfallName": "NOREEN AVENUE SHEERNESS",
      "isImpacting": true,
      "overFlowSiteId": 0,
      "historicSpillsList": []
    },
    {
      "id": 344770389,
      "eventId": 824058,
      "siteUnitNumber": 12544,
      "bathingSite": "SHEERNESS",
      "eventStart": "2023-06-06T04:20:00",
      "eventStop": "2023-06-06T04:22:00",
      "duration": 2,
      "status": "Not Genuine",
      "associatedSiteId": 109621,
      "outfallName": "NOREEN AVENUE SHEERNESS",
      "isImpacting": true,
      "overFlowSiteId": 0,
      "historicSpillsList": []
    },
    {
      "id": 344770391,
      "eventId": 823491,
      "siteUnitNumber": 12544,
      "bathingSite": "SHEERNESS",
      "eventStart": "2023-06-05T03:20:00",
      "eventStop": "2023-06-05T03:26:00",
      "duration": 6,
      "status": "Not Genuine",
      "associatedSiteId": 109621,
      "outfallName": "NOREEN AVENUE SHEERNESS",
      "isImpacting": true,
      "overFlowSiteId": 0,
      "historicSpillsList": []
    },
    {
      "id": 344770393,
      "eventId": 822784,
      "siteUnitNumber": 12544,
      "bathingSite": "SHEERNESS",
      "eventStart": "2023-06-02T10:12:00",
      "eventStop": "2023-06-02T14:50:00",
      "duration": 278,
      "status": "Not Genuine",
      "associatedSiteId": 109621,
      "outfallName": "NOREEN AVENUE SHEERNESS",
      "isImpacting": true,
      "overFlowSiteId": 0,
      "historicSpillsList": []
    },
    {
      "id": 344770395,
      "eventId": 822736,
      "siteUnitNumber": 12544,
      "bathingSite": "SHEERNESS",
      "eventStart": "2023-06-02T10:06:00",
      "eventStop": "2023-06-02T10:12:00",
      "duration": 6,
      "status": "Not Genuine",
      "associatedSiteId": 109621,
      "outfallName": "NOREEN AVENUE SHEERNESS",
      "isImpacting": true,
      "overFlowSiteId": 0,
      "historicSpillsList": []
    },
    {
      "id": 344770397,
      "eventId": 821895,
      "siteUnitNumber": 12544,
      "bathingSite": "SHEERNESS",
      "eventStart": "2023-05-30T07:42:00",
      "eventStop": "2023-05-30T07:48:00",
      "duration": 6,
      "status": "Not Genuine",
      "associatedSiteId": 109621,
      "outfallName": "NOREEN AVENUE SHEERNESS",
      "isImpacting": true,
      "overFlowSiteId": 0,
      "historicSpillsList": []
    },
    {
      "id": 344791528,
      "eventId": 821378,
      "siteUnitNumber": 12582,
      "bathingSite": "SEAFORD",
      "eventStart": "2023-05-28T03:29:00",
      "eventStop": "2023-05-28T03:45:00",
      "duration": 16,
      "status": "Genuine",
      "associatedSiteId": 109957,
      "outfallName": "PORTOBELLO BRIGHTON NO2",
      "isImpacting": false,
      "overFlowSiteId": 0,
      "historicSpillsList": []
    },
    {
      "id": 344791524,
      "eventId": 821415,
      "siteUnitNumber": 12582,
      "bathingSite": "SEAFORD",
      "eventStart": "2023-05-28T02:30:00",
      "eventStop": "2023-05-28T02:34:40",
      "duration": 4,
      "status": "Not Genuine",
      "associatedSiteId": 109957,
      "outfallName": "PORTOBELLO BRIGHTON NO2",
      "isImpacting": false,
      "overFlowSiteId": 0,
      "historicSpillsList": []
    },
    {
      "id": 344781681,
      "eventId": 821126,
      "siteUnitNumber": 12548,
      "bathingSite": "TANKERTON",
      "eventStart": "2023-05-27T00:27:26",
      "eventStop": "2023-05-27T00:54:53",
      "duration": 27,
      "status": "Genuine",
      "associatedSiteId": 109830,
      "outfallName": "SWALECLIFFE NO1",
      "isImpacting": false,
      "overFlowSiteId": 0,
      "historicSpillsList": []
    },
    {
      "id": 344782871,
      "eventId": 821088,
      "siteUnitNumber": 12547,
      "bathingSite": "WEST BEACH WHITSTABLE",
      "eventStart": "2023-05-26T22:19:32",
      "eventStop": "2023-05-27T00:10:00",
      "duration": 110,
      "status": "Genuine",
      "associatedSiteId": 109832,
      "outfallName": "GORREL NO1",
      "isImpacting": false,
      "overFlowSiteId": 0,
      "historicSpillsList": []
    },
    {
      "id": 344782874,
      "eventId": 820949,
      "siteUnitNumber": 12547,
      "bathingSite": "WEST BEACH WHITSTABLE",
      "eventStart": "2023-05-26T09:58:49",
      "eventStop": "2023-05-26T10:15:00",
      "duration": 16,
      "status": "Not Genuine",
      "associatedSiteId": 109832,
      "outfallName": "GORREL NO1",
      "isImpacting": false,
      "overFlowSiteId": 0,
      "historicSpillsList": []
    },
    {
      "id": 344770399,
      "eventId": 820776,
      "siteUnitNumber": 12544,
      "bathingSite": "SHEERNESS",
      "eventStart": "2023-05-25T19:52:00",
      "eventStop": "2023-05-25T19:56:00",
      "duration": 4,
      "status": "Not Genuine",
      "associatedSiteId": 109621,
      "outfallName": "NOREEN AVENUE SHEERNESS",
      "isImpacting": true,
      "overFlowSiteId": 0,
      "historicSpillsList": []
    },
    {
      "id": 344769745,
      "eventId": 820491,
      "siteUnitNumber": 12618,
      "bathingSite": "RYDE",
      "eventStart": "2023-05-24T20:15:00",
      "eventStop": "2023-05-24T21:15:00",
      "duration": 60,
      "status": "Not Genuine",
      "associatedSiteId": 102050,
      "outfallName": "ESPLANADE SEAVIEW",
      "isImpacting": false,
      "overFlowSiteId": 0,
      "historicSpillsList": []
    },
    {
      "id": 344769748,
      "eventId": 820481,
      "siteUnitNumber": 12618,
      "bathingSite": "RYDE",
      "eventStart": "2023-05-24T18:53:01",
      "eventStop": "2023-05-24T19:15:00",
      "duration": 21,
      "status": "Not Genuine",
      "associatedSiteId": 102050,
      "outfallName": "ESPLANADE SEAVIEW",
      "isImpacting": false,
      "overFlowSiteId": 0,
      "historicSpillsList": []
    },
    {
      "id": 344778044,
      "eventId": 817391,
      "siteUnitNumber": 12617,
      "bathingSite": "COWES",
      "eventStart": "2023-05-13T09:30:41",
      "eventStop": "2023-05-24T15:37:38",
      "duration": 16206,
      "status": "Not Genuine",
      "associatedSiteId": 109777,
      "outfallName": "APPLEY PARK RYDE TRANSFER",
      "isImpacting": false,
      "overFlowSiteId": 0,
      "historicSpillsList": []
    }
  ]
}