{
  "currentPage": 447,
  "totalItems": 21025,
  "totalPages": 841,
  "items": [
    {
      "id": 344791608,
      "eventId": 698412,
      "siteUnitNumber": 12582,
      "bathingSite": "SEAFORD",
      "eventStart": "2022-12-18T23:43:00",
      "eventStop": "2022-12-19T01:18:00",
      "duration": 95,
      "status": "Genuine",
      "associatedSiteId": 109957,
      "outfallName": "PORTOBELLO BRIGHTON NO2",
      "isImpacting": false,
      "overFlowSiteId": 0,
      "historicSpillsList": []
    },
    {
      "id": 344774437,
      "eventId": 696447,
      "siteUnitNumber": 12616,
      "bathingSite": "GURNARD",
      "eventStart": "2022-12-19T00:01:41",
      "eventStop": "2022-12-19T01:01:23",
      "duration": 59,
      "status": "Genuine",
      "associatedSiteId": 109702,
      "outfallName": "ALBANY ROAD EAST COWES",
      "isImpacting": false,
      "overFlowSiteId": 0,
      "historicSpillsList": []
    },
    {
      "id": 344794721,
      "eventId": 699611,
      "siteUnitNumber": 12591,
      "bathingSite": "LITTLEHAMPTON",
      "eventStart": "2022-12-18T13:27:00",
      "eventStop": "2022-12-19T01:00:00",
      "duration": 693,
      "status": "Genuine",
      "associatedSiteId": 109965,
      "outfallName": "SEA ROAD LITTLEHAMPTON",
      "isImpacting": false,
      "overFlowSiteId": 0,
      "historicSpillsList": []
    },
    {
      "id": 344772238,
      "eventId": 695501,
      "siteUnitNumber": 12614,
      "bathingSite": "TOTLAND BAY",
      "eventStart": "2022-12-18T14:56:09",
      "eventStop": "2022-12-19T00:44:00",
      "duration": 587,
      "status": "Genuine",
      "associatedSiteId": 109657,
      "outfallName": "THE PROMENADE TOTLAND PIER NO2",
      "isImpacting": false,
      "overFlowSiteId": 0,
      "historicSpillsList": []
    },
    {
      "id": 344797503,
      "eventId": 698317,
      "siteUnitNumber": 12623,
      "bathingSite": "YAVERLAND",
      "eventStart": "2022-12-18T23:04:00",
      "eventStop": "2022-12-19T00:40:00",
      "duration": 96,
      "status": "Genuine",
      "associatedSiteId": 110029,
      "outfallName": "HOPE BEACH SHANKLIN NEW",
      "isImpacting": false,
      "overFlowSiteId": 0,
      "historicSpillsList": []
    },
    {
      "id": 344798713,
      "eventId": 695695,
      "siteUnitNumber": 12622,
      "bathingSite": "WHITECLIFF BAY",
      "eventStart": "2022-12-18T18:07:32",
      "eventStop": "2022-12-19T00:01:20",
      "duration": 353,
      "status": "Genuine",
      "associatedSiteId": 110096,
      "outfallName": "SANDOWN NO1",
      "isImpacting": true,
      "overFlowSiteId": 0,
      "historicSpillsList": [
        {
          "id": 344798713,
          "eventId": 695695,
          "siteUnitNumber": 12622,
          "bathingSite": "WHITECLIFF BAY",
          "eventStart": "2022-12-18T18:07:32",
          "eventStop": "2022-12-19T00:01:20",
          "duration": 353,
          "status": "Genuine",
          "associatedSiteId": 110096,
          "outfallName": "SANDOWN NO1",
          "isImpacting": true,
          "overFlowSiteId": 115453
        },
        {
          "id": 344798714,
          "eventId": 695695,
          "siteUnitNumber": 12623,
          "bathingSite": "YAVERLAND",
          "eventStart": "2022-12-18T18:07:32",
          "eventStop": "2022-12-19T00:01:20",
          "duration": 353,
          "status": "Genuine",
          "associatedSiteId": 110096,
          "outfallName": "SANDOWN NO1",
          "isImpacting": true,
          "overFlowSiteId": 115453,
          "historicSpillsList": []
        },
        {
          "id": 344798715,
          "eventId": 695695,
          "siteUnitNumber": 12624,
          "bathingSite": "SANDOWN",
          "eventStart": "2022-12-18T18:07:32",
          "eventStop": "2022-12-19T00:01:20",
          "duration": 353,
          "status": "Genuine",
          "associatedSiteId": 110096,
          "outfallName": "SANDOWN NO1",
          "isImpacting": true,
          "overFlowSiteId": 115453,
          "historicSpillsList": []
        }
      ]
    },
    {
      "id": 344774439,
      "eventId": 696381,
      "siteUnitNumber": 12616,
      "bathingSite": "GURNARD",
      "eventStart": "2022-12-18T23:27:27",
      "eventStop": "2022-12-18T23:55:21",
      "duration": 27,
      "status": "Genuine",
      "associatedSiteId": 109702,
      "outfallName": "ALBANY ROAD EAST COWES",
      "isImpacting": false,
      "overFlowSiteId": 0,
      "historicSpillsList": []
    },
    {
      "id": 344790895,
      "eventId": 696266,
      "siteUnitNumber": 12575,
      "bathingSite": "HASTINGS PELHAM BEACH",
      "eventStart": "2022-12-18T22:21:30",
      "eventStop": "2022-12-18T23:23:11",
      "duration": 61,
      "status": "Genuine",
      "associatedSiteId": 109950,
      "outfallName": "ST HELENS DOWN HASTINGS",
      "isImpacting": false,
      "overFlowSiteId": 0,
      "historicSpillsList": []
    },
    {
      "id": 344774441,
      "eventId": 696230,
      "siteUnitNumber": 12616,
      "bathingSite": "GURNARD",
      "eventStart": "2022-12-18T21:54:48",
      "eventStop": "2022-12-18T23:22:47",
      "duration": 87,
      "status": "Genuine",
      "associatedSiteId": 109702,
      "outfallName": "ALBANY ROAD EAST COWES",
      "isImpacting": false,
      "overFlowSiteId": 0,
      "historicSpillsList": []
    },
    {
      "id": 344779403,
      "eventId": 695447,
      "siteUnitNumber": 12618,
      "bathingSite": "RYDE",
      "eventStart": "2022-12-18T15:26:04",
      "eventStop": "2022-12-18T22:53:16",
      "duration": 447,
      "status": "Genuine",
      "associatedSiteId": 109780,
      "outfallName": "LADIES WALK BINSTEAD",
      "isImpacting": true,
      "overFlowSiteId": 0,
      "historicSpillsList": [
        {
          "id": 344779403,
          "eventId": 695447,
          "siteUnitNumber": 12618,
          "bathingSite": "RYDE",
          "eventStart": "2022-12-18T15:26:04",
          "eventStop": "2022-12-18T22:53:16",
          "duration": 447,
          "status": "Genuine",
          "associatedSiteId": 109780,
          "outfallName": "LADIES WALK BINSTEAD",
          "isImpacting": true,
          "overFlowSiteId": 107406
        }
      ]
    },
    {
      "id": 344771339,
      "eventId": 695343,
      "siteUnitNumber": 12616,
      "bathingSite": "GURNARD",
      "eventStart": "2022-12-18T14:22:44",
      "eventStop": "2022-12-18T22:34:44",
      "duration": 492,
      "status": "Genuine",
      "associatedSiteId": 109652,
      "outfallName": "WOODVALE TRANSFER NO1",
      "isImpacting": true,
      "overFlowSiteId": 0,
      "historicSpillsList": [
        {
          "id": 344771339,
          "eventId": 695343,
          "siteUnitNumber": 12616,
          "bathingSite": "GURNARD",
          "eventStart": "2022-12-18T14:22:44",
          "eventStop": "2022-12-18T22:34:44",
          "duration": 492,
          "status": "Genuine",
          "associatedSiteId": 109652,
          "outfallName": "WOODVALE TRANSFER NO1",
          "isImpacting": true,
          "overFlowSiteId": 115966
        },
        {
          "id": 344771340,
          "eventId": 695343,
          "siteUnitNumber": 12617,
          "bathingSite": "COWES",
          "eventStart": "2022-12-18T14:22:44",
          "eventStop": "2022-12-18T22:34:44",
          "duration": 492,
          "status": "Genuine",
          "associatedSiteId": 109652,
          "outfallName": "WOODVALE TRANSFER NO1",
          "isImpacting": true,
          "overFlowSiteId": 115966,
          "historicSpillsList": []
        }
      ]
    },
    {
      "id": 344783773,
      "eventId": 696183,
      "siteUnitNumber": 12579,
      "bathingSite": "PEVENSEY BAY",
      "eventStart": "2022-12-18T21:23:22",
      "eventStop": "2022-12-18T22:00:00",
      "duration": 36,
      "status": "Genuine",
      "associatedSiteId": 109888,
      "outfallName": "EASTBOURNE NO 2",
      "isImpacting": true,
      "overFlowSiteId": 0,
      "historicSpillsList": [
        {
          "id": 344783774,
          "eventId": 696183,
          "siteUnitNumber": 12580,
          "bathingSite": "EASTBOURNE",
          "eventStart": "2022-12-18T21:23:22",
          "eventStop": "2022-12-18T22:00:00",
          "duration": 36,
          "status": "Genuine",
          "associatedSiteId": 109888,
          "outfallName": "EASTBOURNE NO 2",
          "isImpacting": true,
          "overFlowSiteId": 115459,
          "historicSpillsList": []
        }
      ]
    },
    {
      "id": 344781512,
      "eventId": 695647,
      "siteUnitNumber": 12608,
      "bathingSite": "CALSHOT",
      "eventStart": "2022-12-18T17:40:00",
      "eventStop": "2022-12-18T21:50:00",
      "duration": 250,
      "status": "Genuine",
      "associatedSiteId": 109826,
      "outfallName": "ASHLETT CREEK FAWLEY",
      "isImpacting": true,
      "overFlowSiteId": 0,
      "historicSpillsList": [
        {
          "id": 344781512,
          "eventId": 695647,
          "siteUnitNumber": 12608,
          "bathingSite": "CALSHOT",
          "eventStart": "2022-12-18T17:40:00",
          "eventStop": "2022-12-18T21:50:00",
          "duration": 250,
          "status": "Genuine",
          "associatedSiteId": 109826,
          "outfallName": "ASHLETT CREEK FAWLEY",
          "isImpacting": true,
          "overFlowSiteId": 115372
        }
      ]
    },
    {
      "id": 344791614,
      "eventId": 695934,
      "siteUnitNumber": 12582,
      "bathingSite": "SEAFORD",
      "eventStart": "2022-12-18T18:45:43",
      "eventStop": "2022-12-18T21:43:28",
      "duration": 177,
      "status": "Genuine",
      "associatedSiteId": 109957,
      "outfallName": "PORTOBELLO BRIGHTON NO2",
      "isImpacting": false,
      "overFlowSiteId": 0,
      "historicSpillsList": []
    },
    {
      "id": 344785976,
      "eventId": 695971,
      "siteUnitNumber": 12568,
      "bathingSite": "SANDGATE",
      "eventStart": "2022-12-18T18:53:00",
      "eventStop": "2022-12-18T21:37:00",
      "duration": 164,
      "status": "Genuine",
      "associatedSiteId": 109897,
      "outfallName": "RANGE ROAD HYTHE K LONG",
      "isImpacting": true,
      "overFlowSiteId": 0,
      "historicSpillsList": [
        {
          "id": 344785976,
          "eventId": 695971,
          "siteUnitNumber": 12568,
          "bathingSite": "SANDGATE",
          "eventStart": "2022-12-18T18:53:00",
          "eventStop": "2022-12-18T21:37:00",
          "duration": 164,
          "status": "Genuine",
          "associatedSiteId": 109897,
          "outfallName": "RANGE ROAD HYTHE K LONG",
          "isImpacting": true,
          "overFlowSiteId": 116048
        }
      ]
    },
    {
      "id": 344783779,
      "eventId": 696049,
      "siteUnitNumber": 12579,
      "bathingSite": "PEVENSEY BAY",
      "eventStart": "2022-12-18T19:44:56",
      "eventStop": "2022-12-18T21:15:00",
      "duration": 90,
      "status": "Genuine",
      "associatedSiteId": 109888,
      "outfallName": "EASTBOURNE NO 2",
      "isImpacting": true,
      "overFlowSiteId": 0,
      "historicSpillsList": [
        {
          "id": 344783780,
          "eventId": 696049,
          "siteUnitNumber": 12580,
          "bathingSite": "EASTBOURNE",
          "eventStart": "2022-12-18T19:44:56",
          "eventStop": "2022-12-18T21:15:00",
          "duration": 90,
          "status": "Genuine",
          "associatedSiteId": 109888,
          "outfallName": "EASTBOURNE NO 2",
          "isImpacting": true,
          "overFlowSiteId": 115459,
          "historicSpillsList": []
        }
      ]
    },
    {
      "id": 344791006,
      "eventId": 695898,
      "siteUnitNumber": 12583,
      "bathingSite": "SALTDEAN",
      "eventStart": "2022-12-18T18:22:00",
      "eventStop": "2022-12-18T21:08:00",
      "duration": 166,
      "status": "Genuine",
      "associatedSiteId": 109955,
      "outfallName": "PORTOBELLO BRIGHTON NO1",
      "isImpacting": true,
      "overFlowSiteId": 0,
      "historicSpillsList": [
        {
          "id": 344791006,
          "eventId": 695898,
          "siteUnitNumber": 12583,
          "bathingSite": "SALTDEAN",
          "eventStart": "2022-12-18T18:22:00",
          "eventStop": "2022-12-18T21:08:00",
          "duration": 166,
          "status": "Genuine",
          "associatedSiteId": 109955,
          "outfallName": "PORTOBELLO BRIGHTON NO1",
          "isImpacting": true,
          "overFlowSiteId": 111606
        }
      ]
    },
    {
      "id": 344790361,
      "eventId": 695400,
      "siteUnitNumber": 12620,
      "bathingSite": "ST HELENS",
      "eventStart": "2022-12-18T14:52:21",
      "eventStop": "2022-12-18T21:03:00",
      "duration": 370,
      "status": "Genuine",
      "associatedSiteId": 109938,
      "outfallName": "THE POINT BEMBRIDGE",
      "isImpacting": true,
      "overFlowSiteId": 0,
      "historicSpillsList": [
        {
          "id": 344790361,
          "eventId": 695400,
          "siteUnitNumber": 12620,
          "bathingSite": "ST HELENS",
          "eventStart": "2022-12-18T14:52:21",
          "eventStop": "2022-12-18T21:03:00",
          "duration": 370,
          "status": "Genuine",
          "associatedSiteId": 109938,
          "outfallName": "THE POINT BEMBRIDGE",
          "isImpacting": true,
          "overFlowSiteId": 110194
        }
      ]
    },
    {
      "id": 344805189,
      "eventId": 695278,
      "siteUnitNumber": 12617,
      "bathingSite": "COWES",
      "eventStart": "2022-12-18T13:10:00",
      "eventStop": "2022-12-18T21:02:00",
      "duration": 472,
      "status": "Genuine",
      "associatedSiteId": 110701,
      "outfallName": "TERMINUS ROAD COWES 2",
      "isImpacting": true,
      "overFlowSiteId": 0,
      "historicSpillsList": [
        {
          "id": 344805189,
          "eventId": 695278,
          "siteUnitNumber": 12617,
          "bathingSite": "COWES",
          "eventStart": "2022-12-18T13:10:00",
          "eventStop": "2022-12-18T21:02:00",
          "duration": 472,
          "status": "Genuine",
          "associatedSiteId": 110701,
          "outfallName": "TERMINUS ROAD COWES 2",
          "isImpacting": true,
          "overFlowSiteId": 108563
        },
        {
          "id": 344805190,
          "eventId": 695278,
          "siteUnitNumber": 12616,
          "bathingSite": "GURNARD",
          "eventStart": "2022-12-18T13:10:00",
          "eventStop": "2022-12-18T21:02:00",
          "duration": 472,
          "status": "Genuine",
          "associatedSiteId": 110701,
          "outfallName": "TERMINUS ROAD COWES 2",
          "isImpacting": true,
          "overFlowSiteId": 108563,
          "historicSpillsList": []
        }
      ]
    },
    {
      "id": 344791005,
      "eventId": 695876,
      "siteUnitNumber": 12583,
      "bathingSite": "SALTDEAN",
      "eventStart": "2022-12-18T18:22:15",
      "eventStop": "2022-12-18T21:00:00",
      "duration": 157,
      "status": "Genuine",
      "associatedSiteId": 109955,
      "outfallName": "PORTOBELLO BRIGHTON NO1",
      "isImpacting": true,
      "overFlowSiteId": 0,
      "historicSpillsList": [
        {
          "id": 344791005,
          "eventId": 695876,
          "siteUnitNumber": 12583,
          "bathingSite": "SALTDEAN",
          "eventStart": "2022-12-18T18:22:15",
          "eventStop": "2022-12-18T21:00:00",
          "duration": 157,
          "status": "Genuine",
          "associatedSiteId": 109955,
          "outfallName": "PORTOBELLO BRIGHTON NO1",
          "isImpacting": true,
          "overFlowSiteId": 116035
        }
      ]
    },
    {
      "id": 344777450,
      "eventId": 695949,
      "siteUnitNumber": 12661,
      "bathingSite": "LANGSTONE HARBOUR",
      "eventStart": "2022-12-18T18:47:00",
      "eventStop": "2022-12-18T20:59:00",
      "duration": 132,
      "status": "Genuine",
      "associatedSiteId": 109772,
      "outfallName": "BUDDS FARM HAVANT NO1",
      "isImpacting": true,
      "overFlowSiteId": 0,
      "historicSpillsList": [
        {
          "id": 344777450,
          "eventId": 695949,
          "siteUnitNumber": 12661,
          "bathingSite": "LANGSTONE HARBOUR",
          "eventStart": "2022-12-18T18:47:00",
          "eventStop": "2022-12-18T20:59:00",
          "duration": 132,
          "status": "Genuine",
          "associatedSiteId": 109772,
          "outfallName": "BUDDS FARM HAVANT NO1",
          "isImpacting": true,
          "overFlowSiteId": 116073
        }
      ]
    },
    {
      "id": 344781848,
      "eventId": 696007,
      "siteUnitNumber": 12548,
      "bathingSite": "TANKERTON",
      "eventStart": "2022-12-18T19:15:51",
      "eventStop": "2022-12-18T20:57:00",
      "duration": 101,
      "status": "Genuine",
      "associatedSiteId": 109830,
      "outfallName": "SWALECLIFFE NO1",
      "isImpacting": false,
      "overFlowSiteId": 0,
      "historicSpillsList": []
    },
    {
      "id": 344791620,
      "eventId": 695281,
      "siteUnitNumber": 12582,
      "bathingSite": "SEAFORD",
      "eventStart": "2022-12-18T15:39:00",
      "eventStop": "2022-12-18T20:57:00",
      "duration": 318,
      "status": "Genuine",
      "associatedSiteId": 109957,
      "outfallName": "PORTOBELLO BRIGHTON NO2",
      "isImpacting": false,
      "overFlowSiteId": 0,
      "historicSpillsList": []
    },
    {
      "id": 344772574,
      "eventId": 695468,
      "siteUnitNumber": 12615,
      "bathingSite": "COLWELL BAY",
      "eventStart": "2022-12-18T15:50:02",
      "eventStop": "2022-12-18T20:55:00",
      "duration": 304,
      "status": "Genuine",
      "associatedSiteId": 109665,
      "outfallName": "THORLEY ROAD BOULDNOR",
      "isImpacting": false,
      "overFlowSiteId": 0,
      "historicSpillsList": []
    },
    {
      "id": 344806804,
      "eventId": 695594,
      "siteUnitNumber": 12616,
      "bathingSite": "GURNARD",
      "eventStart": "2022-12-18T16:57:55",
      "eventStop": "2022-12-18T20:50:06",
      "duration": 232,
      "status": "Genuine",
      "associatedSiteId": 111069,
      "outfallName": "MEDHAM FARM NORTHWOOD",
      "isImpacting": false,
      "overFlowSiteId": 0,
      "historicSpillsList": []
    }
  ]
}