{
  "currentPage": 35,
  "totalItems": 18701,
  "totalPages": 749,
  "items": [
    {
      "id": 343954263,
      "eventId": 910798,
      "siteUnitNumber": 12620,
      "bathingSite": "ST HELENS",
      "eventStart": "2023-11-16T07:15:31",
      "eventStop": "2023-11-16T17:38:25",
      "duration": 622,
      "status": "Genuine",
      "associatedSiteId": 110761,
      "outfallName": "BRADING",
      "isImpacting": true,
      "overFlowSiteId": 0,
      "historicSpillsList": [
        {
          "id": 343954263,
          "eventId": 910798,
          "siteUnitNumber": 12620,
          "bathingSite": "ST HELENS",
          "eventStart": "2023-11-16T07:15:31",
          "eventStop": "2023-11-16T17:38:25",
          "duration": 622,
          "status": "Genuine",
          "associatedSiteId": 110761,
          "outfallName": "BRADING",
          "isImpacting": true,
          "overFlowSiteId": 113676
        }
      ]
    },
    {
      "id": 343940357,
      "eventId": 911505,
      "siteUnitNumber": 12595,
      "bathingSite": "BOGNOR REGIS (ALDWICK)",
      "eventStart": "2023-11-16T16:56:17",
      "eventStop": "2023-11-16T17:27:31",
      "duration": 31,
      "status": "Genuine",
      "associatedSiteId": 109959,
      "outfallName": "WEST PARK BOGNOR REGIS",
      "isImpacting": false,
      "overFlowSiteId": 0,
      "historicSpillsList": []
    },
    {
      "id": 343956210,
      "eventId": 911523,
      "siteUnitNumber": 12614,
      "bathingSite": "TOTLAND BAY",
      "eventStart": "2023-11-16T17:17:32",
      "eventStop": "2023-11-16T17:24:47",
      "duration": 7,
      "status": "Genuine",
      "associatedSiteId": 115498,
      "outfallName": "NORTON TRANSFER IOW",
      "isImpacting": true,
      "overFlowSiteId": 0,
      "historicSpillsList": [
        {
          "id": 343956210,
          "eventId": 911523,
          "siteUnitNumber": 12614,
          "bathingSite": "TOTLAND BAY",
          "eventStart": "2023-11-16T17:17:32",
          "eventStop": "2023-11-16T17:24:47",
          "duration": 7,
          "status": "Genuine",
          "associatedSiteId": 115498,
          "outfallName": "NORTON TRANSFER IOW",
          "isImpacting": true,
          "overFlowSiteId": 109524
        },
        {
          "id": 343956211,
          "eventId": 911523,
          "siteUnitNumber": 12615,
          "bathingSite": "COLWELL BAY",
          "eventStart": "2023-11-16T17:17:32",
          "eventStop": "2023-11-16T17:24:47",
          "duration": 7,
          "status": "Genuine",
          "associatedSiteId": 115498,
          "outfallName": "NORTON TRANSFER IOW",
          "isImpacting": true,
          "overFlowSiteId": 109524,
          "historicSpillsList": []
        }
      ]
    },
    {
      "id": 343956212,
      "eventId": 911507,
      "siteUnitNumber": 12615,
      "bathingSite": "COLWELL BAY",
      "eventStart": "2023-11-16T16:57:56",
      "eventStop": "2023-11-16T17:13:38",
      "duration": 15,
      "status": "Genuine",
      "associatedSiteId": 115498,
      "outfallName": "NORTON TRANSFER IOW",
      "isImpacting": true,
      "overFlowSiteId": 0,
      "historicSpillsList": [
        {
          "id": 343956212,
          "eventId": 911507,
          "siteUnitNumber": 12615,
          "bathingSite": "COLWELL BAY",
          "eventStart": "2023-11-16T16:57:56",
          "eventStop": "2023-11-16T17:13:38",
          "duration": 15,
          "status": "Genuine",
          "associatedSiteId": 115498,
          "outfallName": "NORTON TRANSFER IOW",
          "isImpacting": true,
          "overFlowSiteId": 109524
        },
        {
          "id": 343956213,
          "eventId": 911507,
          "siteUnitNumber": 12614,
          "bathingSite": "TOTLAND BAY",
          "eventStart": "2023-11-16T16:57:56",
          "eventStop": "2023-11-16T17:13:38",
          "duration": 15,
          "status": "Genuine",
          "associatedSiteId": 115498,
          "outfallName": "NORTON TRANSFER IOW",
          "isImpacting": true,
          "overFlowSiteId": 109524,
          "historicSpillsList": []
        }
      ]
    },
    {
      "id": 343956214,
      "eventId": 911502,
      "siteUnitNumber": 12614,
      "bathingSite": "TOTLAND BAY",
      "eventStart": "2023-11-16T16:48:04",
      "eventStop": "2023-11-16T16:56:22",
      "duration": 8,
      "status": "Genuine",
      "associatedSiteId": 115498,
      "outfallName": "NORTON TRANSFER IOW",
      "isImpacting": true,
      "overFlowSiteId": 0,
      "historicSpillsList": [
        {
          "id": 343956214,
          "eventId": 911502,
          "siteUnitNumber": 12614,
          "bathingSite": "TOTLAND BAY",
          "eventStart": "2023-11-16T16:48:04",
          "eventStop": "2023-11-16T16:56:22",
          "duration": 8,
          "status": "Genuine",
          "associatedSiteId": 115498,
          "outfallName": "NORTON TRANSFER IOW",
          "isImpacting": true,
          "overFlowSiteId": 109524
        },
        {
          "id": 343956215,
          "eventId": 911502,
          "siteUnitNumber": 12615,
          "bathingSite": "COLWELL BAY",
          "eventStart": "2023-11-16T16:48:04",
          "eventStop": "2023-11-16T16:56:22",
          "duration": 8,
          "status": "Genuine",
          "associatedSiteId": 115498,
          "outfallName": "NORTON TRANSFER IOW",
          "isImpacting": true,
          "overFlowSiteId": 109524,
          "historicSpillsList": []
        }
      ]
    },
    {
      "id": 343940362,
      "eventId": 911448,
      "siteUnitNumber": 12594,
      "bathingSite": "BOGNOR REGIS EAST",
      "eventStart": "2023-11-16T16:00:00",
      "eventStop": "2023-11-16T16:53:02",
      "duration": 53,
      "status": "Genuine",
      "associatedSiteId": 109959,
      "outfallName": "WEST PARK BOGNOR REGIS",
      "isImpacting": false,
      "overFlowSiteId": 0,
      "historicSpillsList": []
    },
    {
      "id": 343956234,
      "eventId": 911460,
      "siteUnitNumber": 12614,
      "bathingSite": "TOTLAND BAY",
      "eventStart": "2023-11-16T15:32:35",
      "eventStop": "2023-11-16T16:43:10",
      "duration": 70,
      "status": "Genuine",
      "associatedSiteId": 115498,
      "outfallName": "NORTON TRANSFER IOW",
      "isImpacting": true,
      "overFlowSiteId": 0,
      "historicSpillsList": [
        {
          "id": 343956234,
          "eventId": 911460,
          "siteUnitNumber": 12614,
          "bathingSite": "TOTLAND BAY",
          "eventStart": "2023-11-16T15:32:35",
          "eventStop": "2023-11-16T16:43:10",
          "duration": 70,
          "status": "Genuine",
          "associatedSiteId": 115498,
          "outfallName": "NORTON TRANSFER IOW",
          "isImpacting": true,
          "overFlowSiteId": 109524
        },
        {
          "id": 343956235,
          "eventId": 911460,
          "siteUnitNumber": 12615,
          "bathingSite": "COLWELL BAY",
          "eventStart": "2023-11-16T15:32:35",
          "eventStop": "2023-11-16T16:43:10",
          "duration": 70,
          "status": "Genuine",
          "associatedSiteId": 115498,
          "outfallName": "NORTON TRANSFER IOW",
          "isImpacting": true,
          "overFlowSiteId": 109524,
          "historicSpillsList": []
        }
      ]
    },
    {
      "id": 343922885,
      "eventId": 910807,
      "siteUnitNumber": 12616,
      "bathingSite": "GURNARD",
      "eventStart": "2023-11-16T07:27:46",
      "eventStop": "2023-11-16T16:33:00",
      "duration": 545,
      "status": "Genuine",
      "associatedSiteId": 109704,
      "outfallName": "EGYPT POINT COWES",
      "isImpacting": true,
      "overFlowSiteId": 0,
      "historicSpillsList": [
        {
          "id": 343922886,
          "eventId": 910807,
          "siteUnitNumber": 12617,
          "bathingSite": "COWES",
          "eventStart": "2023-11-16T07:27:46",
          "eventStop": "2023-11-16T16:33:00",
          "duration": 545,
          "status": "Genuine",
          "associatedSiteId": 109704,
          "outfallName": "EGYPT POINT COWES",
          "isImpacting": true,
          "overFlowSiteId": 116213,
          "historicSpillsList": []
        }
      ]
    },
    {
      "id": 343918655,
      "eventId": 910881,
      "siteUnitNumber": 12616,
      "bathingSite": "GURNARD",
      "eventStart": "2023-11-16T08:14:00",
      "eventStop": "2023-11-16T15:58:00",
      "duration": 464,
      "status": "Genuine",
      "associatedSiteId": 109650,
      "outfallName": "MARSH ROAD GURNARD",
      "isImpacting": true,
      "overFlowSiteId": 0,
      "historicSpillsList": [
        {
          "id": 343918655,
          "eventId": 910881,
          "siteUnitNumber": 12616,
          "bathingSite": "GURNARD",
          "eventStart": "2023-11-16T08:14:00",
          "eventStop": "2023-11-16T15:58:00",
          "duration": 464,
          "status": "Genuine",
          "associatedSiteId": 109650,
          "outfallName": "MARSH ROAD GURNARD",
          "isImpacting": true,
          "overFlowSiteId": 107441
        }
      ]
    },
    {
      "id": 343940368,
      "eventId": 911442,
      "siteUnitNumber": 12594,
      "bathingSite": "BOGNOR REGIS EAST",
      "eventStart": "2023-11-16T15:53:44",
      "eventStop": "2023-11-16T15:56:36",
      "duration": 2,
      "status": "Genuine",
      "associatedSiteId": 109959,
      "outfallName": "WEST PARK BOGNOR REGIS",
      "isImpacting": false,
      "overFlowSiteId": 0,
      "historicSpillsList": []
    },
    {
      "id": 343940366,
      "eventId": 911436,
      "siteUnitNumber": 12595,
      "bathingSite": "BOGNOR REGIS (ALDWICK)",
      "eventStart": "2023-11-16T15:30:00",
      "eventStop": "2023-11-16T15:45:00",
      "duration": 15,
      "status": "Genuine",
      "associatedSiteId": 109959,
      "outfallName": "WEST PARK BOGNOR REGIS",
      "isImpacting": false,
      "overFlowSiteId": 0,
      "historicSpillsList": []
    },
    {
      "id": 343927391,
      "eventId": 919641,
      "siteUnitNumber": 12618,
      "bathingSite": "RYDE",
      "eventStart": "2023-11-16T08:32:00",
      "eventStop": "2023-11-16T15:42:00",
      "duration": 430,
      "status": "Genuine",
      "associatedSiteId": 109778,
      "outfallName": "PRINCE CONSORT RYDE NEW",
      "isImpacting": true,
      "overFlowSiteId": 0,
      "historicSpillsList": [
        {
          "id": 343927391,
          "eventId": 919641,
          "siteUnitNumber": 12618,
          "bathingSite": "RYDE",
          "eventStart": "2023-11-16T08:32:00",
          "eventStop": "2023-11-16T15:42:00",
          "duration": 430,
          "status": "Genuine",
          "associatedSiteId": 109778,
          "outfallName": "PRINCE CONSORT RYDE NEW",
          "isImpacting": true,
          "overFlowSiteId": 108043
        }
      ]
    },
    {
      "id": 343956216,
      "eventId": 911493,
      "siteUnitNumber": 12614,
      "bathingSite": "TOTLAND BAY",
      "eventStart": "2023-11-16T11:41:30",
      "eventStop": "2023-11-16T15:32:35",
      "duration": 231,
      "status": "Genuine",
      "associatedSiteId": 115498,
      "outfallName": "NORTON TRANSFER IOW",
      "isImpacting": true,
      "overFlowSiteId": 0,
      "historicSpillsList": [
        {
          "id": 343956216,
          "eventId": 911493,
          "siteUnitNumber": 12614,
          "bathingSite": "TOTLAND BAY",
          "eventStart": "2023-11-16T11:41:30",
          "eventStop": "2023-11-16T15:32:35",
          "duration": 231,
          "status": "Genuine",
          "associatedSiteId": 115498,
          "outfallName": "NORTON TRANSFER IOW",
          "isImpacting": true,
          "overFlowSiteId": 109524
        },
        {
          "id": 343956217,
          "eventId": 911493,
          "siteUnitNumber": 12615,
          "bathingSite": "COLWELL BAY",
          "eventStart": "2023-11-16T11:41:30",
          "eventStop": "2023-11-16T15:32:35",
          "duration": 231,
          "status": "Genuine",
          "associatedSiteId": 115498,
          "outfallName": "NORTON TRANSFER IOW",
          "isImpacting": true,
          "overFlowSiteId": 109524,
          "historicSpillsList": []
        }
      ]
    },
    {
      "id": 343940371,
      "eventId": 911408,
      "siteUnitNumber": 12594,
      "bathingSite": "BOGNOR REGIS EAST",
      "eventStart": "2023-11-16T15:25:12",
      "eventStop": "2023-11-16T15:29:38",
      "duration": 4,
      "status": "Genuine",
      "associatedSiteId": 109959,
      "outfallName": "WEST PARK BOGNOR REGIS",
      "isImpacting": false,
      "overFlowSiteId": 0,
      "historicSpillsList": []
    },
    {
      "id": 343940377,
      "eventId": 911405,
      "siteUnitNumber": 12594,
      "bathingSite": "BOGNOR REGIS EAST",
      "eventStart": "2023-11-16T15:17:32",
      "eventStop": "2023-11-16T15:21:39",
      "duration": 4,
      "status": "Genuine",
      "associatedSiteId": 109959,
      "outfallName": "WEST PARK BOGNOR REGIS",
      "isImpacting": false,
      "overFlowSiteId": 0,
      "historicSpillsList": []
    },
    {
      "id": 343923677,
      "eventId": 911415,
      "siteUnitNumber": 12616,
      "bathingSite": "GURNARD",
      "eventStart": "2023-11-16T15:13:30",
      "eventStop": "2023-11-16T15:17:58",
      "duration": 4,
      "status": "Genuine",
      "associatedSiteId": 109706,
      "outfallName": "HIGH STREET COWES",
      "isImpacting": false,
      "overFlowSiteId": 0,
      "historicSpillsList": []
    },
    {
      "id": 343940383,
      "eventId": 911402,
      "siteUnitNumber": 12594,
      "bathingSite": "BOGNOR REGIS EAST",
      "eventStart": "2023-11-16T15:09:50",
      "eventStop": "2023-11-16T15:14:16",
      "duration": 4,
      "status": "Genuine",
      "associatedSiteId": 109959,
      "outfallName": "WEST PARK BOGNOR REGIS",
      "isImpacting": false,
      "overFlowSiteId": 0,
      "historicSpillsList": []
    },
    {
      "id": 343952905,
      "eventId": 910767,
      "siteUnitNumber": 12616,
      "bathingSite": "GURNARD",
      "eventStart": "2023-11-16T06:52:00",
      "eventStop": "2023-11-16T15:10:00",
      "duration": 498,
      "status": "Genuine",
      "associatedSiteId": 110701,
      "outfallName": "TERMINUS ROAD COWES 2",
      "isImpacting": true,
      "overFlowSiteId": 0,
      "historicSpillsList": [
        {
          "id": 343952905,
          "eventId": 910767,
          "siteUnitNumber": 12616,
          "bathingSite": "GURNARD",
          "eventStart": "2023-11-16T06:52:00",
          "eventStop": "2023-11-16T15:10:00",
          "duration": 498,
          "status": "Genuine",
          "associatedSiteId": 110701,
          "outfallName": "TERMINUS ROAD COWES 2",
          "isImpacting": true,
          "overFlowSiteId": 108562
        },
        {
          "id": 343952906,
          "eventId": 910767,
          "siteUnitNumber": 12617,
          "bathingSite": "COWES",
          "eventStart": "2023-11-16T06:52:00",
          "eventStop": "2023-11-16T15:10:00",
          "duration": 498,
          "status": "Genuine",
          "associatedSiteId": 110701,
          "outfallName": "TERMINUS ROAD COWES 2",
          "isImpacting": true,
          "overFlowSiteId": 108562,
          "historicSpillsList": []
        }
      ]
    },
    {
      "id": 343943975,
      "eventId": 910930,
      "siteUnitNumber": 12591,
      "bathingSite": "LITTLEHAMPTON",
      "eventStart": "2023-11-16T08:35:02",
      "eventStop": "2023-11-16T15:05:20",
      "duration": 390,
      "status": "Genuine",
      "associatedSiteId": 109977,
      "outfallName": "FORESHORE TANK LITTLEHAMPTON",
      "isImpacting": true,
      "overFlowSiteId": 0,
      "historicSpillsList": [
        {
          "id": 343943975,
          "eventId": 910930,
          "siteUnitNumber": 12591,
          "bathingSite": "LITTLEHAMPTON",
          "eventStart": "2023-11-16T08:35:02",
          "eventStop": "2023-11-16T15:05:20",
          "duration": 390,
          "status": "Genuine",
          "associatedSiteId": 109977,
          "outfallName": "FORESHORE TANK LITTLEHAMPTON",
          "isImpacting": true,
          "overFlowSiteId": 109390
        }
      ]
    },
    {
      "id": 343940380,
      "eventId": 910933,
      "siteUnitNumber": 12594,
      "bathingSite": "BOGNOR REGIS EAST",
      "eventStart": "2023-11-16T08:45:00",
      "eventStop": "2023-11-16T15:00:00",
      "duration": 375,
      "status": "Genuine",
      "associatedSiteId": 109959,
      "outfallName": "WEST PARK BOGNOR REGIS",
      "isImpacting": true,
      "overFlowSiteId": 0,
      "historicSpillsList": [
        {
          "id": 343940380,
          "eventId": 910933,
          "siteUnitNumber": 12594,
          "bathingSite": "BOGNOR REGIS EAST",
          "eventStart": "2023-11-16T08:45:00",
          "eventStop": "2023-11-16T15:00:00",
          "duration": 375,
          "status": "Genuine",
          "associatedSiteId": 109959,
          "outfallName": "WEST PARK BOGNOR REGIS",
          "isImpacting": true,
          "overFlowSiteId": 108160
        }
      ]
    },
    {
      "id": 343943275,
      "eventId": 911163,
      "siteUnitNumber": 12591,
      "bathingSite": "LITTLEHAMPTON",
      "eventStart": "2023-11-16T11:13:05",
      "eventStop": "2023-11-16T14:59:00",
      "duration": 225,
      "status": "Genuine",
      "associatedSiteId": 109968,
      "outfallName": "FORD ROAD ARUNDEL",
      "isImpacting": true,
      "overFlowSiteId": 0,
      "historicSpillsList": [
        {
          "id": 343943275,
          "eventId": 911163,
          "siteUnitNumber": 12591,
          "bathingSite": "LITTLEHAMPTON",
          "eventStart": "2023-11-16T11:13:05",
          "eventStop": "2023-11-16T14:59:00",
          "duration": 225,
          "status": "Genuine",
          "associatedSiteId": 109968,
          "outfallName": "FORD ROAD ARUNDEL",
          "isImpacting": true,
          "overFlowSiteId": 108002
        }
      ]
    },
    {
      "id": 343939294,
      "eventId": 910890,
      "siteUnitNumber": 12582,
      "bathingSite": "SEAFORD",
      "eventStart": "2023-11-16T08:15:26",
      "eventStop": "2023-11-16T14:29:55",
      "duration": 374,
      "status": "Genuine",
      "associatedSiteId": 109957,
      "outfallName": "PORTOBELLO BRIGHTON NO2",
      "isImpacting": true,
      "overFlowSiteId": 0,
      "historicSpillsList": [
        {
          "id": 343939294,
          "eventId": 910890,
          "siteUnitNumber": 12582,
          "bathingSite": "SEAFORD",
          "eventStart": "2023-11-16T08:15:26",
          "eventStop": "2023-11-16T14:29:55",
          "duration": 374,
          "status": "Genuine",
          "associatedSiteId": 109957,
          "outfallName": "PORTOBELLO BRIGHTON NO2",
          "isImpacting": true,
          "overFlowSiteId": 116036
        },
        {
          "id": 343939295,
          "eventId": 910890,
          "siteUnitNumber": 12583,
          "bathingSite": "SALTDEAN",
          "eventStart": "2023-11-16T08:15:26",
          "eventStop": "2023-11-16T14:29:55",
          "duration": 374,
          "status": "Genuine",
          "associatedSiteId": 109957,
          "outfallName": "PORTOBELLO BRIGHTON NO2",
          "isImpacting": true,
          "overFlowSiteId": 116036,
          "historicSpillsList": []
        }
      ]
    },
    {
      "id": 343938443,
      "eventId": 910872,
      "siteUnitNumber": 12619,
      "bathingSite": "SEAGROVE",
      "eventStart": "2023-11-16T07:20:00",
      "eventStop": "2023-11-16T14:09:00",
      "duration": 409,
      "status": "Genuine",
      "associatedSiteId": 109938,
      "outfallName": "THE POINT BEMBRIDGE",
      "isImpacting": true,
      "overFlowSiteId": 0,
      "historicSpillsList": [
        {
          "id": 343938444,
          "eventId": 910872,
          "siteUnitNumber": 12620,
          "bathingSite": "ST HELENS",
          "eventStart": "2023-11-16T07:20:00",
          "eventStop": "2023-11-16T14:09:00",
          "duration": 409,
          "status": "Genuine",
          "associatedSiteId": 109938,
          "outfallName": "THE POINT BEMBRIDGE",
          "isImpacting": true,
          "overFlowSiteId": 110194,
          "historicSpillsList": []
        }
      ]
    },
    {
      "id": 343920394,
      "eventId": 910799,
      "siteUnitNumber": 12614,
      "bathingSite": "TOTLAND BAY",
      "eventStart": "2023-11-16T07:15:00",
      "eventStop": "2023-11-16T14:08:00",
      "duration": 413,
      "status": "Genuine",
      "associatedSiteId": 109657,
      "outfallName": "THE PROMENADE TOTLAND PIER NO2",
      "isImpacting": false,
      "overFlowSiteId": 0,
      "historicSpillsList": []
    },
    {
      "id": 343923679,
      "eventId": 911241,
      "siteUnitNumber": 12616,
      "bathingSite": "GURNARD",
      "eventStart": "2023-11-16T12:38:56",
      "eventStop": "2023-11-16T12:46:19",
      "duration": 7,
      "status": "Genuine",
      "associatedSiteId": 109706,
      "outfallName": "HIGH STREET COWES",
      "isImpacting": false,
      "overFlowSiteId": 0,
      "historicSpillsList": []
    }
  ]
}