{
  "currentPage": 526,
  "totalItems": 21025,
  "totalPages": 841,
  "items": [
    {
      "id": 344832136,
      "eventId": 654734,
      "siteUnitNumber": 12586,
      "bathingSite": "HOVE",
      "eventStart": "2022-11-03T01:15:00",
      "eventStop": "2022-11-03T06:12:00",
      "duration": 297,
      "status": "Genuine",
      "associatedSiteId": 109929,
      "outfallName": "SHOREHAM NO1",
      "isImpacting": true,
      "overFlowSiteId": 0,
      "historicSpillsList": [
        {
          "id": 344832136,
          "eventId": 654734,
          "siteUnitNumber": 12586,
          "bathingSite": "HOVE",
          "eventStart": "2022-11-03T01:15:00",
          "eventStop": "2022-11-03T06:12:00",
          "duration": 297,
          "status": "Genuine",
          "associatedSiteId": 109929,
          "outfallName": "SHOREHAM NO1",
          "isImpacting": true,
          "overFlowSiteId": 115434
        },
        {
          "id": 344832137,
          "eventId": 654734,
          "siteUnitNumber": 12587,
          "bathingSite": "SOUTHWICK",
          "eventStart": "2022-11-03T01:15:00",
          "eventStop": "2022-11-03T06:12:00",
          "duration": 297,
          "status": "Genuine",
          "associatedSiteId": 109929,
          "outfallName": "SHOREHAM NO1",
          "isImpacting": true,
          "overFlowSiteId": 115434,
          "historicSpillsList": []
        },
        {
          "id": 344832138,
          "eventId": 654734,
          "siteUnitNumber": 12588,
          "bathingSite": "SHOREHAM BEACH",
          "eventStart": "2022-11-03T01:15:00",
          "eventStop": "2022-11-03T06:12:00",
          "duration": 297,
          "status": "Genuine",
          "associatedSiteId": 109929,
          "outfallName": "SHOREHAM NO1",
          "isImpacting": true,
          "overFlowSiteId": 115434,
          "historicSpillsList": []
        }
      ]
    },
    {
      "id": 344815184,
      "eventId": 653466,
      "siteUnitNumber": 12614,
      "bathingSite": "TOTLAND BAY",
      "eventStart": "2022-11-03T05:32:59",
      "eventStop": "2022-11-03T06:05:00",
      "duration": 32,
      "status": "Genuine",
      "associatedSiteId": 109665,
      "outfallName": "THORLEY ROAD BOULDNOR",
      "isImpacting": false,
      "overFlowSiteId": 0,
      "historicSpillsList": []
    },
    {
      "id": 344812650,
      "eventId": 656080,
      "siteUnitNumber": 12544,
      "bathingSite": "SHEERNESS",
      "eventStart": "2022-11-03T05:43:00",
      "eventStop": "2022-11-03T06:00:00",
      "duration": 17,
      "status": "Genuine",
      "associatedSiteId": 109614,
      "outfallName": "BRIELLE WAY WESTMINSTER",
      "isImpacting": false,
      "overFlowSiteId": 0,
      "historicSpillsList": []
    },
    {
      "id": 344847865,
      "eventId": 654137,
      "siteUnitNumber": 12616,
      "bathingSite": "GURNARD",
      "eventStart": "2022-11-03T05:33:00",
      "eventStop": "2022-11-03T05:57:00",
      "duration": 24,
      "status": "Genuine",
      "associatedSiteId": 110701,
      "outfallName": "TERMINUS ROAD COWES 2",
      "isImpacting": true,
      "overFlowSiteId": 0,
      "historicSpillsList": [
        {
          "id": 344847865,
          "eventId": 654137,
          "siteUnitNumber": 12616,
          "bathingSite": "GURNARD",
          "eventStart": "2022-11-03T05:33:00",
          "eventStop": "2022-11-03T05:57:00",
          "duration": 24,
          "status": "Genuine",
          "associatedSiteId": 110701,
          "outfallName": "TERMINUS ROAD COWES 2",
          "isImpacting": true,
          "overFlowSiteId": 108562
        },
        {
          "id": 344847866,
          "eventId": 654137,
          "siteUnitNumber": 12617,
          "bathingSite": "COWES",
          "eventStart": "2022-11-03T05:33:00",
          "eventStop": "2022-11-03T05:57:00",
          "duration": 24,
          "status": "Genuine",
          "associatedSiteId": 110701,
          "outfallName": "TERMINUS ROAD COWES 2",
          "isImpacting": true,
          "overFlowSiteId": 108562,
          "historicSpillsList": []
        }
      ]
    },
    {
      "id": 344817087,
      "eventId": 653365,
      "siteUnitNumber": 12616,
      "bathingSite": "GURNARD",
      "eventStart": "2022-11-03T04:40:00",
      "eventStop": "2022-11-03T05:53:00",
      "duration": 73,
      "status": "Genuine",
      "associatedSiteId": 109702,
      "outfallName": "ALBANY ROAD EAST COWES",
      "isImpacting": false,
      "overFlowSiteId": 0,
      "historicSpillsList": []
    },
    {
      "id": 344814867,
      "eventId": 653752,
      "siteUnitNumber": 12614,
      "bathingSite": "TOTLAND BAY",
      "eventStart": "2022-11-03T04:38:00",
      "eventStop": "2022-11-03T05:53:00",
      "duration": 75,
      "status": "Genuine",
      "associatedSiteId": 109657,
      "outfallName": "THE PROMENADE TOTLAND PIER NO2",
      "isImpacting": false,
      "overFlowSiteId": 0,
      "historicSpillsList": []
    },
    {
      "id": 344838443,
      "eventId": 654017,
      "siteUnitNumber": 12591,
      "bathingSite": "LITTLEHAMPTON",
      "eventStart": "2022-11-02T22:29:00",
      "eventStop": "2022-11-03T05:53:00",
      "duration": 444,
      "status": "Genuine",
      "associatedSiteId": 109977,
      "outfallName": "FORESHORE TANK LITTLEHAMPTON",
      "isImpacting": true,
      "overFlowSiteId": 0,
      "historicSpillsList": [
        {
          "id": 344838443,
          "eventId": 654017,
          "siteUnitNumber": 12591,
          "bathingSite": "LITTLEHAMPTON",
          "eventStart": "2022-11-02T22:29:00",
          "eventStop": "2022-11-03T05:53:00",
          "duration": 444,
          "status": "Genuine",
          "associatedSiteId": 109977,
          "outfallName": "FORESHORE TANK LITTLEHAMPTON",
          "isImpacting": true,
          "overFlowSiteId": 109390
        }
      ]
    },
    {
      "id": 344841520,
      "eventId": 653487,
      "siteUnitNumber": 12622,
      "bathingSite": "WHITECLIFF BAY",
      "eventStart": "2022-11-03T05:26:05",
      "eventStop": "2022-11-03T05:48:32",
      "duration": 22,
      "status": "Genuine",
      "associatedSiteId": 110096,
      "outfallName": "SANDOWN NO1",
      "isImpacting": true,
      "overFlowSiteId": 0,
      "historicSpillsList": [
        {
          "id": 344841521,
          "eventId": 653487,
          "siteUnitNumber": 12623,
          "bathingSite": "YAVERLAND",
          "eventStart": "2022-11-03T05:26:05",
          "eventStop": "2022-11-03T05:48:32",
          "duration": 22,
          "status": "Genuine",
          "associatedSiteId": 110096,
          "outfallName": "SANDOWN NO1",
          "isImpacting": true,
          "overFlowSiteId": 115453,
          "historicSpillsList": []
        },
        {
          "id": 344841522,
          "eventId": 653487,
          "siteUnitNumber": 12624,
          "bathingSite": "SANDOWN",
          "eventStart": "2022-11-03T05:26:05",
          "eventStop": "2022-11-03T05:48:32",
          "duration": 22,
          "status": "Genuine",
          "associatedSiteId": 110096,
          "outfallName": "SANDOWN NO1",
          "isImpacting": true,
          "overFlowSiteId": 115453,
          "historicSpillsList": []
        }
      ]
    },
    {
      "id": 344816659,
      "eventId": 653845,
      "siteUnitNumber": 12616,
      "bathingSite": "GURNARD",
      "eventStart": "2022-11-03T05:36:36",
      "eventStop": "2022-11-03T05:43:15",
      "duration": 6,
      "status": "Not Genuine",
      "associatedSiteId": 109700,
      "outfallName": "MARKET HILL COWES",
      "isImpacting": false,
      "overFlowSiteId": 0,
      "historicSpillsList": []
    },
    {
      "id": 344812480,
      "eventId": 653452,
      "siteUnitNumber": 12618,
      "bathingSite": "RYDE",
      "eventStart": "2022-11-03T05:17:00",
      "eventStop": "2022-11-03T05:39:00",
      "duration": 22,
      "status": "Genuine",
      "associatedSiteId": 102971,
      "outfallName": "SPRING VALE",
      "isImpacting": false,
      "overFlowSiteId": 0,
      "historicSpillsList": []
    },
    {
      "id": 344839572,
      "eventId": 653426,
      "siteUnitNumber": 12546,
      "bathingSite": "LEYSDOWN",
      "eventStart": "2022-11-03T05:08:00",
      "eventStop": "2022-11-03T05:36:00",
      "duration": 28,
      "status": "Genuine",
      "associatedSiteId": 109998,
      "outfallName": "MUSTARDS ROAD LEYSDOWN ON SEA",
      "isImpacting": true,
      "overFlowSiteId": 0,
      "historicSpillsList": [
        {
          "id": 344839572,
          "eventId": 653426,
          "siteUnitNumber": 12546,
          "bathingSite": "LEYSDOWN",
          "eventStart": "2022-11-03T05:08:00",
          "eventStop": "2022-11-03T05:36:00",
          "duration": 28,
          "status": "Genuine",
          "associatedSiteId": 109998,
          "outfallName": "MUSTARDS ROAD LEYSDOWN ON SEA",
          "isImpacting": true,
          "overFlowSiteId": 108113
        }
      ]
    },
    {
      "id": 344836443,
      "eventId": 653448,
      "siteUnitNumber": 12594,
      "bathingSite": "BOGNOR REGIS EAST",
      "eventStart": "2022-11-03T02:23:00",
      "eventStop": "2022-11-03T05:36:00",
      "duration": 193,
      "status": "Genuine",
      "associatedSiteId": 109959,
      "outfallName": "WEST PARK BOGNOR REGIS",
      "isImpacting": true,
      "overFlowSiteId": 0,
      "historicSpillsList": [
        {
          "id": 344836443,
          "eventId": 653448,
          "siteUnitNumber": 12594,
          "bathingSite": "BOGNOR REGIS EAST",
          "eventStart": "2022-11-03T02:23:00",
          "eventStop": "2022-11-03T05:36:00",
          "duration": 193,
          "status": "Genuine",
          "associatedSiteId": 109959,
          "outfallName": "WEST PARK BOGNOR REGIS",
          "isImpacting": true,
          "overFlowSiteId": 108160
        }
      ]
    },
    {
      "id": 344822941,
      "eventId": 653455,
      "siteUnitNumber": 12661,
      "bathingSite": "LANGSTONE HARBOUR",
      "eventStart": "2022-11-03T05:18:03",
      "eventStop": "2022-11-03T05:33:44",
      "duration": 15,
      "status": "Genuine",
      "associatedSiteId": 109818,
      "outfallName": "KIRTLEY CLOSE DRAYTON",
      "isImpacting": true,
      "overFlowSiteId": 0,
      "historicSpillsList": [
        {
          "id": 344822941,
          "eventId": 653455,
          "siteUnitNumber": 12661,
          "bathingSite": "LANGSTONE HARBOUR",
          "eventStart": "2022-11-03T05:18:03",
          "eventStop": "2022-11-03T05:33:44",
          "duration": 15,
          "status": "Genuine",
          "associatedSiteId": 109818,
          "outfallName": "KIRTLEY CLOSE DRAYTON",
          "isImpacting": true,
          "overFlowSiteId": 108774
        }
      ]
    },
    {
      "id": 344812654,
      "eventId": 654186,
      "siteUnitNumber": 12544,
      "bathingSite": "SHEERNESS",
      "eventStart": "2022-11-03T05:09:00",
      "eventStop": "2022-11-03T05:25:00",
      "duration": 16,
      "status": "Genuine",
      "associatedSiteId": 109614,
      "outfallName": "BRIELLE WAY WESTMINSTER",
      "isImpacting": false,
      "overFlowSiteId": 0,
      "historicSpillsList": []
    },
    {
      "id": 344816661,
      "eventId": 653819,
      "siteUnitNumber": 12616,
      "bathingSite": "GURNARD",
      "eventStart": "2022-11-03T03:35:00",
      "eventStop": "2022-11-03T05:22:00",
      "duration": 107,
      "status": "Genuine",
      "associatedSiteId": 109700,
      "outfallName": "MARKET HILL COWES",
      "isImpacting": false,
      "overFlowSiteId": 0,
      "historicSpillsList": []
    },
    {
      "id": 344847867,
      "eventId": 654136,
      "siteUnitNumber": 12617,
      "bathingSite": "COWES",
      "eventStart": "2022-11-03T03:36:00",
      "eventStop": "2022-11-03T05:13:00",
      "duration": 97,
      "status": "Genuine",
      "associatedSiteId": 110701,
      "outfallName": "TERMINUS ROAD COWES 2",
      "isImpacting": true,
      "overFlowSiteId": 0,
      "historicSpillsList": [
        {
          "id": 344847867,
          "eventId": 654136,
          "siteUnitNumber": 12617,
          "bathingSite": "COWES",
          "eventStart": "2022-11-03T03:36:00",
          "eventStop": "2022-11-03T05:13:00",
          "duration": 97,
          "status": "Genuine",
          "associatedSiteId": 110701,
          "outfallName": "TERMINUS ROAD COWES 2",
          "isImpacting": true,
          "overFlowSiteId": 108562
        },
        {
          "id": 344847868,
          "eventId": 654136,
          "siteUnitNumber": 12616,
          "bathingSite": "GURNARD",
          "eventStart": "2022-11-03T03:36:00",
          "eventStop": "2022-11-03T05:13:00",
          "duration": 97,
          "status": "Genuine",
          "associatedSiteId": 110701,
          "outfallName": "TERMINUS ROAD COWES 2",
          "isImpacting": true,
          "overFlowSiteId": 108562,
          "historicSpillsList": []
        }
      ]
    },
    {
      "id": 344815037,
      "eventId": 653364,
      "siteUnitNumber": 12615,
      "bathingSite": "COLWELL BAY",
      "eventStart": "2022-11-03T04:49:00",
      "eventStop": "2022-11-03T05:05:00",
      "duration": 16,
      "status": "Genuine",
      "associatedSiteId": 109663,
      "outfallName": "THE INSTITUTE YARMOUTH NO1",
      "isImpacting": false,
      "overFlowSiteId": 0,
      "historicSpillsList": []
    },
    {
      "id": 344812951,
      "eventId": 653397,
      "siteUnitNumber": 12550,
      "bathingSite": "MINSTER LEAS",
      "eventStart": "2022-11-03T04:35:08",
      "eventStop": "2022-11-03T05:04:24",
      "duration": 29,
      "status": "Genuine",
      "associatedSiteId": 109620,
      "outfallName": "WESTCLIFFE DRIVE MINSTER IOS",
      "isImpacting": false,
      "overFlowSiteId": 0,
      "historicSpillsList": []
    },
    {
      "id": 344826285,
      "eventId": 653354,
      "siteUnitNumber": 12544,
      "bathingSite": "SHEERNESS",
      "eventStart": "2022-11-03T04:26:24",
      "eventStop": "2022-11-03T05:02:00",
      "duration": 35,
      "status": "Genuine",
      "associatedSiteId": 109869,
      "outfallName": "GRAIN NO2",
      "isImpacting": true,
      "overFlowSiteId": 0,
      "historicSpillsList": [
        {
          "id": 344826285,
          "eventId": 653354,
          "siteUnitNumber": 12544,
          "bathingSite": "SHEERNESS",
          "eventStart": "2022-11-03T04:26:24",
          "eventStop": "2022-11-03T05:02:00",
          "duration": 35,
          "status": "Genuine",
          "associatedSiteId": 109869,
          "outfallName": "GRAIN NO2",
          "isImpacting": true,
          "overFlowSiteId": 115411
        }
      ]
    },
    {
      "id": 344837875,
      "eventId": 652617,
      "siteUnitNumber": 12591,
      "bathingSite": "LITTLEHAMPTON",
      "eventStart": "2022-11-02T22:12:32",
      "eventStop": "2022-11-03T04:58:00",
      "duration": 405,
      "status": "Genuine",
      "associatedSiteId": 109968,
      "outfallName": "FORD ROAD ARUNDEL",
      "isImpacting": true,
      "overFlowSiteId": 0,
      "historicSpillsList": [
        {
          "id": 344837875,
          "eventId": 652617,
          "siteUnitNumber": 12591,
          "bathingSite": "LITTLEHAMPTON",
          "eventStart": "2022-11-02T22:12:32",
          "eventStop": "2022-11-03T04:58:00",
          "duration": 405,
          "status": "Genuine",
          "associatedSiteId": 109968,
          "outfallName": "FORD ROAD ARUNDEL",
          "isImpacting": true,
          "overFlowSiteId": 108002
        }
      ]
    },
    {
      "id": 344813031,
      "eventId": 653947,
      "siteUnitNumber": 12544,
      "bathingSite": "SHEERNESS",
      "eventStart": "2022-11-03T04:30:00",
      "eventStop": "2022-11-03T04:45:00",
      "duration": 15,
      "status": "Genuine",
      "associatedSiteId": 109621,
      "outfallName": "NOREEN AVENUE SHEERNESS",
      "isImpacting": true,
      "overFlowSiteId": 0,
      "historicSpillsList": [
        {
          "id": 344813031,
          "eventId": 653947,
          "siteUnitNumber": 12544,
          "bathingSite": "SHEERNESS",
          "eventStart": "2022-11-03T04:30:00",
          "eventStop": "2022-11-03T04:45:00",
          "duration": 15,
          "status": "Genuine",
          "associatedSiteId": 109621,
          "outfallName": "NOREEN AVENUE SHEERNESS",
          "isImpacting": true,
          "overFlowSiteId": 108809
        },
        {
          "id": 344813032,
          "eventId": 653947,
          "siteUnitNumber": 12550,
          "bathingSite": "MINSTER LEAS",
          "eventStart": "2022-11-03T04:30:00",
          "eventStop": "2022-11-03T04:45:00",
          "duration": 15,
          "status": "Genuine",
          "associatedSiteId": 109621,
          "outfallName": "NOREEN AVENUE SHEERNESS",
          "isImpacting": true,
          "overFlowSiteId": 108809,
          "historicSpillsList": []
        }
      ]
    },
    {
      "id": 344812357,
      "eventId": 653170,
      "siteUnitNumber": 12618,
      "bathingSite": "RYDE",
      "eventStart": "2022-11-03T03:00:00",
      "eventStop": "2022-11-03T04:15:00",
      "duration": 75,
      "status": "Not Genuine",
      "associatedSiteId": 102050,
      "outfallName": "ESPLANADE SEAVIEW",
      "isImpacting": false,
      "overFlowSiteId": 0,
      "historicSpillsList": []
    },
    {
      "id": 344812655,
      "eventId": 654185,
      "siteUnitNumber": 12544,
      "bathingSite": "SHEERNESS",
      "eventStart": "2022-11-03T03:44:00",
      "eventStop": "2022-11-03T04:07:00",
      "duration": 23,
      "status": "Genuine",
      "associatedSiteId": 109614,
      "outfallName": "BRIELLE WAY WESTMINSTER",
      "isImpacting": false,
      "overFlowSiteId": 0,
      "historicSpillsList": []
    },
    {
      "id": 344841524,
      "eventId": 652968,
      "siteUnitNumber": 12622,
      "bathingSite": "WHITECLIFF BAY",
      "eventStart": "2022-11-03T00:19:35",
      "eventStop": "2022-11-03T03:53:02",
      "duration": 213,
      "status": "Genuine",
      "associatedSiteId": 110096,
      "outfallName": "SANDOWN NO1",
      "isImpacting": true,
      "overFlowSiteId": 0,
      "historicSpillsList": [
        {
          "id": 344841524,
          "eventId": 652968,
          "siteUnitNumber": 12622,
          "bathingSite": "WHITECLIFF BAY",
          "eventStart": "2022-11-03T00:19:35",
          "eventStop": "2022-11-03T03:53:02",
          "duration": 213,
          "status": "Genuine",
          "associatedSiteId": 110096,
          "outfallName": "SANDOWN NO1",
          "isImpacting": true,
          "overFlowSiteId": 115453
        },
        {
          "id": 344841526,
          "eventId": 652968,
          "siteUnitNumber": 12624,
          "bathingSite": "SANDOWN",
          "eventStart": "2022-11-03T00:19:35",
          "eventStop": "2022-11-03T03:53:02",
          "duration": 213,
          "status": "Genuine",
          "associatedSiteId": 110096,
          "outfallName": "SANDOWN NO1",
          "isImpacting": true,
          "overFlowSiteId": 115453,
          "historicSpillsList": []
        }
      ]
    },
    {
      "id": 344821867,
      "eventId": 652851,
      "siteUnitNumber": 12618,
      "bathingSite": "RYDE",
      "eventStart": "2022-11-03T00:07:00",
      "eventStop": "2022-11-03T03:27:00",
      "duration": 200,
      "status": "Genuine",
      "associatedSiteId": 109778,
      "outfallName": "PRINCE CONSORT RYDE NEW",
      "isImpacting": true,
      "overFlowSiteId": 0,
      "historicSpillsList": [
        {
          "id": 344821867,
          "eventId": 652851,
          "siteUnitNumber": 12618,
          "bathingSite": "RYDE",
          "eventStart": "2022-11-03T00:07:00",
          "eventStop": "2022-11-03T03:27:00",
          "duration": 200,
          "status": "Genuine",
          "associatedSiteId": 109778,
          "outfallName": "PRINCE CONSORT RYDE NEW",
          "isImpacting": true,
          "overFlowSiteId": 108043
        }
      ]
    }
  ]
}