{
  "currentPage": 568,
  "totalItems": 21025,
  "totalPages": 841,
  "items": [
    {
      "id": 344821034,
      "eventId": 622170,
      "siteUnitNumber": 12617,
      "bathingSite": "COWES",
      "eventStart": "2022-08-16T10:41:00",
      "eventStop": "2022-08-16T12:30:00",
      "duration": 109,
      "status": "Genuine",
      "associatedSiteId": 109777,
      "outfallName": "APPLEY PARK RYDE TRANSFER",
      "isImpacting": true,
      "overFlowSiteId": 0,
      "historicSpillsList": [
        {
          "id": 344821034,
          "eventId": 622170,
          "siteUnitNumber": 12617,
          "bathingSite": "COWES",
          "eventStart": "2022-08-16T10:41:00",
          "eventStop": "2022-08-16T12:30:00",
          "duration": 109,
          "status": "Genuine",
          "associatedSiteId": 109777,
          "outfallName": "APPLEY PARK RYDE TRANSFER",
          "isImpacting": true,
          "overFlowSiteId": 108941
        },
        {
          "id": 344821035,
          "eventId": 622170,
          "siteUnitNumber": 12618,
          "bathingSite": "RYDE",
          "eventStart": "2022-08-16T10:41:00",
          "eventStop": "2022-08-16T12:30:00",
          "duration": 109,
          "status": "Genuine",
          "associatedSiteId": 109777,
          "outfallName": "APPLEY PARK RYDE TRANSFER",
          "isImpacting": true,
          "overFlowSiteId": 108941,
          "historicSpillsList": []
        }
      ]
    },
    {
      "id": 344836507,
      "eventId": 622089,
      "siteUnitNumber": 12595,
      "bathingSite": "BOGNOR REGIS (ALDWICK)",
      "eventStart": "2022-08-16T09:30:00",
      "eventStop": "2022-08-16T12:30:00",
      "duration": 180,
      "status": "Genuine",
      "associatedSiteId": 109959,
      "outfallName": "WEST PARK BOGNOR REGIS",
      "isImpacting": true,
      "overFlowSiteId": 0,
      "historicSpillsList": [
        {
          "id": 344836507,
          "eventId": 622089,
          "siteUnitNumber": 12595,
          "bathingSite": "BOGNOR REGIS (ALDWICK)",
          "eventStart": "2022-08-16T09:30:00",
          "eventStop": "2022-08-16T12:30:00",
          "duration": 180,
          "status": "Genuine",
          "associatedSiteId": 109959,
          "outfallName": "WEST PARK BOGNOR REGIS",
          "isImpacting": true,
          "overFlowSiteId": 108160
        },
        {
          "id": 344836508,
          "eventId": 622089,
          "siteUnitNumber": 12596,
          "bathingSite": "PAGHAM",
          "eventStart": "2022-08-16T09:30:00",
          "eventStop": "2022-08-16T12:30:00",
          "duration": 180,
          "status": "Genuine",
          "associatedSiteId": 109959,
          "outfallName": "WEST PARK BOGNOR REGIS",
          "isImpacting": true,
          "overFlowSiteId": 108160,
          "historicSpillsList": []
        },
        {
          "id": 344836515,
          "eventId": 622089,
          "siteUnitNumber": 12594,
          "bathingSite": "BOGNOR REGIS EAST",
          "eventStart": "2022-08-16T09:30:00",
          "eventStop": "2022-08-16T12:30:00",
          "duration": 180,
          "status": "Genuine",
          "associatedSiteId": 109959,
          "outfallName": "WEST PARK BOGNOR REGIS",
          "isImpacting": true,
          "overFlowSiteId": 108160,
          "historicSpillsList": []
        }
      ]
    },
    {
      "id": 344823640,
      "eventId": 622122,
      "siteUnitNumber": 12604,
      "bathingSite": "SOUTHSEA EAST",
      "eventStart": "2022-08-16T10:00:00",
      "eventStop": "2022-08-16T12:26:48",
      "duration": 146,
      "status": "Not Genuine",
      "associatedSiteId": 109822,
      "outfallName": "PIER ROAD SOUTHSEA",
      "isImpacting": true,
      "overFlowSiteId": 0,
      "historicSpillsList": []
    },
    {
      "id": 344832205,
      "eventId": 622209,
      "siteUnitNumber": 12586,
      "bathingSite": "HOVE",
      "eventStart": "2022-08-16T11:10:26",
      "eventStop": "2022-08-16T12:17:28",
      "duration": 67,
      "status": "Genuine",
      "associatedSiteId": 109929,
      "outfallName": "SHOREHAM NO1",
      "isImpacting": true,
      "overFlowSiteId": 0,
      "historicSpillsList": [
        {
          "id": 344832205,
          "eventId": 622209,
          "siteUnitNumber": 12586,
          "bathingSite": "HOVE",
          "eventStart": "2022-08-16T11:10:26",
          "eventStop": "2022-08-16T12:17:28",
          "duration": 67,
          "status": "Genuine",
          "associatedSiteId": 109929,
          "outfallName": "SHOREHAM NO1",
          "isImpacting": true,
          "overFlowSiteId": 115434
        },
        {
          "id": 344832206,
          "eventId": 622209,
          "siteUnitNumber": 12587,
          "bathingSite": "SOUTHWICK",
          "eventStart": "2022-08-16T11:10:26",
          "eventStop": "2022-08-16T12:17:28",
          "duration": 67,
          "status": "Genuine",
          "associatedSiteId": 109929,
          "outfallName": "SHOREHAM NO1",
          "isImpacting": true,
          "overFlowSiteId": 115434,
          "historicSpillsList": []
        },
        {
          "id": 344832207,
          "eventId": 622209,
          "siteUnitNumber": 12588,
          "bathingSite": "SHOREHAM BEACH",
          "eventStart": "2022-08-16T11:10:26",
          "eventStop": "2022-08-16T12:17:28",
          "duration": 67,
          "status": "Genuine",
          "associatedSiteId": 109929,
          "outfallName": "SHOREHAM NO1",
          "isImpacting": true,
          "overFlowSiteId": 115434,
          "historicSpillsList": []
        }
      ]
    },
    {
      "id": 344852520,
      "eventId": 622198,
      "siteUnitNumber": 12614,
      "bathingSite": "TOTLAND BAY",
      "eventStart": "2022-08-16T11:30:00",
      "eventStop": "2022-08-16T12:12:00",
      "duration": 42,
      "status": "Genuine",
      "associatedSiteId": 115498,
      "outfallName": "NORTON TRANSFER IOW",
      "isImpacting": true,
      "overFlowSiteId": 0,
      "historicSpillsList": [
        {
          "id": 344852520,
          "eventId": 622198,
          "siteUnitNumber": 12614,
          "bathingSite": "TOTLAND BAY",
          "eventStart": "2022-08-16T11:30:00",
          "eventStop": "2022-08-16T12:12:00",
          "duration": 42,
          "status": "Genuine",
          "associatedSiteId": 115498,
          "outfallName": "NORTON TRANSFER IOW",
          "isImpacting": true,
          "overFlowSiteId": 109524
        },
        {
          "id": 344852521,
          "eventId": 622198,
          "siteUnitNumber": 12615,
          "bathingSite": "COLWELL BAY",
          "eventStart": "2022-08-16T11:30:00",
          "eventStop": "2022-08-16T12:12:00",
          "duration": 42,
          "status": "Genuine",
          "associatedSiteId": 115498,
          "outfallName": "NORTON TRANSFER IOW",
          "isImpacting": true,
          "overFlowSiteId": 109524,
          "historicSpillsList": []
        }
      ]
    },
    {
      "id": 344831637,
      "eventId": 622123,
      "siteUnitNumber": 12587,
      "bathingSite": "SOUTHWICK",
      "eventStart": "2022-08-16T10:00:43",
      "eventStop": "2022-08-16T11:35:26",
      "duration": 94,
      "status": "Genuine",
      "associatedSiteId": 109922,
      "outfallName": "ROPETACKLE STREET SHOREHAM",
      "isImpacting": true,
      "overFlowSiteId": 0,
      "historicSpillsList": [
        {
          "id": 344831637,
          "eventId": 622123,
          "siteUnitNumber": 12587,
          "bathingSite": "SOUTHWICK",
          "eventStart": "2022-08-16T10:00:43",
          "eventStop": "2022-08-16T11:35:26",
          "duration": 94,
          "status": "Genuine",
          "associatedSiteId": 109922,
          "outfallName": "ROPETACKLE STREET SHOREHAM",
          "isImpacting": true,
          "overFlowSiteId": 108324
        },
        {
          "id": 344831638,
          "eventId": 622123,
          "siteUnitNumber": 12588,
          "bathingSite": "SHOREHAM BEACH",
          "eventStart": "2022-08-16T10:00:43",
          "eventStop": "2022-08-16T11:35:26",
          "duration": 94,
          "status": "Genuine",
          "associatedSiteId": 109922,
          "outfallName": "ROPETACKLE STREET SHOREHAM",
          "isImpacting": true,
          "overFlowSiteId": 108324,
          "historicSpillsList": []
        },
        {
          "id": 344831639,
          "eventId": 622123,
          "siteUnitNumber": 12589,
          "bathingSite": "LANCING BEACH GREEN",
          "eventStart": "2022-08-16T10:00:43",
          "eventStop": "2022-08-16T11:35:26",
          "duration": 94,
          "status": "Genuine",
          "associatedSiteId": 109922,
          "outfallName": "ROPETACKLE STREET SHOREHAM",
          "isImpacting": true,
          "overFlowSiteId": 108324,
          "historicSpillsList": []
        }
      ]
    },
    {
      "id": 344849062,
      "eventId": 622066,
      "siteUnitNumber": 12582,
      "bathingSite": "SEAFORD",
      "eventStart": "2022-08-16T08:39:43",
      "eventStop": "2022-08-16T11:27:00",
      "duration": 167,
      "status": "Genuine",
      "associatedSiteId": 110920,
      "outfallName": "NEWHAVEN",
      "isImpacting": true,
      "overFlowSiteId": 0,
      "historicSpillsList": [
        {
          "id": 344849062,
          "eventId": 622066,
          "siteUnitNumber": 12582,
          "bathingSite": "SEAFORD",
          "eventStart": "2022-08-16T08:39:43",
          "eventStop": "2022-08-16T11:27:00",
          "duration": 167,
          "status": "Genuine",
          "associatedSiteId": 110920,
          "outfallName": "NEWHAVEN",
          "isImpacting": true,
          "overFlowSiteId": 116065
        }
      ]
    },
    {
      "id": 344837406,
      "eventId": 622058,
      "siteUnitNumber": 12591,
      "bathingSite": "LITTLEHAMPTON",
      "eventStart": "2022-08-16T08:15:36",
      "eventStop": "2022-08-16T11:15:00",
      "duration": 179,
      "status": "Genuine",
      "associatedSiteId": 109965,
      "outfallName": "SEA ROAD LITTLEHAMPTON",
      "isImpacting": true,
      "overFlowSiteId": 0,
      "historicSpillsList": [
        {
          "id": 344837406,
          "eventId": 622058,
          "siteUnitNumber": 12591,
          "bathingSite": "LITTLEHAMPTON",
          "eventStart": "2022-08-16T08:15:36",
          "eventStop": "2022-08-16T11:15:00",
          "duration": 179,
          "status": "Genuine",
          "associatedSiteId": 109965,
          "outfallName": "SEA ROAD LITTLEHAMPTON",
          "isImpacting": true,
          "overFlowSiteId": 109368
        }
      ]
    },
    {
      "id": 344832209,
      "eventId": 622070,
      "siteUnitNumber": 12586,
      "bathingSite": "HOVE",
      "eventStart": "2022-08-16T09:03:19",
      "eventStop": "2022-08-16T11:03:30",
      "duration": 120,
      "status": "Genuine",
      "associatedSiteId": 109929,
      "outfallName": "SHOREHAM NO1",
      "isImpacting": true,
      "overFlowSiteId": 0,
      "historicSpillsList": [
        {
          "id": 344832209,
          "eventId": 622070,
          "siteUnitNumber": 12586,
          "bathingSite": "HOVE",
          "eventStart": "2022-08-16T09:03:19",
          "eventStop": "2022-08-16T11:03:30",
          "duration": 120,
          "status": "Genuine",
          "associatedSiteId": 109929,
          "outfallName": "SHOREHAM NO1",
          "isImpacting": true,
          "overFlowSiteId": 115434
        },
        {
          "id": 344832210,
          "eventId": 622070,
          "siteUnitNumber": 12587,
          "bathingSite": "SOUTHWICK",
          "eventStart": "2022-08-16T09:03:19",
          "eventStop": "2022-08-16T11:03:30",
          "duration": 120,
          "status": "Genuine",
          "associatedSiteId": 109929,
          "outfallName": "SHOREHAM NO1",
          "isImpacting": true,
          "overFlowSiteId": 115434,
          "historicSpillsList": []
        },
        {
          "id": 344832211,
          "eventId": 622070,
          "siteUnitNumber": 12588,
          "bathingSite": "SHOREHAM BEACH",
          "eventStart": "2022-08-16T09:03:19",
          "eventStop": "2022-08-16T11:03:30",
          "duration": 120,
          "status": "Genuine",
          "associatedSiteId": 109929,
          "outfallName": "SHOREHAM NO1",
          "isImpacting": true,
          "overFlowSiteId": 115434,
          "historicSpillsList": []
        }
      ]
    },
    {
      "id": 344831777,
      "eventId": 622115,
      "siteUnitNumber": 12587,
      "bathingSite": "SOUTHWICK",
      "eventStart": "2022-08-16T10:12:00",
      "eventStop": "2022-08-16T10:38:00",
      "duration": 26,
      "status": "Genuine",
      "associatedSiteId": 109924,
      "outfallName": "UPPER SHOREHAM ROAD SHOREHAM",
      "isImpacting": true,
      "overFlowSiteId": 0,
      "historicSpillsList": [
        {
          "id": 344831777,
          "eventId": 622115,
          "siteUnitNumber": 12587,
          "bathingSite": "SOUTHWICK",
          "eventStart": "2022-08-16T10:12:00",
          "eventStop": "2022-08-16T10:38:00",
          "duration": 26,
          "status": "Genuine",
          "associatedSiteId": 109924,
          "outfallName": "UPPER SHOREHAM ROAD SHOREHAM",
          "isImpacting": true,
          "overFlowSiteId": 108819
        },
        {
          "id": 344831778,
          "eventId": 622115,
          "siteUnitNumber": 12588,
          "bathingSite": "SHOREHAM BEACH",
          "eventStart": "2022-08-16T10:12:00",
          "eventStop": "2022-08-16T10:38:00",
          "duration": 26,
          "status": "Genuine",
          "associatedSiteId": 109924,
          "outfallName": "UPPER SHOREHAM ROAD SHOREHAM",
          "isImpacting": true,
          "overFlowSiteId": 108819,
          "historicSpillsList": []
        }
      ]
    },
    {
      "id": 344838255,
      "eventId": 622137,
      "siteUnitNumber": 12595,
      "bathingSite": "BOGNOR REGIS (ALDWICK)",
      "eventStart": "2022-08-16T09:25:22",
      "eventStop": "2022-08-16T10:35:06",
      "duration": 69,
      "status": "Genuine",
      "associatedSiteId": 109972,
      "outfallName": "BOGNOR MAIN",
      "isImpacting": true,
      "overFlowSiteId": 0,
      "historicSpillsList": [
        {
          "id": 344838255,
          "eventId": 622137,
          "siteUnitNumber": 12595,
          "bathingSite": "BOGNOR REGIS (ALDWICK)",
          "eventStart": "2022-08-16T09:25:22",
          "eventStop": "2022-08-16T10:35:06",
          "duration": 69,
          "status": "Genuine",
          "associatedSiteId": 109972,
          "outfallName": "BOGNOR MAIN",
          "isImpacting": true,
          "overFlowSiteId": 107412
        },
        {
          "id": 344838258,
          "eventId": 622137,
          "siteUnitNumber": 12592,
          "bathingSite": "MIDDLETON-ON-SEA",
          "eventStart": "2022-08-16T09:25:22",
          "eventStop": "2022-08-16T10:35:06",
          "duration": 69,
          "status": "Genuine",
          "associatedSiteId": 109972,
          "outfallName": "BOGNOR MAIN",
          "isImpacting": true,
          "overFlowSiteId": 107412,
          "historicSpillsList": []
        },
        {
          "id": 344838259,
          "eventId": 622137,
          "siteUnitNumber": 12593,
          "bathingSite": "FELPHAM",
          "eventStart": "2022-08-16T09:25:22",
          "eventStop": "2022-08-16T10:35:06",
          "duration": 69,
          "status": "Genuine",
          "associatedSiteId": 109972,
          "outfallName": "BOGNOR MAIN",
          "isImpacting": true,
          "overFlowSiteId": 107412,
          "historicSpillsList": []
        },
        {
          "id": 344838260,
          "eventId": 622137,
          "siteUnitNumber": 12594,
          "bathingSite": "BOGNOR REGIS EAST",
          "eventStart": "2022-08-16T09:25:22",
          "eventStop": "2022-08-16T10:35:06",
          "duration": 69,
          "status": "Genuine",
          "associatedSiteId": 109972,
          "outfallName": "BOGNOR MAIN",
          "isImpacting": true,
          "overFlowSiteId": 107412,
          "historicSpillsList": []
        }
      ]
    },
    {
      "id": 344831775,
      "eventId": 622094,
      "siteUnitNumber": 12587,
      "bathingSite": "SOUTHWICK",
      "eventStart": "2022-08-16T09:42:00",
      "eventStop": "2022-08-16T09:54:00",
      "duration": 12,
      "status": "Genuine",
      "associatedSiteId": 109924,
      "outfallName": "UPPER SHOREHAM ROAD SHOREHAM",
      "isImpacting": true,
      "overFlowSiteId": 0,
      "historicSpillsList": [
        {
          "id": 344831775,
          "eventId": 622094,
          "siteUnitNumber": 12587,
          "bathingSite": "SOUTHWICK",
          "eventStart": "2022-08-16T09:42:00",
          "eventStop": "2022-08-16T09:54:00",
          "duration": 12,
          "status": "Genuine",
          "associatedSiteId": 109924,
          "outfallName": "UPPER SHOREHAM ROAD SHOREHAM",
          "isImpacting": true,
          "overFlowSiteId": 108819
        },
        {
          "id": 344831776,
          "eventId": 622094,
          "siteUnitNumber": 12588,
          "bathingSite": "SHOREHAM BEACH",
          "eventStart": "2022-08-16T09:42:00",
          "eventStop": "2022-08-16T09:54:00",
          "duration": 12,
          "status": "Genuine",
          "associatedSiteId": 109924,
          "outfallName": "UPPER SHOREHAM ROAD SHOREHAM",
          "isImpacting": true,
          "overFlowSiteId": 108819,
          "historicSpillsList": []
        }
      ]
    },
    {
      "id": 344831753,
      "eventId": 622093,
      "siteUnitNumber": 12587,
      "bathingSite": "SOUTHWICK",
      "eventStart": "2022-08-16T09:42:00",
      "eventStop": "2022-08-16T09:52:00",
      "duration": 10,
      "status": "Genuine",
      "associatedSiteId": 109923,
      "outfallName": "THE GREEN SOUTHWICK",
      "isImpacting": true,
      "overFlowSiteId": 0,
      "historicSpillsList": [
        {
          "id": 344831753,
          "eventId": 622093,
          "siteUnitNumber": 12587,
          "bathingSite": "SOUTHWICK",
          "eventStart": "2022-08-16T09:42:00",
          "eventStop": "2022-08-16T09:52:00",
          "duration": 10,
          "status": "Genuine",
          "associatedSiteId": 109923,
          "outfallName": "THE GREEN SOUTHWICK",
          "isImpacting": true,
          "overFlowSiteId": 108356
        },
        {
          "id": 344831754,
          "eventId": 622093,
          "siteUnitNumber": 12588,
          "bathingSite": "SHOREHAM BEACH",
          "eventStart": "2022-08-16T09:42:00",
          "eventStop": "2022-08-16T09:52:00",
          "duration": 10,
          "status": "Genuine",
          "associatedSiteId": 109923,
          "outfallName": "THE GREEN SOUTHWICK",
          "isImpacting": true,
          "overFlowSiteId": 108356,
          "historicSpillsList": []
        }
      ]
    },
    {
      "id": 344834346,
      "eventId": 622063,
      "siteUnitNumber": 12582,
      "bathingSite": "SEAFORD",
      "eventStart": "2022-08-16T08:59:00",
      "eventStop": "2022-08-16T09:45:00",
      "duration": 46,
      "status": "Genuine",
      "associatedSiteId": 109957,
      "outfallName": "PORTOBELLO BRIGHTON NO2",
      "isImpacting": true,
      "overFlowSiteId": 0,
      "historicSpillsList": [
        {
          "id": 344834346,
          "eventId": 622063,
          "siteUnitNumber": 12582,
          "bathingSite": "SEAFORD",
          "eventStart": "2022-08-16T08:59:00",
          "eventStop": "2022-08-16T09:45:00",
          "duration": 46,
          "status": "Genuine",
          "associatedSiteId": 109957,
          "outfallName": "PORTOBELLO BRIGHTON NO2",
          "isImpacting": true,
          "overFlowSiteId": 116036
        },
        {
          "id": 344834347,
          "eventId": 622063,
          "siteUnitNumber": 12583,
          "bathingSite": "SALTDEAN",
          "eventStart": "2022-08-16T08:59:00",
          "eventStop": "2022-08-16T09:45:00",
          "duration": 46,
          "status": "Genuine",
          "associatedSiteId": 109957,
          "outfallName": "PORTOBELLO BRIGHTON NO2",
          "isImpacting": true,
          "overFlowSiteId": 116036,
          "historicSpillsList": []
        }
      ]
    },
    {
      "id": 344837900,
      "eventId": 622108,
      "siteUnitNumber": 12591,
      "bathingSite": "LITTLEHAMPTON",
      "eventStart": "2022-08-16T09:06:23",
      "eventStop": "2022-08-16T09:44:00",
      "duration": 37,
      "status": "Genuine",
      "associatedSiteId": 109968,
      "outfallName": "FORD ROAD ARUNDEL",
      "isImpacting": true,
      "overFlowSiteId": 0,
      "historicSpillsList": [
        {
          "id": 344837900,
          "eventId": 622108,
          "siteUnitNumber": 12591,
          "bathingSite": "LITTLEHAMPTON",
          "eventStart": "2022-08-16T09:06:23",
          "eventStop": "2022-08-16T09:44:00",
          "duration": 37,
          "status": "Genuine",
          "associatedSiteId": 109968,
          "outfallName": "FORD ROAD ARUNDEL",
          "isImpacting": true,
          "overFlowSiteId": 108002
        }
      ]
    },
    {
      "id": 344812665,
      "eventId": 622024,
      "siteUnitNumber": 12544,
      "bathingSite": "SHEERNESS",
      "eventStart": "2022-08-16T04:30:00",
      "eventStop": "2022-08-16T06:00:00",
      "duration": 90,
      "status": "Not Genuine",
      "associatedSiteId": 109614,
      "outfallName": "BRIELLE WAY WESTMINSTER",
      "isImpacting": true,
      "overFlowSiteId": 0,
      "historicSpillsList": []
    },
    {
      "id": 344812666,
      "eventId": 621878,
      "siteUnitNumber": 12544,
      "bathingSite": "SHEERNESS",
      "eventStart": "2022-08-15T14:00:00",
      "eventStop": "2022-08-15T18:30:00",
      "duration": 270,
      "status": "Not Genuine",
      "associatedSiteId": 109614,
      "outfallName": "BRIELLE WAY WESTMINSTER",
      "isImpacting": true,
      "overFlowSiteId": 0,
      "historicSpillsList": []
    },
    {
      "id": 344816715,
      "eventId": 621798,
      "siteUnitNumber": 12616,
      "bathingSite": "GURNARD",
      "eventStart": "2022-08-15T00:17:00",
      "eventStop": "2022-08-15T01:03:00",
      "duration": 46,
      "status": "Not Genuine",
      "associatedSiteId": 109700,
      "outfallName": "MARKET HILL COWES",
      "isImpacting": true,
      "overFlowSiteId": 0,
      "historicSpillsList": []
    },
    {
      "id": 344828740,
      "eventId": 620151,
      "siteUnitNumber": 12568,
      "bathingSite": "SANDGATE",
      "eventStart": "2022-08-06T14:30:00",
      "eventStop": "2022-08-06T16:30:00",
      "duration": 120,
      "status": "Not Genuine",
      "associatedSiteId": 109897,
      "outfallName": "RANGE ROAD HYTHE K LONG",
      "isImpacting": true,
      "overFlowSiteId": 0,
      "historicSpillsList": []
    },
    {
      "id": 344824594,
      "eventId": 619915,
      "siteUnitNumber": 12548,
      "bathingSite": "TANKERTON",
      "eventStart": "2022-08-05T01:20:18",
      "eventStop": "2022-08-05T03:40:46",
      "duration": 140,
      "status": "Genuine",
      "associatedSiteId": 109830,
      "outfallName": "SWALECLIFFE NO1",
      "isImpacting": true,
      "overFlowSiteId": 0,
      "historicSpillsList": [
        {
          "id": 344824594,
          "eventId": 619915,
          "siteUnitNumber": 12548,
          "bathingSite": "TANKERTON",
          "eventStart": "2022-08-05T01:20:18",
          "eventStop": "2022-08-05T03:40:46",
          "duration": 140,
          "status": "Genuine",
          "associatedSiteId": 109830,
          "outfallName": "SWALECLIFFE NO1",
          "isImpacting": true,
          "overFlowSiteId": 115444
        },
        {
          "id": 344824595,
          "eventId": 619915,
          "siteUnitNumber": 12549,
          "bathingSite": "HERNE BAY CENTRAL",
          "eventStart": "2022-08-05T01:20:18",
          "eventStop": "2022-08-05T03:40:46",
          "duration": 140,
          "status": "Genuine",
          "associatedSiteId": 109830,
          "outfallName": "SWALECLIFFE NO1",
          "isImpacting": true,
          "overFlowSiteId": 115444,
          "historicSpillsList": []
        }
      ]
    },
    {
      "id": 344825272,
      "eventId": 643765,
      "siteUnitNumber": 12547,
      "bathingSite": "WEST BEACH WHITSTABLE",
      "eventStart": "2022-08-05T01:17:00",
      "eventStop": "2022-08-05T01:34:00",
      "duration": 17,
      "status": "Genuine",
      "associatedSiteId": 109831,
      "outfallName": "TANKERTON CIRCUS",
      "isImpacting": true,
      "overFlowSiteId": 0,
      "historicSpillsList": [
        {
          "id": 344825272,
          "eventId": 643765,
          "siteUnitNumber": 12547,
          "bathingSite": "WEST BEACH WHITSTABLE",
          "eventStart": "2022-08-05T01:17:00",
          "eventStop": "2022-08-05T01:34:00",
          "duration": 17,
          "status": "Genuine",
          "associatedSiteId": 109831,
          "outfallName": "TANKERTON CIRCUS",
          "isImpacting": true,
          "overFlowSiteId": 103281
        },
        {
          "id": 344825273,
          "eventId": 643765,
          "siteUnitNumber": 12548,
          "bathingSite": "TANKERTON",
          "eventStart": "2022-08-05T01:17:00",
          "eventStop": "2022-08-05T01:34:00",
          "duration": 17,
          "status": "Genuine",
          "associatedSiteId": 109831,
          "outfallName": "TANKERTON CIRCUS",
          "isImpacting": true,
          "overFlowSiteId": 103281,
          "historicSpillsList": []
        }
      ]
    },
    {
      "id": 344826526,
      "eventId": 619792,
      "siteUnitNumber": 12579,
      "bathingSite": "PEVENSEY BAY",
      "eventStart": "2022-08-04T04:09:35",
      "eventStop": "2022-08-04T05:00:00",
      "duration": 50,
      "status": "Not Genuine",
      "associatedSiteId": 109891,
      "outfallName": "MONTAGUE WAY WESTHAM",
      "isImpacting": true,
      "overFlowSiteId": 0,
      "historicSpillsList": []
    },
    {
      "id": 344826531,
      "eventId": 619753,
      "siteUnitNumber": 12579,
      "bathingSite": "PEVENSEY BAY",
      "eventStart": "2022-08-04T00:06:23",
      "eventStop": "2022-08-04T00:30:32",
      "duration": 24,
      "status": "Not Genuine",
      "associatedSiteId": 109891,
      "outfallName": "MONTAGUE WAY WESTHAM",
      "isImpacting": true,
      "overFlowSiteId": 0,
      "historicSpillsList": []
    },
    {
      "id": 344833571,
      "eventId": 619100,
      "siteUnitNumber": 12584,
      "bathingSite": "BRIGHTON KEMPTOWN",
      "eventStart": "2022-08-01T12:34:57",
      "eventStop": "2022-08-01T12:50:37",
      "duration": 15,
      "status": "Not Genuine",
      "associatedSiteId": 109954,
      "outfallName": "BLACK ROCK MARINE DRIVE BRIGHTON",
      "isImpacting": true,
      "overFlowSiteId": 0,
      "historicSpillsList": []
    },
    {
      "id": 344824596,
      "eventId": 618901,
      "siteUnitNumber": 12549,
      "bathingSite": "HERNE BAY CENTRAL",
      "eventStart": "2022-07-31T19:41:47",
      "eventStop": "2022-07-31T22:26:00",
      "duration": 164,
      "status": "Genuine",
      "associatedSiteId": 109830,
      "outfallName": "SWALECLIFFE NO1",
      "isImpacting": true,
      "overFlowSiteId": 0,
      "historicSpillsList": [
        {
          "id": 344824596,
          "eventId": 618901,
          "siteUnitNumber": 12549,
          "bathingSite": "HERNE BAY CENTRAL",
          "eventStart": "2022-07-31T19:41:47",
          "eventStop": "2022-07-31T22:26:00",
          "duration": 164,
          "status": "Genuine",
          "associatedSiteId": 109830,
          "outfallName": "SWALECLIFFE NO1",
          "isImpacting": true,
          "overFlowSiteId": 115444
        },
        {
          "id": 344824599,
          "eventId": 618901,
          "siteUnitNumber": 12548,
          "bathingSite": "TANKERTON",
          "eventStart": "2022-07-31T19:41:47",
          "eventStop": "2022-07-31T22:26:00",
          "duration": 164,
          "status": "Genuine",
          "associatedSiteId": 109830,
          "outfallName": "SWALECLIFFE NO1",
          "isImpacting": true,
          "overFlowSiteId": 115444,
          "historicSpillsList": []
        }
      ]
    }
  ]
}