{
  "currentPage": 315,
  "totalItems": 21025,
  "totalPages": 841,
  "items": [
    {
      "id": 344798389,
      "eventId": 785186,
      "siteUnitNumber": 12622,
      "bathingSite": "WHITECLIFF BAY",
      "eventStart": "2023-03-26T03:51:49",
      "eventStop": "2023-03-26T08:03:36",
      "duration": 251,
      "status": "Genuine",
      "associatedSiteId": 110096,
      "outfallName": "SANDOWN NO1",
      "isImpacting": true,
      "overFlowSiteId": 0,
      "historicSpillsList": [
        {
          "id": 344798389,
          "eventId": 785186,
          "siteUnitNumber": 12622,
          "bathingSite": "WHITECLIFF BAY",
          "eventStart": "2023-03-26T03:51:49",
          "eventStop": "2023-03-26T08:03:36",
          "duration": 251,
          "status": "Genuine",
          "associatedSiteId": 110096,
          "outfallName": "SANDOWN NO1",
          "isImpacting": true,
          "overFlowSiteId": 115453
        },
        {
          "id": 344798390,
          "eventId": 785186,
          "siteUnitNumber": 12623,
          "bathingSite": "YAVERLAND",
          "eventStart": "2023-03-26T03:51:49",
          "eventStop": "2023-03-26T08:03:36",
          "duration": 251,
          "status": "Genuine",
          "associatedSiteId": 110096,
          "outfallName": "SANDOWN NO1",
          "isImpacting": true,
          "overFlowSiteId": 115453,
          "historicSpillsList": []
        },
        {
          "id": 344798383,
          "eventId": 785186,
          "siteUnitNumber": 12624,
          "bathingSite": "SANDOWN",
          "eventStart": "2023-03-26T03:51:49",
          "eventStop": "2023-03-26T08:03:36",
          "duration": 251,
          "status": "Genuine",
          "associatedSiteId": 110096,
          "outfallName": "SANDOWN NO1",
          "isImpacting": true,
          "overFlowSiteId": 115453,
          "historicSpillsList": []
        }
      ]
    },
    {
      "id": 344791548,
      "eventId": 785114,
      "siteUnitNumber": 12582,
      "bathingSite": "SEAFORD",
      "eventStart": "2023-03-26T02:39:29",
      "eventStop": "2023-03-26T07:39:16",
      "duration": 299,
      "status": "Genuine",
      "associatedSiteId": 109957,
      "outfallName": "PORTOBELLO BRIGHTON NO2",
      "isImpacting": true,
      "overFlowSiteId": 0,
      "historicSpillsList": [
        {
          "id": 344791549,
          "eventId": 785114,
          "siteUnitNumber": 12583,
          "bathingSite": "SALTDEAN",
          "eventStart": "2023-03-26T02:39:29",
          "eventStop": "2023-03-26T07:39:16",
          "duration": 299,
          "status": "Genuine",
          "associatedSiteId": 109957,
          "outfallName": "PORTOBELLO BRIGHTON NO2",
          "isImpacting": true,
          "overFlowSiteId": 116036,
          "historicSpillsList": []
        }
      ]
    },
    {
      "id": 344801494,
      "eventId": 785061,
      "siteUnitNumber": 12619,
      "bathingSite": "SEAGROVE",
      "eventStart": "2023-03-26T02:11:00",
      "eventStop": "2023-03-26T07:32:00",
      "duration": 321,
      "status": "Genuine",
      "associatedSiteId": 110097,
      "outfallName": "SANDOWN NO2",
      "isImpacting": true,
      "overFlowSiteId": 0,
      "historicSpillsList": [
        {
          "id": 344801497,
          "eventId": 785061,
          "siteUnitNumber": 12623,
          "bathingSite": "YAVERLAND",
          "eventStart": "2023-03-26T02:11:00",
          "eventStop": "2023-03-26T07:32:00",
          "duration": 321,
          "status": "Genuine",
          "associatedSiteId": 110097,
          "outfallName": "SANDOWN NO2",
          "isImpacting": true,
          "overFlowSiteId": 115454,
          "historicSpillsList": []
        },
        {
          "id": 344801498,
          "eventId": 785061,
          "siteUnitNumber": 12624,
          "bathingSite": "SANDOWN",
          "eventStart": "2023-03-26T02:11:00",
          "eventStop": "2023-03-26T07:32:00",
          "duration": 321,
          "status": "Genuine",
          "associatedSiteId": 110097,
          "outfallName": "SANDOWN NO2",
          "isImpacting": true,
          "overFlowSiteId": 115454,
          "historicSpillsList": []
        },
        {
          "id": 344801499,
          "eventId": 785061,
          "siteUnitNumber": 12625,
          "bathingSite": "SHANKLIN",
          "eventStart": "2023-03-26T02:11:00",
          "eventStop": "2023-03-26T07:32:00",
          "duration": 321,
          "status": "Genuine",
          "associatedSiteId": 110097,
          "outfallName": "SANDOWN NO2",
          "isImpacting": true,
          "overFlowSiteId": 115454,
          "historicSpillsList": []
        }
      ]
    },
    {
      "id": 344805019,
      "eventId": 785336,
      "siteUnitNumber": 12617,
      "bathingSite": "COWES",
      "eventStart": "2023-03-26T06:55:00",
      "eventStop": "2023-03-26T07:30:00",
      "duration": 35,
      "status": "Genuine",
      "associatedSiteId": 110701,
      "outfallName": "TERMINUS ROAD COWES 2",
      "isImpacting": true,
      "overFlowSiteId": 0,
      "historicSpillsList": [
        {
          "id": 344805019,
          "eventId": 785336,
          "siteUnitNumber": 12617,
          "bathingSite": "COWES",
          "eventStart": "2023-03-26T06:55:00",
          "eventStop": "2023-03-26T07:30:00",
          "duration": 35,
          "status": "Genuine",
          "associatedSiteId": 110701,
          "outfallName": "TERMINUS ROAD COWES 2",
          "isImpacting": true,
          "overFlowSiteId": 108563
        },
        {
          "id": 344805020,
          "eventId": 785336,
          "siteUnitNumber": 12616,
          "bathingSite": "GURNARD",
          "eventStart": "2023-03-26T06:55:00",
          "eventStop": "2023-03-26T07:30:00",
          "duration": 35,
          "status": "Genuine",
          "associatedSiteId": 110701,
          "outfallName": "TERMINUS ROAD COWES 2",
          "isImpacting": true,
          "overFlowSiteId": 108563,
          "historicSpillsList": []
        }
      ]
    },
    {
      "id": 344774837,
      "eventId": 785137,
      "siteUnitNumber": 12616,
      "bathingSite": "GURNARD",
      "eventStart": "2023-03-26T03:03:00",
      "eventStop": "2023-03-26T07:12:00",
      "duration": 249,
      "status": "Genuine",
      "associatedSiteId": 109704,
      "outfallName": "EGYPT POINT COWES",
      "isImpacting": true,
      "overFlowSiteId": 0,
      "historicSpillsList": [
        {
          "id": 344774838,
          "eventId": 785137,
          "siteUnitNumber": 12617,
          "bathingSite": "COWES",
          "eventStart": "2023-03-26T03:03:00",
          "eventStop": "2023-03-26T07:12:00",
          "duration": 249,
          "status": "Genuine",
          "associatedSiteId": 109704,
          "outfallName": "EGYPT POINT COWES",
          "isImpacting": true,
          "overFlowSiteId": 116213,
          "historicSpillsList": []
        }
      ]
    },
    {
      "id": 344793021,
      "eventId": 785875,
      "siteUnitNumber": 12594,
      "bathingSite": "BOGNOR REGIS EAST",
      "eventStart": "2023-03-26T05:08:00",
      "eventStop": "2023-03-26T07:08:00",
      "duration": 120,
      "status": "Genuine",
      "associatedSiteId": 109959,
      "outfallName": "WEST PARK BOGNOR REGIS",
      "isImpacting": false,
      "overFlowSiteId": 0,
      "historicSpillsList": []
    },
    {
      "id": 344805023,
      "eventId": 785048,
      "siteUnitNumber": 12616,
      "bathingSite": "GURNARD",
      "eventStart": "2023-03-26T02:36:00",
      "eventStop": "2023-03-26T06:01:00",
      "duration": 205,
      "status": "Genuine",
      "associatedSiteId": 110701,
      "outfallName": "TERMINUS ROAD COWES 2",
      "isImpacting": true,
      "overFlowSiteId": 0,
      "historicSpillsList": [
        {
          "id": 344805023,
          "eventId": 785048,
          "siteUnitNumber": 12616,
          "bathingSite": "GURNARD",
          "eventStart": "2023-03-26T02:36:00",
          "eventStop": "2023-03-26T06:01:00",
          "duration": 205,
          "status": "Genuine",
          "associatedSiteId": 110701,
          "outfallName": "TERMINUS ROAD COWES 2",
          "isImpacting": true,
          "overFlowSiteId": 108563
        },
        {
          "id": 344805024,
          "eventId": 785048,
          "siteUnitNumber": 12617,
          "bathingSite": "COWES",
          "eventStart": "2023-03-26T02:36:00",
          "eventStop": "2023-03-26T06:01:00",
          "duration": 205,
          "status": "Genuine",
          "associatedSiteId": 110701,
          "outfallName": "TERMINUS ROAD COWES 2",
          "isImpacting": true,
          "overFlowSiteId": 108563,
          "historicSpillsList": []
        }
      ]
    },
    {
      "id": 344805011,
      "eventId": 785389,
      "siteUnitNumber": 12616,
      "bathingSite": "GURNARD",
      "eventStart": "2023-03-26T04:59:00",
      "eventStop": "2023-03-26T05:46:00",
      "duration": 47,
      "status": "Genuine",
      "associatedSiteId": 110701,
      "outfallName": "TERMINUS ROAD COWES 2",
      "isImpacting": true,
      "overFlowSiteId": 0,
      "historicSpillsList": [
        {
          "id": 344805011,
          "eventId": 785389,
          "siteUnitNumber": 12616,
          "bathingSite": "GURNARD",
          "eventStart": "2023-03-26T04:59:00",
          "eventStop": "2023-03-26T05:46:00",
          "duration": 47,
          "status": "Genuine",
          "associatedSiteId": 110701,
          "outfallName": "TERMINUS ROAD COWES 2",
          "isImpacting": true,
          "overFlowSiteId": 108562
        },
        {
          "id": 344805012,
          "eventId": 785389,
          "siteUnitNumber": 12617,
          "bathingSite": "COWES",
          "eventStart": "2023-03-26T04:59:00",
          "eventStop": "2023-03-26T05:46:00",
          "duration": 47,
          "status": "Genuine",
          "associatedSiteId": 110701,
          "outfallName": "TERMINUS ROAD COWES 2",
          "isImpacting": true,
          "overFlowSiteId": 108562,
          "historicSpillsList": []
        }
      ]
    },
    {
      "id": 344795184,
      "eventId": 785111,
      "siteUnitNumber": 12591,
      "bathingSite": "LITTLEHAMPTON",
      "eventStart": "2023-03-26T02:00:00",
      "eventStop": "2023-03-26T05:45:00",
      "duration": 225,
      "status": "Genuine",
      "associatedSiteId": 109968,
      "outfallName": "FORD ROAD ARUNDEL",
      "isImpacting": true,
      "overFlowSiteId": 0,
      "historicSpillsList": [
        {
          "id": 344795184,
          "eventId": 785111,
          "siteUnitNumber": 12591,
          "bathingSite": "LITTLEHAMPTON",
          "eventStart": "2023-03-26T02:00:00",
          "eventStop": "2023-03-26T05:45:00",
          "duration": 225,
          "status": "Genuine",
          "associatedSiteId": 109968,
          "outfallName": "FORD ROAD ARUNDEL",
          "isImpacting": true,
          "overFlowSiteId": 108002
        }
      ]
    },
    {
      "id": 344806292,
      "eventId": 785103,
      "siteUnitNumber": 12582,
      "bathingSite": "SEAFORD",
      "eventStart": "2023-03-26T03:53:00",
      "eventStop": "2023-03-26T05:35:00",
      "duration": 102,
      "status": "Genuine",
      "associatedSiteId": 110920,
      "outfallName": "NEWHAVEN",
      "isImpacting": false,
      "overFlowSiteId": 0,
      "historicSpillsList": []
    },
    {
      "id": 344809644,
      "eventId": 785028,
      "siteUnitNumber": 12614,
      "bathingSite": "TOTLAND BAY",
      "eventStart": "2023-03-26T00:36:54",
      "eventStop": "2023-03-26T04:47:00",
      "duration": 250,
      "status": "Genuine",
      "associatedSiteId": 115498,
      "outfallName": "NORTON TRANSFER IOW",
      "isImpacting": true,
      "overFlowSiteId": 0,
      "historicSpillsList": [
        {
          "id": 344809644,
          "eventId": 785028,
          "siteUnitNumber": 12614,
          "bathingSite": "TOTLAND BAY",
          "eventStart": "2023-03-26T00:36:54",
          "eventStop": "2023-03-26T04:47:00",
          "duration": 250,
          "status": "Genuine",
          "associatedSiteId": 115498,
          "outfallName": "NORTON TRANSFER IOW",
          "isImpacting": true,
          "overFlowSiteId": 109524
        },
        {
          "id": 344809645,
          "eventId": 785028,
          "siteUnitNumber": 12615,
          "bathingSite": "COLWELL BAY",
          "eventStart": "2023-03-26T00:36:54",
          "eventStop": "2023-03-26T04:47:00",
          "duration": 250,
          "status": "Genuine",
          "associatedSiteId": 115498,
          "outfallName": "NORTON TRANSFER IOW",
          "isImpacting": true,
          "overFlowSiteId": 109524,
          "historicSpillsList": []
        }
      ]
    },
    {
      "id": 344793039,
      "eventId": 785102,
      "siteUnitNumber": 12594,
      "bathingSite": "BOGNOR REGIS EAST",
      "eventStart": "2023-03-26T02:21:00",
      "eventStop": "2023-03-26T04:31:00",
      "duration": 130,
      "status": "Genuine",
      "associatedSiteId": 109959,
      "outfallName": "WEST PARK BOGNOR REGIS",
      "isImpacting": false,
      "overFlowSiteId": 0,
      "historicSpillsList": []
    },
    {
      "id": 344773777,
      "eventId": 785415,
      "siteUnitNumber": 12616,
      "bathingSite": "GURNARD",
      "eventStart": "2023-03-26T01:11:20",
      "eventStop": "2023-03-26T04:15:00",
      "duration": 183,
      "status": "Genuine",
      "associatedSiteId": 109700,
      "outfallName": "MARKET HILL COWES",
      "isImpacting": false,
      "overFlowSiteId": 0,
      "historicSpillsList": []
    },
    {
      "id": 344805013,
      "eventId": 785374,
      "siteUnitNumber": 12616,
      "bathingSite": "GURNARD",
      "eventStart": "2023-03-26T04:07:00",
      "eventStop": "2023-03-26T04:09:00",
      "duration": 2,
      "status": "Genuine",
      "associatedSiteId": 110701,
      "outfallName": "TERMINUS ROAD COWES 2",
      "isImpacting": true,
      "overFlowSiteId": 0,
      "historicSpillsList": [
        {
          "id": 344805013,
          "eventId": 785374,
          "siteUnitNumber": 12616,
          "bathingSite": "GURNARD",
          "eventStart": "2023-03-26T04:07:00",
          "eventStop": "2023-03-26T04:09:00",
          "duration": 2,
          "status": "Genuine",
          "associatedSiteId": 110701,
          "outfallName": "TERMINUS ROAD COWES 2",
          "isImpacting": true,
          "overFlowSiteId": 108562
        },
        {
          "id": 344805014,
          "eventId": 785374,
          "siteUnitNumber": 12617,
          "bathingSite": "COWES",
          "eventStart": "2023-03-26T04:07:00",
          "eventStop": "2023-03-26T04:09:00",
          "duration": 2,
          "status": "Genuine",
          "associatedSiteId": 110701,
          "outfallName": "TERMINUS ROAD COWES 2",
          "isImpacting": true,
          "overFlowSiteId": 108562,
          "historicSpillsList": []
        }
      ]
    },
    {
      "id": 344772219,
      "eventId": 785464,
      "siteUnitNumber": 12614,
      "bathingSite": "TOTLAND BAY",
      "eventStart": "2023-03-26T02:43:00",
      "eventStop": "2023-03-26T03:55:00",
      "duration": 72,
      "status": "Genuine",
      "associatedSiteId": 109657,
      "outfallName": "THE PROMENADE TOTLAND PIER NO2",
      "isImpacting": false,
      "overFlowSiteId": 0,
      "historicSpillsList": []
    },
    {
      "id": 344805015,
      "eventId": 785373,
      "siteUnitNumber": 12616,
      "bathingSite": "GURNARD",
      "eventStart": "2023-03-26T03:35:00",
      "eventStop": "2023-03-26T03:37:00",
      "duration": 2,
      "status": "Genuine",
      "associatedSiteId": 110701,
      "outfallName": "TERMINUS ROAD COWES 2",
      "isImpacting": true,
      "overFlowSiteId": 0,
      "historicSpillsList": [
        {
          "id": 344805015,
          "eventId": 785373,
          "siteUnitNumber": 12616,
          "bathingSite": "GURNARD",
          "eventStart": "2023-03-26T03:35:00",
          "eventStop": "2023-03-26T03:37:00",
          "duration": 2,
          "status": "Genuine",
          "associatedSiteId": 110701,
          "outfallName": "TERMINUS ROAD COWES 2",
          "isImpacting": true,
          "overFlowSiteId": 108562
        },
        {
          "id": 344805016,
          "eventId": 785373,
          "siteUnitNumber": 12617,
          "bathingSite": "COWES",
          "eventStart": "2023-03-26T03:35:00",
          "eventStop": "2023-03-26T03:37:00",
          "duration": 2,
          "status": "Genuine",
          "associatedSiteId": 110701,
          "outfallName": "TERMINUS ROAD COWES 2",
          "isImpacting": true,
          "overFlowSiteId": 108562,
          "historicSpillsList": []
        }
      ]
    },
    {
      "id": 344805017,
      "eventId": 785372,
      "siteUnitNumber": 12616,
      "bathingSite": "GURNARD",
      "eventStart": "2023-03-26T02:54:00",
      "eventStop": "2023-03-26T03:19:00",
      "duration": 25,
      "status": "Genuine",
      "associatedSiteId": 110701,
      "outfallName": "TERMINUS ROAD COWES 2",
      "isImpacting": true,
      "overFlowSiteId": 0,
      "historicSpillsList": [
        {
          "id": 344805017,
          "eventId": 785372,
          "siteUnitNumber": 12616,
          "bathingSite": "GURNARD",
          "eventStart": "2023-03-26T02:54:00",
          "eventStop": "2023-03-26T03:19:00",
          "duration": 25,
          "status": "Genuine",
          "associatedSiteId": 110701,
          "outfallName": "TERMINUS ROAD COWES 2",
          "isImpacting": true,
          "overFlowSiteId": 108562
        },
        {
          "id": 344805018,
          "eventId": 785372,
          "siteUnitNumber": 12617,
          "bathingSite": "COWES",
          "eventStart": "2023-03-26T02:54:00",
          "eventStop": "2023-03-26T03:19:00",
          "duration": 25,
          "status": "Genuine",
          "associatedSiteId": 110701,
          "outfallName": "TERMINUS ROAD COWES 2",
          "isImpacting": true,
          "overFlowSiteId": 108562,
          "historicSpillsList": []
        }
      ]
    },
    {
      "id": 344775763,
      "eventId": 785156,
      "siteUnitNumber": 12616,
      "bathingSite": "GURNARD",
      "eventStart": "2023-03-26T03:02:26",
      "eventStop": "2023-03-26T03:13:21",
      "duration": 10,
      "status": "Genuine",
      "associatedSiteId": 109706,
      "outfallName": "HIGH STREET COWES",
      "isImpacting": false,
      "overFlowSiteId": 0,
      "historicSpillsList": []
    },
    {
      "id": 344805021,
      "eventId": 785097,
      "siteUnitNumber": 12616,
      "bathingSite": "GURNARD",
      "eventStart": "2023-03-26T01:43:47",
      "eventStop": "2023-03-26T02:30:00",
      "duration": 46,
      "status": "Genuine",
      "associatedSiteId": 110701,
      "outfallName": "TERMINUS ROAD COWES 2",
      "isImpacting": true,
      "overFlowSiteId": 0,
      "historicSpillsList": [
        {
          "id": 344805021,
          "eventId": 785097,
          "siteUnitNumber": 12616,
          "bathingSite": "GURNARD",
          "eventStart": "2023-03-26T01:43:47",
          "eventStop": "2023-03-26T02:30:00",
          "duration": 46,
          "status": "Genuine",
          "associatedSiteId": 110701,
          "outfallName": "TERMINUS ROAD COWES 2",
          "isImpacting": true,
          "overFlowSiteId": 108562
        },
        {
          "id": 344805022,
          "eventId": 785097,
          "siteUnitNumber": 12617,
          "bathingSite": "COWES",
          "eventStart": "2023-03-26T01:43:47",
          "eventStop": "2023-03-26T02:30:00",
          "duration": 46,
          "status": "Genuine",
          "associatedSiteId": 110701,
          "outfallName": "TERMINUS ROAD COWES 2",
          "isImpacting": true,
          "overFlowSiteId": 108562,
          "historicSpillsList": []
        }
      ]
    },
    {
      "id": 344795183,
      "eventId": 785236,
      "siteUnitNumber": 12591,
      "bathingSite": "LITTLEHAMPTON",
      "eventStart": "2023-03-26T01:57:25",
      "eventStop": "2023-03-26T02:00:00",
      "duration": 2,
      "status": "Genuine",
      "associatedSiteId": 109968,
      "outfallName": "FORD ROAD ARUNDEL",
      "isImpacting": false,
      "overFlowSiteId": 0,
      "historicSpillsList": []
    },
    {
      "id": 344787280,
      "eventId": 783089,
      "siteUnitNumber": 12576,
      "bathingSite": "ST LEONARDS",
      "eventStart": "2023-03-23T16:18:08",
      "eventStop": "2023-03-26T01:55:51",
      "duration": 3457,
      "status": "Genuine",
      "associatedSiteId": 109903,
      "outfallName": "BEXHILL & HASTINGS NO2",
      "isImpacting": true,
      "overFlowSiteId": 0,
      "historicSpillsList": [
        {
          "id": 344787280,
          "eventId": 783089,
          "siteUnitNumber": 12576,
          "bathingSite": "ST LEONARDS",
          "eventStart": "2023-03-23T16:18:08",
          "eventStop": "2023-03-26T01:55:51",
          "duration": 3457,
          "status": "Genuine",
          "associatedSiteId": 109903,
          "outfallName": "BEXHILL & HASTINGS NO2",
          "isImpacting": true,
          "overFlowSiteId": 115398
        },
        {
          "id": 344787281,
          "eventId": 783089,
          "siteUnitNumber": 12577,
          "bathingSite": "BEXHILL",
          "eventStart": "2023-03-23T16:18:08",
          "eventStop": "2023-03-26T01:55:51",
          "duration": 3457,
          "status": "Genuine",
          "associatedSiteId": 109903,
          "outfallName": "BEXHILL & HASTINGS NO2",
          "isImpacting": true,
          "overFlowSiteId": 115398,
          "historicSpillsList": []
        }
      ]
    },
    {
      "id": 344797908,
      "eventId": 787185,
      "siteUnitNumber": 12593,
      "bathingSite": "FELPHAM",
      "eventStart": "2023-03-25T23:28:00",
      "eventStop": "2023-03-26T00:32:00",
      "duration": 64,
      "status": "Genuine",
      "associatedSiteId": 110095,
      "outfallName": "LIDSEY",
      "isImpacting": false,
      "overFlowSiteId": 0,
      "historicSpillsList": []
    },
    {
      "id": 344797907,
      "eventId": 787184,
      "siteUnitNumber": 12593,
      "bathingSite": "FELPHAM",
      "eventStart": "2023-03-25T19:37:00",
      "eventStop": "2023-03-25T21:52:00",
      "duration": 135,
      "status": "Genuine",
      "associatedSiteId": 110095,
      "outfallName": "LIDSEY",
      "isImpacting": false,
      "overFlowSiteId": 0,
      "historicSpillsList": []
    },
    {
      "id": 344797906,
      "eventId": 787183,
      "siteUnitNumber": 12593,
      "bathingSite": "FELPHAM",
      "eventStart": "2023-03-25T15:53:00",
      "eventStop": "2023-03-25T17:22:00",
      "duration": 89,
      "status": "Genuine",
      "associatedSiteId": 110095,
      "outfallName": "LIDSEY",
      "isImpacting": false,
      "overFlowSiteId": 0,
      "historicSpillsList": []
    },
    {
      "id": 344778124,
      "eventId": 784753,
      "siteUnitNumber": 12617,
      "bathingSite": "COWES",
      "eventStart": "2023-03-25T12:15:00",
      "eventStop": "2023-03-25T17:00:00",
      "duration": 285,
      "status": "Not Genuine",
      "associatedSiteId": 109777,
      "outfallName": "APPLEY PARK RYDE TRANSFER",
      "isImpacting": false,
      "overFlowSiteId": 0,
      "historicSpillsList": []
    }
  ]
}