{
  "currentPage": 332,
  "totalItems": 21025,
  "totalPages": 841,
  "items": [
    {
      "id": 344787438,
      "eventId": 776625,
      "siteUnitNumber": 12576,
      "bathingSite": "ST LEONARDS",
      "eventStart": "2023-03-12T11:49:17",
      "eventStop": "2023-03-12T12:05:01",
      "duration": 15,
      "status": "Genuine",
      "associatedSiteId": 109903,
      "outfallName": "BEXHILL & HASTINGS NO2",
      "isImpacting": true,
      "overFlowSiteId": 0,
      "historicSpillsList": [
        {
          "id": 344787438,
          "eventId": 776625,
          "siteUnitNumber": 12576,
          "bathingSite": "ST LEONARDS",
          "eventStart": "2023-03-12T11:49:17",
          "eventStop": "2023-03-12T12:05:01",
          "duration": 15,
          "status": "Genuine",
          "associatedSiteId": 109903,
          "outfallName": "BEXHILL & HASTINGS NO2",
          "isImpacting": true,
          "overFlowSiteId": 115398
        },
        {
          "id": 344787439,
          "eventId": 776625,
          "siteUnitNumber": 12577,
          "bathingSite": "BEXHILL",
          "eventStart": "2023-03-12T11:49:17",
          "eventStop": "2023-03-12T12:05:01",
          "duration": 15,
          "status": "Genuine",
          "associatedSiteId": 109903,
          "outfallName": "BEXHILL & HASTINGS NO2",
          "isImpacting": true,
          "overFlowSiteId": 115398,
          "historicSpillsList": []
        }
      ]
    },
    {
      "id": 344794631,
      "eventId": 776727,
      "siteUnitNumber": 12591,
      "bathingSite": "LITTLEHAMPTON",
      "eventStart": "2023-03-12T11:13:00",
      "eventStop": "2023-03-12T11:46:00",
      "duration": 33,
      "status": "Genuine",
      "associatedSiteId": 109965,
      "outfallName": "SEA ROAD LITTLEHAMPTON",
      "isImpacting": false,
      "overFlowSiteId": 0,
      "historicSpillsList": []
    },
    {
      "id": 344781763,
      "eventId": 776604,
      "siteUnitNumber": 12548,
      "bathingSite": "TANKERTON",
      "eventStart": "2023-03-12T10:26:51",
      "eventStop": "2023-03-12T11:32:35",
      "duration": 65,
      "status": "Not Genuine",
      "associatedSiteId": 109830,
      "outfallName": "SWALECLIFFE NO1",
      "isImpacting": false,
      "overFlowSiteId": 0,
      "historicSpillsList": []
    },
    {
      "id": 344787444,
      "eventId": 776618,
      "siteUnitNumber": 12576,
      "bathingSite": "ST LEONARDS",
      "eventStart": "2023-03-12T11:12:56",
      "eventStop": "2023-03-12T11:25:00",
      "duration": 12,
      "status": "Genuine",
      "associatedSiteId": 109903,
      "outfallName": "BEXHILL & HASTINGS NO2",
      "isImpacting": true,
      "overFlowSiteId": 0,
      "historicSpillsList": [
        {
          "id": 344787444,
          "eventId": 776618,
          "siteUnitNumber": 12576,
          "bathingSite": "ST LEONARDS",
          "eventStart": "2023-03-12T11:12:56",
          "eventStop": "2023-03-12T11:25:00",
          "duration": 12,
          "status": "Genuine",
          "associatedSiteId": 109903,
          "outfallName": "BEXHILL & HASTINGS NO2",
          "isImpacting": true,
          "overFlowSiteId": 115398
        },
        {
          "id": 344787445,
          "eventId": 776618,
          "siteUnitNumber": 12577,
          "bathingSite": "BEXHILL",
          "eventStart": "2023-03-12T11:12:56",
          "eventStop": "2023-03-12T11:25:00",
          "duration": 12,
          "status": "Genuine",
          "associatedSiteId": 109903,
          "outfallName": "BEXHILL & HASTINGS NO2",
          "isImpacting": true,
          "overFlowSiteId": 115398,
          "historicSpillsList": []
        }
      ]
    },
    {
      "id": 344787442,
      "eventId": 776609,
      "siteUnitNumber": 12576,
      "bathingSite": "ST LEONARDS",
      "eventStart": "2023-03-12T10:45:19",
      "eventStop": "2023-03-12T10:55:44",
      "duration": 10,
      "status": "Genuine",
      "associatedSiteId": 109903,
      "outfallName": "BEXHILL & HASTINGS NO2",
      "isImpacting": true,
      "overFlowSiteId": 0,
      "historicSpillsList": [
        {
          "id": 344787442,
          "eventId": 776609,
          "siteUnitNumber": 12576,
          "bathingSite": "ST LEONARDS",
          "eventStart": "2023-03-12T10:45:19",
          "eventStop": "2023-03-12T10:55:44",
          "duration": 10,
          "status": "Genuine",
          "associatedSiteId": 109903,
          "outfallName": "BEXHILL & HASTINGS NO2",
          "isImpacting": true,
          "overFlowSiteId": 115398
        },
        {
          "id": 344787443,
          "eventId": 776609,
          "siteUnitNumber": 12577,
          "bathingSite": "BEXHILL",
          "eventStart": "2023-03-12T10:45:19",
          "eventStop": "2023-03-12T10:55:44",
          "duration": 10,
          "status": "Genuine",
          "associatedSiteId": 109903,
          "outfallName": "BEXHILL & HASTINGS NO2",
          "isImpacting": true,
          "overFlowSiteId": 115398,
          "historicSpillsList": []
        }
      ]
    },
    {
      "id": 344787446,
      "eventId": 776595,
      "siteUnitNumber": 12576,
      "bathingSite": "ST LEONARDS",
      "eventStart": "2023-03-12T10:27:00",
      "eventStop": "2023-03-12T10:32:00",
      "duration": 5,
      "status": "Genuine",
      "associatedSiteId": 109903,
      "outfallName": "BEXHILL & HASTINGS NO2",
      "isImpacting": true,
      "overFlowSiteId": 0,
      "historicSpillsList": [
        {
          "id": 344787446,
          "eventId": 776595,
          "siteUnitNumber": 12576,
          "bathingSite": "ST LEONARDS",
          "eventStart": "2023-03-12T10:27:00",
          "eventStop": "2023-03-12T10:32:00",
          "duration": 5,
          "status": "Genuine",
          "associatedSiteId": 109903,
          "outfallName": "BEXHILL & HASTINGS NO2",
          "isImpacting": true,
          "overFlowSiteId": 115398
        },
        {
          "id": 344787447,
          "eventId": 776595,
          "siteUnitNumber": 12577,
          "bathingSite": "BEXHILL",
          "eventStart": "2023-03-12T10:27:00",
          "eventStop": "2023-03-12T10:32:00",
          "duration": 5,
          "status": "Genuine",
          "associatedSiteId": 109903,
          "outfallName": "BEXHILL & HASTINGS NO2",
          "isImpacting": true,
          "overFlowSiteId": 115398,
          "historicSpillsList": []
        }
      ]
    },
    {
      "id": 344787450,
      "eventId": 776564,
      "siteUnitNumber": 12576,
      "bathingSite": "ST LEONARDS",
      "eventStart": "2023-03-12T09:47:59",
      "eventStop": "2023-03-12T09:58:34",
      "duration": 10,
      "status": "Genuine",
      "associatedSiteId": 109903,
      "outfallName": "BEXHILL & HASTINGS NO2",
      "isImpacting": true,
      "overFlowSiteId": 0,
      "historicSpillsList": [
        {
          "id": 344787450,
          "eventId": 776564,
          "siteUnitNumber": 12576,
          "bathingSite": "ST LEONARDS",
          "eventStart": "2023-03-12T09:47:59",
          "eventStop": "2023-03-12T09:58:34",
          "duration": 10,
          "status": "Genuine",
          "associatedSiteId": 109903,
          "outfallName": "BEXHILL & HASTINGS NO2",
          "isImpacting": true,
          "overFlowSiteId": 115398
        },
        {
          "id": 344787451,
          "eventId": 776564,
          "siteUnitNumber": 12577,
          "bathingSite": "BEXHILL",
          "eventStart": "2023-03-12T09:47:59",
          "eventStop": "2023-03-12T09:58:34",
          "duration": 10,
          "status": "Genuine",
          "associatedSiteId": 109903,
          "outfallName": "BEXHILL & HASTINGS NO2",
          "isImpacting": true,
          "overFlowSiteId": 115398,
          "historicSpillsList": []
        }
      ]
    },
    {
      "id": 344787448,
      "eventId": 776553,
      "siteUnitNumber": 12576,
      "bathingSite": "ST LEONARDS",
      "eventStart": "2023-03-12T09:19:27",
      "eventStop": "2023-03-12T09:34:00",
      "duration": 14,
      "status": "Genuine",
      "associatedSiteId": 109903,
      "outfallName": "BEXHILL & HASTINGS NO2",
      "isImpacting": true,
      "overFlowSiteId": 0,
      "historicSpillsList": [
        {
          "id": 344787448,
          "eventId": 776553,
          "siteUnitNumber": 12576,
          "bathingSite": "ST LEONARDS",
          "eventStart": "2023-03-12T09:19:27",
          "eventStop": "2023-03-12T09:34:00",
          "duration": 14,
          "status": "Genuine",
          "associatedSiteId": 109903,
          "outfallName": "BEXHILL & HASTINGS NO2",
          "isImpacting": true,
          "overFlowSiteId": 115398
        },
        {
          "id": 344787449,
          "eventId": 776553,
          "siteUnitNumber": 12577,
          "bathingSite": "BEXHILL",
          "eventStart": "2023-03-12T09:19:27",
          "eventStop": "2023-03-12T09:34:00",
          "duration": 14,
          "status": "Genuine",
          "associatedSiteId": 109903,
          "outfallName": "BEXHILL & HASTINGS NO2",
          "isImpacting": true,
          "overFlowSiteId": 115398,
          "historicSpillsList": []
        }
      ]
    },
    {
      "id": 344787452,
      "eventId": 776534,
      "siteUnitNumber": 12576,
      "bathingSite": "ST LEONARDS",
      "eventStart": "2023-03-12T08:45:45",
      "eventStop": "2023-03-12T08:58:28",
      "duration": 12,
      "status": "Genuine",
      "associatedSiteId": 109903,
      "outfallName": "BEXHILL & HASTINGS NO2",
      "isImpacting": true,
      "overFlowSiteId": 0,
      "historicSpillsList": [
        {
          "id": 344787452,
          "eventId": 776534,
          "siteUnitNumber": 12576,
          "bathingSite": "ST LEONARDS",
          "eventStart": "2023-03-12T08:45:45",
          "eventStop": "2023-03-12T08:58:28",
          "duration": 12,
          "status": "Genuine",
          "associatedSiteId": 109903,
          "outfallName": "BEXHILL & HASTINGS NO2",
          "isImpacting": true,
          "overFlowSiteId": 115398
        },
        {
          "id": 344787453,
          "eventId": 776534,
          "siteUnitNumber": 12577,
          "bathingSite": "BEXHILL",
          "eventStart": "2023-03-12T08:45:45",
          "eventStop": "2023-03-12T08:58:28",
          "duration": 12,
          "status": "Genuine",
          "associatedSiteId": 109903,
          "outfallName": "BEXHILL & HASTINGS NO2",
          "isImpacting": true,
          "overFlowSiteId": 115398,
          "historicSpillsList": []
        }
      ]
    },
    {
      "id": 344787456,
      "eventId": 776526,
      "siteUnitNumber": 12576,
      "bathingSite": "ST LEONARDS",
      "eventStart": "2023-03-12T08:15:30",
      "eventStop": "2023-03-12T08:24:45",
      "duration": 9,
      "status": "Genuine",
      "associatedSiteId": 109903,
      "outfallName": "BEXHILL & HASTINGS NO2",
      "isImpacting": true,
      "overFlowSiteId": 0,
      "historicSpillsList": [
        {
          "id": 344787456,
          "eventId": 776526,
          "siteUnitNumber": 12576,
          "bathingSite": "ST LEONARDS",
          "eventStart": "2023-03-12T08:15:30",
          "eventStop": "2023-03-12T08:24:45",
          "duration": 9,
          "status": "Genuine",
          "associatedSiteId": 109903,
          "outfallName": "BEXHILL & HASTINGS NO2",
          "isImpacting": true,
          "overFlowSiteId": 115398
        },
        {
          "id": 344787457,
          "eventId": 776526,
          "siteUnitNumber": 12577,
          "bathingSite": "BEXHILL",
          "eventStart": "2023-03-12T08:15:30",
          "eventStop": "2023-03-12T08:24:45",
          "duration": 9,
          "status": "Genuine",
          "associatedSiteId": 109903,
          "outfallName": "BEXHILL & HASTINGS NO2",
          "isImpacting": true,
          "overFlowSiteId": 115398,
          "historicSpillsList": []
        }
      ]
    },
    {
      "id": 344787454,
      "eventId": 776494,
      "siteUnitNumber": 12576,
      "bathingSite": "ST LEONARDS",
      "eventStart": "2023-03-12T04:53:46",
      "eventStop": "2023-03-12T08:00:00",
      "duration": 186,
      "status": "Genuine",
      "associatedSiteId": 109903,
      "outfallName": "BEXHILL & HASTINGS NO2",
      "isImpacting": true,
      "overFlowSiteId": 0,
      "historicSpillsList": [
        {
          "id": 344787454,
          "eventId": 776494,
          "siteUnitNumber": 12576,
          "bathingSite": "ST LEONARDS",
          "eventStart": "2023-03-12T04:53:46",
          "eventStop": "2023-03-12T08:00:00",
          "duration": 186,
          "status": "Genuine",
          "associatedSiteId": 109903,
          "outfallName": "BEXHILL & HASTINGS NO2",
          "isImpacting": true,
          "overFlowSiteId": 115398
        },
        {
          "id": 344787455,
          "eventId": 776494,
          "siteUnitNumber": 12577,
          "bathingSite": "BEXHILL",
          "eventStart": "2023-03-12T04:53:46",
          "eventStop": "2023-03-12T08:00:00",
          "duration": 186,
          "status": "Genuine",
          "associatedSiteId": 109903,
          "outfallName": "BEXHILL & HASTINGS NO2",
          "isImpacting": true,
          "overFlowSiteId": 115398,
          "historicSpillsList": []
        }
      ]
    },
    {
      "id": 344787460,
      "eventId": 776471,
      "siteUnitNumber": 12576,
      "bathingSite": "ST LEONARDS",
      "eventStart": "2023-03-12T04:12:51",
      "eventStop": "2023-03-12T04:38:31",
      "duration": 25,
      "status": "Genuine",
      "associatedSiteId": 109903,
      "outfallName": "BEXHILL & HASTINGS NO2",
      "isImpacting": true,
      "overFlowSiteId": 0,
      "historicSpillsList": [
        {
          "id": 344787460,
          "eventId": 776471,
          "siteUnitNumber": 12576,
          "bathingSite": "ST LEONARDS",
          "eventStart": "2023-03-12T04:12:51",
          "eventStop": "2023-03-12T04:38:31",
          "duration": 25,
          "status": "Genuine",
          "associatedSiteId": 109903,
          "outfallName": "BEXHILL & HASTINGS NO2",
          "isImpacting": true,
          "overFlowSiteId": 115398
        },
        {
          "id": 344787461,
          "eventId": 776471,
          "siteUnitNumber": 12577,
          "bathingSite": "BEXHILL",
          "eventStart": "2023-03-12T04:12:51",
          "eventStop": "2023-03-12T04:38:31",
          "duration": 25,
          "status": "Genuine",
          "associatedSiteId": 109903,
          "outfallName": "BEXHILL & HASTINGS NO2",
          "isImpacting": true,
          "overFlowSiteId": 115398,
          "historicSpillsList": []
        }
      ]
    },
    {
      "id": 344787458,
      "eventId": 776451,
      "siteUnitNumber": 12576,
      "bathingSite": "ST LEONARDS",
      "eventStart": "2023-03-12T02:36:54",
      "eventStop": "2023-03-12T03:18:00",
      "duration": 41,
      "status": "Genuine",
      "associatedSiteId": 109903,
      "outfallName": "BEXHILL & HASTINGS NO2",
      "isImpacting": true,
      "overFlowSiteId": 0,
      "historicSpillsList": [
        {
          "id": 344787458,
          "eventId": 776451,
          "siteUnitNumber": 12576,
          "bathingSite": "ST LEONARDS",
          "eventStart": "2023-03-12T02:36:54",
          "eventStop": "2023-03-12T03:18:00",
          "duration": 41,
          "status": "Genuine",
          "associatedSiteId": 109903,
          "outfallName": "BEXHILL & HASTINGS NO2",
          "isImpacting": true,
          "overFlowSiteId": 115398
        },
        {
          "id": 344787459,
          "eventId": 776451,
          "siteUnitNumber": 12577,
          "bathingSite": "BEXHILL",
          "eventStart": "2023-03-12T02:36:54",
          "eventStop": "2023-03-12T03:18:00",
          "duration": 41,
          "status": "Genuine",
          "associatedSiteId": 109903,
          "outfallName": "BEXHILL & HASTINGS NO2",
          "isImpacting": true,
          "overFlowSiteId": 115398,
          "historicSpillsList": []
        }
      ]
    },
    {
      "id": 344787464,
      "eventId": 776422,
      "siteUnitNumber": 12576,
      "bathingSite": "ST LEONARDS",
      "eventStart": "2023-03-12T01:57:00",
      "eventStop": "2023-03-12T02:15:00",
      "duration": 18,
      "status": "Genuine",
      "associatedSiteId": 109903,
      "outfallName": "BEXHILL & HASTINGS NO2",
      "isImpacting": true,
      "overFlowSiteId": 0,
      "historicSpillsList": [
        {
          "id": 344787464,
          "eventId": 776422,
          "siteUnitNumber": 12576,
          "bathingSite": "ST LEONARDS",
          "eventStart": "2023-03-12T01:57:00",
          "eventStop": "2023-03-12T02:15:00",
          "duration": 18,
          "status": "Genuine",
          "associatedSiteId": 109903,
          "outfallName": "BEXHILL & HASTINGS NO2",
          "isImpacting": true,
          "overFlowSiteId": 115398
        },
        {
          "id": 344787465,
          "eventId": 776422,
          "siteUnitNumber": 12577,
          "bathingSite": "BEXHILL",
          "eventStart": "2023-03-12T01:57:00",
          "eventStop": "2023-03-12T02:15:00",
          "duration": 18,
          "status": "Genuine",
          "associatedSiteId": 109903,
          "outfallName": "BEXHILL & HASTINGS NO2",
          "isImpacting": true,
          "overFlowSiteId": 115398,
          "historicSpillsList": []
        }
      ]
    },
    {
      "id": 344787462,
      "eventId": 776421,
      "siteUnitNumber": 12576,
      "bathingSite": "ST LEONARDS",
      "eventStart": "2023-03-12T01:32:01",
      "eventStop": "2023-03-12T01:44:01",
      "duration": 12,
      "status": "Genuine",
      "associatedSiteId": 109903,
      "outfallName": "BEXHILL & HASTINGS NO2",
      "isImpacting": true,
      "overFlowSiteId": 0,
      "historicSpillsList": [
        {
          "id": 344787462,
          "eventId": 776421,
          "siteUnitNumber": 12576,
          "bathingSite": "ST LEONARDS",
          "eventStart": "2023-03-12T01:32:01",
          "eventStop": "2023-03-12T01:44:01",
          "duration": 12,
          "status": "Genuine",
          "associatedSiteId": 109903,
          "outfallName": "BEXHILL & HASTINGS NO2",
          "isImpacting": true,
          "overFlowSiteId": 115398
        },
        {
          "id": 344787463,
          "eventId": 776421,
          "siteUnitNumber": 12577,
          "bathingSite": "BEXHILL",
          "eventStart": "2023-03-12T01:32:01",
          "eventStop": "2023-03-12T01:44:01",
          "duration": 12,
          "status": "Genuine",
          "associatedSiteId": 109903,
          "outfallName": "BEXHILL & HASTINGS NO2",
          "isImpacting": true,
          "overFlowSiteId": 115398,
          "historicSpillsList": []
        }
      ]
    },
    {
      "id": 344787466,
      "eventId": 776276,
      "siteUnitNumber": 12576,
      "bathingSite": "ST LEONARDS",
      "eventStart": "2023-03-11T18:48:19",
      "eventStop": "2023-03-12T01:15:00",
      "duration": 386,
      "status": "Genuine",
      "associatedSiteId": 109903,
      "outfallName": "BEXHILL & HASTINGS NO2",
      "isImpacting": true,
      "overFlowSiteId": 0,
      "historicSpillsList": [
        {
          "id": 344787466,
          "eventId": 776276,
          "siteUnitNumber": 12576,
          "bathingSite": "ST LEONARDS",
          "eventStart": "2023-03-11T18:48:19",
          "eventStop": "2023-03-12T01:15:00",
          "duration": 386,
          "status": "Genuine",
          "associatedSiteId": 109903,
          "outfallName": "BEXHILL & HASTINGS NO2",
          "isImpacting": true,
          "overFlowSiteId": 115398
        },
        {
          "id": 344787467,
          "eventId": 776276,
          "siteUnitNumber": 12577,
          "bathingSite": "BEXHILL",
          "eventStart": "2023-03-11T18:48:19",
          "eventStop": "2023-03-12T01:15:00",
          "duration": 386,
          "status": "Genuine",
          "associatedSiteId": 109903,
          "outfallName": "BEXHILL & HASTINGS NO2",
          "isImpacting": true,
          "overFlowSiteId": 115398,
          "historicSpillsList": []
        }
      ]
    },
    {
      "id": 344794635,
      "eventId": 776710,
      "siteUnitNumber": 12591,
      "bathingSite": "LITTLEHAMPTON",
      "eventStart": "2023-03-11T20:44:00",
      "eventStop": "2023-03-11T21:15:00",
      "duration": 31,
      "status": "Genuine",
      "associatedSiteId": 109965,
      "outfallName": "SEA ROAD LITTLEHAMPTON",
      "isImpacting": false,
      "overFlowSiteId": 0,
      "historicSpillsList": []
    },
    {
      "id": 344778268,
      "eventId": 777288,
      "siteUnitNumber": 12617,
      "bathingSite": "COWES",
      "eventStart": "2023-03-11T21:11:00",
      "eventStop": "2023-03-11T21:14:00",
      "duration": 3,
      "status": "Genuine",
      "associatedSiteId": 109777,
      "outfallName": "APPLEY PARK RYDE TRANSFER",
      "isImpacting": false,
      "overFlowSiteId": 0,
      "historicSpillsList": []
    },
    {
      "id": 344781761,
      "eventId": 776299,
      "siteUnitNumber": 12548,
      "bathingSite": "TANKERTON",
      "eventStart": "2023-03-11T19:29:28",
      "eventStop": "2023-03-11T20:30:22",
      "duration": 60,
      "status": "Genuine",
      "associatedSiteId": 109830,
      "outfallName": "SWALECLIFFE NO1",
      "isImpacting": false,
      "overFlowSiteId": 0,
      "historicSpillsList": []
    },
    {
      "id": 344778272,
      "eventId": 776338,
      "siteUnitNumber": 12617,
      "bathingSite": "COWES",
      "eventStart": "2023-03-11T19:49:00",
      "eventStop": "2023-03-11T19:53:00",
      "duration": 4,
      "status": "Genuine",
      "associatedSiteId": 109777,
      "outfallName": "APPLEY PARK RYDE TRANSFER",
      "isImpacting": false,
      "overFlowSiteId": 0,
      "historicSpillsList": []
    },
    {
      "id": 344778274,
      "eventId": 776337,
      "siteUnitNumber": 12617,
      "bathingSite": "COWES",
      "eventStart": "2023-03-11T18:56:00",
      "eventStop": "2023-03-11T19:01:00",
      "duration": 5,
      "status": "Genuine",
      "associatedSiteId": 109777,
      "outfallName": "APPLEY PARK RYDE TRANSFER",
      "isImpacting": false,
      "overFlowSiteId": 0,
      "historicSpillsList": []
    },
    {
      "id": 344778276,
      "eventId": 776336,
      "siteUnitNumber": 12618,
      "bathingSite": "RYDE",
      "eventStart": "2023-03-11T18:29:00",
      "eventStop": "2023-03-11T18:33:00",
      "duration": 4,
      "status": "Genuine",
      "associatedSiteId": 109777,
      "outfallName": "APPLEY PARK RYDE TRANSFER",
      "isImpacting": false,
      "overFlowSiteId": 0,
      "historicSpillsList": []
    },
    {
      "id": 344787470,
      "eventId": 776263,
      "siteUnitNumber": 12576,
      "bathingSite": "ST LEONARDS",
      "eventStart": "2023-03-11T18:13:08",
      "eventStop": "2023-03-11T18:28:05",
      "duration": 14,
      "status": "Genuine",
      "associatedSiteId": 109903,
      "outfallName": "BEXHILL & HASTINGS NO2",
      "isImpacting": true,
      "overFlowSiteId": 0,
      "historicSpillsList": [
        {
          "id": 344787470,
          "eventId": 776263,
          "siteUnitNumber": 12576,
          "bathingSite": "ST LEONARDS",
          "eventStart": "2023-03-11T18:13:08",
          "eventStop": "2023-03-11T18:28:05",
          "duration": 14,
          "status": "Genuine",
          "associatedSiteId": 109903,
          "outfallName": "BEXHILL & HASTINGS NO2",
          "isImpacting": true,
          "overFlowSiteId": 115398
        },
        {
          "id": 344787471,
          "eventId": 776263,
          "siteUnitNumber": 12577,
          "bathingSite": "BEXHILL",
          "eventStart": "2023-03-11T18:13:08",
          "eventStop": "2023-03-11T18:28:05",
          "duration": 14,
          "status": "Genuine",
          "associatedSiteId": 109903,
          "outfallName": "BEXHILL & HASTINGS NO2",
          "isImpacting": true,
          "overFlowSiteId": 115398,
          "historicSpillsList": []
        }
      ]
    },
    {
      "id": 344787468,
      "eventId": 776234,
      "siteUnitNumber": 12576,
      "bathingSite": "ST LEONARDS",
      "eventStart": "2023-03-11T17:40:00",
      "eventStop": "2023-03-11T17:46:00",
      "duration": 6,
      "status": "Genuine",
      "associatedSiteId": 109903,
      "outfallName": "BEXHILL & HASTINGS NO2",
      "isImpacting": true,
      "overFlowSiteId": 0,
      "historicSpillsList": [
        {
          "id": 344787468,
          "eventId": 776234,
          "siteUnitNumber": 12576,
          "bathingSite": "ST LEONARDS",
          "eventStart": "2023-03-11T17:40:00",
          "eventStop": "2023-03-11T17:46:00",
          "duration": 6,
          "status": "Genuine",
          "associatedSiteId": 109903,
          "outfallName": "BEXHILL & HASTINGS NO2",
          "isImpacting": true,
          "overFlowSiteId": 115398
        },
        {
          "id": 344787469,
          "eventId": 776234,
          "siteUnitNumber": 12577,
          "bathingSite": "BEXHILL",
          "eventStart": "2023-03-11T17:40:00",
          "eventStop": "2023-03-11T17:46:00",
          "duration": 6,
          "status": "Genuine",
          "associatedSiteId": 109903,
          "outfallName": "BEXHILL & HASTINGS NO2",
          "isImpacting": true,
          "overFlowSiteId": 115398,
          "historicSpillsList": []
        }
      ]
    },
    {
      "id": 344787474,
      "eventId": 776229,
      "siteUnitNumber": 12576,
      "bathingSite": "ST LEONARDS",
      "eventStart": "2023-03-11T17:10:00",
      "eventStop": "2023-03-11T17:20:00",
      "duration": 10,
      "status": "Genuine",
      "associatedSiteId": 109903,
      "outfallName": "BEXHILL & HASTINGS NO2",
      "isImpacting": true,
      "overFlowSiteId": 0,
      "historicSpillsList": [
        {
          "id": 344787474,
          "eventId": 776229,
          "siteUnitNumber": 12576,
          "bathingSite": "ST LEONARDS",
          "eventStart": "2023-03-11T17:10:00",
          "eventStop": "2023-03-11T17:20:00",
          "duration": 10,
          "status": "Genuine",
          "associatedSiteId": 109903,
          "outfallName": "BEXHILL & HASTINGS NO2",
          "isImpacting": true,
          "overFlowSiteId": 115398
        },
        {
          "id": 344787475,
          "eventId": 776229,
          "siteUnitNumber": 12577,
          "bathingSite": "BEXHILL",
          "eventStart": "2023-03-11T17:10:00",
          "eventStop": "2023-03-11T17:20:00",
          "duration": 10,
          "status": "Genuine",
          "associatedSiteId": 109903,
          "outfallName": "BEXHILL & HASTINGS NO2",
          "isImpacting": true,
          "overFlowSiteId": 115398,
          "historicSpillsList": []
        }
      ]
    }
  ]
}