{
  "currentPage": 839,
  "totalItems": 21025,
  "totalPages": 841,
  "items": [
    {
      "id": 344855292,
      "eventId": 305888,
      "siteUnitNumber": 12544,
      "bathingSite": "SHEERNESS",
      "eventStart": "2021-01-06T02:00:00",
      "eventStop": "2021-01-06T09:21:00",
      "duration": 441,
      "status": "Genuine",
      "associatedSiteId": 109616,
      "outfallName": "SOUTH STREET QUEENBOROUGH",
      "isImpacting": true,
      "overFlowSiteId": 0,
      "historicSpillsList": [
        {
          "id": 344855292,
          "eventId": 305888,
          "siteUnitNumber": 12544,
          "bathingSite": "SHEERNESS",
          "eventStart": "2021-01-06T02:00:00",
          "eventStop": "2021-01-06T09:21:00",
          "duration": 441,
          "status": "Genuine",
          "associatedSiteId": 109616,
          "outfallName": "SOUTH STREET QUEENBOROUGH",
          "isImpacting": true,
          "overFlowSiteId": 108732
        }
      ]
    },
    {
      "id": 344868017,
      "eventId": 305448,
      "siteUnitNumber": 12547,
      "bathingSite": "WEST BEACH WHITSTABLE",
      "eventStart": "2021-01-06T07:33:18",
      "eventStop": "2021-01-06T07:58:25",
      "duration": 25,
      "status": "Genuine",
      "associatedSiteId": 109831,
      "outfallName": "TANKERTON CIRCUS",
      "isImpacting": true,
      "overFlowSiteId": 0,
      "historicSpillsList": [
        {
          "id": 344868017,
          "eventId": 305448,
          "siteUnitNumber": 12547,
          "bathingSite": "WEST BEACH WHITSTABLE",
          "eventStart": "2021-01-06T07:33:18",
          "eventStop": "2021-01-06T07:58:25",
          "duration": 25,
          "status": "Genuine",
          "associatedSiteId": 109831,
          "outfallName": "TANKERTON CIRCUS",
          "isImpacting": true,
          "overFlowSiteId": 102252
        },
        {
          "id": 344868018,
          "eventId": 305448,
          "siteUnitNumber": 12548,
          "bathingSite": "TANKERTON",
          "eventStart": "2021-01-06T07:33:18",
          "eventStop": "2021-01-06T07:58:25",
          "duration": 25,
          "status": "Genuine",
          "associatedSiteId": 109831,
          "outfallName": "TANKERTON CIRCUS",
          "isImpacting": true,
          "overFlowSiteId": 102252,
          "historicSpillsList": []
        }
      ]
    },
    {
      "id": 344871754,
      "eventId": 365525,
      "siteUnitNumber": 12568,
      "bathingSite": "SANDGATE",
      "eventStart": "2021-01-06T05:23:00",
      "eventStop": "2021-01-06T06:36:00",
      "duration": 73,
      "status": "Genuine",
      "associatedSiteId": 109897,
      "outfallName": "RANGE ROAD HYTHE K LONG",
      "isImpacting": true,
      "overFlowSiteId": 0,
      "historicSpillsList": [
        {
          "id": 344871754,
          "eventId": 365525,
          "siteUnitNumber": 12568,
          "bathingSite": "SANDGATE",
          "eventStart": "2021-01-06T05:23:00",
          "eventStop": "2021-01-06T06:36:00",
          "duration": 73,
          "status": "Genuine",
          "associatedSiteId": 109897,
          "outfallName": "RANGE ROAD HYTHE K LONG",
          "isImpacting": true,
          "overFlowSiteId": 116048
        },
        {
          "id": 344871755,
          "eventId": 365525,
          "siteUnitNumber": 12569,
          "bathingSite": "HYTHE",
          "eventStart": "2021-01-06T05:23:00",
          "eventStop": "2021-01-06T06:36:00",
          "duration": 73,
          "status": "Genuine",
          "associatedSiteId": 109897,
          "outfallName": "RANGE ROAD HYTHE K LONG",
          "isImpacting": true,
          "overFlowSiteId": 116048,
          "historicSpillsList": []
        }
      ]
    },
    {
      "id": 344855542,
      "eventId": 305404,
      "siteUnitNumber": 12550,
      "bathingSite": "MINSTER LEAS",
      "eventStart": "2021-01-06T05:10:38",
      "eventStop": "2021-01-06T06:32:19",
      "duration": 81,
      "status": "Genuine",
      "associatedSiteId": 109620,
      "outfallName": "WESTCLIFFE DRIVE MINSTER IOS",
      "isImpacting": true,
      "overFlowSiteId": 0,
      "historicSpillsList": [
        {
          "id": 344855542,
          "eventId": 305404,
          "siteUnitNumber": 12550,
          "bathingSite": "MINSTER LEAS",
          "eventStart": "2021-01-06T05:10:38",
          "eventStop": "2021-01-06T06:32:19",
          "duration": 81,
          "status": "Genuine",
          "associatedSiteId": 109620,
          "outfallName": "WESTCLIFFE DRIVE MINSTER IOS",
          "isImpacting": true,
          "overFlowSiteId": 108755
        }
      ]
    },
    {
      "id": 344882168,
      "eventId": 305405,
      "siteUnitNumber": 12546,
      "bathingSite": "LEYSDOWN",
      "eventStart": "2021-01-06T05:57:00",
      "eventStop": "2021-01-06T06:32:00",
      "duration": 35,
      "status": "Genuine",
      "associatedSiteId": 109998,
      "outfallName": "MUSTARDS ROAD LEYSDOWN ON SEA",
      "isImpacting": true,
      "overFlowSiteId": 0,
      "historicSpillsList": [
        {
          "id": 344882168,
          "eventId": 305405,
          "siteUnitNumber": 12546,
          "bathingSite": "LEYSDOWN",
          "eventStart": "2021-01-06T05:57:00",
          "eventStop": "2021-01-06T06:32:00",
          "duration": 35,
          "status": "Genuine",
          "associatedSiteId": 109998,
          "outfallName": "MUSTARDS ROAD LEYSDOWN ON SEA",
          "isImpacting": true,
          "overFlowSiteId": 108113
        }
      ]
    },
    {
      "id": 344871752,
      "eventId": 365524,
      "siteUnitNumber": 12568,
      "bathingSite": "SANDGATE",
      "eventStart": "2021-01-06T04:08:00",
      "eventStop": "2021-01-06T05:06:00",
      "duration": 58,
      "status": "Genuine",
      "associatedSiteId": 109897,
      "outfallName": "RANGE ROAD HYTHE K LONG",
      "isImpacting": true,
      "overFlowSiteId": 0,
      "historicSpillsList": [
        {
          "id": 344871752,
          "eventId": 365524,
          "siteUnitNumber": 12568,
          "bathingSite": "SANDGATE",
          "eventStart": "2021-01-06T04:08:00",
          "eventStop": "2021-01-06T05:06:00",
          "duration": 58,
          "status": "Genuine",
          "associatedSiteId": 109897,
          "outfallName": "RANGE ROAD HYTHE K LONG",
          "isImpacting": true,
          "overFlowSiteId": 116048
        },
        {
          "id": 344871753,
          "eventId": 365524,
          "siteUnitNumber": 12569,
          "bathingSite": "HYTHE",
          "eventStart": "2021-01-06T04:08:00",
          "eventStop": "2021-01-06T05:06:00",
          "duration": 58,
          "status": "Genuine",
          "associatedSiteId": 109897,
          "outfallName": "RANGE ROAD HYTHE K LONG",
          "isImpacting": true,
          "overFlowSiteId": 116048,
          "historicSpillsList": []
        }
      ]
    },
    {
      "id": 344871758,
      "eventId": 365523,
      "siteUnitNumber": 12568,
      "bathingSite": "SANDGATE",
      "eventStart": "2021-01-06T02:50:00",
      "eventStop": "2021-01-06T03:48:00",
      "duration": 58,
      "status": "Genuine",
      "associatedSiteId": 109897,
      "outfallName": "RANGE ROAD HYTHE K LONG",
      "isImpacting": true,
      "overFlowSiteId": 0,
      "historicSpillsList": [
        {
          "id": 344871758,
          "eventId": 365523,
          "siteUnitNumber": 12568,
          "bathingSite": "SANDGATE",
          "eventStart": "2021-01-06T02:50:00",
          "eventStop": "2021-01-06T03:48:00",
          "duration": 58,
          "status": "Genuine",
          "associatedSiteId": 109897,
          "outfallName": "RANGE ROAD HYTHE K LONG",
          "isImpacting": true,
          "overFlowSiteId": 116048
        },
        {
          "id": 344871759,
          "eventId": 365523,
          "siteUnitNumber": 12569,
          "bathingSite": "HYTHE",
          "eventStart": "2021-01-06T02:50:00",
          "eventStop": "2021-01-06T03:48:00",
          "duration": 58,
          "status": "Genuine",
          "associatedSiteId": 109897,
          "outfallName": "RANGE ROAD HYTHE K LONG",
          "isImpacting": true,
          "overFlowSiteId": 116048,
          "historicSpillsList": []
        }
      ]
    },
    {
      "id": 344868020,
      "eventId": 305278,
      "siteUnitNumber": 12547,
      "bathingSite": "WEST BEACH WHITSTABLE",
      "eventStart": "2021-01-06T03:13:11",
      "eventStop": "2021-01-06T03:31:00",
      "duration": 17,
      "status": "Genuine",
      "associatedSiteId": 109832,
      "outfallName": "GORREL NO1",
      "isImpacting": true,
      "overFlowSiteId": 0,
      "historicSpillsList": [
        {
          "id": 344868020,
          "eventId": 305278,
          "siteUnitNumber": 12547,
          "bathingSite": "WEST BEACH WHITSTABLE",
          "eventStart": "2021-01-06T03:13:11",
          "eventStop": "2021-01-06T03:31:00",
          "duration": 17,
          "status": "Genuine",
          "associatedSiteId": 109832,
          "outfallName": "GORREL NO1",
          "isImpacting": true,
          "overFlowSiteId": 103279
        },
        {
          "id": 344868021,
          "eventId": 305278,
          "siteUnitNumber": 12548,
          "bathingSite": "TANKERTON",
          "eventStart": "2021-01-06T03:13:11",
          "eventStop": "2021-01-06T03:31:00",
          "duration": 17,
          "status": "Genuine",
          "associatedSiteId": 109832,
          "outfallName": "GORREL NO1",
          "isImpacting": true,
          "overFlowSiteId": 103279,
          "historicSpillsList": []
        }
      ]
    },
    {
      "id": 344867638,
      "eventId": 305260,
      "siteUnitNumber": 12547,
      "bathingSite": "WEST BEACH WHITSTABLE",
      "eventStart": "2021-01-06T02:25:27",
      "eventStop": "2021-01-06T03:20:32",
      "duration": 55,
      "status": "Genuine",
      "associatedSiteId": 109831,
      "outfallName": "TANKERTON CIRCUS",
      "isImpacting": true,
      "overFlowSiteId": 0,
      "historicSpillsList": [
        {
          "id": 344867638,
          "eventId": 305260,
          "siteUnitNumber": 12547,
          "bathingSite": "WEST BEACH WHITSTABLE",
          "eventStart": "2021-01-06T02:25:27",
          "eventStop": "2021-01-06T03:20:32",
          "duration": 55,
          "status": "Genuine",
          "associatedSiteId": 109831,
          "outfallName": "TANKERTON CIRCUS",
          "isImpacting": true,
          "overFlowSiteId": 102252
        },
        {
          "id": 344867639,
          "eventId": 305260,
          "siteUnitNumber": 12548,
          "bathingSite": "TANKERTON",
          "eventStart": "2021-01-06T02:25:27",
          "eventStop": "2021-01-06T03:20:32",
          "duration": 55,
          "status": "Genuine",
          "associatedSiteId": 109831,
          "outfallName": "TANKERTON CIRCUS",
          "isImpacting": true,
          "overFlowSiteId": 102252,
          "historicSpillsList": []
        }
      ]
    },
    {
      "id": 344871756,
      "eventId": 365522,
      "siteUnitNumber": 12568,
      "bathingSite": "SANDGATE",
      "eventStart": "2021-01-06T01:58:00",
      "eventStop": "2021-01-06T02:25:00",
      "duration": 27,
      "status": "Genuine",
      "associatedSiteId": 109897,
      "outfallName": "RANGE ROAD HYTHE K LONG",
      "isImpacting": true,
      "overFlowSiteId": 0,
      "historicSpillsList": [
        {
          "id": 344871756,
          "eventId": 365522,
          "siteUnitNumber": 12568,
          "bathingSite": "SANDGATE",
          "eventStart": "2021-01-06T01:58:00",
          "eventStop": "2021-01-06T02:25:00",
          "duration": 27,
          "status": "Genuine",
          "associatedSiteId": 109897,
          "outfallName": "RANGE ROAD HYTHE K LONG",
          "isImpacting": true,
          "overFlowSiteId": 116048
        },
        {
          "id": 344871757,
          "eventId": 365522,
          "siteUnitNumber": 12569,
          "bathingSite": "HYTHE",
          "eventStart": "2021-01-06T01:58:00",
          "eventStop": "2021-01-06T02:25:00",
          "duration": 27,
          "status": "Genuine",
          "associatedSiteId": 109897,
          "outfallName": "RANGE ROAD HYTHE K LONG",
          "isImpacting": true,
          "overFlowSiteId": 116048,
          "historicSpillsList": []
        }
      ]
    },
    {
      "id": 344871762,
      "eventId": 365521,
      "siteUnitNumber": 12568,
      "bathingSite": "SANDGATE",
      "eventStart": "2021-01-06T00:08:00",
      "eventStop": "2021-01-06T01:40:00",
      "duration": 92,
      "status": "Genuine",
      "associatedSiteId": 109897,
      "outfallName": "RANGE ROAD HYTHE K LONG",
      "isImpacting": true,
      "overFlowSiteId": 0,
      "historicSpillsList": [
        {
          "id": 344871762,
          "eventId": 365521,
          "siteUnitNumber": 12568,
          "bathingSite": "SANDGATE",
          "eventStart": "2021-01-06T00:08:00",
          "eventStop": "2021-01-06T01:40:00",
          "duration": 92,
          "status": "Genuine",
          "associatedSiteId": 109897,
          "outfallName": "RANGE ROAD HYTHE K LONG",
          "isImpacting": true,
          "overFlowSiteId": 116048
        },
        {
          "id": 344871763,
          "eventId": 365521,
          "siteUnitNumber": 12569,
          "bathingSite": "HYTHE",
          "eventStart": "2021-01-06T00:08:00",
          "eventStop": "2021-01-06T01:40:00",
          "duration": 92,
          "status": "Genuine",
          "associatedSiteId": 109897,
          "outfallName": "RANGE ROAD HYTHE K LONG",
          "isImpacting": true,
          "overFlowSiteId": 116048,
          "historicSpillsList": []
        }
      ]
    },
    {
      "id": 344883233,
      "eventId": 358411,
      "siteUnitNumber": 12593,
      "bathingSite": "FELPHAM",
      "eventStart": "2021-01-01T00:00:00",
      "eventStop": "2021-01-06T01:26:00",
      "duration": 7286,
      "status": "Genuine",
      "associatedSiteId": 110095,
      "outfallName": "LIDSEY",
      "isImpacting": true,
      "overFlowSiteId": 0,
      "historicSpillsList": [
        {
          "id": 344883233,
          "eventId": 358411,
          "siteUnitNumber": 12593,
          "bathingSite": "FELPHAM",
          "eventStart": "2021-01-01T00:00:00",
          "eventStop": "2021-01-06T01:26:00",
          "duration": 7286,
          "status": "Genuine",
          "associatedSiteId": 110095,
          "outfallName": "LIDSEY",
          "isImpacting": true,
          "overFlowSiteId": 115776
        }
      ]
    },
    {
      "id": 344868708,
      "eventId": 304839,
      "siteUnitNumber": 12662,
      "bathingSite": "CHICHESTER HARBOUR",
      "eventStart": "2021-01-05T09:45:00",
      "eventStop": "2021-01-06T00:20:00",
      "duration": 875,
      "status": "Genuine",
      "associatedSiteId": 109836,
      "outfallName": "CHICHESTER",
      "isImpacting": true,
      "overFlowSiteId": 0,
      "historicSpillsList": [
        {
          "id": 344868708,
          "eventId": 304839,
          "siteUnitNumber": 12662,
          "bathingSite": "CHICHESTER HARBOUR",
          "eventStart": "2021-01-05T09:45:00",
          "eventStop": "2021-01-06T00:20:00",
          "duration": 875,
          "status": "Genuine",
          "associatedSiteId": 109836,
          "outfallName": "CHICHESTER",
          "isImpacting": true,
          "overFlowSiteId": 115402
        }
      ]
    },
    {
      "id": 344871760,
      "eventId": 365520,
      "siteUnitNumber": 12568,
      "bathingSite": "SANDGATE",
      "eventStart": "2021-01-05T00:54:00",
      "eventStop": "2021-01-05T23:50:00",
      "duration": 1376,
      "status": "Genuine",
      "associatedSiteId": 109897,
      "outfallName": "RANGE ROAD HYTHE K LONG",
      "isImpacting": true,
      "overFlowSiteId": 0,
      "historicSpillsList": [
        {
          "id": 344871760,
          "eventId": 365520,
          "siteUnitNumber": 12568,
          "bathingSite": "SANDGATE",
          "eventStart": "2021-01-05T00:54:00",
          "eventStop": "2021-01-05T23:50:00",
          "duration": 1376,
          "status": "Genuine",
          "associatedSiteId": 109897,
          "outfallName": "RANGE ROAD HYTHE K LONG",
          "isImpacting": true,
          "overFlowSiteId": 116048
        },
        {
          "id": 344871761,
          "eventId": 365520,
          "siteUnitNumber": 12569,
          "bathingSite": "HYTHE",
          "eventStart": "2021-01-05T00:54:00",
          "eventStop": "2021-01-05T23:50:00",
          "duration": 1376,
          "status": "Genuine",
          "associatedSiteId": 109897,
          "outfallName": "RANGE ROAD HYTHE K LONG",
          "isImpacting": true,
          "overFlowSiteId": 116048,
          "historicSpillsList": []
        }
      ]
    },
    {
      "id": 344882299,
      "eventId": 305095,
      "siteUnitNumber": 12567,
      "bathingSite": "FOLKESTONE",
      "eventStart": "2021-01-05T21:28:30",
      "eventStop": "2021-01-05T22:49:39",
      "duration": 81,
      "status": "Genuine",
      "associatedSiteId": 110010,
      "outfallName": "THE STADE FOLKESTONE",
      "isImpacting": true,
      "overFlowSiteId": 0,
      "historicSpillsList": [
        {
          "id": 344882299,
          "eventId": 305095,
          "siteUnitNumber": 12567,
          "bathingSite": "FOLKESTONE",
          "eventStart": "2021-01-05T21:28:30",
          "eventStop": "2021-01-05T22:49:39",
          "duration": 81,
          "status": "Genuine",
          "associatedSiteId": 110010,
          "outfallName": "THE STADE FOLKESTONE",
          "isImpacting": true,
          "overFlowSiteId": 108909
        }
      ]
    },
    {
      "id": 344882184,
      "eventId": 305077,
      "siteUnitNumber": 12567,
      "bathingSite": "FOLKESTONE",
      "eventStart": "2021-01-05T20:10:40",
      "eventStop": "2021-01-05T21:20:55",
      "duration": 70,
      "status": "Genuine",
      "associatedSiteId": 110010,
      "outfallName": "THE STADE FOLKESTONE",
      "isImpacting": true,
      "overFlowSiteId": 0,
      "historicSpillsList": [
        {
          "id": 344882184,
          "eventId": 305077,
          "siteUnitNumber": 12567,
          "bathingSite": "FOLKESTONE",
          "eventStart": "2021-01-05T20:10:40",
          "eventStop": "2021-01-05T21:20:55",
          "duration": 70,
          "status": "Genuine",
          "associatedSiteId": 110010,
          "outfallName": "THE STADE FOLKESTONE",
          "isImpacting": true,
          "overFlowSiteId": 108909
        }
      ]
    },
    {
      "id": 344855458,
      "eventId": 304988,
      "siteUnitNumber": 12544,
      "bathingSite": "SHEERNESS",
      "eventStart": "2021-01-05T17:52:00",
      "eventStop": "2021-01-05T20:47:00",
      "duration": 175,
      "status": "Genuine",
      "associatedSiteId": 109617,
      "outfallName": "DROVE ROAD SHEERNESS",
      "isImpacting": true,
      "overFlowSiteId": 0,
      "historicSpillsList": [
        {
          "id": 344855458,
          "eventId": 304988,
          "siteUnitNumber": 12544,
          "bathingSite": "SHEERNESS",
          "eventStart": "2021-01-05T17:52:00",
          "eventStop": "2021-01-05T20:47:00",
          "duration": 175,
          "status": "Genuine",
          "associatedSiteId": 109617,
          "outfallName": "DROVE ROAD SHEERNESS",
          "isImpacting": true,
          "overFlowSiteId": 108727
        },
        {
          "id": 344855459,
          "eventId": 304988,
          "siteUnitNumber": 12550,
          "bathingSite": "MINSTER LEAS",
          "eventStart": "2021-01-05T17:52:00",
          "eventStop": "2021-01-05T20:47:00",
          "duration": 175,
          "status": "Genuine",
          "associatedSiteId": 109617,
          "outfallName": "DROVE ROAD SHEERNESS",
          "isImpacting": true,
          "overFlowSiteId": 108727,
          "historicSpillsList": []
        }
      ]
    },
    {
      "id": 344873740,
      "eventId": 304985,
      "siteUnitNumber": 12576,
      "bathingSite": "ST LEONARDS",
      "eventStart": "2021-01-05T17:19:28",
      "eventStop": "2021-01-05T19:45:11",
      "duration": 145,
      "status": "Genuine",
      "associatedSiteId": 109903,
      "outfallName": "BEXHILL & HASTINGS NO2",
      "isImpacting": true,
      "overFlowSiteId": 0,
      "historicSpillsList": [
        {
          "id": 344873740,
          "eventId": 304985,
          "siteUnitNumber": 12576,
          "bathingSite": "ST LEONARDS",
          "eventStart": "2021-01-05T17:19:28",
          "eventStop": "2021-01-05T19:45:11",
          "duration": 145,
          "status": "Genuine",
          "associatedSiteId": 109903,
          "outfallName": "BEXHILL & HASTINGS NO2",
          "isImpacting": true,
          "overFlowSiteId": 115398
        },
        {
          "id": 344873741,
          "eventId": 304985,
          "siteUnitNumber": 12577,
          "bathingSite": "BEXHILL",
          "eventStart": "2021-01-05T17:19:28",
          "eventStop": "2021-01-05T19:45:11",
          "duration": 145,
          "status": "Genuine",
          "associatedSiteId": 109903,
          "outfallName": "BEXHILL & HASTINGS NO2",
          "isImpacting": true,
          "overFlowSiteId": 115398,
          "historicSpillsList": []
        }
      ]
    },
    {
      "id": 344882183,
      "eventId": 305014,
      "siteUnitNumber": 12567,
      "bathingSite": "FOLKESTONE",
      "eventStart": "2021-01-05T17:46:07",
      "eventStop": "2021-01-05T19:21:18",
      "duration": 95,
      "status": "Genuine",
      "associatedSiteId": 110010,
      "outfallName": "THE STADE FOLKESTONE",
      "isImpacting": true,
      "overFlowSiteId": 0,
      "historicSpillsList": [
        {
          "id": 344882183,
          "eventId": 305014,
          "siteUnitNumber": 12567,
          "bathingSite": "FOLKESTONE",
          "eventStart": "2021-01-05T17:46:07",
          "eventStop": "2021-01-05T19:21:18",
          "duration": 95,
          "status": "Genuine",
          "associatedSiteId": 110010,
          "outfallName": "THE STADE FOLKESTONE",
          "isImpacting": true,
          "overFlowSiteId": 108909
        }
      ]
    },
    {
      "id": 344880161,
      "eventId": 304887,
      "siteUnitNumber": 12591,
      "bathingSite": "LITTLEHAMPTON",
      "eventStart": "2021-01-05T10:52:00",
      "eventStop": "2021-01-05T11:21:00",
      "duration": 29,
      "status": "Genuine",
      "associatedSiteId": 109965,
      "outfallName": "SEA ROAD LITTLEHAMPTON",
      "isImpacting": true,
      "overFlowSiteId": 0,
      "historicSpillsList": [
        {
          "id": 344880161,
          "eventId": 304887,
          "siteUnitNumber": 12591,
          "bathingSite": "LITTLEHAMPTON",
          "eventStart": "2021-01-05T10:52:00",
          "eventStop": "2021-01-05T11:21:00",
          "duration": 29,
          "status": "Genuine",
          "associatedSiteId": 109965,
          "outfallName": "SEA ROAD LITTLEHAMPTON",
          "isImpacting": true,
          "overFlowSiteId": 109368
        }
      ]
    },
    {
      "id": 344873738,
      "eventId": 304838,
      "siteUnitNumber": 12576,
      "bathingSite": "ST LEONARDS",
      "eventStart": "2021-01-05T10:19:36",
      "eventStop": "2021-01-05T10:36:24",
      "duration": 16,
      "status": "Genuine",
      "associatedSiteId": 109903,
      "outfallName": "BEXHILL & HASTINGS NO2",
      "isImpacting": true,
      "overFlowSiteId": 0,
      "historicSpillsList": [
        {
          "id": 344873738,
          "eventId": 304838,
          "siteUnitNumber": 12576,
          "bathingSite": "ST LEONARDS",
          "eventStart": "2021-01-05T10:19:36",
          "eventStop": "2021-01-05T10:36:24",
          "duration": 16,
          "status": "Genuine",
          "associatedSiteId": 109903,
          "outfallName": "BEXHILL & HASTINGS NO2",
          "isImpacting": true,
          "overFlowSiteId": 115398
        },
        {
          "id": 344873739,
          "eventId": 304838,
          "siteUnitNumber": 12577,
          "bathingSite": "BEXHILL",
          "eventStart": "2021-01-05T10:19:36",
          "eventStop": "2021-01-05T10:36:24",
          "duration": 16,
          "status": "Genuine",
          "associatedSiteId": 109903,
          "outfallName": "BEXHILL & HASTINGS NO2",
          "isImpacting": true,
          "overFlowSiteId": 115398,
          "historicSpillsList": []
        }
      ]
    },
    {
      "id": 344854856,
      "eventId": 304544,
      "siteUnitNumber": 12626,
      "bathingSite": "VENTNOR",
      "eventStart": "2021-01-05T02:27:00",
      "eventStop": "2021-01-05T03:26:00",
      "duration": 59,
      "status": "Genuine",
      "associatedSiteId": 100481,
      "outfallName": "FLOWERS BROOK VENTNOR",
      "isImpacting": true,
      "overFlowSiteId": 0,
      "historicSpillsList": [
        {
          "id": 344854856,
          "eventId": 304544,
          "siteUnitNumber": 12626,
          "bathingSite": "VENTNOR",
          "eventStart": "2021-01-05T02:27:00",
          "eventStop": "2021-01-05T03:26:00",
          "duration": 59,
          "status": "Genuine",
          "associatedSiteId": 100481,
          "outfallName": "FLOWERS BROOK VENTNOR",
          "isImpacting": true,
          "overFlowSiteId": 108894
        }
      ]
    },
    {
      "id": 344868709,
      "eventId": 304752,
      "siteUnitNumber": 12662,
      "bathingSite": "CHICHESTER HARBOUR",
      "eventStart": "2021-01-04T10:00:00",
      "eventStop": "2021-01-05T02:00:00",
      "duration": 960,
      "status": "Genuine",
      "associatedSiteId": 109836,
      "outfallName": "CHICHESTER",
      "isImpacting": true,
      "overFlowSiteId": 0,
      "historicSpillsList": [
        {
          "id": 344868709,
          "eventId": 304752,
          "siteUnitNumber": 12662,
          "bathingSite": "CHICHESTER HARBOUR",
          "eventStart": "2021-01-04T10:00:00",
          "eventStop": "2021-01-05T02:00:00",
          "duration": 960,
          "status": "Genuine",
          "associatedSiteId": 109836,
          "outfallName": "CHICHESTER",
          "isImpacting": true,
          "overFlowSiteId": 115402
        }
      ]
    },
    {
      "id": 344871830,
      "eventId": 304559,
      "siteUnitNumber": 12568,
      "bathingSite": "SANDGATE",
      "eventStart": "2021-01-04T23:40:00",
      "eventStop": "2021-01-05T00:36:00",
      "duration": 56,
      "status": "Genuine",
      "associatedSiteId": 109897,
      "outfallName": "RANGE ROAD HYTHE K LONG",
      "isImpacting": true,
      "overFlowSiteId": 0,
      "historicSpillsList": [
        {
          "id": 344871830,
          "eventId": 304559,
          "siteUnitNumber": 12568,
          "bathingSite": "SANDGATE",
          "eventStart": "2021-01-04T23:40:00",
          "eventStop": "2021-01-05T00:36:00",
          "duration": 56,
          "status": "Genuine",
          "associatedSiteId": 109897,
          "outfallName": "RANGE ROAD HYTHE K LONG",
          "isImpacting": true,
          "overFlowSiteId": 116048
        },
        {
          "id": 344871831,
          "eventId": 304559,
          "siteUnitNumber": 12569,
          "bathingSite": "HYTHE",
          "eventStart": "2021-01-04T23:40:00",
          "eventStop": "2021-01-05T00:36:00",
          "duration": 56,
          "status": "Genuine",
          "associatedSiteId": 109897,
          "outfallName": "RANGE ROAD HYTHE K LONG",
          "isImpacting": true,
          "overFlowSiteId": 116048,
          "historicSpillsList": []
        }
      ]
    },
    {
      "id": 344867630,
      "eventId": 304529,
      "siteUnitNumber": 12548,
      "bathingSite": "TANKERTON",
      "eventStart": "2021-01-04T23:42:43",
      "eventStop": "2021-01-04T23:57:44",
      "duration": 15,
      "status": "Genuine",
      "associatedSiteId": 109830,
      "outfallName": "SWALECLIFFE NO1",
      "isImpacting": true,
      "overFlowSiteId": 0,
      "historicSpillsList": [
        {
          "id": 344867630,
          "eventId": 304529,
          "siteUnitNumber": 12548,
          "bathingSite": "TANKERTON",
          "eventStart": "2021-01-04T23:42:43",
          "eventStop": "2021-01-04T23:57:44",
          "duration": 15,
          "status": "Genuine",
          "associatedSiteId": 109830,
          "outfallName": "SWALECLIFFE NO1",
          "isImpacting": true,
          "overFlowSiteId": 115444
        },
        {
          "id": 344867631,
          "eventId": 304529,
          "siteUnitNumber": 12549,
          "bathingSite": "HERNE BAY CENTRAL",
          "eventStart": "2021-01-04T23:42:43",
          "eventStop": "2021-01-04T23:57:44",
          "duration": 15,
          "status": "Genuine",
          "associatedSiteId": 109830,
          "outfallName": "SWALECLIFFE NO1",
          "isImpacting": true,
          "overFlowSiteId": 115444,
          "historicSpillsList": []
        }
      ]
    }
  ]
}