{
  "currentPage": 114,
  "totalItems": 18701,
  "totalPages": 749,
  "items": [
    {
      "id": 343933732,
      "eventId": 891344,
      "siteUnitNumber": 12568,
      "bathingSite": "SANDGATE",
      "eventStart": "2023-11-02T08:30:00",
      "eventStop": "2023-11-02T15:30:00",
      "duration": 420,
      "status": "Genuine",
      "associatedSiteId": 109897,
      "outfallName": "RANGE ROAD HYTHE K LONG",
      "isImpacting": true,
      "overFlowSiteId": 0,
      "historicSpillsList": [
        {
          "id": 343933732,
          "eventId": 891344,
          "siteUnitNumber": 12568,
          "bathingSite": "SANDGATE",
          "eventStart": "2023-11-02T08:30:00",
          "eventStop": "2023-11-02T15:30:00",
          "duration": 420,
          "status": "Genuine",
          "associatedSiteId": 109897,
          "outfallName": "RANGE ROAD HYTHE K LONG",
          "isImpacting": true,
          "overFlowSiteId": 116048
        },
        {
          "id": 343933733,
          "eventId": 891344,
          "siteUnitNumber": 12569,
          "bathingSite": "HYTHE",
          "eventStart": "2023-11-02T08:30:00",
          "eventStop": "2023-11-02T15:30:00",
          "duration": 420,
          "status": "Genuine",
          "associatedSiteId": 109897,
          "outfallName": "RANGE ROAD HYTHE K LONG",
          "isImpacting": true,
          "overFlowSiteId": 116048,
          "historicSpillsList": []
        }
      ]
    },
    {
      "id": 343944317,
      "eventId": 891880,
      "siteUnitNumber": 12575,
      "bathingSite": "HASTINGS PELHAM BEACH",
      "eventStart": "2023-11-02T15:20:56",
      "eventStop": "2023-11-02T15:27:17",
      "duration": 6,
      "status": "Genuine",
      "associatedSiteId": 109982,
      "outfallName": "COOMBS HASTINGS",
      "isImpacting": true,
      "overFlowSiteId": 0,
      "historicSpillsList": [
        {
          "id": 343944318,
          "eventId": 891880,
          "siteUnitNumber": 12576,
          "bathingSite": "ST LEONARDS",
          "eventStart": "2023-11-02T15:20:56",
          "eventStop": "2023-11-02T15:27:17",
          "duration": 6,
          "status": "Genuine",
          "associatedSiteId": 109982,
          "outfallName": "COOMBS HASTINGS",
          "isImpacting": true,
          "overFlowSiteId": 110211,
          "historicSpillsList": []
        }
      ]
    },
    {
      "id": 343925573,
      "eventId": 890283,
      "siteUnitNumber": 12607,
      "bathingSite": "HILLHEAD",
      "eventStart": "2023-11-01T23:01:59",
      "eventStop": "2023-11-02T15:27:00",
      "duration": 985,
      "status": "Genuine",
      "associatedSiteId": 109751,
      "outfallName": "HOOK PARK NO.1",
      "isImpacting": false,
      "overFlowSiteId": 0,
      "historicSpillsList": []
    },
    {
      "id": 343957632,
      "eventId": 891863,
      "siteUnitNumber": 12614,
      "bathingSite": "TOTLAND BAY",
      "eventStart": "2023-11-02T14:48:15",
      "eventStop": "2023-11-02T15:26:10",
      "duration": 37,
      "status": "Genuine",
      "associatedSiteId": 115498,
      "outfallName": "NORTON TRANSFER IOW",
      "isImpacting": true,
      "overFlowSiteId": 0,
      "historicSpillsList": [
        {
          "id": 343957632,
          "eventId": 891863,
          "siteUnitNumber": 12614,
          "bathingSite": "TOTLAND BAY",
          "eventStart": "2023-11-02T14:48:15",
          "eventStop": "2023-11-02T15:26:10",
          "duration": 37,
          "status": "Genuine",
          "associatedSiteId": 115498,
          "outfallName": "NORTON TRANSFER IOW",
          "isImpacting": true,
          "overFlowSiteId": 109524
        },
        {
          "id": 343957633,
          "eventId": 891863,
          "siteUnitNumber": 12615,
          "bathingSite": "COLWELL BAY",
          "eventStart": "2023-11-02T14:48:15",
          "eventStop": "2023-11-02T15:26:10",
          "duration": 37,
          "status": "Genuine",
          "associatedSiteId": 115498,
          "outfallName": "NORTON TRANSFER IOW",
          "isImpacting": true,
          "overFlowSiteId": 109524,
          "historicSpillsList": []
        }
      ]
    },
    {
      "id": 343944315,
      "eventId": 891840,
      "siteUnitNumber": 12575,
      "bathingSite": "HASTINGS PELHAM BEACH",
      "eventStart": "2023-11-02T14:40:32",
      "eventStop": "2023-11-02T15:15:00",
      "duration": 34,
      "status": "Genuine",
      "associatedSiteId": 109982,
      "outfallName": "COOMBS HASTINGS",
      "isImpacting": true,
      "overFlowSiteId": 0,
      "historicSpillsList": [
        {
          "id": 343944316,
          "eventId": 891840,
          "siteUnitNumber": 12576,
          "bathingSite": "ST LEONARDS",
          "eventStart": "2023-11-02T14:40:32",
          "eventStop": "2023-11-02T15:15:00",
          "duration": 34,
          "status": "Genuine",
          "associatedSiteId": 109982,
          "outfallName": "COOMBS HASTINGS",
          "isImpacting": true,
          "overFlowSiteId": 110211,
          "historicSpillsList": []
        }
      ]
    },
    {
      "id": 343927406,
      "eventId": 892912,
      "siteUnitNumber": 12618,
      "bathingSite": "RYDE",
      "eventStart": "2023-11-02T15:00:00",
      "eventStop": "2023-11-02T15:14:00",
      "duration": 14,
      "status": "Genuine",
      "associatedSiteId": 109778,
      "outfallName": "PRINCE CONSORT RYDE NEW",
      "isImpacting": true,
      "overFlowSiteId": 0,
      "historicSpillsList": [
        {
          "id": 343927406,
          "eventId": 892912,
          "siteUnitNumber": 12618,
          "bathingSite": "RYDE",
          "eventStart": "2023-11-02T15:00:00",
          "eventStop": "2023-11-02T15:14:00",
          "duration": 14,
          "status": "Genuine",
          "associatedSiteId": 109778,
          "outfallName": "PRINCE CONSORT RYDE NEW",
          "isImpacting": true,
          "overFlowSiteId": 108043
        }
      ]
    },
    {
      "id": 343928401,
      "eventId": 899137,
      "siteUnitNumber": 12610,
      "bathingSite": "MILFORD-ON-SEA",
      "eventStart": "2023-11-02T13:59:00",
      "eventStop": "2023-11-02T15:05:00",
      "duration": 66,
      "status": "Genuine",
      "associatedSiteId": 109801,
      "outfallName": "BECTON LANE BARTON ON SEA",
      "isImpacting": false,
      "overFlowSiteId": 0,
      "historicSpillsList": []
    },
    {
      "id": 343927407,
      "eventId": 892911,
      "siteUnitNumber": 12618,
      "bathingSite": "RYDE",
      "eventStart": "2023-11-02T13:55:00",
      "eventStop": "2023-11-02T14:52:00",
      "duration": 57,
      "status": "Genuine",
      "associatedSiteId": 109778,
      "outfallName": "PRINCE CONSORT RYDE NEW",
      "isImpacting": true,
      "overFlowSiteId": 0,
      "historicSpillsList": [
        {
          "id": 343927407,
          "eventId": 892911,
          "siteUnitNumber": 12618,
          "bathingSite": "RYDE",
          "eventStart": "2023-11-02T13:55:00",
          "eventStop": "2023-11-02T14:52:00",
          "duration": 57,
          "status": "Genuine",
          "associatedSiteId": 109778,
          "outfallName": "PRINCE CONSORT RYDE NEW",
          "isImpacting": true,
          "overFlowSiteId": 108043
        }
      ]
    },
    {
      "id": 343957634,
      "eventId": 891733,
      "siteUnitNumber": 12614,
      "bathingSite": "TOTLAND BAY",
      "eventStart": "2023-11-02T13:20:04",
      "eventStop": "2023-11-02T14:46:33",
      "duration": 86,
      "status": "Genuine",
      "associatedSiteId": 115498,
      "outfallName": "NORTON TRANSFER IOW",
      "isImpacting": true,
      "overFlowSiteId": 0,
      "historicSpillsList": [
        {
          "id": 343957634,
          "eventId": 891733,
          "siteUnitNumber": 12614,
          "bathingSite": "TOTLAND BAY",
          "eventStart": "2023-11-02T13:20:04",
          "eventStop": "2023-11-02T14:46:33",
          "duration": 86,
          "status": "Genuine",
          "associatedSiteId": 115498,
          "outfallName": "NORTON TRANSFER IOW",
          "isImpacting": true,
          "overFlowSiteId": 109524
        },
        {
          "id": 343957635,
          "eventId": 891733,
          "siteUnitNumber": 12615,
          "bathingSite": "COLWELL BAY",
          "eventStart": "2023-11-02T13:20:04",
          "eventStop": "2023-11-02T14:46:33",
          "duration": 86,
          "status": "Genuine",
          "associatedSiteId": 115498,
          "outfallName": "NORTON TRANSFER IOW",
          "isImpacting": true,
          "overFlowSiteId": 109524,
          "historicSpillsList": []
        }
      ]
    },
    {
      "id": 343944321,
      "eventId": 891813,
      "siteUnitNumber": 12575,
      "bathingSite": "HASTINGS PELHAM BEACH",
      "eventStart": "2023-11-02T14:20:53",
      "eventStop": "2023-11-02T14:27:09",
      "duration": 6,
      "status": "Genuine",
      "associatedSiteId": 109982,
      "outfallName": "COOMBS HASTINGS",
      "isImpacting": true,
      "overFlowSiteId": 0,
      "historicSpillsList": [
        {
          "id": 343944322,
          "eventId": 891813,
          "siteUnitNumber": 12576,
          "bathingSite": "ST LEONARDS",
          "eventStart": "2023-11-02T14:20:53",
          "eventStop": "2023-11-02T14:27:09",
          "duration": 6,
          "status": "Genuine",
          "associatedSiteId": 109982,
          "outfallName": "COOMBS HASTINGS",
          "isImpacting": true,
          "overFlowSiteId": 110211,
          "historicSpillsList": []
        }
      ]
    },
    {
      "id": 343923715,
      "eventId": 891808,
      "siteUnitNumber": 12616,
      "bathingSite": "GURNARD",
      "eventStart": "2023-11-02T14:07:30",
      "eventStop": "2023-11-02T14:17:00",
      "duration": 9,
      "status": "Genuine",
      "associatedSiteId": 109706,
      "outfallName": "HIGH STREET COWES",
      "isImpacting": false,
      "overFlowSiteId": 0,
      "historicSpillsList": []
    },
    {
      "id": 343944319,
      "eventId": 891735,
      "siteUnitNumber": 12575,
      "bathingSite": "HASTINGS PELHAM BEACH",
      "eventStart": "2023-11-02T13:27:10",
      "eventStop": "2023-11-02T14:15:00",
      "duration": 47,
      "status": "Genuine",
      "associatedSiteId": 109982,
      "outfallName": "COOMBS HASTINGS",
      "isImpacting": true,
      "overFlowSiteId": 0,
      "historicSpillsList": [
        {
          "id": 343944320,
          "eventId": 891735,
          "siteUnitNumber": 12576,
          "bathingSite": "ST LEONARDS",
          "eventStart": "2023-11-02T13:27:10",
          "eventStop": "2023-11-02T14:15:00",
          "duration": 47,
          "status": "Genuine",
          "associatedSiteId": 109982,
          "outfallName": "COOMBS HASTINGS",
          "isImpacting": true,
          "overFlowSiteId": 110211,
          "historicSpillsList": []
        }
      ]
    },
    {
      "id": 343921422,
      "eventId": 892891,
      "siteUnitNumber": 12549,
      "bathingSite": "HERNE BAY CENTRAL",
      "eventStart": "2023-11-02T13:55:00",
      "eventStop": "2023-11-02T13:58:00",
      "duration": 3,
      "status": "Genuine",
      "associatedSiteId": 109678,
      "outfallName": "EDDINGTON LANE HERNE BAY NO2",
      "isImpacting": true,
      "overFlowSiteId": 0,
      "historicSpillsList": [
        {
          "id": 343921423,
          "eventId": 892891,
          "siteUnitNumber": 12551,
          "bathingSite": "HERNE BAY",
          "eventStart": "2023-11-02T13:55:00",
          "eventStop": "2023-11-02T13:58:00",
          "duration": 3,
          "status": "Genuine",
          "associatedSiteId": 109678,
          "outfallName": "EDDINGTON LANE HERNE BAY NO2",
          "isImpacting": true,
          "overFlowSiteId": 108093,
          "historicSpillsList": []
        }
      ]
    },
    {
      "id": 343927405,
      "eventId": 894145,
      "siteUnitNumber": 12618,
      "bathingSite": "RYDE",
      "eventStart": "2023-11-02T13:06:00",
      "eventStop": "2023-11-02T13:52:00",
      "duration": 46,
      "status": "Genuine",
      "associatedSiteId": 109778,
      "outfallName": "PRINCE CONSORT RYDE NEW",
      "isImpacting": true,
      "overFlowSiteId": 0,
      "historicSpillsList": [
        {
          "id": 343927405,
          "eventId": 894145,
          "siteUnitNumber": 12618,
          "bathingSite": "RYDE",
          "eventStart": "2023-11-02T13:06:00",
          "eventStop": "2023-11-02T13:52:00",
          "duration": 46,
          "status": "Genuine",
          "associatedSiteId": 109778,
          "outfallName": "PRINCE CONSORT RYDE NEW",
          "isImpacting": true,
          "overFlowSiteId": 108043
        }
      ]
    },
    {
      "id": 343929407,
      "eventId": 891798,
      "siteUnitNumber": 12601,
      "bathingSite": "BEACHLANDS CENTRAL",
      "eventStart": "2023-11-02T12:11:00",
      "eventStop": "2023-11-02T13:23:00",
      "duration": 72,
      "status": "Genuine",
      "associatedSiteId": 109823,
      "outfallName": "FORT CUMBERLAND NO1",
      "isImpacting": true,
      "overFlowSiteId": 0,
      "historicSpillsList": [
        {
          "id": 343929409,
          "eventId": 891798,
          "siteUnitNumber": 12603,
          "bathingSite": "EASTNEY",
          "eventStart": "2023-11-02T12:11:00",
          "eventStop": "2023-11-02T13:23:00",
          "duration": 72,
          "status": "Genuine",
          "associatedSiteId": 109823,
          "outfallName": "FORT CUMBERLAND NO1",
          "isImpacting": true,
          "overFlowSiteId": 110658,
          "historicSpillsList": []
        },
        {
          "id": 343929411,
          "eventId": 891798,
          "siteUnitNumber": 12661,
          "bathingSite": "LANGSTONE HARBOUR",
          "eventStart": "2023-11-02T12:11:00",
          "eventStop": "2023-11-02T13:23:00",
          "duration": 72,
          "status": "Genuine",
          "associatedSiteId": 109823,
          "outfallName": "FORT CUMBERLAND NO1",
          "isImpacting": true,
          "overFlowSiteId": 110658,
          "historicSpillsList": []
        }
      ]
    },
    {
      "id": 343923717,
      "eventId": 891743,
      "siteUnitNumber": 12616,
      "bathingSite": "GURNARD",
      "eventStart": "2023-11-02T13:11:48",
      "eventStop": "2023-11-02T13:21:27",
      "duration": 9,
      "status": "Genuine",
      "associatedSiteId": 109706,
      "outfallName": "HIGH STREET COWES",
      "isImpacting": false,
      "overFlowSiteId": 0,
      "historicSpillsList": []
    },
    {
      "id": 343957636,
      "eventId": 891728,
      "siteUnitNumber": 12615,
      "bathingSite": "COLWELL BAY",
      "eventStart": "2023-11-02T13:09:13",
      "eventStop": "2023-11-02T13:18:19",
      "duration": 9,
      "status": "Genuine",
      "associatedSiteId": 115498,
      "outfallName": "NORTON TRANSFER IOW",
      "isImpacting": true,
      "overFlowSiteId": 0,
      "historicSpillsList": [
        {
          "id": 343957636,
          "eventId": 891728,
          "siteUnitNumber": 12615,
          "bathingSite": "COLWELL BAY",
          "eventStart": "2023-11-02T13:09:13",
          "eventStop": "2023-11-02T13:18:19",
          "duration": 9,
          "status": "Genuine",
          "associatedSiteId": 115498,
          "outfallName": "NORTON TRANSFER IOW",
          "isImpacting": true,
          "overFlowSiteId": 109524
        },
        {
          "id": 343957637,
          "eventId": 891728,
          "siteUnitNumber": 12614,
          "bathingSite": "TOTLAND BAY",
          "eventStart": "2023-11-02T13:09:13",
          "eventStop": "2023-11-02T13:18:19",
          "duration": 9,
          "status": "Genuine",
          "associatedSiteId": 115498,
          "outfallName": "NORTON TRANSFER IOW",
          "isImpacting": true,
          "overFlowSiteId": 109524,
          "historicSpillsList": []
        }
      ]
    },
    {
      "id": 343944325,
      "eventId": 891727,
      "siteUnitNumber": 12575,
      "bathingSite": "HASTINGS PELHAM BEACH",
      "eventStart": "2023-11-02T13:08:29",
      "eventStop": "2023-11-02T13:17:25",
      "duration": 8,
      "status": "Genuine",
      "associatedSiteId": 109982,
      "outfallName": "COOMBS HASTINGS",
      "isImpacting": true,
      "overFlowSiteId": 0,
      "historicSpillsList": [
        {
          "id": 343944326,
          "eventId": 891727,
          "siteUnitNumber": 12576,
          "bathingSite": "ST LEONARDS",
          "eventStart": "2023-11-02T13:08:29",
          "eventStop": "2023-11-02T13:17:25",
          "duration": 8,
          "status": "Genuine",
          "associatedSiteId": 109982,
          "outfallName": "COOMBS HASTINGS",
          "isImpacting": true,
          "overFlowSiteId": 110211,
          "historicSpillsList": []
        }
      ]
    },
    {
      "id": 343957638,
      "eventId": 891693,
      "siteUnitNumber": 12614,
      "bathingSite": "TOTLAND BAY",
      "eventStart": "2023-11-02T12:37:48",
      "eventStop": "2023-11-02T13:07:50",
      "duration": 30,
      "status": "Genuine",
      "associatedSiteId": 115498,
      "outfallName": "NORTON TRANSFER IOW",
      "isImpacting": true,
      "overFlowSiteId": 0,
      "historicSpillsList": [
        {
          "id": 343957638,
          "eventId": 891693,
          "siteUnitNumber": 12614,
          "bathingSite": "TOTLAND BAY",
          "eventStart": "2023-11-02T12:37:48",
          "eventStop": "2023-11-02T13:07:50",
          "duration": 30,
          "status": "Genuine",
          "associatedSiteId": 115498,
          "outfallName": "NORTON TRANSFER IOW",
          "isImpacting": true,
          "overFlowSiteId": 109524
        },
        {
          "id": 343957639,
          "eventId": 891693,
          "siteUnitNumber": 12615,
          "bathingSite": "COLWELL BAY",
          "eventStart": "2023-11-02T12:37:48",
          "eventStop": "2023-11-02T13:07:50",
          "duration": 30,
          "status": "Genuine",
          "associatedSiteId": 115498,
          "outfallName": "NORTON TRANSFER IOW",
          "isImpacting": true,
          "overFlowSiteId": 109524,
          "historicSpillsList": []
        }
      ]
    },
    {
      "id": 343921390,
      "eventId": 893023,
      "siteUnitNumber": 12549,
      "bathingSite": "HERNE BAY CENTRAL",
      "eventStart": "2023-11-02T13:03:00",
      "eventStop": "2023-11-02T13:06:00",
      "duration": 3,
      "status": "Genuine",
      "associatedSiteId": 109678,
      "outfallName": "EDDINGTON LANE HERNE BAY NO2",
      "isImpacting": true,
      "overFlowSiteId": 0,
      "historicSpillsList": [
        {
          "id": 343921391,
          "eventId": 893023,
          "siteUnitNumber": 12551,
          "bathingSite": "HERNE BAY",
          "eventStart": "2023-11-02T13:03:00",
          "eventStop": "2023-11-02T13:06:00",
          "duration": 3,
          "status": "Genuine",
          "associatedSiteId": 109678,
          "outfallName": "EDDINGTON LANE HERNE BAY NO2",
          "isImpacting": true,
          "overFlowSiteId": 108093,
          "historicSpillsList": []
        }
      ]
    },
    {
      "id": 343937429,
      "eventId": 893061,
      "siteUnitNumber": 12586,
      "bathingSite": "HOVE",
      "eventStart": "2023-11-02T12:37:00",
      "eventStop": "2023-11-02T13:06:00",
      "duration": 29,
      "status": "Genuine",
      "associatedSiteId": 109929,
      "outfallName": "SHOREHAM NO1",
      "isImpacting": true,
      "overFlowSiteId": 0,
      "historicSpillsList": [
        {
          "id": 343937429,
          "eventId": 893061,
          "siteUnitNumber": 12586,
          "bathingSite": "HOVE",
          "eventStart": "2023-11-02T12:37:00",
          "eventStop": "2023-11-02T13:06:00",
          "duration": 29,
          "status": "Genuine",
          "associatedSiteId": 109929,
          "outfallName": "SHOREHAM NO1",
          "isImpacting": true,
          "overFlowSiteId": 115434
        },
        {
          "id": 343937430,
          "eventId": 893061,
          "siteUnitNumber": 12587,
          "bathingSite": "SOUTHWICK",
          "eventStart": "2023-11-02T12:37:00",
          "eventStop": "2023-11-02T13:06:00",
          "duration": 29,
          "status": "Genuine",
          "associatedSiteId": 109929,
          "outfallName": "SHOREHAM NO1",
          "isImpacting": true,
          "overFlowSiteId": 115434,
          "historicSpillsList": []
        },
        {
          "id": 343937431,
          "eventId": 893061,
          "siteUnitNumber": 12588,
          "bathingSite": "SHOREHAM BEACH",
          "eventStart": "2023-11-02T12:37:00",
          "eventStop": "2023-11-02T13:06:00",
          "duration": 29,
          "status": "Genuine",
          "associatedSiteId": 109929,
          "outfallName": "SHOREHAM NO1",
          "isImpacting": true,
          "overFlowSiteId": 115434,
          "historicSpillsList": []
        }
      ]
    },
    {
      "id": 343944323,
      "eventId": 891710,
      "siteUnitNumber": 12575,
      "bathingSite": "HASTINGS PELHAM BEACH",
      "eventStart": "2023-11-02T12:50:14",
      "eventStop": "2023-11-02T12:59:50",
      "duration": 9,
      "status": "Genuine",
      "associatedSiteId": 109982,
      "outfallName": "COOMBS HASTINGS",
      "isImpacting": true,
      "overFlowSiteId": 0,
      "historicSpillsList": [
        {
          "id": 343944324,
          "eventId": 891710,
          "siteUnitNumber": 12576,
          "bathingSite": "ST LEONARDS",
          "eventStart": "2023-11-02T12:50:14",
          "eventStop": "2023-11-02T12:59:50",
          "duration": 9,
          "status": "Genuine",
          "associatedSiteId": 109982,
          "outfallName": "COOMBS HASTINGS",
          "isImpacting": true,
          "overFlowSiteId": 110211,
          "historicSpillsList": []
        }
      ]
    },
    {
      "id": 343921104,
      "eventId": 891576,
      "siteUnitNumber": 12558,
      "bathingSite": "WALPOLE BAY MARGATE",
      "eventStart": "2023-11-02T10:32:25",
      "eventStop": "2023-11-02T12:56:44",
      "duration": 144,
      "status": "Genuine",
      "associatedSiteId": 109674,
      "outfallName": "MARGATE NO2",
      "isImpacting": true,
      "overFlowSiteId": 0,
      "historicSpillsList": [
        {
          "id": 343921104,
          "eventId": 891576,
          "siteUnitNumber": 12558,
          "bathingSite": "WALPOLE BAY MARGATE",
          "eventStart": "2023-11-02T10:32:25",
          "eventStop": "2023-11-02T12:56:44",
          "duration": 144,
          "status": "Genuine",
          "associatedSiteId": 109674,
          "outfallName": "MARGATE NO2",
          "isImpacting": true,
          "overFlowSiteId": 116100
        },
        {
          "id": 343921105,
          "eventId": 891576,
          "siteUnitNumber": 12559,
          "bathingSite": "BOTANY BAY BROADSTAIRS",
          "eventStart": "2023-11-02T10:32:25",
          "eventStop": "2023-11-02T12:56:44",
          "duration": 144,
          "status": "Genuine",
          "associatedSiteId": 109674,
          "outfallName": "MARGATE NO2",
          "isImpacting": true,
          "overFlowSiteId": 116100,
          "historicSpillsList": []
        },
        {
          "id": 343921109,
          "eventId": 891576,
          "siteUnitNumber": 12557,
          "bathingSite": "MARGATE FULSAM ROCK",
          "eventStart": "2023-11-02T10:32:25",
          "eventStop": "2023-11-02T12:56:44",
          "duration": 144,
          "status": "Genuine",
          "associatedSiteId": 109674,
          "outfallName": "MARGATE NO2",
          "isImpacting": true,
          "overFlowSiteId": 116100,
          "historicSpillsList": []
        }
      ]
    },
    {
      "id": 343944329,
      "eventId": 891669,
      "siteUnitNumber": 12575,
      "bathingSite": "HASTINGS PELHAM BEACH",
      "eventStart": "2023-11-02T12:23:41",
      "eventStop": "2023-11-02T12:45:00",
      "duration": 21,
      "status": "Genuine",
      "associatedSiteId": 109982,
      "outfallName": "COOMBS HASTINGS",
      "isImpacting": true,
      "overFlowSiteId": 0,
      "historicSpillsList": [
        {
          "id": 343944330,
          "eventId": 891669,
          "siteUnitNumber": 12576,
          "bathingSite": "ST LEONARDS",
          "eventStart": "2023-11-02T12:23:41",
          "eventStop": "2023-11-02T12:45:00",
          "duration": 21,
          "status": "Genuine",
          "associatedSiteId": 109982,
          "outfallName": "COOMBS HASTINGS",
          "isImpacting": true,
          "overFlowSiteId": 110211,
          "historicSpillsList": []
        }
      ]
    },
    {
      "id": 343924509,
      "eventId": 890298,
      "siteUnitNumber": 12606,
      "bathingSite": "LEE-ON-SOLENT",
      "eventStart": "2023-11-01T23:31:00",
      "eventStop": "2023-11-02T12:41:00",
      "duration": 790,
      "status": "Genuine",
      "associatedSiteId": 109717,
      "outfallName": "NEWGATE LANE PEEL COMMON",
      "isImpacting": false,
      "overFlowSiteId": 0,
      "historicSpillsList": []
    }
  ]
}