{
  "currentPage": 52,
  "totalItems": 21024,
  "totalPages": 841,
  "items": [
    {
      "id": 344723102,
      "eventId": 908614,
      "siteUnitNumber": 12615,
      "bathingSite": "COLWELL BAY",
      "eventStart": "2023-11-14T17:18:02",
      "eventStop": "2023-11-14T17:23:20",
      "duration": 5,
      "status": "Genuine",
      "associatedSiteId": 115498,
      "outfallName": "NORTON TRANSFER IOW",
      "isImpacting": true,
      "overFlowSiteId": 0,
      "historicSpillsList": [
        {
          "id": 344723102,
          "eventId": 908614,
          "siteUnitNumber": 12615,
          "bathingSite": "COLWELL BAY",
          "eventStart": "2023-11-14T17:18:02",
          "eventStop": "2023-11-14T17:23:20",
          "duration": 5,
          "status": "Genuine",
          "associatedSiteId": 115498,
          "outfallName": "NORTON TRANSFER IOW",
          "isImpacting": true,
          "overFlowSiteId": 109524
        },
        {
          "id": 344723103,
          "eventId": 908614,
          "siteUnitNumber": 12614,
          "bathingSite": "TOTLAND BAY",
          "eventStart": "2023-11-14T17:18:02",
          "eventStop": "2023-11-14T17:23:20",
          "duration": 5,
          "status": "Genuine",
          "associatedSiteId": 115498,
          "outfallName": "NORTON TRANSFER IOW",
          "isImpacting": true,
          "overFlowSiteId": 109524,
          "historicSpillsList": []
        }
      ]
    },
    {
      "id": 344721419,
      "eventId": 909963,
      "siteUnitNumber": 12573,
      "bathingSite": "CAMBER",
      "eventStart": "2023-11-14T11:13:00",
      "eventStop": "2023-11-14T17:22:00",
      "duration": 369,
      "status": "Genuine",
      "associatedSiteId": 110958,
      "outfallName": "RYE",
      "isImpacting": false,
      "overFlowSiteId": 0,
      "historicSpillsList": []
    },
    {
      "id": 344689477,
      "eventId": 907932,
      "siteUnitNumber": 12616,
      "bathingSite": "GURNARD",
      "eventStart": "2023-11-14T10:50:00",
      "eventStop": "2023-11-14T17:20:00",
      "duration": 390,
      "status": "Genuine",
      "associatedSiteId": 109704,
      "outfallName": "EGYPT POINT COWES",
      "isImpacting": true,
      "overFlowSiteId": 0,
      "historicSpillsList": [
        {
          "id": 344689478,
          "eventId": 907932,
          "siteUnitNumber": 12617,
          "bathingSite": "COWES",
          "eventStart": "2023-11-14T10:50:00",
          "eventStop": "2023-11-14T17:20:00",
          "duration": 390,
          "status": "Genuine",
          "associatedSiteId": 109704,
          "outfallName": "EGYPT POINT COWES",
          "isImpacting": true,
          "overFlowSiteId": 116213,
          "historicSpillsList": []
        }
      ]
    },
    {
      "id": 344723104,
      "eventId": 908611,
      "siteUnitNumber": 12614,
      "bathingSite": "TOTLAND BAY",
      "eventStart": "2023-11-14T17:07:47",
      "eventStop": "2023-11-14T17:14:50",
      "duration": 7,
      "status": "Genuine",
      "associatedSiteId": 115498,
      "outfallName": "NORTON TRANSFER IOW",
      "isImpacting": true,
      "overFlowSiteId": 0,
      "historicSpillsList": [
        {
          "id": 344723104,
          "eventId": 908611,
          "siteUnitNumber": 12614,
          "bathingSite": "TOTLAND BAY",
          "eventStart": "2023-11-14T17:07:47",
          "eventStop": "2023-11-14T17:14:50",
          "duration": 7,
          "status": "Genuine",
          "associatedSiteId": 115498,
          "outfallName": "NORTON TRANSFER IOW",
          "isImpacting": true,
          "overFlowSiteId": 109524
        },
        {
          "id": 344723105,
          "eventId": 908611,
          "siteUnitNumber": 12615,
          "bathingSite": "COLWELL BAY",
          "eventStart": "2023-11-14T17:07:47",
          "eventStop": "2023-11-14T17:14:50",
          "duration": 7,
          "status": "Genuine",
          "associatedSiteId": 115498,
          "outfallName": "NORTON TRANSFER IOW",
          "isImpacting": true,
          "overFlowSiteId": 109524,
          "historicSpillsList": []
        }
      ]
    },
    {
      "id": 344697808,
      "eventId": 910049,
      "siteUnitNumber": 12548,
      "bathingSite": "TANKERTON",
      "eventStart": "2023-11-14T15:54:00",
      "eventStop": "2023-11-14T17:14:00",
      "duration": 80,
      "status": "Genuine",
      "associatedSiteId": 109835,
      "outfallName": "SWALECLIFFE NO2",
      "isImpacting": true,
      "overFlowSiteId": 0,
      "historicSpillsList": [
        {
          "id": 344697808,
          "eventId": 910049,
          "siteUnitNumber": 12548,
          "bathingSite": "TANKERTON",
          "eventStart": "2023-11-14T15:54:00",
          "eventStop": "2023-11-14T17:14:00",
          "duration": 80,
          "status": "Genuine",
          "associatedSiteId": 109835,
          "outfallName": "SWALECLIFFE NO2",
          "isImpacting": true,
          "overFlowSiteId": 115445
        }
      ]
    },
    {
      "id": 344709882,
      "eventId": 907986,
      "siteUnitNumber": 12591,
      "bathingSite": "LITTLEHAMPTON",
      "eventStart": "2023-11-14T11:04:33",
      "eventStop": "2023-11-14T17:05:00",
      "duration": 360,
      "status": "Genuine",
      "associatedSiteId": 109968,
      "outfallName": "FORD ROAD ARUNDEL",
      "isImpacting": true,
      "overFlowSiteId": 0,
      "historicSpillsList": [
        {
          "id": 344709882,
          "eventId": 907986,
          "siteUnitNumber": 12591,
          "bathingSite": "LITTLEHAMPTON",
          "eventStart": "2023-11-14T11:04:33",
          "eventStop": "2023-11-14T17:05:00",
          "duration": 360,
          "status": "Genuine",
          "associatedSiteId": 109968,
          "outfallName": "FORD ROAD ARUNDEL",
          "isImpacting": true,
          "overFlowSiteId": 108002
        }
      ]
    },
    {
      "id": 344723112,
      "eventId": 908596,
      "siteUnitNumber": 12614,
      "bathingSite": "TOTLAND BAY",
      "eventStart": "2023-11-14T16:45:56",
      "eventStop": "2023-11-14T17:04:26",
      "duration": 18,
      "status": "Genuine",
      "associatedSiteId": 115498,
      "outfallName": "NORTON TRANSFER IOW",
      "isImpacting": true,
      "overFlowSiteId": 0,
      "historicSpillsList": [
        {
          "id": 344723112,
          "eventId": 908596,
          "siteUnitNumber": 12614,
          "bathingSite": "TOTLAND BAY",
          "eventStart": "2023-11-14T16:45:56",
          "eventStop": "2023-11-14T17:04:26",
          "duration": 18,
          "status": "Genuine",
          "associatedSiteId": 115498,
          "outfallName": "NORTON TRANSFER IOW",
          "isImpacting": true,
          "overFlowSiteId": 109524
        },
        {
          "id": 344723113,
          "eventId": 908596,
          "siteUnitNumber": 12615,
          "bathingSite": "COLWELL BAY",
          "eventStart": "2023-11-14T16:45:56",
          "eventStop": "2023-11-14T17:04:26",
          "duration": 18,
          "status": "Genuine",
          "associatedSiteId": 115498,
          "outfallName": "NORTON TRANSFER IOW",
          "isImpacting": true,
          "overFlowSiteId": 109524,
          "historicSpillsList": []
        }
      ]
    },
    {
      "id": 344723106,
      "eventId": 908605,
      "siteUnitNumber": 12614,
      "bathingSite": "TOTLAND BAY",
      "eventStart": "2023-11-14T16:45:00",
      "eventStop": "2023-11-14T17:00:00",
      "duration": 15,
      "status": "Not Genuine",
      "associatedSiteId": 115498,
      "outfallName": "NORTON TRANSFER IOW",
      "isImpacting": true,
      "overFlowSiteId": 0,
      "historicSpillsList": []
    },
    {
      "id": 344723114,
      "eventId": 908570,
      "siteUnitNumber": 12615,
      "bathingSite": "COLWELL BAY",
      "eventStart": "2023-11-14T16:15:30",
      "eventStop": "2023-11-14T16:43:11",
      "duration": 27,
      "status": "Genuine",
      "associatedSiteId": 115498,
      "outfallName": "NORTON TRANSFER IOW",
      "isImpacting": true,
      "overFlowSiteId": 0,
      "historicSpillsList": [
        {
          "id": 344723114,
          "eventId": 908570,
          "siteUnitNumber": 12615,
          "bathingSite": "COLWELL BAY",
          "eventStart": "2023-11-14T16:15:30",
          "eventStop": "2023-11-14T16:43:11",
          "duration": 27,
          "status": "Genuine",
          "associatedSiteId": 115498,
          "outfallName": "NORTON TRANSFER IOW",
          "isImpacting": true,
          "overFlowSiteId": 109524
        },
        {
          "id": 344723115,
          "eventId": 908570,
          "siteUnitNumber": 12614,
          "bathingSite": "TOTLAND BAY",
          "eventStart": "2023-11-14T16:15:30",
          "eventStop": "2023-11-14T16:43:11",
          "duration": 27,
          "status": "Genuine",
          "associatedSiteId": 115498,
          "outfallName": "NORTON TRANSFER IOW",
          "isImpacting": true,
          "overFlowSiteId": 109524,
          "historicSpillsList": []
        }
      ]
    },
    {
      "id": 344710740,
      "eventId": 908588,
      "siteUnitNumber": 12575,
      "bathingSite": "HASTINGS PELHAM BEACH",
      "eventStart": "2023-11-14T16:38:00",
      "eventStop": "2023-11-14T16:43:00",
      "duration": 5,
      "status": "Genuine",
      "associatedSiteId": 109982,
      "outfallName": "COOMBS HASTINGS",
      "isImpacting": false,
      "overFlowSiteId": 0,
      "historicSpillsList": []
    },
    {
      "id": 344687768,
      "eventId": 908507,
      "siteUnitNumber": 12551,
      "bathingSite": "HERNE BAY",
      "eventStart": "2023-11-14T15:04:00",
      "eventStop": "2023-11-14T16:37:00",
      "duration": 93,
      "status": "Genuine",
      "associatedSiteId": 109676,
      "outfallName": "KINGS HALL HERNE BAY A",
      "isImpacting": true,
      "overFlowSiteId": 0,
      "historicSpillsList": [
        {
          "id": 344687768,
          "eventId": 908507,
          "siteUnitNumber": 12551,
          "bathingSite": "HERNE BAY",
          "eventStart": "2023-11-14T15:04:00",
          "eventStop": "2023-11-14T16:37:00",
          "duration": 93,
          "status": "Genuine",
          "associatedSiteId": 109676,
          "outfallName": "KINGS HALL HERNE BAY A",
          "isImpacting": true,
          "overFlowSiteId": 108096
        }
      ]
    },
    {
      "id": 344710287,
      "eventId": 908219,
      "siteUnitNumber": 12595,
      "bathingSite": "BOGNOR REGIS (ALDWICK)",
      "eventStart": "2023-11-14T14:46:00",
      "eventStop": "2023-11-14T16:30:00",
      "duration": 104,
      "status": "Genuine",
      "associatedSiteId": 109972,
      "outfallName": "BOGNOR MAIN",
      "isImpacting": true,
      "overFlowSiteId": 0,
      "historicSpillsList": [
        {
          "id": 344710292,
          "eventId": 908219,
          "siteUnitNumber": 12594,
          "bathingSite": "BOGNOR REGIS EAST",
          "eventStart": "2023-11-14T14:46:00",
          "eventStop": "2023-11-14T16:30:00",
          "duration": 104,
          "status": "Genuine",
          "associatedSiteId": 109972,
          "outfallName": "BOGNOR MAIN",
          "isImpacting": true,
          "overFlowSiteId": 107412,
          "historicSpillsList": []
        }
      ]
    },
    {
      "id": 344723110,
      "eventId": 908600,
      "siteUnitNumber": 12614,
      "bathingSite": "TOTLAND BAY",
      "eventStart": "2023-11-14T08:24:00",
      "eventStop": "2023-11-14T16:26:00",
      "duration": 482,
      "status": "Genuine",
      "associatedSiteId": 115498,
      "outfallName": "NORTON TRANSFER IOW",
      "isImpacting": true,
      "overFlowSiteId": 0,
      "historicSpillsList": [
        {
          "id": 344723110,
          "eventId": 908600,
          "siteUnitNumber": 12614,
          "bathingSite": "TOTLAND BAY",
          "eventStart": "2023-11-14T08:24:00",
          "eventStop": "2023-11-14T16:26:00",
          "duration": 482,
          "status": "Genuine",
          "associatedSiteId": 115498,
          "outfallName": "NORTON TRANSFER IOW",
          "isImpacting": true,
          "overFlowSiteId": 108544
        },
        {
          "id": 344723111,
          "eventId": 908600,
          "siteUnitNumber": 12615,
          "bathingSite": "COLWELL BAY",
          "eventStart": "2023-11-14T08:24:00",
          "eventStop": "2023-11-14T16:26:00",
          "duration": 482,
          "status": "Genuine",
          "associatedSiteId": 115498,
          "outfallName": "NORTON TRANSFER IOW",
          "isImpacting": true,
          "overFlowSiteId": 108544,
          "historicSpillsList": []
        }
      ]
    },
    {
      "id": 344723116,
      "eventId": 908568,
      "siteUnitNumber": 12614,
      "bathingSite": "TOTLAND BAY",
      "eventStart": "2023-11-14T16:06:42",
      "eventStop": "2023-11-14T16:13:21",
      "duration": 6,
      "status": "Genuine",
      "associatedSiteId": 115498,
      "outfallName": "NORTON TRANSFER IOW",
      "isImpacting": true,
      "overFlowSiteId": 0,
      "historicSpillsList": [
        {
          "id": 344723116,
          "eventId": 908568,
          "siteUnitNumber": 12614,
          "bathingSite": "TOTLAND BAY",
          "eventStart": "2023-11-14T16:06:42",
          "eventStop": "2023-11-14T16:13:21",
          "duration": 6,
          "status": "Genuine",
          "associatedSiteId": 115498,
          "outfallName": "NORTON TRANSFER IOW",
          "isImpacting": true,
          "overFlowSiteId": 109524
        },
        {
          "id": 344723117,
          "eventId": 908568,
          "siteUnitNumber": 12615,
          "bathingSite": "COLWELL BAY",
          "eventStart": "2023-11-14T16:06:42",
          "eventStop": "2023-11-14T16:13:21",
          "duration": 6,
          "status": "Genuine",
          "associatedSiteId": 115498,
          "outfallName": "NORTON TRANSFER IOW",
          "isImpacting": true,
          "overFlowSiteId": 109524,
          "historicSpillsList": []
        }
      ]
    },
    {
      "id": 344703560,
      "eventId": 908564,
      "siteUnitNumber": 12590,
      "bathingSite": "WORTHING",
      "eventStart": "2023-11-14T15:13:56",
      "eventStop": "2023-11-14T16:05:55",
      "duration": 51,
      "status": "Not Genuine",
      "associatedSiteId": 109912,
      "outfallName": "SEA LANE GORING",
      "isImpacting": false,
      "overFlowSiteId": 0,
      "historicSpillsList": []
    },
    {
      "id": 344723118,
      "eventId": 908541,
      "siteUnitNumber": 12614,
      "bathingSite": "TOTLAND BAY",
      "eventStart": "2023-11-14T15:59:03",
      "eventStop": "2023-11-14T16:03:15",
      "duration": 4,
      "status": "Genuine",
      "associatedSiteId": 115498,
      "outfallName": "NORTON TRANSFER IOW",
      "isImpacting": true,
      "overFlowSiteId": 0,
      "historicSpillsList": [
        {
          "id": 344723118,
          "eventId": 908541,
          "siteUnitNumber": 12614,
          "bathingSite": "TOTLAND BAY",
          "eventStart": "2023-11-14T15:59:03",
          "eventStop": "2023-11-14T16:03:15",
          "duration": 4,
          "status": "Genuine",
          "associatedSiteId": 115498,
          "outfallName": "NORTON TRANSFER IOW",
          "isImpacting": true,
          "overFlowSiteId": 109524
        },
        {
          "id": 344723119,
          "eventId": 908541,
          "siteUnitNumber": 12615,
          "bathingSite": "COLWELL BAY",
          "eventStart": "2023-11-14T15:59:03",
          "eventStop": "2023-11-14T16:03:15",
          "duration": 4,
          "status": "Genuine",
          "associatedSiteId": 115498,
          "outfallName": "NORTON TRANSFER IOW",
          "isImpacting": true,
          "overFlowSiteId": 109524,
          "historicSpillsList": []
        }
      ]
    },
    {
      "id": 344685391,
      "eventId": 911384,
      "siteUnitNumber": 12616,
      "bathingSite": "GURNARD",
      "eventStart": "2023-11-14T06:30:00",
      "eventStop": "2023-11-14T16:03:00",
      "duration": 573,
      "status": "Genuine",
      "associatedSiteId": 109652,
      "outfallName": "WOODVALE TRANSFER NO1",
      "isImpacting": true,
      "overFlowSiteId": 0,
      "historicSpillsList": [
        {
          "id": 344685391,
          "eventId": 911384,
          "siteUnitNumber": 12616,
          "bathingSite": "GURNARD",
          "eventStart": "2023-11-14T06:30:00",
          "eventStop": "2023-11-14T16:03:00",
          "duration": 573,
          "status": "Genuine",
          "associatedSiteId": 109652,
          "outfallName": "WOODVALE TRANSFER NO1",
          "isImpacting": true,
          "overFlowSiteId": 115966
        },
        {
          "id": 344685392,
          "eventId": 911384,
          "siteUnitNumber": 12617,
          "bathingSite": "COWES",
          "eventStart": "2023-11-14T06:30:00",
          "eventStop": "2023-11-14T16:03:00",
          "duration": 573,
          "status": "Genuine",
          "associatedSiteId": 109652,
          "outfallName": "WOODVALE TRANSFER NO1",
          "isImpacting": true,
          "overFlowSiteId": 115966,
          "historicSpillsList": []
        }
      ]
    },
    {
      "id": 344705050,
      "eventId": 908578,
      "siteUnitNumber": 12619,
      "bathingSite": "SEAGROVE",
      "eventStart": "2023-11-14T11:46:00",
      "eventStop": "2023-11-14T15:59:00",
      "duration": 253,
      "status": "Genuine",
      "associatedSiteId": 109938,
      "outfallName": "THE POINT BEMBRIDGE",
      "isImpacting": true,
      "overFlowSiteId": 0,
      "historicSpillsList": [
        {
          "id": 344705051,
          "eventId": 908578,
          "siteUnitNumber": 12620,
          "bathingSite": "ST HELENS",
          "eventStart": "2023-11-14T11:46:00",
          "eventStop": "2023-11-14T15:59:00",
          "duration": 253,
          "status": "Genuine",
          "associatedSiteId": 109938,
          "outfallName": "THE POINT BEMBRIDGE",
          "isImpacting": true,
          "overFlowSiteId": 110194,
          "historicSpillsList": []
        }
      ]
    },
    {
      "id": 344684739,
      "eventId": 908361,
      "siteUnitNumber": 12546,
      "bathingSite": "LEYSDOWN",
      "eventStart": "2023-11-14T13:28:00",
      "eventStop": "2023-11-14T15:58:00",
      "duration": 150,
      "status": "Genuine",
      "associatedSiteId": 109613,
      "outfallName": "BARROWS BROOK EASTCHURCH",
      "isImpacting": true,
      "overFlowSiteId": 0,
      "historicSpillsList": [
        {
          "id": 344684739,
          "eventId": 908361,
          "siteUnitNumber": 12546,
          "bathingSite": "LEYSDOWN",
          "eventStart": "2023-11-14T13:28:00",
          "eventStop": "2023-11-14T15:58:00",
          "duration": 150,
          "status": "Genuine",
          "associatedSiteId": 109613,
          "outfallName": "BARROWS BROOK EASTCHURCH",
          "isImpacting": true,
          "overFlowSiteId": 108109
        }
      ]
    },
    {
      "id": 344710738,
      "eventId": 908530,
      "siteUnitNumber": 12575,
      "bathingSite": "HASTINGS PELHAM BEACH",
      "eventStart": "2023-11-14T15:51:00",
      "eventStop": "2023-11-14T15:57:00",
      "duration": 6,
      "status": "Genuine",
      "associatedSiteId": 109982,
      "outfallName": "COOMBS HASTINGS",
      "isImpacting": true,
      "overFlowSiteId": 0,
      "historicSpillsList": [
        {
          "id": 344710739,
          "eventId": 908530,
          "siteUnitNumber": 12576,
          "bathingSite": "ST LEONARDS",
          "eventStart": "2023-11-14T15:51:00",
          "eventStop": "2023-11-14T15:57:00",
          "duration": 6,
          "status": "Genuine",
          "associatedSiteId": 109982,
          "outfallName": "COOMBS HASTINGS",
          "isImpacting": true,
          "overFlowSiteId": 110211,
          "historicSpillsList": []
        }
      ]
    },
    {
      "id": 344723120,
      "eventId": 908533,
      "siteUnitNumber": 12615,
      "bathingSite": "COLWELL BAY",
      "eventStart": "2023-11-14T15:46:32",
      "eventStop": "2023-11-14T15:55:54",
      "duration": 9,
      "status": "Genuine",
      "associatedSiteId": 115498,
      "outfallName": "NORTON TRANSFER IOW",
      "isImpacting": true,
      "overFlowSiteId": 0,
      "historicSpillsList": [
        {
          "id": 344723120,
          "eventId": 908533,
          "siteUnitNumber": 12615,
          "bathingSite": "COLWELL BAY",
          "eventStart": "2023-11-14T15:46:32",
          "eventStop": "2023-11-14T15:55:54",
          "duration": 9,
          "status": "Genuine",
          "associatedSiteId": 115498,
          "outfallName": "NORTON TRANSFER IOW",
          "isImpacting": true,
          "overFlowSiteId": 109524
        },
        {
          "id": 344723121,
          "eventId": 908533,
          "siteUnitNumber": 12614,
          "bathingSite": "TOTLAND BAY",
          "eventStart": "2023-11-14T15:46:32",
          "eventStop": "2023-11-14T15:55:54",
          "duration": 9,
          "status": "Genuine",
          "associatedSiteId": 115498,
          "outfallName": "NORTON TRANSFER IOW",
          "isImpacting": true,
          "overFlowSiteId": 109524,
          "historicSpillsList": []
        }
      ]
    },
    {
      "id": 344687864,
      "eventId": 908733,
      "siteUnitNumber": 12549,
      "bathingSite": "HERNE BAY CENTRAL",
      "eventStart": "2023-11-14T13:00:00",
      "eventStop": "2023-11-14T15:45:00",
      "duration": 165,
      "status": "Not Genuine",
      "associatedSiteId": 109677,
      "outfallName": "EDDINGTON LANE HERNE BAY NO1",
      "isImpacting": false,
      "overFlowSiteId": 0,
      "historicSpillsList": []
    },
    {
      "id": 344723122,
      "eventId": 908525,
      "siteUnitNumber": 12614,
      "bathingSite": "TOTLAND BAY",
      "eventStart": "2023-11-14T15:33:53",
      "eventStop": "2023-11-14T15:43:17",
      "duration": 9,
      "status": "Genuine",
      "associatedSiteId": 115498,
      "outfallName": "NORTON TRANSFER IOW",
      "isImpacting": true,
      "overFlowSiteId": 0,
      "historicSpillsList": [
        {
          "id": 344723122,
          "eventId": 908525,
          "siteUnitNumber": 12614,
          "bathingSite": "TOTLAND BAY",
          "eventStart": "2023-11-14T15:33:53",
          "eventStop": "2023-11-14T15:43:17",
          "duration": 9,
          "status": "Genuine",
          "associatedSiteId": 115498,
          "outfallName": "NORTON TRANSFER IOW",
          "isImpacting": true,
          "overFlowSiteId": 109524
        },
        {
          "id": 344723123,
          "eventId": 908525,
          "siteUnitNumber": 12615,
          "bathingSite": "COLWELL BAY",
          "eventStart": "2023-11-14T15:33:53",
          "eventStop": "2023-11-14T15:43:17",
          "duration": 9,
          "status": "Genuine",
          "associatedSiteId": 115498,
          "outfallName": "NORTON TRANSFER IOW",
          "isImpacting": true,
          "overFlowSiteId": 109524,
          "historicSpillsList": []
        }
      ]
    },
    {
      "id": 344687942,
      "eventId": 908766,
      "siteUnitNumber": 12549,
      "bathingSite": "HERNE BAY CENTRAL",
      "eventStart": "2023-11-14T15:31:00",
      "eventStop": "2023-11-14T15:33:00",
      "duration": 2,
      "status": "Genuine",
      "associatedSiteId": 109678,
      "outfallName": "EDDINGTON LANE HERNE BAY NO2",
      "isImpacting": true,
      "overFlowSiteId": 0,
      "historicSpillsList": [
        {
          "id": 344687943,
          "eventId": 908766,
          "siteUnitNumber": 12551,
          "bathingSite": "HERNE BAY",
          "eventStart": "2023-11-14T15:31:00",
          "eventStop": "2023-11-14T15:33:00",
          "duration": 2,
          "status": "Genuine",
          "associatedSiteId": 109678,
          "outfallName": "EDDINGTON LANE HERNE BAY NO2",
          "isImpacting": true,
          "overFlowSiteId": 108093,
          "historicSpillsList": []
        }
      ]
    },
    {
      "id": 344723124,
      "eventId": 908498,
      "siteUnitNumber": 12614,
      "bathingSite": "TOTLAND BAY",
      "eventStart": "2023-11-14T15:22:00",
      "eventStop": "2023-11-14T15:32:24",
      "duration": 10,
      "status": "Genuine",
      "associatedSiteId": 115498,
      "outfallName": "NORTON TRANSFER IOW",
      "isImpacting": true,
      "overFlowSiteId": 0,
      "historicSpillsList": [
        {
          "id": 344723124,
          "eventId": 908498,
          "siteUnitNumber": 12614,
          "bathingSite": "TOTLAND BAY",
          "eventStart": "2023-11-14T15:22:00",
          "eventStop": "2023-11-14T15:32:24",
          "duration": 10,
          "status": "Genuine",
          "associatedSiteId": 115498,
          "outfallName": "NORTON TRANSFER IOW",
          "isImpacting": true,
          "overFlowSiteId": 109524
        },
        {
          "id": 344723125,
          "eventId": 908498,
          "siteUnitNumber": 12615,
          "bathingSite": "COLWELL BAY",
          "eventStart": "2023-11-14T15:22:00",
          "eventStop": "2023-11-14T15:32:24",
          "duration": 10,
          "status": "Genuine",
          "associatedSiteId": 115498,
          "outfallName": "NORTON TRANSFER IOW",
          "isImpacting": true,
          "overFlowSiteId": 109524,
          "historicSpillsList": []
        }
      ]
    }
  ]
}