{
  "currentPage": 228,
  "totalItems": 18701,
  "totalPages": 749,
  "items": [
    {
      "id": 343965587,
      "eventId": 843597,
      "siteUnitNumber": 12616,
      "bathingSite": "GURNARD",
      "eventStart": "2023-08-02T11:37:00",
      "eventStop": "2023-08-02T14:31:00",
      "duration": 174,
      "status": "Genuine",
      "associatedSiteId": 109704,
      "outfallName": "EGYPT POINT COWES",
      "isImpacting": true,
      "overFlowSiteId": 0,
      "historicSpillsList": [
        {
          "id": 343965588,
          "eventId": 843597,
          "siteUnitNumber": 12617,
          "bathingSite": "COWES",
          "eventStart": "2023-08-02T11:37:00",
          "eventStop": "2023-08-02T14:31:00",
          "duration": 174,
          "status": "Genuine",
          "associatedSiteId": 109704,
          "outfallName": "EGYPT POINT COWES",
          "isImpacting": true,
          "overFlowSiteId": 116213,
          "historicSpillsList": []
        }
      ]
    },
    {
      "id": 343985273,
      "eventId": 844116,
      "siteUnitNumber": 12591,
      "bathingSite": "LITTLEHAMPTON",
      "eventStart": "2023-08-02T14:14:00",
      "eventStop": "2023-08-02T14:17:00",
      "duration": 3,
      "status": "Genuine",
      "associatedSiteId": 109965,
      "outfallName": "SEA ROAD LITTLEHAMPTON",
      "isImpacting": true,
      "overFlowSiteId": 0,
      "historicSpillsList": [
        {
          "id": 343985273,
          "eventId": 844116,
          "siteUnitNumber": 12591,
          "bathingSite": "LITTLEHAMPTON",
          "eventStart": "2023-08-02T14:14:00",
          "eventStop": "2023-08-02T14:17:00",
          "duration": 3,
          "status": "Genuine",
          "associatedSiteId": 109965,
          "outfallName": "SEA ROAD LITTLEHAMPTON",
          "isImpacting": true,
          "overFlowSiteId": 109368
        }
      ]
    },
    {
      "id": 343995655,
      "eventId": 843728,
      "siteUnitNumber": 12616,
      "bathingSite": "GURNARD",
      "eventStart": "2023-08-02T13:21:00",
      "eventStop": "2023-08-02T14:17:00",
      "duration": 56,
      "status": "Genuine",
      "associatedSiteId": 110701,
      "outfallName": "TERMINUS ROAD COWES 2",
      "isImpacting": true,
      "overFlowSiteId": 0,
      "historicSpillsList": [
        {
          "id": 343995655,
          "eventId": 843728,
          "siteUnitNumber": 12616,
          "bathingSite": "GURNARD",
          "eventStart": "2023-08-02T13:21:00",
          "eventStop": "2023-08-02T14:17:00",
          "duration": 56,
          "status": "Genuine",
          "associatedSiteId": 110701,
          "outfallName": "TERMINUS ROAD COWES 2",
          "isImpacting": true,
          "overFlowSiteId": 108562
        },
        {
          "id": 343995656,
          "eventId": 843728,
          "siteUnitNumber": 12617,
          "bathingSite": "COWES",
          "eventStart": "2023-08-02T13:21:00",
          "eventStop": "2023-08-02T14:17:00",
          "duration": 56,
          "status": "Genuine",
          "associatedSiteId": 110701,
          "outfallName": "TERMINUS ROAD COWES 2",
          "isImpacting": true,
          "overFlowSiteId": 108562,
          "historicSpillsList": []
        }
      ]
    },
    {
      "id": 343966537,
      "eventId": 843639,
      "siteUnitNumber": 12616,
      "bathingSite": "GURNARD",
      "eventStart": "2023-08-02T13:37:28",
      "eventStop": "2023-08-02T13:46:48",
      "duration": 9,
      "status": "Genuine",
      "associatedSiteId": 109706,
      "outfallName": "HIGH STREET COWES",
      "isImpacting": false,
      "overFlowSiteId": 0,
      "historicSpillsList": []
    },
    {
      "id": 343985931,
      "eventId": 843612,
      "siteUnitNumber": 12591,
      "bathingSite": "LITTLEHAMPTON",
      "eventStart": "2023-08-02T12:00:00",
      "eventStop": "2023-08-02T13:15:00",
      "duration": 75,
      "status": "Genuine",
      "associatedSiteId": 109968,
      "outfallName": "FORD ROAD ARUNDEL",
      "isImpacting": true,
      "overFlowSiteId": 0,
      "historicSpillsList": [
        {
          "id": 343985931,
          "eventId": 843612,
          "siteUnitNumber": 12591,
          "bathingSite": "LITTLEHAMPTON",
          "eventStart": "2023-08-02T12:00:00",
          "eventStop": "2023-08-02T13:15:00",
          "duration": 75,
          "status": "Genuine",
          "associatedSiteId": 109968,
          "outfallName": "FORD ROAD ARUNDEL",
          "isImpacting": true,
          "overFlowSiteId": 108002
        }
      ]
    },
    {
      "id": 343983470,
      "eventId": 843729,
      "siteUnitNumber": 12594,
      "bathingSite": "BOGNOR REGIS EAST",
      "eventStart": "2023-08-02T11:30:00",
      "eventStop": "2023-08-02T13:07:00",
      "duration": 97,
      "status": "Genuine",
      "associatedSiteId": 109959,
      "outfallName": "WEST PARK BOGNOR REGIS",
      "isImpacting": false,
      "overFlowSiteId": 0,
      "historicSpillsList": []
    },
    {
      "id": 343966539,
      "eventId": 843637,
      "siteUnitNumber": 12616,
      "bathingSite": "GURNARD",
      "eventStart": "2023-08-02T12:49:57",
      "eventStop": "2023-08-02T12:59:17",
      "duration": 9,
      "status": "Genuine",
      "associatedSiteId": 109706,
      "outfallName": "HIGH STREET COWES",
      "isImpacting": false,
      "overFlowSiteId": 0,
      "historicSpillsList": []
    },
    {
      "id": 343977814,
      "eventId": 843610,
      "siteUnitNumber": 12576,
      "bathingSite": "ST LEONARDS",
      "eventStart": "2023-08-02T12:24:34",
      "eventStop": "2023-08-02T12:35:03",
      "duration": 10,
      "status": "Genuine",
      "associatedSiteId": 109903,
      "outfallName": "BEXHILL & HASTINGS NO2",
      "isImpacting": true,
      "overFlowSiteId": 0,
      "historicSpillsList": [
        {
          "id": 343977814,
          "eventId": 843610,
          "siteUnitNumber": 12576,
          "bathingSite": "ST LEONARDS",
          "eventStart": "2023-08-02T12:24:34",
          "eventStop": "2023-08-02T12:35:03",
          "duration": 10,
          "status": "Genuine",
          "associatedSiteId": 109903,
          "outfallName": "BEXHILL & HASTINGS NO2",
          "isImpacting": true,
          "overFlowSiteId": 115398
        },
        {
          "id": 343977815,
          "eventId": 843610,
          "siteUnitNumber": 12577,
          "bathingSite": "BEXHILL",
          "eventStart": "2023-08-02T12:24:34",
          "eventStop": "2023-08-02T12:35:03",
          "duration": 10,
          "status": "Genuine",
          "associatedSiteId": 109903,
          "outfallName": "BEXHILL & HASTINGS NO2",
          "isImpacting": true,
          "overFlowSiteId": 115398,
          "historicSpillsList": []
        }
      ]
    },
    {
      "id": 343995657,
      "eventId": 843727,
      "siteUnitNumber": 12616,
      "bathingSite": "GURNARD",
      "eventStart": "2023-08-02T12:09:00",
      "eventStop": "2023-08-02T12:31:00",
      "duration": 22,
      "status": "Genuine",
      "associatedSiteId": 110701,
      "outfallName": "TERMINUS ROAD COWES 2",
      "isImpacting": true,
      "overFlowSiteId": 0,
      "historicSpillsList": [
        {
          "id": 343995657,
          "eventId": 843727,
          "siteUnitNumber": 12616,
          "bathingSite": "GURNARD",
          "eventStart": "2023-08-02T12:09:00",
          "eventStop": "2023-08-02T12:31:00",
          "duration": 22,
          "status": "Genuine",
          "associatedSiteId": 110701,
          "outfallName": "TERMINUS ROAD COWES 2",
          "isImpacting": true,
          "overFlowSiteId": 108562
        },
        {
          "id": 343995658,
          "eventId": 843727,
          "siteUnitNumber": 12617,
          "bathingSite": "COWES",
          "eventStart": "2023-08-02T12:09:00",
          "eventStop": "2023-08-02T12:31:00",
          "duration": 22,
          "status": "Genuine",
          "associatedSiteId": 110701,
          "outfallName": "TERMINUS ROAD COWES 2",
          "isImpacting": true,
          "overFlowSiteId": 108562,
          "historicSpillsList": []
        }
      ]
    },
    {
      "id": 343966541,
      "eventId": 843636,
      "siteUnitNumber": 12616,
      "bathingSite": "GURNARD",
      "eventStart": "2023-08-02T12:03:17",
      "eventStop": "2023-08-02T12:13:46",
      "duration": 10,
      "status": "Genuine",
      "associatedSiteId": 109706,
      "outfallName": "HIGH STREET COWES",
      "isImpacting": false,
      "overFlowSiteId": 0,
      "historicSpillsList": []
    },
    {
      "id": 343977820,
      "eventId": 843342,
      "siteUnitNumber": 12576,
      "bathingSite": "ST LEONARDS",
      "eventStart": "2023-08-02T02:35:23",
      "eventStop": "2023-08-02T11:43:09",
      "duration": 547,
      "status": "Genuine",
      "associatedSiteId": 109903,
      "outfallName": "BEXHILL & HASTINGS NO2",
      "isImpacting": true,
      "overFlowSiteId": 0,
      "historicSpillsList": [
        {
          "id": 343977820,
          "eventId": 843342,
          "siteUnitNumber": 12576,
          "bathingSite": "ST LEONARDS",
          "eventStart": "2023-08-02T02:35:23",
          "eventStop": "2023-08-02T11:43:09",
          "duration": 547,
          "status": "Genuine",
          "associatedSiteId": 109903,
          "outfallName": "BEXHILL & HASTINGS NO2",
          "isImpacting": true,
          "overFlowSiteId": 115398
        },
        {
          "id": 343977821,
          "eventId": 843342,
          "siteUnitNumber": 12577,
          "bathingSite": "BEXHILL",
          "eventStart": "2023-08-02T02:35:23",
          "eventStop": "2023-08-02T11:43:09",
          "duration": 547,
          "status": "Genuine",
          "associatedSiteId": 109903,
          "outfallName": "BEXHILL & HASTINGS NO2",
          "isImpacting": true,
          "overFlowSiteId": 115398,
          "historicSpillsList": []
        }
      ]
    },
    {
      "id": 343976348,
      "eventId": 843406,
      "siteUnitNumber": 12568,
      "bathingSite": "SANDGATE",
      "eventStart": "2023-08-02T03:40:00",
      "eventStop": "2023-08-02T07:05:00",
      "duration": 205,
      "status": "Genuine",
      "associatedSiteId": 109897,
      "outfallName": "RANGE ROAD HYTHE K LONG",
      "isImpacting": true,
      "overFlowSiteId": 0,
      "historicSpillsList": [
        {
          "id": 343976348,
          "eventId": 843406,
          "siteUnitNumber": 12568,
          "bathingSite": "SANDGATE",
          "eventStart": "2023-08-02T03:40:00",
          "eventStop": "2023-08-02T07:05:00",
          "duration": 205,
          "status": "Genuine",
          "associatedSiteId": 109897,
          "outfallName": "RANGE ROAD HYTHE K LONG",
          "isImpacting": true,
          "overFlowSiteId": 116048
        },
        {
          "id": 343976349,
          "eventId": 843406,
          "siteUnitNumber": 12569,
          "bathingSite": "HYTHE",
          "eventStart": "2023-08-02T03:40:00",
          "eventStop": "2023-08-02T07:05:00",
          "duration": 205,
          "status": "Genuine",
          "associatedSiteId": 109897,
          "outfallName": "RANGE ROAD HYTHE K LONG",
          "isImpacting": true,
          "overFlowSiteId": 116048,
          "historicSpillsList": []
        }
      ]
    },
    {
      "id": 343988966,
      "eventId": 843468,
      "siteUnitNumber": 12622,
      "bathingSite": "WHITECLIFF BAY",
      "eventStart": "2023-08-02T05:27:00",
      "eventStop": "2023-08-02T05:58:00",
      "duration": 31,
      "status": "Genuine",
      "associatedSiteId": 110096,
      "outfallName": "SANDOWN NO1",
      "isImpacting": false,
      "overFlowSiteId": 0,
      "historicSpillsList": []
    },
    {
      "id": 343972431,
      "eventId": 843395,
      "siteUnitNumber": 12548,
      "bathingSite": "TANKERTON",
      "eventStart": "2023-08-02T03:22:13",
      "eventStop": "2023-08-02T05:57:08",
      "duration": 154,
      "status": "Genuine",
      "associatedSiteId": 109830,
      "outfallName": "SWALECLIFFE NO1",
      "isImpacting": true,
      "overFlowSiteId": 0,
      "historicSpillsList": [
        {
          "id": 343972432,
          "eventId": 843395,
          "siteUnitNumber": 12549,
          "bathingSite": "HERNE BAY CENTRAL",
          "eventStart": "2023-08-02T03:22:13",
          "eventStop": "2023-08-02T05:57:08",
          "duration": 154,
          "status": "Genuine",
          "associatedSiteId": 109830,
          "outfallName": "SWALECLIFFE NO1",
          "isImpacting": true,
          "overFlowSiteId": 115444,
          "historicSpillsList": []
        }
      ]
    },
    {
      "id": 343997039,
      "eventId": 843310,
      "siteUnitNumber": 12582,
      "bathingSite": "SEAFORD",
      "eventStart": "2023-08-02T01:50:38",
      "eventStop": "2023-08-02T05:44:12",
      "duration": 233,
      "status": "Genuine",
      "associatedSiteId": 110920,
      "outfallName": "NEWHAVEN",
      "isImpacting": false,
      "overFlowSiteId": 0,
      "historicSpillsList": []
    },
    {
      "id": 343960818,
      "eventId": 843477,
      "siteUnitNumber": 12544,
      "bathingSite": "SHEERNESS",
      "eventStart": "2023-08-02T03:32:00",
      "eventStop": "2023-08-02T05:02:00",
      "duration": 90,
      "status": "Genuine",
      "associatedSiteId": 109614,
      "outfallName": "BRIELLE WAY WESTMINSTER",
      "isImpacting": true,
      "overFlowSiteId": 0,
      "historicSpillsList": [
        {
          "id": 343960818,
          "eventId": 843477,
          "siteUnitNumber": 12544,
          "bathingSite": "SHEERNESS",
          "eventStart": "2023-08-02T03:32:00",
          "eventStop": "2023-08-02T05:02:00",
          "duration": 90,
          "status": "Genuine",
          "associatedSiteId": 109614,
          "outfallName": "BRIELLE WAY WESTMINSTER",
          "isImpacting": true,
          "overFlowSiteId": 108810
        }
      ]
    },
    {
      "id": 343988969,
      "eventId": 843467,
      "siteUnitNumber": 12622,
      "bathingSite": "WHITECLIFF BAY",
      "eventStart": "2023-08-02T01:22:00",
      "eventStop": "2023-08-02T04:43:00",
      "duration": 201,
      "status": "Genuine",
      "associatedSiteId": 110096,
      "outfallName": "SANDOWN NO1",
      "isImpacting": true,
      "overFlowSiteId": 0,
      "historicSpillsList": [
        {
          "id": 343988969,
          "eventId": 843467,
          "siteUnitNumber": 12622,
          "bathingSite": "WHITECLIFF BAY",
          "eventStart": "2023-08-02T01:22:00",
          "eventStop": "2023-08-02T04:43:00",
          "duration": 201,
          "status": "Genuine",
          "associatedSiteId": 110096,
          "outfallName": "SANDOWN NO1",
          "isImpacting": true,
          "overFlowSiteId": 115453
        },
        {
          "id": 343988970,
          "eventId": 843467,
          "siteUnitNumber": 12623,
          "bathingSite": "YAVERLAND",
          "eventStart": "2023-08-02T01:22:00",
          "eventStop": "2023-08-02T04:43:00",
          "duration": 201,
          "status": "Genuine",
          "associatedSiteId": 110096,
          "outfallName": "SANDOWN NO1",
          "isImpacting": true,
          "overFlowSiteId": 115453,
          "historicSpillsList": []
        },
        {
          "id": 343988971,
          "eventId": 843467,
          "siteUnitNumber": 12624,
          "bathingSite": "SANDOWN",
          "eventStart": "2023-08-02T01:22:00",
          "eventStop": "2023-08-02T04:43:00",
          "duration": 201,
          "status": "Genuine",
          "associatedSiteId": 110096,
          "outfallName": "SANDOWN NO1",
          "isImpacting": true,
          "overFlowSiteId": 115453,
          "historicSpillsList": []
        }
      ]
    },
    {
      "id": 343960912,
      "eventId": 843393,
      "siteUnitNumber": 12544,
      "bathingSite": "SHEERNESS",
      "eventStart": "2023-08-02T03:44:00",
      "eventStop": "2023-08-02T03:46:00",
      "duration": 2,
      "status": "Genuine",
      "associatedSiteId": 109616,
      "outfallName": "SOUTH STREET QUEENBOROUGH",
      "isImpacting": true,
      "overFlowSiteId": 0,
      "historicSpillsList": [
        {
          "id": 343960912,
          "eventId": 843393,
          "siteUnitNumber": 12544,
          "bathingSite": "SHEERNESS",
          "eventStart": "2023-08-02T03:44:00",
          "eventStop": "2023-08-02T03:46:00",
          "duration": 2,
          "status": "Genuine",
          "associatedSiteId": 109616,
          "outfallName": "SOUTH STREET QUEENBOROUGH",
          "isImpacting": true,
          "overFlowSiteId": 108732
        }
      ]
    },
    {
      "id": 343974457,
      "eventId": 843377,
      "siteUnitNumber": 12544,
      "bathingSite": "SHEERNESS",
      "eventStart": "2023-08-02T03:16:00",
      "eventStop": "2023-08-02T03:38:00",
      "duration": 22,
      "status": "Genuine",
      "associatedSiteId": 109869,
      "outfallName": "GRAIN NO2",
      "isImpacting": true,
      "overFlowSiteId": 0,
      "historicSpillsList": [
        {
          "id": 343974457,
          "eventId": 843377,
          "siteUnitNumber": 12544,
          "bathingSite": "SHEERNESS",
          "eventStart": "2023-08-02T03:16:00",
          "eventStop": "2023-08-02T03:38:00",
          "duration": 22,
          "status": "Genuine",
          "associatedSiteId": 109869,
          "outfallName": "GRAIN NO2",
          "isImpacting": true,
          "overFlowSiteId": 115411
        }
      ]
    },
    {
      "id": 343973321,
      "eventId": 843557,
      "siteUnitNumber": 12547,
      "bathingSite": "WEST BEACH WHITSTABLE",
      "eventStart": "2023-08-02T03:28:00",
      "eventStop": "2023-08-02T03:31:00",
      "duration": 3,
      "status": "Genuine",
      "associatedSiteId": 109831,
      "outfallName": "TANKERTON CIRCUS",
      "isImpacting": true,
      "overFlowSiteId": 0,
      "historicSpillsList": [
        {
          "id": 343973322,
          "eventId": 843557,
          "siteUnitNumber": 12548,
          "bathingSite": "TANKERTON",
          "eventStart": "2023-08-02T03:28:00",
          "eventStop": "2023-08-02T03:31:00",
          "duration": 3,
          "status": "Genuine",
          "associatedSiteId": 109831,
          "outfallName": "TANKERTON CIRCUS",
          "isImpacting": true,
          "overFlowSiteId": 103280,
          "historicSpillsList": []
        }
      ]
    },
    {
      "id": 343988543,
      "eventId": 843333,
      "siteUnitNumber": 12582,
      "bathingSite": "SEAFORD",
      "eventStart": "2023-08-02T02:36:28",
      "eventStop": "2023-08-02T03:04:17",
      "duration": 27,
      "status": "Genuine",
      "associatedSiteId": 110047,
      "outfallName": "CLIFF END SEAFORD",
      "isImpacting": true,
      "overFlowSiteId": 0,
      "historicSpillsList": [
        {
          "id": 343988543,
          "eventId": 843333,
          "siteUnitNumber": 12582,
          "bathingSite": "SEAFORD",
          "eventStart": "2023-08-02T02:36:28",
          "eventStop": "2023-08-02T03:04:17",
          "duration": 27,
          "status": "Genuine",
          "associatedSiteId": 110047,
          "outfallName": "CLIFF END SEAFORD",
          "isImpacting": true,
          "overFlowSiteId": 101257
        }
      ]
    },
    {
      "id": 343981655,
      "eventId": 843350,
      "siteUnitNumber": 12575,
      "bathingSite": "HASTINGS PELHAM BEACH",
      "eventStart": "2023-08-02T02:47:02",
      "eventStop": "2023-08-02T03:04:00",
      "duration": 16,
      "status": "Genuine",
      "associatedSiteId": 109950,
      "outfallName": "ST HELENS DOWN HASTINGS",
      "isImpacting": false,
      "overFlowSiteId": 0,
      "historicSpillsList": []
    },
    {
      "id": 343982268,
      "eventId": 843289,
      "siteUnitNumber": 12582,
      "bathingSite": "SEAFORD",
      "eventStart": "2023-08-02T02:36:00",
      "eventStop": "2023-08-02T02:59:00",
      "duration": 23,
      "status": "Genuine",
      "associatedSiteId": 109957,
      "outfallName": "PORTOBELLO BRIGHTON NO2",
      "isImpacting": true,
      "overFlowSiteId": 0,
      "historicSpillsList": [
        {
          "id": 343982269,
          "eventId": 843289,
          "siteUnitNumber": 12583,
          "bathingSite": "SALTDEAN",
          "eventStart": "2023-08-02T02:36:00",
          "eventStop": "2023-08-02T02:59:00",
          "duration": 23,
          "status": "Genuine",
          "associatedSiteId": 109957,
          "outfallName": "PORTOBELLO BRIGHTON NO2",
          "isImpacting": true,
          "overFlowSiteId": 116036,
          "historicSpillsList": []
        }
      ]
    },
    {
      "id": 343983476,
      "eventId": 843512,
      "siteUnitNumber": 12594,
      "bathingSite": "BOGNOR REGIS EAST",
      "eventStart": "2023-08-02T02:33:00",
      "eventStop": "2023-08-02T02:35:00",
      "duration": 2,
      "status": "Genuine",
      "associatedSiteId": 109959,
      "outfallName": "WEST PARK BOGNOR REGIS",
      "isImpacting": false,
      "overFlowSiteId": 0,
      "historicSpillsList": []
    },
    {
      "id": 343985934,
      "eventId": 843287,
      "siteUnitNumber": 12591,
      "bathingSite": "LITTLEHAMPTON",
      "eventStart": "2023-08-02T01:11:00",
      "eventStop": "2023-08-02T02:34:00",
      "duration": 83,
      "status": "Genuine",
      "associatedSiteId": 109968,
      "outfallName": "FORD ROAD ARUNDEL",
      "isImpacting": true,
      "overFlowSiteId": 0,
      "historicSpillsList": [
        {
          "id": 343985934,
          "eventId": 843287,
          "siteUnitNumber": 12591,
          "bathingSite": "LITTLEHAMPTON",
          "eventStart": "2023-08-02T01:11:00",
          "eventStop": "2023-08-02T02:34:00",
          "duration": 83,
          "status": "Genuine",
          "associatedSiteId": 109968,
          "outfallName": "FORD ROAD ARUNDEL",
          "isImpacting": true,
          "overFlowSiteId": 108002
        }
      ]
    }
  ]
}