{
  "currentPage": 561,
  "totalItems": 21025,
  "totalPages": 841,
  "items": [
    {
      "id": 344838449,
      "eventId": 632385,
      "siteUnitNumber": 12591,
      "bathingSite": "LITTLEHAMPTON",
      "eventStart": "2022-09-05T22:49:00",
      "eventStop": "2022-09-06T01:01:00",
      "duration": 132,
      "status": "Genuine",
      "associatedSiteId": 109977,
      "outfallName": "FORESHORE TANK LITTLEHAMPTON",
      "isImpacting": true,
      "overFlowSiteId": 0,
      "historicSpillsList": [
        {
          "id": 344838449,
          "eventId": 632385,
          "siteUnitNumber": 12591,
          "bathingSite": "LITTLEHAMPTON",
          "eventStart": "2022-09-05T22:49:00",
          "eventStop": "2022-09-06T01:01:00",
          "duration": 132,
          "status": "Genuine",
          "associatedSiteId": 109977,
          "outfallName": "FORESHORE TANK LITTLEHAMPTON",
          "isImpacting": true,
          "overFlowSiteId": 109390
        }
      ]
    },
    {
      "id": 344849714,
      "eventId": 628128,
      "siteUnitNumber": 12549,
      "bathingSite": "HERNE BAY CENTRAL",
      "eventStart": "2022-09-06T00:04:00",
      "eventStop": "2022-09-06T00:36:00",
      "duration": 32,
      "status": "Genuine",
      "associatedSiteId": 111724,
      "outfallName": "GAINSBOROUGH DRIVE HERNE BAY",
      "isImpacting": true,
      "overFlowSiteId": 0,
      "historicSpillsList": [
        {
          "id": 344849714,
          "eventId": 628128,
          "siteUnitNumber": 12549,
          "bathingSite": "HERNE BAY CENTRAL",
          "eventStart": "2022-09-06T00:04:00",
          "eventStop": "2022-09-06T00:36:00",
          "duration": 32,
          "status": "Genuine",
          "associatedSiteId": 111724,
          "outfallName": "GAINSBOROUGH DRIVE HERNE BAY",
          "isImpacting": true,
          "overFlowSiteId": 111725
        },
        {
          "id": 344849715,
          "eventId": 628128,
          "siteUnitNumber": 12551,
          "bathingSite": "HERNE BAY",
          "eventStart": "2022-09-06T00:04:00",
          "eventStop": "2022-09-06T00:36:00",
          "duration": 32,
          "status": "Genuine",
          "associatedSiteId": 111724,
          "outfallName": "GAINSBOROUGH DRIVE HERNE BAY",
          "isImpacting": true,
          "overFlowSiteId": 111725,
          "historicSpillsList": []
        }
      ]
    },
    {
      "id": 344821877,
      "eventId": 627975,
      "siteUnitNumber": 12618,
      "bathingSite": "RYDE",
      "eventStart": "2022-09-05T21:54:00",
      "eventStop": "2022-09-06T00:18:00",
      "duration": 144,
      "status": "Genuine",
      "associatedSiteId": 109778,
      "outfallName": "PRINCE CONSORT RYDE NEW",
      "isImpacting": true,
      "overFlowSiteId": 0,
      "historicSpillsList": [
        {
          "id": 344821877,
          "eventId": 627975,
          "siteUnitNumber": 12618,
          "bathingSite": "RYDE",
          "eventStart": "2022-09-05T21:54:00",
          "eventStop": "2022-09-06T00:18:00",
          "duration": 144,
          "status": "Genuine",
          "associatedSiteId": 109778,
          "outfallName": "PRINCE CONSORT RYDE NEW",
          "isImpacting": true,
          "overFlowSiteId": 108043
        }
      ]
    },
    {
      "id": 344823630,
      "eventId": 627669,
      "siteUnitNumber": 12604,
      "bathingSite": "SOUTHSEA EAST",
      "eventStart": "2022-09-05T20:31:00",
      "eventStop": "2022-09-06T00:18:00",
      "duration": 227,
      "status": "Genuine",
      "associatedSiteId": 109822,
      "outfallName": "PIER ROAD SOUTHSEA",
      "isImpacting": true,
      "overFlowSiteId": 0,
      "historicSpillsList": [
        {
          "id": 344823630,
          "eventId": 627669,
          "siteUnitNumber": 12604,
          "bathingSite": "SOUTHSEA EAST",
          "eventStart": "2022-09-05T20:31:00",
          "eventStop": "2022-09-06T00:18:00",
          "duration": 227,
          "status": "Genuine",
          "associatedSiteId": 109822,
          "outfallName": "PIER ROAD SOUTHSEA",
          "isImpacting": true,
          "overFlowSiteId": 108469
        },
        {
          "id": 344823631,
          "eventId": 627669,
          "siteUnitNumber": 12605,
          "bathingSite": "STOKES BAY",
          "eventStart": "2022-09-05T20:31:00",
          "eventStop": "2022-09-06T00:18:00",
          "duration": 227,
          "status": "Genuine",
          "associatedSiteId": 109822,
          "outfallName": "PIER ROAD SOUTHSEA",
          "isImpacting": true,
          "overFlowSiteId": 108469,
          "historicSpillsList": []
        }
      ]
    },
    {
      "id": 344852512,
      "eventId": 627893,
      "siteUnitNumber": 12615,
      "bathingSite": "COLWELL BAY",
      "eventStart": "2022-09-05T20:29:24",
      "eventStop": "2022-09-05T23:53:00",
      "duration": 203,
      "status": "Genuine",
      "associatedSiteId": 115498,
      "outfallName": "NORTON TRANSFER IOW",
      "isImpacting": true,
      "overFlowSiteId": 0,
      "historicSpillsList": [
        {
          "id": 344852512,
          "eventId": 627893,
          "siteUnitNumber": 12615,
          "bathingSite": "COLWELL BAY",
          "eventStart": "2022-09-05T20:29:24",
          "eventStop": "2022-09-05T23:53:00",
          "duration": 203,
          "status": "Genuine",
          "associatedSiteId": 115498,
          "outfallName": "NORTON TRANSFER IOW",
          "isImpacting": true,
          "overFlowSiteId": 109524
        },
        {
          "id": 344852513,
          "eventId": 627893,
          "siteUnitNumber": 12614,
          "bathingSite": "TOTLAND BAY",
          "eventStart": "2022-09-05T20:29:24",
          "eventStop": "2022-09-05T23:53:00",
          "duration": 203,
          "status": "Genuine",
          "associatedSiteId": 115498,
          "outfallName": "NORTON TRANSFER IOW",
          "isImpacting": true,
          "overFlowSiteId": 109524,
          "historicSpillsList": []
        }
      ]
    },
    {
      "id": 344824010,
      "eventId": 628024,
      "siteUnitNumber": 12601,
      "bathingSite": "BEACHLANDS CENTRAL",
      "eventStart": "2022-09-05T22:22:00",
      "eventStop": "2022-09-05T23:50:00",
      "duration": 88,
      "status": "Genuine",
      "associatedSiteId": 109823,
      "outfallName": "FORT CUMBERLAND NO1",
      "isImpacting": true,
      "overFlowSiteId": 0,
      "historicSpillsList": [
        {
          "id": 344824014,
          "eventId": 628024,
          "siteUnitNumber": 12661,
          "bathingSite": "LANGSTONE HARBOUR",
          "eventStart": "2022-09-05T22:22:00",
          "eventStop": "2022-09-05T23:50:00",
          "duration": 88,
          "status": "Genuine",
          "associatedSiteId": 109823,
          "outfallName": "FORT CUMBERLAND NO1",
          "isImpacting": true,
          "overFlowSiteId": 110658,
          "historicSpillsList": []
        }
      ]
    },
    {
      "id": 344836501,
      "eventId": 627984,
      "siteUnitNumber": 12595,
      "bathingSite": "BOGNOR REGIS (ALDWICK)",
      "eventStart": "2022-09-05T21:54:00",
      "eventStop": "2022-09-05T23:44:00",
      "duration": 110,
      "status": "Genuine",
      "associatedSiteId": 109959,
      "outfallName": "WEST PARK BOGNOR REGIS",
      "isImpacting": false,
      "overFlowSiteId": 0,
      "historicSpillsList": []
    },
    {
      "id": 344823004,
      "eventId": 627923,
      "siteUnitNumber": 12661,
      "bathingSite": "LANGSTONE HARBOUR",
      "eventStart": "2022-09-05T20:42:10",
      "eventStop": "2022-09-05T23:38:00",
      "duration": 175,
      "status": "Genuine",
      "associatedSiteId": 109819,
      "outfallName": "COURT LANE COSHAM",
      "isImpacting": true,
      "overFlowSiteId": 0,
      "historicSpillsList": [
        {
          "id": 344823004,
          "eventId": 627923,
          "siteUnitNumber": 12661,
          "bathingSite": "LANGSTONE HARBOUR",
          "eventStart": "2022-09-05T20:42:10",
          "eventStop": "2022-09-05T23:38:00",
          "duration": 175,
          "status": "Genuine",
          "associatedSiteId": 109819,
          "outfallName": "COURT LANE COSHAM",
          "isImpacting": true,
          "overFlowSiteId": 115958
        }
      ]
    },
    {
      "id": 344830464,
      "eventId": 628065,
      "siteUnitNumber": 12576,
      "bathingSite": "ST LEONARDS",
      "eventStart": "2022-09-05T22:40:10",
      "eventStop": "2022-09-05T23:30:07",
      "duration": 49,
      "status": "Genuine",
      "associatedSiteId": 109903,
      "outfallName": "BEXHILL & HASTINGS NO2",
      "isImpacting": true,
      "overFlowSiteId": 0,
      "historicSpillsList": [
        {
          "id": 344830464,
          "eventId": 628065,
          "siteUnitNumber": 12576,
          "bathingSite": "ST LEONARDS",
          "eventStart": "2022-09-05T22:40:10",
          "eventStop": "2022-09-05T23:30:07",
          "duration": 49,
          "status": "Genuine",
          "associatedSiteId": 109903,
          "outfallName": "BEXHILL & HASTINGS NO2",
          "isImpacting": true,
          "overFlowSiteId": 115398
        },
        {
          "id": 344830465,
          "eventId": 628065,
          "siteUnitNumber": 12577,
          "bathingSite": "BEXHILL",
          "eventStart": "2022-09-05T22:40:10",
          "eventStop": "2022-09-05T23:30:07",
          "duration": 49,
          "status": "Genuine",
          "associatedSiteId": 109903,
          "outfallName": "BEXHILL & HASTINGS NO2",
          "isImpacting": true,
          "overFlowSiteId": 115398,
          "historicSpillsList": []
        }
      ]
    },
    {
      "id": 344834336,
      "eventId": 628035,
      "siteUnitNumber": 12582,
      "bathingSite": "SEAFORD",
      "eventStart": "2022-09-05T22:59:00",
      "eventStop": "2022-09-05T23:30:00",
      "duration": 31,
      "status": "Genuine",
      "associatedSiteId": 109957,
      "outfallName": "PORTOBELLO BRIGHTON NO2",
      "isImpacting": false,
      "overFlowSiteId": 0,
      "historicSpillsList": []
    },
    {
      "id": 344814125,
      "eventId": 627919,
      "siteUnitNumber": 12616,
      "bathingSite": "GURNARD",
      "eventStart": "2022-09-05T20:36:07",
      "eventStop": "2022-09-05T23:14:00",
      "duration": 157,
      "status": "Genuine",
      "associatedSiteId": 109652,
      "outfallName": "WOODVALE TRANSFER NO1",
      "isImpacting": true,
      "overFlowSiteId": 0,
      "historicSpillsList": [
        {
          "id": 344814125,
          "eventId": 627919,
          "siteUnitNumber": 12616,
          "bathingSite": "GURNARD",
          "eventStart": "2022-09-05T20:36:07",
          "eventStop": "2022-09-05T23:14:00",
          "duration": 157,
          "status": "Genuine",
          "associatedSiteId": 109652,
          "outfallName": "WOODVALE TRANSFER NO1",
          "isImpacting": true,
          "overFlowSiteId": 115966
        }
      ]
    },
    {
      "id": 344828736,
      "eventId": 628063,
      "siteUnitNumber": 12568,
      "bathingSite": "SANDGATE",
      "eventStart": "2022-09-05T22:59:00",
      "eventStop": "2022-09-05T23:12:00",
      "duration": 13,
      "status": "Genuine",
      "associatedSiteId": 109897,
      "outfallName": "RANGE ROAD HYTHE K LONG",
      "isImpacting": false,
      "overFlowSiteId": 0,
      "historicSpillsList": []
    },
    {
      "id": 344820076,
      "eventId": 628139,
      "siteUnitNumber": 12661,
      "bathingSite": "LANGSTONE HARBOUR",
      "eventStart": "2022-09-05T21:45:00",
      "eventStop": "2022-09-05T23:00:00",
      "duration": 75,
      "status": "Not Genuine",
      "associatedSiteId": 109772,
      "outfallName": "BUDDS FARM HAVANT NO1",
      "isImpacting": true,
      "overFlowSiteId": 0,
      "historicSpillsList": []
    },
    {
      "id": 344838452,
      "eventId": 627992,
      "siteUnitNumber": 12591,
      "bathingSite": "LITTLEHAMPTON",
      "eventStart": "2022-09-05T21:55:43",
      "eventStop": "2022-09-05T22:49:00",
      "duration": 53,
      "status": "Genuine",
      "associatedSiteId": 109977,
      "outfallName": "FORESHORE TANK LITTLEHAMPTON",
      "isImpacting": true,
      "overFlowSiteId": 0,
      "historicSpillsList": [
        {
          "id": 344838452,
          "eventId": 627992,
          "siteUnitNumber": 12591,
          "bathingSite": "LITTLEHAMPTON",
          "eventStart": "2022-09-05T21:55:43",
          "eventStop": "2022-09-05T22:49:00",
          "duration": 53,
          "status": "Genuine",
          "associatedSiteId": 109977,
          "outfallName": "FORESHORE TANK LITTLEHAMPTON",
          "isImpacting": true,
          "overFlowSiteId": 109390
        }
      ]
    },
    {
      "id": 344837405,
      "eventId": 627977,
      "siteUnitNumber": 12591,
      "bathingSite": "LITTLEHAMPTON",
      "eventStart": "2022-09-05T22:25:00",
      "eventStop": "2022-09-05T22:46:00",
      "duration": 21,
      "status": "Genuine",
      "associatedSiteId": 109965,
      "outfallName": "SEA ROAD LITTLEHAMPTON",
      "isImpacting": false,
      "overFlowSiteId": 0,
      "historicSpillsList": []
    },
    {
      "id": 344822894,
      "eventId": 627955,
      "siteUnitNumber": 12661,
      "bathingSite": "LANGSTONE HARBOUR",
      "eventStart": "2022-09-05T21:15:00",
      "eventStop": "2022-09-05T22:46:00",
      "duration": 91,
      "status": "Genuine",
      "associatedSiteId": 109817,
      "outfallName": "MAINLAND DRAYTON",
      "isImpacting": true,
      "overFlowSiteId": 0,
      "historicSpillsList": [
        {
          "id": 344822894,
          "eventId": 627955,
          "siteUnitNumber": 12661,
          "bathingSite": "LANGSTONE HARBOUR",
          "eventStart": "2022-09-05T21:15:00",
          "eventStop": "2022-09-05T22:46:00",
          "duration": 91,
          "status": "Genuine",
          "associatedSiteId": 109817,
          "outfallName": "MAINLAND DRAYTON",
          "isImpacting": true,
          "overFlowSiteId": 115960
        }
      ]
    },
    {
      "id": 344848734,
      "eventId": 627956,
      "siteUnitNumber": 12620,
      "bathingSite": "ST HELENS",
      "eventStart": "2022-09-05T21:17:23",
      "eventStop": "2022-09-05T22:30:09",
      "duration": 72,
      "status": "Genuine",
      "associatedSiteId": 110761,
      "outfallName": "BRADING",
      "isImpacting": true,
      "overFlowSiteId": 0,
      "historicSpillsList": [
        {
          "id": 344848734,
          "eventId": 627956,
          "siteUnitNumber": 12620,
          "bathingSite": "ST HELENS",
          "eventStart": "2022-09-05T21:17:23",
          "eventStop": "2022-09-05T22:30:09",
          "duration": 72,
          "status": "Genuine",
          "associatedSiteId": 110761,
          "outfallName": "BRADING",
          "isImpacting": true,
          "overFlowSiteId": 113676
        }
      ]
    },
    {
      "id": 344822945,
      "eventId": 627918,
      "siteUnitNumber": 12661,
      "bathingSite": "LANGSTONE HARBOUR",
      "eventStart": "2022-09-05T20:35:48",
      "eventStop": "2022-09-05T22:28:37",
      "duration": 112,
      "status": "Genuine",
      "associatedSiteId": 109818,
      "outfallName": "KIRTLEY CLOSE DRAYTON",
      "isImpacting": true,
      "overFlowSiteId": 0,
      "historicSpillsList": [
        {
          "id": 344822945,
          "eventId": 627918,
          "siteUnitNumber": 12661,
          "bathingSite": "LANGSTONE HARBOUR",
          "eventStart": "2022-09-05T20:35:48",
          "eventStop": "2022-09-05T22:28:37",
          "duration": 112,
          "status": "Genuine",
          "associatedSiteId": 109818,
          "outfallName": "KIRTLEY CLOSE DRAYTON",
          "isImpacting": true,
          "overFlowSiteId": 108774
        }
      ]
    },
    {
      "id": 344838083,
      "eventId": 627982,
      "siteUnitNumber": 12591,
      "bathingSite": "LITTLEHAMPTON",
      "eventStart": "2022-09-05T21:59:38",
      "eventStop": "2022-09-05T22:25:43",
      "duration": 26,
      "status": "Genuine",
      "associatedSiteId": 109971,
      "outfallName": "BROADMARK LANE RUSTINGTON",
      "isImpacting": true,
      "overFlowSiteId": 0,
      "historicSpillsList": [
        {
          "id": 344838083,
          "eventId": 627982,
          "siteUnitNumber": 12591,
          "bathingSite": "LITTLEHAMPTON",
          "eventStart": "2022-09-05T21:59:38",
          "eventStop": "2022-09-05T22:25:43",
          "duration": 26,
          "status": "Genuine",
          "associatedSiteId": 109971,
          "outfallName": "BROADMARK LANE RUSTINGTON",
          "isImpacting": true,
          "overFlowSiteId": 107443
        }
      ]
    },
    {
      "id": 344824015,
      "eventId": 627972,
      "siteUnitNumber": 12661,
      "bathingSite": "LANGSTONE HARBOUR",
      "eventStart": "2022-09-05T21:41:48",
      "eventStop": "2022-09-05T22:17:32",
      "duration": 35,
      "status": "Genuine",
      "associatedSiteId": 109823,
      "outfallName": "FORT CUMBERLAND NO1",
      "isImpacting": true,
      "overFlowSiteId": 0,
      "historicSpillsList": [
        {
          "id": 344824015,
          "eventId": 627972,
          "siteUnitNumber": 12661,
          "bathingSite": "LANGSTONE HARBOUR",
          "eventStart": "2022-09-05T21:41:48",
          "eventStop": "2022-09-05T22:17:32",
          "duration": 35,
          "status": "Genuine",
          "associatedSiteId": 109823,
          "outfallName": "FORT CUMBERLAND NO1",
          "isImpacting": true,
          "overFlowSiteId": 116221
        }
      ]
    },
    {
      "id": 344837899,
      "eventId": 628029,
      "siteUnitNumber": 12591,
      "bathingSite": "LITTLEHAMPTON",
      "eventStart": "2022-09-05T21:53:37",
      "eventStop": "2022-09-05T22:17:00",
      "duration": 23,
      "status": "Genuine",
      "associatedSiteId": 109968,
      "outfallName": "FORD ROAD ARUNDEL",
      "isImpacting": false,
      "overFlowSiteId": 0,
      "historicSpillsList": []
    },
    {
      "id": 344819978,
      "eventId": 627954,
      "siteUnitNumber": 12607,
      "bathingSite": "HILLHEAD",
      "eventStart": "2022-09-05T21:14:44",
      "eventStop": "2022-09-05T22:07:00",
      "duration": 52,
      "status": "Genuine",
      "associatedSiteId": 109751,
      "outfallName": "HOOK PARK NO.1",
      "isImpacting": false,
      "overFlowSiteId": 0,
      "historicSpillsList": []
    },
    {
      "id": 344818807,
      "eventId": 627933,
      "siteUnitNumber": 12605,
      "bathingSite": "STOKES BAY",
      "eventStart": "2022-09-05T20:51:10",
      "eventStop": "2022-09-05T21:58:00",
      "duration": 66,
      "status": "Genuine",
      "associatedSiteId": 109713,
      "outfallName": "BROWNDOWN",
      "isImpacting": true,
      "overFlowSiteId": 0,
      "historicSpillsList": [
        {
          "id": 344818807,
          "eventId": 627933,
          "siteUnitNumber": 12605,
          "bathingSite": "STOKES BAY",
          "eventStart": "2022-09-05T20:51:10",
          "eventStop": "2022-09-05T21:58:00",
          "duration": 66,
          "status": "Genuine",
          "associatedSiteId": 109713,
          "outfallName": "BROWNDOWN",
          "isImpacting": true,
          "overFlowSiteId": 108402
        },
        {
          "id": 344818808,
          "eventId": 627933,
          "siteUnitNumber": 12606,
          "bathingSite": "LEE-ON-SOLENT",
          "eventStart": "2022-09-05T20:51:10",
          "eventStop": "2022-09-05T21:58:00",
          "duration": 66,
          "status": "Genuine",
          "associatedSiteId": 109713,
          "outfallName": "BROWNDOWN",
          "isImpacting": true,
          "overFlowSiteId": 108402,
          "historicSpillsList": []
        }
      ]
    },
    {
      "id": 344822560,
      "eventId": 627945,
      "siteUnitNumber": 12618,
      "bathingSite": "RYDE",
      "eventStart": "2022-09-05T21:14:00",
      "eventStop": "2022-09-05T21:52:00",
      "duration": 38,
      "status": "Genuine",
      "associatedSiteId": 109790,
      "outfallName": "GREAT PRESTON ROAD RYDE",
      "isImpacting": true,
      "overFlowSiteId": 0,
      "historicSpillsList": [
        {
          "id": 344822560,
          "eventId": 627945,
          "siteUnitNumber": 12618,
          "bathingSite": "RYDE",
          "eventStart": "2022-09-05T21:14:00",
          "eventStop": "2022-09-05T21:52:00",
          "duration": 38,
          "status": "Genuine",
          "associatedSiteId": 109790,
          "outfallName": "GREAT PRESTON ROAD RYDE",
          "isImpacting": true,
          "overFlowSiteId": 109304
        },
        {
          "id": 344822561,
          "eventId": 627945,
          "siteUnitNumber": 12619,
          "bathingSite": "SEAGROVE",
          "eventStart": "2022-09-05T21:14:00",
          "eventStop": "2022-09-05T21:52:00",
          "duration": 38,
          "status": "Genuine",
          "associatedSiteId": 109790,
          "outfallName": "GREAT PRESTON ROAD RYDE",
          "isImpacting": true,
          "overFlowSiteId": 109304,
          "historicSpillsList": []
        }
      ]
    },
    {
      "id": 344838363,
      "eventId": 627968,
      "siteUnitNumber": 12593,
      "bathingSite": "FELPHAM",
      "eventStart": "2022-09-05T21:37:00",
      "eventStop": "2022-09-05T21:45:00",
      "duration": 8,
      "status": "Genuine",
      "associatedSiteId": 109973,
      "outfallName": "ALDWICK AVENUE BOGNOR",
      "isImpacting": true,
      "overFlowSiteId": 0,
      "historicSpillsList": [
        {
          "id": 344838363,
          "eventId": 627968,
          "siteUnitNumber": 12593,
          "bathingSite": "FELPHAM",
          "eventStart": "2022-09-05T21:37:00",
          "eventStop": "2022-09-05T21:45:00",
          "duration": 8,
          "status": "Genuine",
          "associatedSiteId": 109973,
          "outfallName": "ALDWICK AVENUE BOGNOR",
          "isImpacting": true,
          "overFlowSiteId": 103303
        },
        {
          "id": 344838364,
          "eventId": 627968,
          "siteUnitNumber": 12594,
          "bathingSite": "BOGNOR REGIS EAST",
          "eventStart": "2022-09-05T21:37:00",
          "eventStop": "2022-09-05T21:45:00",
          "duration": 8,
          "status": "Genuine",
          "associatedSiteId": 109973,
          "outfallName": "ALDWICK AVENUE BOGNOR",
          "isImpacting": true,
          "overFlowSiteId": 103303,
          "historicSpillsList": []
        },
        {
          "id": 344838365,
          "eventId": 627968,
          "siteUnitNumber": 12595,
          "bathingSite": "BOGNOR REGIS (ALDWICK)",
          "eventStart": "2022-09-05T21:37:00",
          "eventStop": "2022-09-05T21:45:00",
          "duration": 8,
          "status": "Genuine",
          "associatedSiteId": 109973,
          "outfallName": "ALDWICK AVENUE BOGNOR",
          "isImpacting": true,
          "overFlowSiteId": 103303,
          "historicSpillsList": []
        },
        {
          "id": 344838366,
          "eventId": 627968,
          "siteUnitNumber": 12596,
          "bathingSite": "PAGHAM",
          "eventStart": "2022-09-05T21:37:00",
          "eventStop": "2022-09-05T21:45:00",
          "duration": 8,
          "status": "Genuine",
          "associatedSiteId": 109973,
          "outfallName": "ALDWICK AVENUE BOGNOR",
          "isImpacting": true,
          "overFlowSiteId": 103303,
          "historicSpillsList": []
        }
      ]
    }
  ]
}