{
  "currentPage": 159,
  "totalItems": 18701,
  "totalPages": 749,
  "items": [
    {
      "id": 343952947,
      "eventId": 878361,
      "siteUnitNumber": 12616,
      "bathingSite": "GURNARD",
      "eventStart": "2023-10-24T23:45:00",
      "eventStop": "2023-10-26T16:45:00",
      "duration": 2460,
      "status": "Genuine",
      "associatedSiteId": 110701,
      "outfallName": "TERMINUS ROAD COWES 2",
      "isImpacting": true,
      "overFlowSiteId": 0,
      "historicSpillsList": [
        {
          "id": 343952947,
          "eventId": 878361,
          "siteUnitNumber": 12616,
          "bathingSite": "GURNARD",
          "eventStart": "2023-10-24T23:45:00",
          "eventStop": "2023-10-26T16:45:00",
          "duration": 2460,
          "status": "Genuine",
          "associatedSiteId": 110701,
          "outfallName": "TERMINUS ROAD COWES 2",
          "isImpacting": true,
          "overFlowSiteId": 108563
        },
        {
          "id": 343952948,
          "eventId": 878361,
          "siteUnitNumber": 12617,
          "bathingSite": "COWES",
          "eventStart": "2023-10-24T23:45:00",
          "eventStop": "2023-10-26T16:45:00",
          "duration": 2460,
          "status": "Genuine",
          "associatedSiteId": 110701,
          "outfallName": "TERMINUS ROAD COWES 2",
          "isImpacting": true,
          "overFlowSiteId": 108563,
          "historicSpillsList": []
        }
      ]
    },
    {
      "id": 343927590,
      "eventId": 880658,
      "siteUnitNumber": 12618,
      "bathingSite": "RYDE",
      "eventStart": "2023-10-26T16:11:00",
      "eventStop": "2023-10-26T16:36:00",
      "duration": 25,
      "status": "Genuine",
      "associatedSiteId": 109780,
      "outfallName": "LADIES WALK BINSTEAD",
      "isImpacting": true,
      "overFlowSiteId": 0,
      "historicSpillsList": [
        {
          "id": 343927590,
          "eventId": 880658,
          "siteUnitNumber": 12618,
          "bathingSite": "RYDE",
          "eventStart": "2023-10-26T16:11:00",
          "eventStop": "2023-10-26T16:36:00",
          "duration": 25,
          "status": "Genuine",
          "associatedSiteId": 109780,
          "outfallName": "LADIES WALK BINSTEAD",
          "isImpacting": true,
          "overFlowSiteId": 107406
        }
      ]
    },
    {
      "id": 343931455,
      "eventId": 880641,
      "siteUnitNumber": 12662,
      "bathingSite": "CHICHESTER HARBOUR",
      "eventStart": "2023-10-26T16:11:43",
      "eventStop": "2023-10-26T16:30:00",
      "duration": 18,
      "status": "Genuine",
      "associatedSiteId": 109836,
      "outfallName": "CHICHESTER",
      "isImpacting": true,
      "overFlowSiteId": 0,
      "historicSpillsList": [
        {
          "id": 343931455,
          "eventId": 880641,
          "siteUnitNumber": 12662,
          "bathingSite": "CHICHESTER HARBOUR",
          "eventStart": "2023-10-26T16:11:43",
          "eventStop": "2023-10-26T16:30:00",
          "duration": 18,
          "status": "Genuine",
          "associatedSiteId": 109836,
          "outfallName": "CHICHESTER",
          "isImpacting": true,
          "overFlowSiteId": 115401
        }
      ]
    },
    {
      "id": 343945941,
      "eventId": 880639,
      "siteUnitNumber": 12582,
      "bathingSite": "SEAFORD",
      "eventStart": "2023-10-26T16:02:00",
      "eventStop": "2023-10-26T16:29:25",
      "duration": 27,
      "status": "Genuine",
      "associatedSiteId": 110047,
      "outfallName": "CLIFF END SEAFORD",
      "isImpacting": true,
      "overFlowSiteId": 0,
      "historicSpillsList": [
        {
          "id": 343945941,
          "eventId": 880639,
          "siteUnitNumber": 12582,
          "bathingSite": "SEAFORD",
          "eventStart": "2023-10-26T16:02:00",
          "eventStop": "2023-10-26T16:29:25",
          "duration": 27,
          "status": "Genuine",
          "associatedSiteId": 110047,
          "outfallName": "CLIFF END SEAFORD",
          "isImpacting": true,
          "overFlowSiteId": 101257
        }
      ]
    },
    {
      "id": 343927667,
      "eventId": 880651,
      "siteUnitNumber": 12618,
      "bathingSite": "RYDE",
      "eventStart": "2023-10-26T16:06:00",
      "eventStop": "2023-10-26T16:09:00",
      "duration": 3,
      "status": "Genuine",
      "associatedSiteId": 109781,
      "outfallName": "SPENCER ROAD RYDE",
      "isImpacting": true,
      "overFlowSiteId": 0,
      "historicSpillsList": [
        {
          "id": 343927667,
          "eventId": 880651,
          "siteUnitNumber": 12618,
          "bathingSite": "RYDE",
          "eventStart": "2023-10-26T16:06:00",
          "eventStop": "2023-10-26T16:09:00",
          "duration": 3,
          "status": "Genuine",
          "associatedSiteId": 109781,
          "outfallName": "SPENCER ROAD RYDE",
          "isImpacting": true,
          "overFlowSiteId": 108566
        }
      ]
    },
    {
      "id": 343943893,
      "eventId": 880487,
      "siteUnitNumber": 12593,
      "bathingSite": "FELPHAM",
      "eventStart": "2023-10-26T14:16:17",
      "eventStop": "2023-10-26T16:05:24",
      "duration": 109,
      "status": "Genuine",
      "associatedSiteId": 109973,
      "outfallName": "ALDWICK AVENUE BOGNOR",
      "isImpacting": true,
      "overFlowSiteId": 0,
      "historicSpillsList": [
        {
          "id": 343943893,
          "eventId": 880487,
          "siteUnitNumber": 12593,
          "bathingSite": "FELPHAM",
          "eventStart": "2023-10-26T14:16:17",
          "eventStop": "2023-10-26T16:05:24",
          "duration": 109,
          "status": "Genuine",
          "associatedSiteId": 109973,
          "outfallName": "ALDWICK AVENUE BOGNOR",
          "isImpacting": true,
          "overFlowSiteId": 103303
        },
        {
          "id": 343943894,
          "eventId": 880487,
          "siteUnitNumber": 12594,
          "bathingSite": "BOGNOR REGIS EAST",
          "eventStart": "2023-10-26T14:16:17",
          "eventStop": "2023-10-26T16:05:24",
          "duration": 109,
          "status": "Genuine",
          "associatedSiteId": 109973,
          "outfallName": "ALDWICK AVENUE BOGNOR",
          "isImpacting": true,
          "overFlowSiteId": 103303,
          "historicSpillsList": []
        },
        {
          "id": 343943895,
          "eventId": 880487,
          "siteUnitNumber": 12595,
          "bathingSite": "BOGNOR REGIS (ALDWICK)",
          "eventStart": "2023-10-26T14:16:17",
          "eventStop": "2023-10-26T16:05:24",
          "duration": 109,
          "status": "Genuine",
          "associatedSiteId": 109973,
          "outfallName": "ALDWICK AVENUE BOGNOR",
          "isImpacting": true,
          "overFlowSiteId": 103303,
          "historicSpillsList": []
        },
        {
          "id": 343943886,
          "eventId": 880487,
          "siteUnitNumber": 12596,
          "bathingSite": "PAGHAM",
          "eventStart": "2023-10-26T14:16:17",
          "eventStop": "2023-10-26T16:05:24",
          "duration": 109,
          "status": "Genuine",
          "associatedSiteId": 109973,
          "outfallName": "ALDWICK AVENUE BOGNOR",
          "isImpacting": true,
          "overFlowSiteId": 103303,
          "historicSpillsList": []
        }
      ]
    },
    {
      "id": 343931456,
      "eventId": 880622,
      "siteUnitNumber": 12662,
      "bathingSite": "CHICHESTER HARBOUR",
      "eventStart": "2023-10-26T15:44:29",
      "eventStop": "2023-10-26T16:00:00",
      "duration": 15,
      "status": "Genuine",
      "associatedSiteId": 109836,
      "outfallName": "CHICHESTER",
      "isImpacting": true,
      "overFlowSiteId": 0,
      "historicSpillsList": [
        {
          "id": 343931456,
          "eventId": 880622,
          "siteUnitNumber": 12662,
          "bathingSite": "CHICHESTER HARBOUR",
          "eventStart": "2023-10-26T15:44:29",
          "eventStop": "2023-10-26T16:00:00",
          "duration": 15,
          "status": "Genuine",
          "associatedSiteId": 109836,
          "outfallName": "CHICHESTER",
          "isImpacting": true,
          "overFlowSiteId": 115401
        }
      ]
    },
    {
      "id": 343938711,
      "eventId": 900475,
      "siteUnitNumber": 12621,
      "bathingSite": "BEMBRIDGE",
      "eventStart": "2023-10-25T16:09:00",
      "eventStop": "2023-10-26T14:18:00",
      "duration": 1329,
      "status": "Genuine",
      "associatedSiteId": 109939,
      "outfallName": "LANE END ROAD BEMBRIDGE",
      "isImpacting": true,
      "overFlowSiteId": 0,
      "historicSpillsList": [
        {
          "id": 343938711,
          "eventId": 900475,
          "siteUnitNumber": 12621,
          "bathingSite": "BEMBRIDGE",
          "eventStart": "2023-10-25T16:09:00",
          "eventStop": "2023-10-26T14:18:00",
          "duration": 1329,
          "status": "Genuine",
          "associatedSiteId": 109939,
          "outfallName": "LANE END ROAD BEMBRIDGE",
          "isImpacting": true,
          "overFlowSiteId": 108533
        }
      ]
    },
    {
      "id": 343931457,
      "eventId": 880404,
      "siteUnitNumber": 12662,
      "bathingSite": "CHICHESTER HARBOUR",
      "eventStart": "2023-10-26T13:59:00",
      "eventStop": "2023-10-26T14:15:00",
      "duration": 16,
      "status": "Genuine",
      "associatedSiteId": 109836,
      "outfallName": "CHICHESTER",
      "isImpacting": true,
      "overFlowSiteId": 0,
      "historicSpillsList": [
        {
          "id": 343931457,
          "eventId": 880404,
          "siteUnitNumber": 12662,
          "bathingSite": "CHICHESTER HARBOUR",
          "eventStart": "2023-10-26T13:59:00",
          "eventStop": "2023-10-26T14:15:00",
          "duration": 16,
          "status": "Genuine",
          "associatedSiteId": 109836,
          "outfallName": "CHICHESTER",
          "isImpacting": true,
          "overFlowSiteId": 115401
        }
      ]
    },
    {
      "id": 343929790,
      "eventId": 880069,
      "siteUnitNumber": 12548,
      "bathingSite": "TANKERTON",
      "eventStart": "2023-10-26T07:35:20",
      "eventStop": "2023-10-26T12:39:00",
      "duration": 303,
      "status": "Genuine",
      "associatedSiteId": 109830,
      "outfallName": "SWALECLIFFE NO1",
      "isImpacting": true,
      "overFlowSiteId": 0,
      "historicSpillsList": [
        {
          "id": 343929790,
          "eventId": 880069,
          "siteUnitNumber": 12548,
          "bathingSite": "TANKERTON",
          "eventStart": "2023-10-26T07:35:20",
          "eventStop": "2023-10-26T12:39:00",
          "duration": 303,
          "status": "Genuine",
          "associatedSiteId": 109830,
          "outfallName": "SWALECLIFFE NO1",
          "isImpacting": true,
          "overFlowSiteId": 115444
        },
        {
          "id": 343929791,
          "eventId": 880069,
          "siteUnitNumber": 12549,
          "bathingSite": "HERNE BAY CENTRAL",
          "eventStart": "2023-10-26T07:35:20",
          "eventStop": "2023-10-26T12:39:00",
          "duration": 303,
          "status": "Genuine",
          "associatedSiteId": 109830,
          "outfallName": "SWALECLIFFE NO1",
          "isImpacting": true,
          "overFlowSiteId": 115444,
          "historicSpillsList": []
        }
      ]
    },
    {
      "id": 343943899,
      "eventId": 879083,
      "siteUnitNumber": 12593,
      "bathingSite": "FELPHAM",
      "eventStart": "2023-10-25T09:58:53",
      "eventStop": "2023-10-26T12:34:39",
      "duration": 1595,
      "status": "Genuine",
      "associatedSiteId": 109973,
      "outfallName": "ALDWICK AVENUE BOGNOR",
      "isImpacting": true,
      "overFlowSiteId": 0,
      "historicSpillsList": [
        {
          "id": 343943899,
          "eventId": 879083,
          "siteUnitNumber": 12593,
          "bathingSite": "FELPHAM",
          "eventStart": "2023-10-25T09:58:53",
          "eventStop": "2023-10-26T12:34:39",
          "duration": 1595,
          "status": "Genuine",
          "associatedSiteId": 109973,
          "outfallName": "ALDWICK AVENUE BOGNOR",
          "isImpacting": true,
          "overFlowSiteId": 103303
        },
        {
          "id": 343943900,
          "eventId": 879083,
          "siteUnitNumber": 12594,
          "bathingSite": "BOGNOR REGIS EAST",
          "eventStart": "2023-10-25T09:58:53",
          "eventStop": "2023-10-26T12:34:39",
          "duration": 1595,
          "status": "Genuine",
          "associatedSiteId": 109973,
          "outfallName": "ALDWICK AVENUE BOGNOR",
          "isImpacting": true,
          "overFlowSiteId": 103303,
          "historicSpillsList": []
        },
        {
          "id": 343943891,
          "eventId": 879083,
          "siteUnitNumber": 12595,
          "bathingSite": "BOGNOR REGIS (ALDWICK)",
          "eventStart": "2023-10-25T09:58:53",
          "eventStop": "2023-10-26T12:34:39",
          "duration": 1595,
          "status": "Genuine",
          "associatedSiteId": 109973,
          "outfallName": "ALDWICK AVENUE BOGNOR",
          "isImpacting": true,
          "overFlowSiteId": 103303,
          "historicSpillsList": []
        },
        {
          "id": 343943892,
          "eventId": 879083,
          "siteUnitNumber": 12596,
          "bathingSite": "PAGHAM",
          "eventStart": "2023-10-25T09:58:53",
          "eventStop": "2023-10-26T12:34:39",
          "duration": 1595,
          "status": "Genuine",
          "associatedSiteId": 109973,
          "outfallName": "ALDWICK AVENUE BOGNOR",
          "isImpacting": true,
          "overFlowSiteId": 103303,
          "historicSpillsList": []
        }
      ]
    },
    {
      "id": 343928638,
      "eventId": 880375,
      "siteUnitNumber": 12661,
      "bathingSite": "LANGSTONE HARBOUR",
      "eventStart": "2023-10-26T12:09:59",
      "eventStop": "2023-10-26T12:33:00",
      "duration": 23,
      "status": "Genuine",
      "associatedSiteId": 109820,
      "outfallName": "ST ANDREWS ROAD PORTSMOUTH",
      "isImpacting": true,
      "overFlowSiteId": 0,
      "historicSpillsList": [
        {
          "id": 343928638,
          "eventId": 880375,
          "siteUnitNumber": 12661,
          "bathingSite": "LANGSTONE HARBOUR",
          "eventStart": "2023-10-26T12:09:59",
          "eventStop": "2023-10-26T12:33:00",
          "duration": 23,
          "status": "Genuine",
          "associatedSiteId": 109820,
          "outfallName": "ST ANDREWS ROAD PORTSMOUTH",
          "isImpacting": true,
          "overFlowSiteId": 108474
        }
      ]
    },
    {
      "id": 343940639,
      "eventId": 879392,
      "siteUnitNumber": 12594,
      "bathingSite": "BOGNOR REGIS EAST",
      "eventStart": "2023-10-25T17:15:00",
      "eventStop": "2023-10-26T11:58:00",
      "duration": 1123,
      "status": "Genuine",
      "associatedSiteId": 109959,
      "outfallName": "WEST PARK BOGNOR REGIS",
      "isImpacting": true,
      "overFlowSiteId": 0,
      "historicSpillsList": [
        {
          "id": 343940639,
          "eventId": 879392,
          "siteUnitNumber": 12594,
          "bathingSite": "BOGNOR REGIS EAST",
          "eventStart": "2023-10-25T17:15:00",
          "eventStop": "2023-10-26T11:58:00",
          "duration": 1123,
          "status": "Genuine",
          "associatedSiteId": 109959,
          "outfallName": "WEST PARK BOGNOR REGIS",
          "isImpacting": true,
          "overFlowSiteId": 108160
        }
      ]
    },
    {
      "id": 343943304,
      "eventId": 880287,
      "siteUnitNumber": 12591,
      "bathingSite": "LITTLEHAMPTON",
      "eventStart": "2023-10-26T09:30:00",
      "eventStop": "2023-10-26T11:08:00",
      "duration": 98,
      "status": "Genuine",
      "associatedSiteId": 109968,
      "outfallName": "FORD ROAD ARUNDEL",
      "isImpacting": true,
      "overFlowSiteId": 0,
      "historicSpillsList": [
        {
          "id": 343943304,
          "eventId": 880287,
          "siteUnitNumber": 12591,
          "bathingSite": "LITTLEHAMPTON",
          "eventStart": "2023-10-26T09:30:00",
          "eventStop": "2023-10-26T11:08:00",
          "duration": 98,
          "status": "Genuine",
          "associatedSiteId": 109968,
          "outfallName": "FORD ROAD ARUNDEL",
          "isImpacting": true,
          "overFlowSiteId": 108002
        }
      ]
    },
    {
      "id": 343918669,
      "eventId": 878253,
      "siteUnitNumber": 12616,
      "bathingSite": "GURNARD",
      "eventStart": "2023-10-24T20:45:28",
      "eventStop": "2023-10-26T10:05:00",
      "duration": 2239,
      "status": "Genuine",
      "associatedSiteId": 109650,
      "outfallName": "MARSH ROAD GURNARD",
      "isImpacting": true,
      "overFlowSiteId": 0,
      "historicSpillsList": [
        {
          "id": 343918669,
          "eventId": 878253,
          "siteUnitNumber": 12616,
          "bathingSite": "GURNARD",
          "eventStart": "2023-10-24T20:45:28",
          "eventStop": "2023-10-26T10:05:00",
          "duration": 2239,
          "status": "Genuine",
          "associatedSiteId": 109650,
          "outfallName": "MARSH ROAD GURNARD",
          "isImpacting": true,
          "overFlowSiteId": 107441
        }
      ]
    },
    {
      "id": 343923815,
      "eventId": 880291,
      "siteUnitNumber": 12616,
      "bathingSite": "GURNARD",
      "eventStart": "2023-10-26T09:54:28",
      "eventStop": "2023-10-26T10:00:18",
      "duration": 5,
      "status": "Genuine",
      "associatedSiteId": 109706,
      "outfallName": "HIGH STREET COWES",
      "isImpacting": false,
      "overFlowSiteId": 0,
      "historicSpillsList": []
    },
    {
      "id": 343927422,
      "eventId": 880525,
      "siteUnitNumber": 12618,
      "bathingSite": "RYDE",
      "eventStart": "2023-10-25T22:02:00",
      "eventStop": "2023-10-26T09:22:00",
      "duration": 680,
      "status": "Genuine",
      "associatedSiteId": 109778,
      "outfallName": "PRINCE CONSORT RYDE NEW",
      "isImpacting": true,
      "overFlowSiteId": 0,
      "historicSpillsList": [
        {
          "id": 343927422,
          "eventId": 880525,
          "siteUnitNumber": 12618,
          "bathingSite": "RYDE",
          "eventStart": "2023-10-25T22:02:00",
          "eventStop": "2023-10-26T09:22:00",
          "duration": 680,
          "status": "Genuine",
          "associatedSiteId": 109778,
          "outfallName": "PRINCE CONSORT RYDE NEW",
          "isImpacting": true,
          "overFlowSiteId": 108043
        }
      ]
    },
    {
      "id": 343923817,
      "eventId": 879240,
      "siteUnitNumber": 12616,
      "bathingSite": "GURNARD",
      "eventStart": "2023-10-25T12:57:22",
      "eventStop": "2023-10-26T08:53:00",
      "duration": 1195,
      "status": "Genuine",
      "associatedSiteId": 109706,
      "outfallName": "HIGH STREET COWES",
      "isImpacting": false,
      "overFlowSiteId": 0,
      "historicSpillsList": []
    },
    {
      "id": 343931054,
      "eventId": 880070,
      "siteUnitNumber": 12547,
      "bathingSite": "WEST BEACH WHITSTABLE",
      "eventStart": "2023-10-26T07:36:19",
      "eventStop": "2023-10-26T08:13:00",
      "duration": 36,
      "status": "Genuine",
      "associatedSiteId": 109832,
      "outfallName": "GORREL NO1",
      "isImpacting": false,
      "overFlowSiteId": 0,
      "historicSpillsList": []
    },
    {
      "id": 343934966,
      "eventId": 880084,
      "siteUnitNumber": 12576,
      "bathingSite": "ST LEONARDS",
      "eventStart": "2023-10-26T07:37:02",
      "eventStop": "2023-10-26T07:46:33",
      "duration": 9,
      "status": "Genuine",
      "associatedSiteId": 109903,
      "outfallName": "BEXHILL & HASTINGS NO2",
      "isImpacting": true,
      "overFlowSiteId": 0,
      "historicSpillsList": [
        {
          "id": 343934966,
          "eventId": 880084,
          "siteUnitNumber": 12576,
          "bathingSite": "ST LEONARDS",
          "eventStart": "2023-10-26T07:37:02",
          "eventStop": "2023-10-26T07:46:33",
          "duration": 9,
          "status": "Genuine",
          "associatedSiteId": 109903,
          "outfallName": "BEXHILL & HASTINGS NO2",
          "isImpacting": true,
          "overFlowSiteId": 115398
        },
        {
          "id": 343934967,
          "eventId": 880084,
          "siteUnitNumber": 12577,
          "bathingSite": "BEXHILL",
          "eventStart": "2023-10-26T07:37:02",
          "eventStop": "2023-10-26T07:46:33",
          "duration": 9,
          "status": "Genuine",
          "associatedSiteId": 109903,
          "outfallName": "BEXHILL & HASTINGS NO2",
          "isImpacting": true,
          "overFlowSiteId": 115398,
          "historicSpillsList": []
        }
      ]
    },
    {
      "id": 343943307,
      "eventId": 880001,
      "siteUnitNumber": 12591,
      "bathingSite": "LITTLEHAMPTON",
      "eventStart": "2023-10-26T05:00:00",
      "eventStop": "2023-10-26T05:22:00",
      "duration": 22,
      "status": "Genuine",
      "associatedSiteId": 109968,
      "outfallName": "FORD ROAD ARUNDEL",
      "isImpacting": true,
      "overFlowSiteId": 0,
      "historicSpillsList": [
        {
          "id": 343943307,
          "eventId": 880001,
          "siteUnitNumber": 12591,
          "bathingSite": "LITTLEHAMPTON",
          "eventStart": "2023-10-26T05:00:00",
          "eventStop": "2023-10-26T05:22:00",
          "duration": 22,
          "status": "Genuine",
          "associatedSiteId": 109968,
          "outfallName": "FORD ROAD ARUNDEL",
          "isImpacting": true,
          "overFlowSiteId": 108002
        }
      ]
    },
    {
      "id": 343954420,
      "eventId": 879986,
      "siteUnitNumber": 12582,
      "bathingSite": "SEAFORD",
      "eventStart": "2023-10-26T04:20:02",
      "eventStop": "2023-10-26T04:44:40",
      "duration": 24,
      "status": "Genuine",
      "associatedSiteId": 110920,
      "outfallName": "NEWHAVEN",
      "isImpacting": false,
      "overFlowSiteId": 0,
      "historicSpillsList": []
    },
    {
      "id": 343952945,
      "eventId": 879936,
      "siteUnitNumber": 12616,
      "bathingSite": "GURNARD",
      "eventStart": "2023-10-26T02:21:00",
      "eventStop": "2023-10-26T02:31:00",
      "duration": 10,
      "status": "Genuine",
      "associatedSiteId": 110701,
      "outfallName": "TERMINUS ROAD COWES 2",
      "isImpacting": true,
      "overFlowSiteId": 0,
      "historicSpillsList": [
        {
          "id": 343952945,
          "eventId": 879936,
          "siteUnitNumber": 12616,
          "bathingSite": "GURNARD",
          "eventStart": "2023-10-26T02:21:00",
          "eventStop": "2023-10-26T02:31:00",
          "duration": 10,
          "status": "Genuine",
          "associatedSiteId": 110701,
          "outfallName": "TERMINUS ROAD COWES 2",
          "isImpacting": true,
          "overFlowSiteId": 108562
        },
        {
          "id": 343952946,
          "eventId": 879936,
          "siteUnitNumber": 12617,
          "bathingSite": "COWES",
          "eventStart": "2023-10-26T02:21:00",
          "eventStop": "2023-10-26T02:31:00",
          "duration": 10,
          "status": "Genuine",
          "associatedSiteId": 110701,
          "outfallName": "TERMINUS ROAD COWES 2",
          "isImpacting": true,
          "overFlowSiteId": 108562,
          "historicSpillsList": []
        }
      ]
    },
    {
      "id": 343931458,
      "eventId": 878702,
      "siteUnitNumber": 12662,
      "bathingSite": "CHICHESTER HARBOUR",
      "eventStart": "2023-10-25T03:54:00",
      "eventStop": "2023-10-25T23:22:00",
      "duration": 1168,
      "status": "Genuine",
      "associatedSiteId": 109836,
      "outfallName": "CHICHESTER",
      "isImpacting": true,
      "overFlowSiteId": 0,
      "historicSpillsList": [
        {
          "id": 343931458,
          "eventId": 878702,
          "siteUnitNumber": 12662,
          "bathingSite": "CHICHESTER HARBOUR",
          "eventStart": "2023-10-25T03:54:00",
          "eventStop": "2023-10-25T23:22:00",
          "duration": 1168,
          "status": "Genuine",
          "associatedSiteId": 109836,
          "outfallName": "CHICHESTER",
          "isImpacting": true,
          "overFlowSiteId": 115401
        }
      ]
    },
    {
      "id": 343960423,
      "eventId": 878724,
      "siteUnitNumber": 12662,
      "bathingSite": "CHICHESTER HARBOUR",
      "eventStart": "2023-10-25T03:34:15",
      "eventStop": "2023-10-25T22:24:00",
      "duration": 1129,
      "status": "Genuine",
      "associatedSiteId": 116108,
      "outfallName": "TAYLORS LANE BOSHAM PS PUMPED",
      "isImpacting": true,
      "overFlowSiteId": 0,
      "historicSpillsList": [
        {
          "id": 343960423,
          "eventId": 878724,
          "siteUnitNumber": 12662,
          "bathingSite": "CHICHESTER HARBOUR",
          "eventStart": "2023-10-25T03:34:15",
          "eventStop": "2023-10-25T22:24:00",
          "duration": 1129,
          "status": "Genuine",
          "associatedSiteId": 116108,
          "outfallName": "TAYLORS LANE BOSHAM PS PUMPED",
          "isImpacting": true,
          "overFlowSiteId": 116066
        }
      ]
    }
  ]
}