{
  "currentPage": 461,
  "totalItems": 21025,
  "totalPages": 841,
  "items": [
    {
      "id": 344839528,
      "eventId": 684818,
      "siteUnitNumber": 12575,
      "bathingSite": "HASTINGS PELHAM BEACH",
      "eventStart": "2022-11-28T06:08:00",
      "eventStop": "2022-11-28T06:55:00",
      "duration": 47,
      "status": "Genuine",
      "associatedSiteId": 109982,
      "outfallName": "COOMBS HASTINGS",
      "isImpacting": false,
      "overFlowSiteId": 0,
      "historicSpillsList": []
    },
    {
      "id": 344825628,
      "eventId": 684266,
      "siteUnitNumber": 12549,
      "bathingSite": "HERNE BAY CENTRAL",
      "eventStart": "2022-11-27T20:40:35",
      "eventStop": "2022-11-28T06:02:17",
      "duration": 561,
      "status": "Not Genuine",
      "associatedSiteId": 109835,
      "outfallName": "SWALECLIFFE NO2",
      "isImpacting": true,
      "overFlowSiteId": 0,
      "historicSpillsList": []
    },
    {
      "id": 344839532,
      "eventId": 683722,
      "siteUnitNumber": 12575,
      "bathingSite": "HASTINGS PELHAM BEACH",
      "eventStart": "2022-11-27T15:00:00",
      "eventStop": "2022-11-28T06:00:00",
      "duration": 900,
      "status": "Genuine",
      "associatedSiteId": 109982,
      "outfallName": "COOMBS HASTINGS",
      "isImpacting": true,
      "overFlowSiteId": 0,
      "historicSpillsList": [
        {
          "id": 344839533,
          "eventId": 683722,
          "siteUnitNumber": 12576,
          "bathingSite": "ST LEONARDS",
          "eventStart": "2022-11-27T15:00:00",
          "eventStop": "2022-11-28T06:00:00",
          "duration": 900,
          "status": "Genuine",
          "associatedSiteId": 109982,
          "outfallName": "COOMBS HASTINGS",
          "isImpacting": true,
          "overFlowSiteId": 110211,
          "historicSpillsList": []
        }
      ]
    },
    {
      "id": 344849696,
      "eventId": 683907,
      "siteUnitNumber": 12549,
      "bathingSite": "HERNE BAY CENTRAL",
      "eventStart": "2022-11-27T17:47:00",
      "eventStop": "2022-11-28T05:20:00",
      "duration": 693,
      "status": "Genuine",
      "associatedSiteId": 111724,
      "outfallName": "GAINSBOROUGH DRIVE HERNE BAY",
      "isImpacting": true,
      "overFlowSiteId": 0,
      "historicSpillsList": [
        {
          "id": 344849697,
          "eventId": 683907,
          "siteUnitNumber": 12551,
          "bathingSite": "HERNE BAY",
          "eventStart": "2022-11-27T17:47:00",
          "eventStop": "2022-11-28T05:20:00",
          "duration": 693,
          "status": "Genuine",
          "associatedSiteId": 111724,
          "outfallName": "GAINSBOROUGH DRIVE HERNE BAY",
          "isImpacting": true,
          "overFlowSiteId": 111725,
          "historicSpillsList": []
        }
      ]
    },
    {
      "id": 344848996,
      "eventId": 684593,
      "siteUnitNumber": 12582,
      "bathingSite": "SEAFORD",
      "eventStart": "2022-11-28T02:13:03",
      "eventStop": "2022-11-28T05:04:49",
      "duration": 171,
      "status": "Genuine",
      "associatedSiteId": 110920,
      "outfallName": "NEWHAVEN",
      "isImpacting": false,
      "overFlowSiteId": 0,
      "historicSpillsList": []
    },
    {
      "id": 344837845,
      "eventId": 685061,
      "siteUnitNumber": 12591,
      "bathingSite": "LITTLEHAMPTON",
      "eventStart": "2022-11-28T01:51:00",
      "eventStop": "2022-11-28T04:56:00",
      "duration": 185,
      "status": "Genuine",
      "associatedSiteId": 109968,
      "outfallName": "FORD ROAD ARUNDEL",
      "isImpacting": true,
      "overFlowSiteId": 0,
      "historicSpillsList": [
        {
          "id": 344837845,
          "eventId": 685061,
          "siteUnitNumber": 12591,
          "bathingSite": "LITTLEHAMPTON",
          "eventStart": "2022-11-28T01:51:00",
          "eventStop": "2022-11-28T04:56:00",
          "duration": 185,
          "status": "Genuine",
          "associatedSiteId": 109968,
          "outfallName": "FORD ROAD ARUNDEL",
          "isImpacting": true,
          "overFlowSiteId": 108002
        }
      ]
    },
    {
      "id": 344823570,
      "eventId": 684802,
      "siteUnitNumber": 12604,
      "bathingSite": "SOUTHSEA EAST",
      "eventStart": "2022-11-28T04:32:00",
      "eventStop": "2022-11-28T04:52:00",
      "duration": 20,
      "status": "Genuine",
      "associatedSiteId": 109822,
      "outfallName": "PIER ROAD SOUTHSEA",
      "isImpacting": true,
      "overFlowSiteId": 0,
      "historicSpillsList": [
        {
          "id": 344823570,
          "eventId": 684802,
          "siteUnitNumber": 12604,
          "bathingSite": "SOUTHSEA EAST",
          "eventStart": "2022-11-28T04:32:00",
          "eventStop": "2022-11-28T04:52:00",
          "duration": 20,
          "status": "Genuine",
          "associatedSiteId": 109822,
          "outfallName": "PIER ROAD SOUTHSEA",
          "isImpacting": true,
          "overFlowSiteId": 108469
        },
        {
          "id": 344823571,
          "eventId": 684802,
          "siteUnitNumber": 12605,
          "bathingSite": "STOKES BAY",
          "eventStart": "2022-11-28T04:32:00",
          "eventStop": "2022-11-28T04:52:00",
          "duration": 20,
          "status": "Genuine",
          "associatedSiteId": 109822,
          "outfallName": "PIER ROAD SOUTHSEA",
          "isImpacting": true,
          "overFlowSiteId": 108469,
          "historicSpillsList": []
        }
      ]
    },
    {
      "id": 344839634,
      "eventId": 683306,
      "siteUnitNumber": 12567,
      "bathingSite": "FOLKESTONE",
      "eventStart": "2022-11-27T09:34:00",
      "eventStop": "2022-11-28T04:44:00",
      "duration": 1150,
      "status": "Genuine",
      "associatedSiteId": 110010,
      "outfallName": "THE STADE FOLKESTONE",
      "isImpacting": true,
      "overFlowSiteId": 0,
      "historicSpillsList": [
        {
          "id": 344839634,
          "eventId": 683306,
          "siteUnitNumber": 12567,
          "bathingSite": "FOLKESTONE",
          "eventStart": "2022-11-27T09:34:00",
          "eventStop": "2022-11-28T04:44:00",
          "duration": 1150,
          "status": "Genuine",
          "associatedSiteId": 110010,
          "outfallName": "THE STADE FOLKESTONE",
          "isImpacting": true,
          "overFlowSiteId": 108909
        }
      ]
    },
    {
      "id": 344832073,
      "eventId": 745441,
      "siteUnitNumber": 12586,
      "bathingSite": "HOVE",
      "eventStart": "2022-11-28T01:39:00",
      "eventStop": "2022-11-28T04:04:00",
      "duration": 145,
      "status": "Genuine",
      "associatedSiteId": 109929,
      "outfallName": "SHOREHAM NO1",
      "isImpacting": true,
      "overFlowSiteId": 0,
      "historicSpillsList": [
        {
          "id": 344832073,
          "eventId": 745441,
          "siteUnitNumber": 12586,
          "bathingSite": "HOVE",
          "eventStart": "2022-11-28T01:39:00",
          "eventStop": "2022-11-28T04:04:00",
          "duration": 145,
          "status": "Genuine",
          "associatedSiteId": 109929,
          "outfallName": "SHOREHAM NO1",
          "isImpacting": true,
          "overFlowSiteId": 115434
        },
        {
          "id": 344832074,
          "eventId": 745441,
          "siteUnitNumber": 12587,
          "bathingSite": "SOUTHWICK",
          "eventStart": "2022-11-28T01:39:00",
          "eventStop": "2022-11-28T04:04:00",
          "duration": 145,
          "status": "Genuine",
          "associatedSiteId": 109929,
          "outfallName": "SHOREHAM NO1",
          "isImpacting": true,
          "overFlowSiteId": 115434,
          "historicSpillsList": []
        },
        {
          "id": 344832075,
          "eventId": 745441,
          "siteUnitNumber": 12588,
          "bathingSite": "SHOREHAM BEACH",
          "eventStart": "2022-11-28T01:39:00",
          "eventStop": "2022-11-28T04:04:00",
          "duration": 145,
          "status": "Genuine",
          "associatedSiteId": 109929,
          "outfallName": "SHOREHAM NO1",
          "isImpacting": true,
          "overFlowSiteId": 115434,
          "historicSpillsList": []
        }
      ]
    },
    {
      "id": 344816561,
      "eventId": 684949,
      "siteUnitNumber": 12616,
      "bathingSite": "GURNARD",
      "eventStart": "2022-11-28T01:08:00",
      "eventStop": "2022-11-28T04:03:00",
      "duration": 175,
      "status": "Genuine",
      "associatedSiteId": 109700,
      "outfallName": "MARKET HILL COWES",
      "isImpacting": false,
      "overFlowSiteId": 0,
      "historicSpillsList": []
    },
    {
      "id": 344849304,
      "eventId": 684637,
      "siteUnitNumber": 12573,
      "bathingSite": "CAMBER",
      "eventStart": "2022-11-27T08:56:00",
      "eventStop": "2022-11-28T03:32:00",
      "duration": 1116,
      "status": "Genuine",
      "associatedSiteId": 110958,
      "outfallName": "RYE",
      "isImpacting": false,
      "overFlowSiteId": 0,
      "historicSpillsList": []
    },
    {
      "id": 344818425,
      "eventId": 682888,
      "siteUnitNumber": 12616,
      "bathingSite": "GURNARD",
      "eventStart": "2022-11-26T21:44:00",
      "eventStop": "2022-11-28T02:22:00",
      "duration": 1718,
      "status": "Genuine",
      "associatedSiteId": 109706,
      "outfallName": "HIGH STREET COWES",
      "isImpacting": false,
      "overFlowSiteId": 0,
      "historicSpillsList": []
    },
    {
      "id": 344812553,
      "eventId": 684538,
      "siteUnitNumber": 12546,
      "bathingSite": "LEYSDOWN",
      "eventStart": "2022-11-28T01:02:25",
      "eventStop": "2022-11-28T02:07:10",
      "duration": 64,
      "status": "Not Genuine",
      "associatedSiteId": 109613,
      "outfallName": "BARROWS BROOK EASTCHURCH",
      "isImpacting": true,
      "overFlowSiteId": 0,
      "historicSpillsList": []
    },
    {
      "id": 344848995,
      "eventId": 683048,
      "siteUnitNumber": 12582,
      "bathingSite": "SEAFORD",
      "eventStart": "2022-11-27T05:44:15",
      "eventStop": "2022-11-28T01:58:59",
      "duration": 1214,
      "status": "Genuine",
      "associatedSiteId": 110920,
      "outfallName": "NEWHAVEN",
      "isImpacting": false,
      "overFlowSiteId": 0,
      "historicSpillsList": []
    },
    {
      "id": 344832612,
      "eventId": 684408,
      "siteUnitNumber": 12587,
      "bathingSite": "SOUTHWICK",
      "eventStart": "2022-11-27T20:56:10",
      "eventStop": "2022-11-28T01:34:03",
      "duration": 277,
      "status": "Not Genuine",
      "associatedSiteId": 109930,
      "outfallName": "SHOREHAM NO2",
      "isImpacting": true,
      "overFlowSiteId": 0,
      "historicSpillsList": []
    },
    {
      "id": 344826377,
      "eventId": 684545,
      "siteUnitNumber": 12579,
      "bathingSite": "PEVENSEY BAY",
      "eventStart": "2022-11-28T01:06:37",
      "eventStop": "2022-11-28T01:30:00",
      "duration": 23,
      "status": "Genuine",
      "associatedSiteId": 109888,
      "outfallName": "EASTBOURNE NO 2",
      "isImpacting": true,
      "overFlowSiteId": 0,
      "historicSpillsList": [
        {
          "id": 344826378,
          "eventId": 684545,
          "siteUnitNumber": 12580,
          "bathingSite": "EASTBOURNE",
          "eventStart": "2022-11-28T01:06:37",
          "eventStop": "2022-11-28T01:30:00",
          "duration": 23,
          "status": "Genuine",
          "associatedSiteId": 109888,
          "outfallName": "EASTBOURNE NO 2",
          "isImpacting": true,
          "overFlowSiteId": 115459,
          "historicSpillsList": []
        }
      ]
    },
    {
      "id": 344832756,
      "eventId": 682681,
      "siteUnitNumber": 12620,
      "bathingSite": "ST HELENS",
      "eventStart": "2022-11-27T00:42:00",
      "eventStop": "2022-11-28T00:54:00",
      "duration": 1452,
      "status": "Genuine",
      "associatedSiteId": 109937,
      "outfallName": "HILLWAY BEMBRIDGE",
      "isImpacting": false,
      "overFlowSiteId": 0,
      "historicSpillsList": []
    },
    {
      "id": 344847795,
      "eventId": 685731,
      "siteUnitNumber": 12616,
      "bathingSite": "GURNARD",
      "eventStart": "2022-11-26T21:20:00",
      "eventStop": "2022-11-28T00:41:00",
      "duration": 1641,
      "status": "Genuine",
      "associatedSiteId": 110701,
      "outfallName": "TERMINUS ROAD COWES 2",
      "isImpacting": true,
      "overFlowSiteId": 0,
      "historicSpillsList": [
        {
          "id": 344847795,
          "eventId": 685731,
          "siteUnitNumber": 12616,
          "bathingSite": "GURNARD",
          "eventStart": "2022-11-26T21:20:00",
          "eventStop": "2022-11-28T00:41:00",
          "duration": 1641,
          "status": "Genuine",
          "associatedSiteId": 110701,
          "outfallName": "TERMINUS ROAD COWES 2",
          "isImpacting": true,
          "overFlowSiteId": 108563
        },
        {
          "id": 344847796,
          "eventId": 685731,
          "siteUnitNumber": 12617,
          "bathingSite": "COWES",
          "eventStart": "2022-11-26T21:20:00",
          "eventStop": "2022-11-28T00:41:00",
          "duration": 1641,
          "status": "Genuine",
          "associatedSiteId": 110701,
          "outfallName": "TERMINUS ROAD COWES 2",
          "isImpacting": true,
          "overFlowSiteId": 108563,
          "historicSpillsList": []
        }
      ]
    },
    {
      "id": 344854830,
      "eventId": 683318,
      "siteUnitNumber": 12662,
      "bathingSite": "CHICHESTER HARBOUR",
      "eventStart": "2022-11-27T09:15:00",
      "eventStop": "2022-11-27T23:49:40",
      "duration": 874,
      "status": "Not Genuine",
      "associatedSiteId": 116108,
      "outfallName": "TAYLORS LANE BOSHAM PS PUMPED",
      "isImpacting": true,
      "overFlowSiteId": 0,
      "historicSpillsList": []
    },
    {
      "id": 344826516,
      "eventId": 685180,
      "siteUnitNumber": 12579,
      "bathingSite": "PEVENSEY BAY",
      "eventStart": "2022-11-27T17:01:00",
      "eventStop": "2022-11-27T23:37:00",
      "duration": 396,
      "status": "Genuine",
      "associatedSiteId": 109891,
      "outfallName": "MONTAGUE WAY WESTHAM",
      "isImpacting": true,
      "overFlowSiteId": 0,
      "historicSpillsList": [
        {
          "id": 344826516,
          "eventId": 685180,
          "siteUnitNumber": 12579,
          "bathingSite": "PEVENSEY BAY",
          "eventStart": "2022-11-27T17:01:00",
          "eventStop": "2022-11-27T23:37:00",
          "duration": 396,
          "status": "Genuine",
          "associatedSiteId": 109891,
          "outfallName": "MONTAGUE WAY WESTHAM",
          "isImpacting": true,
          "overFlowSiteId": 108314
        }
      ]
    },
    {
      "id": 344815598,
      "eventId": 684120,
      "siteUnitNumber": 12549,
      "bathingSite": "HERNE BAY CENTRAL",
      "eventStart": "2022-11-27T20:39:18",
      "eventStop": "2022-11-27T23:17:00",
      "duration": 157,
      "status": "Genuine",
      "associatedSiteId": 109676,
      "outfallName": "KINGS HALL HERNE BAY A",
      "isImpacting": true,
      "overFlowSiteId": 0,
      "historicSpillsList": [
        {
          "id": 344815599,
          "eventId": 684120,
          "siteUnitNumber": 12551,
          "bathingSite": "HERNE BAY",
          "eventStart": "2022-11-27T20:39:18",
          "eventStop": "2022-11-27T23:17:00",
          "duration": 157,
          "status": "Genuine",
          "associatedSiteId": 109676,
          "outfallName": "KINGS HALL HERNE BAY A",
          "isImpacting": true,
          "overFlowSiteId": 108096,
          "historicSpillsList": []
        }
      ]
    },
    {
      "id": 344812554,
      "eventId": 684061,
      "siteUnitNumber": 12546,
      "bathingSite": "LEYSDOWN",
      "eventStart": "2022-11-27T19:51:00",
      "eventStop": "2022-11-27T23:04:00",
      "duration": 193,
      "status": "Genuine",
      "associatedSiteId": 109613,
      "outfallName": "BARROWS BROOK EASTCHURCH",
      "isImpacting": true,
      "overFlowSiteId": 0,
      "historicSpillsList": [
        {
          "id": 344812554,
          "eventId": 684061,
          "siteUnitNumber": 12546,
          "bathingSite": "LEYSDOWN",
          "eventStart": "2022-11-27T19:51:00",
          "eventStop": "2022-11-27T23:04:00",
          "duration": 193,
          "status": "Genuine",
          "associatedSiteId": 109613,
          "outfallName": "BARROWS BROOK EASTCHURCH",
          "isImpacting": true,
          "overFlowSiteId": 108109
        }
      ]
    },
    {
      "id": 344815712,
      "eventId": 683978,
      "siteUnitNumber": 12549,
      "bathingSite": "HERNE BAY CENTRAL",
      "eventStart": "2022-11-27T18:30:00",
      "eventStop": "2022-11-27T22:45:00",
      "duration": 255,
      "status": "Not Genuine",
      "associatedSiteId": 109677,
      "outfallName": "EDDINGTON LANE HERNE BAY NO1",
      "isImpacting": true,
      "overFlowSiteId": 0,
      "historicSpillsList": []
    },
    {
      "id": 344826465,
      "eventId": 684563,
      "siteUnitNumber": 12579,
      "bathingSite": "PEVENSEY BAY",
      "eventStart": "2022-11-27T20:35:00",
      "eventStop": "2022-11-27T22:36:00",
      "duration": 121,
      "status": "Genuine",
      "associatedSiteId": 109889,
      "outfallName": "RATTLE ROAD WESTHAM",
      "isImpacting": false,
      "overFlowSiteId": 0,
      "historicSpillsList": []
    },
    {
      "id": 344837847,
      "eventId": 682473,
      "siteUnitNumber": 12591,
      "bathingSite": "LITTLEHAMPTON",
      "eventStart": "2022-11-26T22:39:00",
      "eventStop": "2022-11-27T22:30:00",
      "duration": 1431,
      "status": "Genuine",
      "associatedSiteId": 109968,
      "outfallName": "FORD ROAD ARUNDEL",
      "isImpacting": true,
      "overFlowSiteId": 0,
      "historicSpillsList": [
        {
          "id": 344837847,
          "eventId": 682473,
          "siteUnitNumber": 12591,
          "bathingSite": "LITTLEHAMPTON",
          "eventStart": "2022-11-26T22:39:00",
          "eventStop": "2022-11-27T22:30:00",
          "duration": 1431,
          "status": "Genuine",
          "associatedSiteId": 109968,
          "outfallName": "FORD ROAD ARUNDEL",
          "isImpacting": true,
          "overFlowSiteId": 108002
        }
      ]
    }
  ]
}