{
  "currentPage": 185,
  "totalItems": 18701,
  "totalPages": 749,
  "items": [
    {
      "id": 343954429,
      "eventId": 872212,
      "siteUnitNumber": 12582,
      "bathingSite": "SEAFORD",
      "eventStart": "2023-10-18T13:45:06",
      "eventStop": "2023-10-18T23:41:24",
      "duration": 596,
      "status": "Genuine",
      "associatedSiteId": 110920,
      "outfallName": "NEWHAVEN",
      "isImpacting": false,
      "overFlowSiteId": 0,
      "historicSpillsList": []
    },
    {
      "id": 343931220,
      "eventId": 872940,
      "siteUnitNumber": 12549,
      "bathingSite": "HERNE BAY CENTRAL",
      "eventStart": "2023-10-18T20:46:00",
      "eventStop": "2023-10-18T23:41:00",
      "duration": 175,
      "status": "Genuine",
      "associatedSiteId": 109835,
      "outfallName": "SWALECLIFFE NO2",
      "isImpacting": true,
      "overFlowSiteId": 0,
      "historicSpillsList": [
        {
          "id": 343931225,
          "eventId": 872940,
          "siteUnitNumber": 12548,
          "bathingSite": "TANKERTON",
          "eventStart": "2023-10-18T20:46:00",
          "eventStop": "2023-10-18T23:41:00",
          "duration": 175,
          "status": "Genuine",
          "associatedSiteId": 109835,
          "outfallName": "SWALECLIFFE NO2",
          "isImpacting": true,
          "overFlowSiteId": 115445,
          "historicSpillsList": []
        }
      ]
    },
    {
      "id": 343939636,
      "eventId": 873301,
      "siteUnitNumber": 12582,
      "bathingSite": "SEAFORD",
      "eventStart": "2023-10-18T23:31:50",
      "eventStop": "2023-10-18T23:40:56",
      "duration": 9,
      "status": "Genuine",
      "associatedSiteId": 109957,
      "outfallName": "PORTOBELLO BRIGHTON NO2",
      "isImpacting": true,
      "overFlowSiteId": 0,
      "historicSpillsList": [
        {
          "id": 343939637,
          "eventId": 873301,
          "siteUnitNumber": 12583,
          "bathingSite": "SALTDEAN",
          "eventStart": "2023-10-18T23:31:50",
          "eventStop": "2023-10-18T23:40:56",
          "duration": 9,
          "status": "Genuine",
          "associatedSiteId": 109957,
          "outfallName": "PORTOBELLO BRIGHTON NO2",
          "isImpacting": true,
          "overFlowSiteId": 116012,
          "historicSpillsList": []
        }
      ]
    },
    {
      "id": 343928239,
      "eventId": 889039,
      "siteUnitNumber": 12596,
      "bathingSite": "PAGHAM",
      "eventStart": "2023-10-18T16:33:00",
      "eventStop": "2023-10-18T23:28:00",
      "duration": 415,
      "status": "Genuine",
      "associatedSiteId": 109791,
      "outfallName": "SIDLESHAM",
      "isImpacting": true,
      "overFlowSiteId": 0,
      "historicSpillsList": [
        {
          "id": 343928239,
          "eventId": 889039,
          "siteUnitNumber": 12596,
          "bathingSite": "PAGHAM",
          "eventStart": "2023-10-18T16:33:00",
          "eventStop": "2023-10-18T23:28:00",
          "duration": 415,
          "status": "Genuine",
          "associatedSiteId": 109791,
          "outfallName": "SIDLESHAM",
          "isImpacting": true,
          "overFlowSiteId": 115807
        }
      ]
    },
    {
      "id": 343939640,
      "eventId": 872725,
      "siteUnitNumber": 12582,
      "bathingSite": "SEAFORD",
      "eventStart": "2023-10-18T17:24:55",
      "eventStop": "2023-10-18T23:27:24",
      "duration": 362,
      "status": "Genuine",
      "associatedSiteId": 109957,
      "outfallName": "PORTOBELLO BRIGHTON NO2",
      "isImpacting": true,
      "overFlowSiteId": 0,
      "historicSpillsList": [
        {
          "id": 343939640,
          "eventId": 872725,
          "siteUnitNumber": 12582,
          "bathingSite": "SEAFORD",
          "eventStart": "2023-10-18T17:24:55",
          "eventStop": "2023-10-18T23:27:24",
          "duration": 362,
          "status": "Genuine",
          "associatedSiteId": 109957,
          "outfallName": "PORTOBELLO BRIGHTON NO2",
          "isImpacting": true,
          "overFlowSiteId": 116012
        },
        {
          "id": 343939641,
          "eventId": 872725,
          "siteUnitNumber": 12583,
          "bathingSite": "SALTDEAN",
          "eventStart": "2023-10-18T17:24:55",
          "eventStop": "2023-10-18T23:27:24",
          "duration": 362,
          "status": "Genuine",
          "associatedSiteId": 109957,
          "outfallName": "PORTOBELLO BRIGHTON NO2",
          "isImpacting": true,
          "overFlowSiteId": 116012,
          "historicSpillsList": []
        }
      ]
    },
    {
      "id": 343948945,
      "eventId": 876743,
      "siteUnitNumber": 12619,
      "bathingSite": "SEAGROVE",
      "eventStart": "2023-10-18T22:49:00",
      "eventStop": "2023-10-18T23:12:00",
      "duration": 23,
      "status": "Genuine",
      "associatedSiteId": 110097,
      "outfallName": "SANDOWN NO2",
      "isImpacting": true,
      "overFlowSiteId": 0,
      "historicSpillsList": [
        {
          "id": 343948948,
          "eventId": 876743,
          "siteUnitNumber": 12623,
          "bathingSite": "YAVERLAND",
          "eventStart": "2023-10-18T22:49:00",
          "eventStop": "2023-10-18T23:12:00",
          "duration": 23,
          "status": "Genuine",
          "associatedSiteId": 110097,
          "outfallName": "SANDOWN NO2",
          "isImpacting": true,
          "overFlowSiteId": 115454,
          "historicSpillsList": []
        }
      ]
    },
    {
      "id": 343921110,
      "eventId": 872993,
      "siteUnitNumber": 12560,
      "bathingSite": "JOSS BAY BROADSTAIRS",
      "eventStart": "2023-10-18T18:10:00",
      "eventStop": "2023-10-18T22:38:00",
      "duration": 268,
      "status": "Genuine",
      "associatedSiteId": 109674,
      "outfallName": "MARGATE NO2",
      "isImpacting": true,
      "overFlowSiteId": 0,
      "historicSpillsList": [
        {
          "id": 343921110,
          "eventId": 872993,
          "siteUnitNumber": 12560,
          "bathingSite": "JOSS BAY BROADSTAIRS",
          "eventStart": "2023-10-18T18:10:00",
          "eventStop": "2023-10-18T22:38:00",
          "duration": 268,
          "status": "Genuine",
          "associatedSiteId": 109674,
          "outfallName": "MARGATE NO2",
          "isImpacting": true,
          "overFlowSiteId": 116100
        },
        {
          "id": 343921113,
          "eventId": 872993,
          "siteUnitNumber": 12557,
          "bathingSite": "MARGATE FULSAM ROCK",
          "eventStart": "2023-10-18T18:10:00",
          "eventStop": "2023-10-18T22:38:00",
          "duration": 268,
          "status": "Genuine",
          "associatedSiteId": 109674,
          "outfallName": "MARGATE NO2",
          "isImpacting": true,
          "overFlowSiteId": 116100,
          "historicSpillsList": []
        },
        {
          "id": 343921114,
          "eventId": 872993,
          "siteUnitNumber": 12558,
          "bathingSite": "WALPOLE BAY MARGATE",
          "eventStart": "2023-10-18T18:10:00",
          "eventStop": "2023-10-18T22:38:00",
          "duration": 268,
          "status": "Genuine",
          "associatedSiteId": 109674,
          "outfallName": "MARGATE NO2",
          "isImpacting": true,
          "overFlowSiteId": 116100,
          "historicSpillsList": []
        },
        {
          "id": 343921115,
          "eventId": 872993,
          "siteUnitNumber": 12559,
          "bathingSite": "BOTANY BAY BROADSTAIRS",
          "eventStart": "2023-10-18T18:10:00",
          "eventStop": "2023-10-18T22:38:00",
          "duration": 268,
          "status": "Genuine",
          "associatedSiteId": 109674,
          "outfallName": "MARGATE NO2",
          "isImpacting": true,
          "overFlowSiteId": 116100,
          "historicSpillsList": []
        }
      ]
    },
    {
      "id": 343957714,
      "eventId": 872253,
      "siteUnitNumber": 12615,
      "bathingSite": "COLWELL BAY",
      "eventStart": "2023-10-18T14:12:01",
      "eventStop": "2023-10-18T22:38:00",
      "duration": 505,
      "status": "Genuine",
      "associatedSiteId": 115498,
      "outfallName": "NORTON TRANSFER IOW",
      "isImpacting": true,
      "overFlowSiteId": 0,
      "historicSpillsList": [
        {
          "id": 343957714,
          "eventId": 872253,
          "siteUnitNumber": 12615,
          "bathingSite": "COLWELL BAY",
          "eventStart": "2023-10-18T14:12:01",
          "eventStop": "2023-10-18T22:38:00",
          "duration": 505,
          "status": "Genuine",
          "associatedSiteId": 115498,
          "outfallName": "NORTON TRANSFER IOW",
          "isImpacting": true,
          "overFlowSiteId": 109524
        },
        {
          "id": 343957715,
          "eventId": 872253,
          "siteUnitNumber": 12614,
          "bathingSite": "TOTLAND BAY",
          "eventStart": "2023-10-18T14:12:01",
          "eventStop": "2023-10-18T22:38:00",
          "duration": 505,
          "status": "Genuine",
          "associatedSiteId": 115498,
          "outfallName": "NORTON TRANSFER IOW",
          "isImpacting": true,
          "overFlowSiteId": 109524,
          "historicSpillsList": []
        }
      ]
    },
    {
      "id": 343940767,
      "eventId": 873175,
      "siteUnitNumber": 12594,
      "bathingSite": "BOGNOR REGIS EAST",
      "eventStart": "2023-10-18T22:00:00",
      "eventStop": "2023-10-18T22:31:00",
      "duration": 31,
      "status": "Genuine",
      "associatedSiteId": 109959,
      "outfallName": "WEST PARK BOGNOR REGIS",
      "isImpacting": false,
      "overFlowSiteId": 0,
      "historicSpillsList": []
    },
    {
      "id": 343931056,
      "eventId": 872608,
      "siteUnitNumber": 12547,
      "bathingSite": "WEST BEACH WHITSTABLE",
      "eventStart": "2023-10-18T16:38:07",
      "eventStop": "2023-10-18T22:27:00",
      "duration": 348,
      "status": "Genuine",
      "associatedSiteId": 109832,
      "outfallName": "GORREL NO1",
      "isImpacting": true,
      "overFlowSiteId": 0,
      "historicSpillsList": [
        {
          "id": 343931056,
          "eventId": 872608,
          "siteUnitNumber": 12547,
          "bathingSite": "WEST BEACH WHITSTABLE",
          "eventStart": "2023-10-18T16:38:07",
          "eventStop": "2023-10-18T22:27:00",
          "duration": 348,
          "status": "Genuine",
          "associatedSiteId": 109832,
          "outfallName": "GORREL NO1",
          "isImpacting": true,
          "overFlowSiteId": 103279
        },
        {
          "id": 343931057,
          "eventId": 872608,
          "siteUnitNumber": 12548,
          "bathingSite": "TANKERTON",
          "eventStart": "2023-10-18T16:38:07",
          "eventStop": "2023-10-18T22:27:00",
          "duration": 348,
          "status": "Genuine",
          "associatedSiteId": 109832,
          "outfallName": "GORREL NO1",
          "isImpacting": true,
          "overFlowSiteId": 103279,
          "historicSpillsList": []
        }
      ]
    },
    {
      "id": 343948970,
      "eventId": 872225,
      "siteUnitNumber": 12623,
      "bathingSite": "YAVERLAND",
      "eventStart": "2023-10-18T14:01:04",
      "eventStop": "2023-10-18T22:27:00",
      "duration": 505,
      "status": "Genuine",
      "associatedSiteId": 110097,
      "outfallName": "SANDOWN NO2",
      "isImpacting": true,
      "overFlowSiteId": 0,
      "historicSpillsList": [
        {
          "id": 343948970,
          "eventId": 872225,
          "siteUnitNumber": 12623,
          "bathingSite": "YAVERLAND",
          "eventStart": "2023-10-18T14:01:04",
          "eventStop": "2023-10-18T22:27:00",
          "duration": 505,
          "status": "Genuine",
          "associatedSiteId": 110097,
          "outfallName": "SANDOWN NO2",
          "isImpacting": true,
          "overFlowSiteId": 115454
        },
        {
          "id": 343948971,
          "eventId": 872225,
          "siteUnitNumber": 12624,
          "bathingSite": "SANDOWN",
          "eventStart": "2023-10-18T14:01:04",
          "eventStop": "2023-10-18T22:27:00",
          "duration": 505,
          "status": "Genuine",
          "associatedSiteId": 110097,
          "outfallName": "SANDOWN NO2",
          "isImpacting": true,
          "overFlowSiteId": 115454,
          "historicSpillsList": []
        },
        {
          "id": 343948972,
          "eventId": 872225,
          "siteUnitNumber": 12625,
          "bathingSite": "SHANKLIN",
          "eventStart": "2023-10-18T14:01:04",
          "eventStop": "2023-10-18T22:27:00",
          "duration": 505,
          "status": "Genuine",
          "associatedSiteId": 110097,
          "outfallName": "SANDOWN NO2",
          "isImpacting": true,
          "overFlowSiteId": 115454,
          "historicSpillsList": []
        }
      ]
    },
    {
      "id": 343921189,
      "eventId": 873803,
      "siteUnitNumber": 12549,
      "bathingSite": "HERNE BAY CENTRAL",
      "eventStart": "2023-10-18T20:43:00",
      "eventStop": "2023-10-18T22:26:00",
      "duration": 103,
      "status": "Genuine",
      "associatedSiteId": 109676,
      "outfallName": "KINGS HALL HERNE BAY A",
      "isImpacting": true,
      "overFlowSiteId": 0,
      "historicSpillsList": [
        {
          "id": 343921190,
          "eventId": 873803,
          "siteUnitNumber": 12551,
          "bathingSite": "HERNE BAY",
          "eventStart": "2023-10-18T20:43:00",
          "eventStop": "2023-10-18T22:26:00",
          "duration": 103,
          "status": "Genuine",
          "associatedSiteId": 109676,
          "outfallName": "KINGS HALL HERNE BAY A",
          "isImpacting": true,
          "overFlowSiteId": 108096,
          "historicSpillsList": []
        }
      ]
    },
    {
      "id": 343927427,
      "eventId": 872294,
      "siteUnitNumber": 12618,
      "bathingSite": "RYDE",
      "eventStart": "2023-10-18T14:36:00",
      "eventStop": "2023-10-18T22:20:00",
      "duration": 464,
      "status": "Genuine",
      "associatedSiteId": 109778,
      "outfallName": "PRINCE CONSORT RYDE NEW",
      "isImpacting": true,
      "overFlowSiteId": 0,
      "historicSpillsList": [
        {
          "id": 343927427,
          "eventId": 872294,
          "siteUnitNumber": 12618,
          "bathingSite": "RYDE",
          "eventStart": "2023-10-18T14:36:00",
          "eventStop": "2023-10-18T22:20:00",
          "duration": 464,
          "status": "Genuine",
          "associatedSiteId": 109778,
          "outfallName": "PRINCE CONSORT RYDE NEW",
          "isImpacting": true,
          "overFlowSiteId": 108043
        }
      ]
    },
    {
      "id": 343920985,
      "eventId": 872989,
      "siteUnitNumber": 12556,
      "bathingSite": "MARGATE THE BAY",
      "eventStart": "2023-10-18T20:36:00",
      "eventStop": "2023-10-18T22:09:00",
      "duration": 93,
      "status": "Genuine",
      "associatedSiteId": 109673,
      "outfallName": "MARGATE NO1",
      "isImpacting": true,
      "overFlowSiteId": 0,
      "historicSpillsList": [
        {
          "id": 343920986,
          "eventId": 872989,
          "siteUnitNumber": 12557,
          "bathingSite": "MARGATE FULSAM ROCK",
          "eventStart": "2023-10-18T20:36:00",
          "eventStop": "2023-10-18T22:09:00",
          "duration": 93,
          "status": "Genuine",
          "associatedSiteId": 109673,
          "outfallName": "MARGATE NO1",
          "isImpacting": true,
          "overFlowSiteId": 116101,
          "historicSpillsList": []
        },
        {
          "id": 343920987,
          "eventId": 872989,
          "siteUnitNumber": 12558,
          "bathingSite": "WALPOLE BAY MARGATE",
          "eventStart": "2023-10-18T20:36:00",
          "eventStop": "2023-10-18T22:09:00",
          "duration": 93,
          "status": "Genuine",
          "associatedSiteId": 109673,
          "outfallName": "MARGATE NO1",
          "isImpacting": true,
          "overFlowSiteId": 116101,
          "historicSpillsList": []
        },
        {
          "id": 343920988,
          "eventId": 872989,
          "siteUnitNumber": 12559,
          "bathingSite": "BOTANY BAY BROADSTAIRS",
          "eventStart": "2023-10-18T20:36:00",
          "eventStop": "2023-10-18T22:09:00",
          "duration": 93,
          "status": "Genuine",
          "associatedSiteId": 109673,
          "outfallName": "MARGATE NO1",
          "isImpacting": true,
          "overFlowSiteId": 116101,
          "historicSpillsList": []
        }
      ]
    },
    {
      "id": 343921448,
      "eventId": 873210,
      "siteUnitNumber": 12549,
      "bathingSite": "HERNE BAY CENTRAL",
      "eventStart": "2023-10-18T22:03:00",
      "eventStop": "2023-10-18T22:06:00",
      "duration": 3,
      "status": "Genuine",
      "associatedSiteId": 109678,
      "outfallName": "EDDINGTON LANE HERNE BAY NO2",
      "isImpacting": false,
      "overFlowSiteId": 0,
      "historicSpillsList": []
    },
    {
      "id": 343938291,
      "eventId": 872708,
      "siteUnitNumber": 12621,
      "bathingSite": "BEMBRIDGE",
      "eventStart": "2023-10-18T17:26:00",
      "eventStop": "2023-10-18T22:06:00",
      "duration": 280,
      "status": "Genuine",
      "associatedSiteId": 109937,
      "outfallName": "HILLWAY BEMBRIDGE",
      "isImpacting": false,
      "overFlowSiteId": 0,
      "historicSpillsList": []
    },
    {
      "id": 343940773,
      "eventId": 872237,
      "siteUnitNumber": 12594,
      "bathingSite": "BOGNOR REGIS EAST",
      "eventStart": "2023-10-18T14:00:00",
      "eventStop": "2023-10-18T21:58:41",
      "duration": 478,
      "status": "Genuine",
      "associatedSiteId": 109959,
      "outfallName": "WEST PARK BOGNOR REGIS",
      "isImpacting": true,
      "overFlowSiteId": 0,
      "historicSpillsList": [
        {
          "id": 343940773,
          "eventId": 872237,
          "siteUnitNumber": 12594,
          "bathingSite": "BOGNOR REGIS EAST",
          "eventStart": "2023-10-18T14:00:00",
          "eventStop": "2023-10-18T21:58:41",
          "duration": 478,
          "status": "Genuine",
          "associatedSiteId": 109959,
          "outfallName": "WEST PARK BOGNOR REGIS",
          "isImpacting": true,
          "overFlowSiteId": 108160
        }
      ]
    },
    {
      "id": 343921436,
      "eventId": 873783,
      "siteUnitNumber": 12549,
      "bathingSite": "HERNE BAY CENTRAL",
      "eventStart": "2023-10-18T21:33:00",
      "eventStop": "2023-10-18T21:36:00",
      "duration": 3,
      "status": "Genuine",
      "associatedSiteId": 109678,
      "outfallName": "EDDINGTON LANE HERNE BAY NO2",
      "isImpacting": false,
      "overFlowSiteId": 0,
      "historicSpillsList": []
    },
    {
      "id": 343931749,
      "eventId": 872769,
      "siteUnitNumber": 12662,
      "bathingSite": "CHICHESTER HARBOUR",
      "eventStart": "2023-10-18T17:40:55",
      "eventStop": "2023-10-18T21:32:00",
      "duration": 231,
      "status": "Genuine",
      "associatedSiteId": 109850,
      "outfallName": "THORNHAM",
      "isImpacting": true,
      "overFlowSiteId": 0,
      "historicSpillsList": [
        {
          "id": 343931749,
          "eventId": 872769,
          "siteUnitNumber": 12662,
          "bathingSite": "CHICHESTER HARBOUR",
          "eventStart": "2023-10-18T17:40:55",
          "eventStop": "2023-10-18T21:32:00",
          "duration": 231,
          "status": "Genuine",
          "associatedSiteId": 109850,
          "outfallName": "THORNHAM",
          "isImpacting": true,
          "overFlowSiteId": 115369
        }
      ]
    },
    {
      "id": 343954841,
      "eventId": 873333,
      "siteUnitNumber": 12573,
      "bathingSite": "CAMBER",
      "eventStart": "2023-10-18T19:11:00",
      "eventStop": "2023-10-18T21:28:00",
      "duration": 137,
      "status": "Genuine",
      "associatedSiteId": 110958,
      "outfallName": "RYE",
      "isImpacting": false,
      "overFlowSiteId": 0,
      "historicSpillsList": []
    },
    {
      "id": 343960323,
      "eventId": 872692,
      "siteUnitNumber": 12662,
      "bathingSite": "CHICHESTER HARBOUR",
      "eventStart": "2023-10-18T16:57:02",
      "eventStop": "2023-10-18T21:26:00",
      "duration": 268,
      "status": "Genuine",
      "associatedSiteId": 116025,
      "outfallName": "PRIORS LEAZE LANE NUTBOURNE",
      "isImpacting": true,
      "overFlowSiteId": 0,
      "historicSpillsList": [
        {
          "id": 343960323,
          "eventId": 872692,
          "siteUnitNumber": 12662,
          "bathingSite": "CHICHESTER HARBOUR",
          "eventStart": "2023-10-18T16:57:02",
          "eventStop": "2023-10-18T21:26:00",
          "duration": 268,
          "status": "Genuine",
          "associatedSiteId": 116025,
          "outfallName": "PRIORS LEAZE LANE NUTBOURNE",
          "isImpacting": true,
          "overFlowSiteId": 111267
        }
      ]
    },
    {
      "id": 343955254,
      "eventId": 873062,
      "siteUnitNumber": 12549,
      "bathingSite": "HERNE BAY CENTRAL",
      "eventStart": "2023-10-18T20:10:00",
      "eventStop": "2023-10-18T21:20:00",
      "duration": 70,
      "status": "Genuine",
      "associatedSiteId": 111724,
      "outfallName": "GAINSBOROUGH DRIVE HERNE BAY",
      "isImpacting": false,
      "overFlowSiteId": 0,
      "historicSpillsList": []
    },
    {
      "id": 343945911,
      "eventId": 873029,
      "siteUnitNumber": 12582,
      "bathingSite": "SEAFORD",
      "eventStart": "2023-10-18T19:11:34",
      "eventStop": "2023-10-18T21:16:00",
      "duration": 124,
      "status": "Genuine",
      "associatedSiteId": 110046,
      "outfallName": "BEACH ROAD NEWHAVEN",
      "isImpacting": false,
      "overFlowSiteId": 0,
      "historicSpillsList": []
    },
    {
      "id": 343921438,
      "eventId": 873782,
      "siteUnitNumber": 12549,
      "bathingSite": "HERNE BAY CENTRAL",
      "eventStart": "2023-10-18T21:11:00",
      "eventStop": "2023-10-18T21:14:00",
      "duration": 3,
      "status": "Genuine",
      "associatedSiteId": 109678,
      "outfallName": "EDDINGTON LANE HERNE BAY NO2",
      "isImpacting": false,
      "overFlowSiteId": 0,
      "historicSpillsList": []
    },
    {
      "id": 343933032,
      "eventId": 873168,
      "siteUnitNumber": 12568,
      "bathingSite": "SANDGATE",
      "eventStart": "2023-10-18T20:55:50",
      "eventStop": "2023-10-18T21:02:33",
      "duration": 6,
      "status": "Genuine",
      "associatedSiteId": 109896,
      "outfallName": "RANGE ROAD HYTHE K SHORT",
      "isImpacting": false,
      "overFlowSiteId": 0,
      "historicSpillsList": []
    }
  ]
}