{
  "currentPage": 148,
  "totalItems": 18701,
  "totalPages": 749,
  "items": [
    {
      "id": 343932970,
      "eventId": 883676,
      "siteUnitNumber": 12568,
      "bathingSite": "SANDGATE",
      "eventStart": "2023-10-28T12:26:41",
      "eventStop": "2023-10-28T12:33:50",
      "duration": 7,
      "status": "Genuine",
      "associatedSiteId": 109896,
      "outfallName": "RANGE ROAD HYTHE K SHORT",
      "isImpacting": true,
      "overFlowSiteId": 0,
      "historicSpillsList": [
        {
          "id": 343932971,
          "eventId": 883676,
          "siteUnitNumber": 12569,
          "bathingSite": "HYTHE",
          "eventStart": "2023-10-28T12:26:41",
          "eventStop": "2023-10-28T12:33:50",
          "duration": 7,
          "status": "Genuine",
          "associatedSiteId": 109896,
          "outfallName": "RANGE ROAD HYTHE K SHORT",
          "isImpacting": true,
          "overFlowSiteId": 116112,
          "historicSpillsList": []
        }
      ]
    },
    {
      "id": 343937004,
      "eventId": 886631,
      "siteUnitNumber": 12590,
      "bathingSite": "WORTHING",
      "eventStart": "2023-10-28T12:26:00",
      "eventStop": "2023-10-28T12:33:00",
      "duration": 7,
      "status": "Genuine",
      "associatedSiteId": 109912,
      "outfallName": "SEA LANE GORING",
      "isImpacting": false,
      "overFlowSiteId": 0,
      "historicSpillsList": []
    },
    {
      "id": 343943656,
      "eventId": 883114,
      "siteUnitNumber": 12591,
      "bathingSite": "LITTLEHAMPTON",
      "eventStart": "2023-10-28T05:41:41",
      "eventStop": "2023-10-28T12:31:00",
      "duration": 409,
      "status": "Genuine",
      "associatedSiteId": 109971,
      "outfallName": "BROADMARK LANE RUSTINGTON",
      "isImpacting": true,
      "overFlowSiteId": 0,
      "historicSpillsList": [
        {
          "id": 343943656,
          "eventId": 883114,
          "siteUnitNumber": 12591,
          "bathingSite": "LITTLEHAMPTON",
          "eventStart": "2023-10-28T05:41:41",
          "eventStop": "2023-10-28T12:31:00",
          "duration": 409,
          "status": "Genuine",
          "associatedSiteId": 109971,
          "outfallName": "BROADMARK LANE RUSTINGTON",
          "isImpacting": true,
          "overFlowSiteId": 107443
        }
      ]
    },
    {
      "id": 343955108,
      "eventId": 883231,
      "siteUnitNumber": 12576,
      "bathingSite": "ST LEONARDS",
      "eventStart": "2023-10-28T07:09:26",
      "eventStop": "2023-10-28T12:15:00",
      "duration": 305,
      "status": "Genuine",
      "associatedSiteId": 111370,
      "outfallName": "YORK ROAD BEXHILL",
      "isImpacting": false,
      "overFlowSiteId": 0,
      "historicSpillsList": []
    },
    {
      "id": 343960015,
      "eventId": 883487,
      "siteUnitNumber": 12577,
      "bathingSite": "BEXHILL",
      "eventStart": "2023-10-28T07:00:00",
      "eventStop": "2023-10-28T12:15:00",
      "duration": 315,
      "status": "Genuine",
      "associatedSiteId": 115501,
      "outfallName": "LONDON ROAD BEXHILL",
      "isImpacting": true,
      "overFlowSiteId": 0,
      "historicSpillsList": [
        {
          "id": 343960015,
          "eventId": 883487,
          "siteUnitNumber": 12577,
          "bathingSite": "BEXHILL",
          "eventStart": "2023-10-28T07:00:00",
          "eventStop": "2023-10-28T12:15:00",
          "duration": 315,
          "status": "Genuine",
          "associatedSiteId": 115501,
          "outfallName": "LONDON ROAD BEXHILL",
          "isImpacting": true,
          "overFlowSiteId": 108171
        }
      ]
    },
    {
      "id": 343925643,
      "eventId": 882849,
      "siteUnitNumber": 12601,
      "bathingSite": "BEACHLANDS CENTRAL",
      "eventStart": "2023-10-28T03:08:00",
      "eventStop": "2023-10-28T12:13:00",
      "duration": 545,
      "status": "Genuine",
      "associatedSiteId": 109764,
      "outfallName": "FISHERY LANE HAYLING ISLAND",
      "isImpacting": true,
      "overFlowSiteId": 0,
      "historicSpillsList": [
        {
          "id": 343925643,
          "eventId": 882849,
          "siteUnitNumber": 12601,
          "bathingSite": "BEACHLANDS CENTRAL",
          "eventStart": "2023-10-28T03:08:00",
          "eventStop": "2023-10-28T12:13:00",
          "duration": 545,
          "status": "Genuine",
          "associatedSiteId": 109764,
          "outfallName": "FISHERY LANE HAYLING ISLAND",
          "isImpacting": true,
          "overFlowSiteId": 108429
        },
        {
          "id": 343925644,
          "eventId": 882849,
          "siteUnitNumber": 12602,
          "bathingSite": "BEACHLANDS WEST",
          "eventStart": "2023-10-28T03:08:00",
          "eventStop": "2023-10-28T12:13:00",
          "duration": 545,
          "status": "Genuine",
          "associatedSiteId": 109764,
          "outfallName": "FISHERY LANE HAYLING ISLAND",
          "isImpacting": true,
          "overFlowSiteId": 108429,
          "historicSpillsList": []
        },
        {
          "id": 343925645,
          "eventId": 882849,
          "siteUnitNumber": 12662,
          "bathingSite": "CHICHESTER HARBOUR",
          "eventStart": "2023-10-28T03:08:00",
          "eventStop": "2023-10-28T12:13:00",
          "duration": 545,
          "status": "Genuine",
          "associatedSiteId": 109764,
          "outfallName": "FISHERY LANE HAYLING ISLAND",
          "isImpacting": true,
          "overFlowSiteId": 108429,
          "historicSpillsList": []
        },
        {
          "id": 343925646,
          "eventId": 882849,
          "siteUnitNumber": 12599,
          "bathingSite": "WEST WITTERING",
          "eventStart": "2023-10-28T03:08:00",
          "eventStop": "2023-10-28T12:13:00",
          "duration": 545,
          "status": "Genuine",
          "associatedSiteId": 109764,
          "outfallName": "FISHERY LANE HAYLING ISLAND",
          "isImpacting": true,
          "overFlowSiteId": 108429,
          "historicSpillsList": []
        },
        {
          "id": 343925647,
          "eventId": 882849,
          "siteUnitNumber": 12600,
          "bathingSite": "EASTOKE",
          "eventStart": "2023-10-28T03:08:00",
          "eventStop": "2023-10-28T12:13:00",
          "duration": 545,
          "status": "Genuine",
          "associatedSiteId": 109764,
          "outfallName": "FISHERY LANE HAYLING ISLAND",
          "isImpacting": true,
          "overFlowSiteId": 108429,
          "historicSpillsList": []
        }
      ]
    },
    {
      "id": 343937534,
      "eventId": 883652,
      "siteUnitNumber": 12586,
      "bathingSite": "HOVE",
      "eventStart": "2023-10-28T12:02:44",
      "eventStop": "2023-10-28T12:10:04",
      "duration": 7,
      "status": "Genuine",
      "associatedSiteId": 109929,
      "outfallName": "SHOREHAM NO1",
      "isImpacting": true,
      "overFlowSiteId": 0,
      "historicSpillsList": [
        {
          "id": 343937534,
          "eventId": 883652,
          "siteUnitNumber": 12586,
          "bathingSite": "HOVE",
          "eventStart": "2023-10-28T12:02:44",
          "eventStop": "2023-10-28T12:10:04",
          "duration": 7,
          "status": "Genuine",
          "associatedSiteId": 109929,
          "outfallName": "SHOREHAM NO1",
          "isImpacting": true,
          "overFlowSiteId": 115434
        },
        {
          "id": 343937535,
          "eventId": 883652,
          "siteUnitNumber": 12587,
          "bathingSite": "SOUTHWICK",
          "eventStart": "2023-10-28T12:02:44",
          "eventStop": "2023-10-28T12:10:04",
          "duration": 7,
          "status": "Genuine",
          "associatedSiteId": 109929,
          "outfallName": "SHOREHAM NO1",
          "isImpacting": true,
          "overFlowSiteId": 115434,
          "historicSpillsList": []
        },
        {
          "id": 343937536,
          "eventId": 883652,
          "siteUnitNumber": 12588,
          "bathingSite": "SHOREHAM BEACH",
          "eventStart": "2023-10-28T12:02:44",
          "eventStop": "2023-10-28T12:10:04",
          "duration": 7,
          "status": "Genuine",
          "associatedSiteId": 109929,
          "outfallName": "SHOREHAM NO1",
          "isImpacting": true,
          "overFlowSiteId": 115434,
          "historicSpillsList": []
        }
      ]
    },
    {
      "id": 343932066,
      "eventId": 882911,
      "siteUnitNumber": 12579,
      "bathingSite": "PEVENSEY BAY",
      "eventStart": "2023-10-28T11:23:00",
      "eventStop": "2023-10-28T12:05:00",
      "duration": 42,
      "status": "Genuine",
      "associatedSiteId": 109889,
      "outfallName": "RATTLE ROAD WESTHAM",
      "isImpacting": false,
      "overFlowSiteId": 0,
      "historicSpillsList": []
    },
    {
      "id": 343937507,
      "eventId": 883863,
      "siteUnitNumber": 12586,
      "bathingSite": "HOVE",
      "eventStart": "2023-10-28T11:56:00",
      "eventStop": "2023-10-28T11:58:00",
      "duration": 2,
      "status": "Genuine",
      "associatedSiteId": 109929,
      "outfallName": "SHOREHAM NO1",
      "isImpacting": true,
      "overFlowSiteId": 0,
      "historicSpillsList": [
        {
          "id": 343937507,
          "eventId": 883863,
          "siteUnitNumber": 12586,
          "bathingSite": "HOVE",
          "eventStart": "2023-10-28T11:56:00",
          "eventStop": "2023-10-28T11:58:00",
          "duration": 2,
          "status": "Genuine",
          "associatedSiteId": 109929,
          "outfallName": "SHOREHAM NO1",
          "isImpacting": true,
          "overFlowSiteId": 115434
        },
        {
          "id": 343937508,
          "eventId": 883863,
          "siteUnitNumber": 12587,
          "bathingSite": "SOUTHWICK",
          "eventStart": "2023-10-28T11:56:00",
          "eventStop": "2023-10-28T11:58:00",
          "duration": 2,
          "status": "Genuine",
          "associatedSiteId": 109929,
          "outfallName": "SHOREHAM NO1",
          "isImpacting": true,
          "overFlowSiteId": 115434,
          "historicSpillsList": []
        },
        {
          "id": 343937509,
          "eventId": 883863,
          "siteUnitNumber": 12588,
          "bathingSite": "SHOREHAM BEACH",
          "eventStart": "2023-10-28T11:56:00",
          "eventStop": "2023-10-28T11:58:00",
          "duration": 2,
          "status": "Genuine",
          "associatedSiteId": 109929,
          "outfallName": "SHOREHAM NO1",
          "isImpacting": true,
          "overFlowSiteId": 115434,
          "historicSpillsList": []
        }
      ]
    },
    {
      "id": 343932968,
      "eventId": 883647,
      "siteUnitNumber": 12568,
      "bathingSite": "SANDGATE",
      "eventStart": "2023-10-28T11:49:05",
      "eventStop": "2023-10-28T11:55:40",
      "duration": 6,
      "status": "Genuine",
      "associatedSiteId": 109896,
      "outfallName": "RANGE ROAD HYTHE K SHORT",
      "isImpacting": true,
      "overFlowSiteId": 0,
      "historicSpillsList": [
        {
          "id": 343932969,
          "eventId": 883647,
          "siteUnitNumber": 12569,
          "bathingSite": "HYTHE",
          "eventStart": "2023-10-28T11:49:05",
          "eventStop": "2023-10-28T11:55:40",
          "duration": 6,
          "status": "Genuine",
          "associatedSiteId": 109896,
          "outfallName": "RANGE ROAD HYTHE K SHORT",
          "isImpacting": true,
          "overFlowSiteId": 116112,
          "historicSpillsList": []
        }
      ]
    },
    {
      "id": 343945910,
      "eventId": 889720,
      "siteUnitNumber": 12582,
      "bathingSite": "SEAFORD",
      "eventStart": "2023-10-28T06:51:00",
      "eventStop": "2023-10-28T11:53:00",
      "duration": 302,
      "status": "Genuine",
      "associatedSiteId": 110046,
      "outfallName": "BEACH ROAD NEWHAVEN",
      "isImpacting": false,
      "overFlowSiteId": 0,
      "historicSpillsList": []
    },
    {
      "id": 343923793,
      "eventId": 883597,
      "siteUnitNumber": 12616,
      "bathingSite": "GURNARD",
      "eventStart": "2023-10-28T11:14:33",
      "eventStop": "2023-10-28T11:50:39",
      "duration": 36,
      "status": "Genuine",
      "associatedSiteId": 109706,
      "outfallName": "HIGH STREET COWES",
      "isImpacting": false,
      "overFlowSiteId": 0,
      "historicSpillsList": []
    },
    {
      "id": 343937505,
      "eventId": 883862,
      "siteUnitNumber": 12587,
      "bathingSite": "SOUTHWICK",
      "eventStart": "2023-10-28T11:48:00",
      "eventStop": "2023-10-28T11:50:00",
      "duration": 2,
      "status": "Genuine",
      "associatedSiteId": 109929,
      "outfallName": "SHOREHAM NO1",
      "isImpacting": true,
      "overFlowSiteId": 0,
      "historicSpillsList": [
        {
          "id": 343937505,
          "eventId": 883862,
          "siteUnitNumber": 12587,
          "bathingSite": "SOUTHWICK",
          "eventStart": "2023-10-28T11:48:00",
          "eventStop": "2023-10-28T11:50:00",
          "duration": 2,
          "status": "Genuine",
          "associatedSiteId": 109929,
          "outfallName": "SHOREHAM NO1",
          "isImpacting": true,
          "overFlowSiteId": 115434
        },
        {
          "id": 343937506,
          "eventId": 883862,
          "siteUnitNumber": 12588,
          "bathingSite": "SHOREHAM BEACH",
          "eventStart": "2023-10-28T11:48:00",
          "eventStop": "2023-10-28T11:50:00",
          "duration": 2,
          "status": "Genuine",
          "associatedSiteId": 109929,
          "outfallName": "SHOREHAM NO1",
          "isImpacting": true,
          "overFlowSiteId": 115434,
          "historicSpillsList": []
        },
        {
          "id": 343937513,
          "eventId": 883862,
          "siteUnitNumber": 12586,
          "bathingSite": "HOVE",
          "eventStart": "2023-10-28T11:48:00",
          "eventStop": "2023-10-28T11:50:00",
          "duration": 2,
          "status": "Genuine",
          "associatedSiteId": 109929,
          "outfallName": "SHOREHAM NO1",
          "isImpacting": true,
          "overFlowSiteId": 115434,
          "historicSpillsList": []
        }
      ]
    },
    {
      "id": 343937510,
      "eventId": 883861,
      "siteUnitNumber": 12586,
      "bathingSite": "HOVE",
      "eventStart": "2023-10-28T11:44:00",
      "eventStop": "2023-10-28T11:46:00",
      "duration": 2,
      "status": "Genuine",
      "associatedSiteId": 109929,
      "outfallName": "SHOREHAM NO1",
      "isImpacting": true,
      "overFlowSiteId": 0,
      "historicSpillsList": [
        {
          "id": 343937510,
          "eventId": 883861,
          "siteUnitNumber": 12586,
          "bathingSite": "HOVE",
          "eventStart": "2023-10-28T11:44:00",
          "eventStop": "2023-10-28T11:46:00",
          "duration": 2,
          "status": "Genuine",
          "associatedSiteId": 109929,
          "outfallName": "SHOREHAM NO1",
          "isImpacting": true,
          "overFlowSiteId": 115434
        },
        {
          "id": 343937511,
          "eventId": 883861,
          "siteUnitNumber": 12587,
          "bathingSite": "SOUTHWICK",
          "eventStart": "2023-10-28T11:44:00",
          "eventStop": "2023-10-28T11:46:00",
          "duration": 2,
          "status": "Genuine",
          "associatedSiteId": 109929,
          "outfallName": "SHOREHAM NO1",
          "isImpacting": true,
          "overFlowSiteId": 115434,
          "historicSpillsList": []
        },
        {
          "id": 343937512,
          "eventId": 883861,
          "siteUnitNumber": 12588,
          "bathingSite": "SHOREHAM BEACH",
          "eventStart": "2023-10-28T11:44:00",
          "eventStop": "2023-10-28T11:46:00",
          "duration": 2,
          "status": "Genuine",
          "associatedSiteId": 109929,
          "outfallName": "SHOREHAM NO1",
          "isImpacting": true,
          "overFlowSiteId": 115434,
          "historicSpillsList": []
        }
      ]
    },
    {
      "id": 343938213,
      "eventId": 882905,
      "siteUnitNumber": 12581,
      "bathingSite": "BIRLING GAP",
      "eventStart": "2023-10-28T04:15:00",
      "eventStop": "2023-10-28T11:32:00",
      "duration": 437,
      "status": "Genuine",
      "associatedSiteId": 109936,
      "outfallName": "EAST DEAN",
      "isImpacting": true,
      "overFlowSiteId": 0,
      "historicSpillsList": [
        {
          "id": 343938213,
          "eventId": 882905,
          "siteUnitNumber": 12581,
          "bathingSite": "BIRLING GAP",
          "eventStart": "2023-10-28T04:15:00",
          "eventStop": "2023-10-28T11:32:00",
          "duration": 437,
          "status": "Genuine",
          "associatedSiteId": 109936,
          "outfallName": "EAST DEAN",
          "isImpacting": true,
          "overFlowSiteId": 115829
        }
      ]
    },
    {
      "id": 343934860,
      "eventId": 884045,
      "siteUnitNumber": 12575,
      "bathingSite": "HASTINGS PELHAM BEACH",
      "eventStart": "2023-10-28T07:31:00",
      "eventStop": "2023-10-28T11:29:00",
      "duration": 238,
      "status": "Genuine",
      "associatedSiteId": 109899,
      "outfallName": "SEASIDE ROAD HASTINGS",
      "isImpacting": true,
      "overFlowSiteId": 0,
      "historicSpillsList": [
        {
          "id": 343934860,
          "eventId": 884045,
          "siteUnitNumber": 12575,
          "bathingSite": "HASTINGS PELHAM BEACH",
          "eventStart": "2023-10-28T07:31:00",
          "eventStop": "2023-10-28T11:29:00",
          "duration": 238,
          "status": "Genuine",
          "associatedSiteId": 109899,
          "outfallName": "SEASIDE ROAD HASTINGS",
          "isImpacting": true,
          "overFlowSiteId": 107639
        },
        {
          "id": 343934861,
          "eventId": 884045,
          "siteUnitNumber": 12576,
          "bathingSite": "ST LEONARDS",
          "eventStart": "2023-10-28T07:31:00",
          "eventStop": "2023-10-28T11:29:00",
          "duration": 238,
          "status": "Genuine",
          "associatedSiteId": 109899,
          "outfallName": "SEASIDE ROAD HASTINGS",
          "isImpacting": true,
          "overFlowSiteId": 107639,
          "historicSpillsList": []
        }
      ]
    },
    {
      "id": 343932972,
      "eventId": 883608,
      "siteUnitNumber": 12568,
      "bathingSite": "SANDGATE",
      "eventStart": "2023-10-28T11:18:55",
      "eventStop": "2023-10-28T11:27:02",
      "duration": 8,
      "status": "Genuine",
      "associatedSiteId": 109896,
      "outfallName": "RANGE ROAD HYTHE K SHORT",
      "isImpacting": true,
      "overFlowSiteId": 0,
      "historicSpillsList": [
        {
          "id": 343932973,
          "eventId": 883608,
          "siteUnitNumber": 12569,
          "bathingSite": "HYTHE",
          "eventStart": "2023-10-28T11:18:55",
          "eventStop": "2023-10-28T11:27:02",
          "duration": 8,
          "status": "Genuine",
          "associatedSiteId": 109896,
          "outfallName": "RANGE ROAD HYTHE K SHORT",
          "isImpacting": true,
          "overFlowSiteId": 116112,
          "historicSpillsList": []
        }
      ]
    },
    {
      "id": 343940117,
      "eventId": 883484,
      "siteUnitNumber": 12595,
      "bathingSite": "BOGNOR REGIS (ALDWICK)",
      "eventStart": "2023-10-28T00:17:00",
      "eventStop": "2023-10-28T11:18:00",
      "duration": 661,
      "status": "Genuine",
      "associatedSiteId": 109958,
      "outfallName": "CARLTON AVENUE BOGNOR",
      "isImpacting": true,
      "overFlowSiteId": 0,
      "historicSpillsList": [
        {
          "id": 343940117,
          "eventId": 883484,
          "siteUnitNumber": 12595,
          "bathingSite": "BOGNOR REGIS (ALDWICK)",
          "eventStart": "2023-10-28T00:17:00",
          "eventStop": "2023-10-28T11:18:00",
          "duration": 661,
          "status": "Genuine",
          "associatedSiteId": 109958,
          "outfallName": "CARLTON AVENUE BOGNOR",
          "isImpacting": true,
          "overFlowSiteId": 102492
        },
        {
          "id": 343940118,
          "eventId": 883484,
          "siteUnitNumber": 12596,
          "bathingSite": "PAGHAM",
          "eventStart": "2023-10-28T00:17:00",
          "eventStop": "2023-10-28T11:18:00",
          "duration": 661,
          "status": "Genuine",
          "associatedSiteId": 109958,
          "outfallName": "CARLTON AVENUE BOGNOR",
          "isImpacting": true,
          "overFlowSiteId": 102492,
          "historicSpillsList": []
        },
        {
          "id": 343940122,
          "eventId": 883484,
          "siteUnitNumber": 12594,
          "bathingSite": "BOGNOR REGIS EAST",
          "eventStart": "2023-10-28T00:17:00",
          "eventStop": "2023-10-28T11:18:00",
          "duration": 661,
          "status": "Genuine",
          "associatedSiteId": 109958,
          "outfallName": "CARLTON AVENUE BOGNOR",
          "isImpacting": true,
          "overFlowSiteId": 102492,
          "historicSpillsList": []
        }
      ]
    },
    {
      "id": 343932976,
      "eventId": 883590,
      "siteUnitNumber": 12568,
      "bathingSite": "SANDGATE",
      "eventStart": "2023-10-28T10:58:51",
      "eventStop": "2023-10-28T11:05:49",
      "duration": 6,
      "status": "Genuine",
      "associatedSiteId": 109896,
      "outfallName": "RANGE ROAD HYTHE K SHORT",
      "isImpacting": true,
      "overFlowSiteId": 0,
      "historicSpillsList": [
        {
          "id": 343932977,
          "eventId": 883590,
          "siteUnitNumber": 12569,
          "bathingSite": "HYTHE",
          "eventStart": "2023-10-28T10:58:51",
          "eventStop": "2023-10-28T11:05:49",
          "duration": 6,
          "status": "Genuine",
          "associatedSiteId": 109896,
          "outfallName": "RANGE ROAD HYTHE K SHORT",
          "isImpacting": true,
          "overFlowSiteId": 116112,
          "historicSpillsList": []
        }
      ]
    },
    {
      "id": 343932060,
      "eventId": 887945,
      "siteUnitNumber": 12579,
      "bathingSite": "PEVENSEY BAY",
      "eventStart": "2023-10-28T07:55:00",
      "eventStop": "2023-10-28T11:02:00",
      "duration": 187,
      "status": "Genuine",
      "associatedSiteId": 109889,
      "outfallName": "RATTLE ROAD WESTHAM",
      "isImpacting": true,
      "overFlowSiteId": 0,
      "historicSpillsList": [
        {
          "id": 343932060,
          "eventId": 887945,
          "siteUnitNumber": 12579,
          "bathingSite": "PEVENSEY BAY",
          "eventStart": "2023-10-28T07:55:00",
          "eventStop": "2023-10-28T11:02:00",
          "duration": 187,
          "status": "Genuine",
          "associatedSiteId": 109889,
          "outfallName": "RATTLE ROAD WESTHAM",
          "isImpacting": true,
          "overFlowSiteId": 108315
        }
      ]
    },
    {
      "id": 343927581,
      "eventId": 888125,
      "siteUnitNumber": 12618,
      "bathingSite": "RYDE",
      "eventStart": "2023-10-28T09:00:00",
      "eventStop": "2023-10-28T10:50:00",
      "duration": 110,
      "status": "Genuine",
      "associatedSiteId": 109780,
      "outfallName": "LADIES WALK BINSTEAD",
      "isImpacting": true,
      "overFlowSiteId": 0,
      "historicSpillsList": [
        {
          "id": 343927581,
          "eventId": 888125,
          "siteUnitNumber": 12618,
          "bathingSite": "RYDE",
          "eventStart": "2023-10-28T09:00:00",
          "eventStop": "2023-10-28T10:50:00",
          "duration": 110,
          "status": "Genuine",
          "associatedSiteId": 109780,
          "outfallName": "LADIES WALK BINSTEAD",
          "isImpacting": true,
          "overFlowSiteId": 107406
        }
      ]
    },
    {
      "id": 343927839,
      "eventId": 919048,
      "siteUnitNumber": 12618,
      "bathingSite": "RYDE",
      "eventStart": "2023-10-28T04:07:00",
      "eventStop": "2023-10-28T10:49:00",
      "duration": 402,
      "status": "Genuine",
      "associatedSiteId": 109787,
      "outfallName": "SALTERNS ROAD SEAVIEW",
      "isImpacting": true,
      "overFlowSiteId": 0,
      "historicSpillsList": [
        {
          "id": 343927839,
          "eventId": 919048,
          "siteUnitNumber": 12618,
          "bathingSite": "RYDE",
          "eventStart": "2023-10-28T04:07:00",
          "eventStop": "2023-10-28T10:49:00",
          "duration": 402,
          "status": "Genuine",
          "associatedSiteId": 109787,
          "outfallName": "SALTERNS ROAD SEAVIEW",
          "isImpacting": true,
          "overFlowSiteId": 107411
        },
        {
          "id": 343927840,
          "eventId": 919048,
          "siteUnitNumber": 12619,
          "bathingSite": "SEAGROVE",
          "eventStart": "2023-10-28T04:07:00",
          "eventStop": "2023-10-28T10:49:00",
          "duration": 402,
          "status": "Genuine",
          "associatedSiteId": 109787,
          "outfallName": "SALTERNS ROAD SEAVIEW",
          "isImpacting": true,
          "overFlowSiteId": 107411,
          "historicSpillsList": []
        },
        {
          "id": 343927841,
          "eventId": 919048,
          "siteUnitNumber": 12620,
          "bathingSite": "ST HELENS",
          "eventStart": "2023-10-28T04:07:00",
          "eventStop": "2023-10-28T10:49:00",
          "duration": 402,
          "status": "Genuine",
          "associatedSiteId": 109787,
          "outfallName": "SALTERNS ROAD SEAVIEW",
          "isImpacting": true,
          "overFlowSiteId": 107411,
          "historicSpillsList": []
        }
      ]
    },
    {
      "id": 343939029,
      "eventId": 883251,
      "siteUnitNumber": 12575,
      "bathingSite": "HASTINGS PELHAM BEACH",
      "eventStart": "2023-10-28T07:16:00",
      "eventStop": "2023-10-28T10:45:00",
      "duration": 209,
      "status": "Genuine",
      "associatedSiteId": 109950,
      "outfallName": "ST HELENS DOWN HASTINGS",
      "isImpacting": true,
      "overFlowSiteId": 0,
      "historicSpillsList": [
        {
          "id": 343939029,
          "eventId": 883251,
          "siteUnitNumber": 12575,
          "bathingSite": "HASTINGS PELHAM BEACH",
          "eventStart": "2023-10-28T07:16:00",
          "eventStop": "2023-10-28T10:45:00",
          "duration": 209,
          "status": "Genuine",
          "associatedSiteId": 109950,
          "outfallName": "ST HELENS DOWN HASTINGS",
          "isImpacting": true,
          "overFlowSiteId": 109050
        }
      ]
    },
    {
      "id": 343927848,
      "eventId": 882996,
      "siteUnitNumber": 12618,
      "bathingSite": "RYDE",
      "eventStart": "2023-10-28T04:23:00",
      "eventStop": "2023-10-28T10:45:00",
      "duration": 382,
      "status": "Genuine",
      "associatedSiteId": 109787,
      "outfallName": "SALTERNS ROAD SEAVIEW",
      "isImpacting": true,
      "overFlowSiteId": 0,
      "historicSpillsList": [
        {
          "id": 343927848,
          "eventId": 882996,
          "siteUnitNumber": 12618,
          "bathingSite": "RYDE",
          "eventStart": "2023-10-28T04:23:00",
          "eventStop": "2023-10-28T10:45:00",
          "duration": 382,
          "status": "Genuine",
          "associatedSiteId": 109787,
          "outfallName": "SALTERNS ROAD SEAVIEW",
          "isImpacting": true,
          "overFlowSiteId": 107411
        },
        {
          "id": 343927849,
          "eventId": 882996,
          "siteUnitNumber": 12619,
          "bathingSite": "SEAGROVE",
          "eventStart": "2023-10-28T04:23:00",
          "eventStop": "2023-10-28T10:45:00",
          "duration": 382,
          "status": "Genuine",
          "associatedSiteId": 109787,
          "outfallName": "SALTERNS ROAD SEAVIEW",
          "isImpacting": true,
          "overFlowSiteId": 107411,
          "historicSpillsList": []
        },
        {
          "id": 343927850,
          "eventId": 882996,
          "siteUnitNumber": 12620,
          "bathingSite": "ST HELENS",
          "eventStart": "2023-10-28T04:23:00",
          "eventStop": "2023-10-28T10:45:00",
          "duration": 382,
          "status": "Genuine",
          "associatedSiteId": 109787,
          "outfallName": "SALTERNS ROAD SEAVIEW",
          "isImpacting": true,
          "overFlowSiteId": 107411,
          "historicSpillsList": []
        }
      ]
    },
    {
      "id": 343938948,
      "eventId": 883531,
      "siteUnitNumber": 12619,
      "bathingSite": "SEAGROVE",
      "eventStart": "2023-10-28T09:55:00",
      "eventStop": "2023-10-28T10:42:00",
      "duration": 47,
      "status": "Genuine",
      "associatedSiteId": 109941,
      "outfallName": "LATIMER ROAD ST HELENS",
      "isImpacting": false,
      "overFlowSiteId": 0,
      "historicSpillsList": []
    }
  ]
}