{
  "currentPage": 384,
  "totalItems": 18701,
  "totalPages": 749,
  "items": [
    {
      "id": 343964153,
      "eventId": 706744,
      "siteUnitNumber": 12551,
      "bathingSite": "HERNE BAY",
      "eventStart": "2022-12-24T06:46:00",
      "eventStop": "2022-12-24T15:23:00",
      "duration": 517,
      "status": "Genuine",
      "associatedSiteId": 109682,
      "outfallName": "MAY STREET HERNE BAY NO3",
      "isImpacting": true,
      "overFlowSiteId": 0,
      "historicSpillsList": [
        {
          "id": 343964153,
          "eventId": 706744,
          "siteUnitNumber": 12551,
          "bathingSite": "HERNE BAY",
          "eventStart": "2022-12-24T06:46:00",
          "eventStop": "2022-12-24T15:23:00",
          "duration": 517,
          "status": "Genuine",
          "associatedSiteId": 109682,
          "outfallName": "MAY STREET HERNE BAY NO3",
          "isImpacting": true,
          "overFlowSiteId": 115418
        }
      ]
    },
    {
      "id": 343972627,
      "eventId": 703956,
      "siteUnitNumber": 12548,
      "bathingSite": "TANKERTON",
      "eventStart": "2022-12-24T08:59:11",
      "eventStop": "2022-12-24T15:22:05",
      "duration": 382,
      "status": "Genuine",
      "associatedSiteId": 109830,
      "outfallName": "SWALECLIFFE NO1",
      "isImpacting": true,
      "overFlowSiteId": 0,
      "historicSpillsList": [
        {
          "id": 343972627,
          "eventId": 703956,
          "siteUnitNumber": 12548,
          "bathingSite": "TANKERTON",
          "eventStart": "2022-12-24T08:59:11",
          "eventStop": "2022-12-24T15:22:05",
          "duration": 382,
          "status": "Genuine",
          "associatedSiteId": 109830,
          "outfallName": "SWALECLIFFE NO1",
          "isImpacting": true,
          "overFlowSiteId": 115444
        },
        {
          "id": 343972628,
          "eventId": 703956,
          "siteUnitNumber": 12549,
          "bathingSite": "HERNE BAY CENTRAL",
          "eventStart": "2022-12-24T08:59:11",
          "eventStop": "2022-12-24T15:22:05",
          "duration": 382,
          "status": "Genuine",
          "associatedSiteId": 109830,
          "outfallName": "SWALECLIFFE NO1",
          "isImpacting": true,
          "overFlowSiteId": 115444,
          "historicSpillsList": []
        }
      ]
    },
    {
      "id": 344000518,
      "eventId": 717775,
      "siteUnitNumber": 12614,
      "bathingSite": "TOTLAND BAY",
      "eventStart": "2022-12-24T13:46:00",
      "eventStop": "2022-12-24T14:34:00",
      "duration": 48,
      "status": "Genuine",
      "associatedSiteId": 115498,
      "outfallName": "NORTON TRANSFER IOW",
      "isImpacting": true,
      "overFlowSiteId": 0,
      "historicSpillsList": [
        {
          "id": 344000518,
          "eventId": 717775,
          "siteUnitNumber": 12614,
          "bathingSite": "TOTLAND BAY",
          "eventStart": "2022-12-24T13:46:00",
          "eventStop": "2022-12-24T14:34:00",
          "duration": 48,
          "status": "Genuine",
          "associatedSiteId": 115498,
          "outfallName": "NORTON TRANSFER IOW",
          "isImpacting": true,
          "overFlowSiteId": 109524
        },
        {
          "id": 344000519,
          "eventId": 717775,
          "siteUnitNumber": 12615,
          "bathingSite": "COLWELL BAY",
          "eventStart": "2022-12-24T13:46:00",
          "eventStop": "2022-12-24T14:34:00",
          "duration": 48,
          "status": "Genuine",
          "associatedSiteId": 115498,
          "outfallName": "NORTON TRANSFER IOW",
          "isImpacting": true,
          "overFlowSiteId": 109524,
          "historicSpillsList": []
        }
      ]
    },
    {
      "id": 343995947,
      "eventId": 704348,
      "siteUnitNumber": 12616,
      "bathingSite": "GURNARD",
      "eventStart": "2022-12-24T11:03:00",
      "eventStop": "2022-12-24T14:23:00",
      "duration": 200,
      "status": "Genuine",
      "associatedSiteId": 110701,
      "outfallName": "TERMINUS ROAD COWES 2",
      "isImpacting": true,
      "overFlowSiteId": 0,
      "historicSpillsList": [
        {
          "id": 343995947,
          "eventId": 704348,
          "siteUnitNumber": 12616,
          "bathingSite": "GURNARD",
          "eventStart": "2022-12-24T11:03:00",
          "eventStop": "2022-12-24T14:23:00",
          "duration": 200,
          "status": "Genuine",
          "associatedSiteId": 110701,
          "outfallName": "TERMINUS ROAD COWES 2",
          "isImpacting": true,
          "overFlowSiteId": 108563
        },
        {
          "id": 343995948,
          "eventId": 704348,
          "siteUnitNumber": 12617,
          "bathingSite": "COWES",
          "eventStart": "2022-12-24T11:03:00",
          "eventStop": "2022-12-24T14:23:00",
          "duration": 200,
          "status": "Genuine",
          "associatedSiteId": 110701,
          "outfallName": "TERMINUS ROAD COWES 2",
          "isImpacting": true,
          "overFlowSiteId": 108563,
          "historicSpillsList": []
        }
      ]
    },
    {
      "id": 343986012,
      "eventId": 704203,
      "siteUnitNumber": 12591,
      "bathingSite": "LITTLEHAMPTON",
      "eventStart": "2022-12-24T12:04:00",
      "eventStop": "2022-12-24T14:21:00",
      "duration": 137,
      "status": "Genuine",
      "associatedSiteId": 109968,
      "outfallName": "FORD ROAD ARUNDEL",
      "isImpacting": true,
      "overFlowSiteId": 0,
      "historicSpillsList": [
        {
          "id": 343986012,
          "eventId": 704203,
          "siteUnitNumber": 12591,
          "bathingSite": "LITTLEHAMPTON",
          "eventStart": "2022-12-24T12:04:00",
          "eventStop": "2022-12-24T14:21:00",
          "duration": 137,
          "status": "Genuine",
          "associatedSiteId": 109968,
          "outfallName": "FORD ROAD ARUNDEL",
          "isImpacting": true,
          "overFlowSiteId": 108002
        }
      ]
    },
    {
      "id": 344000520,
      "eventId": 710656,
      "siteUnitNumber": 12615,
      "bathingSite": "COLWELL BAY",
      "eventStart": "2022-12-24T12:56:00",
      "eventStop": "2022-12-24T13:28:00",
      "duration": 32,
      "status": "Genuine",
      "associatedSiteId": 115498,
      "outfallName": "NORTON TRANSFER IOW",
      "isImpacting": true,
      "overFlowSiteId": 0,
      "historicSpillsList": [
        {
          "id": 344000520,
          "eventId": 710656,
          "siteUnitNumber": 12615,
          "bathingSite": "COLWELL BAY",
          "eventStart": "2022-12-24T12:56:00",
          "eventStop": "2022-12-24T13:28:00",
          "duration": 32,
          "status": "Genuine",
          "associatedSiteId": 115498,
          "outfallName": "NORTON TRANSFER IOW",
          "isImpacting": true,
          "overFlowSiteId": 109524
        },
        {
          "id": 344000521,
          "eventId": 710656,
          "siteUnitNumber": 12614,
          "bathingSite": "TOTLAND BAY",
          "eventStart": "2022-12-24T12:56:00",
          "eventStop": "2022-12-24T13:28:00",
          "duration": 32,
          "status": "Genuine",
          "associatedSiteId": 115498,
          "outfallName": "NORTON TRANSFER IOW",
          "isImpacting": true,
          "overFlowSiteId": 109524,
          "historicSpillsList": []
        }
      ]
    },
    {
      "id": 344000522,
      "eventId": 710653,
      "siteUnitNumber": 12614,
      "bathingSite": "TOTLAND BAY",
      "eventStart": "2022-12-24T11:55:00",
      "eventStop": "2022-12-24T12:36:00",
      "duration": 41,
      "status": "Genuine",
      "associatedSiteId": 115498,
      "outfallName": "NORTON TRANSFER IOW",
      "isImpacting": true,
      "overFlowSiteId": 0,
      "historicSpillsList": [
        {
          "id": 344000522,
          "eventId": 710653,
          "siteUnitNumber": 12614,
          "bathingSite": "TOTLAND BAY",
          "eventStart": "2022-12-24T11:55:00",
          "eventStop": "2022-12-24T12:36:00",
          "duration": 41,
          "status": "Genuine",
          "associatedSiteId": 115498,
          "outfallName": "NORTON TRANSFER IOW",
          "isImpacting": true,
          "overFlowSiteId": 109524
        },
        {
          "id": 344000523,
          "eventId": 710653,
          "siteUnitNumber": 12615,
          "bathingSite": "COLWELL BAY",
          "eventStart": "2022-12-24T11:55:00",
          "eventStop": "2022-12-24T12:36:00",
          "duration": 41,
          "status": "Genuine",
          "associatedSiteId": 115498,
          "outfallName": "NORTON TRANSFER IOW",
          "isImpacting": true,
          "overFlowSiteId": 109524,
          "historicSpillsList": []
        }
      ]
    },
    {
      "id": 343964735,
      "eventId": 704481,
      "siteUnitNumber": 12616,
      "bathingSite": "GURNARD",
      "eventStart": "2022-12-24T10:29:40",
      "eventStop": "2022-12-24T12:16:00",
      "duration": 106,
      "status": "Genuine",
      "associatedSiteId": 109700,
      "outfallName": "MARKET HILL COWES",
      "isImpacting": false,
      "overFlowSiteId": 0,
      "historicSpillsList": []
    },
    {
      "id": 343980930,
      "eventId": 701904,
      "siteUnitNumber": 12620,
      "bathingSite": "ST HELENS",
      "eventStart": "2022-12-23T07:54:25",
      "eventStop": "2022-12-24T12:13:00",
      "duration": 1698,
      "status": "Genuine",
      "associatedSiteId": 109937,
      "outfallName": "HILLWAY BEMBRIDGE",
      "isImpacting": false,
      "overFlowSiteId": 0,
      "historicSpillsList": []
    },
    {
      "id": 343962101,
      "eventId": 701652,
      "siteUnitNumber": 12616,
      "bathingSite": "GURNARD",
      "eventStart": "2022-12-23T05:49:00",
      "eventStop": "2022-12-24T11:44:00",
      "duration": 1795,
      "status": "Genuine",
      "associatedSiteId": 109652,
      "outfallName": "WOODVALE TRANSFER NO1",
      "isImpacting": true,
      "overFlowSiteId": 0,
      "historicSpillsList": [
        {
          "id": 343962101,
          "eventId": 701652,
          "siteUnitNumber": 12616,
          "bathingSite": "GURNARD",
          "eventStart": "2022-12-23T05:49:00",
          "eventStop": "2022-12-24T11:44:00",
          "duration": 1795,
          "status": "Genuine",
          "associatedSiteId": 109652,
          "outfallName": "WOODVALE TRANSFER NO1",
          "isImpacting": true,
          "overFlowSiteId": 115966
        },
        {
          "id": 343962102,
          "eventId": 701652,
          "siteUnitNumber": 12617,
          "bathingSite": "COWES",
          "eventStart": "2022-12-23T05:49:00",
          "eventStop": "2022-12-24T11:44:00",
          "duration": 1795,
          "status": "Genuine",
          "associatedSiteId": 109652,
          "outfallName": "WOODVALE TRANSFER NO1",
          "isImpacting": true,
          "overFlowSiteId": 115966,
          "historicSpillsList": []
        }
      ]
    },
    {
      "id": 344000524,
      "eventId": 710650,
      "siteUnitNumber": 12614,
      "bathingSite": "TOTLAND BAY",
      "eventStart": "2022-12-24T10:11:00",
      "eventStop": "2022-12-24T11:39:00",
      "duration": 88,
      "status": "Genuine",
      "associatedSiteId": 115498,
      "outfallName": "NORTON TRANSFER IOW",
      "isImpacting": true,
      "overFlowSiteId": 0,
      "historicSpillsList": [
        {
          "id": 344000524,
          "eventId": 710650,
          "siteUnitNumber": 12614,
          "bathingSite": "TOTLAND BAY",
          "eventStart": "2022-12-24T10:11:00",
          "eventStop": "2022-12-24T11:39:00",
          "duration": 88,
          "status": "Genuine",
          "associatedSiteId": 115498,
          "outfallName": "NORTON TRANSFER IOW",
          "isImpacting": true,
          "overFlowSiteId": 109524
        },
        {
          "id": 344000525,
          "eventId": 710650,
          "siteUnitNumber": 12615,
          "bathingSite": "COLWELL BAY",
          "eventStart": "2022-12-24T10:11:00",
          "eventStop": "2022-12-24T11:39:00",
          "duration": 88,
          "status": "Genuine",
          "associatedSiteId": 115498,
          "outfallName": "NORTON TRANSFER IOW",
          "isImpacting": true,
          "overFlowSiteId": 109524,
          "historicSpillsList": []
        }
      ]
    },
    {
      "id": 343984272,
      "eventId": 703824,
      "siteUnitNumber": 12595,
      "bathingSite": "BOGNOR REGIS (ALDWICK)",
      "eventStart": "2022-12-24T06:42:54",
      "eventStop": "2022-12-24T11:00:00",
      "duration": 257,
      "status": "Genuine",
      "associatedSiteId": 109959,
      "outfallName": "WEST PARK BOGNOR REGIS",
      "isImpacting": true,
      "overFlowSiteId": 0,
      "historicSpillsList": [
        {
          "id": 343984280,
          "eventId": 703824,
          "siteUnitNumber": 12594,
          "bathingSite": "BOGNOR REGIS EAST",
          "eventStart": "2022-12-24T06:42:54",
          "eventStop": "2022-12-24T11:00:00",
          "duration": 257,
          "status": "Genuine",
          "associatedSiteId": 109959,
          "outfallName": "WEST PARK BOGNOR REGIS",
          "isImpacting": true,
          "overFlowSiteId": 108160,
          "historicSpillsList": []
        }
      ]
    },
    {
      "id": 344000526,
      "eventId": 710648,
      "siteUnitNumber": 12615,
      "bathingSite": "COLWELL BAY",
      "eventStart": "2022-12-24T09:08:00",
      "eventStop": "2022-12-24T09:55:00",
      "duration": 47,
      "status": "Genuine",
      "associatedSiteId": 115498,
      "outfallName": "NORTON TRANSFER IOW",
      "isImpacting": true,
      "overFlowSiteId": 0,
      "historicSpillsList": [
        {
          "id": 344000526,
          "eventId": 710648,
          "siteUnitNumber": 12615,
          "bathingSite": "COLWELL BAY",
          "eventStart": "2022-12-24T09:08:00",
          "eventStop": "2022-12-24T09:55:00",
          "duration": 47,
          "status": "Genuine",
          "associatedSiteId": 115498,
          "outfallName": "NORTON TRANSFER IOW",
          "isImpacting": true,
          "overFlowSiteId": 109524
        },
        {
          "id": 344000527,
          "eventId": 710648,
          "siteUnitNumber": 12614,
          "bathingSite": "TOTLAND BAY",
          "eventStart": "2022-12-24T09:08:00",
          "eventStop": "2022-12-24T09:55:00",
          "duration": 47,
          "status": "Genuine",
          "associatedSiteId": 115498,
          "outfallName": "NORTON TRANSFER IOW",
          "isImpacting": true,
          "overFlowSiteId": 109524,
          "historicSpillsList": []
        }
      ]
    },
    {
      "id": 343972630,
      "eventId": 703921,
      "siteUnitNumber": 12548,
      "bathingSite": "TANKERTON",
      "eventStart": "2022-12-24T08:28:33",
      "eventStop": "2022-12-24T08:54:07",
      "duration": 25,
      "status": "Genuine",
      "associatedSiteId": 109830,
      "outfallName": "SWALECLIFFE NO1",
      "isImpacting": false,
      "overFlowSiteId": 0,
      "historicSpillsList": []
    },
    {
      "id": 344000528,
      "eventId": 710647,
      "siteUnitNumber": 12614,
      "bathingSite": "TOTLAND BAY",
      "eventStart": "2022-12-24T08:15:00",
      "eventStop": "2022-12-24T08:51:00",
      "duration": 36,
      "status": "Genuine",
      "associatedSiteId": 115498,
      "outfallName": "NORTON TRANSFER IOW",
      "isImpacting": true,
      "overFlowSiteId": 0,
      "historicSpillsList": [
        {
          "id": 344000528,
          "eventId": 710647,
          "siteUnitNumber": 12614,
          "bathingSite": "TOTLAND BAY",
          "eventStart": "2022-12-24T08:15:00",
          "eventStop": "2022-12-24T08:51:00",
          "duration": 36,
          "status": "Genuine",
          "associatedSiteId": 115498,
          "outfallName": "NORTON TRANSFER IOW",
          "isImpacting": true,
          "overFlowSiteId": 109524
        },
        {
          "id": 344000529,
          "eventId": 710647,
          "siteUnitNumber": 12615,
          "bathingSite": "COLWELL BAY",
          "eventStart": "2022-12-24T08:15:00",
          "eventStop": "2022-12-24T08:51:00",
          "duration": 36,
          "status": "Genuine",
          "associatedSiteId": 115498,
          "outfallName": "NORTON TRANSFER IOW",
          "isImpacting": true,
          "overFlowSiteId": 109524,
          "historicSpillsList": []
        }
      ]
    },
    {
      "id": 343972632,
      "eventId": 703886,
      "siteUnitNumber": 12548,
      "bathingSite": "TANKERTON",
      "eventStart": "2022-12-24T07:40:50",
      "eventStop": "2022-12-24T08:04:24",
      "duration": 23,
      "status": "Genuine",
      "associatedSiteId": 109830,
      "outfallName": "SWALECLIFFE NO1",
      "isImpacting": false,
      "overFlowSiteId": 0,
      "historicSpillsList": []
    },
    {
      "id": 343993084,
      "eventId": 703857,
      "siteUnitNumber": 12625,
      "bathingSite": "SHANKLIN",
      "eventStart": "2022-12-24T07:14:38",
      "eventStop": "2022-12-24T07:55:38",
      "duration": 41,
      "status": "Genuine",
      "associatedSiteId": 110097,
      "outfallName": "SANDOWN NO2",
      "isImpacting": true,
      "overFlowSiteId": 0,
      "historicSpillsList": [
        {
          "id": 343993092,
          "eventId": 703857,
          "siteUnitNumber": 12623,
          "bathingSite": "YAVERLAND",
          "eventStart": "2022-12-24T07:14:38",
          "eventStop": "2022-12-24T07:55:38",
          "duration": 41,
          "status": "Genuine",
          "associatedSiteId": 110097,
          "outfallName": "SANDOWN NO2",
          "isImpacting": true,
          "overFlowSiteId": 115454,
          "historicSpillsList": []
        }
      ]
    },
    {
      "id": 344000530,
      "eventId": 710646,
      "siteUnitNumber": 12614,
      "bathingSite": "TOTLAND BAY",
      "eventStart": "2022-12-24T07:23:00",
      "eventStop": "2022-12-24T07:54:00",
      "duration": 31,
      "status": "Genuine",
      "associatedSiteId": 115498,
      "outfallName": "NORTON TRANSFER IOW",
      "isImpacting": true,
      "overFlowSiteId": 0,
      "historicSpillsList": [
        {
          "id": 344000530,
          "eventId": 710646,
          "siteUnitNumber": 12614,
          "bathingSite": "TOTLAND BAY",
          "eventStart": "2022-12-24T07:23:00",
          "eventStop": "2022-12-24T07:54:00",
          "duration": 31,
          "status": "Genuine",
          "associatedSiteId": 115498,
          "outfallName": "NORTON TRANSFER IOW",
          "isImpacting": true,
          "overFlowSiteId": 109524
        },
        {
          "id": 344000531,
          "eventId": 710646,
          "siteUnitNumber": 12615,
          "bathingSite": "COLWELL BAY",
          "eventStart": "2022-12-24T07:23:00",
          "eventStop": "2022-12-24T07:54:00",
          "duration": 31,
          "status": "Genuine",
          "associatedSiteId": 115498,
          "outfallName": "NORTON TRANSFER IOW",
          "isImpacting": true,
          "overFlowSiteId": 109524,
          "historicSpillsList": []
        }
      ]
    },
    {
      "id": 343970060,
      "eventId": 701910,
      "siteUnitNumber": 12618,
      "bathingSite": "RYDE",
      "eventStart": "2022-12-23T07:58:15",
      "eventStop": "2022-12-24T07:54:00",
      "duration": 1435,
      "status": "Genuine",
      "associatedSiteId": 109778,
      "outfallName": "PRINCE CONSORT RYDE NEW",
      "isImpacting": true,
      "overFlowSiteId": 0,
      "historicSpillsList": [
        {
          "id": 343970060,
          "eventId": 701910,
          "siteUnitNumber": 12618,
          "bathingSite": "RYDE",
          "eventStart": "2022-12-23T07:58:15",
          "eventStop": "2022-12-24T07:54:00",
          "duration": 1435,
          "status": "Genuine",
          "associatedSiteId": 109778,
          "outfallName": "PRINCE CONSORT RYDE NEW",
          "isImpacting": true,
          "overFlowSiteId": 108043
        }
      ]
    },
    {
      "id": 343967477,
      "eventId": 709069,
      "siteUnitNumber": 12603,
      "bathingSite": "EASTNEY",
      "eventStart": "2022-12-24T06:59:00",
      "eventStop": "2022-12-24T07:22:00",
      "duration": 23,
      "status": "Genuine",
      "associatedSiteId": 109732,
      "outfallName": "PEEL COMMON",
      "isImpacting": true,
      "overFlowSiteId": 0,
      "historicSpillsList": [
        {
          "id": 343967479,
          "eventId": 709069,
          "siteUnitNumber": 12605,
          "bathingSite": "STOKES BAY",
          "eventStart": "2022-12-24T06:59:00",
          "eventStop": "2022-12-24T07:22:00",
          "duration": 23,
          "status": "Genuine",
          "associatedSiteId": 109732,
          "outfallName": "PEEL COMMON",
          "isImpacting": true,
          "overFlowSiteId": 115425,
          "historicSpillsList": []
        }
      ]
    },
    {
      "id": 344000532,
      "eventId": 710645,
      "siteUnitNumber": 12615,
      "bathingSite": "COLWELL BAY",
      "eventStart": "2022-12-24T06:20:00",
      "eventStop": "2022-12-24T07:05:00",
      "duration": 45,
      "status": "Genuine",
      "associatedSiteId": 115498,
      "outfallName": "NORTON TRANSFER IOW",
      "isImpacting": true,
      "overFlowSiteId": 0,
      "historicSpillsList": [
        {
          "id": 344000532,
          "eventId": 710645,
          "siteUnitNumber": 12615,
          "bathingSite": "COLWELL BAY",
          "eventStart": "2022-12-24T06:20:00",
          "eventStop": "2022-12-24T07:05:00",
          "duration": 45,
          "status": "Genuine",
          "associatedSiteId": 115498,
          "outfallName": "NORTON TRANSFER IOW",
          "isImpacting": true,
          "overFlowSiteId": 109524
        },
        {
          "id": 344000533,
          "eventId": 710645,
          "siteUnitNumber": 12614,
          "bathingSite": "TOTLAND BAY",
          "eventStart": "2022-12-24T06:20:00",
          "eventStop": "2022-12-24T07:05:00",
          "duration": 45,
          "status": "Genuine",
          "associatedSiteId": 115498,
          "outfallName": "NORTON TRANSFER IOW",
          "isImpacting": true,
          "overFlowSiteId": 109524,
          "historicSpillsList": []
        }
      ]
    },
    {
      "id": 343993094,
      "eventId": 703759,
      "siteUnitNumber": 12619,
      "bathingSite": "SEAGROVE",
      "eventStart": "2022-12-24T06:22:53",
      "eventStop": "2022-12-24T07:00:24",
      "duration": 37,
      "status": "Genuine",
      "associatedSiteId": 110097,
      "outfallName": "SANDOWN NO2",
      "isImpacting": true,
      "overFlowSiteId": 0,
      "historicSpillsList": [
        {
          "id": 343993097,
          "eventId": 703759,
          "siteUnitNumber": 12623,
          "bathingSite": "YAVERLAND",
          "eventStart": "2022-12-24T06:22:53",
          "eventStop": "2022-12-24T07:00:24",
          "duration": 37,
          "status": "Genuine",
          "associatedSiteId": 110097,
          "outfallName": "SANDOWN NO2",
          "isImpacting": true,
          "overFlowSiteId": 115454,
          "historicSpillsList": []
        }
      ]
    },
    {
      "id": 343984277,
      "eventId": 703040,
      "siteUnitNumber": 12594,
      "bathingSite": "BOGNOR REGIS EAST",
      "eventStart": "2022-12-23T17:30:00",
      "eventStop": "2022-12-24T06:30:00",
      "duration": 780,
      "status": "Genuine",
      "associatedSiteId": 109959,
      "outfallName": "WEST PARK BOGNOR REGIS",
      "isImpacting": true,
      "overFlowSiteId": 0,
      "historicSpillsList": [
        {
          "id": 343984277,
          "eventId": 703040,
          "siteUnitNumber": 12594,
          "bathingSite": "BOGNOR REGIS EAST",
          "eventStart": "2022-12-23T17:30:00",
          "eventStop": "2022-12-24T06:30:00",
          "duration": 780,
          "status": "Genuine",
          "associatedSiteId": 109959,
          "outfallName": "WEST PARK BOGNOR REGIS",
          "isImpacting": true,
          "overFlowSiteId": 108160
        }
      ]
    },
    {
      "id": 343967482,
      "eventId": 709068,
      "siteUnitNumber": 12606,
      "bathingSite": "LEE-ON-SOLENT",
      "eventStart": "2022-12-24T06:05:00",
      "eventStop": "2022-12-24T06:29:00",
      "duration": 24,
      "status": "Genuine",
      "associatedSiteId": 109732,
      "outfallName": "PEEL COMMON",
      "isImpacting": true,
      "overFlowSiteId": 0,
      "historicSpillsList": [
        {
          "id": 343967486,
          "eventId": 709068,
          "siteUnitNumber": 12605,
          "bathingSite": "STOKES BAY",
          "eventStart": "2022-12-24T06:05:00",
          "eventStop": "2022-12-24T06:29:00",
          "duration": 24,
          "status": "Genuine",
          "associatedSiteId": 109732,
          "outfallName": "PEEL COMMON",
          "isImpacting": true,
          "overFlowSiteId": 115425,
          "historicSpillsList": []
        }
      ]
    },
    {
      "id": 344002922,
      "eventId": 701903,
      "siteUnitNumber": 12662,
      "bathingSite": "CHICHESTER HARBOUR",
      "eventStart": "2022-12-23T07:54:16",
      "eventStop": "2022-12-24T06:29:00",
      "duration": 1354,
      "status": "Genuine",
      "associatedSiteId": 116025,
      "outfallName": "PRIORS LEAZE LANE NUTBOURNE",
      "isImpacting": true,
      "overFlowSiteId": 0,
      "historicSpillsList": [
        {
          "id": 344002922,
          "eventId": 701903,
          "siteUnitNumber": 12662,
          "bathingSite": "CHICHESTER HARBOUR",
          "eventStart": "2022-12-23T07:54:16",
          "eventStop": "2022-12-24T06:29:00",
          "duration": 1354,
          "status": "Genuine",
          "associatedSiteId": 116025,
          "outfallName": "PRIORS LEAZE LANE NUTBOURNE",
          "isImpacting": true,
          "overFlowSiteId": 111267
        }
      ]
    }
  ]
}