{
  "currentPage": 524,
  "totalItems": 21025,
  "totalPages": 841,
  "items": [
    {
      "id": 344854420,
      "eventId": 654489,
      "siteUnitNumber": 12577,
      "bathingSite": "BEXHILL",
      "eventStart": "2022-11-03T11:02:00",
      "eventStop": "2022-11-03T11:40:00",
      "duration": 38,
      "status": "Genuine",
      "associatedSiteId": 115501,
      "outfallName": "LONDON ROAD BEXHILL",
      "isImpacting": true,
      "overFlowSiteId": 0,
      "historicSpillsList": [
        {
          "id": 344854420,
          "eventId": 654489,
          "siteUnitNumber": 12577,
          "bathingSite": "BEXHILL",
          "eventStart": "2022-11-03T11:02:00",
          "eventStop": "2022-11-03T11:40:00",
          "duration": 38,
          "status": "Genuine",
          "associatedSiteId": 115501,
          "outfallName": "LONDON ROAD BEXHILL",
          "isImpacting": true,
          "overFlowSiteId": 108171
        }
      ]
    },
    {
      "id": 344822991,
      "eventId": 654562,
      "siteUnitNumber": 12661,
      "bathingSite": "LANGSTONE HARBOUR",
      "eventStart": "2022-11-03T04:29:00",
      "eventStop": "2022-11-03T11:29:00",
      "duration": 420,
      "status": "Genuine",
      "associatedSiteId": 109819,
      "outfallName": "COURT LANE COSHAM",
      "isImpacting": true,
      "overFlowSiteId": 0,
      "historicSpillsList": [
        {
          "id": 344822991,
          "eventId": 654562,
          "siteUnitNumber": 12661,
          "bathingSite": "LANGSTONE HARBOUR",
          "eventStart": "2022-11-03T04:29:00",
          "eventStop": "2022-11-03T11:29:00",
          "duration": 420,
          "status": "Genuine",
          "associatedSiteId": 109819,
          "outfallName": "COURT LANE COSHAM",
          "isImpacting": true,
          "overFlowSiteId": 115958
        }
      ]
    },
    {
      "id": 344812647,
      "eventId": 656097,
      "siteUnitNumber": 12544,
      "bathingSite": "SHEERNESS",
      "eventStart": "2022-11-03T11:05:00",
      "eventStop": "2022-11-03T11:20:00",
      "duration": 15,
      "status": "Genuine",
      "associatedSiteId": 109614,
      "outfallName": "BRIELLE WAY WESTMINSTER",
      "isImpacting": false,
      "overFlowSiteId": 0,
      "historicSpillsList": []
    },
    {
      "id": 344817579,
      "eventId": 653266,
      "siteUnitNumber": 12616,
      "bathingSite": "GURNARD",
      "eventStart": "2022-11-03T03:47:00",
      "eventStop": "2022-11-03T11:19:00",
      "duration": 452,
      "status": "Genuine",
      "associatedSiteId": 109704,
      "outfallName": "EGYPT POINT COWES",
      "isImpacting": true,
      "overFlowSiteId": 0,
      "historicSpillsList": [
        {
          "id": 344817580,
          "eventId": 653266,
          "siteUnitNumber": 12617,
          "bathingSite": "COWES",
          "eventStart": "2022-11-03T03:47:00",
          "eventStop": "2022-11-03T11:19:00",
          "duration": 452,
          "status": "Genuine",
          "associatedSiteId": 109704,
          "outfallName": "EGYPT POINT COWES",
          "isImpacting": true,
          "overFlowSiteId": 116213,
          "historicSpillsList": []
        }
      ]
    },
    {
      "id": 344832636,
      "eventId": 654151,
      "siteUnitNumber": 12581,
      "bathingSite": "BIRLING GAP",
      "eventStart": "2022-11-03T08:15:00",
      "eventStop": "2022-11-03T11:15:00",
      "duration": 180,
      "status": "Genuine",
      "associatedSiteId": 109936,
      "outfallName": "EAST DEAN",
      "isImpacting": true,
      "overFlowSiteId": 0,
      "historicSpillsList": [
        {
          "id": 344832636,
          "eventId": 654151,
          "siteUnitNumber": 12581,
          "bathingSite": "BIRLING GAP",
          "eventStart": "2022-11-03T08:15:00",
          "eventStop": "2022-11-03T11:15:00",
          "duration": 180,
          "status": "Genuine",
          "associatedSiteId": 109936,
          "outfallName": "EAST DEAN",
          "isImpacting": true,
          "overFlowSiteId": 115829
        }
      ]
    },
    {
      "id": 344822395,
      "eventId": 652929,
      "siteUnitNumber": 12618,
      "bathingSite": "RYDE",
      "eventStart": "2022-11-03T00:45:33",
      "eventStop": "2022-11-03T11:11:00",
      "duration": 625,
      "status": "Genuine",
      "associatedSiteId": 109787,
      "outfallName": "SALTERNS ROAD SEAVIEW",
      "isImpacting": true,
      "overFlowSiteId": 0,
      "historicSpillsList": [
        {
          "id": 344822395,
          "eventId": 652929,
          "siteUnitNumber": 12618,
          "bathingSite": "RYDE",
          "eventStart": "2022-11-03T00:45:33",
          "eventStop": "2022-11-03T11:11:00",
          "duration": 625,
          "status": "Genuine",
          "associatedSiteId": 109787,
          "outfallName": "SALTERNS ROAD SEAVIEW",
          "isImpacting": true,
          "overFlowSiteId": 107411
        },
        {
          "id": 344822396,
          "eventId": 652929,
          "siteUnitNumber": 12619,
          "bathingSite": "SEAGROVE",
          "eventStart": "2022-11-03T00:45:33",
          "eventStop": "2022-11-03T11:11:00",
          "duration": 625,
          "status": "Genuine",
          "associatedSiteId": 109787,
          "outfallName": "SALTERNS ROAD SEAVIEW",
          "isImpacting": true,
          "overFlowSiteId": 107411,
          "historicSpillsList": []
        },
        {
          "id": 344822397,
          "eventId": 652929,
          "siteUnitNumber": 12620,
          "bathingSite": "ST HELENS",
          "eventStart": "2022-11-03T00:45:33",
          "eventStop": "2022-11-03T11:11:00",
          "duration": 625,
          "status": "Genuine",
          "associatedSiteId": 109787,
          "outfallName": "SALTERNS ROAD SEAVIEW",
          "isImpacting": true,
          "overFlowSiteId": 107411,
          "historicSpillsList": []
        }
      ]
    },
    {
      "id": 344854422,
      "eventId": 653909,
      "siteUnitNumber": 12578,
      "bathingSite": "NORMANS BAY",
      "eventStart": "2022-11-03T10:49:00",
      "eventStop": "2022-11-03T11:10:00",
      "duration": 21,
      "status": "Genuine",
      "associatedSiteId": 115502,
      "outfallName": "MAPLE WALK BEXHILL",
      "isImpacting": true,
      "overFlowSiteId": 0,
      "historicSpillsList": [
        {
          "id": 344854422,
          "eventId": 653909,
          "siteUnitNumber": 12578,
          "bathingSite": "NORMANS BAY",
          "eventStart": "2022-11-03T10:49:00",
          "eventStop": "2022-11-03T11:10:00",
          "duration": 21,
          "status": "Genuine",
          "associatedSiteId": 115502,
          "outfallName": "MAPLE WALK BEXHILL",
          "isImpacting": true,
          "overFlowSiteId": 102404
        }
      ]
    },
    {
      "id": 344823975,
      "eventId": 654041,
      "siteUnitNumber": 12661,
      "bathingSite": "LANGSTONE HARBOUR",
      "eventStart": "2022-11-03T09:26:00",
      "eventStop": "2022-11-03T11:07:00",
      "duration": 101,
      "status": "Genuine",
      "associatedSiteId": 109823,
      "outfallName": "FORT CUMBERLAND NO1",
      "isImpacting": true,
      "overFlowSiteId": 0,
      "historicSpillsList": [
        {
          "id": 344823975,
          "eventId": 654041,
          "siteUnitNumber": 12661,
          "bathingSite": "LANGSTONE HARBOUR",
          "eventStart": "2022-11-03T09:26:00",
          "eventStop": "2022-11-03T11:07:00",
          "duration": 101,
          "status": "Genuine",
          "associatedSiteId": 109823,
          "outfallName": "FORT CUMBERLAND NO1",
          "isImpacting": true,
          "overFlowSiteId": 110658
        }
      ]
    },
    {
      "id": 344847857,
      "eventId": 657198,
      "siteUnitNumber": 12616,
      "bathingSite": "GURNARD",
      "eventStart": "2022-11-03T10:52:00",
      "eventStop": "2022-11-03T10:57:00",
      "duration": 5,
      "status": "Genuine",
      "associatedSiteId": 110701,
      "outfallName": "TERMINUS ROAD COWES 2",
      "isImpacting": true,
      "overFlowSiteId": 0,
      "historicSpillsList": [
        {
          "id": 344847857,
          "eventId": 657198,
          "siteUnitNumber": 12616,
          "bathingSite": "GURNARD",
          "eventStart": "2022-11-03T10:52:00",
          "eventStop": "2022-11-03T10:57:00",
          "duration": 5,
          "status": "Genuine",
          "associatedSiteId": 110701,
          "outfallName": "TERMINUS ROAD COWES 2",
          "isImpacting": true,
          "overFlowSiteId": 108562
        },
        {
          "id": 344847858,
          "eventId": 657198,
          "siteUnitNumber": 12617,
          "bathingSite": "COWES",
          "eventStart": "2022-11-03T10:52:00",
          "eventStop": "2022-11-03T10:57:00",
          "duration": 5,
          "status": "Genuine",
          "associatedSiteId": 110701,
          "outfallName": "TERMINUS ROAD COWES 2",
          "isImpacting": true,
          "overFlowSiteId": 108562,
          "historicSpillsList": []
        }
      ]
    },
    {
      "id": 344837873,
      "eventId": 656258,
      "siteUnitNumber": 12591,
      "bathingSite": "LITTLEHAMPTON",
      "eventStart": "2022-11-03T05:44:00",
      "eventStop": "2022-11-03T10:56:00",
      "duration": 312,
      "status": "Genuine",
      "associatedSiteId": 109968,
      "outfallName": "FORD ROAD ARUNDEL",
      "isImpacting": true,
      "overFlowSiteId": 0,
      "historicSpillsList": [
        {
          "id": 344837873,
          "eventId": 656258,
          "siteUnitNumber": 12591,
          "bathingSite": "LITTLEHAMPTON",
          "eventStart": "2022-11-03T05:44:00",
          "eventStop": "2022-11-03T10:56:00",
          "duration": 312,
          "status": "Genuine",
          "associatedSiteId": 109968,
          "outfallName": "FORD ROAD ARUNDEL",
          "isImpacting": true,
          "overFlowSiteId": 108002
        }
      ]
    },
    {
      "id": 344838043,
      "eventId": 653564,
      "siteUnitNumber": 12593,
      "bathingSite": "FELPHAM",
      "eventStart": "2022-11-03T05:48:00",
      "eventStop": "2022-11-03T10:52:00",
      "duration": 304,
      "status": "Genuine",
      "associatedSiteId": 109970,
      "outfallName": "CHICHESTER ROAD BOGNOR",
      "isImpacting": true,
      "overFlowSiteId": 0,
      "historicSpillsList": [
        {
          "id": 344838043,
          "eventId": 653564,
          "siteUnitNumber": 12593,
          "bathingSite": "FELPHAM",
          "eventStart": "2022-11-03T05:48:00",
          "eventStop": "2022-11-03T10:52:00",
          "duration": 304,
          "status": "Genuine",
          "associatedSiteId": 109970,
          "outfallName": "CHICHESTER ROAD BOGNOR",
          "isImpacting": true,
          "overFlowSiteId": 103301
        },
        {
          "id": 344838044,
          "eventId": 653564,
          "siteUnitNumber": 12594,
          "bathingSite": "BOGNOR REGIS EAST",
          "eventStart": "2022-11-03T05:48:00",
          "eventStop": "2022-11-03T10:52:00",
          "duration": 304,
          "status": "Genuine",
          "associatedSiteId": 109970,
          "outfallName": "CHICHESTER ROAD BOGNOR",
          "isImpacting": true,
          "overFlowSiteId": 103301,
          "historicSpillsList": []
        },
        {
          "id": 344838045,
          "eventId": 653564,
          "siteUnitNumber": 12595,
          "bathingSite": "BOGNOR REGIS (ALDWICK)",
          "eventStart": "2022-11-03T05:48:00",
          "eventStop": "2022-11-03T10:52:00",
          "duration": 304,
          "status": "Genuine",
          "associatedSiteId": 109970,
          "outfallName": "CHICHESTER ROAD BOGNOR",
          "isImpacting": true,
          "overFlowSiteId": 103301,
          "historicSpillsList": []
        }
      ]
    },
    {
      "id": 344847859,
      "eventId": 657183,
      "siteUnitNumber": 12616,
      "bathingSite": "GURNARD",
      "eventStart": "2022-11-03T10:49:00",
      "eventStop": "2022-11-03T10:51:00",
      "duration": 2,
      "status": "Genuine",
      "associatedSiteId": 110701,
      "outfallName": "TERMINUS ROAD COWES 2",
      "isImpacting": true,
      "overFlowSiteId": 0,
      "historicSpillsList": [
        {
          "id": 344847859,
          "eventId": 657183,
          "siteUnitNumber": 12616,
          "bathingSite": "GURNARD",
          "eventStart": "2022-11-03T10:49:00",
          "eventStop": "2022-11-03T10:51:00",
          "duration": 2,
          "status": "Genuine",
          "associatedSiteId": 110701,
          "outfallName": "TERMINUS ROAD COWES 2",
          "isImpacting": true,
          "overFlowSiteId": 108562
        },
        {
          "id": 344847860,
          "eventId": 657183,
          "siteUnitNumber": 12617,
          "bathingSite": "COWES",
          "eventStart": "2022-11-03T10:49:00",
          "eventStop": "2022-11-03T10:51:00",
          "duration": 2,
          "status": "Genuine",
          "associatedSiteId": 110701,
          "outfallName": "TERMINUS ROAD COWES 2",
          "isImpacting": true,
          "overFlowSiteId": 108562,
          "historicSpillsList": []
        }
      ]
    },
    {
      "id": 344847861,
      "eventId": 657182,
      "siteUnitNumber": 12616,
      "bathingSite": "GURNARD",
      "eventStart": "2022-11-03T10:43:00",
      "eventStop": "2022-11-03T10:48:00",
      "duration": 5,
      "status": "Genuine",
      "associatedSiteId": 110701,
      "outfallName": "TERMINUS ROAD COWES 2",
      "isImpacting": true,
      "overFlowSiteId": 0,
      "historicSpillsList": [
        {
          "id": 344847861,
          "eventId": 657182,
          "siteUnitNumber": 12616,
          "bathingSite": "GURNARD",
          "eventStart": "2022-11-03T10:43:00",
          "eventStop": "2022-11-03T10:48:00",
          "duration": 5,
          "status": "Genuine",
          "associatedSiteId": 110701,
          "outfallName": "TERMINUS ROAD COWES 2",
          "isImpacting": true,
          "overFlowSiteId": 108562
        },
        {
          "id": 344847862,
          "eventId": 657182,
          "siteUnitNumber": 12617,
          "bathingSite": "COWES",
          "eventStart": "2022-11-03T10:43:00",
          "eventStop": "2022-11-03T10:48:00",
          "duration": 5,
          "status": "Genuine",
          "associatedSiteId": 110701,
          "outfallName": "TERMINUS ROAD COWES 2",
          "isImpacting": true,
          "overFlowSiteId": 108562,
          "historicSpillsList": []
        }
      ]
    },
    {
      "id": 344847871,
      "eventId": 653216,
      "siteUnitNumber": 12616,
      "bathingSite": "GURNARD",
      "eventStart": "2022-11-03T03:19:06",
      "eventStop": "2022-11-03T10:47:00",
      "duration": 447,
      "status": "Genuine",
      "associatedSiteId": 110701,
      "outfallName": "TERMINUS ROAD COWES 2",
      "isImpacting": true,
      "overFlowSiteId": 0,
      "historicSpillsList": [
        {
          "id": 344847871,
          "eventId": 653216,
          "siteUnitNumber": 12616,
          "bathingSite": "GURNARD",
          "eventStart": "2022-11-03T03:19:06",
          "eventStop": "2022-11-03T10:47:00",
          "duration": 447,
          "status": "Genuine",
          "associatedSiteId": 110701,
          "outfallName": "TERMINUS ROAD COWES 2",
          "isImpacting": true,
          "overFlowSiteId": 108563
        },
        {
          "id": 344847872,
          "eventId": 653216,
          "siteUnitNumber": 12617,
          "bathingSite": "COWES",
          "eventStart": "2022-11-03T03:19:06",
          "eventStop": "2022-11-03T10:47:00",
          "duration": 447,
          "status": "Genuine",
          "associatedSiteId": 110701,
          "outfallName": "TERMINUS ROAD COWES 2",
          "isImpacting": true,
          "overFlowSiteId": 108563,
          "historicSpillsList": []
        }
      ]
    },
    {
      "id": 344826282,
      "eventId": 656275,
      "siteUnitNumber": 12544,
      "bathingSite": "SHEERNESS",
      "eventStart": "2022-11-03T08:10:00",
      "eventStop": "2022-11-03T10:21:00",
      "duration": 131,
      "status": "Genuine",
      "associatedSiteId": 109869,
      "outfallName": "GRAIN NO2",
      "isImpacting": true,
      "overFlowSiteId": 0,
      "historicSpillsList": [
        {
          "id": 344826282,
          "eventId": 656275,
          "siteUnitNumber": 12544,
          "bathingSite": "SHEERNESS",
          "eventStart": "2022-11-03T08:10:00",
          "eventStop": "2022-11-03T10:21:00",
          "duration": 131,
          "status": "Genuine",
          "associatedSiteId": 109869,
          "outfallName": "GRAIN NO2",
          "isImpacting": true,
          "overFlowSiteId": 115411
        }
      ]
    },
    {
      "id": 344812648,
      "eventId": 656096,
      "siteUnitNumber": 12544,
      "bathingSite": "SHEERNESS",
      "eventStart": "2022-11-03T09:52:00",
      "eventStop": "2022-11-03T10:20:00",
      "duration": 28,
      "status": "Genuine",
      "associatedSiteId": 109614,
      "outfallName": "BRIELLE WAY WESTMINSTER",
      "isImpacting": false,
      "overFlowSiteId": 0,
      "historicSpillsList": []
    },
    {
      "id": 344812950,
      "eventId": 653980,
      "siteUnitNumber": 12550,
      "bathingSite": "MINSTER LEAS",
      "eventStart": "2022-11-03T08:52:19",
      "eventStop": "2022-11-03T09:56:51",
      "duration": 64,
      "status": "Genuine",
      "associatedSiteId": 109620,
      "outfallName": "WESTCLIFFE DRIVE MINSTER IOS",
      "isImpacting": false,
      "overFlowSiteId": 0,
      "historicSpillsList": []
    },
    {
      "id": 344825252,
      "eventId": 654303,
      "siteUnitNumber": 12547,
      "bathingSite": "WEST BEACH WHITSTABLE",
      "eventStart": "2022-11-03T09:28:31",
      "eventStop": "2022-11-03T09:45:00",
      "duration": 16,
      "status": "Genuine",
      "associatedSiteId": 109831,
      "outfallName": "TANKERTON CIRCUS",
      "isImpacting": true,
      "overFlowSiteId": 0,
      "historicSpillsList": [
        {
          "id": 344825253,
          "eventId": 654303,
          "siteUnitNumber": 12548,
          "bathingSite": "TANKERTON",
          "eventStart": "2022-11-03T09:28:31",
          "eventStop": "2022-11-03T09:45:00",
          "duration": 16,
          "status": "Genuine",
          "associatedSiteId": 109831,
          "outfallName": "TANKERTON CIRCUS",
          "isImpacting": true,
          "overFlowSiteId": 102252,
          "historicSpillsList": []
        }
      ]
    },
    {
      "id": 344823602,
      "eventId": 656290,
      "siteUnitNumber": 12604,
      "bathingSite": "SOUTHSEA EAST",
      "eventStart": "2022-11-03T08:36:00",
      "eventStop": "2022-11-03T09:45:00",
      "duration": 69,
      "status": "Genuine",
      "associatedSiteId": 109822,
      "outfallName": "PIER ROAD SOUTHSEA",
      "isImpacting": true,
      "overFlowSiteId": 0,
      "historicSpillsList": [
        {
          "id": 344823602,
          "eventId": 656290,
          "siteUnitNumber": 12604,
          "bathingSite": "SOUTHSEA EAST",
          "eventStart": "2022-11-03T08:36:00",
          "eventStop": "2022-11-03T09:45:00",
          "duration": 69,
          "status": "Genuine",
          "associatedSiteId": 109822,
          "outfallName": "PIER ROAD SOUTHSEA",
          "isImpacting": true,
          "overFlowSiteId": 108469
        },
        {
          "id": 344823603,
          "eventId": 656290,
          "siteUnitNumber": 12605,
          "bathingSite": "STOKES BAY",
          "eventStart": "2022-11-03T08:36:00",
          "eventStop": "2022-11-03T09:45:00",
          "duration": 69,
          "status": "Genuine",
          "associatedSiteId": 109822,
          "outfallName": "PIER ROAD SOUTHSEA",
          "isImpacting": true,
          "overFlowSiteId": 108469,
          "historicSpillsList": []
        }
      ]
    },
    {
      "id": 344822536,
      "eventId": 653373,
      "siteUnitNumber": 12618,
      "bathingSite": "RYDE",
      "eventStart": "2022-11-03T04:50:00",
      "eventStop": "2022-11-03T09:39:00",
      "duration": 289,
      "status": "Genuine",
      "associatedSiteId": 109790,
      "outfallName": "GREAT PRESTON ROAD RYDE",
      "isImpacting": true,
      "overFlowSiteId": 0,
      "historicSpillsList": [
        {
          "id": 344822536,
          "eventId": 653373,
          "siteUnitNumber": 12618,
          "bathingSite": "RYDE",
          "eventStart": "2022-11-03T04:50:00",
          "eventStop": "2022-11-03T09:39:00",
          "duration": 289,
          "status": "Genuine",
          "associatedSiteId": 109790,
          "outfallName": "GREAT PRESTON ROAD RYDE",
          "isImpacting": true,
          "overFlowSiteId": 109304
        },
        {
          "id": 344822537,
          "eventId": 653373,
          "siteUnitNumber": 12619,
          "bathingSite": "SEAGROVE",
          "eventStart": "2022-11-03T04:50:00",
          "eventStop": "2022-11-03T09:39:00",
          "duration": 289,
          "status": "Genuine",
          "associatedSiteId": 109790,
          "outfallName": "GREAT PRESTON ROAD RYDE",
          "isImpacting": true,
          "overFlowSiteId": 109304,
          "historicSpillsList": []
        }
      ]
    },
    {
      "id": 344812649,
      "eventId": 656095,
      "siteUnitNumber": 12544,
      "bathingSite": "SHEERNESS",
      "eventStart": "2022-11-03T09:15:00",
      "eventStop": "2022-11-03T09:34:00",
      "duration": 19,
      "status": "Genuine",
      "associatedSiteId": 109614,
      "outfallName": "BRIELLE WAY WESTMINSTER",
      "isImpacting": false,
      "overFlowSiteId": 0,
      "historicSpillsList": []
    },
    {
      "id": 344840139,
      "eventId": 652822,
      "siteUnitNumber": 12623,
      "bathingSite": "YAVERLAND",
      "eventStart": "2022-11-03T04:20:00",
      "eventStop": "2022-11-03T09:28:00",
      "duration": 308,
      "status": "Genuine",
      "associatedSiteId": 110029,
      "outfallName": "HOPE BEACH SHANKLIN NEW",
      "isImpacting": true,
      "overFlowSiteId": 0,
      "historicSpillsList": [
        {
          "id": 344840132,
          "eventId": 652822,
          "siteUnitNumber": 12625,
          "bathingSite": "SHANKLIN",
          "eventStart": "2022-11-03T04:20:00",
          "eventStop": "2022-11-03T09:28:00",
          "duration": 308,
          "status": "Genuine",
          "associatedSiteId": 110029,
          "outfallName": "HOPE BEACH SHANKLIN NEW",
          "isImpacting": true,
          "overFlowSiteId": 109389,
          "historicSpillsList": []
        }
      ]
    },
    {
      "id": 344824120,
      "eventId": 653643,
      "siteUnitNumber": 12608,
      "bathingSite": "CALSHOT",
      "eventStart": "2022-11-03T07:43:00",
      "eventStop": "2022-11-03T09:22:00",
      "duration": 99,
      "status": "Genuine",
      "associatedSiteId": 109826,
      "outfallName": "ASHLETT CREEK FAWLEY",
      "isImpacting": true,
      "overFlowSiteId": 0,
      "historicSpillsList": [
        {
          "id": 344824120,
          "eventId": 653643,
          "siteUnitNumber": 12608,
          "bathingSite": "CALSHOT",
          "eventStart": "2022-11-03T07:43:00",
          "eventStop": "2022-11-03T09:22:00",
          "duration": 99,
          "status": "Genuine",
          "associatedSiteId": 109826,
          "outfallName": "ASHLETT CREEK FAWLEY",
          "isImpacting": true,
          "overFlowSiteId": 115372
        }
      ]
    },
    {
      "id": 344820073,
      "eventId": 654887,
      "siteUnitNumber": 12661,
      "bathingSite": "LANGSTONE HARBOUR",
      "eventStart": "2022-11-03T05:30:00",
      "eventStop": "2022-11-03T09:00:00",
      "duration": 210,
      "status": "Not Genuine",
      "associatedSiteId": 109772,
      "outfallName": "BUDDS FARM HAVANT NO1",
      "isImpacting": true,
      "overFlowSiteId": 0,
      "historicSpillsList": []
    },
    {
      "id": 344812653,
      "eventId": 654187,
      "siteUnitNumber": 12544,
      "bathingSite": "SHEERNESS",
      "eventStart": "2022-11-03T08:44:00",
      "eventStop": "2022-11-03T08:59:00",
      "duration": 15,
      "status": "Genuine",
      "associatedSiteId": 109614,
      "outfallName": "BRIELLE WAY WESTMINSTER",
      "isImpacting": false,
      "overFlowSiteId": 0,
      "historicSpillsList": []
    }
  ]
}