{
  "currentPage": 540,
  "totalItems": 21025,
  "totalPages": 841,
  "items": [
    {
      "id": 344839648,
      "eventId": 644245,
      "siteUnitNumber": 12567,
      "bathingSite": "FOLKESTONE",
      "eventStart": "2022-10-20T10:54:00",
      "eventStop": "2022-10-20T11:31:00",
      "duration": 37,
      "status": "Genuine",
      "associatedSiteId": 110010,
      "outfallName": "THE STADE FOLKESTONE",
      "isImpacting": false,
      "overFlowSiteId": 0,
      "historicSpillsList": []
    },
    {
      "id": 344849036,
      "eventId": 644166,
      "siteUnitNumber": 12582,
      "bathingSite": "SEAFORD",
      "eventStart": "2022-10-20T09:13:01",
      "eventStop": "2022-10-20T11:26:26",
      "duration": 133,
      "status": "Genuine",
      "associatedSiteId": 110920,
      "outfallName": "NEWHAVEN",
      "isImpacting": false,
      "overFlowSiteId": 0,
      "historicSpillsList": []
    },
    {
      "id": 344832154,
      "eventId": 647971,
      "siteUnitNumber": 12586,
      "bathingSite": "HOVE",
      "eventStart": "2022-10-20T09:32:00",
      "eventStop": "2022-10-20T11:26:00",
      "duration": 114,
      "status": "Genuine",
      "associatedSiteId": 109929,
      "outfallName": "SHOREHAM NO1",
      "isImpacting": true,
      "overFlowSiteId": 0,
      "historicSpillsList": [
        {
          "id": 344832154,
          "eventId": 647971,
          "siteUnitNumber": 12586,
          "bathingSite": "HOVE",
          "eventStart": "2022-10-20T09:32:00",
          "eventStop": "2022-10-20T11:26:00",
          "duration": 114,
          "status": "Genuine",
          "associatedSiteId": 109929,
          "outfallName": "SHOREHAM NO1",
          "isImpacting": true,
          "overFlowSiteId": 115434
        },
        {
          "id": 344832155,
          "eventId": 647971,
          "siteUnitNumber": 12587,
          "bathingSite": "SOUTHWICK",
          "eventStart": "2022-10-20T09:32:00",
          "eventStop": "2022-10-20T11:26:00",
          "duration": 114,
          "status": "Genuine",
          "associatedSiteId": 109929,
          "outfallName": "SHOREHAM NO1",
          "isImpacting": true,
          "overFlowSiteId": 115434,
          "historicSpillsList": []
        },
        {
          "id": 344832156,
          "eventId": 647971,
          "siteUnitNumber": 12588,
          "bathingSite": "SHOREHAM BEACH",
          "eventStart": "2022-10-20T09:32:00",
          "eventStop": "2022-10-20T11:26:00",
          "duration": 114,
          "status": "Genuine",
          "associatedSiteId": 109929,
          "outfallName": "SHOREHAM NO1",
          "isImpacting": true,
          "overFlowSiteId": 115434,
          "historicSpillsList": []
        }
      ]
    },
    {
      "id": 344837387,
      "eventId": 644158,
      "siteUnitNumber": 12591,
      "bathingSite": "LITTLEHAMPTON",
      "eventStart": "2022-10-20T09:22:44",
      "eventStop": "2022-10-20T10:49:24",
      "duration": 86,
      "status": "Not Genuine",
      "associatedSiteId": 109965,
      "outfallName": "SEA ROAD LITTLEHAMPTON",
      "isImpacting": false,
      "overFlowSiteId": 0,
      "historicSpillsList": []
    },
    {
      "id": 344828708,
      "eventId": 644152,
      "siteUnitNumber": 12568,
      "bathingSite": "SANDGATE",
      "eventStart": "2022-10-20T09:00:00",
      "eventStop": "2022-10-20T10:47:00",
      "duration": 107,
      "status": "Genuine",
      "associatedSiteId": 109897,
      "outfallName": "RANGE ROAD HYTHE K LONG",
      "isImpacting": true,
      "overFlowSiteId": 0,
      "historicSpillsList": [
        {
          "id": 344828708,
          "eventId": 644152,
          "siteUnitNumber": 12568,
          "bathingSite": "SANDGATE",
          "eventStart": "2022-10-20T09:00:00",
          "eventStop": "2022-10-20T10:47:00",
          "duration": 107,
          "status": "Genuine",
          "associatedSiteId": 109897,
          "outfallName": "RANGE ROAD HYTHE K LONG",
          "isImpacting": true,
          "overFlowSiteId": 116048
        }
      ]
    },
    {
      "id": 344834308,
      "eventId": 644176,
      "siteUnitNumber": 12582,
      "bathingSite": "SEAFORD",
      "eventStart": "2022-10-20T10:00:00",
      "eventStop": "2022-10-20T10:30:00",
      "duration": 30,
      "status": "Genuine",
      "associatedSiteId": 109957,
      "outfallName": "PORTOBELLO BRIGHTON NO2",
      "isImpacting": false,
      "overFlowSiteId": 0,
      "historicSpillsList": []
    },
    {
      "id": 344836477,
      "eventId": 644186,
      "siteUnitNumber": 12594,
      "bathingSite": "BOGNOR REGIS EAST",
      "eventStart": "2022-10-20T09:45:00",
      "eventStop": "2022-10-20T10:28:00",
      "duration": 43,
      "status": "Genuine",
      "associatedSiteId": 109959,
      "outfallName": "WEST PARK BOGNOR REGIS",
      "isImpacting": false,
      "overFlowSiteId": 0,
      "historicSpillsList": []
    },
    {
      "id": 344832639,
      "eventId": 644218,
      "siteUnitNumber": 12581,
      "bathingSite": "BIRLING GAP",
      "eventStart": "2022-10-20T09:18:00",
      "eventStop": "2022-10-20T10:15:00",
      "duration": 57,
      "status": "Genuine",
      "associatedSiteId": 109936,
      "outfallName": "EAST DEAN",
      "isImpacting": true,
      "overFlowSiteId": 0,
      "historicSpillsList": [
        {
          "id": 344832639,
          "eventId": 644218,
          "siteUnitNumber": 12581,
          "bathingSite": "BIRLING GAP",
          "eventStart": "2022-10-20T09:18:00",
          "eventStop": "2022-10-20T10:15:00",
          "duration": 57,
          "status": "Genuine",
          "associatedSiteId": 109936,
          "outfallName": "EAST DEAN",
          "isImpacting": true,
          "overFlowSiteId": 115829
        }
      ]
    },
    {
      "id": 344812658,
      "eventId": 644130,
      "siteUnitNumber": 12544,
      "bathingSite": "SHEERNESS",
      "eventStart": "2022-10-20T08:27:32",
      "eventStop": "2022-10-20T10:15:00",
      "duration": 107,
      "status": "Not Genuine",
      "associatedSiteId": 109614,
      "outfallName": "BRIELLE WAY WESTMINSTER",
      "isImpacting": false,
      "overFlowSiteId": 0,
      "historicSpillsList": []
    },
    {
      "id": 344830410,
      "eventId": 644187,
      "siteUnitNumber": 12576,
      "bathingSite": "ST LEONARDS",
      "eventStart": "2022-10-20T09:48:15",
      "eventStop": "2022-10-20T10:11:00",
      "duration": 22,
      "status": "Genuine",
      "associatedSiteId": 109903,
      "outfallName": "BEXHILL & HASTINGS NO2",
      "isImpacting": true,
      "overFlowSiteId": 0,
      "historicSpillsList": [
        {
          "id": 344830410,
          "eventId": 644187,
          "siteUnitNumber": 12576,
          "bathingSite": "ST LEONARDS",
          "eventStart": "2022-10-20T09:48:15",
          "eventStop": "2022-10-20T10:11:00",
          "duration": 22,
          "status": "Genuine",
          "associatedSiteId": 109903,
          "outfallName": "BEXHILL & HASTINGS NO2",
          "isImpacting": true,
          "overFlowSiteId": 115398
        },
        {
          "id": 344830411,
          "eventId": 644187,
          "siteUnitNumber": 12577,
          "bathingSite": "BEXHILL",
          "eventStart": "2022-10-20T09:48:15",
          "eventStop": "2022-10-20T10:11:00",
          "duration": 22,
          "status": "Genuine",
          "associatedSiteId": 109903,
          "outfallName": "BEXHILL & HASTINGS NO2",
          "isImpacting": true,
          "overFlowSiteId": 115398,
          "historicSpillsList": []
        }
      ]
    },
    {
      "id": 344849712,
      "eventId": 644178,
      "siteUnitNumber": 12549,
      "bathingSite": "HERNE BAY CENTRAL",
      "eventStart": "2022-10-20T09:28:00",
      "eventStop": "2022-10-20T09:44:00",
      "duration": 16,
      "status": "Genuine",
      "associatedSiteId": 111724,
      "outfallName": "GAINSBOROUGH DRIVE HERNE BAY",
      "isImpacting": true,
      "overFlowSiteId": 0,
      "historicSpillsList": [
        {
          "id": 344849712,
          "eventId": 644178,
          "siteUnitNumber": 12549,
          "bathingSite": "HERNE BAY CENTRAL",
          "eventStart": "2022-10-20T09:28:00",
          "eventStop": "2022-10-20T09:44:00",
          "duration": 16,
          "status": "Genuine",
          "associatedSiteId": 111724,
          "outfallName": "GAINSBOROUGH DRIVE HERNE BAY",
          "isImpacting": true,
          "overFlowSiteId": 111725
        },
        {
          "id": 344849713,
          "eventId": 644178,
          "siteUnitNumber": 12551,
          "bathingSite": "HERNE BAY",
          "eventStart": "2022-10-20T09:28:00",
          "eventStop": "2022-10-20T09:44:00",
          "duration": 16,
          "status": "Genuine",
          "associatedSiteId": 111724,
          "outfallName": "GAINSBOROUGH DRIVE HERNE BAY",
          "isImpacting": true,
          "overFlowSiteId": 111725,
          "historicSpillsList": []
        }
      ]
    },
    {
      "id": 344812752,
      "eventId": 644060,
      "siteUnitNumber": 12544,
      "bathingSite": "SHEERNESS",
      "eventStart": "2022-10-20T07:48:00",
      "eventStop": "2022-10-20T09:37:00",
      "duration": 109,
      "status": "Genuine",
      "associatedSiteId": 109616,
      "outfallName": "SOUTH STREET QUEENBOROUGH",
      "isImpacting": true,
      "overFlowSiteId": 0,
      "historicSpillsList": [
        {
          "id": 344812752,
          "eventId": 644060,
          "siteUnitNumber": 12544,
          "bathingSite": "SHEERNESS",
          "eventStart": "2022-10-20T07:48:00",
          "eventStop": "2022-10-20T09:37:00",
          "duration": 109,
          "status": "Genuine",
          "associatedSiteId": 109616,
          "outfallName": "SOUTH STREET QUEENBOROUGH",
          "isImpacting": true,
          "overFlowSiteId": 108732
        }
      ]
    },
    {
      "id": 344830414,
      "eventId": 643988,
      "siteUnitNumber": 12576,
      "bathingSite": "ST LEONARDS",
      "eventStart": "2022-10-20T07:01:02",
      "eventStop": "2022-10-20T09:37:00",
      "duration": 155,
      "status": "Genuine",
      "associatedSiteId": 109903,
      "outfallName": "BEXHILL & HASTINGS NO2",
      "isImpacting": true,
      "overFlowSiteId": 0,
      "historicSpillsList": [
        {
          "id": 344830414,
          "eventId": 643988,
          "siteUnitNumber": 12576,
          "bathingSite": "ST LEONARDS",
          "eventStart": "2022-10-20T07:01:02",
          "eventStop": "2022-10-20T09:37:00",
          "duration": 155,
          "status": "Genuine",
          "associatedSiteId": 109903,
          "outfallName": "BEXHILL & HASTINGS NO2",
          "isImpacting": true,
          "overFlowSiteId": 115398
        },
        {
          "id": 344830415,
          "eventId": 643988,
          "siteUnitNumber": 12577,
          "bathingSite": "BEXHILL",
          "eventStart": "2022-10-20T07:01:02",
          "eventStop": "2022-10-20T09:37:00",
          "duration": 155,
          "status": "Genuine",
          "associatedSiteId": 109903,
          "outfallName": "BEXHILL & HASTINGS NO2",
          "isImpacting": true,
          "overFlowSiteId": 115398,
          "historicSpillsList": []
        }
      ]
    },
    {
      "id": 344837882,
      "eventId": 644169,
      "siteUnitNumber": 12591,
      "bathingSite": "LITTLEHAMPTON",
      "eventStart": "2022-10-20T09:15:00",
      "eventStop": "2022-10-20T09:35:00",
      "duration": 20,
      "status": "Genuine",
      "associatedSiteId": 109968,
      "outfallName": "FORD ROAD ARUNDEL",
      "isImpacting": false,
      "overFlowSiteId": 0,
      "historicSpillsList": []
    },
    {
      "id": 344847889,
      "eventId": 644139,
      "siteUnitNumber": 12616,
      "bathingSite": "GURNARD",
      "eventStart": "2022-10-20T09:00:00",
      "eventStop": "2022-10-20T09:05:23",
      "duration": 5,
      "status": "Genuine",
      "associatedSiteId": 110701,
      "outfallName": "TERMINUS ROAD COWES 2",
      "isImpacting": true,
      "overFlowSiteId": 0,
      "historicSpillsList": [
        {
          "id": 344847889,
          "eventId": 644139,
          "siteUnitNumber": 12616,
          "bathingSite": "GURNARD",
          "eventStart": "2022-10-20T09:00:00",
          "eventStop": "2022-10-20T09:05:23",
          "duration": 5,
          "status": "Genuine",
          "associatedSiteId": 110701,
          "outfallName": "TERMINUS ROAD COWES 2",
          "isImpacting": true,
          "overFlowSiteId": 108563
        },
        {
          "id": 344847890,
          "eventId": 644139,
          "siteUnitNumber": 12617,
          "bathingSite": "COWES",
          "eventStart": "2022-10-20T09:00:00",
          "eventStop": "2022-10-20T09:05:23",
          "duration": 5,
          "status": "Genuine",
          "associatedSiteId": 110701,
          "outfallName": "TERMINUS ROAD COWES 2",
          "isImpacting": true,
          "overFlowSiteId": 108563,
          "historicSpillsList": []
        }
      ]
    },
    {
      "id": 344837386,
      "eventId": 644013,
      "siteUnitNumber": 12591,
      "bathingSite": "LITTLEHAMPTON",
      "eventStart": "2022-10-20T07:20:18",
      "eventStop": "2022-10-20T08:37:18",
      "duration": 77,
      "status": "Not Genuine",
      "associatedSiteId": 109965,
      "outfallName": "SEA ROAD LITTLEHAMPTON",
      "isImpacting": false,
      "overFlowSiteId": 0,
      "historicSpillsList": []
    },
    {
      "id": 344828710,
      "eventId": 644099,
      "siteUnitNumber": 12568,
      "bathingSite": "SANDGATE",
      "eventStart": "2022-10-20T07:22:00",
      "eventStop": "2022-10-20T07:55:00",
      "duration": 33,
      "status": "Genuine",
      "associatedSiteId": 109897,
      "outfallName": "RANGE ROAD HYTHE K LONG",
      "isImpacting": true,
      "overFlowSiteId": 0,
      "historicSpillsList": [
        {
          "id": 344828710,
          "eventId": 644099,
          "siteUnitNumber": 12568,
          "bathingSite": "SANDGATE",
          "eventStart": "2022-10-20T07:22:00",
          "eventStop": "2022-10-20T07:55:00",
          "duration": 33,
          "status": "Genuine",
          "associatedSiteId": 109897,
          "outfallName": "RANGE ROAD HYTHE K LONG",
          "isImpacting": true,
          "overFlowSiteId": 116048
        }
      ]
    },
    {
      "id": 344825266,
      "eventId": 643993,
      "siteUnitNumber": 12548,
      "bathingSite": "TANKERTON",
      "eventStart": "2022-10-20T07:10:10",
      "eventStop": "2022-10-20T07:45:00",
      "duration": 34,
      "status": "Genuine",
      "associatedSiteId": 109831,
      "outfallName": "TANKERTON CIRCUS",
      "isImpacting": true,
      "overFlowSiteId": 0,
      "historicSpillsList": [
        {
          "id": 344825266,
          "eventId": 643993,
          "siteUnitNumber": 12548,
          "bathingSite": "TANKERTON",
          "eventStart": "2022-10-20T07:10:10",
          "eventStop": "2022-10-20T07:45:00",
          "duration": 34,
          "status": "Genuine",
          "associatedSiteId": 109831,
          "outfallName": "TANKERTON CIRCUS",
          "isImpacting": true,
          "overFlowSiteId": 103280
        }
      ]
    },
    {
      "id": 344849438,
      "eventId": 644026,
      "siteUnitNumber": 12577,
      "bathingSite": "BEXHILL",
      "eventStart": "2022-10-20T07:35:58",
      "eventStop": "2022-10-20T07:35:58",
      "duration": 0,
      "status": "Not Genuine",
      "associatedSiteId": 111304,
      "outfallName": "ROEDEAN CLOSE BEXHILL",
      "isImpacting": true,
      "overFlowSiteId": 0,
      "historicSpillsList": []
    },
    {
      "id": 344825267,
      "eventId": 644010,
      "siteUnitNumber": 12547,
      "bathingSite": "WEST BEACH WHITSTABLE",
      "eventStart": "2022-10-20T07:15:00",
      "eventStop": "2022-10-20T07:32:00",
      "duration": 17,
      "status": "Genuine",
      "associatedSiteId": 109831,
      "outfallName": "TANKERTON CIRCUS",
      "isImpacting": true,
      "overFlowSiteId": 0,
      "historicSpillsList": [
        {
          "id": 344825268,
          "eventId": 644010,
          "siteUnitNumber": 12548,
          "bathingSite": "TANKERTON",
          "eventStart": "2022-10-20T07:15:00",
          "eventStop": "2022-10-20T07:32:00",
          "duration": 17,
          "status": "Genuine",
          "associatedSiteId": 109831,
          "outfallName": "TANKERTON CIRCUS",
          "isImpacting": true,
          "overFlowSiteId": 102252,
          "historicSpillsList": []
        }
      ]
    },
    {
      "id": 344825264,
      "eventId": 644664,
      "siteUnitNumber": 12547,
      "bathingSite": "WEST BEACH WHITSTABLE",
      "eventStart": "2022-10-20T07:06:00",
      "eventStop": "2022-10-20T07:24:00",
      "duration": 18,
      "status": "Genuine",
      "associatedSiteId": 109831,
      "outfallName": "TANKERTON CIRCUS",
      "isImpacting": true,
      "overFlowSiteId": 0,
      "historicSpillsList": [
        {
          "id": 344825264,
          "eventId": 644664,
          "siteUnitNumber": 12547,
          "bathingSite": "WEST BEACH WHITSTABLE",
          "eventStart": "2022-10-20T07:06:00",
          "eventStop": "2022-10-20T07:24:00",
          "duration": 18,
          "status": "Genuine",
          "associatedSiteId": 109831,
          "outfallName": "TANKERTON CIRCUS",
          "isImpacting": true,
          "overFlowSiteId": 103281
        },
        {
          "id": 344825265,
          "eventId": 644664,
          "siteUnitNumber": 12548,
          "bathingSite": "TANKERTON",
          "eventStart": "2022-10-20T07:06:00",
          "eventStop": "2022-10-20T07:24:00",
          "duration": 18,
          "status": "Genuine",
          "associatedSiteId": 109831,
          "outfallName": "TANKERTON CIRCUS",
          "isImpacting": true,
          "overFlowSiteId": 103281,
          "historicSpillsList": []
        }
      ]
    },
    {
      "id": 344832158,
      "eventId": 643664,
      "siteUnitNumber": 12586,
      "bathingSite": "HOVE",
      "eventStart": "2022-10-18T22:05:39",
      "eventStop": "2022-10-19T11:13:54",
      "duration": 788,
      "status": "Not Genuine",
      "associatedSiteId": 109929,
      "outfallName": "SHOREHAM NO1",
      "isImpacting": true,
      "overFlowSiteId": 0,
      "historicSpillsList": []
    },
    {
      "id": 344836480,
      "eventId": 643005,
      "siteUnitNumber": 12595,
      "bathingSite": "BOGNOR REGIS (ALDWICK)",
      "eventStart": "2022-10-17T06:00:00",
      "eventStop": "2022-10-17T13:02:00",
      "duration": 422,
      "status": "Genuine",
      "associatedSiteId": 109959,
      "outfallName": "WEST PARK BOGNOR REGIS",
      "isImpacting": true,
      "overFlowSiteId": 0,
      "historicSpillsList": [
        {
          "id": 344836485,
          "eventId": 643005,
          "siteUnitNumber": 12594,
          "bathingSite": "BOGNOR REGIS EAST",
          "eventStart": "2022-10-17T06:00:00",
          "eventStop": "2022-10-17T13:02:00",
          "duration": 422,
          "status": "Genuine",
          "associatedSiteId": 109959,
          "outfallName": "WEST PARK BOGNOR REGIS",
          "isImpacting": true,
          "overFlowSiteId": 108160,
          "historicSpillsList": []
        }
      ]
    },
    {
      "id": 344840554,
      "eventId": 643155,
      "siteUnitNumber": 12593,
      "bathingSite": "FELPHAM",
      "eventStart": "2022-10-17T09:56:29",
      "eventStop": "2022-10-17T12:57:00",
      "duration": 180,
      "status": "Genuine",
      "associatedSiteId": 110095,
      "outfallName": "LIDSEY",
      "isImpacting": true,
      "overFlowSiteId": 0,
      "historicSpillsList": [
        {
          "id": 344840554,
          "eventId": 643155,
          "siteUnitNumber": 12593,
          "bathingSite": "FELPHAM",
          "eventStart": "2022-10-17T09:56:29",
          "eventStop": "2022-10-17T12:57:00",
          "duration": 180,
          "status": "Genuine",
          "associatedSiteId": 110095,
          "outfallName": "LIDSEY",
          "isImpacting": true,
          "overFlowSiteId": 115776
        }
      ]
    },
    {
      "id": 344841613,
      "eventId": 643039,
      "siteUnitNumber": 12624,
      "bathingSite": "SANDOWN",
      "eventStart": "2022-10-17T07:24:00",
      "eventStop": "2022-10-17T11:46:00",
      "duration": 262,
      "status": "Genuine",
      "associatedSiteId": 110096,
      "outfallName": "SANDOWN NO1",
      "isImpacting": true,
      "overFlowSiteId": 0,
      "historicSpillsList": [
        {
          "id": 344841613,
          "eventId": 643039,
          "siteUnitNumber": 12624,
          "bathingSite": "SANDOWN",
          "eventStart": "2022-10-17T07:24:00",
          "eventStop": "2022-10-17T11:46:00",
          "duration": 262,
          "status": "Genuine",
          "associatedSiteId": 110096,
          "outfallName": "SANDOWN NO1",
          "isImpacting": true,
          "overFlowSiteId": 115453
        },
        {
          "id": 344841619,
          "eventId": 643039,
          "siteUnitNumber": 12622,
          "bathingSite": "WHITECLIFF BAY",
          "eventStart": "2022-10-17T07:24:00",
          "eventStop": "2022-10-17T11:46:00",
          "duration": 262,
          "status": "Genuine",
          "associatedSiteId": 110096,
          "outfallName": "SANDOWN NO1",
          "isImpacting": true,
          "overFlowSiteId": 115453,
          "historicSpillsList": []
        }
      ]
    }
  ]
}