{
  "currentPage": 792,
  "totalItems": 21025,
  "totalPages": 841,
  "items": [
    {
      "id": 344882289,
      "eventId": 343515,
      "siteUnitNumber": 12567,
      "bathingSite": "FOLKESTONE",
      "eventStart": "2021-02-07T19:48:26",
      "eventStop": "2021-02-07T20:58:18",
      "duration": 69,
      "status": "Genuine",
      "associatedSiteId": 110010,
      "outfallName": "THE STADE FOLKESTONE",
      "isImpacting": true,
      "overFlowSiteId": 0,
      "historicSpillsList": [
        {
          "id": 344882289,
          "eventId": 343515,
          "siteUnitNumber": 12567,
          "bathingSite": "FOLKESTONE",
          "eventStart": "2021-02-07T19:48:26",
          "eventStop": "2021-02-07T20:58:18",
          "duration": 69,
          "status": "Genuine",
          "associatedSiteId": 110010,
          "outfallName": "THE STADE FOLKESTONE",
          "isImpacting": true,
          "overFlowSiteId": 108909
        }
      ]
    },
    {
      "id": 344882288,
      "eventId": 343412,
      "siteUnitNumber": 12567,
      "bathingSite": "FOLKESTONE",
      "eventStart": "2021-02-07T19:15:00",
      "eventStop": "2021-02-07T19:47:00",
      "duration": 32,
      "status": "Genuine",
      "associatedSiteId": 110010,
      "outfallName": "THE STADE FOLKESTONE",
      "isImpacting": true,
      "overFlowSiteId": 0,
      "historicSpillsList": [
        {
          "id": 344882288,
          "eventId": 343412,
          "siteUnitNumber": 12567,
          "bathingSite": "FOLKESTONE",
          "eventStart": "2021-02-07T19:15:00",
          "eventStop": "2021-02-07T19:47:00",
          "duration": 32,
          "status": "Genuine",
          "associatedSiteId": 110010,
          "outfallName": "THE STADE FOLKESTONE",
          "isImpacting": true,
          "overFlowSiteId": 108909
        }
      ]
    },
    {
      "id": 344882283,
      "eventId": 344325,
      "siteUnitNumber": 12567,
      "bathingSite": "FOLKESTONE",
      "eventStart": "2021-02-07T18:00:00",
      "eventStop": "2021-02-07T19:14:00",
      "duration": 74,
      "status": "Genuine",
      "associatedSiteId": 110010,
      "outfallName": "THE STADE FOLKESTONE",
      "isImpacting": true,
      "overFlowSiteId": 0,
      "historicSpillsList": [
        {
          "id": 344882283,
          "eventId": 344325,
          "siteUnitNumber": 12567,
          "bathingSite": "FOLKESTONE",
          "eventStart": "2021-02-07T18:00:00",
          "eventStop": "2021-02-07T19:14:00",
          "duration": 74,
          "status": "Genuine",
          "associatedSiteId": 110010,
          "outfallName": "THE STADE FOLKESTONE",
          "isImpacting": true,
          "overFlowSiteId": 108909
        }
      ]
    },
    {
      "id": 344868248,
      "eventId": 343263,
      "siteUnitNumber": 12548,
      "bathingSite": "TANKERTON",
      "eventStart": "2021-02-07T15:22:48",
      "eventStop": "2021-02-07T18:18:48",
      "duration": 176,
      "status": "Genuine",
      "associatedSiteId": 109835,
      "outfallName": "SWALECLIFFE NO2",
      "isImpacting": true,
      "overFlowSiteId": 0,
      "historicSpillsList": [
        {
          "id": 344868248,
          "eventId": 343263,
          "siteUnitNumber": 12548,
          "bathingSite": "TANKERTON",
          "eventStart": "2021-02-07T15:22:48",
          "eventStop": "2021-02-07T18:18:48",
          "duration": 176,
          "status": "Genuine",
          "associatedSiteId": 109835,
          "outfallName": "SWALECLIFFE NO2",
          "isImpacting": true,
          "overFlowSiteId": 115445
        },
        {
          "id": 344868249,
          "eventId": 343263,
          "siteUnitNumber": 12549,
          "bathingSite": "HERNE BAY CENTRAL",
          "eventStart": "2021-02-07T15:22:48",
          "eventStop": "2021-02-07T18:18:48",
          "duration": 176,
          "status": "Genuine",
          "associatedSiteId": 109835,
          "outfallName": "SWALECLIFFE NO2",
          "isImpacting": true,
          "overFlowSiteId": 115445,
          "historicSpillsList": []
        }
      ]
    },
    {
      "id": 344882175,
      "eventId": 343359,
      "siteUnitNumber": 12546,
      "bathingSite": "LEYSDOWN",
      "eventStart": "2021-02-07T17:13:37",
      "eventStop": "2021-02-07T18:12:04",
      "duration": 58,
      "status": "Genuine",
      "associatedSiteId": 109998,
      "outfallName": "MUSTARDS ROAD LEYSDOWN ON SEA",
      "isImpacting": true,
      "overFlowSiteId": 0,
      "historicSpillsList": [
        {
          "id": 344882175,
          "eventId": 343359,
          "siteUnitNumber": 12546,
          "bathingSite": "LEYSDOWN",
          "eventStart": "2021-02-07T17:13:37",
          "eventStop": "2021-02-07T18:12:04",
          "duration": 58,
          "status": "Genuine",
          "associatedSiteId": 109998,
          "outfallName": "MUSTARDS ROAD LEYSDOWN ON SEA",
          "isImpacting": true,
          "overFlowSiteId": 108113
        }
      ]
    },
    {
      "id": 344881103,
      "eventId": 366502,
      "siteUnitNumber": 12591,
      "bathingSite": "LITTLEHAMPTON",
      "eventStart": "2021-02-07T16:13:00",
      "eventStop": "2021-02-07T18:06:00",
      "duration": 113,
      "status": "Genuine",
      "associatedSiteId": 109977,
      "outfallName": "FORESHORE TANK LITTLEHAMPTON",
      "isImpacting": true,
      "overFlowSiteId": 0,
      "historicSpillsList": [
        {
          "id": 344881103,
          "eventId": 366502,
          "siteUnitNumber": 12591,
          "bathingSite": "LITTLEHAMPTON",
          "eventStart": "2021-02-07T16:13:00",
          "eventStop": "2021-02-07T18:06:00",
          "duration": 113,
          "status": "Genuine",
          "associatedSiteId": 109977,
          "outfallName": "FORESHORE TANK LITTLEHAMPTON",
          "isImpacting": true,
          "overFlowSiteId": 109390
        }
      ]
    },
    {
      "id": 344891240,
      "eventId": 343371,
      "siteUnitNumber": 12662,
      "bathingSite": "CHICHESTER HARBOUR",
      "eventStart": "2021-02-07T16:23:01",
      "eventStop": "2021-02-07T17:45:00",
      "duration": 81,
      "status": "Genuine",
      "associatedSiteId": 110760,
      "outfallName": "BOSHAM",
      "isImpacting": true,
      "overFlowSiteId": 0,
      "historicSpillsList": [
        {
          "id": 344891240,
          "eventId": 343371,
          "siteUnitNumber": 12662,
          "bathingSite": "CHICHESTER HARBOUR",
          "eventStart": "2021-02-07T16:23:01",
          "eventStop": "2021-02-07T17:45:00",
          "duration": 81,
          "status": "Genuine",
          "associatedSiteId": 110760,
          "outfallName": "BOSHAM",
          "isImpacting": true,
          "overFlowSiteId": 115735
        }
      ]
    },
    {
      "id": 344855197,
      "eventId": 342597,
      "siteUnitNumber": 12546,
      "bathingSite": "LEYSDOWN",
      "eventStart": "2021-02-07T04:36:26",
      "eventStop": "2021-02-07T17:09:56",
      "duration": 753,
      "status": "Genuine",
      "associatedSiteId": 109613,
      "outfallName": "BARROWS BROOK EASTCHURCH",
      "isImpacting": true,
      "overFlowSiteId": 0,
      "historicSpillsList": [
        {
          "id": 344855197,
          "eventId": 342597,
          "siteUnitNumber": 12546,
          "bathingSite": "LEYSDOWN",
          "eventStart": "2021-02-07T04:36:26",
          "eventStop": "2021-02-07T17:09:56",
          "duration": 753,
          "status": "Genuine",
          "associatedSiteId": 109613,
          "outfallName": "BARROWS BROOK EASTCHURCH",
          "isImpacting": true,
          "overFlowSiteId": 108109
        }
      ]
    },
    {
      "id": 344882176,
      "eventId": 342640,
      "siteUnitNumber": 12546,
      "bathingSite": "LEYSDOWN",
      "eventStart": "2021-02-07T05:31:49",
      "eventStop": "2021-02-07T17:08:34",
      "duration": 696,
      "status": "Genuine",
      "associatedSiteId": 109998,
      "outfallName": "MUSTARDS ROAD LEYSDOWN ON SEA",
      "isImpacting": true,
      "overFlowSiteId": 0,
      "historicSpillsList": [
        {
          "id": 344882176,
          "eventId": 342640,
          "siteUnitNumber": 12546,
          "bathingSite": "LEYSDOWN",
          "eventStart": "2021-02-07T05:31:49",
          "eventStop": "2021-02-07T17:08:34",
          "duration": 696,
          "status": "Genuine",
          "associatedSiteId": 109998,
          "outfallName": "MUSTARDS ROAD LEYSDOWN ON SEA",
          "isImpacting": true,
          "overFlowSiteId": 108113
        }
      ]
    },
    {
      "id": 344858236,
      "eventId": 343456,
      "siteUnitNumber": 12551,
      "bathingSite": "HERNE BAY",
      "eventStart": "2021-02-07T15:48:00",
      "eventStop": "2021-02-07T16:59:00",
      "duration": 71,
      "status": "Genuine",
      "associatedSiteId": 109676,
      "outfallName": "KINGS HALL HERNE BAY A",
      "isImpacting": true,
      "overFlowSiteId": 0,
      "historicSpillsList": [
        {
          "id": 344858236,
          "eventId": 343456,
          "siteUnitNumber": 12551,
          "bathingSite": "HERNE BAY",
          "eventStart": "2021-02-07T15:48:00",
          "eventStop": "2021-02-07T16:59:00",
          "duration": 71,
          "status": "Genuine",
          "associatedSiteId": 109676,
          "outfallName": "KINGS HALL HERNE BAY A",
          "isImpacting": true,
          "overFlowSiteId": 108096
        },
        {
          "id": 344858239,
          "eventId": 343456,
          "siteUnitNumber": 12549,
          "bathingSite": "HERNE BAY CENTRAL",
          "eventStart": "2021-02-07T15:48:00",
          "eventStop": "2021-02-07T16:59:00",
          "duration": 71,
          "status": "Genuine",
          "associatedSiteId": 109676,
          "outfallName": "KINGS HALL HERNE BAY A",
          "isImpacting": true,
          "overFlowSiteId": 108096,
          "historicSpillsList": []
        }
      ]
    },
    {
      "id": 344891241,
      "eventId": 343186,
      "siteUnitNumber": 12662,
      "bathingSite": "CHICHESTER HARBOUR",
      "eventStart": "2021-02-07T14:15:00",
      "eventStop": "2021-02-07T16:15:00",
      "duration": 120,
      "status": "Genuine",
      "associatedSiteId": 110760,
      "outfallName": "BOSHAM",
      "isImpacting": true,
      "overFlowSiteId": 0,
      "historicSpillsList": [
        {
          "id": 344891241,
          "eventId": 343186,
          "siteUnitNumber": 12662,
          "bathingSite": "CHICHESTER HARBOUR",
          "eventStart": "2021-02-07T14:15:00",
          "eventStop": "2021-02-07T16:15:00",
          "duration": 120,
          "status": "Genuine",
          "associatedSiteId": 110760,
          "outfallName": "BOSHAM",
          "isImpacting": true,
          "overFlowSiteId": 115735
        }
      ]
    },
    {
      "id": 344882287,
      "eventId": 342755,
      "siteUnitNumber": 12567,
      "bathingSite": "FOLKESTONE",
      "eventStart": "2021-02-07T07:26:50",
      "eventStop": "2021-02-07T15:45:25",
      "duration": 498,
      "status": "Genuine",
      "associatedSiteId": 110010,
      "outfallName": "THE STADE FOLKESTONE",
      "isImpacting": true,
      "overFlowSiteId": 0,
      "historicSpillsList": [
        {
          "id": 344882287,
          "eventId": 342755,
          "siteUnitNumber": 12567,
          "bathingSite": "FOLKESTONE",
          "eventStart": "2021-02-07T07:26:50",
          "eventStop": "2021-02-07T15:45:25",
          "duration": 498,
          "status": "Genuine",
          "associatedSiteId": 110010,
          "outfallName": "THE STADE FOLKESTONE",
          "isImpacting": true,
          "overFlowSiteId": 108909
        }
      ]
    },
    {
      "id": 344896664,
      "eventId": 345764,
      "siteUnitNumber": 12614,
      "bathingSite": "TOTLAND BAY",
      "eventStart": "2021-02-06T22:11:00",
      "eventStop": "2021-02-07T15:29:00",
      "duration": 1038,
      "status": "Genuine",
      "associatedSiteId": 115498,
      "outfallName": "NORTON TRANSFER IOW",
      "isImpacting": true,
      "overFlowSiteId": 0,
      "historicSpillsList": [
        {
          "id": 344896664,
          "eventId": 345764,
          "siteUnitNumber": 12614,
          "bathingSite": "TOTLAND BAY",
          "eventStart": "2021-02-06T22:11:00",
          "eventStop": "2021-02-07T15:29:00",
          "duration": 1038,
          "status": "Genuine",
          "associatedSiteId": 115498,
          "outfallName": "NORTON TRANSFER IOW",
          "isImpacting": true,
          "overFlowSiteId": 109524
        },
        {
          "id": 344896665,
          "eventId": 345764,
          "siteUnitNumber": 12615,
          "bathingSite": "COLWELL BAY",
          "eventStart": "2021-02-06T22:11:00",
          "eventStop": "2021-02-07T15:29:00",
          "duration": 1038,
          "status": "Genuine",
          "associatedSiteId": 115498,
          "outfallName": "NORTON TRANSFER IOW",
          "isImpacting": true,
          "overFlowSiteId": 109524,
          "historicSpillsList": []
        }
      ]
    },
    {
      "id": 344868246,
      "eventId": 343455,
      "siteUnitNumber": 12548,
      "bathingSite": "TANKERTON",
      "eventStart": "2021-02-07T14:00:00",
      "eventStop": "2021-02-07T15:22:48",
      "duration": 82,
      "status": "Genuine",
      "associatedSiteId": 109835,
      "outfallName": "SWALECLIFFE NO2",
      "isImpacting": true,
      "overFlowSiteId": 0,
      "historicSpillsList": [
        {
          "id": 344868246,
          "eventId": 343455,
          "siteUnitNumber": 12548,
          "bathingSite": "TANKERTON",
          "eventStart": "2021-02-07T14:00:00",
          "eventStop": "2021-02-07T15:22:48",
          "duration": 82,
          "status": "Genuine",
          "associatedSiteId": 109835,
          "outfallName": "SWALECLIFFE NO2",
          "isImpacting": true,
          "overFlowSiteId": 115445
        },
        {
          "id": 344868247,
          "eventId": 343455,
          "siteUnitNumber": 12549,
          "bathingSite": "HERNE BAY CENTRAL",
          "eventStart": "2021-02-07T14:00:00",
          "eventStop": "2021-02-07T15:22:48",
          "duration": 82,
          "status": "Genuine",
          "associatedSiteId": 109835,
          "outfallName": "SWALECLIFFE NO2",
          "isImpacting": true,
          "overFlowSiteId": 115445,
          "historicSpillsList": []
        }
      ]
    },
    {
      "id": 344891242,
      "eventId": 342959,
      "siteUnitNumber": 12662,
      "bathingSite": "CHICHESTER HARBOUR",
      "eventStart": "2021-02-07T10:30:00",
      "eventStop": "2021-02-07T14:00:00",
      "duration": 210,
      "status": "Genuine",
      "associatedSiteId": 110760,
      "outfallName": "BOSHAM",
      "isImpacting": true,
      "overFlowSiteId": 0,
      "historicSpillsList": [
        {
          "id": 344891242,
          "eventId": 342959,
          "siteUnitNumber": 12662,
          "bathingSite": "CHICHESTER HARBOUR",
          "eventStart": "2021-02-07T10:30:00",
          "eventStop": "2021-02-07T14:00:00",
          "duration": 210,
          "status": "Genuine",
          "associatedSiteId": 110760,
          "outfallName": "BOSHAM",
          "isImpacting": true,
          "overFlowSiteId": 115735
        }
      ]
    },
    {
      "id": 344860633,
      "eventId": 343210,
      "siteUnitNumber": 12616,
      "bathingSite": "GURNARD",
      "eventStart": "2021-02-07T08:39:00",
      "eventStop": "2021-02-07T13:34:00",
      "duration": 295,
      "status": "Genuine",
      "associatedSiteId": 109705,
      "outfallName": "SPRINGHILL COWES TRANSFER",
      "isImpacting": true,
      "overFlowSiteId": 0,
      "historicSpillsList": [
        {
          "id": 344860633,
          "eventId": 343210,
          "siteUnitNumber": 12616,
          "bathingSite": "GURNARD",
          "eventStart": "2021-02-07T08:39:00",
          "eventStop": "2021-02-07T13:34:00",
          "duration": 295,
          "status": "Genuine",
          "associatedSiteId": 109705,
          "outfallName": "SPRINGHILL COWES TRANSFER",
          "isImpacting": true,
          "overFlowSiteId": 108943
        },
        {
          "id": 344860634,
          "eventId": 343210,
          "siteUnitNumber": 12617,
          "bathingSite": "COWES",
          "eventStart": "2021-02-07T08:39:00",
          "eventStop": "2021-02-07T13:34:00",
          "duration": 295,
          "status": "Genuine",
          "associatedSiteId": 109705,
          "outfallName": "SPRINGHILL COWES TRANSFER",
          "isImpacting": true,
          "overFlowSiteId": 108943,
          "historicSpillsList": []
        }
      ]
    },
    {
      "id": 344891778,
      "eventId": 342757,
      "siteUnitNumber": 12582,
      "bathingSite": "SEAFORD",
      "eventStart": "2021-02-07T07:28:38",
      "eventStop": "2021-02-07T12:42:50",
      "duration": 314,
      "status": "Genuine",
      "associatedSiteId": 110920,
      "outfallName": "NEWHAVEN",
      "isImpacting": true,
      "overFlowSiteId": 0,
      "historicSpillsList": [
        {
          "id": 344891778,
          "eventId": 342757,
          "siteUnitNumber": 12582,
          "bathingSite": "SEAFORD",
          "eventStart": "2021-02-07T07:28:38",
          "eventStop": "2021-02-07T12:42:50",
          "duration": 314,
          "status": "Genuine",
          "associatedSiteId": 110920,
          "outfallName": "NEWHAVEN",
          "isImpacting": true,
          "overFlowSiteId": 116065
        }
      ]
    },
    {
      "id": 344868190,
      "eventId": 342844,
      "siteUnitNumber": 12547,
      "bathingSite": "WEST BEACH WHITSTABLE",
      "eventStart": "2021-02-07T08:20:00",
      "eventStop": "2021-02-07T12:39:00",
      "duration": 259,
      "status": "Genuine",
      "associatedSiteId": 109832,
      "outfallName": "GORREL NO1",
      "isImpacting": true,
      "overFlowSiteId": 0,
      "historicSpillsList": [
        {
          "id": 344868190,
          "eventId": 342844,
          "siteUnitNumber": 12547,
          "bathingSite": "WEST BEACH WHITSTABLE",
          "eventStart": "2021-02-07T08:20:00",
          "eventStop": "2021-02-07T12:39:00",
          "duration": 259,
          "status": "Genuine",
          "associatedSiteId": 109832,
          "outfallName": "GORREL NO1",
          "isImpacting": true,
          "overFlowSiteId": 103279
        },
        {
          "id": 344868191,
          "eventId": 342844,
          "siteUnitNumber": 12548,
          "bathingSite": "TANKERTON",
          "eventStart": "2021-02-07T08:20:00",
          "eventStop": "2021-02-07T12:39:00",
          "duration": 259,
          "status": "Genuine",
          "associatedSiteId": 109832,
          "outfallName": "GORREL NO1",
          "isImpacting": true,
          "overFlowSiteId": 103279,
          "historicSpillsList": []
        }
      ]
    },
    {
      "id": 344875425,
      "eventId": 342358,
      "siteUnitNumber": 12621,
      "bathingSite": "BEMBRIDGE",
      "eventStart": "2021-02-07T00:59:54",
      "eventStop": "2021-02-07T11:45:00",
      "duration": 645,
      "status": "Genuine",
      "associatedSiteId": 109937,
      "outfallName": "HILLWAY BEMBRIDGE",
      "isImpacting": true,
      "overFlowSiteId": 0,
      "historicSpillsList": [
        {
          "id": 344875425,
          "eventId": 342358,
          "siteUnitNumber": 12621,
          "bathingSite": "BEMBRIDGE",
          "eventStart": "2021-02-07T00:59:54",
          "eventStop": "2021-02-07T11:45:00",
          "duration": 645,
          "status": "Genuine",
          "associatedSiteId": 109937,
          "outfallName": "HILLWAY BEMBRIDGE",
          "isImpacting": true,
          "overFlowSiteId": 108529
        },
        {
          "id": 344875428,
          "eventId": 342358,
          "siteUnitNumber": 12620,
          "bathingSite": "ST HELENS",
          "eventStart": "2021-02-07T00:59:54",
          "eventStop": "2021-02-07T11:45:00",
          "duration": 645,
          "status": "Genuine",
          "associatedSiteId": 109937,
          "outfallName": "HILLWAY BEMBRIDGE",
          "isImpacting": true,
          "overFlowSiteId": 108529,
          "historicSpillsList": []
        }
      ]
    },
    {
      "id": 344881109,
      "eventId": 342868,
      "siteUnitNumber": 12591,
      "bathingSite": "LITTLEHAMPTON",
      "eventStart": "2021-02-07T10:15:00",
      "eventStop": "2021-02-07T11:25:00",
      "duration": 70,
      "status": "Genuine",
      "associatedSiteId": 109977,
      "outfallName": "FORESHORE TANK LITTLEHAMPTON",
      "isImpacting": true,
      "overFlowSiteId": 0,
      "historicSpillsList": [
        {
          "id": 344881109,
          "eventId": 342868,
          "siteUnitNumber": 12591,
          "bathingSite": "LITTLEHAMPTON",
          "eventStart": "2021-02-07T10:15:00",
          "eventStop": "2021-02-07T11:25:00",
          "duration": 70,
          "status": "Genuine",
          "associatedSiteId": 109977,
          "outfallName": "FORESHORE TANK LITTLEHAMPTON",
          "isImpacting": true,
          "overFlowSiteId": 109390
        }
      ]
    },
    {
      "id": 344858237,
      "eventId": 342800,
      "siteUnitNumber": 12549,
      "bathingSite": "HERNE BAY CENTRAL",
      "eventStart": "2021-02-07T09:46:00",
      "eventStop": "2021-02-07T11:07:00",
      "duration": 81,
      "status": "Genuine",
      "associatedSiteId": 109676,
      "outfallName": "KINGS HALL HERNE BAY A",
      "isImpacting": true,
      "overFlowSiteId": 0,
      "historicSpillsList": [
        {
          "id": 344858237,
          "eventId": 342800,
          "siteUnitNumber": 12549,
          "bathingSite": "HERNE BAY CENTRAL",
          "eventStart": "2021-02-07T09:46:00",
          "eventStop": "2021-02-07T11:07:00",
          "duration": 81,
          "status": "Genuine",
          "associatedSiteId": 109676,
          "outfallName": "KINGS HALL HERNE BAY A",
          "isImpacting": true,
          "overFlowSiteId": 108096
        },
        {
          "id": 344858238,
          "eventId": 342800,
          "siteUnitNumber": 12551,
          "bathingSite": "HERNE BAY",
          "eventStart": "2021-02-07T09:46:00",
          "eventStop": "2021-02-07T11:07:00",
          "duration": 81,
          "status": "Genuine",
          "associatedSiteId": 109676,
          "outfallName": "KINGS HALL HERNE BAY A",
          "isImpacting": true,
          "overFlowSiteId": 108096,
          "historicSpillsList": []
        }
      ]
    },
    {
      "id": 344897436,
      "eventId": 342914,
      "siteUnitNumber": 12662,
      "bathingSite": "CHICHESTER HARBOUR",
      "eventStart": "2021-02-07T09:58:00",
      "eventStop": "2021-02-07T11:00:00",
      "duration": 62,
      "status": "Genuine",
      "associatedSiteId": 116108,
      "outfallName": "TAYLORS LANE BOSHAM PS PUMPED",
      "isImpacting": true,
      "overFlowSiteId": 0,
      "historicSpillsList": [
        {
          "id": 344897436,
          "eventId": 342914,
          "siteUnitNumber": 12662,
          "bathingSite": "CHICHESTER HARBOUR",
          "eventStart": "2021-02-07T09:58:00",
          "eventStop": "2021-02-07T11:00:00",
          "duration": 62,
          "status": "Genuine",
          "associatedSiteId": 116108,
          "outfallName": "TAYLORS LANE BOSHAM PS PUMPED",
          "isImpacting": true,
          "overFlowSiteId": 116066
        }
      ]
    },
    {
      "id": 344897260,
      "eventId": 342911,
      "siteUnitNumber": 12662,
      "bathingSite": "CHICHESTER HARBOUR",
      "eventStart": "2021-02-07T09:35:00",
      "eventStop": "2021-02-07T10:08:00",
      "duration": 33,
      "status": "Genuine",
      "associatedSiteId": 115540,
      "outfallName": "TAYLORS LANE BOSHAM",
      "isImpacting": true,
      "overFlowSiteId": 0,
      "historicSpillsList": [
        {
          "id": 344897260,
          "eventId": 342911,
          "siteUnitNumber": 12662,
          "bathingSite": "CHICHESTER HARBOUR",
          "eventStart": "2021-02-07T09:35:00",
          "eventStop": "2021-02-07T10:08:00",
          "duration": 33,
          "status": "Genuine",
          "associatedSiteId": 115540,
          "outfallName": "TAYLORS LANE BOSHAM",
          "isImpacting": true,
          "overFlowSiteId": 108353
        }
      ]
    },
    {
      "id": 344891243,
      "eventId": 342729,
      "siteUnitNumber": 12662,
      "bathingSite": "CHICHESTER HARBOUR",
      "eventStart": "2021-02-07T06:55:31",
      "eventStop": "2021-02-07T09:15:00",
      "duration": 139,
      "status": "Genuine",
      "associatedSiteId": 110760,
      "outfallName": "BOSHAM",
      "isImpacting": true,
      "overFlowSiteId": 0,
      "historicSpillsList": [
        {
          "id": 344891243,
          "eventId": 342729,
          "siteUnitNumber": 12662,
          "bathingSite": "CHICHESTER HARBOUR",
          "eventStart": "2021-02-07T06:55:31",
          "eventStop": "2021-02-07T09:15:00",
          "duration": 139,
          "status": "Genuine",
          "associatedSiteId": 110760,
          "outfallName": "BOSHAM",
          "isImpacting": true,
          "overFlowSiteId": 115735
        }
      ]
    },
    {
      "id": 344860635,
      "eventId": 342727,
      "siteUnitNumber": 12616,
      "bathingSite": "GURNARD",
      "eventStart": "2021-02-07T07:43:00",
      "eventStop": "2021-02-07T08:18:00",
      "duration": 35,
      "status": "Genuine",
      "associatedSiteId": 109705,
      "outfallName": "SPRINGHILL COWES TRANSFER",
      "isImpacting": true,
      "overFlowSiteId": 0,
      "historicSpillsList": [
        {
          "id": 344860635,
          "eventId": 342727,
          "siteUnitNumber": 12616,
          "bathingSite": "GURNARD",
          "eventStart": "2021-02-07T07:43:00",
          "eventStop": "2021-02-07T08:18:00",
          "duration": 35,
          "status": "Genuine",
          "associatedSiteId": 109705,
          "outfallName": "SPRINGHILL COWES TRANSFER",
          "isImpacting": true,
          "overFlowSiteId": 108943
        },
        {
          "id": 344860636,
          "eventId": 342727,
          "siteUnitNumber": 12617,
          "bathingSite": "COWES",
          "eventStart": "2021-02-07T07:43:00",
          "eventStop": "2021-02-07T08:18:00",
          "duration": 35,
          "status": "Genuine",
          "associatedSiteId": 109705,
          "outfallName": "SPRINGHILL COWES TRANSFER",
          "isImpacting": true,
          "overFlowSiteId": 108943,
          "historicSpillsList": []
        }
      ]
    }
  ]
}