{
  "currentPage": 273,
  "totalItems": 18701,
  "totalPages": 749,
  "items": [
    {
      "id": 343983683,
      "eventId": 797090,
      "siteUnitNumber": 12594,
      "bathingSite": "BOGNOR REGIS EAST",
      "eventStart": "2023-04-12T02:02:00",
      "eventStop": "2023-04-12T02:05:00",
      "duration": 3,
      "status": "Genuine",
      "associatedSiteId": 109959,
      "outfallName": "WEST PARK BOGNOR REGIS",
      "isImpacting": false,
      "overFlowSiteId": 0,
      "historicSpillsList": []
    },
    {
      "id": 344002911,
      "eventId": 796842,
      "siteUnitNumber": 12662,
      "bathingSite": "CHICHESTER HARBOUR",
      "eventStart": "2023-04-11T21:28:31",
      "eventStop": "2023-04-12T01:49:00",
      "duration": 260,
      "status": "Genuine",
      "associatedSiteId": 116025,
      "outfallName": "PRIORS LEAZE LANE NUTBOURNE",
      "isImpacting": true,
      "overFlowSiteId": 0,
      "historicSpillsList": [
        {
          "id": 344002911,
          "eventId": 796842,
          "siteUnitNumber": 12662,
          "bathingSite": "CHICHESTER HARBOUR",
          "eventStart": "2023-04-11T21:28:31",
          "eventStop": "2023-04-12T01:49:00",
          "duration": 260,
          "status": "Genuine",
          "associatedSiteId": 116025,
          "outfallName": "PRIORS LEAZE LANE NUTBOURNE",
          "isImpacting": true,
          "overFlowSiteId": 111267
        }
      ]
    },
    {
      "id": 343970629,
      "eventId": 796697,
      "siteUnitNumber": 12618,
      "bathingSite": "RYDE",
      "eventStart": "2023-04-11T19:45:00",
      "eventStop": "2023-04-12T01:15:00",
      "duration": 330,
      "status": "Genuine",
      "associatedSiteId": 109789,
      "outfallName": "SEAGROVE BAY",
      "isImpacting": true,
      "overFlowSiteId": 0,
      "historicSpillsList": [
        {
          "id": 343970629,
          "eventId": 796697,
          "siteUnitNumber": 12618,
          "bathingSite": "RYDE",
          "eventStart": "2023-04-11T19:45:00",
          "eventStop": "2023-04-12T01:15:00",
          "duration": 330,
          "status": "Genuine",
          "associatedSiteId": 109789,
          "outfallName": "SEAGROVE BAY",
          "isImpacting": true,
          "overFlowSiteId": 100244
        },
        {
          "id": 343970630,
          "eventId": 796697,
          "siteUnitNumber": 12619,
          "bathingSite": "SEAGROVE",
          "eventStart": "2023-04-11T19:45:00",
          "eventStop": "2023-04-12T01:15:00",
          "duration": 330,
          "status": "Genuine",
          "associatedSiteId": 109789,
          "outfallName": "SEAGROVE BAY",
          "isImpacting": true,
          "overFlowSiteId": 100244,
          "historicSpillsList": []
        },
        {
          "id": 343970631,
          "eventId": 796697,
          "siteUnitNumber": 12620,
          "bathingSite": "ST HELENS",
          "eventStart": "2023-04-11T19:45:00",
          "eventStop": "2023-04-12T01:15:00",
          "duration": 330,
          "status": "Genuine",
          "associatedSiteId": 109789,
          "outfallName": "SEAGROVE BAY",
          "isImpacting": true,
          "overFlowSiteId": 100244,
          "historicSpillsList": []
        }
      ]
    },
    {
      "id": 343983665,
      "eventId": 797374,
      "siteUnitNumber": 12594,
      "bathingSite": "BOGNOR REGIS EAST",
      "eventStart": "2023-04-12T00:55:00",
      "eventStop": "2023-04-12T00:58:00",
      "duration": 3,
      "status": "Genuine",
      "associatedSiteId": 109959,
      "outfallName": "WEST PARK BOGNOR REGIS",
      "isImpacting": false,
      "overFlowSiteId": 0,
      "historicSpillsList": []
    },
    {
      "id": 343985359,
      "eventId": 797327,
      "siteUnitNumber": 12591,
      "bathingSite": "LITTLEHAMPTON",
      "eventStart": "2023-04-11T19:29:00",
      "eventStop": "2023-04-12T00:31:00",
      "duration": 302,
      "status": "Genuine",
      "associatedSiteId": 109965,
      "outfallName": "SEA ROAD LITTLEHAMPTON",
      "isImpacting": true,
      "overFlowSiteId": 0,
      "historicSpillsList": [
        {
          "id": 343985359,
          "eventId": 797327,
          "siteUnitNumber": 12591,
          "bathingSite": "LITTLEHAMPTON",
          "eventStart": "2023-04-11T19:29:00",
          "eventStop": "2023-04-12T00:31:00",
          "duration": 302,
          "status": "Genuine",
          "associatedSiteId": 109965,
          "outfallName": "SEA ROAD LITTLEHAMPTON",
          "isImpacting": true,
          "overFlowSiteId": 109368
        }
      ]
    },
    {
      "id": 343983663,
      "eventId": 797371,
      "siteUnitNumber": 12595,
      "bathingSite": "BOGNOR REGIS (ALDWICK)",
      "eventStart": "2023-04-12T00:23:00",
      "eventStop": "2023-04-12T00:26:00",
      "duration": 3,
      "status": "Genuine",
      "associatedSiteId": 109959,
      "outfallName": "WEST PARK BOGNOR REGIS",
      "isImpacting": false,
      "overFlowSiteId": 0,
      "historicSpillsList": []
    },
    {
      "id": 343970043,
      "eventId": 796673,
      "siteUnitNumber": 12618,
      "bathingSite": "RYDE",
      "eventStart": "2023-04-11T19:56:26",
      "eventStop": "2023-04-12T00:22:00",
      "duration": 265,
      "status": "Genuine",
      "associatedSiteId": 109778,
      "outfallName": "PRINCE CONSORT RYDE NEW",
      "isImpacting": true,
      "overFlowSiteId": 0,
      "historicSpillsList": [
        {
          "id": 343970043,
          "eventId": 796673,
          "siteUnitNumber": 12618,
          "bathingSite": "RYDE",
          "eventStart": "2023-04-11T19:56:26",
          "eventStop": "2023-04-12T00:22:00",
          "duration": 265,
          "status": "Genuine",
          "associatedSiteId": 109778,
          "outfallName": "PRINCE CONSORT RYDE NEW",
          "isImpacting": true,
          "overFlowSiteId": 108043
        }
      ]
    },
    {
      "id": 343996880,
      "eventId": 796582,
      "siteUnitNumber": 12620,
      "bathingSite": "ST HELENS",
      "eventStart": "2023-04-11T18:52:10",
      "eventStop": "2023-04-12T00:08:32",
      "duration": 316,
      "status": "Genuine",
      "associatedSiteId": 110761,
      "outfallName": "BRADING",
      "isImpacting": true,
      "overFlowSiteId": 0,
      "historicSpillsList": [
        {
          "id": 343996880,
          "eventId": 796582,
          "siteUnitNumber": 12620,
          "bathingSite": "ST HELENS",
          "eventStart": "2023-04-11T18:52:10",
          "eventStop": "2023-04-12T00:08:32",
          "duration": 316,
          "status": "Genuine",
          "associatedSiteId": 110761,
          "outfallName": "BRADING",
          "isImpacting": true,
          "overFlowSiteId": 113676
        }
      ]
    },
    {
      "id": 343972514,
      "eventId": 796789,
      "siteUnitNumber": 12548,
      "bathingSite": "TANKERTON",
      "eventStart": "2023-04-11T20:55:12",
      "eventStop": "2023-04-12T00:07:59",
      "duration": 192,
      "status": "Genuine",
      "associatedSiteId": 109830,
      "outfallName": "SWALECLIFFE NO1",
      "isImpacting": true,
      "overFlowSiteId": 0,
      "historicSpillsList": [
        {
          "id": 343972514,
          "eventId": 796789,
          "siteUnitNumber": 12548,
          "bathingSite": "TANKERTON",
          "eventStart": "2023-04-11T20:55:12",
          "eventStop": "2023-04-12T00:07:59",
          "duration": 192,
          "status": "Genuine",
          "associatedSiteId": 109830,
          "outfallName": "SWALECLIFFE NO1",
          "isImpacting": true,
          "overFlowSiteId": 115444
        },
        {
          "id": 343972515,
          "eventId": 796789,
          "siteUnitNumber": 12549,
          "bathingSite": "HERNE BAY CENTRAL",
          "eventStart": "2023-04-11T20:55:12",
          "eventStop": "2023-04-12T00:07:59",
          "duration": 192,
          "status": "Genuine",
          "associatedSiteId": 109830,
          "outfallName": "SWALECLIFFE NO1",
          "isImpacting": true,
          "overFlowSiteId": 115444,
          "historicSpillsList": []
        }
      ]
    },
    {
      "id": 343983668,
      "eventId": 797369,
      "siteUnitNumber": 12594,
      "bathingSite": "BOGNOR REGIS EAST",
      "eventStart": "2023-04-11T23:36:00",
      "eventStop": "2023-04-11T23:38:00",
      "duration": 2,
      "status": "Genuine",
      "associatedSiteId": 109959,
      "outfallName": "WEST PARK BOGNOR REGIS",
      "isImpacting": false,
      "overFlowSiteId": 0,
      "historicSpillsList": []
    },
    {
      "id": 343997065,
      "eventId": 796663,
      "siteUnitNumber": 12582,
      "bathingSite": "SEAFORD",
      "eventStart": "2023-04-11T19:44:01",
      "eventStop": "2023-04-11T23:36:38",
      "duration": 232,
      "status": "Genuine",
      "associatedSiteId": 110920,
      "outfallName": "NEWHAVEN",
      "isImpacting": false,
      "overFlowSiteId": 0,
      "historicSpillsList": []
    },
    {
      "id": 343965621,
      "eventId": 796538,
      "siteUnitNumber": 12616,
      "bathingSite": "GURNARD",
      "eventStart": "2023-04-11T18:24:00",
      "eventStop": "2023-04-11T23:36:00",
      "duration": 312,
      "status": "Genuine",
      "associatedSiteId": 109704,
      "outfallName": "EGYPT POINT COWES",
      "isImpacting": true,
      "overFlowSiteId": 0,
      "historicSpillsList": [
        {
          "id": 343965622,
          "eventId": 796538,
          "siteUnitNumber": 12617,
          "bathingSite": "COWES",
          "eventStart": "2023-04-11T18:24:00",
          "eventStop": "2023-04-11T23:36:00",
          "duration": 312,
          "status": "Genuine",
          "associatedSiteId": 109704,
          "outfallName": "EGYPT POINT COWES",
          "isImpacting": true,
          "overFlowSiteId": 116213,
          "historicSpillsList": []
        }
      ]
    },
    {
      "id": 343961275,
      "eventId": 796712,
      "siteUnitNumber": 12616,
      "bathingSite": "GURNARD",
      "eventStart": "2023-04-11T20:15:00",
      "eventStop": "2023-04-11T23:31:00",
      "duration": 196,
      "status": "Genuine",
      "associatedSiteId": 109650,
      "outfallName": "MARSH ROAD GURNARD",
      "isImpacting": true,
      "overFlowSiteId": 0,
      "historicSpillsList": [
        {
          "id": 343961275,
          "eventId": 796712,
          "siteUnitNumber": 12616,
          "bathingSite": "GURNARD",
          "eventStart": "2023-04-11T20:15:00",
          "eventStop": "2023-04-11T23:31:00",
          "duration": 196,
          "status": "Genuine",
          "associatedSiteId": 109650,
          "outfallName": "MARSH ROAD GURNARD",
          "isImpacting": true,
          "overFlowSiteId": 107441
        }
      ]
    },
    {
      "id": 343983674,
      "eventId": 797367,
      "siteUnitNumber": 12594,
      "bathingSite": "BOGNOR REGIS EAST",
      "eventStart": "2023-04-11T23:17:00",
      "eventStop": "2023-04-11T23:20:00",
      "duration": 3,
      "status": "Genuine",
      "associatedSiteId": 109959,
      "outfallName": "WEST PARK BOGNOR REGIS",
      "isImpacting": false,
      "overFlowSiteId": 0,
      "historicSpillsList": []
    },
    {
      "id": 343983672,
      "eventId": 797366,
      "siteUnitNumber": 12595,
      "bathingSite": "BOGNOR REGIS (ALDWICK)",
      "eventStart": "2023-04-11T20:36:00",
      "eventStop": "2023-04-11T22:33:00",
      "duration": 117,
      "status": "Genuine",
      "associatedSiteId": 109959,
      "outfallName": "WEST PARK BOGNOR REGIS",
      "isImpacting": false,
      "overFlowSiteId": 0,
      "historicSpillsList": []
    },
    {
      "id": 343970188,
      "eventId": 796671,
      "siteUnitNumber": 12618,
      "bathingSite": "RYDE",
      "eventStart": "2023-04-11T19:56:00",
      "eventStop": "2023-04-11T22:20:00",
      "duration": 144,
      "status": "Genuine",
      "associatedSiteId": 109780,
      "outfallName": "LADIES WALK BINSTEAD",
      "isImpacting": true,
      "overFlowSiteId": 0,
      "historicSpillsList": [
        {
          "id": 343970188,
          "eventId": 796671,
          "siteUnitNumber": 12618,
          "bathingSite": "RYDE",
          "eventStart": "2023-04-11T19:56:00",
          "eventStop": "2023-04-11T22:20:00",
          "duration": 144,
          "status": "Genuine",
          "associatedSiteId": 109780,
          "outfallName": "LADIES WALK BINSTEAD",
          "isImpacting": true,
          "overFlowSiteId": 107406
        }
      ]
    },
    {
      "id": 343982326,
      "eventId": 796609,
      "siteUnitNumber": 12582,
      "bathingSite": "SEAFORD",
      "eventStart": "2023-04-11T20:32:00",
      "eventStop": "2023-04-11T22:09:00",
      "duration": 97,
      "status": "Genuine",
      "associatedSiteId": 109957,
      "outfallName": "PORTOBELLO BRIGHTON NO2",
      "isImpacting": false,
      "overFlowSiteId": 0,
      "historicSpillsList": []
    },
    {
      "id": 343995759,
      "eventId": 796419,
      "siteUnitNumber": 12616,
      "bathingSite": "GURNARD",
      "eventStart": "2023-04-11T16:38:00",
      "eventStop": "2023-04-11T22:09:00",
      "duration": 331,
      "status": "Genuine",
      "associatedSiteId": 110701,
      "outfallName": "TERMINUS ROAD COWES 2",
      "isImpacting": true,
      "overFlowSiteId": 0,
      "historicSpillsList": [
        {
          "id": 343995759,
          "eventId": 796419,
          "siteUnitNumber": 12616,
          "bathingSite": "GURNARD",
          "eventStart": "2023-04-11T16:38:00",
          "eventStop": "2023-04-11T22:09:00",
          "duration": 331,
          "status": "Genuine",
          "associatedSiteId": 110701,
          "outfallName": "TERMINUS ROAD COWES 2",
          "isImpacting": true,
          "overFlowSiteId": 108563
        },
        {
          "id": 343995760,
          "eventId": 796419,
          "siteUnitNumber": 12617,
          "bathingSite": "COWES",
          "eventStart": "2023-04-11T16:38:00",
          "eventStop": "2023-04-11T22:09:00",
          "duration": 331,
          "status": "Genuine",
          "associatedSiteId": 110701,
          "outfallName": "TERMINUS ROAD COWES 2",
          "isImpacting": true,
          "overFlowSiteId": 108563,
          "historicSpillsList": []
        }
      ]
    },
    {
      "id": 343985959,
      "eventId": 796518,
      "siteUnitNumber": 12591,
      "bathingSite": "LITTLEHAMPTON",
      "eventStart": "2023-04-11T18:20:00",
      "eventStop": "2023-04-11T21:58:00",
      "duration": 218,
      "status": "Genuine",
      "associatedSiteId": 109968,
      "outfallName": "FORD ROAD ARUNDEL",
      "isImpacting": true,
      "overFlowSiteId": 0,
      "historicSpillsList": [
        {
          "id": 343985959,
          "eventId": 796518,
          "siteUnitNumber": 12591,
          "bathingSite": "LITTLEHAMPTON",
          "eventStart": "2023-04-11T18:20:00",
          "eventStop": "2023-04-11T21:58:00",
          "duration": 218,
          "status": "Genuine",
          "associatedSiteId": 109968,
          "outfallName": "FORD ROAD ARUNDEL",
          "isImpacting": true,
          "overFlowSiteId": 108002
        }
      ]
    },
    {
      "id": 343971061,
      "eventId": 798795,
      "siteUnitNumber": 12661,
      "bathingSite": "LANGSTONE HARBOUR",
      "eventStart": "2023-04-11T21:27:00",
      "eventStop": "2023-04-11T21:34:00",
      "duration": 7,
      "status": "Genuine",
      "associatedSiteId": 109817,
      "outfallName": "MAINLAND DRAYTON",
      "isImpacting": true,
      "overFlowSiteId": 0,
      "historicSpillsList": [
        {
          "id": 343971061,
          "eventId": 798795,
          "siteUnitNumber": 12661,
          "bathingSite": "LANGSTONE HARBOUR",
          "eventStart": "2023-04-11T21:27:00",
          "eventStop": "2023-04-11T21:34:00",
          "duration": 7,
          "status": "Genuine",
          "associatedSiteId": 109817,
          "outfallName": "MAINLAND DRAYTON",
          "isImpacting": true,
          "overFlowSiteId": 115960
        }
      ]
    },
    {
      "id": 343995757,
      "eventId": 797483,
      "siteUnitNumber": 12616,
      "bathingSite": "GURNARD",
      "eventStart": "2023-04-11T17:03:00",
      "eventStop": "2023-04-11T21:23:00",
      "duration": 260,
      "status": "Genuine",
      "associatedSiteId": 110701,
      "outfallName": "TERMINUS ROAD COWES 2",
      "isImpacting": true,
      "overFlowSiteId": 0,
      "historicSpillsList": [
        {
          "id": 343995757,
          "eventId": 797483,
          "siteUnitNumber": 12616,
          "bathingSite": "GURNARD",
          "eventStart": "2023-04-11T17:03:00",
          "eventStop": "2023-04-11T21:23:00",
          "duration": 260,
          "status": "Genuine",
          "associatedSiteId": 110701,
          "outfallName": "TERMINUS ROAD COWES 2",
          "isImpacting": true,
          "overFlowSiteId": 108562
        },
        {
          "id": 343995758,
          "eventId": 797483,
          "siteUnitNumber": 12617,
          "bathingSite": "COWES",
          "eventStart": "2023-04-11T17:03:00",
          "eventStop": "2023-04-11T21:23:00",
          "duration": 260,
          "status": "Genuine",
          "associatedSiteId": 110701,
          "outfallName": "TERMINUS ROAD COWES 2",
          "isImpacting": true,
          "overFlowSiteId": 108562,
          "historicSpillsList": []
        }
      ]
    },
    {
      "id": 343971064,
      "eventId": 796737,
      "siteUnitNumber": 12661,
      "bathingSite": "LANGSTONE HARBOUR",
      "eventStart": "2023-04-11T20:21:10",
      "eventStop": "2023-04-11T21:15:00",
      "duration": 53,
      "status": "Genuine",
      "associatedSiteId": 109817,
      "outfallName": "MAINLAND DRAYTON",
      "isImpacting": true,
      "overFlowSiteId": 0,
      "historicSpillsList": [
        {
          "id": 343971064,
          "eventId": 796737,
          "siteUnitNumber": 12661,
          "bathingSite": "LANGSTONE HARBOUR",
          "eventStart": "2023-04-11T20:21:10",
          "eventStop": "2023-04-11T21:15:00",
          "duration": 53,
          "status": "Genuine",
          "associatedSiteId": 109817,
          "outfallName": "MAINLAND DRAYTON",
          "isImpacting": true,
          "overFlowSiteId": 115960
        }
      ]
    },
    {
      "id": 343965151,
      "eventId": 796559,
      "siteUnitNumber": 12616,
      "bathingSite": "GURNARD",
      "eventStart": "2023-04-11T18:52:00",
      "eventStop": "2023-04-11T21:14:00",
      "duration": 142,
      "status": "Genuine",
      "associatedSiteId": 109702,
      "outfallName": "ALBANY ROAD EAST COWES",
      "isImpacting": false,
      "overFlowSiteId": 0,
      "historicSpillsList": []
    },
    {
      "id": 343997578,
      "eventId": 796747,
      "siteUnitNumber": 12616,
      "bathingSite": "GURNARD",
      "eventStart": "2023-04-11T20:31:04",
      "eventStop": "2023-04-11T21:08:02",
      "duration": 36,
      "status": "Genuine",
      "associatedSiteId": 111069,
      "outfallName": "MEDHAM FARM NORTHWOOD",
      "isImpacting": false,
      "overFlowSiteId": 0,
      "historicSpillsList": []
    },
    {
      "id": 343981113,
      "eventId": 796670,
      "siteUnitNumber": 12620,
      "bathingSite": "ST HELENS",
      "eventStart": "2023-04-11T20:00:00",
      "eventStop": "2023-04-11T20:37:00",
      "duration": 37,
      "status": "Genuine",
      "associatedSiteId": 109938,
      "outfallName": "THE POINT BEMBRIDGE",
      "isImpacting": true,
      "overFlowSiteId": 0,
      "historicSpillsList": [
        {
          "id": 343981113,
          "eventId": 796670,
          "siteUnitNumber": 12620,
          "bathingSite": "ST HELENS",
          "eventStart": "2023-04-11T20:00:00",
          "eventStop": "2023-04-11T20:37:00",
          "duration": 37,
          "status": "Genuine",
          "associatedSiteId": 109938,
          "outfallName": "THE POINT BEMBRIDGE",
          "isImpacting": true,
          "overFlowSiteId": 110194
        }
      ]
    }
  ]
}