{
  "currentPage": 425,
  "totalItems": 18701,
  "totalPages": 749,
  "items": [
    {
      "id": 343985536,
      "eventId": 676232,
      "siteUnitNumber": 12591,
      "bathingSite": "LITTLEHAMPTON",
      "eventStart": "2022-11-19T06:29:00",
      "eventStop": "2022-11-19T06:46:00",
      "duration": 17,
      "status": "Genuine",
      "associatedSiteId": 109965,
      "outfallName": "SEA ROAD LITTLEHAMPTON",
      "isImpacting": false,
      "overFlowSiteId": 0,
      "historicSpillsList": []
    },
    {
      "id": 343984535,
      "eventId": 673473,
      "siteUnitNumber": 12594,
      "bathingSite": "BOGNOR REGIS EAST",
      "eventStart": "2022-11-18T19:57:37",
      "eventStop": "2022-11-19T06:45:00",
      "duration": 647,
      "status": "Genuine",
      "associatedSiteId": 109959,
      "outfallName": "WEST PARK BOGNOR REGIS",
      "isImpacting": true,
      "overFlowSiteId": 0,
      "historicSpillsList": [
        {
          "id": 343984535,
          "eventId": 673473,
          "siteUnitNumber": 12594,
          "bathingSite": "BOGNOR REGIS EAST",
          "eventStart": "2022-11-18T19:57:37",
          "eventStop": "2022-11-19T06:45:00",
          "duration": 647,
          "status": "Genuine",
          "associatedSiteId": 109959,
          "outfallName": "WEST PARK BOGNOR REGIS",
          "isImpacting": true,
          "overFlowSiteId": 108160
        }
      ]
    },
    {
      "id": 343985535,
      "eventId": 676208,
      "siteUnitNumber": 12591,
      "bathingSite": "LITTLEHAMPTON",
      "eventStart": "2022-11-19T04:14:00",
      "eventStop": "2022-11-19T05:46:00",
      "duration": 92,
      "status": "Genuine",
      "associatedSiteId": 109965,
      "outfallName": "SEA ROAD LITTLEHAMPTON",
      "isImpacting": false,
      "overFlowSiteId": 0,
      "historicSpillsList": []
    },
    {
      "id": 343966111,
      "eventId": 667243,
      "siteUnitNumber": 12616,
      "bathingSite": "GURNARD",
      "eventStart": "2022-11-15T06:38:44",
      "eventStop": "2022-11-19T04:08:14",
      "duration": 5609,
      "status": "Genuine",
      "associatedSiteId": 109705,
      "outfallName": "SPRINGHILL COWES TRANSFER",
      "isImpacting": true,
      "overFlowSiteId": 0,
      "historicSpillsList": [
        {
          "id": 343966112,
          "eventId": 667243,
          "siteUnitNumber": 12617,
          "bathingSite": "COWES",
          "eventStart": "2022-11-15T06:38:44",
          "eventStop": "2022-11-19T04:08:14",
          "duration": 5609,
          "status": "Genuine",
          "associatedSiteId": 109705,
          "outfallName": "SPRINGHILL COWES TRANSFER",
          "isImpacting": true,
          "overFlowSiteId": 108943,
          "historicSpillsList": []
        }
      ]
    },
    {
      "id": 343962197,
      "eventId": 673251,
      "siteUnitNumber": 12616,
      "bathingSite": "GURNARD",
      "eventStart": "2022-11-19T03:44:00",
      "eventStop": "2022-11-19T03:49:00",
      "duration": 5,
      "status": "Genuine",
      "associatedSiteId": 109652,
      "outfallName": "WOODVALE TRANSFER NO1",
      "isImpacting": true,
      "overFlowSiteId": 0,
      "historicSpillsList": [
        {
          "id": 343962198,
          "eventId": 673251,
          "siteUnitNumber": 12617,
          "bathingSite": "COWES",
          "eventStart": "2022-11-19T03:44:00",
          "eventStop": "2022-11-19T03:49:00",
          "duration": 5,
          "status": "Genuine",
          "associatedSiteId": 109652,
          "outfallName": "WOODVALE TRANSFER NO1",
          "isImpacting": true,
          "overFlowSiteId": 115966,
          "historicSpillsList": []
        }
      ]
    },
    {
      "id": 343985540,
      "eventId": 676200,
      "siteUnitNumber": 12591,
      "bathingSite": "LITTLEHAMPTON",
      "eventStart": "2022-11-15T22:18:00",
      "eventStop": "2022-11-19T03:30:00",
      "duration": 4632,
      "status": "Genuine",
      "associatedSiteId": 109965,
      "outfallName": "SEA ROAD LITTLEHAMPTON",
      "isImpacting": false,
      "overFlowSiteId": 0,
      "historicSpillsList": []
    },
    {
      "id": 343969134,
      "eventId": 673623,
      "siteUnitNumber": 12618,
      "bathingSite": "RYDE",
      "eventStart": "2022-11-19T03:00:00",
      "eventStop": "2022-11-19T03:21:00",
      "duration": 21,
      "status": "Genuine",
      "associatedSiteId": 109777,
      "outfallName": "APPLEY PARK RYDE TRANSFER",
      "isImpacting": false,
      "overFlowSiteId": 0,
      "historicSpillsList": []
    },
    {
      "id": 343989631,
      "eventId": 677170,
      "siteUnitNumber": 12622,
      "bathingSite": "WHITECLIFF BAY",
      "eventStart": "2022-11-19T00:54:00",
      "eventStop": "2022-11-19T02:50:00",
      "duration": 116,
      "status": "Genuine",
      "associatedSiteId": 110096,
      "outfallName": "SANDOWN NO1",
      "isImpacting": true,
      "overFlowSiteId": 0,
      "historicSpillsList": [
        {
          "id": 343989631,
          "eventId": 677170,
          "siteUnitNumber": 12622,
          "bathingSite": "WHITECLIFF BAY",
          "eventStart": "2022-11-19T00:54:00",
          "eventStop": "2022-11-19T02:50:00",
          "duration": 116,
          "status": "Genuine",
          "associatedSiteId": 110096,
          "outfallName": "SANDOWN NO1",
          "isImpacting": true,
          "overFlowSiteId": 115453
        }
      ]
    },
    {
      "id": 343978528,
      "eventId": 673582,
      "siteUnitNumber": 12576,
      "bathingSite": "ST LEONARDS",
      "eventStart": "2022-11-19T00:56:27",
      "eventStop": "2022-11-19T01:58:08",
      "duration": 61,
      "status": "Genuine",
      "associatedSiteId": 109903,
      "outfallName": "BEXHILL & HASTINGS NO2",
      "isImpacting": true,
      "overFlowSiteId": 0,
      "historicSpillsList": [
        {
          "id": 343978528,
          "eventId": 673582,
          "siteUnitNumber": 12576,
          "bathingSite": "ST LEONARDS",
          "eventStart": "2022-11-19T00:56:27",
          "eventStop": "2022-11-19T01:58:08",
          "duration": 61,
          "status": "Genuine",
          "associatedSiteId": 109903,
          "outfallName": "BEXHILL & HASTINGS NO2",
          "isImpacting": true,
          "overFlowSiteId": 115398
        },
        {
          "id": 343978529,
          "eventId": 673582,
          "siteUnitNumber": 12577,
          "bathingSite": "BEXHILL",
          "eventStart": "2022-11-19T00:56:27",
          "eventStop": "2022-11-19T01:58:08",
          "duration": 61,
          "status": "Genuine",
          "associatedSiteId": 109903,
          "outfallName": "BEXHILL & HASTINGS NO2",
          "isImpacting": true,
          "overFlowSiteId": 115398,
          "historicSpillsList": []
        }
      ]
    },
    {
      "id": 343978526,
      "eventId": 673317,
      "siteUnitNumber": 12576,
      "bathingSite": "ST LEONARDS",
      "eventStart": "2022-11-18T14:58:53",
      "eventStop": "2022-11-19T00:51:12",
      "duration": 592,
      "status": "Genuine",
      "associatedSiteId": 109903,
      "outfallName": "BEXHILL & HASTINGS NO2",
      "isImpacting": true,
      "overFlowSiteId": 0,
      "historicSpillsList": [
        {
          "id": 343978526,
          "eventId": 673317,
          "siteUnitNumber": 12576,
          "bathingSite": "ST LEONARDS",
          "eventStart": "2022-11-18T14:58:53",
          "eventStop": "2022-11-19T00:51:12",
          "duration": 592,
          "status": "Genuine",
          "associatedSiteId": 109903,
          "outfallName": "BEXHILL & HASTINGS NO2",
          "isImpacting": true,
          "overFlowSiteId": 115398
        },
        {
          "id": 343978527,
          "eventId": 673317,
          "siteUnitNumber": 12577,
          "bathingSite": "BEXHILL",
          "eventStart": "2022-11-18T14:58:53",
          "eventStop": "2022-11-19T00:51:12",
          "duration": 592,
          "status": "Genuine",
          "associatedSiteId": 109903,
          "outfallName": "BEXHILL & HASTINGS NO2",
          "isImpacting": true,
          "overFlowSiteId": 115398,
          "historicSpillsList": []
        }
      ]
    },
    {
      "id": 343989628,
      "eventId": 673852,
      "siteUnitNumber": 12622,
      "bathingSite": "WHITECLIFF BAY",
      "eventStart": "2022-11-19T00:00:00",
      "eventStop": "2022-11-19T00:21:00",
      "duration": 21,
      "status": "Genuine",
      "associatedSiteId": 110096,
      "outfallName": "SANDOWN NO1",
      "isImpacting": true,
      "overFlowSiteId": 0,
      "historicSpillsList": [
        {
          "id": 343989628,
          "eventId": 673852,
          "siteUnitNumber": 12622,
          "bathingSite": "WHITECLIFF BAY",
          "eventStart": "2022-11-19T00:00:00",
          "eventStop": "2022-11-19T00:21:00",
          "duration": 21,
          "status": "Genuine",
          "associatedSiteId": 110096,
          "outfallName": "SANDOWN NO1",
          "isImpacting": true,
          "overFlowSiteId": 115453
        }
      ]
    },
    {
      "id": 343993694,
      "eventId": 673536,
      "siteUnitNumber": 12619,
      "bathingSite": "SEAGROVE",
      "eventStart": "2022-11-18T23:07:00",
      "eventStop": "2022-11-18T23:35:00",
      "duration": 28,
      "status": "Genuine",
      "associatedSiteId": 110097,
      "outfallName": "SANDOWN NO2",
      "isImpacting": true,
      "overFlowSiteId": 0,
      "historicSpillsList": [
        {
          "id": 343993697,
          "eventId": 673536,
          "siteUnitNumber": 12623,
          "bathingSite": "YAVERLAND",
          "eventStart": "2022-11-18T23:07:00",
          "eventStop": "2022-11-18T23:35:00",
          "duration": 28,
          "status": "Genuine",
          "associatedSiteId": 110097,
          "outfallName": "SANDOWN NO2",
          "isImpacting": true,
          "overFlowSiteId": 115454,
          "historicSpillsList": []
        }
      ]
    },
    {
      "id": 343989632,
      "eventId": 673851,
      "siteUnitNumber": 12622,
      "bathingSite": "WHITECLIFF BAY",
      "eventStart": "2022-11-18T22:09:00",
      "eventStop": "2022-11-18T23:28:00",
      "duration": 79,
      "status": "Genuine",
      "associatedSiteId": 110096,
      "outfallName": "SANDOWN NO1",
      "isImpacting": true,
      "overFlowSiteId": 0,
      "historicSpillsList": [
        {
          "id": 343989632,
          "eventId": 673851,
          "siteUnitNumber": 12622,
          "bathingSite": "WHITECLIFF BAY",
          "eventStart": "2022-11-18T22:09:00",
          "eventStop": "2022-11-18T23:28:00",
          "duration": 79,
          "status": "Genuine",
          "associatedSiteId": 110096,
          "outfallName": "SANDOWN NO1",
          "isImpacting": true,
          "overFlowSiteId": 115453
        }
      ]
    },
    {
      "id": 343993700,
      "eventId": 673514,
      "siteUnitNumber": 12621,
      "bathingSite": "BEMBRIDGE",
      "eventStart": "2022-11-18T22:15:00",
      "eventStop": "2022-11-18T22:54:00",
      "duration": 39,
      "status": "Genuine",
      "associatedSiteId": 110097,
      "outfallName": "SANDOWN NO2",
      "isImpacting": true,
      "overFlowSiteId": 0,
      "historicSpillsList": [
        {
          "id": 343993702,
          "eventId": 673514,
          "siteUnitNumber": 12623,
          "bathingSite": "YAVERLAND",
          "eventStart": "2022-11-18T22:15:00",
          "eventStop": "2022-11-18T22:54:00",
          "duration": 39,
          "status": "Genuine",
          "associatedSiteId": 110097,
          "outfallName": "SANDOWN NO2",
          "isImpacting": true,
          "overFlowSiteId": 115454,
          "historicSpillsList": []
        }
      ]
    },
    {
      "id": 343962203,
      "eventId": 667210,
      "siteUnitNumber": 12616,
      "bathingSite": "GURNARD",
      "eventStart": "2022-11-15T22:08:00",
      "eventStop": "2022-11-18T22:54:00",
      "duration": 4366,
      "status": "Genuine",
      "associatedSiteId": 109652,
      "outfallName": "WOODVALE TRANSFER NO1",
      "isImpacting": true,
      "overFlowSiteId": 0,
      "historicSpillsList": [
        {
          "id": 343962203,
          "eventId": 667210,
          "siteUnitNumber": 12616,
          "bathingSite": "GURNARD",
          "eventStart": "2022-11-15T22:08:00",
          "eventStop": "2022-11-18T22:54:00",
          "duration": 4366,
          "status": "Genuine",
          "associatedSiteId": 109652,
          "outfallName": "WOODVALE TRANSFER NO1",
          "isImpacting": true,
          "overFlowSiteId": 115966
        },
        {
          "id": 343962204,
          "eventId": 667210,
          "siteUnitNumber": 12617,
          "bathingSite": "COWES",
          "eventStart": "2022-11-15T22:08:00",
          "eventStop": "2022-11-18T22:54:00",
          "duration": 4366,
          "status": "Genuine",
          "associatedSiteId": 109652,
          "outfallName": "WOODVALE TRANSFER NO1",
          "isImpacting": true,
          "overFlowSiteId": 115966,
          "historicSpillsList": []
        }
      ]
    },
    {
      "id": 343993713,
      "eventId": 673466,
      "siteUnitNumber": 12619,
      "bathingSite": "SEAGROVE",
      "eventStart": "2022-11-18T19:30:26",
      "eventStop": "2022-11-18T21:55:00",
      "duration": 144,
      "status": "Genuine",
      "associatedSiteId": 110097,
      "outfallName": "SANDOWN NO2",
      "isImpacting": true,
      "overFlowSiteId": 0,
      "historicSpillsList": [
        {
          "id": 343993706,
          "eventId": 673466,
          "siteUnitNumber": 12623,
          "bathingSite": "YAVERLAND",
          "eventStart": "2022-11-18T19:30:26",
          "eventStop": "2022-11-18T21:55:00",
          "duration": 144,
          "status": "Genuine",
          "associatedSiteId": 110097,
          "outfallName": "SANDOWN NO2",
          "isImpacting": true,
          "overFlowSiteId": 115454,
          "historicSpillsList": []
        },
        {
          "id": 343993707,
          "eventId": 673466,
          "siteUnitNumber": 12624,
          "bathingSite": "SANDOWN",
          "eventStart": "2022-11-18T19:30:26",
          "eventStop": "2022-11-18T21:55:00",
          "duration": 144,
          "status": "Genuine",
          "associatedSiteId": 110097,
          "outfallName": "SANDOWN NO2",
          "isImpacting": true,
          "overFlowSiteId": 115454,
          "historicSpillsList": []
        }
      ]
    },
    {
      "id": 343967612,
      "eventId": 667544,
      "siteUnitNumber": 12603,
      "bathingSite": "EASTNEY",
      "eventStart": "2022-11-15T09:45:00",
      "eventStop": "2022-11-18T21:54:00",
      "duration": 5049,
      "status": "Genuine",
      "associatedSiteId": 109732,
      "outfallName": "PEEL COMMON",
      "isImpacting": true,
      "overFlowSiteId": 0,
      "historicSpillsList": [
        {
          "id": 343967614,
          "eventId": 667544,
          "siteUnitNumber": 12605,
          "bathingSite": "STOKES BAY",
          "eventStart": "2022-11-15T09:45:00",
          "eventStop": "2022-11-18T21:54:00",
          "duration": 5049,
          "status": "Genuine",
          "associatedSiteId": 109732,
          "outfallName": "PEEL COMMON",
          "isImpacting": true,
          "overFlowSiteId": 115425,
          "historicSpillsList": []
        },
        {
          "id": 343967615,
          "eventId": 667544,
          "siteUnitNumber": 12606,
          "bathingSite": "LEE-ON-SOLENT",
          "eventStart": "2022-11-15T09:45:00",
          "eventStop": "2022-11-18T21:54:00",
          "duration": 5049,
          "status": "Genuine",
          "associatedSiteId": 109732,
          "outfallName": "PEEL COMMON",
          "isImpacting": true,
          "overFlowSiteId": 115425,
          "historicSpillsList": []
        }
      ]
    },
    {
      "id": 343989635,
      "eventId": 673850,
      "siteUnitNumber": 12622,
      "bathingSite": "WHITECLIFF BAY",
      "eventStart": "2022-11-16T21:45:00",
      "eventStop": "2022-11-18T21:40:00",
      "duration": 2875,
      "status": "Genuine",
      "associatedSiteId": 110096,
      "outfallName": "SANDOWN NO1",
      "isImpacting": true,
      "overFlowSiteId": 0,
      "historicSpillsList": [
        {
          "id": 343989635,
          "eventId": 673850,
          "siteUnitNumber": 12622,
          "bathingSite": "WHITECLIFF BAY",
          "eventStart": "2022-11-16T21:45:00",
          "eventStop": "2022-11-18T21:40:00",
          "duration": 2875,
          "status": "Genuine",
          "associatedSiteId": 110096,
          "outfallName": "SANDOWN NO1",
          "isImpacting": true,
          "overFlowSiteId": 115453
        },
        {
          "id": 343989637,
          "eventId": 673850,
          "siteUnitNumber": 12624,
          "bathingSite": "SANDOWN",
          "eventStart": "2022-11-16T21:45:00",
          "eventStop": "2022-11-18T21:40:00",
          "duration": 2875,
          "status": "Genuine",
          "associatedSiteId": 110096,
          "outfallName": "SANDOWN NO1",
          "isImpacting": true,
          "overFlowSiteId": 115453,
          "historicSpillsList": []
        }
      ]
    },
    {
      "id": 343974370,
      "eventId": 678044,
      "siteUnitNumber": 12662,
      "bathingSite": "CHICHESTER HARBOUR",
      "eventStart": "2022-11-15T11:00:00",
      "eventStop": "2022-11-18T21:30:00",
      "duration": 4950,
      "status": "Genuine",
      "associatedSiteId": 109850,
      "outfallName": "THORNHAM",
      "isImpacting": true,
      "overFlowSiteId": 0,
      "historicSpillsList": [
        {
          "id": 343974370,
          "eventId": 678044,
          "siteUnitNumber": 12662,
          "bathingSite": "CHICHESTER HARBOUR",
          "eventStart": "2022-11-15T11:00:00",
          "eventStop": "2022-11-18T21:30:00",
          "duration": 4950,
          "status": "Genuine",
          "associatedSiteId": 109850,
          "outfallName": "THORNHAM",
          "isImpacting": true,
          "overFlowSiteId": 115369
        }
      ]
    },
    {
      "id": 343969140,
      "eventId": 667222,
      "siteUnitNumber": 12617,
      "bathingSite": "COWES",
      "eventStart": "2022-11-17T06:08:00",
      "eventStop": "2022-11-18T21:13:00",
      "duration": 2345,
      "status": "Genuine",
      "associatedSiteId": 109777,
      "outfallName": "APPLEY PARK RYDE TRANSFER",
      "isImpacting": true,
      "overFlowSiteId": 0,
      "historicSpillsList": [
        {
          "id": 343969141,
          "eventId": 667222,
          "siteUnitNumber": 12618,
          "bathingSite": "RYDE",
          "eventStart": "2022-11-17T06:08:00",
          "eventStop": "2022-11-18T21:13:00",
          "duration": 2345,
          "status": "Genuine",
          "associatedSiteId": 109777,
          "outfallName": "APPLEY PARK RYDE TRANSFER",
          "isImpacting": true,
          "overFlowSiteId": 108941,
          "historicSpillsList": []
        }
      ]
    },
    {
      "id": 343984541,
      "eventId": 673456,
      "siteUnitNumber": 12594,
      "bathingSite": "BOGNOR REGIS EAST",
      "eventStart": "2022-11-18T19:18:00",
      "eventStop": "2022-11-18T19:42:00",
      "duration": 24,
      "status": "Genuine",
      "associatedSiteId": 109959,
      "outfallName": "WEST PARK BOGNOR REGIS",
      "isImpacting": false,
      "overFlowSiteId": 0,
      "historicSpillsList": []
    },
    {
      "id": 343993710,
      "eventId": 673397,
      "siteUnitNumber": 12623,
      "bathingSite": "YAVERLAND",
      "eventStart": "2022-11-18T17:48:00",
      "eventStop": "2022-11-18T19:16:00",
      "duration": 88,
      "status": "Genuine",
      "associatedSiteId": 110097,
      "outfallName": "SANDOWN NO2",
      "isImpacting": true,
      "overFlowSiteId": 0,
      "historicSpillsList": [
        {
          "id": 343993710,
          "eventId": 673397,
          "siteUnitNumber": 12623,
          "bathingSite": "YAVERLAND",
          "eventStart": "2022-11-18T17:48:00",
          "eventStop": "2022-11-18T19:16:00",
          "duration": 88,
          "status": "Genuine",
          "associatedSiteId": 110097,
          "outfallName": "SANDOWN NO2",
          "isImpacting": true,
          "overFlowSiteId": 115454
        },
        {
          "id": 343993711,
          "eventId": 673397,
          "siteUnitNumber": 12624,
          "bathingSite": "SANDOWN",
          "eventStart": "2022-11-18T17:48:00",
          "eventStop": "2022-11-18T19:16:00",
          "duration": 88,
          "status": "Genuine",
          "associatedSiteId": 110097,
          "outfallName": "SANDOWN NO2",
          "isImpacting": true,
          "overFlowSiteId": 115454,
          "historicSpillsList": []
        }
      ]
    },
    {
      "id": 343984539,
      "eventId": 673421,
      "siteUnitNumber": 12595,
      "bathingSite": "BOGNOR REGIS (ALDWICK)",
      "eventStart": "2022-11-18T18:27:47",
      "eventStop": "2022-11-18T19:07:00",
      "duration": 39,
      "status": "Genuine",
      "associatedSiteId": 109959,
      "outfallName": "WEST PARK BOGNOR REGIS",
      "isImpacting": false,
      "overFlowSiteId": 0,
      "historicSpillsList": []
    },
    {
      "id": 343984544,
      "eventId": 673403,
      "siteUnitNumber": 12594,
      "bathingSite": "BOGNOR REGIS EAST",
      "eventStart": "2022-11-18T17:33:00",
      "eventStop": "2022-11-18T17:50:00",
      "duration": 17,
      "status": "Genuine",
      "associatedSiteId": 109959,
      "outfallName": "WEST PARK BOGNOR REGIS",
      "isImpacting": false,
      "overFlowSiteId": 0,
      "historicSpillsList": []
    },
    {
      "id": 343993715,
      "eventId": 673383,
      "siteUnitNumber": 12624,
      "bathingSite": "SANDOWN",
      "eventStart": "2022-11-18T16:53:00",
      "eventStop": "2022-11-18T17:30:00",
      "duration": 37,
      "status": "Genuine",
      "associatedSiteId": 110097,
      "outfallName": "SANDOWN NO2",
      "isImpacting": true,
      "overFlowSiteId": 0,
      "historicSpillsList": [
        {
          "id": 343993715,
          "eventId": 673383,
          "siteUnitNumber": 12624,
          "bathingSite": "SANDOWN",
          "eventStart": "2022-11-18T16:53:00",
          "eventStop": "2022-11-18T17:30:00",
          "duration": 37,
          "status": "Genuine",
          "associatedSiteId": 110097,
          "outfallName": "SANDOWN NO2",
          "isImpacting": true,
          "overFlowSiteId": 115454
        }
      ]
    }
  ]
}