{
  "currentPage": 166,
  "totalItems": 21025,
  "totalPages": 841,
  "items": [
    {
      "id": 344790512,
      "eventId": 900508,
      "siteUnitNumber": 12620,
      "bathingSite": "ST HELENS",
      "eventStart": "2023-10-26T22:54:00",
      "eventStop": "2023-10-27T21:02:00",
      "duration": 1328,
      "status": "Genuine",
      "associatedSiteId": 109939,
      "outfallName": "LANE END ROAD BEMBRIDGE",
      "isImpacting": true,
      "overFlowSiteId": 0,
      "historicSpillsList": [
        {
          "id": 344790513,
          "eventId": 900508,
          "siteUnitNumber": 12621,
          "bathingSite": "BEMBRIDGE",
          "eventStart": "2023-10-26T22:54:00",
          "eventStop": "2023-10-27T21:02:00",
          "duration": 1328,
          "status": "Genuine",
          "associatedSiteId": 109939,
          "outfallName": "LANE END ROAD BEMBRIDGE",
          "isImpacting": true,
          "overFlowSiteId": 108533,
          "historicSpillsList": []
        }
      ]
    },
    {
      "id": 344791328,
      "eventId": 887962,
      "siteUnitNumber": 12582,
      "bathingSite": "SEAFORD",
      "eventStart": "2023-10-27T19:56:00",
      "eventStop": "2023-10-27T21:00:00",
      "duration": 64,
      "status": "Genuine",
      "associatedSiteId": 109957,
      "outfallName": "PORTOBELLO BRIGHTON NO2",
      "isImpacting": true,
      "overFlowSiteId": 0,
      "historicSpillsList": [
        {
          "id": 344791329,
          "eventId": 887962,
          "siteUnitNumber": 12583,
          "bathingSite": "SALTDEAN",
          "eventStart": "2023-10-27T19:56:00",
          "eventStop": "2023-10-27T21:00:00",
          "duration": 64,
          "status": "Genuine",
          "associatedSiteId": 109957,
          "outfallName": "PORTOBELLO BRIGHTON NO2",
          "isImpacting": true,
          "overFlowSiteId": 116036,
          "historicSpillsList": []
        }
      ]
    },
    {
      "id": 344783237,
      "eventId": 882070,
      "siteUnitNumber": 12662,
      "bathingSite": "CHICHESTER HARBOUR",
      "eventStart": "2023-10-27T20:29:00",
      "eventStop": "2023-10-27T20:45:00",
      "duration": 16,
      "status": "Genuine",
      "associatedSiteId": 109836,
      "outfallName": "CHICHESTER",
      "isImpacting": true,
      "overFlowSiteId": 0,
      "historicSpillsList": [
        {
          "id": 344783237,
          "eventId": 882070,
          "siteUnitNumber": 12662,
          "bathingSite": "CHICHESTER HARBOUR",
          "eventStart": "2023-10-27T20:29:00",
          "eventStop": "2023-10-27T20:45:00",
          "duration": 16,
          "status": "Genuine",
          "associatedSiteId": 109836,
          "outfallName": "CHICHESTER",
          "isImpacting": true,
          "overFlowSiteId": 115401
        }
      ]
    },
    {
      "id": 344790843,
      "eventId": 882055,
      "siteUnitNumber": 12575,
      "bathingSite": "HASTINGS PELHAM BEACH",
      "eventStart": "2023-10-27T20:02:00",
      "eventStop": "2023-10-27T20:41:00",
      "duration": 39,
      "status": "Genuine",
      "associatedSiteId": 109950,
      "outfallName": "ST HELENS DOWN HASTINGS",
      "isImpacting": true,
      "overFlowSiteId": 0,
      "historicSpillsList": [
        {
          "id": 344790843,
          "eventId": 882055,
          "siteUnitNumber": 12575,
          "bathingSite": "HASTINGS PELHAM BEACH",
          "eventStart": "2023-10-27T20:02:00",
          "eventStop": "2023-10-27T20:41:00",
          "duration": 39,
          "status": "Genuine",
          "associatedSiteId": 109950,
          "outfallName": "ST HELENS DOWN HASTINGS",
          "isImpacting": true,
          "overFlowSiteId": 109050
        }
      ]
    },
    {
      "id": 344783236,
      "eventId": 881905,
      "siteUnitNumber": 12662,
      "bathingSite": "CHICHESTER HARBOUR",
      "eventStart": "2023-10-27T19:59:07",
      "eventStop": "2023-10-27T20:15:00",
      "duration": 15,
      "status": "Genuine",
      "associatedSiteId": 109836,
      "outfallName": "CHICHESTER",
      "isImpacting": true,
      "overFlowSiteId": 0,
      "historicSpillsList": [
        {
          "id": 344783236,
          "eventId": 881905,
          "siteUnitNumber": 12662,
          "bathingSite": "CHICHESTER HARBOUR",
          "eventStart": "2023-10-27T19:59:07",
          "eventStop": "2023-10-27T20:15:00",
          "duration": 15,
          "status": "Genuine",
          "associatedSiteId": 109836,
          "outfallName": "CHICHESTER",
          "isImpacting": true,
          "overFlowSiteId": 115401
        }
      ]
    },
    {
      "id": 344806914,
      "eventId": 882059,
      "siteUnitNumber": 12576,
      "bathingSite": "ST LEONARDS",
      "eventStart": "2023-10-27T19:58:03",
      "eventStop": "2023-10-27T20:15:00",
      "duration": 16,
      "status": "Genuine",
      "associatedSiteId": 111370,
      "outfallName": "YORK ROAD BEXHILL",
      "isImpacting": false,
      "overFlowSiteId": 0,
      "historicSpillsList": []
    },
    {
      "id": 344770455,
      "eventId": 881778,
      "siteUnitNumber": 12616,
      "bathingSite": "GURNARD",
      "eventStart": "2023-10-27T16:00:57",
      "eventStop": "2023-10-27T19:24:14",
      "duration": 203,
      "status": "Genuine",
      "associatedSiteId": 109650,
      "outfallName": "MARSH ROAD GURNARD",
      "isImpacting": true,
      "overFlowSiteId": 0,
      "historicSpillsList": [
        {
          "id": 344770455,
          "eventId": 881778,
          "siteUnitNumber": 12616,
          "bathingSite": "GURNARD",
          "eventStart": "2023-10-27T16:00:57",
          "eventStop": "2023-10-27T19:24:14",
          "duration": 203,
          "status": "Genuine",
          "associatedSiteId": 109650,
          "outfallName": "MARSH ROAD GURNARD",
          "isImpacting": true,
          "overFlowSiteId": 107441
        }
      ]
    },
    {
      "id": 344774725,
      "eventId": 898853,
      "siteUnitNumber": 12616,
      "bathingSite": "GURNARD",
      "eventStart": "2023-10-27T05:57:00",
      "eventStop": "2023-10-27T19:02:00",
      "duration": 785,
      "status": "Genuine",
      "associatedSiteId": 109704,
      "outfallName": "EGYPT POINT COWES",
      "isImpacting": true,
      "overFlowSiteId": 0,
      "historicSpillsList": [
        {
          "id": 344774726,
          "eventId": 898853,
          "siteUnitNumber": 12617,
          "bathingSite": "COWES",
          "eventStart": "2023-10-27T05:57:00",
          "eventStop": "2023-10-27T19:02:00",
          "duration": 785,
          "status": "Genuine",
          "associatedSiteId": 109704,
          "outfallName": "EGYPT POINT COWES",
          "isImpacting": true,
          "overFlowSiteId": 116213,
          "historicSpillsList": []
        }
      ]
    },
    {
      "id": 344791358,
      "eventId": 881779,
      "siteUnitNumber": 12582,
      "bathingSite": "SEAFORD",
      "eventStart": "2023-10-27T16:12:37",
      "eventStop": "2023-10-27T18:45:00",
      "duration": 152,
      "status": "Genuine",
      "associatedSiteId": 109957,
      "outfallName": "PORTOBELLO BRIGHTON NO2",
      "isImpacting": false,
      "overFlowSiteId": 0,
      "historicSpillsList": []
    },
    {
      "id": 344812172,
      "eventId": 881808,
      "siteUnitNumber": 12662,
      "bathingSite": "CHICHESTER HARBOUR",
      "eventStart": "2023-10-27T16:59:11",
      "eventStop": "2023-10-27T17:02:01",
      "duration": 2,
      "status": "Genuine",
      "associatedSiteId": 116108,
      "outfallName": "TAYLORS LANE BOSHAM PS PUMPED",
      "isImpacting": true,
      "overFlowSiteId": 0,
      "historicSpillsList": [
        {
          "id": 344812172,
          "eventId": 881808,
          "siteUnitNumber": 12662,
          "bathingSite": "CHICHESTER HARBOUR",
          "eventStart": "2023-10-27T16:59:11",
          "eventStop": "2023-10-27T17:02:01",
          "duration": 2,
          "status": "Genuine",
          "associatedSiteId": 116108,
          "outfallName": "TAYLORS LANE BOSHAM PS PUMPED",
          "isImpacting": true,
          "overFlowSiteId": 116066
        }
      ]
    },
    {
      "id": 344812171,
      "eventId": 881803,
      "siteUnitNumber": 12662,
      "bathingSite": "CHICHESTER HARBOUR",
      "eventStart": "2023-10-27T16:52:11",
      "eventStop": "2023-10-27T16:56:48",
      "duration": 4,
      "status": "Genuine",
      "associatedSiteId": 116108,
      "outfallName": "TAYLORS LANE BOSHAM PS PUMPED",
      "isImpacting": true,
      "overFlowSiteId": 0,
      "historicSpillsList": [
        {
          "id": 344812171,
          "eventId": 881803,
          "siteUnitNumber": 12662,
          "bathingSite": "CHICHESTER HARBOUR",
          "eventStart": "2023-10-27T16:52:11",
          "eventStop": "2023-10-27T16:56:48",
          "duration": 4,
          "status": "Genuine",
          "associatedSiteId": 116108,
          "outfallName": "TAYLORS LANE BOSHAM PS PUMPED",
          "isImpacting": true,
          "overFlowSiteId": 116066
        }
      ]
    },
    {
      "id": 344792424,
      "eventId": 885299,
      "siteUnitNumber": 12594,
      "bathingSite": "BOGNOR REGIS EAST",
      "eventStart": "2023-10-27T16:35:00",
      "eventStop": "2023-10-27T16:54:00",
      "duration": 19,
      "status": "Genuine",
      "associatedSiteId": 109959,
      "outfallName": "WEST PARK BOGNOR REGIS",
      "isImpacting": false,
      "overFlowSiteId": 0,
      "historicSpillsList": []
    },
    {
      "id": 344812173,
      "eventId": 881799,
      "siteUnitNumber": 12662,
      "bathingSite": "CHICHESTER HARBOUR",
      "eventStart": "2023-10-27T16:44:59",
      "eventStop": "2023-10-27T16:50:04",
      "duration": 5,
      "status": "Genuine",
      "associatedSiteId": 116108,
      "outfallName": "TAYLORS LANE BOSHAM PS PUMPED",
      "isImpacting": true,
      "overFlowSiteId": 0,
      "historicSpillsList": [
        {
          "id": 344812173,
          "eventId": 881799,
          "siteUnitNumber": 12662,
          "bathingSite": "CHICHESTER HARBOUR",
          "eventStart": "2023-10-27T16:44:59",
          "eventStop": "2023-10-27T16:50:04",
          "duration": 5,
          "status": "Genuine",
          "associatedSiteId": 116108,
          "outfallName": "TAYLORS LANE BOSHAM PS PUMPED",
          "isImpacting": true,
          "overFlowSiteId": 116066
        }
      ]
    },
    {
      "id": 344812175,
      "eventId": 881791,
      "siteUnitNumber": 12662,
      "bathingSite": "CHICHESTER HARBOUR",
      "eventStart": "2023-10-27T16:38:13",
      "eventStop": "2023-10-27T16:42:49",
      "duration": 4,
      "status": "Genuine",
      "associatedSiteId": 116108,
      "outfallName": "TAYLORS LANE BOSHAM PS PUMPED",
      "isImpacting": true,
      "overFlowSiteId": 0,
      "historicSpillsList": [
        {
          "id": 344812175,
          "eventId": 881791,
          "siteUnitNumber": 12662,
          "bathingSite": "CHICHESTER HARBOUR",
          "eventStart": "2023-10-27T16:38:13",
          "eventStop": "2023-10-27T16:42:49",
          "duration": 4,
          "status": "Genuine",
          "associatedSiteId": 116108,
          "outfallName": "TAYLORS LANE BOSHAM PS PUMPED",
          "isImpacting": true,
          "overFlowSiteId": 116066
        }
      ]
    },
    {
      "id": 344812174,
      "eventId": 881787,
      "siteUnitNumber": 12662,
      "bathingSite": "CHICHESTER HARBOUR",
      "eventStart": "2023-10-27T16:30:54",
      "eventStop": "2023-10-27T16:36:06",
      "duration": 5,
      "status": "Genuine",
      "associatedSiteId": 116108,
      "outfallName": "TAYLORS LANE BOSHAM PS PUMPED",
      "isImpacting": true,
      "overFlowSiteId": 0,
      "historicSpillsList": [
        {
          "id": 344812174,
          "eventId": 881787,
          "siteUnitNumber": 12662,
          "bathingSite": "CHICHESTER HARBOUR",
          "eventStart": "2023-10-27T16:30:54",
          "eventStop": "2023-10-27T16:36:06",
          "duration": 5,
          "status": "Genuine",
          "associatedSiteId": 116108,
          "outfallName": "TAYLORS LANE BOSHAM PS PUMPED",
          "isImpacting": true,
          "overFlowSiteId": 116066
        }
      ]
    },
    {
      "id": 344792433,
      "eventId": 881227,
      "siteUnitNumber": 12594,
      "bathingSite": "BOGNOR REGIS EAST",
      "eventStart": "2023-10-27T05:19:00",
      "eventStop": "2023-10-27T16:35:00",
      "duration": 676,
      "status": "Genuine",
      "associatedSiteId": 109959,
      "outfallName": "WEST PARK BOGNOR REGIS",
      "isImpacting": true,
      "overFlowSiteId": 0,
      "historicSpillsList": [
        {
          "id": 344792433,
          "eventId": 881227,
          "siteUnitNumber": 12594,
          "bathingSite": "BOGNOR REGIS EAST",
          "eventStart": "2023-10-27T05:19:00",
          "eventStop": "2023-10-27T16:35:00",
          "duration": 676,
          "status": "Genuine",
          "associatedSiteId": 109959,
          "outfallName": "WEST PARK BOGNOR REGIS",
          "isImpacting": true,
          "overFlowSiteId": 108160
        }
      ]
    },
    {
      "id": 344783238,
      "eventId": 881770,
      "siteUnitNumber": 12662,
      "bathingSite": "CHICHESTER HARBOUR",
      "eventStart": "2023-10-27T16:12:20",
      "eventStop": "2023-10-27T16:30:00",
      "duration": 17,
      "status": "Not Genuine",
      "associatedSiteId": 109836,
      "outfallName": "CHICHESTER",
      "isImpacting": true,
      "overFlowSiteId": 0,
      "historicSpillsList": []
    },
    {
      "id": 344812176,
      "eventId": 881772,
      "siteUnitNumber": 12662,
      "bathingSite": "CHICHESTER HARBOUR",
      "eventStart": "2023-10-27T16:23:53",
      "eventStop": "2023-10-27T16:28:46",
      "duration": 4,
      "status": "Genuine",
      "associatedSiteId": 116108,
      "outfallName": "TAYLORS LANE BOSHAM PS PUMPED",
      "isImpacting": true,
      "overFlowSiteId": 0,
      "historicSpillsList": [
        {
          "id": 344812176,
          "eventId": 881772,
          "siteUnitNumber": 12662,
          "bathingSite": "CHICHESTER HARBOUR",
          "eventStart": "2023-10-27T16:23:53",
          "eventStop": "2023-10-27T16:28:46",
          "duration": 4,
          "status": "Genuine",
          "associatedSiteId": 116108,
          "outfallName": "TAYLORS LANE BOSHAM PS PUMPED",
          "isImpacting": true,
          "overFlowSiteId": 116066
        }
      ]
    },
    {
      "id": 344812178,
      "eventId": 881771,
      "siteUnitNumber": 12662,
      "bathingSite": "CHICHESTER HARBOUR",
      "eventStart": "2023-10-27T16:16:38",
      "eventStop": "2023-10-27T16:21:49",
      "duration": 5,
      "status": "Genuine",
      "associatedSiteId": 116108,
      "outfallName": "TAYLORS LANE BOSHAM PS PUMPED",
      "isImpacting": true,
      "overFlowSiteId": 0,
      "historicSpillsList": [
        {
          "id": 344812178,
          "eventId": 881771,
          "siteUnitNumber": 12662,
          "bathingSite": "CHICHESTER HARBOUR",
          "eventStart": "2023-10-27T16:16:38",
          "eventStop": "2023-10-27T16:21:49",
          "duration": 5,
          "status": "Genuine",
          "associatedSiteId": 116108,
          "outfallName": "TAYLORS LANE BOSHAM PS PUMPED",
          "isImpacting": true,
          "overFlowSiteId": 116066
        }
      ]
    },
    {
      "id": 344791362,
      "eventId": 881738,
      "siteUnitNumber": 12582,
      "bathingSite": "SEAFORD",
      "eventStart": "2023-10-27T15:28:00",
      "eventStop": "2023-10-27T16:20:00",
      "duration": 52,
      "status": "Genuine",
      "associatedSiteId": 109957,
      "outfallName": "PORTOBELLO BRIGHTON NO2",
      "isImpacting": false,
      "overFlowSiteId": 0,
      "historicSpillsList": []
    },
    {
      "id": 344812177,
      "eventId": 881769,
      "siteUnitNumber": 12662,
      "bathingSite": "CHICHESTER HARBOUR",
      "eventStart": "2023-10-27T16:09:27",
      "eventStop": "2023-10-27T16:14:30",
      "duration": 5,
      "status": "Genuine",
      "associatedSiteId": 116108,
      "outfallName": "TAYLORS LANE BOSHAM PS PUMPED",
      "isImpacting": true,
      "overFlowSiteId": 0,
      "historicSpillsList": [
        {
          "id": 344812177,
          "eventId": 881769,
          "siteUnitNumber": 12662,
          "bathingSite": "CHICHESTER HARBOUR",
          "eventStart": "2023-10-27T16:09:27",
          "eventStop": "2023-10-27T16:14:30",
          "duration": 5,
          "status": "Genuine",
          "associatedSiteId": 116108,
          "outfallName": "TAYLORS LANE BOSHAM PS PUMPED",
          "isImpacting": true,
          "overFlowSiteId": 116066
        }
      ]
    },
    {
      "id": 344812179,
      "eventId": 881767,
      "siteUnitNumber": 12662,
      "bathingSite": "CHICHESTER HARBOUR",
      "eventStart": "2023-10-27T16:02:47",
      "eventStop": "2023-10-27T16:07:18",
      "duration": 4,
      "status": "Genuine",
      "associatedSiteId": 116108,
      "outfallName": "TAYLORS LANE BOSHAM PS PUMPED",
      "isImpacting": true,
      "overFlowSiteId": 0,
      "historicSpillsList": [
        {
          "id": 344812179,
          "eventId": 881767,
          "siteUnitNumber": 12662,
          "bathingSite": "CHICHESTER HARBOUR",
          "eventStart": "2023-10-27T16:02:47",
          "eventStop": "2023-10-27T16:07:18",
          "duration": 4,
          "status": "Genuine",
          "associatedSiteId": 116108,
          "outfallName": "TAYLORS LANE BOSHAM PS PUMPED",
          "isImpacting": true,
          "overFlowSiteId": 116066
        }
      ]
    },
    {
      "id": 344812181,
      "eventId": 881761,
      "siteUnitNumber": 12662,
      "bathingSite": "CHICHESTER HARBOUR",
      "eventStart": "2023-10-27T15:56:42",
      "eventStop": "2023-10-27T16:01:00",
      "duration": 4,
      "status": "Genuine",
      "associatedSiteId": 116108,
      "outfallName": "TAYLORS LANE BOSHAM PS PUMPED",
      "isImpacting": true,
      "overFlowSiteId": 0,
      "historicSpillsList": [
        {
          "id": 344812181,
          "eventId": 881761,
          "siteUnitNumber": 12662,
          "bathingSite": "CHICHESTER HARBOUR",
          "eventStart": "2023-10-27T15:56:42",
          "eventStop": "2023-10-27T16:01:00",
          "duration": 4,
          "status": "Genuine",
          "associatedSiteId": 116108,
          "outfallName": "TAYLORS LANE BOSHAM PS PUMPED",
          "isImpacting": true,
          "overFlowSiteId": 116066
        }
      ]
    },
    {
      "id": 344812180,
      "eventId": 881758,
      "siteUnitNumber": 12662,
      "bathingSite": "CHICHESTER HARBOUR",
      "eventStart": "2023-10-27T15:50:07",
      "eventStop": "2023-10-27T15:54:52",
      "duration": 4,
      "status": "Genuine",
      "associatedSiteId": 116108,
      "outfallName": "TAYLORS LANE BOSHAM PS PUMPED",
      "isImpacting": true,
      "overFlowSiteId": 0,
      "historicSpillsList": [
        {
          "id": 344812180,
          "eventId": 881758,
          "siteUnitNumber": 12662,
          "bathingSite": "CHICHESTER HARBOUR",
          "eventStart": "2023-10-27T15:50:07",
          "eventStop": "2023-10-27T15:54:52",
          "duration": 4,
          "status": "Genuine",
          "associatedSiteId": 116108,
          "outfallName": "TAYLORS LANE BOSHAM PS PUMPED",
          "isImpacting": true,
          "overFlowSiteId": 116066
        }
      ]
    },
    {
      "id": 344812182,
      "eventId": 881755,
      "siteUnitNumber": 12662,
      "bathingSite": "CHICHESTER HARBOUR",
      "eventStart": "2023-10-27T15:43:30",
      "eventStop": "2023-10-27T15:48:16",
      "duration": 4,
      "status": "Genuine",
      "associatedSiteId": 116108,
      "outfallName": "TAYLORS LANE BOSHAM PS PUMPED",
      "isImpacting": true,
      "overFlowSiteId": 0,
      "historicSpillsList": [
        {
          "id": 344812182,
          "eventId": 881755,
          "siteUnitNumber": 12662,
          "bathingSite": "CHICHESTER HARBOUR",
          "eventStart": "2023-10-27T15:43:30",
          "eventStop": "2023-10-27T15:48:16",
          "duration": 4,
          "status": "Genuine",
          "associatedSiteId": 116108,
          "outfallName": "TAYLORS LANE BOSHAM PS PUMPED",
          "isImpacting": true,
          "overFlowSiteId": 116066
        }
      ]
    }
  ]
}