{
  "currentPage": 260,
  "totalItems": 21025,
  "totalPages": 841,
  "items": [
    {
      "id": 344779906,
      "eventId": 828664,
      "siteUnitNumber": 12618,
      "bathingSite": "RYDE",
      "eventStart": "2023-06-20T04:24:52",
      "eventStop": "2023-06-20T05:21:00",
      "duration": 56,
      "status": "Genuine",
      "associatedSiteId": 109789,
      "outfallName": "SEAGROVE BAY",
      "isImpacting": true,
      "overFlowSiteId": 0,
      "historicSpillsList": [
        {
          "id": 344779906,
          "eventId": 828664,
          "siteUnitNumber": 12618,
          "bathingSite": "RYDE",
          "eventStart": "2023-06-20T04:24:52",
          "eventStop": "2023-06-20T05:21:00",
          "duration": 56,
          "status": "Genuine",
          "associatedSiteId": 109789,
          "outfallName": "SEAGROVE BAY",
          "isImpacting": true,
          "overFlowSiteId": 100244
        },
        {
          "id": 344779907,
          "eventId": 828664,
          "siteUnitNumber": 12619,
          "bathingSite": "SEAGROVE",
          "eventStart": "2023-06-20T04:24:52",
          "eventStop": "2023-06-20T05:21:00",
          "duration": 56,
          "status": "Genuine",
          "associatedSiteId": 109789,
          "outfallName": "SEAGROVE BAY",
          "isImpacting": true,
          "overFlowSiteId": 100244,
          "historicSpillsList": []
        },
        {
          "id": 344779908,
          "eventId": 828664,
          "siteUnitNumber": 12620,
          "bathingSite": "ST HELENS",
          "eventStart": "2023-06-20T04:24:52",
          "eventStop": "2023-06-20T05:21:00",
          "duration": 56,
          "status": "Genuine",
          "associatedSiteId": 109789,
          "outfallName": "SEAGROVE BAY",
          "isImpacting": true,
          "overFlowSiteId": 100244,
          "historicSpillsList": []
        }
      ]
    },
    {
      "id": 344794258,
      "eventId": 828914,
      "siteUnitNumber": 12591,
      "bathingSite": "LITTLEHAMPTON",
      "eventStart": "2023-06-20T05:05:59",
      "eventStop": "2023-06-20T05:15:00",
      "duration": 9,
      "status": "Not Genuine",
      "associatedSiteId": 109961,
      "outfallName": "TOWN QUAY ARUNDEL",
      "isImpacting": false,
      "overFlowSiteId": 0,
      "historicSpillsList": []
    },
    {
      "id": 344780430,
      "eventId": 828689,
      "siteUnitNumber": 12661,
      "bathingSite": "LANGSTONE HARBOUR",
      "eventStart": "2023-06-20T04:33:17",
      "eventStop": "2023-06-20T05:12:00",
      "duration": 38,
      "status": "Genuine",
      "associatedSiteId": 109820,
      "outfallName": "ST ANDREWS ROAD PORTSMOUTH",
      "isImpacting": true,
      "overFlowSiteId": 0,
      "historicSpillsList": [
        {
          "id": 344780430,
          "eventId": 828689,
          "siteUnitNumber": 12661,
          "bathingSite": "LANGSTONE HARBOUR",
          "eventStart": "2023-06-20T04:33:17",
          "eventStop": "2023-06-20T05:12:00",
          "duration": 38,
          "status": "Genuine",
          "associatedSiteId": 109820,
          "outfallName": "ST ANDREWS ROAD PORTSMOUTH",
          "isImpacting": true,
          "overFlowSiteId": 108474
        }
      ]
    },
    {
      "id": 344790772,
      "eventId": 828670,
      "siteUnitNumber": 12619,
      "bathingSite": "SEAGROVE",
      "eventStart": "2023-06-20T04:22:00",
      "eventStop": "2023-06-20T05:05:00",
      "duration": 43,
      "status": "Genuine",
      "associatedSiteId": 109941,
      "outfallName": "LATIMER ROAD ST HELENS",
      "isImpacting": false,
      "overFlowSiteId": 0,
      "historicSpillsList": []
    },
    {
      "id": 344774347,
      "eventId": 828661,
      "siteUnitNumber": 12616,
      "bathingSite": "GURNARD",
      "eventStart": "2023-06-20T04:23:21",
      "eventStop": "2023-06-20T05:02:00",
      "duration": 38,
      "status": "Genuine",
      "associatedSiteId": 109702,
      "outfallName": "ALBANY ROAD EAST COWES",
      "isImpacting": false,
      "overFlowSiteId": 0,
      "historicSpillsList": []
    },
    {
      "id": 344804923,
      "eventId": 828642,
      "siteUnitNumber": 12617,
      "bathingSite": "COWES",
      "eventStart": "2023-06-20T04:14:00",
      "eventStop": "2023-06-20T05:00:00",
      "duration": 46,
      "status": "Genuine",
      "associatedSiteId": 110701,
      "outfallName": "TERMINUS ROAD COWES 2",
      "isImpacting": true,
      "overFlowSiteId": 0,
      "historicSpillsList": [
        {
          "id": 344804923,
          "eventId": 828642,
          "siteUnitNumber": 12617,
          "bathingSite": "COWES",
          "eventStart": "2023-06-20T04:14:00",
          "eventStop": "2023-06-20T05:00:00",
          "duration": 46,
          "status": "Genuine",
          "associatedSiteId": 110701,
          "outfallName": "TERMINUS ROAD COWES 2",
          "isImpacting": true,
          "overFlowSiteId": 108563
        },
        {
          "id": 344804924,
          "eventId": 828642,
          "siteUnitNumber": 12616,
          "bathingSite": "GURNARD",
          "eventStart": "2023-06-20T04:14:00",
          "eventStop": "2023-06-20T05:00:00",
          "duration": 46,
          "status": "Genuine",
          "associatedSiteId": 110701,
          "outfallName": "TERMINUS ROAD COWES 2",
          "isImpacting": true,
          "overFlowSiteId": 108563,
          "historicSpillsList": []
        }
      ]
    },
    {
      "id": 344779918,
      "eventId": 828706,
      "siteUnitNumber": 12618,
      "bathingSite": "RYDE",
      "eventStart": "2023-06-20T04:33:00",
      "eventStop": "2023-06-20T04:59:00",
      "duration": 26,
      "status": "Genuine",
      "associatedSiteId": 109790,
      "outfallName": "GREAT PRESTON ROAD RYDE",
      "isImpacting": true,
      "overFlowSiteId": 0,
      "historicSpillsList": [
        {
          "id": 344779918,
          "eventId": 828706,
          "siteUnitNumber": 12618,
          "bathingSite": "RYDE",
          "eventStart": "2023-06-20T04:33:00",
          "eventStop": "2023-06-20T04:59:00",
          "duration": 26,
          "status": "Genuine",
          "associatedSiteId": 109790,
          "outfallName": "GREAT PRESTON ROAD RYDE",
          "isImpacting": true,
          "overFlowSiteId": 109304
        },
        {
          "id": 344779919,
          "eventId": 828706,
          "siteUnitNumber": 12619,
          "bathingSite": "SEAGROVE",
          "eventStart": "2023-06-20T04:33:00",
          "eventStop": "2023-06-20T04:59:00",
          "duration": 26,
          "status": "Genuine",
          "associatedSiteId": 109790,
          "outfallName": "GREAT PRESTON ROAD RYDE",
          "isImpacting": true,
          "overFlowSiteId": 109304,
          "historicSpillsList": []
        }
      ]
    },
    {
      "id": 344774795,
      "eventId": 828659,
      "siteUnitNumber": 12616,
      "bathingSite": "GURNARD",
      "eventStart": "2023-06-20T04:21:47",
      "eventStop": "2023-06-20T04:58:00",
      "duration": 36,
      "status": "Genuine",
      "associatedSiteId": 109704,
      "outfallName": "EGYPT POINT COWES",
      "isImpacting": true,
      "overFlowSiteId": 0,
      "historicSpillsList": [
        {
          "id": 344774796,
          "eventId": 828659,
          "siteUnitNumber": 12617,
          "bathingSite": "COWES",
          "eventStart": "2023-06-20T04:21:47",
          "eventStop": "2023-06-20T04:58:00",
          "duration": 36,
          "status": "Genuine",
          "associatedSiteId": 109704,
          "outfallName": "EGYPT POINT COWES",
          "isImpacting": true,
          "overFlowSiteId": 116213,
          "historicSpillsList": []
        }
      ]
    },
    {
      "id": 344804921,
      "eventId": 828677,
      "siteUnitNumber": 12616,
      "bathingSite": "GURNARD",
      "eventStart": "2023-06-20T04:10:00",
      "eventStop": "2023-06-20T04:56:00",
      "duration": 46,
      "status": "Genuine",
      "associatedSiteId": 110701,
      "outfallName": "TERMINUS ROAD COWES 2",
      "isImpacting": true,
      "overFlowSiteId": 0,
      "historicSpillsList": [
        {
          "id": 344804921,
          "eventId": 828677,
          "siteUnitNumber": 12616,
          "bathingSite": "GURNARD",
          "eventStart": "2023-06-20T04:10:00",
          "eventStop": "2023-06-20T04:56:00",
          "duration": 46,
          "status": "Genuine",
          "associatedSiteId": 110701,
          "outfallName": "TERMINUS ROAD COWES 2",
          "isImpacting": true,
          "overFlowSiteId": 108562
        },
        {
          "id": 344804922,
          "eventId": 828677,
          "siteUnitNumber": 12617,
          "bathingSite": "COWES",
          "eventStart": "2023-06-20T04:10:00",
          "eventStop": "2023-06-20T04:56:00",
          "duration": 46,
          "status": "Genuine",
          "associatedSiteId": 110701,
          "outfallName": "TERMINUS ROAD COWES 2",
          "isImpacting": true,
          "overFlowSiteId": 108562,
          "historicSpillsList": []
        }
      ]
    },
    {
      "id": 344779388,
      "eventId": 828699,
      "siteUnitNumber": 12618,
      "bathingSite": "RYDE",
      "eventStart": "2023-06-20T04:46:00",
      "eventStop": "2023-06-20T04:51:00",
      "duration": 5,
      "status": "Genuine",
      "associatedSiteId": 109780,
      "outfallName": "LADIES WALK BINSTEAD",
      "isImpacting": true,
      "overFlowSiteId": 0,
      "historicSpillsList": [
        {
          "id": 344779388,
          "eventId": 828699,
          "siteUnitNumber": 12618,
          "bathingSite": "RYDE",
          "eventStart": "2023-06-20T04:46:00",
          "eventStop": "2023-06-20T04:51:00",
          "duration": 5,
          "status": "Genuine",
          "associatedSiteId": 109780,
          "outfallName": "LADIES WALK BINSTEAD",
          "isImpacting": true,
          "overFlowSiteId": 107406
        }
      ]
    },
    {
      "id": 344769742,
      "eventId": 828656,
      "siteUnitNumber": 12618,
      "bathingSite": "RYDE",
      "eventStart": "2023-06-20T04:18:58",
      "eventStop": "2023-06-20T04:45:15",
      "duration": 26,
      "status": "Genuine",
      "associatedSiteId": 102050,
      "outfallName": "ESPLANADE SEAVIEW",
      "isImpacting": false,
      "overFlowSiteId": 0,
      "historicSpillsList": []
    },
    {
      "id": 344772422,
      "eventId": 828624,
      "siteUnitNumber": 12615,
      "bathingSite": "COLWELL BAY",
      "eventStart": "2023-06-20T03:45:00",
      "eventStop": "2023-06-20T04:45:00",
      "duration": 60,
      "status": "Not Genuine",
      "associatedSiteId": 109663,
      "outfallName": "THE INSTITUTE YARMOUTH NO1",
      "isImpacting": false,
      "overFlowSiteId": 0,
      "historicSpillsList": []
    },
    {
      "id": 344773761,
      "eventId": 829477,
      "siteUnitNumber": 12616,
      "bathingSite": "GURNARD",
      "eventStart": "2023-06-20T04:18:00",
      "eventStop": "2023-06-20T04:44:00",
      "duration": 26,
      "status": "Genuine",
      "associatedSiteId": 109700,
      "outfallName": "MARKET HILL COWES",
      "isImpacting": false,
      "overFlowSiteId": 0,
      "historicSpillsList": []
    },
    {
      "id": 344776031,
      "eventId": 828647,
      "siteUnitNumber": 12616,
      "bathingSite": "GURNARD",
      "eventStart": "2023-06-20T04:13:00",
      "eventStop": "2023-06-20T04:35:00",
      "duration": 22,
      "status": "Genuine",
      "associatedSiteId": 109707,
      "outfallName": "MEDINA ROAD COWES",
      "isImpacting": false,
      "overFlowSiteId": 0,
      "historicSpillsList": []
    },
    {
      "id": 344779486,
      "eventId": 828654,
      "siteUnitNumber": 12618,
      "bathingSite": "RYDE",
      "eventStart": "2023-06-20T04:29:00",
      "eventStop": "2023-06-20T04:32:00",
      "duration": 3,
      "status": "Genuine",
      "associatedSiteId": 109782,
      "outfallName": "AUGUSTA ROAD RYDE",
      "isImpacting": true,
      "overFlowSiteId": 0,
      "historicSpillsList": [
        {
          "id": 344779486,
          "eventId": 828654,
          "siteUnitNumber": 12618,
          "bathingSite": "RYDE",
          "eventStart": "2023-06-20T04:29:00",
          "eventStop": "2023-06-20T04:32:00",
          "duration": 3,
          "status": "Genuine",
          "associatedSiteId": 109782,
          "outfallName": "AUGUSTA ROAD RYDE",
          "isImpacting": true,
          "overFlowSiteId": 102348
        }
      ]
    },
    {
      "id": 344772564,
      "eventId": 828617,
      "siteUnitNumber": 12615,
      "bathingSite": "COLWELL BAY",
      "eventStart": "2023-06-20T03:28:38",
      "eventStop": "2023-06-20T04:18:00",
      "duration": 49,
      "status": "Genuine",
      "associatedSiteId": 109665,
      "outfallName": "THORLEY ROAD BOULDNOR",
      "isImpacting": false,
      "overFlowSiteId": 0,
      "historicSpillsList": []
    },
    {
      "id": 344787086,
      "eventId": 828564,
      "siteUnitNumber": 12576,
      "bathingSite": "ST LEONARDS",
      "eventStart": "2023-06-19T23:53:57",
      "eventStop": "2023-06-20T00:04:13",
      "duration": 10,
      "status": "Genuine",
      "associatedSiteId": 109903,
      "outfallName": "BEXHILL & HASTINGS NO2",
      "isImpacting": true,
      "overFlowSiteId": 0,
      "historicSpillsList": [
        {
          "id": 344787086,
          "eventId": 828564,
          "siteUnitNumber": 12576,
          "bathingSite": "ST LEONARDS",
          "eventStart": "2023-06-19T23:53:57",
          "eventStop": "2023-06-20T00:04:13",
          "duration": 10,
          "status": "Genuine",
          "associatedSiteId": 109903,
          "outfallName": "BEXHILL & HASTINGS NO2",
          "isImpacting": true,
          "overFlowSiteId": 115398
        },
        {
          "id": 344787087,
          "eventId": 828564,
          "siteUnitNumber": 12577,
          "bathingSite": "BEXHILL",
          "eventStart": "2023-06-19T23:53:57",
          "eventStop": "2023-06-20T00:04:13",
          "duration": 10,
          "status": "Genuine",
          "associatedSiteId": 109903,
          "outfallName": "BEXHILL & HASTINGS NO2",
          "isImpacting": true,
          "overFlowSiteId": 115398,
          "historicSpillsList": []
        }
      ]
    },
    {
      "id": 344787084,
      "eventId": 828361,
      "siteUnitNumber": 12576,
      "bathingSite": "ST LEONARDS",
      "eventStart": "2023-06-19T06:40:02",
      "eventStop": "2023-06-19T22:41:00",
      "duration": 960,
      "status": "Genuine",
      "associatedSiteId": 109903,
      "outfallName": "BEXHILL & HASTINGS NO2",
      "isImpacting": true,
      "overFlowSiteId": 0,
      "historicSpillsList": [
        {
          "id": 344787084,
          "eventId": 828361,
          "siteUnitNumber": 12576,
          "bathingSite": "ST LEONARDS",
          "eventStart": "2023-06-19T06:40:02",
          "eventStop": "2023-06-19T22:41:00",
          "duration": 960,
          "status": "Genuine",
          "associatedSiteId": 109903,
          "outfallName": "BEXHILL & HASTINGS NO2",
          "isImpacting": true,
          "overFlowSiteId": 115398
        },
        {
          "id": 344787085,
          "eventId": 828361,
          "siteUnitNumber": 12577,
          "bathingSite": "BEXHILL",
          "eventStart": "2023-06-19T06:40:02",
          "eventStop": "2023-06-19T22:41:00",
          "duration": 960,
          "status": "Genuine",
          "associatedSiteId": 109903,
          "outfallName": "BEXHILL & HASTINGS NO2",
          "isImpacting": true,
          "overFlowSiteId": 115398,
          "historicSpillsList": []
        }
      ]
    },
    {
      "id": 344811528,
      "eventId": 828114,
      "siteUnitNumber": 12577,
      "bathingSite": "BEXHILL",
      "eventStart": "2023-06-18T19:05:00",
      "eventStop": "2023-06-19T22:21:00",
      "duration": 1636,
      "status": "Genuine",
      "associatedSiteId": 115499,
      "outfallName": "BROCKLEY ROAD BEXHILL",
      "isImpacting": true,
      "overFlowSiteId": 0,
      "historicSpillsList": [
        {
          "id": 344811528,
          "eventId": 828114,
          "siteUnitNumber": 12577,
          "bathingSite": "BEXHILL",
          "eventStart": "2023-06-18T19:05:00",
          "eventStop": "2023-06-19T22:21:00",
          "duration": 1636,
          "status": "Genuine",
          "associatedSiteId": 115499,
          "outfallName": "BROCKLEY ROAD BEXHILL",
          "isImpacting": true,
          "overFlowSiteId": 103297
        }
      ]
    },
    {
      "id": 344787090,
      "eventId": 828346,
      "siteUnitNumber": 12576,
      "bathingSite": "ST LEONARDS",
      "eventStart": "2023-06-19T05:04:05",
      "eventStop": "2023-06-19T05:26:58",
      "duration": 22,
      "status": "Not Genuine",
      "associatedSiteId": 109903,
      "outfallName": "BEXHILL & HASTINGS NO2",
      "isImpacting": true,
      "overFlowSiteId": 0,
      "historicSpillsList": []
    },
    {
      "id": 344787088,
      "eventId": 827856,
      "siteUnitNumber": 12576,
      "bathingSite": "ST LEONARDS",
      "eventStart": "2023-06-18T07:11:59",
      "eventStop": "2023-06-19T04:00:00",
      "duration": 1248,
      "status": "Genuine",
      "associatedSiteId": 109903,
      "outfallName": "BEXHILL & HASTINGS NO2",
      "isImpacting": true,
      "overFlowSiteId": 0,
      "historicSpillsList": [
        {
          "id": 344787088,
          "eventId": 827856,
          "siteUnitNumber": 12576,
          "bathingSite": "ST LEONARDS",
          "eventStart": "2023-06-18T07:11:59",
          "eventStop": "2023-06-19T04:00:00",
          "duration": 1248,
          "status": "Genuine",
          "associatedSiteId": 109903,
          "outfallName": "BEXHILL & HASTINGS NO2",
          "isImpacting": true,
          "overFlowSiteId": 115398
        },
        {
          "id": 344787089,
          "eventId": 827856,
          "siteUnitNumber": 12577,
          "bathingSite": "BEXHILL",
          "eventStart": "2023-06-18T07:11:59",
          "eventStop": "2023-06-19T04:00:00",
          "duration": 1248,
          "status": "Genuine",
          "associatedSiteId": 109903,
          "outfallName": "BEXHILL & HASTINGS NO2",
          "isImpacting": true,
          "overFlowSiteId": 115398,
          "historicSpillsList": []
        }
      ]
    },
    {
      "id": 344783664,
      "eventId": 828246,
      "siteUnitNumber": 12544,
      "bathingSite": "SHEERNESS",
      "eventStart": "2023-06-18T21:45:00",
      "eventStop": "2023-06-18T22:15:00",
      "duration": 30,
      "status": "Not Genuine",
      "associatedSiteId": 109869,
      "outfallName": "GRAIN NO2",
      "isImpacting": true,
      "overFlowSiteId": 0,
      "historicSpillsList": []
    },
    {
      "id": 344804591,
      "eventId": 828211,
      "siteUnitNumber": 12560,
      "bathingSite": "JOSS BAY BROADSTAIRS",
      "eventStart": "2023-06-18T20:15:00",
      "eventStop": "2023-06-18T21:44:00",
      "duration": 89,
      "status": "Genuine",
      "associatedSiteId": 110673,
      "outfallName": "BROADSTAIRS SSO 1",
      "isImpacting": true,
      "overFlowSiteId": 0,
      "historicSpillsList": [
        {
          "id": 344804591,
          "eventId": 828211,
          "siteUnitNumber": 12560,
          "bathingSite": "JOSS BAY BROADSTAIRS",
          "eventStart": "2023-06-18T20:15:00",
          "eventStop": "2023-06-18T21:44:00",
          "duration": 89,
          "status": "Genuine",
          "associatedSiteId": 110673,
          "outfallName": "BROADSTAIRS SSO 1",
          "isImpacting": true,
          "overFlowSiteId": 116106
        },
        {
          "id": 344804594,
          "eventId": 828211,
          "siteUnitNumber": 12559,
          "bathingSite": "BOTANY BAY BROADSTAIRS",
          "eventStart": "2023-06-18T20:15:00",
          "eventStop": "2023-06-18T21:44:00",
          "duration": 89,
          "status": "Genuine",
          "associatedSiteId": 110673,
          "outfallName": "BROADSTAIRS SSO 1",
          "isImpacting": true,
          "overFlowSiteId": 116106,
          "historicSpillsList": []
        }
      ]
    },
    {
      "id": 344781671,
      "eventId": 828152,
      "siteUnitNumber": 12548,
      "bathingSite": "TANKERTON",
      "eventStart": "2023-06-18T18:20:00",
      "eventStop": "2023-06-18T21:33:00",
      "duration": 193,
      "status": "Genuine",
      "associatedSiteId": 109830,
      "outfallName": "SWALECLIFFE NO1",
      "isImpacting": true,
      "overFlowSiteId": 0,
      "historicSpillsList": [
        {
          "id": 344781671,
          "eventId": 828152,
          "siteUnitNumber": 12548,
          "bathingSite": "TANKERTON",
          "eventStart": "2023-06-18T18:20:00",
          "eventStop": "2023-06-18T21:33:00",
          "duration": 193,
          "status": "Genuine",
          "associatedSiteId": 109830,
          "outfallName": "SWALECLIFFE NO1",
          "isImpacting": true,
          "overFlowSiteId": 115444
        },
        {
          "id": 344781672,
          "eventId": 828152,
          "siteUnitNumber": 12549,
          "bathingSite": "HERNE BAY CENTRAL",
          "eventStart": "2023-06-18T18:20:00",
          "eventStop": "2023-06-18T21:33:00",
          "duration": 193,
          "status": "Genuine",
          "associatedSiteId": 109830,
          "outfallName": "SWALECLIFFE NO1",
          "isImpacting": true,
          "overFlowSiteId": 115444,
          "historicSpillsList": []
        }
      ]
    },
    {
      "id": 344806270,
      "eventId": 828019,
      "siteUnitNumber": 12582,
      "bathingSite": "SEAFORD",
      "eventStart": "2023-06-18T15:52:14",
      "eventStop": "2023-06-18T19:15:17",
      "duration": 203,
      "status": "Genuine",
      "associatedSiteId": 110920,
      "outfallName": "NEWHAVEN",
      "isImpacting": false,
      "overFlowSiteId": 0,
      "historicSpillsList": []
    }
  ]
}