{
  "currentPage": 434,
  "totalItems": 18701,
  "totalPages": 749,
  "items": [
    {
      "id": 343970287,
      "eventId": 670567,
      "siteUnitNumber": 12618,
      "bathingSite": "RYDE",
      "eventStart": "2022-11-16T20:53:00",
      "eventStop": "2022-11-16T21:15:00",
      "duration": 22,
      "status": "Genuine",
      "associatedSiteId": 109782,
      "outfallName": "AUGUSTA ROAD RYDE",
      "isImpacting": true,
      "overFlowSiteId": 0,
      "historicSpillsList": [
        {
          "id": 343970287,
          "eventId": 670567,
          "siteUnitNumber": 12618,
          "bathingSite": "RYDE",
          "eventStart": "2022-11-16T20:53:00",
          "eventStop": "2022-11-16T21:15:00",
          "duration": 22,
          "status": "Genuine",
          "associatedSiteId": 109782,
          "outfallName": "AUGUSTA ROAD RYDE",
          "isImpacting": true,
          "overFlowSiteId": 102348
        }
      ]
    },
    {
      "id": 343979330,
      "eventId": 670326,
      "siteUnitNumber": 12571,
      "bathingSite": "ST MARYS BAY (KENT)",
      "eventStart": "2022-11-16T19:38:02",
      "eventStop": "2022-11-16T21:08:02",
      "duration": 90,
      "status": "Genuine",
      "associatedSiteId": 109907,
      "outfallName": "QUEENS ROAD NEW ROMNEY",
      "isImpacting": false,
      "overFlowSiteId": 0,
      "historicSpillsList": []
    },
    {
      "id": 343973416,
      "eventId": 671610,
      "siteUnitNumber": 12548,
      "bathingSite": "TANKERTON",
      "eventStart": "2022-11-16T20:43:32",
      "eventStop": "2022-11-16T21:04:41",
      "duration": 21,
      "status": "Genuine",
      "associatedSiteId": 109831,
      "outfallName": "TANKERTON CIRCUS",
      "isImpacting": true,
      "overFlowSiteId": 0,
      "historicSpillsList": [
        {
          "id": 343973416,
          "eventId": 671610,
          "siteUnitNumber": 12548,
          "bathingSite": "TANKERTON",
          "eventStart": "2022-11-16T20:43:32",
          "eventStop": "2022-11-16T21:04:41",
          "duration": 21,
          "status": "Genuine",
          "associatedSiteId": 109831,
          "outfallName": "TANKERTON CIRCUS",
          "isImpacting": true,
          "overFlowSiteId": 103281
        }
      ]
    },
    {
      "id": 343974583,
      "eventId": 670060,
      "siteUnitNumber": 12579,
      "bathingSite": "PEVENSEY BAY",
      "eventStart": "2022-11-16T18:26:11",
      "eventStop": "2022-11-16T21:02:25",
      "duration": 156,
      "status": "Genuine",
      "associatedSiteId": 109888,
      "outfallName": "EASTBOURNE NO 2",
      "isImpacting": true,
      "overFlowSiteId": 0,
      "historicSpillsList": [
        {
          "id": 343974584,
          "eventId": 670060,
          "siteUnitNumber": 12580,
          "bathingSite": "EASTBOURNE",
          "eventStart": "2022-11-16T18:26:11",
          "eventStop": "2022-11-16T21:02:25",
          "duration": 156,
          "status": "Genuine",
          "associatedSiteId": 109888,
          "outfallName": "EASTBOURNE NO 2",
          "isImpacting": true,
          "overFlowSiteId": 115459,
          "historicSpillsList": []
        }
      ]
    },
    {
      "id": 343979789,
      "eventId": 670266,
      "siteUnitNumber": 12588,
      "bathingSite": "SHOREHAM BEACH",
      "eventStart": "2022-11-16T19:28:41",
      "eventStop": "2022-11-16T21:00:00",
      "duration": 91,
      "status": "Genuine",
      "associatedSiteId": 109922,
      "outfallName": "ROPETACKLE STREET SHOREHAM",
      "isImpacting": false,
      "overFlowSiteId": 0,
      "historicSpillsList": []
    },
    {
      "id": 343975786,
      "eventId": 670531,
      "siteUnitNumber": 12568,
      "bathingSite": "SANDGATE",
      "eventStart": "2022-11-16T20:46:36",
      "eventStop": "2022-11-16T20:54:47",
      "duration": 8,
      "status": "Genuine",
      "associatedSiteId": 109896,
      "outfallName": "RANGE ROAD HYTHE K SHORT",
      "isImpacting": false,
      "overFlowSiteId": 0,
      "historicSpillsList": []
    },
    {
      "id": 343971135,
      "eventId": 670136,
      "siteUnitNumber": 12661,
      "bathingSite": "LANGSTONE HARBOUR",
      "eventStart": "2022-11-16T18:30:11",
      "eventStop": "2022-11-16T20:52:33",
      "duration": 142,
      "status": "Genuine",
      "associatedSiteId": 109818,
      "outfallName": "KIRTLEY CLOSE DRAYTON",
      "isImpacting": true,
      "overFlowSiteId": 0,
      "historicSpillsList": [
        {
          "id": 343971135,
          "eventId": 670136,
          "siteUnitNumber": 12661,
          "bathingSite": "LANGSTONE HARBOUR",
          "eventStart": "2022-11-16T18:30:11",
          "eventStop": "2022-11-16T20:52:33",
          "duration": 142,
          "status": "Genuine",
          "associatedSiteId": 109818,
          "outfallName": "KIRTLEY CLOSE DRAYTON",
          "isImpacting": true,
          "overFlowSiteId": 108774
        }
      ]
    },
    {
      "id": 343982702,
      "eventId": 674169,
      "siteUnitNumber": 12594,
      "bathingSite": "BOGNOR REGIS EAST",
      "eventStart": "2022-11-16T19:10:00",
      "eventStop": "2022-11-16T20:46:00",
      "duration": 96,
      "status": "Genuine",
      "associatedSiteId": 109958,
      "outfallName": "CARLTON AVENUE BOGNOR",
      "isImpacting": true,
      "overFlowSiteId": 0,
      "historicSpillsList": [
        {
          "id": 343982702,
          "eventId": 674169,
          "siteUnitNumber": 12594,
          "bathingSite": "BOGNOR REGIS EAST",
          "eventStart": "2022-11-16T19:10:00",
          "eventStop": "2022-11-16T20:46:00",
          "duration": 96,
          "status": "Genuine",
          "associatedSiteId": 109958,
          "outfallName": "CARLTON AVENUE BOGNOR",
          "isImpacting": true,
          "overFlowSiteId": 102492
        },
        {
          "id": 343982718,
          "eventId": 674169,
          "siteUnitNumber": 12595,
          "bathingSite": "BOGNOR REGIS (ALDWICK)",
          "eventStart": "2022-11-16T19:10:00",
          "eventStop": "2022-11-16T20:46:00",
          "duration": 96,
          "status": "Genuine",
          "associatedSiteId": 109958,
          "outfallName": "CARLTON AVENUE BOGNOR",
          "isImpacting": true,
          "overFlowSiteId": 102492,
          "historicSpillsList": []
        },
        {
          "id": 343982719,
          "eventId": 674169,
          "siteUnitNumber": 12596,
          "bathingSite": "PAGHAM",
          "eventStart": "2022-11-16T19:10:00",
          "eventStop": "2022-11-16T20:46:00",
          "duration": 96,
          "status": "Genuine",
          "associatedSiteId": 109958,
          "outfallName": "CARLTON AVENUE BOGNOR",
          "isImpacting": true,
          "overFlowSiteId": 102492,
          "historicSpillsList": []
        }
      ]
    },
    {
      "id": 343980943,
      "eventId": 677045,
      "siteUnitNumber": 12621,
      "bathingSite": "BEMBRIDGE",
      "eventStart": "2022-11-15T13:00:00",
      "eventStop": "2022-11-16T20:45:00",
      "duration": 1905,
      "status": "Genuine",
      "associatedSiteId": 109937,
      "outfallName": "HILLWAY BEMBRIDGE",
      "isImpacting": false,
      "overFlowSiteId": 0,
      "historicSpillsList": []
    },
    {
      "id": 343972133,
      "eventId": 670195,
      "siteUnitNumber": 12601,
      "bathingSite": "BEACHLANDS CENTRAL",
      "eventStart": "2022-11-16T19:30:00",
      "eventStop": "2022-11-16T20:40:00",
      "duration": 70,
      "status": "Genuine",
      "associatedSiteId": 109823,
      "outfallName": "FORT CUMBERLAND NO1",
      "isImpacting": true,
      "overFlowSiteId": 0,
      "historicSpillsList": [
        {
          "id": 343972137,
          "eventId": 670195,
          "siteUnitNumber": 12661,
          "bathingSite": "LANGSTONE HARBOUR",
          "eventStart": "2022-11-16T19:30:00",
          "eventStop": "2022-11-16T20:40:00",
          "duration": 70,
          "status": "Genuine",
          "associatedSiteId": 109823,
          "outfallName": "FORT CUMBERLAND NO1",
          "isImpacting": true,
          "overFlowSiteId": 116221,
          "historicSpillsList": []
        }
      ]
    },
    {
      "id": 343997720,
      "eventId": 670160,
      "siteUnitNumber": 12576,
      "bathingSite": "ST LEONARDS",
      "eventStart": "2022-11-16T19:03:45",
      "eventStop": "2022-11-16T20:39:00",
      "duration": 95,
      "status": "Genuine",
      "associatedSiteId": 111370,
      "outfallName": "YORK ROAD BEXHILL",
      "isImpacting": false,
      "overFlowSiteId": 0,
      "historicSpillsList": []
    },
    {
      "id": 343975790,
      "eventId": 670443,
      "siteUnitNumber": 12568,
      "bathingSite": "SANDGATE",
      "eventStart": "2022-11-16T20:15:55",
      "eventStop": "2022-11-16T20:36:26",
      "duration": 20,
      "status": "Genuine",
      "associatedSiteId": 109896,
      "outfallName": "RANGE ROAD HYTHE K SHORT",
      "isImpacting": false,
      "overFlowSiteId": 0,
      "historicSpillsList": []
    },
    {
      "id": 343963448,
      "eventId": 670072,
      "siteUnitNumber": 12614,
      "bathingSite": "TOTLAND BAY",
      "eventStart": "2022-11-16T18:41:03",
      "eventStop": "2022-11-16T20:14:00",
      "duration": 92,
      "status": "Genuine",
      "associatedSiteId": 109668,
      "outfallName": "COLWELL BAY",
      "isImpacting": true,
      "overFlowSiteId": 0,
      "historicSpillsList": [
        {
          "id": 343963449,
          "eventId": 670072,
          "siteUnitNumber": 12615,
          "bathingSite": "COLWELL BAY",
          "eventStart": "2022-11-16T18:41:03",
          "eventStop": "2022-11-16T20:14:00",
          "duration": 92,
          "status": "Genuine",
          "associatedSiteId": 109668,
          "outfallName": "COLWELL BAY",
          "isImpacting": true,
          "overFlowSiteId": 107407,
          "historicSpillsList": []
        }
      ]
    },
    {
      "id": 343975788,
      "eventId": 670280,
      "siteUnitNumber": 12568,
      "bathingSite": "SANDGATE",
      "eventStart": "2022-11-16T19:39:39",
      "eventStop": "2022-11-16T20:10:24",
      "duration": 30,
      "status": "Genuine",
      "associatedSiteId": 109896,
      "outfallName": "RANGE ROAD HYTHE K SHORT",
      "isImpacting": true,
      "overFlowSiteId": 0,
      "historicSpillsList": [
        {
          "id": 343975789,
          "eventId": 670280,
          "siteUnitNumber": 12569,
          "bathingSite": "HYTHE",
          "eventStart": "2022-11-16T19:39:39",
          "eventStop": "2022-11-16T20:10:24",
          "duration": 30,
          "status": "Genuine",
          "associatedSiteId": 109896,
          "outfallName": "RANGE ROAD HYTHE K SHORT",
          "isImpacting": true,
          "overFlowSiteId": 116112,
          "historicSpillsList": []
        }
      ]
    },
    {
      "id": 343968234,
      "eventId": 672491,
      "siteUnitNumber": 12661,
      "bathingSite": "LANGSTONE HARBOUR",
      "eventStart": "2022-11-16T19:47:26",
      "eventStop": "2022-11-16T20:10:16",
      "duration": 22,
      "status": "Genuine",
      "associatedSiteId": 109765,
      "outfallName": "PRIORSDEAN CRESCENT HAVANT",
      "isImpacting": true,
      "overFlowSiteId": 0,
      "historicSpillsList": [
        {
          "id": 343968234,
          "eventId": 672491,
          "siteUnitNumber": 12661,
          "bathingSite": "LANGSTONE HARBOUR",
          "eventStart": "2022-11-16T19:47:26",
          "eventStop": "2022-11-16T20:10:16",
          "duration": 22,
          "status": "Genuine",
          "associatedSiteId": 109765,
          "outfallName": "PRIORSDEAN CRESCENT HAVANT",
          "isImpacting": true,
          "overFlowSiteId": 108475
        }
      ]
    },
    {
      "id": 343971009,
      "eventId": 669729,
      "siteUnitNumber": 12610,
      "bathingSite": "MILFORD-ON-SEA",
      "eventStart": "2022-11-16T18:57:00",
      "eventStop": "2022-11-16T20:08:00",
      "duration": 71,
      "status": "Genuine",
      "associatedSiteId": 109801,
      "outfallName": "BECTON LANE BARTON ON SEA",
      "isImpacting": false,
      "overFlowSiteId": 0,
      "historicSpillsList": []
    },
    {
      "id": 343963229,
      "eventId": 669870,
      "siteUnitNumber": 12615,
      "bathingSite": "COLWELL BAY",
      "eventStart": "2022-11-16T16:54:00",
      "eventStop": "2022-11-16T20:04:00",
      "duration": 190,
      "status": "Genuine",
      "associatedSiteId": 109663,
      "outfallName": "THE INSTITUTE YARMOUTH NO1",
      "isImpacting": false,
      "overFlowSiteId": 0,
      "historicSpillsList": []
    },
    {
      "id": 343985818,
      "eventId": 670142,
      "siteUnitNumber": 12592,
      "bathingSite": "MIDDLETON-ON-SEA",
      "eventStart": "2022-11-16T18:48:12",
      "eventStop": "2022-11-16T20:03:00",
      "duration": 74,
      "status": "Genuine",
      "associatedSiteId": 109967,
      "outfallName": "GLOUCESTER ROAD BOGNOR",
      "isImpacting": false,
      "overFlowSiteId": 0,
      "historicSpillsList": []
    },
    {
      "id": 343981685,
      "eventId": 670074,
      "siteUnitNumber": 12575,
      "bathingSite": "HASTINGS PELHAM BEACH",
      "eventStart": "2022-11-16T18:43:29",
      "eventStop": "2022-11-16T20:03:00",
      "duration": 79,
      "status": "Genuine",
      "associatedSiteId": 109950,
      "outfallName": "ST HELENS DOWN HASTINGS",
      "isImpacting": false,
      "overFlowSiteId": 0,
      "historicSpillsList": []
    },
    {
      "id": 343963048,
      "eventId": 676955,
      "siteUnitNumber": 12614,
      "bathingSite": "TOTLAND BAY",
      "eventStart": "2022-11-16T18:03:00",
      "eventStop": "2022-11-16T20:02:00",
      "duration": 119,
      "status": "Genuine",
      "associatedSiteId": 109657,
      "outfallName": "THE PROMENADE TOTLAND PIER NO2",
      "isImpacting": false,
      "overFlowSiteId": 0,
      "historicSpillsList": []
    },
    {
      "id": 343968127,
      "eventId": 670064,
      "siteUnitNumber": 12605,
      "bathingSite": "STOKES BAY",
      "eventStart": "2022-11-16T18:33:00",
      "eventStop": "2022-11-16T20:00:00",
      "duration": 87,
      "status": "Genuine",
      "associatedSiteId": 109733,
      "outfallName": "QUEENS ROAD LEE ON THE SOLENT",
      "isImpacting": true,
      "overFlowSiteId": 0,
      "historicSpillsList": [
        {
          "id": 343968128,
          "eventId": 670064,
          "siteUnitNumber": 12606,
          "bathingSite": "LEE-ON-SOLENT",
          "eventStart": "2022-11-16T18:33:00",
          "eventStop": "2022-11-16T20:00:00",
          "duration": 87,
          "status": "Genuine",
          "associatedSiteId": 109733,
          "outfallName": "QUEENS ROAD LEE ON THE SOLENT",
          "isImpacting": true,
          "overFlowSiteId": 110196,
          "historicSpillsList": []
        }
      ]
    },
    {
      "id": 343977454,
      "eventId": 670269,
      "siteUnitNumber": 12575,
      "bathingSite": "HASTINGS PELHAM BEACH",
      "eventStart": "2022-11-16T19:32:00",
      "eventStop": "2022-11-16T19:58:00",
      "duration": 26,
      "status": "Genuine",
      "associatedSiteId": 109899,
      "outfallName": "SEASIDE ROAD HASTINGS",
      "isImpacting": true,
      "overFlowSiteId": 0,
      "historicSpillsList": [
        {
          "id": 343977454,
          "eventId": 670269,
          "siteUnitNumber": 12575,
          "bathingSite": "HASTINGS PELHAM BEACH",
          "eventStart": "2022-11-16T19:32:00",
          "eventStop": "2022-11-16T19:58:00",
          "duration": 26,
          "status": "Genuine",
          "associatedSiteId": 109899,
          "outfallName": "SEASIDE ROAD HASTINGS",
          "isImpacting": true,
          "overFlowSiteId": 107639
        },
        {
          "id": 343977455,
          "eventId": 670269,
          "siteUnitNumber": 12576,
          "bathingSite": "ST LEONARDS",
          "eventStart": "2022-11-16T19:32:00",
          "eventStop": "2022-11-16T19:58:00",
          "duration": 26,
          "status": "Genuine",
          "associatedSiteId": 109899,
          "outfallName": "SEASIDE ROAD HASTINGS",
          "isImpacting": true,
          "overFlowSiteId": 107639,
          "historicSpillsList": []
        }
      ]
    },
    {
      "id": 343979947,
      "eventId": 670328,
      "siteUnitNumber": 12587,
      "bathingSite": "SOUTHWICK",
      "eventStart": "2022-11-16T19:40:00",
      "eventStop": "2022-11-16T19:50:00",
      "duration": 10,
      "status": "Genuine",
      "associatedSiteId": 109924,
      "outfallName": "UPPER SHOREHAM ROAD SHOREHAM",
      "isImpacting": true,
      "overFlowSiteId": 0,
      "historicSpillsList": [
        {
          "id": 343979947,
          "eventId": 670328,
          "siteUnitNumber": 12587,
          "bathingSite": "SOUTHWICK",
          "eventStart": "2022-11-16T19:40:00",
          "eventStop": "2022-11-16T19:50:00",
          "duration": 10,
          "status": "Genuine",
          "associatedSiteId": 109924,
          "outfallName": "UPPER SHOREHAM ROAD SHOREHAM",
          "isImpacting": true,
          "overFlowSiteId": 108819
        },
        {
          "id": 343979948,
          "eventId": 670328,
          "siteUnitNumber": 12588,
          "bathingSite": "SHOREHAM BEACH",
          "eventStart": "2022-11-16T19:40:00",
          "eventStop": "2022-11-16T19:50:00",
          "duration": 10,
          "status": "Genuine",
          "associatedSiteId": 109924,
          "outfallName": "UPPER SHOREHAM ROAD SHOREHAM",
          "isImpacting": true,
          "overFlowSiteId": 108819,
          "historicSpillsList": []
        }
      ]
    },
    {
      "id": 343968258,
      "eventId": 672490,
      "siteUnitNumber": 12661,
      "bathingSite": "LANGSTONE HARBOUR",
      "eventStart": "2022-11-16T19:46:00",
      "eventStop": "2022-11-16T19:48:00",
      "duration": 2,
      "status": "Genuine",
      "associatedSiteId": 109772,
      "outfallName": "BUDDS FARM HAVANT NO1",
      "isImpacting": true,
      "overFlowSiteId": 0,
      "historicSpillsList": [
        {
          "id": 343968258,
          "eventId": 672490,
          "siteUnitNumber": 12661,
          "bathingSite": "LANGSTONE HARBOUR",
          "eventStart": "2022-11-16T19:46:00",
          "eventStop": "2022-11-16T19:48:00",
          "duration": 2,
          "status": "Genuine",
          "associatedSiteId": 109772,
          "outfallName": "BUDDS FARM HAVANT NO1",
          "isImpacting": true,
          "overFlowSiteId": 110704
        }
      ]
    },
    {
      "id": 343970288,
      "eventId": 670039,
      "siteUnitNumber": 12618,
      "bathingSite": "RYDE",
      "eventStart": "2022-11-16T18:12:43",
      "eventStop": "2022-11-16T19:45:00",
      "duration": 92,
      "status": "Genuine",
      "associatedSiteId": 109782,
      "outfallName": "AUGUSTA ROAD RYDE",
      "isImpacting": true,
      "overFlowSiteId": 0,
      "historicSpillsList": [
        {
          "id": 343970288,
          "eventId": 670039,
          "siteUnitNumber": 12618,
          "bathingSite": "RYDE",
          "eventStart": "2022-11-16T18:12:43",
          "eventStop": "2022-11-16T19:45:00",
          "duration": 92,
          "status": "Genuine",
          "associatedSiteId": 109782,
          "outfallName": "AUGUSTA ROAD RYDE",
          "isImpacting": true,
          "overFlowSiteId": 102348
        }
      ]
    }
  ]
}