{
  "currentPage": 558,
  "totalItems": 18701,
  "totalPages": 749,
  "items": [
    {
      "id": 343974487,
      "eventId": 534349,
      "siteUnitNumber": 12544,
      "bathingSite": "SHEERNESS",
      "eventStart": "2021-12-25T00:06:31",
      "eventStop": "2021-12-25T01:02:00",
      "duration": 55,
      "status": "Genuine",
      "associatedSiteId": 109869,
      "outfallName": "GRAIN NO2",
      "isImpacting": true,
      "overFlowSiteId": 0,
      "historicSpillsList": [
        {
          "id": 343974487,
          "eventId": 534349,
          "siteUnitNumber": 12544,
          "bathingSite": "SHEERNESS",
          "eventStart": "2021-12-25T00:06:31",
          "eventStop": "2021-12-25T01:02:00",
          "duration": 55,
          "status": "Genuine",
          "associatedSiteId": 109869,
          "outfallName": "GRAIN NO2",
          "isImpacting": true,
          "overFlowSiteId": 115411
        }
      ]
    },
    {
      "id": 343960871,
      "eventId": 534362,
      "siteUnitNumber": 12544,
      "bathingSite": "SHEERNESS",
      "eventStart": "2021-12-24T23:42:23",
      "eventStop": "2021-12-25T00:45:00",
      "duration": 62,
      "status": "Genuine",
      "associatedSiteId": 109614,
      "outfallName": "BRIELLE WAY WESTMINSTER",
      "isImpacting": true,
      "overFlowSiteId": 0,
      "historicSpillsList": [
        {
          "id": 343960871,
          "eventId": 534362,
          "siteUnitNumber": 12544,
          "bathingSite": "SHEERNESS",
          "eventStart": "2021-12-24T23:42:23",
          "eventStop": "2021-12-25T00:45:00",
          "duration": 62,
          "status": "Genuine",
          "associatedSiteId": 109614,
          "outfallName": "BRIELLE WAY WESTMINSTER",
          "isImpacting": true,
          "overFlowSiteId": 108810
        }
      ]
    },
    {
      "id": 343990412,
      "eventId": 536505,
      "siteUnitNumber": 12624,
      "bathingSite": "SANDOWN",
      "eventStart": "2021-12-24T23:53:00",
      "eventStop": "2021-12-25T00:37:00",
      "duration": 44,
      "status": "Genuine",
      "associatedSiteId": 110096,
      "outfallName": "SANDOWN NO1",
      "isImpacting": true,
      "overFlowSiteId": 0,
      "historicSpillsList": [
        {
          "id": 343990412,
          "eventId": 536505,
          "siteUnitNumber": 12624,
          "bathingSite": "SANDOWN",
          "eventStart": "2021-12-24T23:53:00",
          "eventStop": "2021-12-25T00:37:00",
          "duration": 44,
          "status": "Genuine",
          "associatedSiteId": 110096,
          "outfallName": "SANDOWN NO1",
          "isImpacting": true,
          "overFlowSiteId": 115453
        },
        {
          "id": 343990418,
          "eventId": 536505,
          "siteUnitNumber": 12622,
          "bathingSite": "WHITECLIFF BAY",
          "eventStart": "2021-12-24T23:53:00",
          "eventStop": "2021-12-25T00:37:00",
          "duration": 44,
          "status": "Genuine",
          "associatedSiteId": 110096,
          "outfallName": "SANDOWN NO1",
          "isImpacting": true,
          "overFlowSiteId": 115453,
          "historicSpillsList": []
        },
        {
          "id": 343990419,
          "eventId": 536505,
          "siteUnitNumber": 12623,
          "bathingSite": "YAVERLAND",
          "eventStart": "2021-12-24T23:53:00",
          "eventStop": "2021-12-25T00:37:00",
          "duration": 44,
          "status": "Genuine",
          "associatedSiteId": 110096,
          "outfallName": "SANDOWN NO1",
          "isImpacting": true,
          "overFlowSiteId": 115453,
          "historicSpillsList": []
        }
      ]
    },
    {
      "id": 343960966,
      "eventId": 534381,
      "siteUnitNumber": 12544,
      "bathingSite": "SHEERNESS",
      "eventStart": "2021-12-25T00:25:00",
      "eventStop": "2021-12-25T00:33:00",
      "duration": 8,
      "status": "Genuine",
      "associatedSiteId": 109616,
      "outfallName": "SOUTH STREET QUEENBOROUGH",
      "isImpacting": true,
      "overFlowSiteId": 0,
      "historicSpillsList": [
        {
          "id": 343960966,
          "eventId": 534381,
          "siteUnitNumber": 12544,
          "bathingSite": "SHEERNESS",
          "eventStart": "2021-12-25T00:25:00",
          "eventStop": "2021-12-25T00:33:00",
          "duration": 8,
          "status": "Genuine",
          "associatedSiteId": 109616,
          "outfallName": "SOUTH STREET QUEENBOROUGH",
          "isImpacting": true,
          "overFlowSiteId": 108732
        }
      ]
    },
    {
      "id": 343960967,
      "eventId": 534344,
      "siteUnitNumber": 12544,
      "bathingSite": "SHEERNESS",
      "eventStart": "2021-12-24T23:54:58",
      "eventStop": "2021-12-25T00:07:27",
      "duration": 12,
      "status": "Genuine",
      "associatedSiteId": 109616,
      "outfallName": "SOUTH STREET QUEENBOROUGH",
      "isImpacting": true,
      "overFlowSiteId": 0,
      "historicSpillsList": [
        {
          "id": 343960967,
          "eventId": 534344,
          "siteUnitNumber": 12544,
          "bathingSite": "SHEERNESS",
          "eventStart": "2021-12-24T23:54:58",
          "eventStop": "2021-12-25T00:07:27",
          "duration": 12,
          "status": "Genuine",
          "associatedSiteId": 109616,
          "outfallName": "SOUTH STREET QUEENBOROUGH",
          "isImpacting": true,
          "overFlowSiteId": 108732
        }
      ]
    },
    {
      "id": 343985637,
      "eventId": 535653,
      "siteUnitNumber": 12591,
      "bathingSite": "LITTLEHAMPTON",
      "eventStart": "2021-12-24T22:10:00",
      "eventStop": "2021-12-25T00:07:00",
      "duration": 117,
      "status": "Genuine",
      "associatedSiteId": 109965,
      "outfallName": "SEA ROAD LITTLEHAMPTON",
      "isImpacting": true,
      "overFlowSiteId": 0,
      "historicSpillsList": [
        {
          "id": 343985637,
          "eventId": 535653,
          "siteUnitNumber": 12591,
          "bathingSite": "LITTLEHAMPTON",
          "eventStart": "2021-12-24T22:10:00",
          "eventStop": "2021-12-25T00:07:00",
          "duration": 117,
          "status": "Genuine",
          "associatedSiteId": 109965,
          "outfallName": "SEA ROAD LITTLEHAMPTON",
          "isImpacting": true,
          "overFlowSiteId": 109368
        }
      ]
    },
    {
      "id": 343960968,
      "eventId": 534043,
      "siteUnitNumber": 12544,
      "bathingSite": "SHEERNESS",
      "eventStart": "2021-12-24T20:00:00",
      "eventStop": "2021-12-24T23:45:00",
      "duration": 225,
      "status": "Genuine",
      "associatedSiteId": 109616,
      "outfallName": "SOUTH STREET QUEENBOROUGH",
      "isImpacting": true,
      "overFlowSiteId": 0,
      "historicSpillsList": [
        {
          "id": 343960968,
          "eventId": 534043,
          "siteUnitNumber": 12544,
          "bathingSite": "SHEERNESS",
          "eventStart": "2021-12-24T20:00:00",
          "eventStop": "2021-12-24T23:45:00",
          "duration": 225,
          "status": "Genuine",
          "associatedSiteId": 109616,
          "outfallName": "SOUTH STREET QUEENBOROUGH",
          "isImpacting": true,
          "overFlowSiteId": 108732
        }
      ]
    },
    {
      "id": 343990423,
      "eventId": 536504,
      "siteUnitNumber": 12622,
      "bathingSite": "WHITECLIFF BAY",
      "eventStart": "2021-12-24T22:18:00",
      "eventStop": "2021-12-24T23:36:00",
      "duration": 78,
      "status": "Genuine",
      "associatedSiteId": 110096,
      "outfallName": "SANDOWN NO1",
      "isImpacting": true,
      "overFlowSiteId": 0,
      "historicSpillsList": [
        {
          "id": 343990423,
          "eventId": 536504,
          "siteUnitNumber": 12622,
          "bathingSite": "WHITECLIFF BAY",
          "eventStart": "2021-12-24T22:18:00",
          "eventStop": "2021-12-24T23:36:00",
          "duration": 78,
          "status": "Genuine",
          "associatedSiteId": 110096,
          "outfallName": "SANDOWN NO1",
          "isImpacting": true,
          "overFlowSiteId": 115453
        },
        {
          "id": 343990416,
          "eventId": 536504,
          "siteUnitNumber": 12623,
          "bathingSite": "YAVERLAND",
          "eventStart": "2021-12-24T22:18:00",
          "eventStop": "2021-12-24T23:36:00",
          "duration": 78,
          "status": "Genuine",
          "associatedSiteId": 110096,
          "outfallName": "SANDOWN NO1",
          "isImpacting": true,
          "overFlowSiteId": 115453,
          "historicSpillsList": []
        },
        {
          "id": 343990417,
          "eventId": 536504,
          "siteUnitNumber": 12624,
          "bathingSite": "SANDOWN",
          "eventStart": "2021-12-24T22:18:00",
          "eventStop": "2021-12-24T23:36:00",
          "duration": 78,
          "status": "Genuine",
          "associatedSiteId": 110096,
          "outfallName": "SANDOWN NO1",
          "isImpacting": true,
          "overFlowSiteId": 115453,
          "historicSpillsList": []
        }
      ]
    },
    {
      "id": 343997284,
      "eventId": 533990,
      "siteUnitNumber": 12582,
      "bathingSite": "SEAFORD",
      "eventStart": "2021-12-24T18:22:46",
      "eventStop": "2021-12-24T23:32:03",
      "duration": 309,
      "status": "Genuine",
      "associatedSiteId": 110920,
      "outfallName": "NEWHAVEN",
      "isImpacting": true,
      "overFlowSiteId": 0,
      "historicSpillsList": [
        {
          "id": 343997284,
          "eventId": 533990,
          "siteUnitNumber": 12582,
          "bathingSite": "SEAFORD",
          "eventStart": "2021-12-24T18:22:46",
          "eventStop": "2021-12-24T23:32:03",
          "duration": 309,
          "status": "Genuine",
          "associatedSiteId": 110920,
          "outfallName": "NEWHAVEN",
          "isImpacting": true,
          "overFlowSiteId": 116065
        }
      ]
    },
    {
      "id": 343960872,
      "eventId": 534319,
      "siteUnitNumber": 12544,
      "bathingSite": "SHEERNESS",
      "eventStart": "2021-12-24T22:45:00",
      "eventStop": "2021-12-24T23:30:00",
      "duration": 45,
      "status": "Genuine",
      "associatedSiteId": 109614,
      "outfallName": "BRIELLE WAY WESTMINSTER",
      "isImpacting": true,
      "overFlowSiteId": 0,
      "historicSpillsList": [
        {
          "id": 343960872,
          "eventId": 534319,
          "siteUnitNumber": 12544,
          "bathingSite": "SHEERNESS",
          "eventStart": "2021-12-24T22:45:00",
          "eventStop": "2021-12-24T23:30:00",
          "duration": 45,
          "status": "Genuine",
          "associatedSiteId": 109614,
          "outfallName": "BRIELLE WAY WESTMINSTER",
          "isImpacting": true,
          "overFlowSiteId": 108810
        }
      ]
    },
    {
      "id": 343974488,
      "eventId": 534227,
      "siteUnitNumber": 12544,
      "bathingSite": "SHEERNESS",
      "eventStart": "2021-12-24T22:32:00",
      "eventStop": "2021-12-24T23:06:00",
      "duration": 34,
      "status": "Genuine",
      "associatedSiteId": 109869,
      "outfallName": "GRAIN NO2",
      "isImpacting": true,
      "overFlowSiteId": 0,
      "historicSpillsList": [
        {
          "id": 343974488,
          "eventId": 534227,
          "siteUnitNumber": 12544,
          "bathingSite": "SHEERNESS",
          "eventStart": "2021-12-24T22:32:00",
          "eventStop": "2021-12-24T23:06:00",
          "duration": 34,
          "status": "Genuine",
          "associatedSiteId": 109869,
          "outfallName": "GRAIN NO2",
          "isImpacting": true,
          "overFlowSiteId": 115411
        }
      ]
    },
    {
      "id": 343960873,
      "eventId": 534149,
      "siteUnitNumber": 12544,
      "bathingSite": "SHEERNESS",
      "eventStart": "2021-12-24T21:11:00",
      "eventStop": "2021-12-24T22:27:00",
      "duration": 76,
      "status": "Genuine",
      "associatedSiteId": 109614,
      "outfallName": "BRIELLE WAY WESTMINSTER",
      "isImpacting": true,
      "overFlowSiteId": 0,
      "historicSpillsList": [
        {
          "id": 343960873,
          "eventId": 534149,
          "siteUnitNumber": 12544,
          "bathingSite": "SHEERNESS",
          "eventStart": "2021-12-24T21:11:00",
          "eventStop": "2021-12-24T22:27:00",
          "duration": 76,
          "status": "Genuine",
          "associatedSiteId": 109614,
          "outfallName": "BRIELLE WAY WESTMINSTER",
          "isImpacting": true,
          "overFlowSiteId": 108810
        }
      ]
    },
    {
      "id": 344000914,
      "eventId": 534124,
      "siteUnitNumber": 12614,
      "bathingSite": "TOTLAND BAY",
      "eventStart": "2021-12-24T21:04:30",
      "eventStop": "2021-12-24T21:43:00",
      "duration": 38,
      "status": "Genuine",
      "associatedSiteId": 115498,
      "outfallName": "NORTON TRANSFER IOW",
      "isImpacting": true,
      "overFlowSiteId": 0,
      "historicSpillsList": [
        {
          "id": 344000914,
          "eventId": 534124,
          "siteUnitNumber": 12614,
          "bathingSite": "TOTLAND BAY",
          "eventStart": "2021-12-24T21:04:30",
          "eventStop": "2021-12-24T21:43:00",
          "duration": 38,
          "status": "Genuine",
          "associatedSiteId": 115498,
          "outfallName": "NORTON TRANSFER IOW",
          "isImpacting": true,
          "overFlowSiteId": 109524
        },
        {
          "id": 344000915,
          "eventId": 534124,
          "siteUnitNumber": 12615,
          "bathingSite": "COLWELL BAY",
          "eventStart": "2021-12-24T21:04:30",
          "eventStop": "2021-12-24T21:43:00",
          "duration": 38,
          "status": "Genuine",
          "associatedSiteId": 115498,
          "outfallName": "NORTON TRANSFER IOW",
          "isImpacting": true,
          "overFlowSiteId": 109524,
          "historicSpillsList": []
        }
      ]
    },
    {
      "id": 343986652,
      "eventId": 534000,
      "siteUnitNumber": 12591,
      "bathingSite": "LITTLEHAMPTON",
      "eventStart": "2021-12-24T19:02:00",
      "eventStop": "2021-12-24T21:40:00",
      "duration": 158,
      "status": "Genuine",
      "associatedSiteId": 109977,
      "outfallName": "FORESHORE TANK LITTLEHAMPTON",
      "isImpacting": true,
      "overFlowSiteId": 0,
      "historicSpillsList": [
        {
          "id": 343986652,
          "eventId": 534000,
          "siteUnitNumber": 12591,
          "bathingSite": "LITTLEHAMPTON",
          "eventStart": "2021-12-24T19:02:00",
          "eventStop": "2021-12-24T21:40:00",
          "duration": 158,
          "status": "Genuine",
          "associatedSiteId": 109977,
          "outfallName": "FORESHORE TANK LITTLEHAMPTON",
          "isImpacting": true,
          "overFlowSiteId": 109390
        }
      ]
    },
    {
      "id": 344000882,
      "eventId": 538839,
      "siteUnitNumber": 12614,
      "bathingSite": "TOTLAND BAY",
      "eventStart": "2021-12-24T21:03:00",
      "eventStop": "2021-12-24T21:39:00",
      "duration": 36,
      "status": "Genuine",
      "associatedSiteId": 115498,
      "outfallName": "NORTON TRANSFER IOW",
      "isImpacting": true,
      "overFlowSiteId": 0,
      "historicSpillsList": [
        {
          "id": 344000882,
          "eventId": 538839,
          "siteUnitNumber": 12614,
          "bathingSite": "TOTLAND BAY",
          "eventStart": "2021-12-24T21:03:00",
          "eventStop": "2021-12-24T21:39:00",
          "duration": 36,
          "status": "Genuine",
          "associatedSiteId": 115498,
          "outfallName": "NORTON TRANSFER IOW",
          "isImpacting": true,
          "overFlowSiteId": 108544
        },
        {
          "id": 344000883,
          "eventId": 538839,
          "siteUnitNumber": 12615,
          "bathingSite": "COLWELL BAY",
          "eventStart": "2021-12-24T21:03:00",
          "eventStop": "2021-12-24T21:39:00",
          "duration": 36,
          "status": "Genuine",
          "associatedSiteId": 115498,
          "outfallName": "NORTON TRANSFER IOW",
          "isImpacting": true,
          "overFlowSiteId": 108544,
          "historicSpillsList": []
        }
      ]
    },
    {
      "id": 343980415,
      "eventId": 534027,
      "siteUnitNumber": 12587,
      "bathingSite": "SOUTHWICK",
      "eventStart": "2021-12-24T19:15:00",
      "eventStop": "2021-12-24T21:30:00",
      "duration": 135,
      "status": "Genuine",
      "associatedSiteId": 109929,
      "outfallName": "SHOREHAM NO1",
      "isImpacting": true,
      "overFlowSiteId": 0,
      "historicSpillsList": [
        {
          "id": 343980415,
          "eventId": 534027,
          "siteUnitNumber": 12587,
          "bathingSite": "SOUTHWICK",
          "eventStart": "2021-12-24T19:15:00",
          "eventStop": "2021-12-24T21:30:00",
          "duration": 135,
          "status": "Genuine",
          "associatedSiteId": 109929,
          "outfallName": "SHOREHAM NO1",
          "isImpacting": true,
          "overFlowSiteId": 115434
        },
        {
          "id": 343980416,
          "eventId": 534027,
          "siteUnitNumber": 12588,
          "bathingSite": "SHOREHAM BEACH",
          "eventStart": "2021-12-24T19:15:00",
          "eventStop": "2021-12-24T21:30:00",
          "duration": 135,
          "status": "Genuine",
          "associatedSiteId": 109929,
          "outfallName": "SHOREHAM NO1",
          "isImpacting": true,
          "overFlowSiteId": 115434,
          "historicSpillsList": []
        },
        {
          "id": 343980423,
          "eventId": 534027,
          "siteUnitNumber": 12586,
          "bathingSite": "HOVE",
          "eventStart": "2021-12-24T19:15:00",
          "eventStop": "2021-12-24T21:30:00",
          "duration": 135,
          "status": "Genuine",
          "associatedSiteId": 109929,
          "outfallName": "SHOREHAM NO1",
          "isImpacting": true,
          "overFlowSiteId": 115434,
          "historicSpillsList": []
        }
      ]
    },
    {
      "id": 344002797,
      "eventId": 534512,
      "siteUnitNumber": 12577,
      "bathingSite": "BEXHILL",
      "eventStart": "2021-12-24T19:32:41",
      "eventStop": "2021-12-24T21:24:00",
      "duration": 111,
      "status": "Genuine",
      "associatedSiteId": 115504,
      "outfallName": "HARTFIELD ROAD BEXHILL",
      "isImpacting": true,
      "overFlowSiteId": 0,
      "historicSpillsList": [
        {
          "id": 344002797,
          "eventId": 534512,
          "siteUnitNumber": 12577,
          "bathingSite": "BEXHILL",
          "eventStart": "2021-12-24T19:32:41",
          "eventStop": "2021-12-24T21:24:00",
          "duration": 111,
          "status": "Genuine",
          "associatedSiteId": 115504,
          "outfallName": "HARTFIELD ROAD BEXHILL",
          "isImpacting": true,
          "overFlowSiteId": 107691
        },
        {
          "id": 344002798,
          "eventId": 534512,
          "siteUnitNumber": 12578,
          "bathingSite": "NORMANS BAY",
          "eventStart": "2021-12-24T19:32:41",
          "eventStop": "2021-12-24T21:24:00",
          "duration": 111,
          "status": "Genuine",
          "associatedSiteId": 115504,
          "outfallName": "HARTFIELD ROAD BEXHILL",
          "isImpacting": true,
          "overFlowSiteId": 107691,
          "historicSpillsList": []
        }
      ]
    },
    {
      "id": 343982562,
      "eventId": 533987,
      "siteUnitNumber": 12582,
      "bathingSite": "SEAFORD",
      "eventStart": "2021-12-24T19:18:00",
      "eventStop": "2021-12-24T21:03:00",
      "duration": 105,
      "status": "Genuine",
      "associatedSiteId": 109957,
      "outfallName": "PORTOBELLO BRIGHTON NO2",
      "isImpacting": true,
      "overFlowSiteId": 0,
      "historicSpillsList": [
        {
          "id": 343982562,
          "eventId": 533987,
          "siteUnitNumber": 12582,
          "bathingSite": "SEAFORD",
          "eventStart": "2021-12-24T19:18:00",
          "eventStop": "2021-12-24T21:03:00",
          "duration": 105,
          "status": "Genuine",
          "associatedSiteId": 109957,
          "outfallName": "PORTOBELLO BRIGHTON NO2",
          "isImpacting": true,
          "overFlowSiteId": 116036
        },
        {
          "id": 343982563,
          "eventId": 533987,
          "siteUnitNumber": 12583,
          "bathingSite": "SALTDEAN",
          "eventStart": "2021-12-24T19:18:00",
          "eventStop": "2021-12-24T21:03:00",
          "duration": 105,
          "status": "Genuine",
          "associatedSiteId": 109957,
          "outfallName": "PORTOBELLO BRIGHTON NO2",
          "isImpacting": true,
          "overFlowSiteId": 116036,
          "historicSpillsList": []
        }
      ]
    },
    {
      "id": 343990439,
      "eventId": 534756,
      "siteUnitNumber": 12624,
      "bathingSite": "SANDOWN",
      "eventStart": "2021-12-24T18:26:00",
      "eventStop": "2021-12-24T20:59:00",
      "duration": 153,
      "status": "Genuine",
      "associatedSiteId": 110096,
      "outfallName": "SANDOWN NO1",
      "isImpacting": true,
      "overFlowSiteId": 0,
      "historicSpillsList": [
        {
          "id": 343990439,
          "eventId": 534756,
          "siteUnitNumber": 12624,
          "bathingSite": "SANDOWN",
          "eventStart": "2021-12-24T18:26:00",
          "eventStop": "2021-12-24T20:59:00",
          "duration": 153,
          "status": "Genuine",
          "associatedSiteId": 110096,
          "outfallName": "SANDOWN NO1",
          "isImpacting": true,
          "overFlowSiteId": 115453
        },
        {
          "id": 343990445,
          "eventId": 534756,
          "siteUnitNumber": 12622,
          "bathingSite": "WHITECLIFF BAY",
          "eventStart": "2021-12-24T18:26:00",
          "eventStop": "2021-12-24T20:59:00",
          "duration": 153,
          "status": "Genuine",
          "associatedSiteId": 110096,
          "outfallName": "SANDOWN NO1",
          "isImpacting": true,
          "overFlowSiteId": 115453,
          "historicSpillsList": []
        },
        {
          "id": 343990446,
          "eventId": 534756,
          "siteUnitNumber": 12623,
          "bathingSite": "YAVERLAND",
          "eventStart": "2021-12-24T18:26:00",
          "eventStop": "2021-12-24T20:59:00",
          "duration": 153,
          "status": "Genuine",
          "associatedSiteId": 110096,
          "outfallName": "SANDOWN NO1",
          "isImpacting": true,
          "overFlowSiteId": 115453,
          "historicSpillsList": []
        }
      ]
    },
    {
      "id": 343980835,
      "eventId": 534176,
      "siteUnitNumber": 12581,
      "bathingSite": "BIRLING GAP",
      "eventStart": "2021-12-24T20:13:00",
      "eventStop": "2021-12-24T20:50:00",
      "duration": 37,
      "status": "Genuine",
      "associatedSiteId": 109936,
      "outfallName": "EAST DEAN",
      "isImpacting": true,
      "overFlowSiteId": 0,
      "historicSpillsList": [
        {
          "id": 343980835,
          "eventId": 534176,
          "siteUnitNumber": 12581,
          "bathingSite": "BIRLING GAP",
          "eventStart": "2021-12-24T20:13:00",
          "eventStop": "2021-12-24T20:50:00",
          "duration": 37,
          "status": "Genuine",
          "associatedSiteId": 109936,
          "outfallName": "EAST DEAN",
          "isImpacting": true,
          "overFlowSiteId": 115829
        }
      ]
    },
    {
      "id": 343985640,
      "eventId": 533967,
      "siteUnitNumber": 12591,
      "bathingSite": "LITTLEHAMPTON",
      "eventStart": "2021-12-24T19:14:00",
      "eventStop": "2021-12-24T20:22:00",
      "duration": 68,
      "status": "Genuine",
      "associatedSiteId": 109965,
      "outfallName": "SEA ROAD LITTLEHAMPTON",
      "isImpacting": true,
      "overFlowSiteId": 0,
      "historicSpillsList": [
        {
          "id": 343985640,
          "eventId": 533967,
          "siteUnitNumber": 12591,
          "bathingSite": "LITTLEHAMPTON",
          "eventStart": "2021-12-24T19:14:00",
          "eventStop": "2021-12-24T20:22:00",
          "duration": 68,
          "status": "Genuine",
          "associatedSiteId": 109965,
          "outfallName": "SEA ROAD LITTLEHAMPTON",
          "isImpacting": true,
          "overFlowSiteId": 109368
        }
      ]
    },
    {
      "id": 343984859,
      "eventId": 533969,
      "siteUnitNumber": 12594,
      "bathingSite": "BOGNOR REGIS EAST",
      "eventStart": "2021-12-24T17:54:00",
      "eventStop": "2021-12-24T20:15:00",
      "duration": 141,
      "status": "Genuine",
      "associatedSiteId": 109959,
      "outfallName": "WEST PARK BOGNOR REGIS",
      "isImpacting": true,
      "overFlowSiteId": 0,
      "historicSpillsList": [
        {
          "id": 343984859,
          "eventId": 533969,
          "siteUnitNumber": 12594,
          "bathingSite": "BOGNOR REGIS EAST",
          "eventStart": "2021-12-24T17:54:00",
          "eventStop": "2021-12-24T20:15:00",
          "duration": 141,
          "status": "Genuine",
          "associatedSiteId": 109959,
          "outfallName": "WEST PARK BOGNOR REGIS",
          "isImpacting": true,
          "overFlowSiteId": 108160
        },
        {
          "id": 343984860,
          "eventId": 533969,
          "siteUnitNumber": 12595,
          "bathingSite": "BOGNOR REGIS (ALDWICK)",
          "eventStart": "2021-12-24T17:54:00",
          "eventStop": "2021-12-24T20:15:00",
          "duration": 141,
          "status": "Genuine",
          "associatedSiteId": 109959,
          "outfallName": "WEST PARK BOGNOR REGIS",
          "isImpacting": true,
          "overFlowSiteId": 108160,
          "historicSpillsList": []
        },
        {
          "id": 343984861,
          "eventId": 533969,
          "siteUnitNumber": 12596,
          "bathingSite": "PAGHAM",
          "eventStart": "2021-12-24T17:54:00",
          "eventStop": "2021-12-24T20:15:00",
          "duration": 141,
          "status": "Genuine",
          "associatedSiteId": 109959,
          "outfallName": "WEST PARK BOGNOR REGIS",
          "isImpacting": true,
          "overFlowSiteId": 108160,
          "historicSpillsList": []
        }
      ]
    },
    {
      "id": 343986118,
      "eventId": 533972,
      "siteUnitNumber": 12591,
      "bathingSite": "LITTLEHAMPTON",
      "eventStart": "2021-12-24T17:42:00",
      "eventStop": "2021-12-24T19:56:00",
      "duration": 134,
      "status": "Genuine",
      "associatedSiteId": 109968,
      "outfallName": "FORD ROAD ARUNDEL",
      "isImpacting": true,
      "overFlowSiteId": 0,
      "historicSpillsList": [
        {
          "id": 343986118,
          "eventId": 533972,
          "siteUnitNumber": 12591,
          "bathingSite": "LITTLEHAMPTON",
          "eventStart": "2021-12-24T17:42:00",
          "eventStop": "2021-12-24T19:56:00",
          "duration": 134,
          "status": "Genuine",
          "associatedSiteId": 109968,
          "outfallName": "FORD ROAD ARUNDEL",
          "isImpacting": true,
          "overFlowSiteId": 108002
        }
      ]
    },
    {
      "id": 343969474,
      "eventId": 527265,
      "siteUnitNumber": 12617,
      "bathingSite": "COWES",
      "eventStart": "2021-12-24T17:54:00",
      "eventStop": "2021-12-24T18:58:00",
      "duration": 64,
      "status": "Genuine",
      "associatedSiteId": 109777,
      "outfallName": "APPLEY PARK RYDE TRANSFER",
      "isImpacting": true,
      "overFlowSiteId": 0,
      "historicSpillsList": [
        {
          "id": 343969474,
          "eventId": 527265,
          "siteUnitNumber": 12617,
          "bathingSite": "COWES",
          "eventStart": "2021-12-24T17:54:00",
          "eventStop": "2021-12-24T18:58:00",
          "duration": 64,
          "status": "Genuine",
          "associatedSiteId": 109777,
          "outfallName": "APPLEY PARK RYDE TRANSFER",
          "isImpacting": true,
          "overFlowSiteId": 108941
        },
        {
          "id": 343969475,
          "eventId": 527265,
          "siteUnitNumber": 12618,
          "bathingSite": "RYDE",
          "eventStart": "2021-12-24T17:54:00",
          "eventStop": "2021-12-24T18:58:00",
          "duration": 64,
          "status": "Genuine",
          "associatedSiteId": 109777,
          "outfallName": "APPLEY PARK RYDE TRANSFER",
          "isImpacting": true,
          "overFlowSiteId": 108941,
          "historicSpillsList": []
        }
      ]
    },
    {
      "id": 344000916,
      "eventId": 533926,
      "siteUnitNumber": 12615,
      "bathingSite": "COLWELL BAY",
      "eventStart": "2021-12-24T16:52:00",
      "eventStop": "2021-12-24T18:31:00",
      "duration": 99,
      "status": "Genuine",
      "associatedSiteId": 115498,
      "outfallName": "NORTON TRANSFER IOW",
      "isImpacting": true,
      "overFlowSiteId": 0,
      "historicSpillsList": [
        {
          "id": 344000916,
          "eventId": 533926,
          "siteUnitNumber": 12615,
          "bathingSite": "COLWELL BAY",
          "eventStart": "2021-12-24T16:52:00",
          "eventStop": "2021-12-24T18:31:00",
          "duration": 99,
          "status": "Genuine",
          "associatedSiteId": 115498,
          "outfallName": "NORTON TRANSFER IOW",
          "isImpacting": true,
          "overFlowSiteId": 109524
        },
        {
          "id": 344000917,
          "eventId": 533926,
          "siteUnitNumber": 12614,
          "bathingSite": "TOTLAND BAY",
          "eventStart": "2021-12-24T16:52:00",
          "eventStop": "2021-12-24T18:31:00",
          "duration": 99,
          "status": "Genuine",
          "associatedSiteId": 115498,
          "outfallName": "NORTON TRANSFER IOW",
          "isImpacting": true,
          "overFlowSiteId": 109524,
          "historicSpillsList": []
        }
      ]
    }
  ]
}