{
  "currentPage": 500,
  "totalItems": 21025,
  "totalPages": 841,
  "items": [
    {
      "id": 344826280,
      "eventId": 665658,
      "siteUnitNumber": 12544,
      "bathingSite": "SHEERNESS",
      "eventStart": "2022-11-12T03:36:51",
      "eventStop": "2022-11-12T10:56:45",
      "duration": 439,
      "status": "Genuine",
      "associatedSiteId": 109869,
      "outfallName": "GRAIN NO2",
      "isImpacting": true,
      "overFlowSiteId": 0,
      "historicSpillsList": [
        {
          "id": 344826280,
          "eventId": 665658,
          "siteUnitNumber": 12544,
          "bathingSite": "SHEERNESS",
          "eventStart": "2022-11-12T03:36:51",
          "eventStop": "2022-11-12T10:56:45",
          "duration": 439,
          "status": "Genuine",
          "associatedSiteId": 109869,
          "outfallName": "GRAIN NO2",
          "isImpacting": true,
          "overFlowSiteId": 115411
        }
      ]
    },
    {
      "id": 344836401,
      "eventId": 665522,
      "siteUnitNumber": 12594,
      "bathingSite": "BOGNOR REGIS EAST",
      "eventStart": "2022-11-11T20:15:00",
      "eventStop": "2022-11-12T02:30:00",
      "duration": 375,
      "status": "Not Genuine",
      "associatedSiteId": 109959,
      "outfallName": "WEST PARK BOGNOR REGIS",
      "isImpacting": true,
      "overFlowSiteId": 0,
      "historicSpillsList": []
    },
    {
      "id": 344837370,
      "eventId": 665531,
      "siteUnitNumber": 12591,
      "bathingSite": "LITTLEHAMPTON",
      "eventStart": "2022-11-11T21:22:07",
      "eventStop": "2022-11-11T22:30:00",
      "duration": 67,
      "status": "Not Genuine",
      "associatedSiteId": 109965,
      "outfallName": "SEA ROAD LITTLEHAMPTON",
      "isImpacting": false,
      "overFlowSiteId": 0,
      "historicSpillsList": []
    },
    {
      "id": 344826177,
      "eventId": 652755,
      "siteUnitNumber": 12662,
      "bathingSite": "CHICHESTER HARBOUR",
      "eventStart": "2022-11-02T23:31:25",
      "eventStop": "2022-11-11T22:05:38",
      "duration": 12874,
      "status": "Not Genuine",
      "associatedSiteId": 109850,
      "outfallName": "THORNHAM",
      "isImpacting": true,
      "overFlowSiteId": 0,
      "historicSpillsList": []
    },
    {
      "id": 344837377,
      "eventId": 664928,
      "siteUnitNumber": 12591,
      "bathingSite": "LITTLEHAMPTON",
      "eventStart": "2022-11-11T07:31:48",
      "eventStop": "2022-11-11T21:16:02",
      "duration": 824,
      "status": "Not Genuine",
      "associatedSiteId": 109965,
      "outfallName": "SEA ROAD LITTLEHAMPTON",
      "isImpacting": true,
      "overFlowSiteId": 0,
      "historicSpillsList": []
    },
    {
      "id": 344831282,
      "eventId": 665388,
      "siteUnitNumber": 12596,
      "bathingSite": "PAGHAM",
      "eventStart": "2022-11-11T19:08:00",
      "eventStop": "2022-11-11T20:55:00",
      "duration": 107,
      "status": "Genuine",
      "associatedSiteId": 109911,
      "outfallName": "SUMMER LANE PAGHAM",
      "isImpacting": true,
      "overFlowSiteId": 0,
      "historicSpillsList": [
        {
          "id": 344831282,
          "eventId": 665388,
          "siteUnitNumber": 12596,
          "bathingSite": "PAGHAM",
          "eventStart": "2022-11-11T19:08:00",
          "eventStop": "2022-11-11T20:55:00",
          "duration": 107,
          "status": "Genuine",
          "associatedSiteId": 109911,
          "outfallName": "SUMMER LANE PAGHAM",
          "isImpacting": true,
          "overFlowSiteId": 115443
        }
      ]
    },
    {
      "id": 344820944,
      "eventId": 665756,
      "siteUnitNumber": 12617,
      "bathingSite": "COWES",
      "eventStart": "2022-11-11T19:40:00",
      "eventStop": "2022-11-11T19:55:00",
      "duration": 15,
      "status": "Genuine",
      "associatedSiteId": 109777,
      "outfallName": "APPLEY PARK RYDE TRANSFER",
      "isImpacting": false,
      "overFlowSiteId": 0,
      "historicSpillsList": []
    },
    {
      "id": 344836399,
      "eventId": 665381,
      "siteUnitNumber": 12595,
      "bathingSite": "BOGNOR REGIS (ALDWICK)",
      "eventStart": "2022-11-11T18:30:00",
      "eventStop": "2022-11-11T19:45:00",
      "duration": 75,
      "status": "Not Genuine",
      "associatedSiteId": 109959,
      "outfallName": "WEST PARK BOGNOR REGIS",
      "isImpacting": false,
      "overFlowSiteId": 0,
      "historicSpillsList": []
    },
    {
      "id": 344836404,
      "eventId": 665331,
      "siteUnitNumber": 12594,
      "bathingSite": "BOGNOR REGIS EAST",
      "eventStart": "2022-11-11T16:45:00",
      "eventStop": "2022-11-11T18:15:00",
      "duration": 90,
      "status": "Not Genuine",
      "associatedSiteId": 109959,
      "outfallName": "WEST PARK BOGNOR REGIS",
      "isImpacting": false,
      "overFlowSiteId": 0,
      "historicSpillsList": []
    },
    {
      "id": 344820948,
      "eventId": 665335,
      "siteUnitNumber": 12618,
      "bathingSite": "RYDE",
      "eventStart": "2022-11-11T17:44:00",
      "eventStop": "2022-11-11T17:59:00",
      "duration": 15,
      "status": "Genuine",
      "associatedSiteId": 109777,
      "outfallName": "APPLEY PARK RYDE TRANSFER",
      "isImpacting": false,
      "overFlowSiteId": 0,
      "historicSpillsList": []
    },
    {
      "id": 344836408,
      "eventId": 665226,
      "siteUnitNumber": 12594,
      "bathingSite": "BOGNOR REGIS EAST",
      "eventStart": "2022-11-11T13:30:00",
      "eventStop": "2022-11-11T16:30:00",
      "duration": 180,
      "status": "Not Genuine",
      "associatedSiteId": 109959,
      "outfallName": "WEST PARK BOGNOR REGIS",
      "isImpacting": false,
      "overFlowSiteId": 0,
      "historicSpillsList": []
    },
    {
      "id": 344820946,
      "eventId": 665755,
      "siteUnitNumber": 12617,
      "bathingSite": "COWES",
      "eventStart": "2022-11-11T14:43:00",
      "eventStop": "2022-11-11T14:58:00",
      "duration": 15,
      "status": "Genuine",
      "associatedSiteId": 109777,
      "outfallName": "APPLEY PARK RYDE TRANSFER",
      "isImpacting": false,
      "overFlowSiteId": 0,
      "historicSpillsList": []
    },
    {
      "id": 344820950,
      "eventId": 665179,
      "siteUnitNumber": 12617,
      "bathingSite": "COWES",
      "eventStart": "2022-11-11T12:47:00",
      "eventStop": "2022-11-11T13:02:00",
      "duration": 15,
      "status": "Genuine",
      "associatedSiteId": 109777,
      "outfallName": "APPLEY PARK RYDE TRANSFER",
      "isImpacting": false,
      "overFlowSiteId": 0,
      "historicSpillsList": []
    },
    {
      "id": 344831279,
      "eventId": 665813,
      "siteUnitNumber": 12596,
      "bathingSite": "PAGHAM",
      "eventStart": "2022-11-11T11:46:00",
      "eventStop": "2022-11-11T12:45:00",
      "duration": 59,
      "status": "Genuine",
      "associatedSiteId": 109911,
      "outfallName": "SUMMER LANE PAGHAM",
      "isImpacting": true,
      "overFlowSiteId": 0,
      "historicSpillsList": [
        {
          "id": 344831279,
          "eventId": 665813,
          "siteUnitNumber": 12596,
          "bathingSite": "PAGHAM",
          "eventStart": "2022-11-11T11:46:00",
          "eventStop": "2022-11-11T12:45:00",
          "duration": 59,
          "status": "Genuine",
          "associatedSiteId": 109911,
          "outfallName": "SUMMER LANE PAGHAM",
          "isImpacting": true,
          "overFlowSiteId": 115443
        }
      ]
    },
    {
      "id": 344831281,
      "eventId": 665040,
      "siteUnitNumber": 12596,
      "bathingSite": "PAGHAM",
      "eventStart": "2022-11-11T09:19:00",
      "eventStop": "2022-11-11T11:08:00",
      "duration": 109,
      "status": "Genuine",
      "associatedSiteId": 109911,
      "outfallName": "SUMMER LANE PAGHAM",
      "isImpacting": true,
      "overFlowSiteId": 0,
      "historicSpillsList": [
        {
          "id": 344831281,
          "eventId": 665040,
          "siteUnitNumber": 12596,
          "bathingSite": "PAGHAM",
          "eventStart": "2022-11-11T09:19:00",
          "eventStop": "2022-11-11T11:08:00",
          "duration": 109,
          "status": "Genuine",
          "associatedSiteId": 109911,
          "outfallName": "SUMMER LANE PAGHAM",
          "isImpacting": true,
          "overFlowSiteId": 115443
        }
      ]
    },
    {
      "id": 344836411,
      "eventId": 664342,
      "siteUnitNumber": 12594,
      "bathingSite": "BOGNOR REGIS EAST",
      "eventStart": "2022-11-10T14:30:00",
      "eventStop": "2022-11-11T04:15:00",
      "duration": 825,
      "status": "Not Genuine",
      "associatedSiteId": 109959,
      "outfallName": "WEST PARK BOGNOR REGIS",
      "isImpacting": true,
      "overFlowSiteId": 0,
      "historicSpillsList": []
    },
    {
      "id": 344841466,
      "eventId": 661710,
      "siteUnitNumber": 12622,
      "bathingSite": "WHITECLIFF BAY",
      "eventStart": "2022-11-08T15:14:42",
      "eventStop": "2022-11-11T03:02:00",
      "duration": 3587,
      "status": "Genuine",
      "associatedSiteId": 110096,
      "outfallName": "SANDOWN NO1",
      "isImpacting": true,
      "overFlowSiteId": 0,
      "historicSpillsList": [
        {
          "id": 344841466,
          "eventId": 661710,
          "siteUnitNumber": 12622,
          "bathingSite": "WHITECLIFF BAY",
          "eventStart": "2022-11-08T15:14:42",
          "eventStop": "2022-11-11T03:02:00",
          "duration": 3587,
          "status": "Genuine",
          "associatedSiteId": 110096,
          "outfallName": "SANDOWN NO1",
          "isImpacting": true,
          "overFlowSiteId": 115453
        },
        {
          "id": 344841467,
          "eventId": 661710,
          "siteUnitNumber": 12623,
          "bathingSite": "YAVERLAND",
          "eventStart": "2022-11-08T15:14:42",
          "eventStop": "2022-11-11T03:02:00",
          "duration": 3587,
          "status": "Genuine",
          "associatedSiteId": 110096,
          "outfallName": "SANDOWN NO1",
          "isImpacting": true,
          "overFlowSiteId": 115453,
          "historicSpillsList": []
        },
        {
          "id": 344841468,
          "eventId": 661710,
          "siteUnitNumber": 12624,
          "bathingSite": "SANDOWN",
          "eventStart": "2022-11-08T15:14:42",
          "eventStop": "2022-11-11T03:02:00",
          "duration": 3587,
          "status": "Genuine",
          "associatedSiteId": 110096,
          "outfallName": "SANDOWN NO1",
          "isImpacting": true,
          "overFlowSiteId": 115453,
          "historicSpillsList": []
        }
      ]
    },
    {
      "id": 344845552,
      "eventId": 664740,
      "siteUnitNumber": 12621,
      "bathingSite": "BEMBRIDGE",
      "eventStart": "2022-11-11T02:19:43",
      "eventStop": "2022-11-11T02:53:27",
      "duration": 33,
      "status": "Not Genuine",
      "associatedSiteId": 110097,
      "outfallName": "SANDOWN NO2",
      "isImpacting": false,
      "overFlowSiteId": 0,
      "historicSpillsList": []
    },
    {
      "id": 344845558,
      "eventId": 664668,
      "siteUnitNumber": 12623,
      "bathingSite": "YAVERLAND",
      "eventStart": "2022-11-11T00:23:29",
      "eventStop": "2022-11-11T00:56:43",
      "duration": 33,
      "status": "Not Genuine",
      "associatedSiteId": 110097,
      "outfallName": "SANDOWN NO2",
      "isImpacting": true,
      "overFlowSiteId": 0,
      "historicSpillsList": []
    },
    {
      "id": 344845561,
      "eventId": 664618,
      "siteUnitNumber": 12624,
      "bathingSite": "SANDOWN",
      "eventStart": "2022-11-10T23:21:11",
      "eventStop": "2022-11-10T23:58:58",
      "duration": 37,
      "status": "Not Genuine",
      "associatedSiteId": 110097,
      "outfallName": "SANDOWN NO2",
      "isImpacting": true,
      "overFlowSiteId": 0,
      "historicSpillsList": []
    },
    {
      "id": 344831280,
      "eventId": 653073,
      "siteUnitNumber": 12596,
      "bathingSite": "PAGHAM",
      "eventStart": "2022-11-03T01:33:23",
      "eventStop": "2022-11-10T23:53:00",
      "duration": 11419,
      "status": "Genuine",
      "associatedSiteId": 109911,
      "outfallName": "SUMMER LANE PAGHAM",
      "isImpacting": true,
      "overFlowSiteId": 0,
      "historicSpillsList": [
        {
          "id": 344831280,
          "eventId": 653073,
          "siteUnitNumber": 12596,
          "bathingSite": "PAGHAM",
          "eventStart": "2022-11-03T01:33:23",
          "eventStop": "2022-11-10T23:53:00",
          "duration": 11419,
          "status": "Genuine",
          "associatedSiteId": 109911,
          "outfallName": "SUMMER LANE PAGHAM",
          "isImpacting": true,
          "overFlowSiteId": 115443
        }
      ]
    },
    {
      "id": 344845571,
      "eventId": 664587,
      "siteUnitNumber": 12619,
      "bathingSite": "SEAGROVE",
      "eventStart": "2022-11-10T22:24:13",
      "eventStop": "2022-11-10T23:05:03",
      "duration": 40,
      "status": "Not Genuine",
      "associatedSiteId": 110097,
      "outfallName": "SANDOWN NO2",
      "isImpacting": false,
      "overFlowSiteId": 0,
      "historicSpillsList": []
    },
    {
      "id": 344845576,
      "eventId": 664564,
      "siteUnitNumber": 12619,
      "bathingSite": "SEAGROVE",
      "eventStart": "2022-11-10T21:29:12",
      "eventStop": "2022-11-10T22:10:56",
      "duration": 41,
      "status": "Not Genuine",
      "associatedSiteId": 110097,
      "outfallName": "SANDOWN NO2",
      "isImpacting": false,
      "overFlowSiteId": 0,
      "historicSpillsList": []
    },
    {
      "id": 344820952,
      "eventId": 656907,
      "siteUnitNumber": 12617,
      "bathingSite": "COWES",
      "eventStart": "2022-11-05T07:24:10",
      "eventStop": "2022-11-10T21:40:00",
      "duration": 8055,
      "status": "Genuine",
      "associatedSiteId": 109777,
      "outfallName": "APPLEY PARK RYDE TRANSFER",
      "isImpacting": true,
      "overFlowSiteId": 0,
      "historicSpillsList": [
        {
          "id": 344820953,
          "eventId": 656907,
          "siteUnitNumber": 12618,
          "bathingSite": "RYDE",
          "eventStart": "2022-11-05T07:24:10",
          "eventStop": "2022-11-10T21:40:00",
          "duration": 8055,
          "status": "Genuine",
          "associatedSiteId": 109777,
          "outfallName": "APPLEY PARK RYDE TRANSFER",
          "isImpacting": true,
          "overFlowSiteId": 108941,
          "historicSpillsList": []
        }
      ]
    },
    {
      "id": 344845582,
      "eventId": 664497,
      "siteUnitNumber": 12621,
      "bathingSite": "BEMBRIDGE",
      "eventStart": "2022-11-10T20:47:00",
      "eventStop": "2022-11-10T21:04:00",
      "duration": 17,
      "status": "Genuine",
      "associatedSiteId": 110097,
      "outfallName": "SANDOWN NO2",
      "isImpacting": true,
      "overFlowSiteId": 0,
      "historicSpillsList": [
        {
          "id": 344845584,
          "eventId": 664497,
          "siteUnitNumber": 12623,
          "bathingSite": "YAVERLAND",
          "eventStart": "2022-11-10T20:47:00",
          "eventStop": "2022-11-10T21:04:00",
          "duration": 17,
          "status": "Genuine",
          "associatedSiteId": 110097,
          "outfallName": "SANDOWN NO2",
          "isImpacting": true,
          "overFlowSiteId": 115454,
          "historicSpillsList": []
        }
      ]
    }
  ]
}