{
  "currentPage": 210,
  "totalItems": 18701,
  "totalPages": 749,
  "items": [
    {
      "id": 343935168,
      "eventId": 852219,
      "siteUnitNumber": 12576,
      "bathingSite": "ST LEONARDS",
      "eventStart": "2023-08-26T16:21:45",
      "eventStop": "2023-08-26T16:30:32",
      "duration": 8,
      "status": "Genuine",
      "associatedSiteId": 109903,
      "outfallName": "BEXHILL & HASTINGS NO2",
      "isImpacting": true,
      "overFlowSiteId": 0,
      "historicSpillsList": [
        {
          "id": 343935168,
          "eventId": 852219,
          "siteUnitNumber": 12576,
          "bathingSite": "ST LEONARDS",
          "eventStart": "2023-08-26T16:21:45",
          "eventStop": "2023-08-26T16:30:32",
          "duration": 8,
          "status": "Genuine",
          "associatedSiteId": 109903,
          "outfallName": "BEXHILL & HASTINGS NO2",
          "isImpacting": true,
          "overFlowSiteId": 115398
        },
        {
          "id": 343935169,
          "eventId": 852219,
          "siteUnitNumber": 12577,
          "bathingSite": "BEXHILL",
          "eventStart": "2023-08-26T16:21:45",
          "eventStop": "2023-08-26T16:30:32",
          "duration": 8,
          "status": "Genuine",
          "associatedSiteId": 109903,
          "outfallName": "BEXHILL & HASTINGS NO2",
          "isImpacting": true,
          "overFlowSiteId": 115398,
          "historicSpillsList": []
        }
      ]
    },
    {
      "id": 343935166,
      "eventId": 852211,
      "siteUnitNumber": 12576,
      "bathingSite": "ST LEONARDS",
      "eventStart": "2023-08-26T15:13:41",
      "eventStop": "2023-08-26T15:21:29",
      "duration": 7,
      "status": "Genuine",
      "associatedSiteId": 109903,
      "outfallName": "BEXHILL & HASTINGS NO2",
      "isImpacting": true,
      "overFlowSiteId": 0,
      "historicSpillsList": [
        {
          "id": 343935166,
          "eventId": 852211,
          "siteUnitNumber": 12576,
          "bathingSite": "ST LEONARDS",
          "eventStart": "2023-08-26T15:13:41",
          "eventStop": "2023-08-26T15:21:29",
          "duration": 7,
          "status": "Genuine",
          "associatedSiteId": 109903,
          "outfallName": "BEXHILL & HASTINGS NO2",
          "isImpacting": true,
          "overFlowSiteId": 115398
        },
        {
          "id": 343935167,
          "eventId": 852211,
          "siteUnitNumber": 12577,
          "bathingSite": "BEXHILL",
          "eventStart": "2023-08-26T15:13:41",
          "eventStop": "2023-08-26T15:21:29",
          "duration": 7,
          "status": "Genuine",
          "associatedSiteId": 109903,
          "outfallName": "BEXHILL & HASTINGS NO2",
          "isImpacting": true,
          "overFlowSiteId": 115398,
          "historicSpillsList": []
        }
      ]
    },
    {
      "id": 343935170,
      "eventId": 851950,
      "siteUnitNumber": 12576,
      "bathingSite": "ST LEONARDS",
      "eventStart": "2023-08-25T23:55:30",
      "eventStop": "2023-08-26T14:54:00",
      "duration": 898,
      "status": "Genuine",
      "associatedSiteId": 109903,
      "outfallName": "BEXHILL & HASTINGS NO2",
      "isImpacting": true,
      "overFlowSiteId": 0,
      "historicSpillsList": [
        {
          "id": 343935170,
          "eventId": 851950,
          "siteUnitNumber": 12576,
          "bathingSite": "ST LEONARDS",
          "eventStart": "2023-08-25T23:55:30",
          "eventStop": "2023-08-26T14:54:00",
          "duration": 898,
          "status": "Genuine",
          "associatedSiteId": 109903,
          "outfallName": "BEXHILL & HASTINGS NO2",
          "isImpacting": true,
          "overFlowSiteId": 115398
        },
        {
          "id": 343935171,
          "eventId": 851950,
          "siteUnitNumber": 12577,
          "bathingSite": "BEXHILL",
          "eventStart": "2023-08-25T23:55:30",
          "eventStop": "2023-08-26T14:54:00",
          "duration": 898,
          "status": "Genuine",
          "associatedSiteId": 109903,
          "outfallName": "BEXHILL & HASTINGS NO2",
          "isImpacting": true,
          "overFlowSiteId": 115398,
          "historicSpillsList": []
        }
      ]
    },
    {
      "id": 343926134,
      "eventId": 852374,
      "siteUnitNumber": 12618,
      "bathingSite": "RYDE",
      "eventStart": "2023-08-26T13:52:00",
      "eventStop": "2023-08-26T13:55:00",
      "duration": 3,
      "status": "Genuine",
      "associatedSiteId": 109777,
      "outfallName": "APPLEY PARK RYDE TRANSFER",
      "isImpacting": false,
      "overFlowSiteId": 0,
      "historicSpillsList": []
    },
    {
      "id": 343926136,
      "eventId": 852373,
      "siteUnitNumber": 12617,
      "bathingSite": "COWES",
      "eventStart": "2023-08-26T12:51:00",
      "eventStop": "2023-08-26T12:55:00",
      "duration": 4,
      "status": "Genuine",
      "associatedSiteId": 109777,
      "outfallName": "APPLEY PARK RYDE TRANSFER",
      "isImpacting": false,
      "overFlowSiteId": 0,
      "historicSpillsList": []
    },
    {
      "id": 343928109,
      "eventId": 852434,
      "siteUnitNumber": 12618,
      "bathingSite": "RYDE",
      "eventStart": "2023-08-26T11:55:00",
      "eventStop": "2023-08-26T12:41:00",
      "duration": 46,
      "status": "Genuine",
      "associatedSiteId": 109789,
      "outfallName": "SEAGROVE BAY",
      "isImpacting": true,
      "overFlowSiteId": 0,
      "historicSpillsList": [
        {
          "id": 343928109,
          "eventId": 852434,
          "siteUnitNumber": 12618,
          "bathingSite": "RYDE",
          "eventStart": "2023-08-26T11:55:00",
          "eventStop": "2023-08-26T12:41:00",
          "duration": 46,
          "status": "Genuine",
          "associatedSiteId": 109789,
          "outfallName": "SEAGROVE BAY",
          "isImpacting": true,
          "overFlowSiteId": 100244
        },
        {
          "id": 343928110,
          "eventId": 852434,
          "siteUnitNumber": 12619,
          "bathingSite": "SEAGROVE",
          "eventStart": "2023-08-26T11:55:00",
          "eventStop": "2023-08-26T12:41:00",
          "duration": 46,
          "status": "Genuine",
          "associatedSiteId": 109789,
          "outfallName": "SEAGROVE BAY",
          "isImpacting": true,
          "overFlowSiteId": 100244,
          "historicSpillsList": []
        },
        {
          "id": 343928111,
          "eventId": 852434,
          "siteUnitNumber": 12620,
          "bathingSite": "ST HELENS",
          "eventStart": "2023-08-26T11:55:00",
          "eventStop": "2023-08-26T12:41:00",
          "duration": 46,
          "status": "Genuine",
          "associatedSiteId": 109789,
          "outfallName": "SEAGROVE BAY",
          "isImpacting": true,
          "overFlowSiteId": 100244,
          "historicSpillsList": []
        }
      ]
    },
    {
      "id": 343926138,
      "eventId": 852370,
      "siteUnitNumber": 12617,
      "bathingSite": "COWES",
      "eventStart": "2023-08-26T12:18:00",
      "eventStop": "2023-08-26T12:21:00",
      "duration": 3,
      "status": "Genuine",
      "associatedSiteId": 109777,
      "outfallName": "APPLEY PARK RYDE TRANSFER",
      "isImpacting": false,
      "overFlowSiteId": 0,
      "historicSpillsList": []
    },
    {
      "id": 343926140,
      "eventId": 852188,
      "siteUnitNumber": 12617,
      "bathingSite": "COWES",
      "eventStart": "2023-08-26T09:14:00",
      "eventStop": "2023-08-26T11:49:00",
      "duration": 155,
      "status": "Genuine",
      "associatedSiteId": 109777,
      "outfallName": "APPLEY PARK RYDE TRANSFER",
      "isImpacting": false,
      "overFlowSiteId": 0,
      "historicSpillsList": []
    },
    {
      "id": 343928112,
      "eventId": 852137,
      "siteUnitNumber": 12618,
      "bathingSite": "RYDE",
      "eventStart": "2023-08-26T09:26:30",
      "eventStop": "2023-08-26T10:44:00",
      "duration": 77,
      "status": "Genuine",
      "associatedSiteId": 109789,
      "outfallName": "SEAGROVE BAY",
      "isImpacting": true,
      "overFlowSiteId": 0,
      "historicSpillsList": [
        {
          "id": 343928112,
          "eventId": 852137,
          "siteUnitNumber": 12618,
          "bathingSite": "RYDE",
          "eventStart": "2023-08-26T09:26:30",
          "eventStop": "2023-08-26T10:44:00",
          "duration": 77,
          "status": "Genuine",
          "associatedSiteId": 109789,
          "outfallName": "SEAGROVE BAY",
          "isImpacting": true,
          "overFlowSiteId": 100244
        },
        {
          "id": 343928113,
          "eventId": 852137,
          "siteUnitNumber": 12619,
          "bathingSite": "SEAGROVE",
          "eventStart": "2023-08-26T09:26:30",
          "eventStop": "2023-08-26T10:44:00",
          "duration": 77,
          "status": "Genuine",
          "associatedSiteId": 109789,
          "outfallName": "SEAGROVE BAY",
          "isImpacting": true,
          "overFlowSiteId": 100244,
          "historicSpillsList": []
        },
        {
          "id": 343928114,
          "eventId": 852137,
          "siteUnitNumber": 12620,
          "bathingSite": "ST HELENS",
          "eventStart": "2023-08-26T09:26:30",
          "eventStop": "2023-08-26T10:44:00",
          "duration": 77,
          "status": "Genuine",
          "associatedSiteId": 109789,
          "outfallName": "SEAGROVE BAY",
          "isImpacting": true,
          "overFlowSiteId": 100244,
          "historicSpillsList": []
        }
      ]
    },
    {
      "id": 343954451,
      "eventId": 851954,
      "siteUnitNumber": 12582,
      "bathingSite": "SEAFORD",
      "eventStart": "2023-08-26T00:22:41",
      "eventStop": "2023-08-26T04:31:53",
      "duration": 249,
      "status": "Genuine",
      "associatedSiteId": 110920,
      "outfallName": "NEWHAVEN",
      "isImpacting": false,
      "overFlowSiteId": 0,
      "historicSpillsList": []
    },
    {
      "id": 343945952,
      "eventId": 852031,
      "siteUnitNumber": 12582,
      "bathingSite": "SEAFORD",
      "eventStart": "2023-08-26T02:40:19",
      "eventStop": "2023-08-26T03:09:56",
      "duration": 29,
      "status": "Genuine",
      "associatedSiteId": 110047,
      "outfallName": "CLIFF END SEAFORD",
      "isImpacting": true,
      "overFlowSiteId": 0,
      "historicSpillsList": [
        {
          "id": 343945952,
          "eventId": 852031,
          "siteUnitNumber": 12582,
          "bathingSite": "SEAFORD",
          "eventStart": "2023-08-26T02:40:19",
          "eventStop": "2023-08-26T03:09:56",
          "duration": 29,
          "status": "Genuine",
          "associatedSiteId": 110047,
          "outfallName": "CLIFF END SEAFORD",
          "isImpacting": true,
          "overFlowSiteId": 101257
        }
      ]
    },
    {
      "id": 343918577,
      "eventId": 852024,
      "siteUnitNumber": 12544,
      "bathingSite": "SHEERNESS",
      "eventStart": "2023-08-26T02:20:00",
      "eventStop": "2023-08-26T02:26:00",
      "duration": 6,
      "status": "Genuine",
      "associatedSiteId": 109621,
      "outfallName": "NOREEN AVENUE SHEERNESS",
      "isImpacting": true,
      "overFlowSiteId": 0,
      "historicSpillsList": [
        {
          "id": 343918577,
          "eventId": 852024,
          "siteUnitNumber": 12544,
          "bathingSite": "SHEERNESS",
          "eventStart": "2023-08-26T02:20:00",
          "eventStop": "2023-08-26T02:26:00",
          "duration": 6,
          "status": "Genuine",
          "associatedSiteId": 109621,
          "outfallName": "NOREEN AVENUE SHEERNESS",
          "isImpacting": true,
          "overFlowSiteId": 108809
        },
        {
          "id": 343918578,
          "eventId": 852024,
          "siteUnitNumber": 12550,
          "bathingSite": "MINSTER LEAS",
          "eventStart": "2023-08-26T02:20:00",
          "eventStop": "2023-08-26T02:26:00",
          "duration": 6,
          "status": "Genuine",
          "associatedSiteId": 109621,
          "outfallName": "NOREEN AVENUE SHEERNESS",
          "isImpacting": true,
          "overFlowSiteId": 108809,
          "historicSpillsList": []
        }
      ]
    },
    {
      "id": 343960111,
      "eventId": 852013,
      "siteUnitNumber": 12577,
      "bathingSite": "BEXHILL",
      "eventStart": "2023-08-26T00:06:00",
      "eventStop": "2023-08-26T01:14:00",
      "duration": 68,
      "status": "Genuine",
      "associatedSiteId": 115504,
      "outfallName": "HARTFIELD ROAD BEXHILL",
      "isImpacting": false,
      "overFlowSiteId": 0,
      "historicSpillsList": []
    },
    {
      "id": 343926142,
      "eventId": 851887,
      "siteUnitNumber": 12617,
      "bathingSite": "COWES",
      "eventStart": "2023-08-25T22:15:00",
      "eventStop": "2023-08-26T00:45:00",
      "duration": 150,
      "status": "Genuine",
      "associatedSiteId": 109777,
      "outfallName": "APPLEY PARK RYDE TRANSFER",
      "isImpacting": false,
      "overFlowSiteId": 0,
      "historicSpillsList": []
    },
    {
      "id": 343939061,
      "eventId": 852014,
      "siteUnitNumber": 12575,
      "bathingSite": "HASTINGS PELHAM BEACH",
      "eventStart": "2023-08-26T00:02:00",
      "eventStop": "2023-08-26T00:41:00",
      "duration": 39,
      "status": "Genuine",
      "associatedSiteId": 109950,
      "outfallName": "ST HELENS DOWN HASTINGS",
      "isImpacting": true,
      "overFlowSiteId": 0,
      "historicSpillsList": [
        {
          "id": 343939061,
          "eventId": 852014,
          "siteUnitNumber": 12575,
          "bathingSite": "HASTINGS PELHAM BEACH",
          "eventStart": "2023-08-26T00:02:00",
          "eventStop": "2023-08-26T00:41:00",
          "duration": 39,
          "status": "Genuine",
          "associatedSiteId": 109950,
          "outfallName": "ST HELENS DOWN HASTINGS",
          "isImpacting": true,
          "overFlowSiteId": 109050
        }
      ]
    },
    {
      "id": 343945953,
      "eventId": 851941,
      "siteUnitNumber": 12582,
      "bathingSite": "SEAFORD",
      "eventStart": "2023-08-26T00:04:41",
      "eventStop": "2023-08-26T00:19:41",
      "duration": 15,
      "status": "Genuine",
      "associatedSiteId": 110047,
      "outfallName": "CLIFF END SEAFORD",
      "isImpacting": true,
      "overFlowSiteId": 0,
      "historicSpillsList": [
        {
          "id": 343945953,
          "eventId": 851941,
          "siteUnitNumber": 12582,
          "bathingSite": "SEAFORD",
          "eventStart": "2023-08-26T00:04:41",
          "eventStop": "2023-08-26T00:19:41",
          "duration": 15,
          "status": "Genuine",
          "associatedSiteId": 110047,
          "outfallName": "CLIFF END SEAFORD",
          "isImpacting": true,
          "overFlowSiteId": 101257
        }
      ]
    },
    {
      "id": 343926144,
      "eventId": 851884,
      "siteUnitNumber": 12617,
      "bathingSite": "COWES",
      "eventStart": "2023-08-25T21:56:28",
      "eventStop": "2023-08-25T22:10:43",
      "duration": 14,
      "status": "Genuine",
      "associatedSiteId": 109777,
      "outfallName": "APPLEY PARK RYDE TRANSFER",
      "isImpacting": false,
      "overFlowSiteId": 0,
      "historicSpillsList": []
    },
    {
      "id": 343935172,
      "eventId": 851689,
      "siteUnitNumber": 12576,
      "bathingSite": "ST LEONARDS",
      "eventStart": "2023-08-25T08:10:09",
      "eventStop": "2023-08-25T08:18:16",
      "duration": 8,
      "status": "Genuine",
      "associatedSiteId": 109903,
      "outfallName": "BEXHILL & HASTINGS NO2",
      "isImpacting": true,
      "overFlowSiteId": 0,
      "historicSpillsList": [
        {
          "id": 343935172,
          "eventId": 851689,
          "siteUnitNumber": 12576,
          "bathingSite": "ST LEONARDS",
          "eventStart": "2023-08-25T08:10:09",
          "eventStop": "2023-08-25T08:18:16",
          "duration": 8,
          "status": "Genuine",
          "associatedSiteId": 109903,
          "outfallName": "BEXHILL & HASTINGS NO2",
          "isImpacting": true,
          "overFlowSiteId": 115398
        },
        {
          "id": 343935173,
          "eventId": 851689,
          "siteUnitNumber": 12577,
          "bathingSite": "BEXHILL",
          "eventStart": "2023-08-25T08:10:09",
          "eventStop": "2023-08-25T08:18:16",
          "duration": 8,
          "status": "Genuine",
          "associatedSiteId": 109903,
          "outfallName": "BEXHILL & HASTINGS NO2",
          "isImpacting": true,
          "overFlowSiteId": 115398,
          "historicSpillsList": []
        }
      ]
    },
    {
      "id": 343935176,
      "eventId": 851681,
      "siteUnitNumber": 12576,
      "bathingSite": "ST LEONARDS",
      "eventStart": "2023-08-25T07:09:09",
      "eventStop": "2023-08-25T07:21:46",
      "duration": 12,
      "status": "Genuine",
      "associatedSiteId": 109903,
      "outfallName": "BEXHILL & HASTINGS NO2",
      "isImpacting": true,
      "overFlowSiteId": 0,
      "historicSpillsList": [
        {
          "id": 343935176,
          "eventId": 851681,
          "siteUnitNumber": 12576,
          "bathingSite": "ST LEONARDS",
          "eventStart": "2023-08-25T07:09:09",
          "eventStop": "2023-08-25T07:21:46",
          "duration": 12,
          "status": "Genuine",
          "associatedSiteId": 109903,
          "outfallName": "BEXHILL & HASTINGS NO2",
          "isImpacting": true,
          "overFlowSiteId": 115398
        },
        {
          "id": 343935177,
          "eventId": 851681,
          "siteUnitNumber": 12577,
          "bathingSite": "BEXHILL",
          "eventStart": "2023-08-25T07:09:09",
          "eventStop": "2023-08-25T07:21:46",
          "duration": 12,
          "status": "Genuine",
          "associatedSiteId": 109903,
          "outfallName": "BEXHILL & HASTINGS NO2",
          "isImpacting": true,
          "overFlowSiteId": 115398,
          "historicSpillsList": []
        }
      ]
    },
    {
      "id": 343935174,
      "eventId": 851673,
      "siteUnitNumber": 12576,
      "bathingSite": "ST LEONARDS",
      "eventStart": "2023-08-25T06:18:52",
      "eventStop": "2023-08-25T06:27:44",
      "duration": 8,
      "status": "Genuine",
      "associatedSiteId": 109903,
      "outfallName": "BEXHILL & HASTINGS NO2",
      "isImpacting": true,
      "overFlowSiteId": 0,
      "historicSpillsList": [
        {
          "id": 343935174,
          "eventId": 851673,
          "siteUnitNumber": 12576,
          "bathingSite": "ST LEONARDS",
          "eventStart": "2023-08-25T06:18:52",
          "eventStop": "2023-08-25T06:27:44",
          "duration": 8,
          "status": "Genuine",
          "associatedSiteId": 109903,
          "outfallName": "BEXHILL & HASTINGS NO2",
          "isImpacting": true,
          "overFlowSiteId": 115398
        },
        {
          "id": 343935175,
          "eventId": 851673,
          "siteUnitNumber": 12577,
          "bathingSite": "BEXHILL",
          "eventStart": "2023-08-25T06:18:52",
          "eventStop": "2023-08-25T06:27:44",
          "duration": 8,
          "status": "Genuine",
          "associatedSiteId": 109903,
          "outfallName": "BEXHILL & HASTINGS NO2",
          "isImpacting": true,
          "overFlowSiteId": 115398,
          "historicSpillsList": []
        }
      ]
    },
    {
      "id": 343935178,
      "eventId": 851664,
      "siteUnitNumber": 12576,
      "bathingSite": "ST LEONARDS",
      "eventStart": "2023-08-25T04:23:38",
      "eventStop": "2023-08-25T04:32:16",
      "duration": 8,
      "status": "Genuine",
      "associatedSiteId": 109903,
      "outfallName": "BEXHILL & HASTINGS NO2",
      "isImpacting": true,
      "overFlowSiteId": 0,
      "historicSpillsList": [
        {
          "id": 343935178,
          "eventId": 851664,
          "siteUnitNumber": 12576,
          "bathingSite": "ST LEONARDS",
          "eventStart": "2023-08-25T04:23:38",
          "eventStop": "2023-08-25T04:32:16",
          "duration": 8,
          "status": "Genuine",
          "associatedSiteId": 109903,
          "outfallName": "BEXHILL & HASTINGS NO2",
          "isImpacting": true,
          "overFlowSiteId": 115398
        },
        {
          "id": 343935179,
          "eventId": 851664,
          "siteUnitNumber": 12577,
          "bathingSite": "BEXHILL",
          "eventStart": "2023-08-25T04:23:38",
          "eventStop": "2023-08-25T04:32:16",
          "duration": 8,
          "status": "Genuine",
          "associatedSiteId": 109903,
          "outfallName": "BEXHILL & HASTINGS NO2",
          "isImpacting": true,
          "overFlowSiteId": 115398,
          "historicSpillsList": []
        }
      ]
    },
    {
      "id": 343935182,
      "eventId": 851659,
      "siteUnitNumber": 12576,
      "bathingSite": "ST LEONARDS",
      "eventStart": "2023-08-25T03:18:02",
      "eventStop": "2023-08-25T03:32:34",
      "duration": 14,
      "status": "Genuine",
      "associatedSiteId": 109903,
      "outfallName": "BEXHILL & HASTINGS NO2",
      "isImpacting": true,
      "overFlowSiteId": 0,
      "historicSpillsList": [
        {
          "id": 343935182,
          "eventId": 851659,
          "siteUnitNumber": 12576,
          "bathingSite": "ST LEONARDS",
          "eventStart": "2023-08-25T03:18:02",
          "eventStop": "2023-08-25T03:32:34",
          "duration": 14,
          "status": "Genuine",
          "associatedSiteId": 109903,
          "outfallName": "BEXHILL & HASTINGS NO2",
          "isImpacting": true,
          "overFlowSiteId": 115398
        },
        {
          "id": 343935183,
          "eventId": 851659,
          "siteUnitNumber": 12577,
          "bathingSite": "BEXHILL",
          "eventStart": "2023-08-25T03:18:02",
          "eventStop": "2023-08-25T03:32:34",
          "duration": 14,
          "status": "Genuine",
          "associatedSiteId": 109903,
          "outfallName": "BEXHILL & HASTINGS NO2",
          "isImpacting": true,
          "overFlowSiteId": 115398,
          "historicSpillsList": []
        }
      ]
    },
    {
      "id": 343935180,
      "eventId": 851652,
      "siteUnitNumber": 12576,
      "bathingSite": "ST LEONARDS",
      "eventStart": "2023-08-25T02:48:51",
      "eventStop": "2023-08-25T03:03:32",
      "duration": 14,
      "status": "Genuine",
      "associatedSiteId": 109903,
      "outfallName": "BEXHILL & HASTINGS NO2",
      "isImpacting": true,
      "overFlowSiteId": 0,
      "historicSpillsList": [
        {
          "id": 343935180,
          "eventId": 851652,
          "siteUnitNumber": 12576,
          "bathingSite": "ST LEONARDS",
          "eventStart": "2023-08-25T02:48:51",
          "eventStop": "2023-08-25T03:03:32",
          "duration": 14,
          "status": "Genuine",
          "associatedSiteId": 109903,
          "outfallName": "BEXHILL & HASTINGS NO2",
          "isImpacting": true,
          "overFlowSiteId": 115398
        },
        {
          "id": 343935181,
          "eventId": 851652,
          "siteUnitNumber": 12577,
          "bathingSite": "BEXHILL",
          "eventStart": "2023-08-25T02:48:51",
          "eventStop": "2023-08-25T03:03:32",
          "duration": 14,
          "status": "Genuine",
          "associatedSiteId": 109903,
          "outfallName": "BEXHILL & HASTINGS NO2",
          "isImpacting": true,
          "overFlowSiteId": 115398,
          "historicSpillsList": []
        }
      ]
    },
    {
      "id": 343935186,
      "eventId": 851640,
      "siteUnitNumber": 12576,
      "bathingSite": "ST LEONARDS",
      "eventStart": "2023-08-25T01:50:03",
      "eventStop": "2023-08-25T02:24:15",
      "duration": 34,
      "status": "Genuine",
      "associatedSiteId": 109903,
      "outfallName": "BEXHILL & HASTINGS NO2",
      "isImpacting": true,
      "overFlowSiteId": 0,
      "historicSpillsList": [
        {
          "id": 343935186,
          "eventId": 851640,
          "siteUnitNumber": 12576,
          "bathingSite": "ST LEONARDS",
          "eventStart": "2023-08-25T01:50:03",
          "eventStop": "2023-08-25T02:24:15",
          "duration": 34,
          "status": "Genuine",
          "associatedSiteId": 109903,
          "outfallName": "BEXHILL & HASTINGS NO2",
          "isImpacting": true,
          "overFlowSiteId": 115398
        },
        {
          "id": 343935187,
          "eventId": 851640,
          "siteUnitNumber": 12577,
          "bathingSite": "BEXHILL",
          "eventStart": "2023-08-25T01:50:03",
          "eventStop": "2023-08-25T02:24:15",
          "duration": 34,
          "status": "Genuine",
          "associatedSiteId": 109903,
          "outfallName": "BEXHILL & HASTINGS NO2",
          "isImpacting": true,
          "overFlowSiteId": 115398,
          "historicSpillsList": []
        }
      ]
    },
    {
      "id": 343935184,
      "eventId": 851628,
      "siteUnitNumber": 12576,
      "bathingSite": "ST LEONARDS",
      "eventStart": "2023-08-25T01:00:27",
      "eventStop": "2023-08-25T01:30:00",
      "duration": 29,
      "status": "Genuine",
      "associatedSiteId": 109903,
      "outfallName": "BEXHILL & HASTINGS NO2",
      "isImpacting": true,
      "overFlowSiteId": 0,
      "historicSpillsList": [
        {
          "id": 343935184,
          "eventId": 851628,
          "siteUnitNumber": 12576,
          "bathingSite": "ST LEONARDS",
          "eventStart": "2023-08-25T01:00:27",
          "eventStop": "2023-08-25T01:30:00",
          "duration": 29,
          "status": "Genuine",
          "associatedSiteId": 109903,
          "outfallName": "BEXHILL & HASTINGS NO2",
          "isImpacting": true,
          "overFlowSiteId": 115398
        },
        {
          "id": 343935185,
          "eventId": 851628,
          "siteUnitNumber": 12577,
          "bathingSite": "BEXHILL",
          "eventStart": "2023-08-25T01:00:27",
          "eventStop": "2023-08-25T01:30:00",
          "duration": 29,
          "status": "Genuine",
          "associatedSiteId": 109903,
          "outfallName": "BEXHILL & HASTINGS NO2",
          "isImpacting": true,
          "overFlowSiteId": 115398,
          "historicSpillsList": []
        }
      ]
    }
  ]
}