{
  "currentPage": 223,
  "totalItems": 18701,
  "totalPages": 749,
  "items": [
    {
      "id": 343971552,
      "eventId": 850555,
      "siteUnitNumber": 12604,
      "bathingSite": "SOUTHSEA EAST",
      "eventStart": "2023-08-18T07:48:00",
      "eventStop": "2023-08-18T07:50:00",
      "duration": 2,
      "status": "Genuine",
      "associatedSiteId": 109822,
      "outfallName": "PIER ROAD SOUTHSEA",
      "isImpacting": true,
      "overFlowSiteId": 0,
      "historicSpillsList": [
        {
          "id": 343971552,
          "eventId": 850555,
          "siteUnitNumber": 12604,
          "bathingSite": "SOUTHSEA EAST",
          "eventStart": "2023-08-18T07:48:00",
          "eventStop": "2023-08-18T07:50:00",
          "duration": 2,
          "status": "Genuine",
          "associatedSiteId": 109822,
          "outfallName": "PIER ROAD SOUTHSEA",
          "isImpacting": true,
          "overFlowSiteId": 108469
        },
        {
          "id": 343971553,
          "eventId": 850555,
          "siteUnitNumber": 12605,
          "bathingSite": "STOKES BAY",
          "eventStart": "2023-08-18T07:48:00",
          "eventStop": "2023-08-18T07:50:00",
          "duration": 2,
          "status": "Genuine",
          "associatedSiteId": 109822,
          "outfallName": "PIER ROAD SOUTHSEA",
          "isImpacting": true,
          "overFlowSiteId": 108469,
          "historicSpillsList": []
        }
      ]
    },
    {
      "id": 343971578,
      "eventId": 848588,
      "siteUnitNumber": 12604,
      "bathingSite": "SOUTHSEA EAST",
      "eventStart": "2023-08-18T07:45:28",
      "eventStop": "2023-08-18T07:49:53",
      "duration": 4,
      "status": "Genuine",
      "associatedSiteId": 109822,
      "outfallName": "PIER ROAD SOUTHSEA",
      "isImpacting": true,
      "overFlowSiteId": 0,
      "historicSpillsList": [
        {
          "id": 343971578,
          "eventId": 848588,
          "siteUnitNumber": 12604,
          "bathingSite": "SOUTHSEA EAST",
          "eventStart": "2023-08-18T07:45:28",
          "eventStop": "2023-08-18T07:49:53",
          "duration": 4,
          "status": "Genuine",
          "associatedSiteId": 109822,
          "outfallName": "PIER ROAD SOUTHSEA",
          "isImpacting": true,
          "overFlowSiteId": 108469
        },
        {
          "id": 343971579,
          "eventId": 848588,
          "siteUnitNumber": 12605,
          "bathingSite": "STOKES BAY",
          "eventStart": "2023-08-18T07:45:28",
          "eventStop": "2023-08-18T07:49:53",
          "duration": 4,
          "status": "Genuine",
          "associatedSiteId": 109822,
          "outfallName": "PIER ROAD SOUTHSEA",
          "isImpacting": true,
          "overFlowSiteId": 108469,
          "historicSpillsList": []
        }
      ]
    },
    {
      "id": 343987928,
      "eventId": 848413,
      "siteUnitNumber": 12625,
      "bathingSite": "SHANKLIN",
      "eventStart": "2023-08-18T06:30:57",
      "eventStop": "2023-08-18T07:45:26",
      "duration": 74,
      "status": "Genuine",
      "associatedSiteId": 110024,
      "outfallName": "EASTERN GARDENS SANDOWN",
      "isImpacting": true,
      "overFlowSiteId": 0,
      "historicSpillsList": [
        {
          "id": 343987928,
          "eventId": 848413,
          "siteUnitNumber": 12625,
          "bathingSite": "SHANKLIN",
          "eventStart": "2023-08-18T06:30:57",
          "eventStop": "2023-08-18T07:45:26",
          "duration": 74,
          "status": "Genuine",
          "associatedSiteId": 110024,
          "outfallName": "EASTERN GARDENS SANDOWN",
          "isImpacting": true,
          "overFlowSiteId": 108039
        },
        {
          "id": 343987929,
          "eventId": 848413,
          "siteUnitNumber": 12623,
          "bathingSite": "YAVERLAND",
          "eventStart": "2023-08-18T06:30:57",
          "eventStop": "2023-08-18T07:45:26",
          "duration": 74,
          "status": "Genuine",
          "associatedSiteId": 110024,
          "outfallName": "EASTERN GARDENS SANDOWN",
          "isImpacting": true,
          "overFlowSiteId": 108039,
          "historicSpillsList": []
        },
        {
          "id": 343987930,
          "eventId": 848413,
          "siteUnitNumber": 12624,
          "bathingSite": "SANDOWN",
          "eventStart": "2023-08-18T06:30:57",
          "eventStop": "2023-08-18T07:45:26",
          "duration": 74,
          "status": "Genuine",
          "associatedSiteId": 110024,
          "outfallName": "EASTERN GARDENS SANDOWN",
          "isImpacting": true,
          "overFlowSiteId": 108039,
          "historicSpillsList": []
        }
      ]
    },
    {
      "id": 343988228,
      "eventId": 850237,
      "siteUnitNumber": 12624,
      "bathingSite": "SANDOWN",
      "eventStart": "2023-08-18T07:09:00",
      "eventStop": "2023-08-18T07:43:00",
      "duration": 34,
      "status": "Genuine",
      "associatedSiteId": 110029,
      "outfallName": "HOPE BEACH SHANKLIN NEW",
      "isImpacting": true,
      "overFlowSiteId": 0,
      "historicSpillsList": [
        {
          "id": 343988229,
          "eventId": 850237,
          "siteUnitNumber": 12625,
          "bathingSite": "SHANKLIN",
          "eventStart": "2023-08-18T07:09:00",
          "eventStop": "2023-08-18T07:43:00",
          "duration": 34,
          "status": "Genuine",
          "associatedSiteId": 110029,
          "outfallName": "HOPE BEACH SHANKLIN NEW",
          "isImpacting": true,
          "overFlowSiteId": 109389,
          "historicSpillsList": []
        }
      ]
    },
    {
      "id": 343971556,
      "eventId": 850553,
      "siteUnitNumber": 12604,
      "bathingSite": "SOUTHSEA EAST",
      "eventStart": "2023-08-18T07:39:00",
      "eventStop": "2023-08-18T07:41:00",
      "duration": 2,
      "status": "Genuine",
      "associatedSiteId": 109822,
      "outfallName": "PIER ROAD SOUTHSEA",
      "isImpacting": true,
      "overFlowSiteId": 0,
      "historicSpillsList": [
        {
          "id": 343971556,
          "eventId": 850553,
          "siteUnitNumber": 12604,
          "bathingSite": "SOUTHSEA EAST",
          "eventStart": "2023-08-18T07:39:00",
          "eventStop": "2023-08-18T07:41:00",
          "duration": 2,
          "status": "Genuine",
          "associatedSiteId": 109822,
          "outfallName": "PIER ROAD SOUTHSEA",
          "isImpacting": true,
          "overFlowSiteId": 108469
        },
        {
          "id": 343971557,
          "eventId": 850553,
          "siteUnitNumber": 12605,
          "bathingSite": "STOKES BAY",
          "eventStart": "2023-08-18T07:39:00",
          "eventStop": "2023-08-18T07:41:00",
          "duration": 2,
          "status": "Genuine",
          "associatedSiteId": 109822,
          "outfallName": "PIER ROAD SOUTHSEA",
          "isImpacting": true,
          "overFlowSiteId": 108469,
          "historicSpillsList": []
        }
      ]
    },
    {
      "id": 343970446,
      "eventId": 848491,
      "siteUnitNumber": 12618,
      "bathingSite": "RYDE",
      "eventStart": "2023-08-18T07:37:43",
      "eventStop": "2023-08-18T07:40:15",
      "duration": 2,
      "status": "Genuine",
      "associatedSiteId": 109787,
      "outfallName": "SALTERNS ROAD SEAVIEW",
      "isImpacting": true,
      "overFlowSiteId": 0,
      "historicSpillsList": [
        {
          "id": 343970446,
          "eventId": 848491,
          "siteUnitNumber": 12618,
          "bathingSite": "RYDE",
          "eventStart": "2023-08-18T07:37:43",
          "eventStop": "2023-08-18T07:40:15",
          "duration": 2,
          "status": "Genuine",
          "associatedSiteId": 109787,
          "outfallName": "SALTERNS ROAD SEAVIEW",
          "isImpacting": true,
          "overFlowSiteId": 107411
        },
        {
          "id": 343970447,
          "eventId": 848491,
          "siteUnitNumber": 12619,
          "bathingSite": "SEAGROVE",
          "eventStart": "2023-08-18T07:37:43",
          "eventStop": "2023-08-18T07:40:15",
          "duration": 2,
          "status": "Genuine",
          "associatedSiteId": 109787,
          "outfallName": "SALTERNS ROAD SEAVIEW",
          "isImpacting": true,
          "overFlowSiteId": 107411,
          "historicSpillsList": []
        },
        {
          "id": 343970448,
          "eventId": 848491,
          "siteUnitNumber": 12620,
          "bathingSite": "ST HELENS",
          "eventStart": "2023-08-18T07:37:43",
          "eventStop": "2023-08-18T07:40:15",
          "duration": 2,
          "status": "Genuine",
          "associatedSiteId": 109787,
          "outfallName": "SALTERNS ROAD SEAVIEW",
          "isImpacting": true,
          "overFlowSiteId": 107411,
          "historicSpillsList": []
        }
      ]
    },
    {
      "id": 343971229,
      "eventId": 848469,
      "siteUnitNumber": 12661,
      "bathingSite": "LANGSTONE HARBOUR",
      "eventStart": "2023-08-18T06:54:45",
      "eventStop": "2023-08-18T07:39:00",
      "duration": 44,
      "status": "Genuine",
      "associatedSiteId": 109820,
      "outfallName": "ST ANDREWS ROAD PORTSMOUTH",
      "isImpacting": true,
      "overFlowSiteId": 0,
      "historicSpillsList": [
        {
          "id": 343971229,
          "eventId": 848469,
          "siteUnitNumber": 12661,
          "bathingSite": "LANGSTONE HARBOUR",
          "eventStart": "2023-08-18T06:54:45",
          "eventStop": "2023-08-18T07:39:00",
          "duration": 44,
          "status": "Genuine",
          "associatedSiteId": 109820,
          "outfallName": "ST ANDREWS ROAD PORTSMOUTH",
          "isImpacting": true,
          "overFlowSiteId": 108474
        }
      ]
    },
    {
      "id": 343971558,
      "eventId": 850552,
      "siteUnitNumber": 12604,
      "bathingSite": "SOUTHSEA EAST",
      "eventStart": "2023-08-18T07:28:00",
      "eventStop": "2023-08-18T07:30:00",
      "duration": 2,
      "status": "Genuine",
      "associatedSiteId": 109822,
      "outfallName": "PIER ROAD SOUTHSEA",
      "isImpacting": true,
      "overFlowSiteId": 0,
      "historicSpillsList": [
        {
          "id": 343971558,
          "eventId": 850552,
          "siteUnitNumber": 12604,
          "bathingSite": "SOUTHSEA EAST",
          "eventStart": "2023-08-18T07:28:00",
          "eventStop": "2023-08-18T07:30:00",
          "duration": 2,
          "status": "Genuine",
          "associatedSiteId": 109822,
          "outfallName": "PIER ROAD SOUTHSEA",
          "isImpacting": true,
          "overFlowSiteId": 108469
        },
        {
          "id": 343971559,
          "eventId": 850552,
          "siteUnitNumber": 12605,
          "bathingSite": "STOKES BAY",
          "eventStart": "2023-08-18T07:28:00",
          "eventStop": "2023-08-18T07:30:00",
          "duration": 2,
          "status": "Genuine",
          "associatedSiteId": 109822,
          "outfallName": "PIER ROAD SOUTHSEA",
          "isImpacting": true,
          "overFlowSiteId": 108469,
          "historicSpillsList": []
        }
      ]
    },
    {
      "id": 343971580,
      "eventId": 848424,
      "siteUnitNumber": 12604,
      "bathingSite": "SOUTHSEA EAST",
      "eventStart": "2023-08-18T06:47:00",
      "eventStop": "2023-08-18T07:30:00",
      "duration": 43,
      "status": "Genuine",
      "associatedSiteId": 109822,
      "outfallName": "PIER ROAD SOUTHSEA",
      "isImpacting": true,
      "overFlowSiteId": 0,
      "historicSpillsList": [
        {
          "id": 343971580,
          "eventId": 848424,
          "siteUnitNumber": 12604,
          "bathingSite": "SOUTHSEA EAST",
          "eventStart": "2023-08-18T06:47:00",
          "eventStop": "2023-08-18T07:30:00",
          "duration": 43,
          "status": "Genuine",
          "associatedSiteId": 109822,
          "outfallName": "PIER ROAD SOUTHSEA",
          "isImpacting": true,
          "overFlowSiteId": 108469
        },
        {
          "id": 343971581,
          "eventId": 848424,
          "siteUnitNumber": 12605,
          "bathingSite": "STOKES BAY",
          "eventStart": "2023-08-18T06:47:00",
          "eventStop": "2023-08-18T07:30:00",
          "duration": 43,
          "status": "Genuine",
          "associatedSiteId": 109822,
          "outfallName": "PIER ROAD SOUTHSEA",
          "isImpacting": true,
          "overFlowSiteId": 108469,
          "historicSpillsList": []
        }
      ]
    },
    {
      "id": 343995621,
      "eventId": 850299,
      "siteUnitNumber": 12616,
      "bathingSite": "GURNARD",
      "eventStart": "2023-08-18T06:52:00",
      "eventStop": "2023-08-18T07:26:00",
      "duration": 34,
      "status": "Genuine",
      "associatedSiteId": 110701,
      "outfallName": "TERMINUS ROAD COWES 2",
      "isImpacting": true,
      "overFlowSiteId": 0,
      "historicSpillsList": [
        {
          "id": 343995621,
          "eventId": 850299,
          "siteUnitNumber": 12616,
          "bathingSite": "GURNARD",
          "eventStart": "2023-08-18T06:52:00",
          "eventStop": "2023-08-18T07:26:00",
          "duration": 34,
          "status": "Genuine",
          "associatedSiteId": 110701,
          "outfallName": "TERMINUS ROAD COWES 2",
          "isImpacting": true,
          "overFlowSiteId": 108562
        },
        {
          "id": 343995622,
          "eventId": 850299,
          "siteUnitNumber": 12617,
          "bathingSite": "COWES",
          "eventStart": "2023-08-18T06:52:00",
          "eventStop": "2023-08-18T07:26:00",
          "duration": 34,
          "status": "Genuine",
          "associatedSiteId": 110701,
          "outfallName": "TERMINUS ROAD COWES 2",
          "isImpacting": true,
          "overFlowSiteId": 108562,
          "historicSpillsList": []
        }
      ]
    },
    {
      "id": 343971554,
      "eventId": 850554,
      "siteUnitNumber": 12604,
      "bathingSite": "SOUTHSEA EAST",
      "eventStart": "2023-08-18T07:13:00",
      "eventStop": "2023-08-18T07:15:00",
      "duration": 2,
      "status": "Genuine",
      "associatedSiteId": 109822,
      "outfallName": "PIER ROAD SOUTHSEA",
      "isImpacting": true,
      "overFlowSiteId": 0,
      "historicSpillsList": [
        {
          "id": 343971554,
          "eventId": 850554,
          "siteUnitNumber": 12604,
          "bathingSite": "SOUTHSEA EAST",
          "eventStart": "2023-08-18T07:13:00",
          "eventStop": "2023-08-18T07:15:00",
          "duration": 2,
          "status": "Genuine",
          "associatedSiteId": 109822,
          "outfallName": "PIER ROAD SOUTHSEA",
          "isImpacting": true,
          "overFlowSiteId": 108469
        },
        {
          "id": 343971555,
          "eventId": 850554,
          "siteUnitNumber": 12605,
          "bathingSite": "STOKES BAY",
          "eventStart": "2023-08-18T07:13:00",
          "eventStop": "2023-08-18T07:15:00",
          "duration": 2,
          "status": "Genuine",
          "associatedSiteId": 109822,
          "outfallName": "PIER ROAD SOUTHSEA",
          "isImpacting": true,
          "overFlowSiteId": 108469,
          "historicSpillsList": []
        }
      ]
    },
    {
      "id": 343995631,
      "eventId": 848305,
      "siteUnitNumber": 12617,
      "bathingSite": "COWES",
      "eventStart": "2023-08-18T05:17:00",
      "eventStop": "2023-08-18T07:14:00",
      "duration": 117,
      "status": "Genuine",
      "associatedSiteId": 110701,
      "outfallName": "TERMINUS ROAD COWES 2",
      "isImpacting": true,
      "overFlowSiteId": 0,
      "historicSpillsList": [
        {
          "id": 343995631,
          "eventId": 848305,
          "siteUnitNumber": 12617,
          "bathingSite": "COWES",
          "eventStart": "2023-08-18T05:17:00",
          "eventStop": "2023-08-18T07:14:00",
          "duration": 117,
          "status": "Genuine",
          "associatedSiteId": 110701,
          "outfallName": "TERMINUS ROAD COWES 2",
          "isImpacting": true,
          "overFlowSiteId": 108563
        },
        {
          "id": 343995632,
          "eventId": 848305,
          "siteUnitNumber": 12616,
          "bathingSite": "GURNARD",
          "eventStart": "2023-08-18T05:17:00",
          "eventStop": "2023-08-18T07:14:00",
          "duration": 117,
          "status": "Genuine",
          "associatedSiteId": 110701,
          "outfallName": "TERMINUS ROAD COWES 2",
          "isImpacting": true,
          "overFlowSiteId": 108563,
          "historicSpillsList": []
        }
      ]
    },
    {
      "id": 343988233,
      "eventId": 850236,
      "siteUnitNumber": 12623,
      "bathingSite": "YAVERLAND",
      "eventStart": "2023-08-18T06:29:00",
      "eventStop": "2023-08-18T07:04:00",
      "duration": 35,
      "status": "Genuine",
      "associatedSiteId": 110029,
      "outfallName": "HOPE BEACH SHANKLIN NEW",
      "isImpacting": true,
      "overFlowSiteId": 0,
      "historicSpillsList": [
        {
          "id": 343988235,
          "eventId": 850236,
          "siteUnitNumber": 12625,
          "bathingSite": "SHANKLIN",
          "eventStart": "2023-08-18T06:29:00",
          "eventStop": "2023-08-18T07:04:00",
          "duration": 35,
          "status": "Genuine",
          "associatedSiteId": 110029,
          "outfallName": "HOPE BEACH SHANKLIN NEW",
          "isImpacting": true,
          "overFlowSiteId": 109389,
          "historicSpillsList": []
        }
      ]
    },
    {
      "id": 343971560,
      "eventId": 850547,
      "siteUnitNumber": 12605,
      "bathingSite": "STOKES BAY",
      "eventStart": "2023-08-18T07:01:00",
      "eventStop": "2023-08-18T07:03:00",
      "duration": 2,
      "status": "Genuine",
      "associatedSiteId": 109822,
      "outfallName": "PIER ROAD SOUTHSEA",
      "isImpacting": true,
      "overFlowSiteId": 0,
      "historicSpillsList": [
        {
          "id": 343971560,
          "eventId": 850547,
          "siteUnitNumber": 12605,
          "bathingSite": "STOKES BAY",
          "eventStart": "2023-08-18T07:01:00",
          "eventStop": "2023-08-18T07:03:00",
          "duration": 2,
          "status": "Genuine",
          "associatedSiteId": 109822,
          "outfallName": "PIER ROAD SOUTHSEA",
          "isImpacting": true,
          "overFlowSiteId": 108469
        },
        {
          "id": 343971561,
          "eventId": 850547,
          "siteUnitNumber": 12604,
          "bathingSite": "SOUTHSEA EAST",
          "eventStart": "2023-08-18T07:01:00",
          "eventStop": "2023-08-18T07:03:00",
          "duration": 2,
          "status": "Genuine",
          "associatedSiteId": 109822,
          "outfallName": "PIER ROAD SOUTHSEA",
          "isImpacting": true,
          "overFlowSiteId": 108469,
          "historicSpillsList": []
        }
      ]
    },
    {
      "id": 343965581,
      "eventId": 848332,
      "siteUnitNumber": 12616,
      "bathingSite": "GURNARD",
      "eventStart": "2023-08-18T06:50:00",
      "eventStop": "2023-08-18T06:52:00",
      "duration": 2,
      "status": "Genuine",
      "associatedSiteId": 109704,
      "outfallName": "EGYPT POINT COWES",
      "isImpacting": true,
      "overFlowSiteId": 0,
      "historicSpillsList": [
        {
          "id": 343965582,
          "eventId": 848332,
          "siteUnitNumber": 12617,
          "bathingSite": "COWES",
          "eventStart": "2023-08-18T06:50:00",
          "eventStop": "2023-08-18T06:52:00",
          "duration": 2,
          "status": "Genuine",
          "associatedSiteId": 109704,
          "outfallName": "EGYPT POINT COWES",
          "isImpacting": true,
          "overFlowSiteId": 116213,
          "historicSpillsList": []
        }
      ]
    },
    {
      "id": 343963219,
      "eventId": 848425,
      "siteUnitNumber": 12615,
      "bathingSite": "COLWELL BAY",
      "eventStart": "2023-08-18T06:32:00",
      "eventStop": "2023-08-18T06:51:00",
      "duration": 19,
      "status": "Genuine",
      "associatedSiteId": 109663,
      "outfallName": "THE INSTITUTE YARMOUTH NO1",
      "isImpacting": false,
      "overFlowSiteId": 0,
      "historicSpillsList": []
    },
    {
      "id": 343971562,
      "eventId": 850546,
      "siteUnitNumber": 12604,
      "bathingSite": "SOUTHSEA EAST",
      "eventStart": "2023-08-18T06:48:00",
      "eventStop": "2023-08-18T06:50:00",
      "duration": 2,
      "status": "Genuine",
      "associatedSiteId": 109822,
      "outfallName": "PIER ROAD SOUTHSEA",
      "isImpacting": true,
      "overFlowSiteId": 0,
      "historicSpillsList": [
        {
          "id": 343971562,
          "eventId": 850546,
          "siteUnitNumber": 12604,
          "bathingSite": "SOUTHSEA EAST",
          "eventStart": "2023-08-18T06:48:00",
          "eventStop": "2023-08-18T06:50:00",
          "duration": 2,
          "status": "Genuine",
          "associatedSiteId": 109822,
          "outfallName": "PIER ROAD SOUTHSEA",
          "isImpacting": true,
          "overFlowSiteId": 108469
        },
        {
          "id": 343971563,
          "eventId": 850546,
          "siteUnitNumber": 12605,
          "bathingSite": "STOKES BAY",
          "eventStart": "2023-08-18T06:48:00",
          "eventStop": "2023-08-18T06:50:00",
          "duration": 2,
          "status": "Genuine",
          "associatedSiteId": 109822,
          "outfallName": "PIER ROAD SOUTHSEA",
          "isImpacting": true,
          "overFlowSiteId": 108469,
          "historicSpillsList": []
        }
      ]
    },
    {
      "id": 343965141,
      "eventId": 848366,
      "siteUnitNumber": 12616,
      "bathingSite": "GURNARD",
      "eventStart": "2023-08-18T06:03:00",
      "eventStop": "2023-08-18T06:50:00",
      "duration": 47,
      "status": "Genuine",
      "associatedSiteId": 109702,
      "outfallName": "ALBANY ROAD EAST COWES",
      "isImpacting": false,
      "overFlowSiteId": 0,
      "historicSpillsList": []
    },
    {
      "id": 343960474,
      "eventId": 848368,
      "siteUnitNumber": 12625,
      "bathingSite": "SHANKLIN",
      "eventStart": "2023-08-18T05:56:00",
      "eventStop": "2023-08-18T06:46:00",
      "duration": 50,
      "status": "Genuine",
      "associatedSiteId": 101793,
      "outfallName": "BONCHURCH",
      "isImpacting": false,
      "overFlowSiteId": 0,
      "historicSpillsList": []
    },
    {
      "id": 343964551,
      "eventId": 848396,
      "siteUnitNumber": 12616,
      "bathingSite": "GURNARD",
      "eventStart": "2023-08-18T06:26:45",
      "eventStop": "2023-08-18T06:41:12",
      "duration": 14,
      "status": "Genuine",
      "associatedSiteId": 109700,
      "outfallName": "MARKET HILL COWES",
      "isImpacting": false,
      "overFlowSiteId": 0,
      "historicSpillsList": []
    },
    {
      "id": 343966819,
      "eventId": 848485,
      "siteUnitNumber": 12616,
      "bathingSite": "GURNARD",
      "eventStart": "2023-08-18T06:26:00",
      "eventStop": "2023-08-18T06:40:00",
      "duration": 14,
      "status": "Genuine",
      "associatedSiteId": 109707,
      "outfallName": "MEDINA ROAD COWES",
      "isImpacting": false,
      "overFlowSiteId": 0,
      "historicSpillsList": []
    },
    {
      "id": 343995627,
      "eventId": 848357,
      "siteUnitNumber": 12616,
      "bathingSite": "GURNARD",
      "eventStart": "2023-08-18T05:55:57",
      "eventStop": "2023-08-18T06:39:00",
      "duration": 43,
      "status": "Genuine",
      "associatedSiteId": 110701,
      "outfallName": "TERMINUS ROAD COWES 2",
      "isImpacting": true,
      "overFlowSiteId": 0,
      "historicSpillsList": [
        {
          "id": 343995627,
          "eventId": 848357,
          "siteUnitNumber": 12616,
          "bathingSite": "GURNARD",
          "eventStart": "2023-08-18T05:55:57",
          "eventStop": "2023-08-18T06:39:00",
          "duration": 43,
          "status": "Genuine",
          "associatedSiteId": 110701,
          "outfallName": "TERMINUS ROAD COWES 2",
          "isImpacting": true,
          "overFlowSiteId": 108562
        },
        {
          "id": 343995628,
          "eventId": 848357,
          "siteUnitNumber": 12617,
          "bathingSite": "COWES",
          "eventStart": "2023-08-18T05:55:57",
          "eventStop": "2023-08-18T06:39:00",
          "duration": 43,
          "status": "Genuine",
          "associatedSiteId": 110701,
          "outfallName": "TERMINUS ROAD COWES 2",
          "isImpacting": true,
          "overFlowSiteId": 108562,
          "historicSpillsList": []
        }
      ]
    },
    {
      "id": 343966527,
      "eventId": 848393,
      "siteUnitNumber": 12616,
      "bathingSite": "GURNARD",
      "eventStart": "2023-08-18T06:24:36",
      "eventStop": "2023-08-18T06:37:00",
      "duration": 12,
      "status": "Genuine",
      "associatedSiteId": 109706,
      "outfallName": "HIGH STREET COWES",
      "isImpacting": false,
      "overFlowSiteId": 0,
      "historicSpillsList": []
    },
    {
      "id": 343970283,
      "eventId": 848407,
      "siteUnitNumber": 12618,
      "bathingSite": "RYDE",
      "eventStart": "2023-08-18T06:24:34",
      "eventStop": "2023-08-18T06:28:30",
      "duration": 3,
      "status": "Genuine",
      "associatedSiteId": 109782,
      "outfallName": "AUGUSTA ROAD RYDE",
      "isImpacting": true,
      "overFlowSiteId": 0,
      "historicSpillsList": [
        {
          "id": 343970283,
          "eventId": 848407,
          "siteUnitNumber": 12618,
          "bathingSite": "RYDE",
          "eventStart": "2023-08-18T06:24:34",
          "eventStop": "2023-08-18T06:28:30",
          "duration": 3,
          "status": "Genuine",
          "associatedSiteId": 109782,
          "outfallName": "AUGUSTA ROAD RYDE",
          "isImpacting": true,
          "overFlowSiteId": 102348
        }
      ]
    },
    {
      "id": 343987934,
      "eventId": 848400,
      "siteUnitNumber": 12625,
      "bathingSite": "SHANKLIN",
      "eventStart": "2023-08-18T06:15:16",
      "eventStop": "2023-08-18T06:27:15",
      "duration": 11,
      "status": "Genuine",
      "associatedSiteId": 110024,
      "outfallName": "EASTERN GARDENS SANDOWN",
      "isImpacting": true,
      "overFlowSiteId": 0,
      "historicSpillsList": [
        {
          "id": 343987934,
          "eventId": 848400,
          "siteUnitNumber": 12625,
          "bathingSite": "SHANKLIN",
          "eventStart": "2023-08-18T06:15:16",
          "eventStop": "2023-08-18T06:27:15",
          "duration": 11,
          "status": "Genuine",
          "associatedSiteId": 110024,
          "outfallName": "EASTERN GARDENS SANDOWN",
          "isImpacting": true,
          "overFlowSiteId": 108039
        },
        {
          "id": 343987935,
          "eventId": 848400,
          "siteUnitNumber": 12623,
          "bathingSite": "YAVERLAND",
          "eventStart": "2023-08-18T06:15:16",
          "eventStop": "2023-08-18T06:27:15",
          "duration": 11,
          "status": "Genuine",
          "associatedSiteId": 110024,
          "outfallName": "EASTERN GARDENS SANDOWN",
          "isImpacting": true,
          "overFlowSiteId": 108039,
          "historicSpillsList": []
        },
        {
          "id": 343987936,
          "eventId": 848400,
          "siteUnitNumber": 12624,
          "bathingSite": "SANDOWN",
          "eventStart": "2023-08-18T06:15:16",
          "eventStop": "2023-08-18T06:27:15",
          "duration": 11,
          "status": "Genuine",
          "associatedSiteId": 110024,
          "outfallName": "EASTERN GARDENS SANDOWN",
          "isImpacting": true,
          "overFlowSiteId": 108039,
          "historicSpillsList": []
        }
      ]
    }
  ]
}