{
  "currentPage": 446,
  "totalItems": 21025,
  "totalPages": 841,
  "items": [
    {
      "id": 344811969,
      "eventId": 698438,
      "siteUnitNumber": 12577,
      "bathingSite": "BEXHILL",
      "eventStart": "2022-12-19T05:19:00",
      "eventStop": "2022-12-19T05:53:00",
      "duration": 34,
      "status": "Genuine",
      "associatedSiteId": 115504,
      "outfallName": "HARTFIELD ROAD BEXHILL",
      "isImpacting": false,
      "overFlowSiteId": 0,
      "historicSpillsList": []
    },
    {
      "id": 344783569,
      "eventId": 695494,
      "siteUnitNumber": 12662,
      "bathingSite": "CHICHESTER HARBOUR",
      "eventStart": "2022-12-19T01:04:00",
      "eventStop": "2022-12-19T05:21:00",
      "duration": 257,
      "status": "Genuine",
      "associatedSiteId": 109850,
      "outfallName": "THORNHAM",
      "isImpacting": true,
      "overFlowSiteId": 0,
      "historicSpillsList": [
        {
          "id": 344783569,
          "eventId": 695494,
          "siteUnitNumber": 12662,
          "bathingSite": "CHICHESTER HARBOUR",
          "eventStart": "2022-12-19T01:04:00",
          "eventStop": "2022-12-19T05:21:00",
          "duration": 257,
          "status": "Genuine",
          "associatedSiteId": 109850,
          "outfallName": "THORNHAM",
          "isImpacting": true,
          "overFlowSiteId": 115369
        }
      ]
    },
    {
      "id": 344806112,
      "eventId": 695348,
      "siteUnitNumber": 12620,
      "bathingSite": "ST HELENS",
      "eventStart": "2022-12-18T14:29:46",
      "eventStop": "2022-12-19T05:13:42",
      "duration": 883,
      "status": "Genuine",
      "associatedSiteId": 110761,
      "outfallName": "BRADING",
      "isImpacting": true,
      "overFlowSiteId": 0,
      "historicSpillsList": [
        {
          "id": 344806112,
          "eventId": 695348,
          "siteUnitNumber": 12620,
          "bathingSite": "ST HELENS",
          "eventStart": "2022-12-18T14:29:46",
          "eventStop": "2022-12-19T05:13:42",
          "duration": 883,
          "status": "Genuine",
          "associatedSiteId": 110761,
          "outfallName": "BRADING",
          "isImpacting": true,
          "overFlowSiteId": 113676
        }
      ]
    },
    {
      "id": 344776789,
      "eventId": 696114,
      "siteUnitNumber": 12606,
      "bathingSite": "LEE-ON-SOLENT",
      "eventStart": "2022-12-18T20:27:52",
      "eventStop": "2022-12-19T04:47:47",
      "duration": 499,
      "status": "Genuine",
      "associatedSiteId": 109732,
      "outfallName": "PEEL COMMON",
      "isImpacting": true,
      "overFlowSiteId": 0,
      "historicSpillsList": [
        {
          "id": 344776789,
          "eventId": 696114,
          "siteUnitNumber": 12606,
          "bathingSite": "LEE-ON-SOLENT",
          "eventStart": "2022-12-18T20:27:52",
          "eventStop": "2022-12-19T04:47:47",
          "duration": 499,
          "status": "Genuine",
          "associatedSiteId": 109732,
          "outfallName": "PEEL COMMON",
          "isImpacting": true,
          "overFlowSiteId": 115426
        },
        {
          "id": 344776793,
          "eventId": 696114,
          "siteUnitNumber": 12605,
          "bathingSite": "STOKES BAY",
          "eventStart": "2022-12-18T20:27:52",
          "eventStop": "2022-12-19T04:47:47",
          "duration": 499,
          "status": "Genuine",
          "associatedSiteId": 109732,
          "outfallName": "PEEL COMMON",
          "isImpacting": true,
          "overFlowSiteId": 115426,
          "historicSpillsList": []
        }
      ]
    },
    {
      "id": 344797031,
      "eventId": 696670,
      "siteUnitNumber": 12567,
      "bathingSite": "FOLKESTONE",
      "eventStart": "2022-12-19T02:35:35",
      "eventStop": "2022-12-19T04:45:00",
      "duration": 129,
      "status": "Genuine",
      "associatedSiteId": 110010,
      "outfallName": "THE STADE FOLKESTONE",
      "isImpacting": true,
      "overFlowSiteId": 0,
      "historicSpillsList": [
        {
          "id": 344797031,
          "eventId": 696670,
          "siteUnitNumber": 12567,
          "bathingSite": "FOLKESTONE",
          "eventStart": "2022-12-19T02:35:35",
          "eventStop": "2022-12-19T04:45:00",
          "duration": 129,
          "status": "Genuine",
          "associatedSiteId": 110010,
          "outfallName": "THE STADE FOLKESTONE",
          "isImpacting": true,
          "overFlowSiteId": 108909
        }
      ]
    },
    {
      "id": 344785978,
      "eventId": 696421,
      "siteUnitNumber": 12568,
      "bathingSite": "SANDGATE",
      "eventStart": "2022-12-18T23:45:00",
      "eventStop": "2022-12-19T04:41:00",
      "duration": 296,
      "status": "Genuine",
      "associatedSiteId": 109897,
      "outfallName": "RANGE ROAD HYTHE K LONG",
      "isImpacting": true,
      "overFlowSiteId": 0,
      "historicSpillsList": [
        {
          "id": 344785978,
          "eventId": 696421,
          "siteUnitNumber": 12568,
          "bathingSite": "SANDGATE",
          "eventStart": "2022-12-18T23:45:00",
          "eventStop": "2022-12-19T04:41:00",
          "duration": 296,
          "status": "Genuine",
          "associatedSiteId": 109897,
          "outfallName": "RANGE ROAD HYTHE K LONG",
          "isImpacting": true,
          "overFlowSiteId": 116048
        },
        {
          "id": 344785979,
          "eventId": 696421,
          "siteUnitNumber": 12569,
          "bathingSite": "HYTHE",
          "eventStart": "2022-12-18T23:45:00",
          "eventStop": "2022-12-19T04:41:00",
          "duration": 296,
          "status": "Genuine",
          "associatedSiteId": 109897,
          "outfallName": "RANGE ROAD HYTHE K LONG",
          "isImpacting": true,
          "overFlowSiteId": 116048,
          "historicSpillsList": []
        }
      ]
    },
    {
      "id": 344770495,
      "eventId": 695524,
      "siteUnitNumber": 12616,
      "bathingSite": "GURNARD",
      "eventStart": "2022-12-18T16:06:00",
      "eventStop": "2022-12-19T04:32:00",
      "duration": 746,
      "status": "Genuine",
      "associatedSiteId": 109650,
      "outfallName": "MARSH ROAD GURNARD",
      "isImpacting": true,
      "overFlowSiteId": 0,
      "historicSpillsList": [
        {
          "id": 344770495,
          "eventId": 695524,
          "siteUnitNumber": 12616,
          "bathingSite": "GURNARD",
          "eventStart": "2022-12-18T16:06:00",
          "eventStop": "2022-12-19T04:32:00",
          "duration": 746,
          "status": "Genuine",
          "associatedSiteId": 109650,
          "outfallName": "MARSH ROAD GURNARD",
          "isImpacting": true,
          "overFlowSiteId": 107441
        }
      ]
    },
    {
      "id": 344793565,
      "eventId": 696073,
      "siteUnitNumber": 12595,
      "bathingSite": "BOGNOR REGIS (ALDWICK)",
      "eventStart": "2022-12-18T20:00:00",
      "eventStop": "2022-12-19T04:25:00",
      "duration": 505,
      "status": "Genuine",
      "associatedSiteId": 109959,
      "outfallName": "WEST PARK BOGNOR REGIS",
      "isImpacting": true,
      "overFlowSiteId": 0,
      "historicSpillsList": [
        {
          "id": 344793573,
          "eventId": 696073,
          "siteUnitNumber": 12594,
          "bathingSite": "BOGNOR REGIS EAST",
          "eventStart": "2022-12-18T20:00:00",
          "eventStop": "2022-12-19T04:25:00",
          "duration": 505,
          "status": "Genuine",
          "associatedSiteId": 109959,
          "outfallName": "WEST PARK BOGNOR REGIS",
          "isImpacting": true,
          "overFlowSiteId": 108160,
          "historicSpillsList": []
        }
      ]
    },
    {
      "id": 344783862,
      "eventId": 695894,
      "siteUnitNumber": 12579,
      "bathingSite": "PEVENSEY BAY",
      "eventStart": "2022-12-18T18:29:34",
      "eventStop": "2022-12-19T03:56:00",
      "duration": 566,
      "status": "Genuine",
      "associatedSiteId": 109889,
      "outfallName": "RATTLE ROAD WESTHAM",
      "isImpacting": false,
      "overFlowSiteId": 0,
      "historicSpillsList": []
    },
    {
      "id": 344783917,
      "eventId": 695932,
      "siteUnitNumber": 12579,
      "bathingSite": "PEVENSEY BAY",
      "eventStart": "2022-12-18T18:50:00",
      "eventStop": "2022-12-19T03:36:00",
      "duration": 526,
      "status": "Genuine",
      "associatedSiteId": 109891,
      "outfallName": "MONTAGUE WAY WESTHAM",
      "isImpacting": true,
      "overFlowSiteId": 0,
      "historicSpillsList": [
        {
          "id": 344783917,
          "eventId": 695932,
          "siteUnitNumber": 12579,
          "bathingSite": "PEVENSEY BAY",
          "eventStart": "2022-12-18T18:50:00",
          "eventStop": "2022-12-19T03:36:00",
          "duration": 526,
          "status": "Genuine",
          "associatedSiteId": 109891,
          "outfallName": "MONTAGUE WAY WESTHAM",
          "isImpacting": true,
          "overFlowSiteId": 108314
        }
      ]
    },
    {
      "id": 344791616,
      "eventId": 696443,
      "siteUnitNumber": 12582,
      "bathingSite": "SEAFORD",
      "eventStart": "2022-12-18T23:42:00",
      "eventStop": "2022-12-19T03:25:00",
      "duration": 223,
      "status": "Genuine",
      "associatedSiteId": 109957,
      "outfallName": "PORTOBELLO BRIGHTON NO2",
      "isImpacting": false,
      "overFlowSiteId": 0,
      "historicSpillsList": []
    },
    {
      "id": 344805183,
      "eventId": 698194,
      "siteUnitNumber": 12616,
      "bathingSite": "GURNARD",
      "eventStart": "2022-12-18T21:39:00",
      "eventStop": "2022-12-19T03:24:00",
      "duration": 345,
      "status": "Genuine",
      "associatedSiteId": 110701,
      "outfallName": "TERMINUS ROAD COWES 2",
      "isImpacting": true,
      "overFlowSiteId": 0,
      "historicSpillsList": [
        {
          "id": 344805183,
          "eventId": 698194,
          "siteUnitNumber": 12616,
          "bathingSite": "GURNARD",
          "eventStart": "2022-12-18T21:39:00",
          "eventStop": "2022-12-19T03:24:00",
          "duration": 345,
          "status": "Genuine",
          "associatedSiteId": 110701,
          "outfallName": "TERMINUS ROAD COWES 2",
          "isImpacting": true,
          "overFlowSiteId": 108563
        },
        {
          "id": 344805184,
          "eventId": 698194,
          "siteUnitNumber": 12617,
          "bathingSite": "COWES",
          "eventStart": "2022-12-18T21:39:00",
          "eventStop": "2022-12-19T03:24:00",
          "duration": 345,
          "status": "Genuine",
          "associatedSiteId": 110701,
          "outfallName": "TERMINUS ROAD COWES 2",
          "isImpacting": true,
          "overFlowSiteId": 108563,
          "historicSpillsList": []
        }
      ]
    },
    {
      "id": 344811975,
      "eventId": 698437,
      "siteUnitNumber": 12577,
      "bathingSite": "BEXHILL",
      "eventStart": "2022-12-18T17:52:00",
      "eventStop": "2022-12-19T03:16:00",
      "duration": 564,
      "status": "Genuine",
      "associatedSiteId": 115504,
      "outfallName": "HARTFIELD ROAD BEXHILL",
      "isImpacting": false,
      "overFlowSiteId": 0,
      "historicSpillsList": []
    },
    {
      "id": 344781846,
      "eventId": 696664,
      "siteUnitNumber": 12548,
      "bathingSite": "TANKERTON",
      "eventStart": "2022-12-19T02:29:27",
      "eventStop": "2022-12-19T03:12:23",
      "duration": 42,
      "status": "Not Genuine",
      "associatedSiteId": 109830,
      "outfallName": "SWALECLIFFE NO1",
      "isImpacting": false,
      "overFlowSiteId": 0,
      "historicSpillsList": []
    },
    {
      "id": 344774921,
      "eventId": 695411,
      "siteUnitNumber": 12616,
      "bathingSite": "GURNARD",
      "eventStart": "2022-12-18T14:45:00",
      "eventStop": "2022-12-19T03:00:00",
      "duration": 735,
      "status": "Genuine",
      "associatedSiteId": 109704,
      "outfallName": "EGYPT POINT COWES",
      "isImpacting": true,
      "overFlowSiteId": 0,
      "historicSpillsList": [
        {
          "id": 344774922,
          "eventId": 695411,
          "siteUnitNumber": 12617,
          "bathingSite": "COWES",
          "eventStart": "2022-12-18T14:45:00",
          "eventStop": "2022-12-19T03:00:00",
          "duration": 735,
          "status": "Genuine",
          "associatedSiteId": 109704,
          "outfallName": "EGYPT POINT COWES",
          "isImpacting": true,
          "overFlowSiteId": 116213,
          "historicSpillsList": []
        }
      ]
    },
    {
      "id": 344771337,
      "eventId": 696298,
      "siteUnitNumber": 12616,
      "bathingSite": "GURNARD",
      "eventStart": "2022-12-18T22:45:00",
      "eventStop": "2022-12-19T02:50:23",
      "duration": 245,
      "status": "Genuine",
      "associatedSiteId": 109652,
      "outfallName": "WOODVALE TRANSFER NO1",
      "isImpacting": true,
      "overFlowSiteId": 0,
      "historicSpillsList": [
        {
          "id": 344771337,
          "eventId": 696298,
          "siteUnitNumber": 12616,
          "bathingSite": "GURNARD",
          "eventStart": "2022-12-18T22:45:00",
          "eventStop": "2022-12-19T02:50:23",
          "duration": 245,
          "status": "Genuine",
          "associatedSiteId": 109652,
          "outfallName": "WOODVALE TRANSFER NO1",
          "isImpacting": true,
          "overFlowSiteId": 115966
        },
        {
          "id": 344771338,
          "eventId": 696298,
          "siteUnitNumber": 12617,
          "bathingSite": "COWES",
          "eventStart": "2022-12-18T22:45:00",
          "eventStop": "2022-12-19T02:50:23",
          "duration": 245,
          "status": "Genuine",
          "associatedSiteId": 109652,
          "outfallName": "WOODVALE TRANSFER NO1",
          "isImpacting": true,
          "overFlowSiteId": 115966,
          "historicSpillsList": []
        }
      ]
    },
    {
      "id": 344779402,
      "eventId": 696365,
      "siteUnitNumber": 12618,
      "bathingSite": "RYDE",
      "eventStart": "2022-12-18T23:19:03",
      "eventStop": "2022-12-19T02:46:34",
      "duration": 207,
      "status": "Genuine",
      "associatedSiteId": 109780,
      "outfallName": "LADIES WALK BINSTEAD",
      "isImpacting": true,
      "overFlowSiteId": 0,
      "historicSpillsList": [
        {
          "id": 344779402,
          "eventId": 696365,
          "siteUnitNumber": 12618,
          "bathingSite": "RYDE",
          "eventStart": "2022-12-18T23:19:03",
          "eventStop": "2022-12-19T02:46:34",
          "duration": 207,
          "status": "Genuine",
          "associatedSiteId": 109780,
          "outfallName": "LADIES WALK BINSTEAD",
          "isImpacting": true,
          "overFlowSiteId": 107406
        }
      ]
    },
    {
      "id": 344779657,
      "eventId": 695682,
      "siteUnitNumber": 12618,
      "bathingSite": "RYDE",
      "eventStart": "2022-12-18T17:45:00",
      "eventStop": "2022-12-19T02:41:00",
      "duration": 536,
      "status": "Genuine",
      "associatedSiteId": 109787,
      "outfallName": "SALTERNS ROAD SEAVIEW",
      "isImpacting": true,
      "overFlowSiteId": 0,
      "historicSpillsList": [
        {
          "id": 344779657,
          "eventId": 695682,
          "siteUnitNumber": 12618,
          "bathingSite": "RYDE",
          "eventStart": "2022-12-18T17:45:00",
          "eventStop": "2022-12-19T02:41:00",
          "duration": 536,
          "status": "Genuine",
          "associatedSiteId": 109787,
          "outfallName": "SALTERNS ROAD SEAVIEW",
          "isImpacting": true,
          "overFlowSiteId": 107411
        },
        {
          "id": 344779658,
          "eventId": 695682,
          "siteUnitNumber": 12619,
          "bathingSite": "SEAGROVE",
          "eventStart": "2022-12-18T17:45:00",
          "eventStop": "2022-12-19T02:41:00",
          "duration": 536,
          "status": "Genuine",
          "associatedSiteId": 109787,
          "outfallName": "SALTERNS ROAD SEAVIEW",
          "isImpacting": true,
          "overFlowSiteId": 107411,
          "historicSpillsList": []
        },
        {
          "id": 344779659,
          "eventId": 695682,
          "siteUnitNumber": 12620,
          "bathingSite": "ST HELENS",
          "eventStart": "2022-12-18T17:45:00",
          "eventStop": "2022-12-19T02:41:00",
          "duration": 536,
          "status": "Genuine",
          "associatedSiteId": 109787,
          "outfallName": "SALTERNS ROAD SEAVIEW",
          "isImpacting": true,
          "overFlowSiteId": 107411,
          "historicSpillsList": []
        }
      ]
    },
    {
      "id": 344806388,
      "eventId": 695304,
      "siteUnitNumber": 12582,
      "bathingSite": "SEAFORD",
      "eventStart": "2022-12-18T13:28:00",
      "eventStop": "2022-12-19T02:18:00",
      "duration": 770,
      "status": "Genuine",
      "associatedSiteId": 110920,
      "outfallName": "NEWHAVEN",
      "isImpacting": false,
      "overFlowSiteId": 0,
      "historicSpillsList": []
    },
    {
      "id": 344806934,
      "eventId": 696337,
      "siteUnitNumber": 12576,
      "bathingSite": "ST LEONARDS",
      "eventStart": "2022-12-18T23:05:06",
      "eventStop": "2022-12-19T02:16:00",
      "duration": 190,
      "status": "Genuine",
      "associatedSiteId": 111370,
      "outfallName": "YORK ROAD BEXHILL",
      "isImpacting": false,
      "overFlowSiteId": 0,
      "historicSpillsList": []
    },
    {
      "id": 344790358,
      "eventId": 696346,
      "siteUnitNumber": 12619,
      "bathingSite": "SEAGROVE",
      "eventStart": "2022-12-18T23:09:59",
      "eventStop": "2022-12-19T02:11:27",
      "duration": 181,
      "status": "Genuine",
      "associatedSiteId": 109938,
      "outfallName": "THE POINT BEMBRIDGE",
      "isImpacting": true,
      "overFlowSiteId": 0,
      "historicSpillsList": [
        {
          "id": 344790359,
          "eventId": 696346,
          "siteUnitNumber": 12620,
          "bathingSite": "ST HELENS",
          "eventStart": "2022-12-18T23:09:59",
          "eventStop": "2022-12-19T02:11:27",
          "duration": 181,
          "status": "Genuine",
          "associatedSiteId": 109938,
          "outfallName": "THE POINT BEMBRIDGE",
          "isImpacting": true,
          "overFlowSiteId": 110194,
          "historicSpillsList": []
        }
      ]
    },
    {
      "id": 344805187,
      "eventId": 695280,
      "siteUnitNumber": 12616,
      "bathingSite": "GURNARD",
      "eventStart": "2022-12-18T13:15:00",
      "eventStop": "2022-12-19T02:11:00",
      "duration": 776,
      "status": "Genuine",
      "associatedSiteId": 110701,
      "outfallName": "TERMINUS ROAD COWES 2",
      "isImpacting": true,
      "overFlowSiteId": 0,
      "historicSpillsList": [
        {
          "id": 344805187,
          "eventId": 695280,
          "siteUnitNumber": 12616,
          "bathingSite": "GURNARD",
          "eventStart": "2022-12-18T13:15:00",
          "eventStop": "2022-12-19T02:11:00",
          "duration": 776,
          "status": "Genuine",
          "associatedSiteId": 110701,
          "outfallName": "TERMINUS ROAD COWES 2",
          "isImpacting": true,
          "overFlowSiteId": 108562
        },
        {
          "id": 344805188,
          "eventId": 695280,
          "siteUnitNumber": 12617,
          "bathingSite": "COWES",
          "eventStart": "2022-12-18T13:15:00",
          "eventStop": "2022-12-19T02:11:00",
          "duration": 776,
          "status": "Genuine",
          "associatedSiteId": 110701,
          "outfallName": "TERMINUS ROAD COWES 2",
          "isImpacting": true,
          "overFlowSiteId": 108562,
          "historicSpillsList": []
        }
      ]
    },
    {
      "id": 344798706,
      "eventId": 696609,
      "siteUnitNumber": 12622,
      "bathingSite": "WHITECLIFF BAY",
      "eventStart": "2022-12-19T01:53:51",
      "eventStop": "2022-12-19T02:09:37",
      "duration": 15,
      "status": "Genuine",
      "associatedSiteId": 110096,
      "outfallName": "SANDOWN NO1",
      "isImpacting": true,
      "overFlowSiteId": 0,
      "historicSpillsList": [
        {
          "id": 344798706,
          "eventId": 696609,
          "siteUnitNumber": 12622,
          "bathingSite": "WHITECLIFF BAY",
          "eventStart": "2022-12-19T01:53:51",
          "eventStop": "2022-12-19T02:09:37",
          "duration": 15,
          "status": "Genuine",
          "associatedSiteId": 110096,
          "outfallName": "SANDOWN NO1",
          "isImpacting": true,
          "overFlowSiteId": 115453
        }
      ]
    },
    {
      "id": 344798710,
      "eventId": 696508,
      "siteUnitNumber": 12622,
      "bathingSite": "WHITECLIFF BAY",
      "eventStart": "2022-12-19T00:34:18",
      "eventStop": "2022-12-19T01:36:04",
      "duration": 61,
      "status": "Genuine",
      "associatedSiteId": 110096,
      "outfallName": "SANDOWN NO1",
      "isImpacting": true,
      "overFlowSiteId": 0,
      "historicSpillsList": [
        {
          "id": 344798710,
          "eventId": 696508,
          "siteUnitNumber": 12622,
          "bathingSite": "WHITECLIFF BAY",
          "eventStart": "2022-12-19T00:34:18",
          "eventStop": "2022-12-19T01:36:04",
          "duration": 61,
          "status": "Genuine",
          "associatedSiteId": 110096,
          "outfallName": "SANDOWN NO1",
          "isImpacting": true,
          "overFlowSiteId": 115453
        }
      ]
    },
    {
      "id": 344781511,
      "eventId": 698270,
      "siteUnitNumber": 12608,
      "bathingSite": "CALSHOT",
      "eventStart": "2022-12-19T00:29:00",
      "eventStop": "2022-12-19T01:20:00",
      "duration": 51,
      "status": "Genuine",
      "associatedSiteId": 109826,
      "outfallName": "ASHLETT CREEK FAWLEY",
      "isImpacting": true,
      "overFlowSiteId": 0,
      "historicSpillsList": [
        {
          "id": 344781511,
          "eventId": 698270,
          "siteUnitNumber": 12608,
          "bathingSite": "CALSHOT",
          "eventStart": "2022-12-19T00:29:00",
          "eventStop": "2022-12-19T01:20:00",
          "duration": 51,
          "status": "Genuine",
          "associatedSiteId": 109826,
          "outfallName": "ASHLETT CREEK FAWLEY",
          "isImpacting": true,
          "overFlowSiteId": 115372
        }
      ]
    }
  ]
}