{
  "currentPage": 643,
  "totalItems": 18701,
  "totalPages": 749,
  "items": [
    {
      "id": 344009680,
      "eventId": 461158,
      "siteUnitNumber": 12607,
      "bathingSite": "HILLHEAD",
      "eventStart": "2021-07-12T12:44:52",
      "eventStop": "2021-07-12T13:37:00",
      "duration": 52,
      "status": "Genuine",
      "associatedSiteId": 109716,
      "outfallName": "CROFTON TITCHFIELD",
      "isImpacting": true,
      "overFlowSiteId": 0,
      "historicSpillsList": [
        {
          "id": 344009680,
          "eventId": 461158,
          "siteUnitNumber": 12607,
          "bathingSite": "HILLHEAD",
          "eventStart": "2021-07-12T12:44:52",
          "eventStop": "2021-07-12T13:37:00",
          "duration": 52,
          "status": "Genuine",
          "associatedSiteId": 109716,
          "outfallName": "CROFTON TITCHFIELD",
          "isImpacting": true,
          "overFlowSiteId": 108420
        }
      ]
    },
    {
      "id": 344021530,
      "eventId": 460242,
      "siteUnitNumber": 12576,
      "bathingSite": "ST LEONARDS",
      "eventStart": "2021-07-12T11:27:29",
      "eventStop": "2021-07-12T12:01:55",
      "duration": 34,
      "status": "Genuine",
      "associatedSiteId": 109903,
      "outfallName": "BEXHILL & HASTINGS NO2",
      "isImpacting": true,
      "overFlowSiteId": 0,
      "historicSpillsList": [
        {
          "id": 344021530,
          "eventId": 460242,
          "siteUnitNumber": 12576,
          "bathingSite": "ST LEONARDS",
          "eventStart": "2021-07-12T11:27:29",
          "eventStop": "2021-07-12T12:01:55",
          "duration": 34,
          "status": "Genuine",
          "associatedSiteId": 109903,
          "outfallName": "BEXHILL & HASTINGS NO2",
          "isImpacting": true,
          "overFlowSiteId": 115398
        },
        {
          "id": 344021531,
          "eventId": 460242,
          "siteUnitNumber": 12577,
          "bathingSite": "BEXHILL",
          "eventStart": "2021-07-12T11:27:29",
          "eventStop": "2021-07-12T12:01:55",
          "duration": 34,
          "status": "Genuine",
          "associatedSiteId": 109903,
          "outfallName": "BEXHILL & HASTINGS NO2",
          "isImpacting": true,
          "overFlowSiteId": 115398,
          "historicSpillsList": []
        }
      ]
    },
    {
      "id": 344039916,
      "eventId": 460263,
      "siteUnitNumber": 12582,
      "bathingSite": "SEAFORD",
      "eventStart": "2021-07-12T10:40:45",
      "eventStop": "2021-07-12T11:23:06",
      "duration": 42,
      "status": "Genuine",
      "associatedSiteId": 110920,
      "outfallName": "NEWHAVEN",
      "isImpacting": true,
      "overFlowSiteId": 0,
      "historicSpillsList": [
        {
          "id": 344039916,
          "eventId": 460263,
          "siteUnitNumber": 12582,
          "bathingSite": "SEAFORD",
          "eventStart": "2021-07-12T10:40:45",
          "eventStop": "2021-07-12T11:23:06",
          "duration": 42,
          "status": "Genuine",
          "associatedSiteId": 110920,
          "outfallName": "NEWHAVEN",
          "isImpacting": true,
          "overFlowSiteId": 116065
        }
      ]
    },
    {
      "id": 344021538,
      "eventId": 460196,
      "siteUnitNumber": 12576,
      "bathingSite": "ST LEONARDS",
      "eventStart": "2021-07-12T10:27:53",
      "eventStop": "2021-07-12T11:21:50",
      "duration": 53,
      "status": "Genuine",
      "associatedSiteId": 109903,
      "outfallName": "BEXHILL & HASTINGS NO2",
      "isImpacting": true,
      "overFlowSiteId": 0,
      "historicSpillsList": [
        {
          "id": 344021538,
          "eventId": 460196,
          "siteUnitNumber": 12576,
          "bathingSite": "ST LEONARDS",
          "eventStart": "2021-07-12T10:27:53",
          "eventStop": "2021-07-12T11:21:50",
          "duration": 53,
          "status": "Genuine",
          "associatedSiteId": 109903,
          "outfallName": "BEXHILL & HASTINGS NO2",
          "isImpacting": true,
          "overFlowSiteId": 115398
        },
        {
          "id": 344021539,
          "eventId": 460196,
          "siteUnitNumber": 12577,
          "bathingSite": "BEXHILL",
          "eventStart": "2021-07-12T10:27:53",
          "eventStop": "2021-07-12T11:21:50",
          "duration": 53,
          "status": "Genuine",
          "associatedSiteId": 109903,
          "outfallName": "BEXHILL & HASTINGS NO2",
          "isImpacting": true,
          "overFlowSiteId": 115398,
          "historicSpillsList": []
        }
      ]
    },
    {
      "id": 344010783,
      "eventId": 460026,
      "siteUnitNumber": 12607,
      "bathingSite": "HILLHEAD",
      "eventStart": "2021-07-12T05:37:51",
      "eventStop": "2021-07-12T10:56:00",
      "duration": 318,
      "status": "Genuine",
      "associatedSiteId": 109751,
      "outfallName": "HOOK PARK NO.1",
      "isImpacting": true,
      "overFlowSiteId": 0,
      "historicSpillsList": [
        {
          "id": 344010783,
          "eventId": 460026,
          "siteUnitNumber": 12607,
          "bathingSite": "HILLHEAD",
          "eventStart": "2021-07-12T05:37:51",
          "eventStop": "2021-07-12T10:56:00",
          "duration": 318,
          "status": "Genuine",
          "associatedSiteId": 109751,
          "outfallName": "HOOK PARK NO.1",
          "isImpacting": true,
          "overFlowSiteId": 111291
        }
      ]
    },
    {
      "id": 344045622,
      "eventId": 460027,
      "siteUnitNumber": 12607,
      "bathingSite": "HILLHEAD",
      "eventStart": "2021-07-12T05:39:51",
      "eventStop": "2021-07-12T10:34:00",
      "duration": 294,
      "status": "Genuine",
      "associatedSiteId": 116111,
      "outfallName": "HOOK PARK NO.2",
      "isImpacting": true,
      "overFlowSiteId": 0,
      "historicSpillsList": [
        {
          "id": 344045622,
          "eventId": 460027,
          "siteUnitNumber": 12607,
          "bathingSite": "HILLHEAD",
          "eventStart": "2021-07-12T05:39:51",
          "eventStop": "2021-07-12T10:34:00",
          "duration": 294,
          "status": "Genuine",
          "associatedSiteId": 116111,
          "outfallName": "HOOK PARK NO.2",
          "isImpacting": true,
          "overFlowSiteId": 108444
        }
      ]
    },
    {
      "id": 344039915,
      "eventId": 460193,
      "siteUnitNumber": 12582,
      "bathingSite": "SEAFORD",
      "eventStart": "2021-07-12T10:08:29",
      "eventStop": "2021-07-12T10:30:55",
      "duration": 22,
      "status": "Genuine",
      "associatedSiteId": 110920,
      "outfallName": "NEWHAVEN",
      "isImpacting": true,
      "overFlowSiteId": 0,
      "historicSpillsList": [
        {
          "id": 344039915,
          "eventId": 460193,
          "siteUnitNumber": 12582,
          "bathingSite": "SEAFORD",
          "eventStart": "2021-07-12T10:08:29",
          "eventStop": "2021-07-12T10:30:55",
          "duration": 22,
          "status": "Genuine",
          "associatedSiteId": 110920,
          "outfallName": "NEWHAVEN",
          "isImpacting": true,
          "overFlowSiteId": 116065
        }
      ]
    },
    {
      "id": 344015594,
      "eventId": 460112,
      "siteUnitNumber": 12548,
      "bathingSite": "TANKERTON",
      "eventStart": "2021-07-12T08:22:08",
      "eventStop": "2021-07-12T10:03:00",
      "duration": 100,
      "status": "Genuine",
      "associatedSiteId": 109830,
      "outfallName": "SWALECLIFFE NO1",
      "isImpacting": true,
      "overFlowSiteId": 0,
      "historicSpillsList": [
        {
          "id": 344015594,
          "eventId": 460112,
          "siteUnitNumber": 12548,
          "bathingSite": "TANKERTON",
          "eventStart": "2021-07-12T08:22:08",
          "eventStop": "2021-07-12T10:03:00",
          "duration": 100,
          "status": "Genuine",
          "associatedSiteId": 109830,
          "outfallName": "SWALECLIFFE NO1",
          "isImpacting": true,
          "overFlowSiteId": 115444
        },
        {
          "id": 344015595,
          "eventId": 460112,
          "siteUnitNumber": 12549,
          "bathingSite": "HERNE BAY CENTRAL",
          "eventStart": "2021-07-12T08:22:08",
          "eventStop": "2021-07-12T10:03:00",
          "duration": 100,
          "status": "Genuine",
          "associatedSiteId": 109830,
          "outfallName": "SWALECLIFFE NO1",
          "isImpacting": true,
          "overFlowSiteId": 115444,
          "historicSpillsList": []
        }
      ]
    },
    {
      "id": 344039529,
      "eventId": 459911,
      "siteUnitNumber": 12620,
      "bathingSite": "ST HELENS",
      "eventStart": "2021-07-12T03:53:26",
      "eventStop": "2021-07-12T09:52:31",
      "duration": 359,
      "status": "Genuine",
      "associatedSiteId": 110761,
      "outfallName": "BRADING",
      "isImpacting": true,
      "overFlowSiteId": 0,
      "historicSpillsList": [
        {
          "id": 344039529,
          "eventId": 459911,
          "siteUnitNumber": 12620,
          "bathingSite": "ST HELENS",
          "eventStart": "2021-07-12T03:53:26",
          "eventStop": "2021-07-12T09:52:31",
          "duration": 359,
          "status": "Genuine",
          "associatedSiteId": 110761,
          "outfallName": "BRADING",
          "isImpacting": true,
          "overFlowSiteId": 113676
        }
      ]
    },
    {
      "id": 344030441,
      "eventId": 460085,
      "siteUnitNumber": 12567,
      "bathingSite": "FOLKESTONE",
      "eventStart": "2021-07-12T07:00:32",
      "eventStop": "2021-07-12T09:47:53",
      "duration": 167,
      "status": "Genuine",
      "associatedSiteId": 110010,
      "outfallName": "THE STADE FOLKESTONE",
      "isImpacting": true,
      "overFlowSiteId": 0,
      "historicSpillsList": [
        {
          "id": 344030441,
          "eventId": 460085,
          "siteUnitNumber": 12567,
          "bathingSite": "FOLKESTONE",
          "eventStart": "2021-07-12T07:00:32",
          "eventStop": "2021-07-12T09:47:53",
          "duration": 167,
          "status": "Genuine",
          "associatedSiteId": 110010,
          "outfallName": "THE STADE FOLKESTONE",
          "isImpacting": true,
          "overFlowSiteId": 108909
        }
      ]
    },
    {
      "id": 344021536,
      "eventId": 460201,
      "siteUnitNumber": 12576,
      "bathingSite": "ST LEONARDS",
      "eventStart": "2021-07-12T08:57:00",
      "eventStop": "2021-07-12T09:39:00",
      "duration": 42,
      "status": "Genuine",
      "associatedSiteId": 109903,
      "outfallName": "BEXHILL & HASTINGS NO2",
      "isImpacting": true,
      "overFlowSiteId": 0,
      "historicSpillsList": [
        {
          "id": 344021536,
          "eventId": 460201,
          "siteUnitNumber": 12576,
          "bathingSite": "ST LEONARDS",
          "eventStart": "2021-07-12T08:57:00",
          "eventStop": "2021-07-12T09:39:00",
          "duration": 42,
          "status": "Genuine",
          "associatedSiteId": 109903,
          "outfallName": "BEXHILL & HASTINGS NO2",
          "isImpacting": true,
          "overFlowSiteId": 115398
        },
        {
          "id": 344021537,
          "eventId": 460201,
          "siteUnitNumber": 12577,
          "bathingSite": "BEXHILL",
          "eventStart": "2021-07-12T08:57:00",
          "eventStop": "2021-07-12T09:39:00",
          "duration": 42,
          "status": "Genuine",
          "associatedSiteId": 109903,
          "outfallName": "BEXHILL & HASTINGS NO2",
          "isImpacting": true,
          "overFlowSiteId": 115398,
          "historicSpillsList": []
        }
      ]
    },
    {
      "id": 344021534,
      "eventId": 460200,
      "siteUnitNumber": 12576,
      "bathingSite": "ST LEONARDS",
      "eventStart": "2021-07-12T07:18:00",
      "eventStop": "2021-07-12T08:45:00",
      "duration": 87,
      "status": "Genuine",
      "associatedSiteId": 109903,
      "outfallName": "BEXHILL & HASTINGS NO2",
      "isImpacting": true,
      "overFlowSiteId": 0,
      "historicSpillsList": [
        {
          "id": 344021534,
          "eventId": 460200,
          "siteUnitNumber": 12576,
          "bathingSite": "ST LEONARDS",
          "eventStart": "2021-07-12T07:18:00",
          "eventStop": "2021-07-12T08:45:00",
          "duration": 87,
          "status": "Genuine",
          "associatedSiteId": 109903,
          "outfallName": "BEXHILL & HASTINGS NO2",
          "isImpacting": true,
          "overFlowSiteId": 115398
        },
        {
          "id": 344021535,
          "eventId": 460200,
          "siteUnitNumber": 12577,
          "bathingSite": "BEXHILL",
          "eventStart": "2021-07-12T07:18:00",
          "eventStop": "2021-07-12T08:45:00",
          "duration": 87,
          "status": "Genuine",
          "associatedSiteId": 109903,
          "outfallName": "BEXHILL & HASTINGS NO2",
          "isImpacting": true,
          "overFlowSiteId": 115398,
          "historicSpillsList": []
        }
      ]
    },
    {
      "id": 344003594,
      "eventId": 460228,
      "siteUnitNumber": 12544,
      "bathingSite": "SHEERNESS",
      "eventStart": "2021-07-12T08:17:00",
      "eventStop": "2021-07-12T08:21:00",
      "duration": 4,
      "status": "Genuine",
      "associatedSiteId": 109616,
      "outfallName": "SOUTH STREET QUEENBOROUGH",
      "isImpacting": true,
      "overFlowSiteId": 0,
      "historicSpillsList": [
        {
          "id": 344003594,
          "eventId": 460228,
          "siteUnitNumber": 12544,
          "bathingSite": "SHEERNESS",
          "eventStart": "2021-07-12T08:17:00",
          "eventStop": "2021-07-12T08:21:00",
          "duration": 4,
          "status": "Genuine",
          "associatedSiteId": 109616,
          "outfallName": "SOUTH STREET QUEENBOROUGH",
          "isImpacting": true,
          "overFlowSiteId": 108732
        }
      ]
    },
    {
      "id": 344003596,
      "eventId": 460227,
      "siteUnitNumber": 12544,
      "bathingSite": "SHEERNESS",
      "eventStart": "2021-07-12T05:46:00",
      "eventStop": "2021-07-12T08:10:00",
      "duration": 144,
      "status": "Genuine",
      "associatedSiteId": 109616,
      "outfallName": "SOUTH STREET QUEENBOROUGH",
      "isImpacting": true,
      "overFlowSiteId": 0,
      "historicSpillsList": [
        {
          "id": 344003596,
          "eventId": 460227,
          "siteUnitNumber": 12544,
          "bathingSite": "SHEERNESS",
          "eventStart": "2021-07-12T05:46:00",
          "eventStop": "2021-07-12T08:10:00",
          "duration": 144,
          "status": "Genuine",
          "associatedSiteId": 109616,
          "outfallName": "SOUTH STREET QUEENBOROUGH",
          "isImpacting": true,
          "overFlowSiteId": 108732
        }
      ]
    },
    {
      "id": 344008791,
      "eventId": 460022,
      "siteUnitNumber": 12616,
      "bathingSite": "GURNARD",
      "eventStart": "2021-07-12T05:30:00",
      "eventStop": "2021-07-12T07:53:00",
      "duration": 143,
      "status": "Genuine",
      "associatedSiteId": 109705,
      "outfallName": "SPRINGHILL COWES TRANSFER",
      "isImpacting": true,
      "overFlowSiteId": 0,
      "historicSpillsList": [
        {
          "id": 344008791,
          "eventId": 460022,
          "siteUnitNumber": 12616,
          "bathingSite": "GURNARD",
          "eventStart": "2021-07-12T05:30:00",
          "eventStop": "2021-07-12T07:53:00",
          "duration": 143,
          "status": "Genuine",
          "associatedSiteId": 109705,
          "outfallName": "SPRINGHILL COWES TRANSFER",
          "isImpacting": true,
          "overFlowSiteId": 108943
        },
        {
          "id": 344008792,
          "eventId": 460022,
          "siteUnitNumber": 12617,
          "bathingSite": "COWES",
          "eventStart": "2021-07-12T05:30:00",
          "eventStop": "2021-07-12T07:53:00",
          "duration": 143,
          "status": "Genuine",
          "associatedSiteId": 109705,
          "outfallName": "SPRINGHILL COWES TRANSFER",
          "isImpacting": true,
          "overFlowSiteId": 108943,
          "historicSpillsList": []
        }
      ]
    },
    {
      "id": 344013563,
      "eventId": 460086,
      "siteUnitNumber": 12567,
      "bathingSite": "FOLKESTONE",
      "eventStart": "2021-07-12T07:07:12",
      "eventStop": "2021-07-12T07:38:35",
      "duration": 31,
      "status": "Genuine",
      "associatedSiteId": 109794,
      "outfallName": "GRANVILLE PARADE SANDGATE",
      "isImpacting": true,
      "overFlowSiteId": 0,
      "historicSpillsList": [
        {
          "id": 344013563,
          "eventId": 460086,
          "siteUnitNumber": 12567,
          "bathingSite": "FOLKESTONE",
          "eventStart": "2021-07-12T07:07:12",
          "eventStop": "2021-07-12T07:38:35",
          "duration": 31,
          "status": "Genuine",
          "associatedSiteId": 109794,
          "outfallName": "GRANVILLE PARADE SANDGATE",
          "isImpacting": true,
          "overFlowSiteId": 108642
        },
        {
          "id": 344013564,
          "eventId": 460086,
          "siteUnitNumber": 12568,
          "bathingSite": "SANDGATE",
          "eventStart": "2021-07-12T07:07:12",
          "eventStop": "2021-07-12T07:38:35",
          "duration": 31,
          "status": "Genuine",
          "associatedSiteId": 109794,
          "outfallName": "GRANVILLE PARADE SANDGATE",
          "isImpacting": true,
          "overFlowSiteId": 108642,
          "historicSpillsList": []
        }
      ]
    },
    {
      "id": 344003469,
      "eventId": 460019,
      "siteUnitNumber": 12544,
      "bathingSite": "SHEERNESS",
      "eventStart": "2021-07-12T05:24:38",
      "eventStop": "2021-07-12T06:51:00",
      "duration": 86,
      "status": "Genuine",
      "associatedSiteId": 109614,
      "outfallName": "BRIELLE WAY WESTMINSTER",
      "isImpacting": true,
      "overFlowSiteId": 0,
      "historicSpillsList": [
        {
          "id": 344003469,
          "eventId": 460019,
          "siteUnitNumber": 12544,
          "bathingSite": "SHEERNESS",
          "eventStart": "2021-07-12T05:24:38",
          "eventStop": "2021-07-12T06:51:00",
          "duration": 86,
          "status": "Genuine",
          "associatedSiteId": 109614,
          "outfallName": "BRIELLE WAY WESTMINSTER",
          "isImpacting": true,
          "overFlowSiteId": 108810
        }
      ]
    },
    {
      "id": 344021540,
      "eventId": 460199,
      "siteUnitNumber": 12576,
      "bathingSite": "ST LEONARDS",
      "eventStart": "2021-07-12T00:59:00",
      "eventStop": "2021-07-12T06:48:00",
      "duration": 349,
      "status": "Genuine",
      "associatedSiteId": 109903,
      "outfallName": "BEXHILL & HASTINGS NO2",
      "isImpacting": true,
      "overFlowSiteId": 0,
      "historicSpillsList": [
        {
          "id": 344021540,
          "eventId": 460199,
          "siteUnitNumber": 12576,
          "bathingSite": "ST LEONARDS",
          "eventStart": "2021-07-12T00:59:00",
          "eventStop": "2021-07-12T06:48:00",
          "duration": 349,
          "status": "Genuine",
          "associatedSiteId": 109903,
          "outfallName": "BEXHILL & HASTINGS NO2",
          "isImpacting": true,
          "overFlowSiteId": 115398
        },
        {
          "id": 344021541,
          "eventId": 460199,
          "siteUnitNumber": 12577,
          "bathingSite": "BEXHILL",
          "eventStart": "2021-07-12T00:59:00",
          "eventStop": "2021-07-12T06:48:00",
          "duration": 349,
          "status": "Genuine",
          "associatedSiteId": 109903,
          "outfallName": "BEXHILL & HASTINGS NO2",
          "isImpacting": true,
          "overFlowSiteId": 115398,
          "historicSpillsList": []
        }
      ]
    },
    {
      "id": 344009669,
      "eventId": 460024,
      "siteUnitNumber": 12607,
      "bathingSite": "HILLHEAD",
      "eventStart": "2021-07-12T05:33:37",
      "eventStop": "2021-07-12T05:54:40",
      "duration": 21,
      "status": "Genuine",
      "associatedSiteId": 109715,
      "outfallName": "SALTERNS ROAD HILL HEAD",
      "isImpacting": true,
      "overFlowSiteId": 0,
      "historicSpillsList": [
        {
          "id": 344009669,
          "eventId": 460024,
          "siteUnitNumber": 12607,
          "bathingSite": "HILLHEAD",
          "eventStart": "2021-07-12T05:33:37",
          "eventStop": "2021-07-12T05:54:40",
          "duration": 21,
          "status": "Genuine",
          "associatedSiteId": 109715,
          "outfallName": "SALTERNS ROAD HILL HEAD",
          "isImpacting": true,
          "overFlowSiteId": 108441
        },
        {
          "id": 344009670,
          "eventId": 460024,
          "siteUnitNumber": 12606,
          "bathingSite": "LEE-ON-SOLENT",
          "eventStart": "2021-07-12T05:33:37",
          "eventStop": "2021-07-12T05:54:40",
          "duration": 21,
          "status": "Genuine",
          "associatedSiteId": 109715,
          "outfallName": "SALTERNS ROAD HILL HEAD",
          "isImpacting": true,
          "overFlowSiteId": 108441,
          "historicSpillsList": []
        }
      ]
    },
    {
      "id": 344012684,
      "eventId": 459838,
      "siteUnitNumber": 12618,
      "bathingSite": "RYDE",
      "eventStart": "2021-07-12T05:00:00",
      "eventStop": "2021-07-12T05:50:00",
      "duration": 50,
      "status": "Genuine",
      "associatedSiteId": 109778,
      "outfallName": "PRINCE CONSORT RYDE NEW",
      "isImpacting": true,
      "overFlowSiteId": 0,
      "historicSpillsList": [
        {
          "id": 344012684,
          "eventId": 459838,
          "siteUnitNumber": 12618,
          "bathingSite": "RYDE",
          "eventStart": "2021-07-12T05:00:00",
          "eventStop": "2021-07-12T05:50:00",
          "duration": 50,
          "status": "Genuine",
          "associatedSiteId": 109778,
          "outfallName": "PRINCE CONSORT RYDE NEW",
          "isImpacting": true,
          "overFlowSiteId": 108043
        }
      ]
    },
    {
      "id": 344039919,
      "eventId": 459817,
      "siteUnitNumber": 12582,
      "bathingSite": "SEAFORD",
      "eventStart": "2021-07-12T01:29:28",
      "eventStop": "2021-07-12T05:41:24",
      "duration": 251,
      "status": "Genuine",
      "associatedSiteId": 110920,
      "outfallName": "NEWHAVEN",
      "isImpacting": true,
      "overFlowSiteId": 0,
      "historicSpillsList": [
        {
          "id": 344039919,
          "eventId": 459817,
          "siteUnitNumber": 12582,
          "bathingSite": "SEAFORD",
          "eventStart": "2021-07-12T01:29:28",
          "eventStop": "2021-07-12T05:41:24",
          "duration": 251,
          "status": "Genuine",
          "associatedSiteId": 110920,
          "outfallName": "NEWHAVEN",
          "isImpacting": true,
          "overFlowSiteId": 116065
        }
      ]
    },
    {
      "id": 344012814,
      "eventId": 459954,
      "siteUnitNumber": 12618,
      "bathingSite": "RYDE",
      "eventStart": "2021-07-12T04:22:10",
      "eventStop": "2021-07-12T05:35:28",
      "duration": 73,
      "status": "Genuine",
      "associatedSiteId": 109780,
      "outfallName": "LADIES WALK BINSTEAD",
      "isImpacting": true,
      "overFlowSiteId": 0,
      "historicSpillsList": [
        {
          "id": 344012814,
          "eventId": 459954,
          "siteUnitNumber": 12618,
          "bathingSite": "RYDE",
          "eventStart": "2021-07-12T04:22:10",
          "eventStop": "2021-07-12T05:35:28",
          "duration": 73,
          "status": "Genuine",
          "associatedSiteId": 109780,
          "outfallName": "LADIES WALK BINSTEAD",
          "isImpacting": true,
          "overFlowSiteId": 107406
        }
      ]
    },
    {
      "id": 344003598,
      "eventId": 460061,
      "siteUnitNumber": 12544,
      "bathingSite": "SHEERNESS",
      "eventStart": "2021-07-12T05:23:00",
      "eventStop": "2021-07-12T05:33:00",
      "duration": 10,
      "status": "Genuine",
      "associatedSiteId": 109616,
      "outfallName": "SOUTH STREET QUEENBOROUGH",
      "isImpacting": true,
      "overFlowSiteId": 0,
      "historicSpillsList": [
        {
          "id": 344003598,
          "eventId": 460061,
          "siteUnitNumber": 12544,
          "bathingSite": "SHEERNESS",
          "eventStart": "2021-07-12T05:23:00",
          "eventStop": "2021-07-12T05:33:00",
          "duration": 10,
          "status": "Genuine",
          "associatedSiteId": 109616,
          "outfallName": "SOUTH STREET QUEENBOROUGH",
          "isImpacting": true,
          "overFlowSiteId": 108732
        }
      ]
    },
    {
      "id": 344003597,
      "eventId": 460060,
      "siteUnitNumber": 12544,
      "bathingSite": "SHEERNESS",
      "eventStart": "2021-07-12T05:14:00",
      "eventStop": "2021-07-12T05:19:00",
      "duration": 5,
      "status": "Genuine",
      "associatedSiteId": 109616,
      "outfallName": "SOUTH STREET QUEENBOROUGH",
      "isImpacting": true,
      "overFlowSiteId": 0,
      "historicSpillsList": [
        {
          "id": 344003597,
          "eventId": 460060,
          "siteUnitNumber": 12544,
          "bathingSite": "SHEERNESS",
          "eventStart": "2021-07-12T05:14:00",
          "eventStop": "2021-07-12T05:19:00",
          "duration": 5,
          "status": "Genuine",
          "associatedSiteId": 109616,
          "outfallName": "SOUTH STREET QUEENBOROUGH",
          "isImpacting": true,
          "overFlowSiteId": 108732
        }
      ]
    },
    {
      "id": 344005485,
      "eventId": 459988,
      "siteUnitNumber": 12616,
      "bathingSite": "GURNARD",
      "eventStart": "2021-07-12T05:09:18",
      "eventStop": "2021-07-12T05:16:00",
      "duration": 6,
      "status": "Genuine",
      "associatedSiteId": 109652,
      "outfallName": "WOODVALE TRANSFER NO1",
      "isImpacting": true,
      "overFlowSiteId": 0,
      "historicSpillsList": [
        {
          "id": 344005485,
          "eventId": 459988,
          "siteUnitNumber": 12616,
          "bathingSite": "GURNARD",
          "eventStart": "2021-07-12T05:09:18",
          "eventStop": "2021-07-12T05:16:00",
          "duration": 6,
          "status": "Genuine",
          "associatedSiteId": 109652,
          "outfallName": "WOODVALE TRANSFER NO1",
          "isImpacting": true,
          "overFlowSiteId": 115966
        },
        {
          "id": 344005486,
          "eventId": 459988,
          "siteUnitNumber": 12617,
          "bathingSite": "COWES",
          "eventStart": "2021-07-12T05:09:18",
          "eventStop": "2021-07-12T05:16:00",
          "duration": 6,
          "status": "Genuine",
          "associatedSiteId": 109652,
          "outfallName": "WOODVALE TRANSFER NO1",
          "isImpacting": true,
          "overFlowSiteId": 115966,
          "historicSpillsList": []
        }
      ]
    }
  ]
}