{
  "currentPage": 450,
  "totalItems": 18701,
  "totalPages": 749,
  "items": [
    {
      "id": 344003017,
      "eventId": 658215,
      "siteUnitNumber": 12662,
      "bathingSite": "CHICHESTER HARBOUR",
      "eventStart": "2022-11-06T09:30:00",
      "eventStop": "2022-11-07T01:15:05",
      "duration": 945,
      "status": "Genuine",
      "associatedSiteId": 116108,
      "outfallName": "TAYLORS LANE BOSHAM PS PUMPED",
      "isImpacting": true,
      "overFlowSiteId": 0,
      "historicSpillsList": [
        {
          "id": 344003017,
          "eventId": 658215,
          "siteUnitNumber": 12662,
          "bathingSite": "CHICHESTER HARBOUR",
          "eventStart": "2022-11-06T09:30:00",
          "eventStop": "2022-11-07T01:15:05",
          "duration": 945,
          "status": "Genuine",
          "associatedSiteId": 116108,
          "outfallName": "TAYLORS LANE BOSHAM PS PUMPED",
          "isImpacting": true,
          "overFlowSiteId": 116066
        }
      ]
    },
    {
      "id": 343971184,
      "eventId": 658028,
      "siteUnitNumber": 12661,
      "bathingSite": "LANGSTONE HARBOUR",
      "eventStart": "2022-11-06T07:32:59",
      "eventStop": "2022-11-07T00:36:00",
      "duration": 1023,
      "status": "Genuine",
      "associatedSiteId": 109819,
      "outfallName": "COURT LANE COSHAM",
      "isImpacting": true,
      "overFlowSiteId": 0,
      "historicSpillsList": [
        {
          "id": 343971184,
          "eventId": 658028,
          "siteUnitNumber": 12661,
          "bathingSite": "LANGSTONE HARBOUR",
          "eventStart": "2022-11-06T07:32:59",
          "eventStop": "2022-11-07T00:36:00",
          "duration": 1023,
          "status": "Genuine",
          "associatedSiteId": 109819,
          "outfallName": "COURT LANE COSHAM",
          "isImpacting": true,
          "overFlowSiteId": 115958
        }
      ]
    },
    {
      "id": 343972709,
      "eventId": 658101,
      "siteUnitNumber": 12548,
      "bathingSite": "TANKERTON",
      "eventStart": "2022-11-06T08:22:37",
      "eventStop": "2022-11-06T23:56:45",
      "duration": 934,
      "status": "Genuine",
      "associatedSiteId": 109830,
      "outfallName": "SWALECLIFFE NO1",
      "isImpacting": true,
      "overFlowSiteId": 0,
      "historicSpillsList": [
        {
          "id": 343972709,
          "eventId": 658101,
          "siteUnitNumber": 12548,
          "bathingSite": "TANKERTON",
          "eventStart": "2022-11-06T08:22:37",
          "eventStop": "2022-11-06T23:56:45",
          "duration": 934,
          "status": "Genuine",
          "associatedSiteId": 109830,
          "outfallName": "SWALECLIFFE NO1",
          "isImpacting": true,
          "overFlowSiteId": 115444
        },
        {
          "id": 343972710,
          "eventId": 658101,
          "siteUnitNumber": 12549,
          "bathingSite": "HERNE BAY CENTRAL",
          "eventStart": "2022-11-06T08:22:37",
          "eventStop": "2022-11-06T23:56:45",
          "duration": 934,
          "status": "Genuine",
          "associatedSiteId": 109830,
          "outfallName": "SWALECLIFFE NO1",
          "isImpacting": true,
          "overFlowSiteId": 115444,
          "historicSpillsList": []
        }
      ]
    },
    {
      "id": 344000630,
      "eventId": 657465,
      "siteUnitNumber": 12614,
      "bathingSite": "TOTLAND BAY",
      "eventStart": "2022-11-05T19:09:00",
      "eventStop": "2022-11-06T23:06:00",
      "duration": 1677,
      "status": "Genuine",
      "associatedSiteId": 115498,
      "outfallName": "NORTON TRANSFER IOW",
      "isImpacting": true,
      "overFlowSiteId": 0,
      "historicSpillsList": [
        {
          "id": 344000630,
          "eventId": 657465,
          "siteUnitNumber": 12614,
          "bathingSite": "TOTLAND BAY",
          "eventStart": "2022-11-05T19:09:00",
          "eventStop": "2022-11-06T23:06:00",
          "duration": 1677,
          "status": "Genuine",
          "associatedSiteId": 115498,
          "outfallName": "NORTON TRANSFER IOW",
          "isImpacting": true,
          "overFlowSiteId": 109524
        },
        {
          "id": 344000631,
          "eventId": 657465,
          "siteUnitNumber": 12615,
          "bathingSite": "COLWELL BAY",
          "eventStart": "2022-11-05T19:09:00",
          "eventStop": "2022-11-06T23:06:00",
          "duration": 1677,
          "status": "Genuine",
          "associatedSiteId": 115498,
          "outfallName": "NORTON TRANSFER IOW",
          "isImpacting": true,
          "overFlowSiteId": 109524,
          "historicSpillsList": []
        }
      ]
    },
    {
      "id": 343968526,
      "eventId": 657054,
      "siteUnitNumber": 12661,
      "bathingSite": "LANGSTONE HARBOUR",
      "eventStart": "2022-11-06T14:23:00",
      "eventStop": "2022-11-06T22:20:00",
      "duration": 477,
      "status": "Genuine",
      "associatedSiteId": 109773,
      "outfallName": "BUDDS FARM HAVANT NO2",
      "isImpacting": true,
      "overFlowSiteId": 0,
      "historicSpillsList": [
        {
          "id": 343968526,
          "eventId": 657054,
          "siteUnitNumber": 12661,
          "bathingSite": "LANGSTONE HARBOUR",
          "eventStart": "2022-11-06T14:23:00",
          "eventStop": "2022-11-06T22:20:00",
          "duration": 477,
          "status": "Genuine",
          "associatedSiteId": 109773,
          "outfallName": "BUDDS FARM HAVANT NO2",
          "isImpacting": true,
          "overFlowSiteId": 116279
        }
      ]
    },
    {
      "id": 343974262,
      "eventId": 659435,
      "siteUnitNumber": 12662,
      "bathingSite": "CHICHESTER HARBOUR",
      "eventStart": "2022-11-06T21:57:39",
      "eventStop": "2022-11-06T22:15:00",
      "duration": 17,
      "status": "Genuine",
      "associatedSiteId": 109836,
      "outfallName": "CHICHESTER",
      "isImpacting": true,
      "overFlowSiteId": 0,
      "historicSpillsList": [
        {
          "id": 343974262,
          "eventId": 659435,
          "siteUnitNumber": 12662,
          "bathingSite": "CHICHESTER HARBOUR",
          "eventStart": "2022-11-06T21:57:39",
          "eventStop": "2022-11-06T22:15:00",
          "duration": 17,
          "status": "Genuine",
          "associatedSiteId": 109836,
          "outfallName": "CHICHESTER",
          "isImpacting": true,
          "overFlowSiteId": 115401
        }
      ]
    },
    {
      "id": 343997803,
      "eventId": 664987,
      "siteUnitNumber": 12662,
      "bathingSite": "CHICHESTER HARBOUR",
      "eventStart": "2022-11-06T09:00:00",
      "eventStop": "2022-11-06T22:13:00",
      "duration": 793,
      "status": "Genuine",
      "associatedSiteId": 111600,
      "outfallName": "MILL LANE FISHBOURNE",
      "isImpacting": true,
      "overFlowSiteId": 0,
      "historicSpillsList": [
        {
          "id": 343997803,
          "eventId": 664987,
          "siteUnitNumber": 12662,
          "bathingSite": "CHICHESTER HARBOUR",
          "eventStart": "2022-11-06T09:00:00",
          "eventStop": "2022-11-06T22:13:00",
          "duration": 793,
          "status": "Genuine",
          "associatedSiteId": 111600,
          "outfallName": "MILL LANE FISHBOURNE",
          "isImpacting": true,
          "overFlowSiteId": 111371
        }
      ]
    },
    {
      "id": 343964835,
      "eventId": 659574,
      "siteUnitNumber": 12616,
      "bathingSite": "GURNARD",
      "eventStart": "2022-11-06T20:55:41",
      "eventStop": "2022-11-06T21:56:00",
      "duration": 60,
      "status": "Genuine",
      "associatedSiteId": 109700,
      "outfallName": "MARKET HILL COWES",
      "isImpacting": false,
      "overFlowSiteId": 0,
      "historicSpillsList": []
    },
    {
      "id": 343972316,
      "eventId": 658239,
      "siteUnitNumber": 12608,
      "bathingSite": "CALSHOT",
      "eventStart": "2022-11-06T09:31:00",
      "eventStop": "2022-11-06T21:53:00",
      "duration": 742,
      "status": "Genuine",
      "associatedSiteId": 109826,
      "outfallName": "ASHLETT CREEK FAWLEY",
      "isImpacting": true,
      "overFlowSiteId": 0,
      "historicSpillsList": [
        {
          "id": 343972316,
          "eventId": 658239,
          "siteUnitNumber": 12608,
          "bathingSite": "CALSHOT",
          "eventStart": "2022-11-06T09:31:00",
          "eventStop": "2022-11-06T21:53:00",
          "duration": 742,
          "status": "Genuine",
          "associatedSiteId": 109826,
          "outfallName": "ASHLETT CREEK FAWLEY",
          "isImpacting": true,
          "overFlowSiteId": 115372
        }
      ]
    },
    {
      "id": 343974263,
      "eventId": 659416,
      "siteUnitNumber": 12662,
      "bathingSite": "CHICHESTER HARBOUR",
      "eventStart": "2022-11-06T21:30:00",
      "eventStop": "2022-11-06T21:45:00",
      "duration": 15,
      "status": "Genuine",
      "associatedSiteId": 109836,
      "outfallName": "CHICHESTER",
      "isImpacting": true,
      "overFlowSiteId": 0,
      "historicSpillsList": [
        {
          "id": 343974263,
          "eventId": 659416,
          "siteUnitNumber": 12662,
          "bathingSite": "CHICHESTER HARBOUR",
          "eventStart": "2022-11-06T21:30:00",
          "eventStop": "2022-11-06T21:45:00",
          "duration": 15,
          "status": "Genuine",
          "associatedSiteId": 109836,
          "outfallName": "CHICHESTER",
          "isImpacting": true,
          "overFlowSiteId": 115401
        }
      ]
    },
    {
      "id": 343965277,
      "eventId": 658125,
      "siteUnitNumber": 12616,
      "bathingSite": "GURNARD",
      "eventStart": "2022-11-06T06:59:23",
      "eventStop": "2022-11-06T21:36:00",
      "duration": 876,
      "status": "Genuine",
      "associatedSiteId": 109702,
      "outfallName": "ALBANY ROAD EAST COWES",
      "isImpacting": false,
      "overFlowSiteId": 0,
      "historicSpillsList": []
    },
    {
      "id": 343989657,
      "eventId": 659333,
      "siteUnitNumber": 12622,
      "bathingSite": "WHITECLIFF BAY",
      "eventStart": "2022-11-06T20:45:00",
      "eventStop": "2022-11-06T21:31:00",
      "duration": 46,
      "status": "Genuine",
      "associatedSiteId": 110096,
      "outfallName": "SANDOWN NO1",
      "isImpacting": false,
      "overFlowSiteId": 0,
      "historicSpillsList": []
    },
    {
      "id": 343980306,
      "eventId": 659939,
      "siteUnitNumber": 12586,
      "bathingSite": "HOVE",
      "eventStart": "2022-11-06T20:09:00",
      "eventStop": "2022-11-06T20:49:00",
      "duration": 40,
      "status": "Genuine",
      "associatedSiteId": 109929,
      "outfallName": "SHOREHAM NO1",
      "isImpacting": true,
      "overFlowSiteId": 0,
      "historicSpillsList": [
        {
          "id": 343980306,
          "eventId": 659939,
          "siteUnitNumber": 12586,
          "bathingSite": "HOVE",
          "eventStart": "2022-11-06T20:09:00",
          "eventStop": "2022-11-06T20:49:00",
          "duration": 40,
          "status": "Genuine",
          "associatedSiteId": 109929,
          "outfallName": "SHOREHAM NO1",
          "isImpacting": true,
          "overFlowSiteId": 115434
        },
        {
          "id": 343980307,
          "eventId": 659939,
          "siteUnitNumber": 12587,
          "bathingSite": "SOUTHWICK",
          "eventStart": "2022-11-06T20:09:00",
          "eventStop": "2022-11-06T20:49:00",
          "duration": 40,
          "status": "Genuine",
          "associatedSiteId": 109929,
          "outfallName": "SHOREHAM NO1",
          "isImpacting": true,
          "overFlowSiteId": 115434,
          "historicSpillsList": []
        },
        {
          "id": 343980308,
          "eventId": 659939,
          "siteUnitNumber": 12588,
          "bathingSite": "SHOREHAM BEACH",
          "eventStart": "2022-11-06T20:09:00",
          "eventStop": "2022-11-06T20:49:00",
          "duration": 40,
          "status": "Genuine",
          "associatedSiteId": 109929,
          "outfallName": "SHOREHAM NO1",
          "isImpacting": true,
          "overFlowSiteId": 115434,
          "historicSpillsList": []
        }
      ]
    },
    {
      "id": 343989662,
      "eventId": 658217,
      "siteUnitNumber": 12622,
      "bathingSite": "WHITECLIFF BAY",
      "eventStart": "2022-11-06T09:36:39",
      "eventStop": "2022-11-06T20:15:00",
      "duration": 638,
      "status": "Genuine",
      "associatedSiteId": 110096,
      "outfallName": "SANDOWN NO1",
      "isImpacting": true,
      "overFlowSiteId": 0,
      "historicSpillsList": [
        {
          "id": 343989662,
          "eventId": 658217,
          "siteUnitNumber": 12622,
          "bathingSite": "WHITECLIFF BAY",
          "eventStart": "2022-11-06T09:36:39",
          "eventStop": "2022-11-06T20:15:00",
          "duration": 638,
          "status": "Genuine",
          "associatedSiteId": 110096,
          "outfallName": "SANDOWN NO1",
          "isImpacting": true,
          "overFlowSiteId": 115453
        },
        {
          "id": 343989663,
          "eventId": 658217,
          "siteUnitNumber": 12623,
          "bathingSite": "YAVERLAND",
          "eventStart": "2022-11-06T09:36:39",
          "eventStop": "2022-11-06T20:15:00",
          "duration": 638,
          "status": "Genuine",
          "associatedSiteId": 110096,
          "outfallName": "SANDOWN NO1",
          "isImpacting": true,
          "overFlowSiteId": 115453,
          "historicSpillsList": []
        },
        {
          "id": 343989656,
          "eventId": 658217,
          "siteUnitNumber": 12624,
          "bathingSite": "SANDOWN",
          "eventStart": "2022-11-06T09:36:39",
          "eventStop": "2022-11-06T20:15:00",
          "duration": 638,
          "status": "Genuine",
          "associatedSiteId": 110096,
          "outfallName": "SANDOWN NO1",
          "isImpacting": true,
          "overFlowSiteId": 115453,
          "historicSpillsList": []
        }
      ]
    },
    {
      "id": 343964160,
      "eventId": 658948,
      "siteUnitNumber": 12551,
      "bathingSite": "HERNE BAY",
      "eventStart": "2022-11-06T14:53:33",
      "eventStop": "2022-11-06T20:11:00",
      "duration": 317,
      "status": "Genuine",
      "associatedSiteId": 109682,
      "outfallName": "MAY STREET HERNE BAY NO3",
      "isImpacting": true,
      "overFlowSiteId": 0,
      "historicSpillsList": [
        {
          "id": 343964160,
          "eventId": 658948,
          "siteUnitNumber": 12551,
          "bathingSite": "HERNE BAY",
          "eventStart": "2022-11-06T14:53:33",
          "eventStop": "2022-11-06T20:11:00",
          "duration": 317,
          "status": "Genuine",
          "associatedSiteId": 109682,
          "outfallName": "MAY STREET HERNE BAY NO3",
          "isImpacting": true,
          "overFlowSiteId": 115418
        }
      ]
    },
    {
      "id": 343970726,
      "eventId": 659194,
      "siteUnitNumber": 12618,
      "bathingSite": "RYDE",
      "eventStart": "2022-11-06T18:36:00",
      "eventStop": "2022-11-06T19:47:00",
      "duration": 71,
      "status": "Genuine",
      "associatedSiteId": 109790,
      "outfallName": "GREAT PRESTON ROAD RYDE",
      "isImpacting": true,
      "overFlowSiteId": 0,
      "historicSpillsList": [
        {
          "id": 343970726,
          "eventId": 659194,
          "siteUnitNumber": 12618,
          "bathingSite": "RYDE",
          "eventStart": "2022-11-06T18:36:00",
          "eventStop": "2022-11-06T19:47:00",
          "duration": 71,
          "status": "Genuine",
          "associatedSiteId": 109790,
          "outfallName": "GREAT PRESTON ROAD RYDE",
          "isImpacting": true,
          "overFlowSiteId": 109304
        },
        {
          "id": 343970727,
          "eventId": 659194,
          "siteUnitNumber": 12619,
          "bathingSite": "SEAGROVE",
          "eventStart": "2022-11-06T18:36:00",
          "eventStop": "2022-11-06T19:47:00",
          "duration": 71,
          "status": "Genuine",
          "associatedSiteId": 109790,
          "outfallName": "GREAT PRESTON ROAD RYDE",
          "isImpacting": true,
          "overFlowSiteId": 109304,
          "historicSpillsList": []
        }
      ]
    },
    {
      "id": 343974264,
      "eventId": 659218,
      "siteUnitNumber": 12662,
      "bathingSite": "CHICHESTER HARBOUR",
      "eventStart": "2022-11-06T18:49:30",
      "eventStop": "2022-11-06T19:15:00",
      "duration": 25,
      "status": "Genuine",
      "associatedSiteId": 109836,
      "outfallName": "CHICHESTER",
      "isImpacting": true,
      "overFlowSiteId": 0,
      "historicSpillsList": [
        {
          "id": 343974264,
          "eventId": 659218,
          "siteUnitNumber": 12662,
          "bathingSite": "CHICHESTER HARBOUR",
          "eventStart": "2022-11-06T18:49:30",
          "eventStop": "2022-11-06T19:15:00",
          "duration": 25,
          "status": "Genuine",
          "associatedSiteId": 109836,
          "outfallName": "CHICHESTER",
          "isImpacting": true,
          "overFlowSiteId": 115401
        }
      ]
    },
    {
      "id": 343980304,
      "eventId": 659938,
      "siteUnitNumber": 12587,
      "bathingSite": "SOUTHWICK",
      "eventStart": "2022-11-06T09:30:00",
      "eventStop": "2022-11-06T19:10:00",
      "duration": 580,
      "status": "Genuine",
      "associatedSiteId": 109929,
      "outfallName": "SHOREHAM NO1",
      "isImpacting": true,
      "overFlowSiteId": 0,
      "historicSpillsList": [
        {
          "id": 343980304,
          "eventId": 659938,
          "siteUnitNumber": 12587,
          "bathingSite": "SOUTHWICK",
          "eventStart": "2022-11-06T09:30:00",
          "eventStop": "2022-11-06T19:10:00",
          "duration": 580,
          "status": "Genuine",
          "associatedSiteId": 109929,
          "outfallName": "SHOREHAM NO1",
          "isImpacting": true,
          "overFlowSiteId": 115434
        },
        {
          "id": 343980305,
          "eventId": 659938,
          "siteUnitNumber": 12588,
          "bathingSite": "SHOREHAM BEACH",
          "eventStart": "2022-11-06T09:30:00",
          "eventStop": "2022-11-06T19:10:00",
          "duration": 580,
          "status": "Genuine",
          "associatedSiteId": 109929,
          "outfallName": "SHOREHAM NO1",
          "isImpacting": true,
          "overFlowSiteId": 115434,
          "historicSpillsList": []
        },
        {
          "id": 343980312,
          "eventId": 659938,
          "siteUnitNumber": 12586,
          "bathingSite": "HOVE",
          "eventStart": "2022-11-06T09:30:00",
          "eventStop": "2022-11-06T19:10:00",
          "duration": 580,
          "status": "Genuine",
          "associatedSiteId": 109929,
          "outfallName": "SHOREHAM NO1",
          "isImpacting": true,
          "overFlowSiteId": 115434,
          "historicSpillsList": []
        }
      ]
    },
    {
      "id": 343974265,
      "eventId": 659190,
      "siteUnitNumber": 12662,
      "bathingSite": "CHICHESTER HARBOUR",
      "eventStart": "2022-11-06T18:19:10",
      "eventStop": "2022-11-06T18:45:00",
      "duration": 25,
      "status": "Genuine",
      "associatedSiteId": 109836,
      "outfallName": "CHICHESTER",
      "isImpacting": true,
      "overFlowSiteId": 0,
      "historicSpillsList": [
        {
          "id": 343974265,
          "eventId": 659190,
          "siteUnitNumber": 12662,
          "bathingSite": "CHICHESTER HARBOUR",
          "eventStart": "2022-11-06T18:19:10",
          "eventStop": "2022-11-06T18:45:00",
          "duration": 25,
          "status": "Genuine",
          "associatedSiteId": 109836,
          "outfallName": "CHICHESTER",
          "isImpacting": true,
          "overFlowSiteId": 115401
        }
      ]
    },
    {
      "id": 343986532,
      "eventId": 658533,
      "siteUnitNumber": 12595,
      "bathingSite": "BOGNOR REGIS (ALDWICK)",
      "eventStart": "2022-11-06T12:15:00",
      "eventStop": "2022-11-06T18:42:00",
      "duration": 387,
      "status": "Genuine",
      "associatedSiteId": 109973,
      "outfallName": "ALDWICK AVENUE BOGNOR",
      "isImpacting": true,
      "overFlowSiteId": 0,
      "historicSpillsList": [
        {
          "id": 343986532,
          "eventId": 658533,
          "siteUnitNumber": 12595,
          "bathingSite": "BOGNOR REGIS (ALDWICK)",
          "eventStart": "2022-11-06T12:15:00",
          "eventStop": "2022-11-06T18:42:00",
          "duration": 387,
          "status": "Genuine",
          "associatedSiteId": 109973,
          "outfallName": "ALDWICK AVENUE BOGNOR",
          "isImpacting": true,
          "overFlowSiteId": 103303
        },
        {
          "id": 343986533,
          "eventId": 658533,
          "siteUnitNumber": 12596,
          "bathingSite": "PAGHAM",
          "eventStart": "2022-11-06T12:15:00",
          "eventStop": "2022-11-06T18:42:00",
          "duration": 387,
          "status": "Genuine",
          "associatedSiteId": 109973,
          "outfallName": "ALDWICK AVENUE BOGNOR",
          "isImpacting": true,
          "overFlowSiteId": 103303,
          "historicSpillsList": []
        },
        {
          "id": 343986537,
          "eventId": 658533,
          "siteUnitNumber": 12593,
          "bathingSite": "FELPHAM",
          "eventStart": "2022-11-06T12:15:00",
          "eventStop": "2022-11-06T18:42:00",
          "duration": 387,
          "status": "Genuine",
          "associatedSiteId": 109973,
          "outfallName": "ALDWICK AVENUE BOGNOR",
          "isImpacting": true,
          "overFlowSiteId": 103303,
          "historicSpillsList": []
        },
        {
          "id": 343986538,
          "eventId": 658533,
          "siteUnitNumber": 12594,
          "bathingSite": "BOGNOR REGIS EAST",
          "eventStart": "2022-11-06T12:15:00",
          "eventStop": "2022-11-06T18:42:00",
          "duration": 387,
          "status": "Genuine",
          "associatedSiteId": 109973,
          "outfallName": "ALDWICK AVENUE BOGNOR",
          "isImpacting": true,
          "overFlowSiteId": 103303,
          "historicSpillsList": []
        }
      ]
    },
    {
      "id": 343964837,
      "eventId": 659571,
      "siteUnitNumber": 12616,
      "bathingSite": "GURNARD",
      "eventStart": "2022-11-06T18:17:59",
      "eventStop": "2022-11-06T18:32:00",
      "duration": 14,
      "status": "Genuine",
      "associatedSiteId": 109700,
      "outfallName": "MARKET HILL COWES",
      "isImpacting": false,
      "overFlowSiteId": 0,
      "historicSpillsList": []
    },
    {
      "id": 343988305,
      "eventId": 659860,
      "siteUnitNumber": 12623,
      "bathingSite": "YAVERLAND",
      "eventStart": "2022-11-06T18:04:00",
      "eventStop": "2022-11-06T18:28:00",
      "duration": 24,
      "status": "Genuine",
      "associatedSiteId": 110029,
      "outfallName": "HOPE BEACH SHANKLIN NEW",
      "isImpacting": false,
      "overFlowSiteId": 0,
      "historicSpillsList": []
    },
    {
      "id": 343987819,
      "eventId": 658456,
      "siteUnitNumber": 12567,
      "bathingSite": "FOLKESTONE",
      "eventStart": "2022-11-06T09:47:01",
      "eventStop": "2022-11-06T18:27:00",
      "duration": 519,
      "status": "Genuine",
      "associatedSiteId": 110010,
      "outfallName": "THE STADE FOLKESTONE",
      "isImpacting": true,
      "overFlowSiteId": 0,
      "historicSpillsList": [
        {
          "id": 343987819,
          "eventId": 658456,
          "siteUnitNumber": 12567,
          "bathingSite": "FOLKESTONE",
          "eventStart": "2022-11-06T09:47:01",
          "eventStop": "2022-11-06T18:27:00",
          "duration": 519,
          "status": "Genuine",
          "associatedSiteId": 110010,
          "outfallName": "THE STADE FOLKESTONE",
          "isImpacting": true,
          "overFlowSiteId": 108909
        }
      ]
    },
    {
      "id": 343968270,
      "eventId": 658097,
      "siteUnitNumber": 12661,
      "bathingSite": "LANGSTONE HARBOUR",
      "eventStart": "2022-11-06T14:24:00",
      "eventStop": "2022-11-06T18:20:00",
      "duration": 236,
      "status": "Genuine",
      "associatedSiteId": 109772,
      "outfallName": "BUDDS FARM HAVANT NO1",
      "isImpacting": true,
      "overFlowSiteId": 0,
      "historicSpillsList": [
        {
          "id": 343968270,
          "eventId": 658097,
          "siteUnitNumber": 12661,
          "bathingSite": "LANGSTONE HARBOUR",
          "eventStart": "2022-11-06T14:24:00",
          "eventStop": "2022-11-06T18:20:00",
          "duration": 236,
          "status": "Genuine",
          "associatedSiteId": 109772,
          "outfallName": "BUDDS FARM HAVANT NO1",
          "isImpacting": true,
          "overFlowSiteId": 116073
        }
      ]
    },
    {
      "id": 343963802,
      "eventId": 663096,
      "siteUnitNumber": 12549,
      "bathingSite": "HERNE BAY CENTRAL",
      "eventStart": "2022-11-06T17:52:00",
      "eventStop": "2022-11-06T18:18:00",
      "duration": 26,
      "status": "Genuine",
      "associatedSiteId": 109676,
      "outfallName": "KINGS HALL HERNE BAY A",
      "isImpacting": true,
      "overFlowSiteId": 0,
      "historicSpillsList": [
        {
          "id": 343963803,
          "eventId": 663096,
          "siteUnitNumber": 12551,
          "bathingSite": "HERNE BAY",
          "eventStart": "2022-11-06T17:52:00",
          "eventStop": "2022-11-06T18:18:00",
          "duration": 26,
          "status": "Genuine",
          "associatedSiteId": 109676,
          "outfallName": "KINGS HALL HERNE BAY A",
          "isImpacting": true,
          "overFlowSiteId": 108096,
          "historicSpillsList": []
        }
      ]
    }
  ]
}