{
  "currentPage": 250,
  "totalItems": 18701,
  "totalPages": 749,
  "items": [
    {
      "id": 343961479,
      "eventId": 816485,
      "siteUnitNumber": 12616,
      "bathingSite": "GURNARD",
      "eventStart": "2023-05-09T03:42:00",
      "eventStop": "2023-05-09T03:47:00",
      "duration": 5,
      "status": "Genuine",
      "associatedSiteId": 109652,
      "outfallName": "WOODVALE TRANSFER NO1",
      "isImpacting": true,
      "overFlowSiteId": 0,
      "historicSpillsList": [
        {
          "id": 343961480,
          "eventId": 816485,
          "siteUnitNumber": 12617,
          "bathingSite": "COWES",
          "eventStart": "2023-05-09T03:42:00",
          "eventStop": "2023-05-09T03:47:00",
          "duration": 5,
          "status": "Genuine",
          "associatedSiteId": 109652,
          "outfallName": "WOODVALE TRANSFER NO1",
          "isImpacting": true,
          "overFlowSiteId": 115966,
          "historicSpillsList": []
        }
      ]
    },
    {
      "id": 343972482,
      "eventId": 814620,
      "siteUnitNumber": 12548,
      "bathingSite": "TANKERTON",
      "eventStart": "2023-05-09T03:07:54",
      "eventStop": "2023-05-09T03:41:42",
      "duration": 33,
      "status": "Genuine",
      "associatedSiteId": 109830,
      "outfallName": "SWALECLIFFE NO1",
      "isImpacting": true,
      "overFlowSiteId": 0,
      "historicSpillsList": [
        {
          "id": 343972483,
          "eventId": 814620,
          "siteUnitNumber": 12549,
          "bathingSite": "HERNE BAY CENTRAL",
          "eventStart": "2023-05-09T03:07:54",
          "eventStop": "2023-05-09T03:41:42",
          "duration": 33,
          "status": "Genuine",
          "associatedSiteId": 109830,
          "outfallName": "SWALECLIFFE NO1",
          "isImpacting": true,
          "overFlowSiteId": 115444,
          "historicSpillsList": []
        }
      ]
    },
    {
      "id": 343971728,
      "eventId": 814640,
      "siteUnitNumber": 12604,
      "bathingSite": "SOUTHSEA EAST",
      "eventStart": "2023-05-09T03:13:00",
      "eventStop": "2023-05-09T03:16:00",
      "duration": 3,
      "status": "Genuine",
      "associatedSiteId": 109822,
      "outfallName": "PIER ROAD SOUTHSEA",
      "isImpacting": true,
      "overFlowSiteId": 0,
      "historicSpillsList": [
        {
          "id": 343971728,
          "eventId": 814640,
          "siteUnitNumber": 12604,
          "bathingSite": "SOUTHSEA EAST",
          "eventStart": "2023-05-09T03:13:00",
          "eventStop": "2023-05-09T03:16:00",
          "duration": 3,
          "status": "Genuine",
          "associatedSiteId": 109822,
          "outfallName": "PIER ROAD SOUTHSEA",
          "isImpacting": true,
          "overFlowSiteId": 108469
        },
        {
          "id": 343971729,
          "eventId": 814640,
          "siteUnitNumber": 12605,
          "bathingSite": "STOKES BAY",
          "eventStart": "2023-05-09T03:13:00",
          "eventStop": "2023-05-09T03:16:00",
          "duration": 3,
          "status": "Genuine",
          "associatedSiteId": 109822,
          "outfallName": "PIER ROAD SOUTHSEA",
          "isImpacting": true,
          "overFlowSiteId": 108469,
          "historicSpillsList": []
        }
      ]
    },
    {
      "id": 343985913,
      "eventId": 858365,
      "siteUnitNumber": 12591,
      "bathingSite": "LITTLEHAMPTON",
      "eventStart": "2023-05-09T03:00:00",
      "eventStop": "2023-05-09T03:02:00",
      "duration": 2,
      "status": "Genuine",
      "associatedSiteId": 109968,
      "outfallName": "FORD ROAD ARUNDEL",
      "isImpacting": false,
      "overFlowSiteId": 0,
      "historicSpillsList": []
    },
    {
      "id": 343991912,
      "eventId": 815057,
      "siteUnitNumber": 12619,
      "bathingSite": "SEAGROVE",
      "eventStart": "2023-05-08T22:31:00",
      "eventStop": "2023-05-09T02:57:00",
      "duration": 266,
      "status": "Genuine",
      "associatedSiteId": 110097,
      "outfallName": "SANDOWN NO2",
      "isImpacting": true,
      "overFlowSiteId": 0,
      "historicSpillsList": [
        {
          "id": 343991915,
          "eventId": 815057,
          "siteUnitNumber": 12623,
          "bathingSite": "YAVERLAND",
          "eventStart": "2023-05-08T22:31:00",
          "eventStop": "2023-05-09T02:57:00",
          "duration": 266,
          "status": "Genuine",
          "associatedSiteId": 110097,
          "outfallName": "SANDOWN NO2",
          "isImpacting": true,
          "overFlowSiteId": 115454,
          "historicSpillsList": []
        },
        {
          "id": 343991916,
          "eventId": 815057,
          "siteUnitNumber": 12624,
          "bathingSite": "SANDOWN",
          "eventStart": "2023-05-08T22:31:00",
          "eventStop": "2023-05-09T02:57:00",
          "duration": 266,
          "status": "Genuine",
          "associatedSiteId": 110097,
          "outfallName": "SANDOWN NO2",
          "isImpacting": true,
          "overFlowSiteId": 115454,
          "historicSpillsList": []
        },
        {
          "id": 343991917,
          "eventId": 815057,
          "siteUnitNumber": 12625,
          "bathingSite": "SHANKLIN",
          "eventStart": "2023-05-08T22:31:00",
          "eventStop": "2023-05-09T02:57:00",
          "duration": 266,
          "status": "Genuine",
          "associatedSiteId": 110097,
          "outfallName": "SANDOWN NO2",
          "isImpacting": true,
          "overFlowSiteId": 115454,
          "historicSpillsList": []
        }
      ]
    },
    {
      "id": 344002715,
      "eventId": 814542,
      "siteUnitNumber": 12577,
      "bathingSite": "BEXHILL",
      "eventStart": "2023-05-09T00:50:00",
      "eventStop": "2023-05-09T02:49:00",
      "duration": 119,
      "status": "Genuine",
      "associatedSiteId": 115504,
      "outfallName": "HARTFIELD ROAD BEXHILL",
      "isImpacting": false,
      "overFlowSiteId": 0,
      "historicSpillsList": []
    },
    {
      "id": 343965997,
      "eventId": 814184,
      "siteUnitNumber": 12616,
      "bathingSite": "GURNARD",
      "eventStart": "2023-05-08T21:36:00",
      "eventStop": "2023-05-09T02:42:00",
      "duration": 306,
      "status": "Genuine",
      "associatedSiteId": 109705,
      "outfallName": "SPRINGHILL COWES TRANSFER",
      "isImpacting": true,
      "overFlowSiteId": 0,
      "historicSpillsList": [
        {
          "id": 343965998,
          "eventId": 814184,
          "siteUnitNumber": 12617,
          "bathingSite": "COWES",
          "eventStart": "2023-05-08T21:36:00",
          "eventStop": "2023-05-09T02:42:00",
          "duration": 306,
          "status": "Genuine",
          "associatedSiteId": 109705,
          "outfallName": "SPRINGHILL COWES TRANSFER",
          "isImpacting": true,
          "overFlowSiteId": 108943,
          "historicSpillsList": []
        }
      ]
    },
    {
      "id": 343985916,
      "eventId": 858364,
      "siteUnitNumber": 12591,
      "bathingSite": "LITTLEHAMPTON",
      "eventStart": "2023-05-09T02:37:00",
      "eventStop": "2023-05-09T02:39:00",
      "duration": 2,
      "status": "Genuine",
      "associatedSiteId": 109968,
      "outfallName": "FORD ROAD ARUNDEL",
      "isImpacting": false,
      "overFlowSiteId": 0,
      "historicSpillsList": []
    },
    {
      "id": 343961481,
      "eventId": 816483,
      "siteUnitNumber": 12616,
      "bathingSite": "GURNARD",
      "eventStart": "2023-05-09T02:25:00",
      "eventStop": "2023-05-09T02:31:00",
      "duration": 6,
      "status": "Genuine",
      "associatedSiteId": 109652,
      "outfallName": "WOODVALE TRANSFER NO1",
      "isImpacting": true,
      "overFlowSiteId": 0,
      "historicSpillsList": [
        {
          "id": 343961482,
          "eventId": 816483,
          "siteUnitNumber": 12617,
          "bathingSite": "COWES",
          "eventStart": "2023-05-09T02:25:00",
          "eventStop": "2023-05-09T02:31:00",
          "duration": 6,
          "status": "Genuine",
          "associatedSiteId": 109652,
          "outfallName": "WOODVALE TRANSFER NO1",
          "isImpacting": true,
          "overFlowSiteId": 115966,
          "historicSpillsList": []
        }
      ]
    },
    {
      "id": 343971704,
      "eventId": 815141,
      "siteUnitNumber": 12604,
      "bathingSite": "SOUTHSEA EAST",
      "eventStart": "2023-05-09T02:24:00",
      "eventStop": "2023-05-09T02:28:00",
      "duration": 4,
      "status": "Genuine",
      "associatedSiteId": 109822,
      "outfallName": "PIER ROAD SOUTHSEA",
      "isImpacting": true,
      "overFlowSiteId": 0,
      "historicSpillsList": [
        {
          "id": 343971704,
          "eventId": 815141,
          "siteUnitNumber": 12604,
          "bathingSite": "SOUTHSEA EAST",
          "eventStart": "2023-05-09T02:24:00",
          "eventStop": "2023-05-09T02:28:00",
          "duration": 4,
          "status": "Genuine",
          "associatedSiteId": 109822,
          "outfallName": "PIER ROAD SOUTHSEA",
          "isImpacting": true,
          "overFlowSiteId": 108469
        },
        {
          "id": 343971705,
          "eventId": 815141,
          "siteUnitNumber": 12605,
          "bathingSite": "STOKES BAY",
          "eventStart": "2023-05-09T02:24:00",
          "eventStop": "2023-05-09T02:28:00",
          "duration": 4,
          "status": "Genuine",
          "associatedSiteId": 109822,
          "outfallName": "PIER ROAD SOUTHSEA",
          "isImpacting": true,
          "overFlowSiteId": 108469,
          "historicSpillsList": []
        }
      ]
    },
    {
      "id": 343983533,
      "eventId": 814587,
      "siteUnitNumber": 12594,
      "bathingSite": "BOGNOR REGIS EAST",
      "eventStart": "2023-05-09T02:19:00",
      "eventStop": "2023-05-09T02:21:00",
      "duration": 2,
      "status": "Genuine",
      "associatedSiteId": 109959,
      "outfallName": "WEST PARK BOGNOR REGIS",
      "isImpacting": false,
      "overFlowSiteId": 0,
      "historicSpillsList": []
    },
    {
      "id": 343985915,
      "eventId": 858363,
      "siteUnitNumber": 12591,
      "bathingSite": "LITTLEHAMPTON",
      "eventStart": "2023-05-09T02:18:00",
      "eventStop": "2023-05-09T02:20:00",
      "duration": 2,
      "status": "Genuine",
      "associatedSiteId": 109968,
      "outfallName": "FORD ROAD ARUNDEL",
      "isImpacting": false,
      "overFlowSiteId": 0,
      "historicSpillsList": []
    },
    {
      "id": 343982308,
      "eventId": 814276,
      "siteUnitNumber": 12582,
      "bathingSite": "SEAFORD",
      "eventStart": "2023-05-08T23:11:00",
      "eventStop": "2023-05-09T02:09:00",
      "duration": 178,
      "status": "Genuine",
      "associatedSiteId": 109957,
      "outfallName": "PORTOBELLO BRIGHTON NO2",
      "isImpacting": false,
      "overFlowSiteId": 0,
      "historicSpillsList": []
    },
    {
      "id": 343985918,
      "eventId": 858362,
      "siteUnitNumber": 12591,
      "bathingSite": "LITTLEHAMPTON",
      "eventStart": "2023-05-09T02:04:00",
      "eventStop": "2023-05-09T02:07:00",
      "duration": 3,
      "status": "Genuine",
      "associatedSiteId": 109968,
      "outfallName": "FORD ROAD ARUNDEL",
      "isImpacting": false,
      "overFlowSiteId": 0,
      "historicSpillsList": []
    },
    {
      "id": 343981333,
      "eventId": 814260,
      "siteUnitNumber": 12620,
      "bathingSite": "ST HELENS",
      "eventStart": "2023-05-08T22:30:00",
      "eventStop": "2023-05-09T02:03:00",
      "duration": 213,
      "status": "Genuine",
      "associatedSiteId": 109939,
      "outfallName": "LANE END ROAD BEMBRIDGE",
      "isImpacting": true,
      "overFlowSiteId": 0,
      "historicSpillsList": [
        {
          "id": 343981334,
          "eventId": 814260,
          "siteUnitNumber": 12621,
          "bathingSite": "BEMBRIDGE",
          "eventStart": "2023-05-08T22:30:00",
          "eventStop": "2023-05-09T02:03:00",
          "duration": 213,
          "status": "Genuine",
          "associatedSiteId": 109939,
          "outfallName": "LANE END ROAD BEMBRIDGE",
          "isImpacting": true,
          "overFlowSiteId": 108533,
          "historicSpillsList": []
        }
      ]
    },
    {
      "id": 343985917,
      "eventId": 858361,
      "siteUnitNumber": 12591,
      "bathingSite": "LITTLEHAMPTON",
      "eventStart": "2023-05-09T01:51:00",
      "eventStop": "2023-05-09T01:54:00",
      "duration": 3,
      "status": "Genuine",
      "associatedSiteId": 109968,
      "outfallName": "FORD ROAD ARUNDEL",
      "isImpacting": false,
      "overFlowSiteId": 0,
      "historicSpillsList": []
    },
    {
      "id": 343985301,
      "eventId": 814924,
      "siteUnitNumber": 12591,
      "bathingSite": "LITTLEHAMPTON",
      "eventStart": "2023-05-08T22:11:00",
      "eventStop": "2023-05-09T01:46:00",
      "duration": 215,
      "status": "Genuine",
      "associatedSiteId": 109965,
      "outfallName": "SEA ROAD LITTLEHAMPTON",
      "isImpacting": true,
      "overFlowSiteId": 0,
      "historicSpillsList": [
        {
          "id": 343985301,
          "eventId": 814924,
          "siteUnitNumber": 12591,
          "bathingSite": "LITTLEHAMPTON",
          "eventStart": "2023-05-08T22:11:00",
          "eventStop": "2023-05-09T01:46:00",
          "duration": 215,
          "status": "Genuine",
          "associatedSiteId": 109965,
          "outfallName": "SEA ROAD LITTLEHAMPTON",
          "isImpacting": true,
          "overFlowSiteId": 109368
        }
      ]
    },
    {
      "id": 343983530,
      "eventId": 814225,
      "siteUnitNumber": 12594,
      "bathingSite": "BOGNOR REGIS EAST",
      "eventStart": "2023-05-08T23:39:00",
      "eventStop": "2023-05-09T01:43:00",
      "duration": 124,
      "status": "Genuine",
      "associatedSiteId": 109959,
      "outfallName": "WEST PARK BOGNOR REGIS",
      "isImpacting": false,
      "overFlowSiteId": 0,
      "historicSpillsList": []
    },
    {
      "id": 343985920,
      "eventId": 858360,
      "siteUnitNumber": 12591,
      "bathingSite": "LITTLEHAMPTON",
      "eventStart": "2023-05-09T01:38:00",
      "eventStop": "2023-05-09T01:41:00",
      "duration": 3,
      "status": "Genuine",
      "associatedSiteId": 109968,
      "outfallName": "FORD ROAD ARUNDEL",
      "isImpacting": false,
      "overFlowSiteId": 0,
      "historicSpillsList": []
    },
    {
      "id": 343961483,
      "eventId": 816481,
      "siteUnitNumber": 12616,
      "bathingSite": "GURNARD",
      "eventStart": "2023-05-09T01:35:00",
      "eventStop": "2023-05-09T01:41:00",
      "duration": 6,
      "status": "Genuine",
      "associatedSiteId": 109652,
      "outfallName": "WOODVALE TRANSFER NO1",
      "isImpacting": true,
      "overFlowSiteId": 0,
      "historicSpillsList": [
        {
          "id": 343961484,
          "eventId": 816481,
          "siteUnitNumber": 12617,
          "bathingSite": "COWES",
          "eventStart": "2023-05-09T01:35:00",
          "eventStop": "2023-05-09T01:41:00",
          "duration": 6,
          "status": "Genuine",
          "associatedSiteId": 109652,
          "outfallName": "WOODVALE TRANSFER NO1",
          "isImpacting": true,
          "overFlowSiteId": 115966,
          "historicSpillsList": []
        }
      ]
    },
    {
      "id": 343971706,
      "eventId": 815140,
      "siteUnitNumber": 12604,
      "bathingSite": "SOUTHSEA EAST",
      "eventStart": "2023-05-09T01:34:00",
      "eventStop": "2023-05-09T01:37:00",
      "duration": 3,
      "status": "Genuine",
      "associatedSiteId": 109822,
      "outfallName": "PIER ROAD SOUTHSEA",
      "isImpacting": true,
      "overFlowSiteId": 0,
      "historicSpillsList": [
        {
          "id": 343971706,
          "eventId": 815140,
          "siteUnitNumber": 12604,
          "bathingSite": "SOUTHSEA EAST",
          "eventStart": "2023-05-09T01:34:00",
          "eventStop": "2023-05-09T01:37:00",
          "duration": 3,
          "status": "Genuine",
          "associatedSiteId": 109822,
          "outfallName": "PIER ROAD SOUTHSEA",
          "isImpacting": true,
          "overFlowSiteId": 108469
        },
        {
          "id": 343971707,
          "eventId": 815140,
          "siteUnitNumber": 12605,
          "bathingSite": "STOKES BAY",
          "eventStart": "2023-05-09T01:34:00",
          "eventStop": "2023-05-09T01:37:00",
          "duration": 3,
          "status": "Genuine",
          "associatedSiteId": 109822,
          "outfallName": "PIER ROAD SOUTHSEA",
          "isImpacting": true,
          "overFlowSiteId": 108469,
          "historicSpillsList": []
        }
      ]
    },
    {
      "id": 343985919,
      "eventId": 858358,
      "siteUnitNumber": 12591,
      "bathingSite": "LITTLEHAMPTON",
      "eventStart": "2023-05-09T01:23:00",
      "eventStop": "2023-05-09T01:26:00",
      "duration": 3,
      "status": "Genuine",
      "associatedSiteId": 109968,
      "outfallName": "FORD ROAD ARUNDEL",
      "isImpacting": false,
      "overFlowSiteId": 0,
      "historicSpillsList": []
    },
    {
      "id": 343970707,
      "eventId": 814196,
      "siteUnitNumber": 12618,
      "bathingSite": "RYDE",
      "eventStart": "2023-05-08T21:52:00",
      "eventStop": "2023-05-09T01:15:00",
      "duration": 203,
      "status": "Genuine",
      "associatedSiteId": 109789,
      "outfallName": "SEAGROVE BAY",
      "isImpacting": true,
      "overFlowSiteId": 0,
      "historicSpillsList": [
        {
          "id": 343970707,
          "eventId": 814196,
          "siteUnitNumber": 12618,
          "bathingSite": "RYDE",
          "eventStart": "2023-05-08T21:52:00",
          "eventStop": "2023-05-09T01:15:00",
          "duration": 203,
          "status": "Genuine",
          "associatedSiteId": 109789,
          "outfallName": "SEAGROVE BAY",
          "isImpacting": true,
          "overFlowSiteId": 100244
        },
        {
          "id": 343970708,
          "eventId": 814196,
          "siteUnitNumber": 12619,
          "bathingSite": "SEAGROVE",
          "eventStart": "2023-05-08T21:52:00",
          "eventStop": "2023-05-09T01:15:00",
          "duration": 203,
          "status": "Genuine",
          "associatedSiteId": 109789,
          "outfallName": "SEAGROVE BAY",
          "isImpacting": true,
          "overFlowSiteId": 100244,
          "historicSpillsList": []
        },
        {
          "id": 343970709,
          "eventId": 814196,
          "siteUnitNumber": 12620,
          "bathingSite": "ST HELENS",
          "eventStart": "2023-05-08T21:52:00",
          "eventStop": "2023-05-09T01:15:00",
          "duration": 203,
          "status": "Genuine",
          "associatedSiteId": 109789,
          "outfallName": "SEAGROVE BAY",
          "isImpacting": true,
          "overFlowSiteId": 100244,
          "historicSpillsList": []
        }
      ]
    },
    {
      "id": 343988547,
      "eventId": 814451,
      "siteUnitNumber": 12582,
      "bathingSite": "SEAFORD",
      "eventStart": "2023-05-09T01:08:46",
      "eventStop": "2023-05-09T01:14:22",
      "duration": 5,
      "status": "Genuine",
      "associatedSiteId": 110047,
      "outfallName": "CLIFF END SEAFORD",
      "isImpacting": true,
      "overFlowSiteId": 0,
      "historicSpillsList": [
        {
          "id": 343988547,
          "eventId": 814451,
          "siteUnitNumber": 12582,
          "bathingSite": "SEAFORD",
          "eventStart": "2023-05-09T01:08:46",
          "eventStop": "2023-05-09T01:14:22",
          "duration": 5,
          "status": "Genuine",
          "associatedSiteId": 110047,
          "outfallName": "CLIFF END SEAFORD",
          "isImpacting": true,
          "overFlowSiteId": 101257
        }
      ]
    },
    {
      "id": 343985922,
      "eventId": 858355,
      "siteUnitNumber": 12591,
      "bathingSite": "LITTLEHAMPTON",
      "eventStart": "2023-05-09T01:10:00",
      "eventStop": "2023-05-09T01:14:00",
      "duration": 4,
      "status": "Genuine",
      "associatedSiteId": 109968,
      "outfallName": "FORD ROAD ARUNDEL",
      "isImpacting": false,
      "overFlowSiteId": 0,
      "historicSpillsList": []
    }
  ]
}