{
  "currentPage": 363,
  "totalItems": 21025,
  "totalPages": 841,
  "items": [
    {
      "id": 344791574,
      "eventId": 733363,
      "siteUnitNumber": 12582,
      "bathingSite": "SEAFORD",
      "eventStart": "2023-01-16T01:13:00",
      "eventStop": "2023-01-16T08:05:00",
      "duration": 412,
      "status": "Genuine",
      "associatedSiteId": 109957,
      "outfallName": "PORTOBELLO BRIGHTON NO2",
      "isImpacting": false,
      "overFlowSiteId": 0,
      "historicSpillsList": []
    },
    {
      "id": 344780950,
      "eventId": 733456,
      "siteUnitNumber": 12604,
      "bathingSite": "SOUTHSEA EAST",
      "eventStart": "2023-01-16T00:23:19",
      "eventStop": "2023-01-16T08:03:00",
      "duration": 459,
      "status": "Genuine",
      "associatedSiteId": 109822,
      "outfallName": "PIER ROAD SOUTHSEA",
      "isImpacting": true,
      "overFlowSiteId": 0,
      "historicSpillsList": [
        {
          "id": 344780950,
          "eventId": 733456,
          "siteUnitNumber": 12604,
          "bathingSite": "SOUTHSEA EAST",
          "eventStart": "2023-01-16T00:23:19",
          "eventStop": "2023-01-16T08:03:00",
          "duration": 459,
          "status": "Genuine",
          "associatedSiteId": 109822,
          "outfallName": "PIER ROAD SOUTHSEA",
          "isImpacting": true,
          "overFlowSiteId": 108469
        },
        {
          "id": 344780951,
          "eventId": 733456,
          "siteUnitNumber": 12605,
          "bathingSite": "STOKES BAY",
          "eventStart": "2023-01-16T00:23:19",
          "eventStop": "2023-01-16T08:03:00",
          "duration": 459,
          "status": "Genuine",
          "associatedSiteId": 109822,
          "outfallName": "PIER ROAD SOUTHSEA",
          "isImpacting": true,
          "overFlowSiteId": 108469,
          "historicSpillsList": []
        }
      ]
    },
    {
      "id": 344806798,
      "eventId": 733501,
      "siteUnitNumber": 12616,
      "bathingSite": "GURNARD",
      "eventStart": "2023-01-16T02:07:23",
      "eventStop": "2023-01-16T07:56:44",
      "duration": 349,
      "status": "Genuine",
      "associatedSiteId": 111069,
      "outfallName": "MEDHAM FARM NORTHWOOD",
      "isImpacting": false,
      "overFlowSiteId": 0,
      "historicSpillsList": []
    },
    {
      "id": 344783769,
      "eventId": 733990,
      "siteUnitNumber": 12579,
      "bathingSite": "PEVENSEY BAY",
      "eventStart": "2023-01-16T03:55:23",
      "eventStop": "2023-01-16T07:53:00",
      "duration": 237,
      "status": "Genuine",
      "associatedSiteId": 109888,
      "outfallName": "EASTBOURNE NO 2",
      "isImpacting": true,
      "overFlowSiteId": 0,
      "historicSpillsList": [
        {
          "id": 344783770,
          "eventId": 733990,
          "siteUnitNumber": 12580,
          "bathingSite": "EASTBOURNE",
          "eventStart": "2023-01-16T03:55:23",
          "eventStop": "2023-01-16T07:53:00",
          "duration": 237,
          "status": "Genuine",
          "associatedSiteId": 109888,
          "outfallName": "EASTBOURNE NO 2",
          "isImpacting": true,
          "overFlowSiteId": 115459,
          "historicSpillsList": []
        }
      ]
    },
    {
      "id": 344772797,
      "eventId": 734276,
      "siteUnitNumber": 12556,
      "bathingSite": "MARGATE THE BAY",
      "eventStart": "2023-01-16T06:16:00",
      "eventStop": "2023-01-16T07:47:00",
      "duration": 91,
      "status": "Genuine",
      "associatedSiteId": 109673,
      "outfallName": "MARGATE NO1",
      "isImpacting": true,
      "overFlowSiteId": 0,
      "historicSpillsList": [
        {
          "id": 344772800,
          "eventId": 734276,
          "siteUnitNumber": 12559,
          "bathingSite": "BOTANY BAY BROADSTAIRS",
          "eventStart": "2023-01-16T06:16:00",
          "eventStop": "2023-01-16T07:47:00",
          "duration": 91,
          "status": "Genuine",
          "associatedSiteId": 109673,
          "outfallName": "MARGATE NO1",
          "isImpacting": true,
          "overFlowSiteId": 116101,
          "historicSpillsList": []
        },
        {
          "id": 344772801,
          "eventId": 734276,
          "siteUnitNumber": 12560,
          "bathingSite": "JOSS BAY BROADSTAIRS",
          "eventStart": "2023-01-16T06:16:00",
          "eventStop": "2023-01-16T07:47:00",
          "duration": 91,
          "status": "Genuine",
          "associatedSiteId": 109673,
          "outfallName": "MARGATE NO1",
          "isImpacting": true,
          "overFlowSiteId": 116101,
          "historicSpillsList": []
        },
        {
          "id": 344772802,
          "eventId": 734276,
          "siteUnitNumber": 12561,
          "bathingSite": "BROADSTAIRS STONE BAY",
          "eventStart": "2023-01-16T06:16:00",
          "eventStop": "2023-01-16T07:47:00",
          "duration": 91,
          "status": "Genuine",
          "associatedSiteId": 109673,
          "outfallName": "MARGATE NO1",
          "isImpacting": true,
          "overFlowSiteId": 116101,
          "historicSpillsList": []
        }
      ]
    },
    {
      "id": 344811821,
      "eventId": 738261,
      "siteUnitNumber": 12578,
      "bathingSite": "NORMANS BAY",
      "eventStart": "2023-01-16T03:47:00",
      "eventStop": "2023-01-16T07:40:00",
      "duration": 233,
      "status": "Genuine",
      "associatedSiteId": 115502,
      "outfallName": "MAPLE WALK BEXHILL",
      "isImpacting": true,
      "overFlowSiteId": 0,
      "historicSpillsList": [
        {
          "id": 344811821,
          "eventId": 738261,
          "siteUnitNumber": 12578,
          "bathingSite": "NORMANS BAY",
          "eventStart": "2023-01-16T03:47:00",
          "eventStop": "2023-01-16T07:40:00",
          "duration": 233,
          "status": "Genuine",
          "associatedSiteId": 115502,
          "outfallName": "MAPLE WALK BEXHILL",
          "isImpacting": true,
          "overFlowSiteId": 102404
        }
      ]
    },
    {
      "id": 344777849,
      "eventId": 733659,
      "siteUnitNumber": 12600,
      "bathingSite": "EASTOKE",
      "eventStart": "2023-01-16T03:07:00",
      "eventStop": "2023-01-16T07:35:00",
      "duration": 268,
      "status": "Genuine",
      "associatedSiteId": 109775,
      "outfallName": "GREEN LANE HAYLING ISLAND",
      "isImpacting": true,
      "overFlowSiteId": 0,
      "historicSpillsList": [
        {
          "id": 344777849,
          "eventId": 733659,
          "siteUnitNumber": 12600,
          "bathingSite": "EASTOKE",
          "eventStart": "2023-01-16T03:07:00",
          "eventStop": "2023-01-16T07:35:00",
          "duration": 268,
          "status": "Genuine",
          "associatedSiteId": 109775,
          "outfallName": "GREEN LANE HAYLING ISLAND",
          "isImpacting": true,
          "overFlowSiteId": 108769
        },
        {
          "id": 344777850,
          "eventId": 733659,
          "siteUnitNumber": 12601,
          "bathingSite": "BEACHLANDS CENTRAL",
          "eventStart": "2023-01-16T03:07:00",
          "eventStop": "2023-01-16T07:35:00",
          "duration": 268,
          "status": "Genuine",
          "associatedSiteId": 109775,
          "outfallName": "GREEN LANE HAYLING ISLAND",
          "isImpacting": true,
          "overFlowSiteId": 108769,
          "historicSpillsList": []
        },
        {
          "id": 344777851,
          "eventId": 733659,
          "siteUnitNumber": 12602,
          "bathingSite": "BEACHLANDS WEST",
          "eventStart": "2023-01-16T03:07:00",
          "eventStop": "2023-01-16T07:35:00",
          "duration": 268,
          "status": "Genuine",
          "associatedSiteId": 109775,
          "outfallName": "GREEN LANE HAYLING ISLAND",
          "isImpacting": true,
          "overFlowSiteId": 108769,
          "historicSpillsList": []
        }
      ]
    },
    {
      "id": 344795440,
      "eventId": 734840,
      "siteUnitNumber": 12593,
      "bathingSite": "FELPHAM",
      "eventStart": "2023-01-16T03:23:00",
      "eventStop": "2023-01-16T07:31:00",
      "duration": 248,
      "status": "Genuine",
      "associatedSiteId": 109970,
      "outfallName": "CHICHESTER ROAD BOGNOR",
      "isImpacting": true,
      "overFlowSiteId": 0,
      "historicSpillsList": [
        {
          "id": 344795440,
          "eventId": 734840,
          "siteUnitNumber": 12593,
          "bathingSite": "FELPHAM",
          "eventStart": "2023-01-16T03:23:00",
          "eventStop": "2023-01-16T07:31:00",
          "duration": 248,
          "status": "Genuine",
          "associatedSiteId": 109970,
          "outfallName": "CHICHESTER ROAD BOGNOR",
          "isImpacting": true,
          "overFlowSiteId": 103301
        },
        {
          "id": 344795432,
          "eventId": 734840,
          "siteUnitNumber": 12594,
          "bathingSite": "BOGNOR REGIS EAST",
          "eventStart": "2023-01-16T03:23:00",
          "eventStop": "2023-01-16T07:31:00",
          "duration": 248,
          "status": "Genuine",
          "associatedSiteId": 109970,
          "outfallName": "CHICHESTER ROAD BOGNOR",
          "isImpacting": true,
          "overFlowSiteId": 103301,
          "historicSpillsList": []
        },
        {
          "id": 344795433,
          "eventId": 734840,
          "siteUnitNumber": 12595,
          "bathingSite": "BOGNOR REGIS (ALDWICK)",
          "eventStart": "2023-01-16T03:23:00",
          "eventStop": "2023-01-16T07:31:00",
          "duration": 248,
          "status": "Genuine",
          "associatedSiteId": 109970,
          "outfallName": "CHICHESTER ROAD BOGNOR",
          "isImpacting": true,
          "overFlowSiteId": 103301,
          "historicSpillsList": []
        }
      ]
    },
    {
      "id": 344774611,
      "eventId": 734436,
      "siteUnitNumber": 12616,
      "bathingSite": "GURNARD",
      "eventStart": "2023-01-16T07:11:28",
      "eventStop": "2023-01-16T07:28:46",
      "duration": 17,
      "status": "Genuine",
      "associatedSiteId": 109703,
      "outfallName": "CASTLE STREET COWES",
      "isImpacting": true,
      "overFlowSiteId": 0,
      "historicSpillsList": [
        {
          "id": 344774611,
          "eventId": 734436,
          "siteUnitNumber": 12616,
          "bathingSite": "GURNARD",
          "eventStart": "2023-01-16T07:11:28",
          "eventStop": "2023-01-16T07:28:46",
          "duration": 17,
          "status": "Genuine",
          "associatedSiteId": 109703,
          "outfallName": "CASTLE STREET COWES",
          "isImpacting": true,
          "overFlowSiteId": 108822
        },
        {
          "id": 344774612,
          "eventId": 734436,
          "siteUnitNumber": 12617,
          "bathingSite": "COWES",
          "eventStart": "2023-01-16T07:11:28",
          "eventStop": "2023-01-16T07:28:46",
          "duration": 17,
          "status": "Genuine",
          "associatedSiteId": 109703,
          "outfallName": "CASTLE STREET COWES",
          "isImpacting": true,
          "overFlowSiteId": 108822,
          "historicSpillsList": []
        }
      ]
    },
    {
      "id": 344772224,
      "eventId": 733424,
      "siteUnitNumber": 12614,
      "bathingSite": "TOTLAND BAY",
      "eventStart": "2023-01-16T01:37:39",
      "eventStop": "2023-01-16T07:23:16",
      "duration": 345,
      "status": "Genuine",
      "associatedSiteId": 109657,
      "outfallName": "THE PROMENADE TOTLAND PIER NO2",
      "isImpacting": false,
      "overFlowSiteId": 0,
      "historicSpillsList": []
    },
    {
      "id": 344797781,
      "eventId": 733859,
      "siteUnitNumber": 12626,
      "bathingSite": "VENTNOR",
      "eventStart": "2023-01-16T03:52:33",
      "eventStop": "2023-01-16T07:22:00",
      "duration": 209,
      "status": "Genuine",
      "associatedSiteId": 110064,
      "outfallName": "LION POINT VENTNOR",
      "isImpacting": true,
      "overFlowSiteId": 0,
      "historicSpillsList": [
        {
          "id": 344797781,
          "eventId": 733859,
          "siteUnitNumber": 12626,
          "bathingSite": "VENTNOR",
          "eventStart": "2023-01-16T03:52:33",
          "eventStop": "2023-01-16T07:22:00",
          "duration": 209,
          "status": "Genuine",
          "associatedSiteId": 110064,
          "outfallName": "LION POINT VENTNOR",
          "isImpacting": true,
          "overFlowSiteId": 108546
        }
      ]
    },
    {
      "id": 344790776,
      "eventId": 733662,
      "siteUnitNumber": 12619,
      "bathingSite": "SEAGROVE",
      "eventStart": "2023-01-16T02:59:00",
      "eventStop": "2023-01-16T07:17:00",
      "duration": 258,
      "status": "Genuine",
      "associatedSiteId": 109941,
      "outfallName": "LATIMER ROAD ST HELENS",
      "isImpacting": false,
      "overFlowSiteId": 0,
      "historicSpillsList": []
    },
    {
      "id": 344780151,
      "eventId": 733987,
      "siteUnitNumber": 12567,
      "bathingSite": "FOLKESTONE",
      "eventStart": "2023-01-16T02:46:59",
      "eventStop": "2023-01-16T07:13:39",
      "duration": 266,
      "status": "Not Genuine",
      "associatedSiteId": 109794,
      "outfallName": "GRANVILLE PARADE SANDGATE",
      "isImpacting": false,
      "overFlowSiteId": 0,
      "historicSpillsList": []
    },
    {
      "id": 344781280,
      "eventId": 733636,
      "siteUnitNumber": 12601,
      "bathingSite": "BEACHLANDS CENTRAL",
      "eventStart": "2023-01-16T02:45:00",
      "eventStop": "2023-01-16T07:00:00",
      "duration": 255,
      "status": "Genuine",
      "associatedSiteId": 109823,
      "outfallName": "FORT CUMBERLAND NO1",
      "isImpacting": true,
      "overFlowSiteId": 0,
      "historicSpillsList": [
        {
          "id": 344781282,
          "eventId": 733636,
          "siteUnitNumber": 12603,
          "bathingSite": "EASTNEY",
          "eventStart": "2023-01-16T02:45:00",
          "eventStop": "2023-01-16T07:00:00",
          "duration": 255,
          "status": "Genuine",
          "associatedSiteId": 109823,
          "outfallName": "FORT CUMBERLAND NO1",
          "isImpacting": true,
          "overFlowSiteId": 110658,
          "historicSpillsList": []
        },
        {
          "id": 344781284,
          "eventId": 733636,
          "siteUnitNumber": 12661,
          "bathingSite": "LANGSTONE HARBOUR",
          "eventStart": "2023-01-16T02:45:00",
          "eventStop": "2023-01-16T07:00:00",
          "duration": 255,
          "status": "Genuine",
          "associatedSiteId": 109823,
          "outfallName": "FORT CUMBERLAND NO1",
          "isImpacting": true,
          "overFlowSiteId": 110658,
          "historicSpillsList": []
        }
      ]
    },
    {
      "id": 344776051,
      "eventId": 733251,
      "siteUnitNumber": 12616,
      "bathingSite": "GURNARD",
      "eventStart": "2023-01-15T23:55:00",
      "eventStop": "2023-01-16T06:51:00",
      "duration": 416,
      "status": "Genuine",
      "associatedSiteId": 109707,
      "outfallName": "MEDINA ROAD COWES",
      "isImpacting": false,
      "overFlowSiteId": 0,
      "historicSpillsList": []
    },
    {
      "id": 344779922,
      "eventId": 733561,
      "siteUnitNumber": 12618,
      "bathingSite": "RYDE",
      "eventStart": "2023-01-16T02:25:39",
      "eventStop": "2023-01-16T06:38:00",
      "duration": 252,
      "status": "Genuine",
      "associatedSiteId": 109790,
      "outfallName": "GREAT PRESTON ROAD RYDE",
      "isImpacting": true,
      "overFlowSiteId": 0,
      "historicSpillsList": [
        {
          "id": 344779922,
          "eventId": 733561,
          "siteUnitNumber": 12618,
          "bathingSite": "RYDE",
          "eventStart": "2023-01-16T02:25:39",
          "eventStop": "2023-01-16T06:38:00",
          "duration": 252,
          "status": "Genuine",
          "associatedSiteId": 109790,
          "outfallName": "GREAT PRESTON ROAD RYDE",
          "isImpacting": true,
          "overFlowSiteId": 109304
        },
        {
          "id": 344779923,
          "eventId": 733561,
          "siteUnitNumber": 12619,
          "bathingSite": "SEAGROVE",
          "eventStart": "2023-01-16T02:25:39",
          "eventStop": "2023-01-16T06:38:00",
          "duration": 252,
          "status": "Genuine",
          "associatedSiteId": 109790,
          "outfallName": "GREAT PRESTON ROAD RYDE",
          "isImpacting": true,
          "overFlowSiteId": 109304,
          "historicSpillsList": []
        }
      ]
    },
    {
      "id": 344795470,
      "eventId": 758403,
      "siteUnitNumber": 12591,
      "bathingSite": "LITTLEHAMPTON",
      "eventStart": "2023-01-16T06:35:00",
      "eventStop": "2023-01-16T06:35:00",
      "duration": 0,
      "status": "Not Genuine",
      "associatedSiteId": 109971,
      "outfallName": "BROADMARK LANE RUSTINGTON",
      "isImpacting": true,
      "overFlowSiteId": 0,
      "historicSpillsList": []
    },
    {
      "id": 344774851,
      "eventId": 733635,
      "siteUnitNumber": 12616,
      "bathingSite": "GURNARD",
      "eventStart": "2023-01-16T02:45:00",
      "eventStop": "2023-01-16T06:30:00",
      "duration": 225,
      "status": "Genuine",
      "associatedSiteId": 109704,
      "outfallName": "EGYPT POINT COWES",
      "isImpacting": true,
      "overFlowSiteId": 0,
      "historicSpillsList": [
        {
          "id": 344774852,
          "eventId": 733635,
          "siteUnitNumber": 12617,
          "bathingSite": "COWES",
          "eventStart": "2023-01-16T02:45:00",
          "eventStop": "2023-01-16T06:30:00",
          "duration": 225,
          "status": "Genuine",
          "associatedSiteId": 109704,
          "outfallName": "EGYPT POINT COWES",
          "isImpacting": true,
          "overFlowSiteId": 108518,
          "historicSpillsList": []
        }
      ]
    },
    {
      "id": 344804562,
      "eventId": 733355,
      "siteUnitNumber": 12586,
      "bathingSite": "HOVE",
      "eventStart": "2023-01-16T01:00:00",
      "eventStop": "2023-01-16T06:30:00",
      "duration": 330,
      "status": "Not Genuine",
      "associatedSiteId": 110669,
      "outfallName": "ALBION GROYNE BRIGHTON",
      "isImpacting": true,
      "overFlowSiteId": 0,
      "historicSpillsList": []
    },
    {
      "id": 344769823,
      "eventId": 733712,
      "siteUnitNumber": 12618,
      "bathingSite": "RYDE",
      "eventStart": "2023-01-16T03:15:00",
      "eventStop": "2023-01-16T06:21:00",
      "duration": 186,
      "status": "Genuine",
      "associatedSiteId": 102971,
      "outfallName": "SPRING VALE",
      "isImpacting": false,
      "overFlowSiteId": 0,
      "historicSpillsList": []
    },
    {
      "id": 344770041,
      "eventId": 733788,
      "siteUnitNumber": 12544,
      "bathingSite": "SHEERNESS",
      "eventStart": "2023-01-16T03:49:00",
      "eventStop": "2023-01-16T06:20:00",
      "duration": 151,
      "status": "Genuine",
      "associatedSiteId": 109614,
      "outfallName": "BRIELLE WAY WESTMINSTER",
      "isImpacting": false,
      "overFlowSiteId": 0,
      "historicSpillsList": []
    },
    {
      "id": 344797489,
      "eventId": 733565,
      "siteUnitNumber": 12624,
      "bathingSite": "SANDOWN",
      "eventStart": "2023-01-16T02:43:03",
      "eventStop": "2023-01-16T06:20:00",
      "duration": 216,
      "status": "Genuine",
      "associatedSiteId": 110029,
      "outfallName": "HOPE BEACH SHANKLIN NEW",
      "isImpacting": true,
      "overFlowSiteId": 0,
      "historicSpillsList": [
        {
          "id": 344797490,
          "eventId": 733565,
          "siteUnitNumber": 12625,
          "bathingSite": "SHANKLIN",
          "eventStart": "2023-01-16T02:43:03",
          "eventStop": "2023-01-16T06:20:00",
          "duration": 216,
          "status": "Genuine",
          "associatedSiteId": 110029,
          "outfallName": "HOPE BEACH SHANKLIN NEW",
          "isImpacting": true,
          "overFlowSiteId": 109389,
          "historicSpillsList": []
        }
      ]
    },
    {
      "id": 344784922,
      "eventId": 734125,
      "siteUnitNumber": 12568,
      "bathingSite": "SANDGATE",
      "eventStart": "2023-01-16T03:36:00",
      "eventStop": "2023-01-16T06:08:00",
      "duration": 152,
      "status": "Genuine",
      "associatedSiteId": 109896,
      "outfallName": "RANGE ROAD HYTHE K SHORT",
      "isImpacting": true,
      "overFlowSiteId": 0,
      "historicSpillsList": [
        {
          "id": 344784923,
          "eventId": 734125,
          "siteUnitNumber": 12569,
          "bathingSite": "HYTHE",
          "eventStart": "2023-01-16T03:36:00",
          "eventStop": "2023-01-16T06:08:00",
          "duration": 152,
          "status": "Genuine",
          "associatedSiteId": 109896,
          "outfallName": "RANGE ROAD HYTHE K SHORT",
          "isImpacting": true,
          "overFlowSiteId": 116112,
          "historicSpillsList": []
        }
      ]
    },
    {
      "id": 344769826,
      "eventId": 733602,
      "siteUnitNumber": 12618,
      "bathingSite": "RYDE",
      "eventStart": "2023-01-16T02:41:00",
      "eventStop": "2023-01-16T06:01:00",
      "duration": 200,
      "status": "Genuine",
      "associatedSiteId": 102971,
      "outfallName": "SPRING VALE",
      "isImpacting": false,
      "overFlowSiteId": 0,
      "historicSpillsList": []
    },
    {
      "id": 344795022,
      "eventId": 733647,
      "siteUnitNumber": 12595,
      "bathingSite": "BOGNOR REGIS (ALDWICK)",
      "eventStart": "2023-01-16T02:51:24",
      "eventStop": "2023-01-16T06:00:00",
      "duration": 188,
      "status": "Genuine",
      "associatedSiteId": 109967,
      "outfallName": "GLOUCESTER ROAD BOGNOR",
      "isImpacting": true,
      "overFlowSiteId": 0,
      "historicSpillsList": [
        {
          "id": 344795030,
          "eventId": 733647,
          "siteUnitNumber": 12593,
          "bathingSite": "FELPHAM",
          "eventStart": "2023-01-16T02:51:24",
          "eventStop": "2023-01-16T06:00:00",
          "duration": 188,
          "status": "Genuine",
          "associatedSiteId": 109967,
          "outfallName": "GLOUCESTER ROAD BOGNOR",
          "isImpacting": true,
          "overFlowSiteId": 103299,
          "historicSpillsList": []
        }
      ]
    }
  ]
}