{
  "currentPage": 469,
  "totalItems": 18701,
  "totalPages": 749,
  "items": [
    {
      "id": 343972720,
      "eventId": 650812,
      "siteUnitNumber": 12549,
      "bathingSite": "HERNE BAY CENTRAL",
      "eventStart": "2022-10-31T22:14:00",
      "eventStop": "2022-11-01T00:00:00",
      "duration": 106,
      "status": "Genuine",
      "associatedSiteId": 109830,
      "outfallName": "SWALECLIFFE NO1",
      "isImpacting": false,
      "overFlowSiteId": 0,
      "historicSpillsList": []
    },
    {
      "id": 343997214,
      "eventId": 650775,
      "siteUnitNumber": 12582,
      "bathingSite": "SEAFORD",
      "eventStart": "2022-10-31T21:38:07",
      "eventStop": "2022-10-31T23:35:58",
      "duration": 117,
      "status": "Genuine",
      "associatedSiteId": 110920,
      "outfallName": "NEWHAVEN",
      "isImpacting": false,
      "overFlowSiteId": 0,
      "historicSpillsList": []
    },
    {
      "id": 343982484,
      "eventId": 650787,
      "siteUnitNumber": 12582,
      "bathingSite": "SEAFORD",
      "eventStart": "2022-10-31T22:30:00",
      "eventStop": "2022-10-31T23:30:00",
      "duration": 60,
      "status": "Genuine",
      "associatedSiteId": 109957,
      "outfallName": "PORTOBELLO BRIGHTON NO2",
      "isImpacting": false,
      "overFlowSiteId": 0,
      "historicSpillsList": []
    },
    {
      "id": 343984643,
      "eventId": 650859,
      "siteUnitNumber": 12594,
      "bathingSite": "BOGNOR REGIS EAST",
      "eventStart": "2022-10-31T22:42:00",
      "eventStop": "2022-10-31T23:28:00",
      "duration": 46,
      "status": "Genuine",
      "associatedSiteId": 109959,
      "outfallName": "WEST PARK BOGNOR REGIS",
      "isImpacting": true,
      "overFlowSiteId": 0,
      "historicSpillsList": [
        {
          "id": 343984645,
          "eventId": 650859,
          "siteUnitNumber": 12596,
          "bathingSite": "PAGHAM",
          "eventStart": "2022-10-31T22:42:00",
          "eventStop": "2022-10-31T23:28:00",
          "duration": 46,
          "status": "Genuine",
          "associatedSiteId": 109959,
          "outfallName": "WEST PARK BOGNOR REGIS",
          "isImpacting": true,
          "overFlowSiteId": 108160,
          "historicSpillsList": []
        }
      ]
    },
    {
      "id": 343976892,
      "eventId": 650912,
      "siteUnitNumber": 12568,
      "bathingSite": "SANDGATE",
      "eventStart": "2022-10-31T23:04:47",
      "eventStop": "2022-10-31T23:17:08",
      "duration": 12,
      "status": "Genuine",
      "associatedSiteId": 109897,
      "outfallName": "RANGE ROAD HYTHE K LONG",
      "isImpacting": false,
      "overFlowSiteId": 0,
      "historicSpillsList": []
    },
    {
      "id": 343976886,
      "eventId": 650929,
      "siteUnitNumber": 12568,
      "bathingSite": "SANDGATE",
      "eventStart": "2022-10-31T23:00:00",
      "eventStop": "2022-10-31T23:04:47",
      "duration": 4,
      "status": "Genuine",
      "associatedSiteId": 109897,
      "outfallName": "RANGE ROAD HYTHE K LONG",
      "isImpacting": false,
      "overFlowSiteId": 0,
      "historicSpillsList": []
    },
    {
      "id": 343978568,
      "eventId": 650786,
      "siteUnitNumber": 12576,
      "bathingSite": "ST LEONARDS",
      "eventStart": "2022-10-31T21:48:01",
      "eventStop": "2022-10-31T22:43:46",
      "duration": 55,
      "status": "Genuine",
      "associatedSiteId": 109903,
      "outfallName": "BEXHILL & HASTINGS NO2",
      "isImpacting": true,
      "overFlowSiteId": 0,
      "historicSpillsList": [
        {
          "id": 343978568,
          "eventId": 650786,
          "siteUnitNumber": 12576,
          "bathingSite": "ST LEONARDS",
          "eventStart": "2022-10-31T21:48:01",
          "eventStop": "2022-10-31T22:43:46",
          "duration": 55,
          "status": "Genuine",
          "associatedSiteId": 109903,
          "outfallName": "BEXHILL & HASTINGS NO2",
          "isImpacting": true,
          "overFlowSiteId": 115398
        },
        {
          "id": 343978569,
          "eventId": 650786,
          "siteUnitNumber": 12577,
          "bathingSite": "BEXHILL",
          "eventStart": "2022-10-31T21:48:01",
          "eventStop": "2022-10-31T22:43:46",
          "duration": 55,
          "status": "Genuine",
          "associatedSiteId": 109903,
          "outfallName": "BEXHILL & HASTINGS NO2",
          "isImpacting": true,
          "overFlowSiteId": 115398,
          "historicSpillsList": []
        }
      ]
    },
    {
      "id": 343969162,
      "eventId": 650716,
      "siteUnitNumber": 12617,
      "bathingSite": "COWES",
      "eventStart": "2022-10-31T22:04:00",
      "eventStop": "2022-10-31T22:39:00",
      "duration": 35,
      "status": "Genuine",
      "associatedSiteId": 109777,
      "outfallName": "APPLEY PARK RYDE TRANSFER",
      "isImpacting": false,
      "overFlowSiteId": 0,
      "historicSpillsList": []
    },
    {
      "id": 343969164,
      "eventId": 650622,
      "siteUnitNumber": 12617,
      "bathingSite": "COWES",
      "eventStart": "2022-10-31T16:40:22",
      "eventStop": "2022-10-31T17:42:00",
      "duration": 61,
      "status": "Genuine",
      "associatedSiteId": 109777,
      "outfallName": "APPLEY PARK RYDE TRANSFER",
      "isImpacting": false,
      "overFlowSiteId": 0,
      "historicSpillsList": []
    },
    {
      "id": 343978566,
      "eventId": 650166,
      "siteUnitNumber": 12576,
      "bathingSite": "ST LEONARDS",
      "eventStart": "2022-10-30T09:55:00",
      "eventStop": "2022-10-30T13:00:00",
      "duration": 185,
      "status": "Genuine",
      "associatedSiteId": 109903,
      "outfallName": "BEXHILL & HASTINGS NO2",
      "isImpacting": true,
      "overFlowSiteId": 0,
      "historicSpillsList": [
        {
          "id": 343978566,
          "eventId": 650166,
          "siteUnitNumber": 12576,
          "bathingSite": "ST LEONARDS",
          "eventStart": "2022-10-30T09:55:00",
          "eventStop": "2022-10-30T13:00:00",
          "duration": 185,
          "status": "Genuine",
          "associatedSiteId": 109903,
          "outfallName": "BEXHILL & HASTINGS NO2",
          "isImpacting": true,
          "overFlowSiteId": 115398
        },
        {
          "id": 343978567,
          "eventId": 650166,
          "siteUnitNumber": 12577,
          "bathingSite": "BEXHILL",
          "eventStart": "2022-10-30T09:55:00",
          "eventStop": "2022-10-30T13:00:00",
          "duration": 185,
          "status": "Genuine",
          "associatedSiteId": 109903,
          "outfallName": "BEXHILL & HASTINGS NO2",
          "isImpacting": true,
          "overFlowSiteId": 115398,
          "historicSpillsList": []
        }
      ]
    },
    {
      "id": 343969166,
      "eventId": 650162,
      "siteUnitNumber": 12617,
      "bathingSite": "COWES",
      "eventStart": "2022-10-30T11:46:00",
      "eventStop": "2022-10-30T12:14:00",
      "duration": 28,
      "status": "Genuine",
      "associatedSiteId": 109777,
      "outfallName": "APPLEY PARK RYDE TRANSFER",
      "isImpacting": false,
      "overFlowSiteId": 0,
      "historicSpillsList": []
    },
    {
      "id": 343969168,
      "eventId": 650161,
      "siteUnitNumber": 12617,
      "bathingSite": "COWES",
      "eventStart": "2022-10-30T10:16:00",
      "eventStop": "2022-10-30T11:12:00",
      "duration": 56,
      "status": "Genuine",
      "associatedSiteId": 109777,
      "outfallName": "APPLEY PARK RYDE TRANSFER",
      "isImpacting": false,
      "overFlowSiteId": 0,
      "historicSpillsList": []
    },
    {
      "id": 343969170,
      "eventId": 650160,
      "siteUnitNumber": 12617,
      "bathingSite": "COWES",
      "eventStart": "2022-10-30T08:15:00",
      "eventStop": "2022-10-30T10:15:00",
      "duration": 120,
      "status": "Genuine",
      "associatedSiteId": 109777,
      "outfallName": "APPLEY PARK RYDE TRANSFER",
      "isImpacting": true,
      "overFlowSiteId": 0,
      "historicSpillsList": [
        {
          "id": 343969171,
          "eventId": 650160,
          "siteUnitNumber": 12618,
          "bathingSite": "RYDE",
          "eventStart": "2022-10-30T08:15:00",
          "eventStop": "2022-10-30T10:15:00",
          "duration": 120,
          "status": "Genuine",
          "associatedSiteId": 109777,
          "outfallName": "APPLEY PARK RYDE TRANSFER",
          "isImpacting": true,
          "overFlowSiteId": 108941,
          "historicSpillsList": []
        }
      ]
    },
    {
      "id": 343978574,
      "eventId": 650028,
      "siteUnitNumber": 12576,
      "bathingSite": "ST LEONARDS",
      "eventStart": "2022-10-30T07:49:00",
      "eventStop": "2022-10-30T08:16:00",
      "duration": 27,
      "status": "Genuine",
      "associatedSiteId": 109903,
      "outfallName": "BEXHILL & HASTINGS NO2",
      "isImpacting": true,
      "overFlowSiteId": 0,
      "historicSpillsList": [
        {
          "id": 343978574,
          "eventId": 650028,
          "siteUnitNumber": 12576,
          "bathingSite": "ST LEONARDS",
          "eventStart": "2022-10-30T07:49:00",
          "eventStop": "2022-10-30T08:16:00",
          "duration": 27,
          "status": "Genuine",
          "associatedSiteId": 109903,
          "outfallName": "BEXHILL & HASTINGS NO2",
          "isImpacting": true,
          "overFlowSiteId": 115398
        },
        {
          "id": 343978575,
          "eventId": 650028,
          "siteUnitNumber": 12577,
          "bathingSite": "BEXHILL",
          "eventStart": "2022-10-30T07:49:00",
          "eventStop": "2022-10-30T08:16:00",
          "duration": 27,
          "status": "Genuine",
          "associatedSiteId": 109903,
          "outfallName": "BEXHILL & HASTINGS NO2",
          "isImpacting": true,
          "overFlowSiteId": 115398,
          "historicSpillsList": []
        }
      ]
    },
    {
      "id": 343966699,
      "eventId": 648894,
      "siteUnitNumber": 12616,
      "bathingSite": "GURNARD",
      "eventStart": "2022-10-27T12:42:15",
      "eventStop": "2022-10-27T13:00:54",
      "duration": 18,
      "status": "Genuine",
      "associatedSiteId": 109706,
      "outfallName": "HIGH STREET COWES",
      "isImpacting": false,
      "overFlowSiteId": 0,
      "historicSpillsList": []
    },
    {
      "id": 343966701,
      "eventId": 648738,
      "siteUnitNumber": 12616,
      "bathingSite": "GURNARD",
      "eventStart": "2022-10-26T13:58:00",
      "eventStop": "2022-10-26T15:27:00",
      "duration": 89,
      "status": "Genuine",
      "associatedSiteId": 109706,
      "outfallName": "HIGH STREET COWES",
      "isImpacting": false,
      "overFlowSiteId": 0,
      "historicSpillsList": []
    },
    {
      "id": 343966703,
      "eventId": 648501,
      "siteUnitNumber": 12616,
      "bathingSite": "GURNARD",
      "eventStart": "2022-10-26T13:24:12",
      "eventStop": "2022-10-26T13:57:00",
      "duration": 32,
      "status": "Genuine",
      "associatedSiteId": 109706,
      "outfallName": "HIGH STREET COWES",
      "isImpacting": false,
      "overFlowSiteId": 0,
      "historicSpillsList": []
    },
    {
      "id": 343966705,
      "eventId": 648464,
      "siteUnitNumber": 12616,
      "bathingSite": "GURNARD",
      "eventStart": "2022-10-26T12:06:54",
      "eventStop": "2022-10-26T13:13:28",
      "duration": 66,
      "status": "Genuine",
      "associatedSiteId": 109706,
      "outfallName": "HIGH STREET COWES",
      "isImpacting": false,
      "overFlowSiteId": 0,
      "historicSpillsList": []
    },
    {
      "id": 343966707,
      "eventId": 648269,
      "siteUnitNumber": 12616,
      "bathingSite": "GURNARD",
      "eventStart": "2022-10-26T00:30:56",
      "eventStop": "2022-10-26T02:17:00",
      "duration": 106,
      "status": "Genuine",
      "associatedSiteId": 109706,
      "outfallName": "HIGH STREET COWES",
      "isImpacting": false,
      "overFlowSiteId": 0,
      "historicSpillsList": []
    },
    {
      "id": 343969172,
      "eventId": 648318,
      "siteUnitNumber": 12617,
      "bathingSite": "COWES",
      "eventStart": "2022-10-25T09:37:00",
      "eventStop": "2022-10-25T13:24:00",
      "duration": 227,
      "status": "Genuine",
      "associatedSiteId": 109777,
      "outfallName": "APPLEY PARK RYDE TRANSFER",
      "isImpacting": true,
      "overFlowSiteId": 0,
      "historicSpillsList": [
        {
          "id": 343969173,
          "eventId": 648318,
          "siteUnitNumber": 12618,
          "bathingSite": "RYDE",
          "eventStart": "2022-10-25T09:37:00",
          "eventStop": "2022-10-25T13:24:00",
          "duration": 227,
          "status": "Genuine",
          "associatedSiteId": 109777,
          "outfallName": "APPLEY PARK RYDE TRANSFER",
          "isImpacting": true,
          "overFlowSiteId": 108941,
          "historicSpillsList": []
        }
      ]
    },
    {
      "id": 343966709,
      "eventId": 648070,
      "siteUnitNumber": 12616,
      "bathingSite": "GURNARD",
      "eventStart": "2022-10-25T12:16:34",
      "eventStop": "2022-10-25T12:37:57",
      "duration": 21,
      "status": "Genuine",
      "associatedSiteId": 109706,
      "outfallName": "HIGH STREET COWES",
      "isImpacting": false,
      "overFlowSiteId": 0,
      "historicSpillsList": []
    },
    {
      "id": 343984649,
      "eventId": 648020,
      "siteUnitNumber": 12594,
      "bathingSite": "BOGNOR REGIS EAST",
      "eventStart": "2022-10-25T10:25:00",
      "eventStop": "2022-10-25T11:57:00",
      "duration": 92,
      "status": "Genuine",
      "associatedSiteId": 109959,
      "outfallName": "WEST PARK BOGNOR REGIS",
      "isImpacting": false,
      "overFlowSiteId": 0,
      "historicSpillsList": []
    },
    {
      "id": 343964875,
      "eventId": 648129,
      "siteUnitNumber": 12616,
      "bathingSite": "GURNARD",
      "eventStart": "2022-10-25T10:05:00",
      "eventStop": "2022-10-25T11:21:00",
      "duration": 76,
      "status": "Genuine",
      "associatedSiteId": 109700,
      "outfallName": "MARKET HILL COWES",
      "isImpacting": false,
      "overFlowSiteId": 0,
      "historicSpillsList": []
    },
    {
      "id": 343971191,
      "eventId": 648013,
      "siteUnitNumber": 12661,
      "bathingSite": "LANGSTONE HARBOUR",
      "eventStart": "2022-10-25T03:51:00",
      "eventStop": "2022-10-25T04:57:00",
      "duration": 66,
      "status": "Genuine",
      "associatedSiteId": 109819,
      "outfallName": "COURT LANE COSHAM",
      "isImpacting": true,
      "overFlowSiteId": 0,
      "historicSpillsList": [
        {
          "id": 343971191,
          "eventId": 648013,
          "siteUnitNumber": 12661,
          "bathingSite": "LANGSTONE HARBOUR",
          "eventStart": "2022-10-25T03:51:00",
          "eventStop": "2022-10-25T04:57:00",
          "duration": 66,
          "status": "Genuine",
          "associatedSiteId": 109819,
          "outfallName": "COURT LANE COSHAM",
          "isImpacting": true,
          "overFlowSiteId": 115958
        }
      ]
    },
    {
      "id": 343969174,
      "eventId": 645611,
      "siteUnitNumber": 12617,
      "bathingSite": "COWES",
      "eventStart": "2022-10-23T06:16:29",
      "eventStop": "2022-10-24T23:25:00",
      "duration": 2468,
      "status": "Genuine",
      "associatedSiteId": 109777,
      "outfallName": "APPLEY PARK RYDE TRANSFER",
      "isImpacting": true,
      "overFlowSiteId": 0,
      "historicSpillsList": [
        {
          "id": 343969175,
          "eventId": 645611,
          "siteUnitNumber": 12618,
          "bathingSite": "RYDE",
          "eventStart": "2022-10-23T06:16:29",
          "eventStop": "2022-10-24T23:25:00",
          "duration": 2468,
          "status": "Genuine",
          "associatedSiteId": 109777,
          "outfallName": "APPLEY PARK RYDE TRANSFER",
          "isImpacting": true,
          "overFlowSiteId": 108941,
          "historicSpillsList": []
        }
      ]
    }
  ]
}