{
  "currentPage": 164,
  "totalItems": 18701,
  "totalPages": 749,
  "items": [
    {
      "id": 343945527,
      "eventId": 889466,
      "siteUnitNumber": 12623,
      "bathingSite": "YAVERLAND",
      "eventStart": "2023-10-25T07:53:00",
      "eventStop": "2023-10-25T07:59:00",
      "duration": 6,
      "status": "Genuine",
      "associatedSiteId": 110029,
      "outfallName": "HOPE BEACH SHANKLIN NEW",
      "isImpacting": true,
      "overFlowSiteId": 0,
      "historicSpillsList": [
        {
          "id": 343945529,
          "eventId": 889466,
          "siteUnitNumber": 12625,
          "bathingSite": "SHANKLIN",
          "eventStart": "2023-10-25T07:53:00",
          "eventStop": "2023-10-25T07:59:00",
          "duration": 6,
          "status": "Genuine",
          "associatedSiteId": 110029,
          "outfallName": "HOPE BEACH SHANKLIN NEW",
          "isImpacting": true,
          "overFlowSiteId": 109389,
          "historicSpillsList": []
        }
      ]
    },
    {
      "id": 343923857,
      "eventId": 878918,
      "siteUnitNumber": 12616,
      "bathingSite": "GURNARD",
      "eventStart": "2023-10-25T07:38:22",
      "eventStop": "2023-10-25T07:56:10",
      "duration": 17,
      "status": "Genuine",
      "associatedSiteId": 109706,
      "outfallName": "HIGH STREET COWES",
      "isImpacting": false,
      "overFlowSiteId": 0,
      "historicSpillsList": []
    },
    {
      "id": 343925532,
      "eventId": 878658,
      "siteUnitNumber": 12605,
      "bathingSite": "STOKES BAY",
      "eventStart": "2023-10-25T00:51:29",
      "eventStop": "2023-10-25T07:56:00",
      "duration": 424,
      "status": "Genuine",
      "associatedSiteId": 109733,
      "outfallName": "QUEENS ROAD LEE ON THE SOLENT",
      "isImpacting": true,
      "overFlowSiteId": 0,
      "historicSpillsList": [
        {
          "id": 343925533,
          "eventId": 878658,
          "siteUnitNumber": 12606,
          "bathingSite": "LEE-ON-SOLENT",
          "eventStart": "2023-10-25T00:51:29",
          "eventStop": "2023-10-25T07:56:00",
          "duration": 424,
          "status": "Genuine",
          "associatedSiteId": 109733,
          "outfallName": "QUEENS ROAD LEE ON THE SOLENT",
          "isImpacting": true,
          "overFlowSiteId": 110196,
          "historicSpillsList": []
        }
      ]
    },
    {
      "id": 343945525,
      "eventId": 889465,
      "siteUnitNumber": 12624,
      "bathingSite": "SANDOWN",
      "eventStart": "2023-10-25T07:41:00",
      "eventStop": "2023-10-25T07:48:00",
      "duration": 7,
      "status": "Genuine",
      "associatedSiteId": 110029,
      "outfallName": "HOPE BEACH SHANKLIN NEW",
      "isImpacting": true,
      "overFlowSiteId": 0,
      "historicSpillsList": [
        {
          "id": 343945526,
          "eventId": 889465,
          "siteUnitNumber": 12625,
          "bathingSite": "SHANKLIN",
          "eventStart": "2023-10-25T07:41:00",
          "eventStop": "2023-10-25T07:48:00",
          "duration": 7,
          "status": "Genuine",
          "associatedSiteId": 110029,
          "outfallName": "HOPE BEACH SHANKLIN NEW",
          "isImpacting": true,
          "overFlowSiteId": 109389,
          "historicSpillsList": []
        }
      ]
    },
    {
      "id": 343925761,
      "eventId": 889598,
      "siteUnitNumber": 12661,
      "bathingSite": "LANGSTONE HARBOUR",
      "eventStart": "2023-10-24T21:37:00",
      "eventStop": "2023-10-25T07:37:00",
      "duration": 600,
      "status": "Genuine",
      "associatedSiteId": 109773,
      "outfallName": "BUDDS FARM HAVANT NO2",
      "isImpacting": true,
      "overFlowSiteId": 0,
      "historicSpillsList": [
        {
          "id": 343925761,
          "eventId": 889598,
          "siteUnitNumber": 12661,
          "bathingSite": "LANGSTONE HARBOUR",
          "eventStart": "2023-10-24T21:37:00",
          "eventStop": "2023-10-25T07:37:00",
          "duration": 600,
          "status": "Genuine",
          "associatedSiteId": 109773,
          "outfallName": "BUDDS FARM HAVANT NO2",
          "isImpacting": true,
          "overFlowSiteId": 115936
        }
      ]
    },
    {
      "id": 343945530,
      "eventId": 889464,
      "siteUnitNumber": 12623,
      "bathingSite": "YAVERLAND",
      "eventStart": "2023-10-25T07:28:00",
      "eventStop": "2023-10-25T07:36:00",
      "duration": 8,
      "status": "Genuine",
      "associatedSiteId": 110029,
      "outfallName": "HOPE BEACH SHANKLIN NEW",
      "isImpacting": true,
      "overFlowSiteId": 0,
      "historicSpillsList": [
        {
          "id": 343945532,
          "eventId": 889464,
          "siteUnitNumber": 12625,
          "bathingSite": "SHANKLIN",
          "eventStart": "2023-10-25T07:28:00",
          "eventStop": "2023-10-25T07:36:00",
          "duration": 8,
          "status": "Genuine",
          "associatedSiteId": 110029,
          "outfallName": "HOPE BEACH SHANKLIN NEW",
          "isImpacting": true,
          "overFlowSiteId": 109389,
          "historicSpillsList": []
        }
      ]
    },
    {
      "id": 343940650,
      "eventId": 878053,
      "siteUnitNumber": 12594,
      "bathingSite": "BOGNOR REGIS EAST",
      "eventStart": "2023-10-24T18:22:00",
      "eventStop": "2023-10-25T07:27:00",
      "duration": 785,
      "status": "Genuine",
      "associatedSiteId": 109959,
      "outfallName": "WEST PARK BOGNOR REGIS",
      "isImpacting": true,
      "overFlowSiteId": 0,
      "historicSpillsList": [
        {
          "id": 343940650,
          "eventId": 878053,
          "siteUnitNumber": 12594,
          "bathingSite": "BOGNOR REGIS EAST",
          "eventStart": "2023-10-24T18:22:00",
          "eventStop": "2023-10-25T07:27:00",
          "duration": 785,
          "status": "Genuine",
          "associatedSiteId": 109959,
          "outfallName": "WEST PARK BOGNOR REGIS",
          "isImpacting": true,
          "overFlowSiteId": 108160
        }
      ]
    },
    {
      "id": 343923859,
      "eventId": 878892,
      "siteUnitNumber": 12616,
      "bathingSite": "GURNARD",
      "eventStart": "2023-10-25T06:51:11",
      "eventStop": "2023-10-25T07:26:51",
      "duration": 35,
      "status": "Genuine",
      "associatedSiteId": 109706,
      "outfallName": "HIGH STREET COWES",
      "isImpacting": false,
      "overFlowSiteId": 0,
      "historicSpillsList": []
    },
    {
      "id": 343945536,
      "eventId": 889463,
      "siteUnitNumber": 12623,
      "bathingSite": "YAVERLAND",
      "eventStart": "2023-10-25T07:13:00",
      "eventStop": "2023-10-25T07:24:00",
      "duration": 11,
      "status": "Genuine",
      "associatedSiteId": 110029,
      "outfallName": "HOPE BEACH SHANKLIN NEW",
      "isImpacting": true,
      "overFlowSiteId": 0,
      "historicSpillsList": [
        {
          "id": 343945538,
          "eventId": 889463,
          "siteUnitNumber": 12625,
          "bathingSite": "SHANKLIN",
          "eventStart": "2023-10-25T07:13:00",
          "eventStop": "2023-10-25T07:24:00",
          "duration": 11,
          "status": "Genuine",
          "associatedSiteId": 110029,
          "outfallName": "HOPE BEACH SHANKLIN NEW",
          "isImpacting": true,
          "overFlowSiteId": 109389,
          "historicSpillsList": []
        }
      ]
    },
    {
      "id": 343927668,
      "eventId": 878190,
      "siteUnitNumber": 12618,
      "bathingSite": "RYDE",
      "eventStart": "2023-10-24T23:52:00",
      "eventStop": "2023-10-25T07:19:00",
      "duration": 447,
      "status": "Genuine",
      "associatedSiteId": 109781,
      "outfallName": "SPENCER ROAD RYDE",
      "isImpacting": true,
      "overFlowSiteId": 0,
      "historicSpillsList": [
        {
          "id": 343927668,
          "eventId": 878190,
          "siteUnitNumber": 12618,
          "bathingSite": "RYDE",
          "eventStart": "2023-10-24T23:52:00",
          "eventStop": "2023-10-25T07:19:00",
          "duration": 447,
          "status": "Genuine",
          "associatedSiteId": 109781,
          "outfallName": "SPENCER ROAD RYDE",
          "isImpacting": true,
          "overFlowSiteId": 108566
        }
      ]
    },
    {
      "id": 343955037,
      "eventId": 878757,
      "siteUnitNumber": 12614,
      "bathingSite": "TOTLAND BAY",
      "eventStart": "2023-10-25T04:15:11",
      "eventStop": "2023-10-25T07:10:02",
      "duration": 174,
      "status": "Genuine",
      "associatedSiteId": 111309,
      "outfallName": "NEW ROAD ALUM BAY",
      "isImpacting": true,
      "overFlowSiteId": 0,
      "historicSpillsList": [
        {
          "id": 343955037,
          "eventId": 878757,
          "siteUnitNumber": 12614,
          "bathingSite": "TOTLAND BAY",
          "eventStart": "2023-10-25T04:15:11",
          "eventStop": "2023-10-25T07:10:02",
          "duration": 174,
          "status": "Genuine",
          "associatedSiteId": 111309,
          "outfallName": "NEW ROAD ALUM BAY",
          "isImpacting": true,
          "overFlowSiteId": 110308
        }
      ]
    },
    {
      "id": 343945534,
      "eventId": 889462,
      "siteUnitNumber": 12624,
      "bathingSite": "SANDOWN",
      "eventStart": "2023-10-25T05:42:00",
      "eventStop": "2023-10-25T07:09:00",
      "duration": 87,
      "status": "Genuine",
      "associatedSiteId": 110029,
      "outfallName": "HOPE BEACH SHANKLIN NEW",
      "isImpacting": true,
      "overFlowSiteId": 0,
      "historicSpillsList": [
        {
          "id": 343945535,
          "eventId": 889462,
          "siteUnitNumber": 12625,
          "bathingSite": "SHANKLIN",
          "eventStart": "2023-10-25T05:42:00",
          "eventStop": "2023-10-25T07:09:00",
          "duration": 87,
          "status": "Genuine",
          "associatedSiteId": 110029,
          "outfallName": "HOPE BEACH SHANKLIN NEW",
          "isImpacting": true,
          "overFlowSiteId": 109389,
          "historicSpillsList": []
        }
      ]
    },
    {
      "id": 343937555,
      "eventId": 878885,
      "siteUnitNumber": 12586,
      "bathingSite": "HOVE",
      "eventStart": "2023-10-25T06:43:44",
      "eventStop": "2023-10-25T06:52:53",
      "duration": 9,
      "status": "Genuine",
      "associatedSiteId": 109929,
      "outfallName": "SHOREHAM NO1",
      "isImpacting": true,
      "overFlowSiteId": 0,
      "historicSpillsList": [
        {
          "id": 343937555,
          "eventId": 878885,
          "siteUnitNumber": 12586,
          "bathingSite": "HOVE",
          "eventStart": "2023-10-25T06:43:44",
          "eventStop": "2023-10-25T06:52:53",
          "duration": 9,
          "status": "Genuine",
          "associatedSiteId": 109929,
          "outfallName": "SHOREHAM NO1",
          "isImpacting": true,
          "overFlowSiteId": 115434
        },
        {
          "id": 343937556,
          "eventId": 878885,
          "siteUnitNumber": 12587,
          "bathingSite": "SOUTHWICK",
          "eventStart": "2023-10-25T06:43:44",
          "eventStop": "2023-10-25T06:52:53",
          "duration": 9,
          "status": "Genuine",
          "associatedSiteId": 109929,
          "outfallName": "SHOREHAM NO1",
          "isImpacting": true,
          "overFlowSiteId": 115434,
          "historicSpillsList": []
        },
        {
          "id": 343937557,
          "eventId": 878885,
          "siteUnitNumber": 12588,
          "bathingSite": "SHOREHAM BEACH",
          "eventStart": "2023-10-25T06:43:44",
          "eventStop": "2023-10-25T06:52:53",
          "duration": 9,
          "status": "Genuine",
          "associatedSiteId": 109929,
          "outfallName": "SHOREHAM NO1",
          "isImpacting": true,
          "overFlowSiteId": 115434,
          "historicSpillsList": []
        }
      ]
    },
    {
      "id": 343934974,
      "eventId": 878877,
      "siteUnitNumber": 12576,
      "bathingSite": "ST LEONARDS",
      "eventStart": "2023-10-25T06:19:41",
      "eventStop": "2023-10-25T06:49:18",
      "duration": 29,
      "status": "Genuine",
      "associatedSiteId": 109903,
      "outfallName": "BEXHILL & HASTINGS NO2",
      "isImpacting": true,
      "overFlowSiteId": 0,
      "historicSpillsList": [
        {
          "id": 343934974,
          "eventId": 878877,
          "siteUnitNumber": 12576,
          "bathingSite": "ST LEONARDS",
          "eventStart": "2023-10-25T06:19:41",
          "eventStop": "2023-10-25T06:49:18",
          "duration": 29,
          "status": "Genuine",
          "associatedSiteId": 109903,
          "outfallName": "BEXHILL & HASTINGS NO2",
          "isImpacting": true,
          "overFlowSiteId": 115398
        },
        {
          "id": 343934975,
          "eventId": 878877,
          "siteUnitNumber": 12577,
          "bathingSite": "BEXHILL",
          "eventStart": "2023-10-25T06:19:41",
          "eventStop": "2023-10-25T06:49:18",
          "duration": 29,
          "status": "Genuine",
          "associatedSiteId": 109903,
          "outfallName": "BEXHILL & HASTINGS NO2",
          "isImpacting": true,
          "overFlowSiteId": 115398,
          "historicSpillsList": []
        }
      ]
    },
    {
      "id": 343928537,
      "eventId": 878619,
      "siteUnitNumber": 12661,
      "bathingSite": "LANGSTONE HARBOUR",
      "eventStart": "2023-10-25T02:08:00",
      "eventStop": "2023-10-25T06:45:00",
      "duration": 277,
      "status": "Genuine",
      "associatedSiteId": 109818,
      "outfallName": "KIRTLEY CLOSE DRAYTON",
      "isImpacting": true,
      "overFlowSiteId": 0,
      "historicSpillsList": [
        {
          "id": 343928537,
          "eventId": 878619,
          "siteUnitNumber": 12661,
          "bathingSite": "LANGSTONE HARBOUR",
          "eventStart": "2023-10-25T02:08:00",
          "eventStop": "2023-10-25T06:45:00",
          "duration": 277,
          "status": "Genuine",
          "associatedSiteId": 109818,
          "outfallName": "KIRTLEY CLOSE DRAYTON",
          "isImpacting": true,
          "overFlowSiteId": 108774
        }
      ]
    },
    {
      "id": 343923861,
      "eventId": 878824,
      "siteUnitNumber": 12616,
      "bathingSite": "GURNARD",
      "eventStart": "2023-10-25T05:46:34",
      "eventStop": "2023-10-25T06:38:47",
      "duration": 52,
      "status": "Genuine",
      "associatedSiteId": 109706,
      "outfallName": "HIGH STREET COWES",
      "isImpacting": false,
      "overFlowSiteId": 0,
      "historicSpillsList": []
    },
    {
      "id": 343921873,
      "eventId": 878802,
      "siteUnitNumber": 12616,
      "bathingSite": "GURNARD",
      "eventStart": "2023-10-25T05:09:38",
      "eventStop": "2023-10-25T06:26:00",
      "duration": 76,
      "status": "Genuine",
      "associatedSiteId": 109699,
      "outfallName": "THE PARADE COWES",
      "isImpacting": false,
      "overFlowSiteId": 0,
      "historicSpillsList": []
    },
    {
      "id": 343920415,
      "eventId": 878569,
      "siteUnitNumber": 12614,
      "bathingSite": "TOTLAND BAY",
      "eventStart": "2023-10-25T01:52:03",
      "eventStop": "2023-10-25T06:22:08",
      "duration": 270,
      "status": "Genuine",
      "associatedSiteId": 109657,
      "outfallName": "THE PROMENADE TOTLAND PIER NO2",
      "isImpacting": false,
      "overFlowSiteId": 0,
      "historicSpillsList": []
    },
    {
      "id": 343954275,
      "eventId": 886762,
      "siteUnitNumber": 12620,
      "bathingSite": "ST HELENS",
      "eventStart": "2023-10-25T06:03:00",
      "eventStop": "2023-10-25T06:21:00",
      "duration": 18,
      "status": "Genuine",
      "associatedSiteId": 110761,
      "outfallName": "BRADING",
      "isImpacting": true,
      "overFlowSiteId": 0,
      "historicSpillsList": [
        {
          "id": 343954275,
          "eventId": 886762,
          "siteUnitNumber": 12620,
          "bathingSite": "ST HELENS",
          "eventStart": "2023-10-25T06:03:00",
          "eventStop": "2023-10-25T06:21:00",
          "duration": 18,
          "status": "Genuine",
          "associatedSiteId": 110761,
          "outfallName": "BRADING",
          "isImpacting": true,
          "overFlowSiteId": 113676
        }
      ]
    },
    {
      "id": 343943197,
      "eventId": 878731,
      "siteUnitNumber": 12595,
      "bathingSite": "BOGNOR REGIS (ALDWICK)",
      "eventStart": "2023-10-25T03:59:34",
      "eventStop": "2023-10-25T06:08:00",
      "duration": 128,
      "status": "Genuine",
      "associatedSiteId": 109967,
      "outfallName": "GLOUCESTER ROAD BOGNOR",
      "isImpacting": true,
      "overFlowSiteId": 0,
      "historicSpillsList": [
        {
          "id": 343943205,
          "eventId": 878731,
          "siteUnitNumber": 12593,
          "bathingSite": "FELPHAM",
          "eventStart": "2023-10-25T03:59:34",
          "eventStop": "2023-10-25T06:08:00",
          "duration": 128,
          "status": "Genuine",
          "associatedSiteId": 109967,
          "outfallName": "GLOUCESTER ROAD BOGNOR",
          "isImpacting": true,
          "overFlowSiteId": 103299,
          "historicSpillsList": []
        }
      ]
    },
    {
      "id": 343925654,
      "eventId": 879026,
      "siteUnitNumber": 12661,
      "bathingSite": "LANGSTONE HARBOUR",
      "eventStart": "2023-10-25T05:51:00",
      "eventStop": "2023-10-25T05:55:00",
      "duration": 4,
      "status": "Genuine",
      "associatedSiteId": 109772,
      "outfallName": "BUDDS FARM HAVANT NO1",
      "isImpacting": true,
      "overFlowSiteId": 0,
      "historicSpillsList": [
        {
          "id": 343925654,
          "eventId": 879026,
          "siteUnitNumber": 12661,
          "bathingSite": "LANGSTONE HARBOUR",
          "eventStart": "2023-10-25T05:51:00",
          "eventStop": "2023-10-25T05:55:00",
          "duration": 4,
          "status": "Genuine",
          "associatedSiteId": 109772,
          "outfallName": "BUDDS FARM HAVANT NO1",
          "isImpacting": true,
          "overFlowSiteId": 110704
        }
      ]
    },
    {
      "id": 343918023,
      "eventId": 878786,
      "siteUnitNumber": 12618,
      "bathingSite": "RYDE",
      "eventStart": "2023-10-25T04:46:54",
      "eventStop": "2023-10-25T05:51:00",
      "duration": 64,
      "status": "Genuine",
      "associatedSiteId": 102971,
      "outfallName": "SPRING VALE",
      "isImpacting": false,
      "overFlowSiteId": 0,
      "historicSpillsList": []
    },
    {
      "id": 343954274,
      "eventId": 886761,
      "siteUnitNumber": 12620,
      "bathingSite": "ST HELENS",
      "eventStart": "2023-10-25T05:32:00",
      "eventStop": "2023-10-25T05:48:00",
      "duration": 16,
      "status": "Genuine",
      "associatedSiteId": 110761,
      "outfallName": "BRADING",
      "isImpacting": true,
      "overFlowSiteId": 0,
      "historicSpillsList": [
        {
          "id": 343954274,
          "eventId": 886761,
          "siteUnitNumber": 12620,
          "bathingSite": "ST HELENS",
          "eventStart": "2023-10-25T05:32:00",
          "eventStop": "2023-10-25T05:48:00",
          "duration": 16,
          "status": "Genuine",
          "associatedSiteId": 110761,
          "outfallName": "BRADING",
          "isImpacting": true,
          "overFlowSiteId": 113676
        }
      ]
    },
    {
      "id": 343957702,
      "eventId": 878349,
      "siteUnitNumber": 12615,
      "bathingSite": "COLWELL BAY",
      "eventStart": "2023-10-24T21:30:00",
      "eventStop": "2023-10-25T05:45:00",
      "duration": 495,
      "status": "Genuine",
      "associatedSiteId": 115498,
      "outfallName": "NORTON TRANSFER IOW",
      "isImpacting": true,
      "overFlowSiteId": 0,
      "historicSpillsList": [
        {
          "id": 343957702,
          "eventId": 878349,
          "siteUnitNumber": 12615,
          "bathingSite": "COLWELL BAY",
          "eventStart": "2023-10-24T21:30:00",
          "eventStop": "2023-10-25T05:45:00",
          "duration": 495,
          "status": "Genuine",
          "associatedSiteId": 115498,
          "outfallName": "NORTON TRANSFER IOW",
          "isImpacting": true,
          "overFlowSiteId": 108544
        },
        {
          "id": 343957703,
          "eventId": 878349,
          "siteUnitNumber": 12614,
          "bathingSite": "TOTLAND BAY",
          "eventStart": "2023-10-24T21:30:00",
          "eventStop": "2023-10-25T05:45:00",
          "duration": 495,
          "status": "Genuine",
          "associatedSiteId": 115498,
          "outfallName": "NORTON TRANSFER IOW",
          "isImpacting": true,
          "overFlowSiteId": 108544,
          "historicSpillsList": []
        }
      ]
    },
    {
      "id": 343923863,
      "eventId": 878781,
      "siteUnitNumber": 12616,
      "bathingSite": "GURNARD",
      "eventStart": "2023-10-25T04:54:31",
      "eventStop": "2023-10-25T05:37:29",
      "duration": 42,
      "status": "Genuine",
      "associatedSiteId": 109706,
      "outfallName": "HIGH STREET COWES",
      "isImpacting": false,
      "overFlowSiteId": 0,
      "historicSpillsList": []
    }
  ]
}