{
  "currentPage": 113,
  "totalItems": 21025,
  "totalPages": 841,
  "items": [
    {
      "id": 344766662,
      "eventId": 894761,
      "siteUnitNumber": 12614,
      "bathingSite": "TOTLAND BAY",
      "eventStart": "2023-11-04T15:21:35",
      "eventStop": "2023-11-04T16:08:36",
      "duration": 47,
      "status": "Genuine",
      "associatedSiteId": 115498,
      "outfallName": "NORTON TRANSFER IOW",
      "isImpacting": true,
      "overFlowSiteId": 0,
      "historicSpillsList": [
        {
          "id": 344766662,
          "eventId": 894761,
          "siteUnitNumber": 12614,
          "bathingSite": "TOTLAND BAY",
          "eventStart": "2023-11-04T15:21:35",
          "eventStop": "2023-11-04T16:08:36",
          "duration": 47,
          "status": "Genuine",
          "associatedSiteId": 115498,
          "outfallName": "NORTON TRANSFER IOW",
          "isImpacting": true,
          "overFlowSiteId": 109524
        },
        {
          "id": 344766663,
          "eventId": 894761,
          "siteUnitNumber": 12615,
          "bathingSite": "COLWELL BAY",
          "eventStart": "2023-11-04T15:21:35",
          "eventStop": "2023-11-04T16:08:36",
          "duration": 47,
          "status": "Genuine",
          "associatedSiteId": 115498,
          "outfallName": "NORTON TRANSFER IOW",
          "isImpacting": true,
          "overFlowSiteId": 109524,
          "historicSpillsList": []
        }
      ]
    },
    {
      "id": 344736756,
      "eventId": 901426,
      "siteUnitNumber": 12618,
      "bathingSite": "RYDE",
      "eventStart": "2023-11-04T06:38:00",
      "eventStop": "2023-11-04T16:08:00",
      "duration": 570,
      "status": "Genuine",
      "associatedSiteId": 109780,
      "outfallName": "LADIES WALK BINSTEAD",
      "isImpacting": true,
      "overFlowSiteId": 0,
      "historicSpillsList": [
        {
          "id": 344736756,
          "eventId": 901426,
          "siteUnitNumber": 12618,
          "bathingSite": "RYDE",
          "eventStart": "2023-11-04T06:38:00",
          "eventStop": "2023-11-04T16:08:00",
          "duration": 570,
          "status": "Genuine",
          "associatedSiteId": 109780,
          "outfallName": "LADIES WALK BINSTEAD",
          "isImpacting": true,
          "overFlowSiteId": 107406
        }
      ]
    },
    {
      "id": 344738580,
      "eventId": 894009,
      "siteUnitNumber": 12603,
      "bathingSite": "EASTNEY",
      "eventStart": "2023-11-04T08:00:00",
      "eventStop": "2023-11-04T15:56:00",
      "duration": 476,
      "status": "Genuine",
      "associatedSiteId": 109823,
      "outfallName": "FORT CUMBERLAND NO1",
      "isImpacting": true,
      "overFlowSiteId": 0,
      "historicSpillsList": [
        {
          "id": 344738580,
          "eventId": 894009,
          "siteUnitNumber": 12603,
          "bathingSite": "EASTNEY",
          "eventStart": "2023-11-04T08:00:00",
          "eventStop": "2023-11-04T15:56:00",
          "duration": 476,
          "status": "Genuine",
          "associatedSiteId": 109823,
          "outfallName": "FORT CUMBERLAND NO1",
          "isImpacting": true,
          "overFlowSiteId": 110658
        },
        {
          "id": 344738582,
          "eventId": 894009,
          "siteUnitNumber": 12661,
          "bathingSite": "LANGSTONE HARBOUR",
          "eventStart": "2023-11-04T08:00:00",
          "eventStop": "2023-11-04T15:56:00",
          "duration": 476,
          "status": "Genuine",
          "associatedSiteId": 109823,
          "outfallName": "FORT CUMBERLAND NO1",
          "isImpacting": true,
          "overFlowSiteId": 110658,
          "historicSpillsList": []
        }
      ]
    },
    {
      "id": 344744046,
      "eventId": 924666,
      "siteUnitNumber": 12575,
      "bathingSite": "HASTINGS PELHAM BEACH",
      "eventStart": "2023-11-04T15:11:00",
      "eventStop": "2023-11-04T15:55:00",
      "duration": 44,
      "status": "Genuine",
      "associatedSiteId": 109899,
      "outfallName": "SEASIDE ROAD HASTINGS",
      "isImpacting": true,
      "overFlowSiteId": 0,
      "historicSpillsList": [
        {
          "id": 344744046,
          "eventId": 924666,
          "siteUnitNumber": 12575,
          "bathingSite": "HASTINGS PELHAM BEACH",
          "eventStart": "2023-11-04T15:11:00",
          "eventStop": "2023-11-04T15:55:00",
          "duration": 44,
          "status": "Genuine",
          "associatedSiteId": 109899,
          "outfallName": "SEASIDE ROAD HASTINGS",
          "isImpacting": true,
          "overFlowSiteId": 107639
        },
        {
          "id": 344744047,
          "eventId": 924666,
          "siteUnitNumber": 12576,
          "bathingSite": "ST LEONARDS",
          "eventStart": "2023-11-04T15:11:00",
          "eventStop": "2023-11-04T15:55:00",
          "duration": 44,
          "status": "Genuine",
          "associatedSiteId": 109899,
          "outfallName": "SEASIDE ROAD HASTINGS",
          "isImpacting": true,
          "overFlowSiteId": 107639,
          "historicSpillsList": []
        }
      ]
    },
    {
      "id": 344748378,
      "eventId": 894353,
      "siteUnitNumber": 12583,
      "bathingSite": "SALTDEAN",
      "eventStart": "2023-11-04T15:14:00",
      "eventStop": "2023-11-04T15:50:00",
      "duration": 36,
      "status": "Genuine",
      "associatedSiteId": 109955,
      "outfallName": "PORTOBELLO BRIGHTON NO1",
      "isImpacting": true,
      "overFlowSiteId": 0,
      "historicSpillsList": [
        {
          "id": 344748378,
          "eventId": 894353,
          "siteUnitNumber": 12583,
          "bathingSite": "SALTDEAN",
          "eventStart": "2023-11-04T15:14:00",
          "eventStop": "2023-11-04T15:50:00",
          "duration": 36,
          "status": "Genuine",
          "associatedSiteId": 109955,
          "outfallName": "PORTOBELLO BRIGHTON NO1",
          "isImpacting": true,
          "overFlowSiteId": 111606
        }
      ]
    },
    {
      "id": 344748600,
      "eventId": 898114,
      "siteUnitNumber": 12582,
      "bathingSite": "SEAFORD",
      "eventStart": "2023-11-04T13:39:00",
      "eventStop": "2023-11-04T15:20:00",
      "duration": 101,
      "status": "Genuine",
      "associatedSiteId": 109957,
      "outfallName": "PORTOBELLO BRIGHTON NO2",
      "isImpacting": true,
      "overFlowSiteId": 0,
      "historicSpillsList": [
        {
          "id": 344748601,
          "eventId": 898114,
          "siteUnitNumber": 12583,
          "bathingSite": "SALTDEAN",
          "eventStart": "2023-11-04T13:39:00",
          "eventStop": "2023-11-04T15:20:00",
          "duration": 101,
          "status": "Genuine",
          "associatedSiteId": 109957,
          "outfallName": "PORTOBELLO BRIGHTON NO2",
          "isImpacting": true,
          "overFlowSiteId": 116036,
          "historicSpillsList": []
        }
      ]
    },
    {
      "id": 344766664,
      "eventId": 894733,
      "siteUnitNumber": 12615,
      "bathingSite": "COLWELL BAY",
      "eventStart": "2023-11-04T14:47:12",
      "eventStop": "2023-11-04T15:19:14",
      "duration": 32,
      "status": "Genuine",
      "associatedSiteId": 115498,
      "outfallName": "NORTON TRANSFER IOW",
      "isImpacting": true,
      "overFlowSiteId": 0,
      "historicSpillsList": [
        {
          "id": 344766664,
          "eventId": 894733,
          "siteUnitNumber": 12615,
          "bathingSite": "COLWELL BAY",
          "eventStart": "2023-11-04T14:47:12",
          "eventStop": "2023-11-04T15:19:14",
          "duration": 32,
          "status": "Genuine",
          "associatedSiteId": 115498,
          "outfallName": "NORTON TRANSFER IOW",
          "isImpacting": true,
          "overFlowSiteId": 109524
        },
        {
          "id": 344766665,
          "eventId": 894733,
          "siteUnitNumber": 12614,
          "bathingSite": "TOTLAND BAY",
          "eventStart": "2023-11-04T14:47:12",
          "eventStop": "2023-11-04T15:19:14",
          "duration": 32,
          "status": "Genuine",
          "associatedSiteId": 115498,
          "outfallName": "NORTON TRANSFER IOW",
          "isImpacting": true,
          "overFlowSiteId": 109524,
          "historicSpillsList": []
        }
      ]
    },
    {
      "id": 344766646,
      "eventId": 894900,
      "siteUnitNumber": 12615,
      "bathingSite": "COLWELL BAY",
      "eventStart": "2023-11-04T14:45:00",
      "eventStop": "2023-11-04T15:10:27",
      "duration": 25,
      "status": "Not Genuine",
      "associatedSiteId": 115498,
      "outfallName": "NORTON TRANSFER IOW",
      "isImpacting": true,
      "overFlowSiteId": 0,
      "historicSpillsList": []
    },
    {
      "id": 344753486,
      "eventId": 894709,
      "siteUnitNumber": 12575,
      "bathingSite": "HASTINGS PELHAM BEACH",
      "eventStart": "2023-11-04T14:37:34",
      "eventStop": "2023-11-04T15:00:00",
      "duration": 22,
      "status": "Genuine",
      "associatedSiteId": 109982,
      "outfallName": "COOMBS HASTINGS",
      "isImpacting": true,
      "overFlowSiteId": 0,
      "historicSpillsList": [
        {
          "id": 344753487,
          "eventId": 894709,
          "siteUnitNumber": 12576,
          "bathingSite": "ST LEONARDS",
          "eventStart": "2023-11-04T14:37:34",
          "eventStop": "2023-11-04T15:00:00",
          "duration": 22,
          "status": "Genuine",
          "associatedSiteId": 109982,
          "outfallName": "COOMBS HASTINGS",
          "isImpacting": true,
          "overFlowSiteId": 110211,
          "historicSpillsList": []
        }
      ]
    },
    {
      "id": 344729890,
      "eventId": 899690,
      "siteUnitNumber": 12614,
      "bathingSite": "TOTLAND BAY",
      "eventStart": "2023-11-04T14:11:00",
      "eventStop": "2023-11-04T14:51:00",
      "duration": 40,
      "status": "Genuine",
      "associatedSiteId": 109665,
      "outfallName": "THORLEY ROAD BOULDNOR",
      "isImpacting": false,
      "overFlowSiteId": 0,
      "historicSpillsList": []
    },
    {
      "id": 344766644,
      "eventId": 894901,
      "siteUnitNumber": 12614,
      "bathingSite": "TOTLAND BAY",
      "eventStart": "2023-11-04T14:45:00",
      "eventStop": "2023-11-04T14:47:12",
      "duration": 2,
      "status": "Genuine",
      "associatedSiteId": 115498,
      "outfallName": "NORTON TRANSFER IOW",
      "isImpacting": true,
      "overFlowSiteId": 0,
      "historicSpillsList": [
        {
          "id": 344766644,
          "eventId": 894901,
          "siteUnitNumber": 12614,
          "bathingSite": "TOTLAND BAY",
          "eventStart": "2023-11-04T14:45:00",
          "eventStop": "2023-11-04T14:47:12",
          "duration": 2,
          "status": "Genuine",
          "associatedSiteId": 115498,
          "outfallName": "NORTON TRANSFER IOW",
          "isImpacting": true,
          "overFlowSiteId": 109524
        },
        {
          "id": 344766645,
          "eventId": 894901,
          "siteUnitNumber": 12615,
          "bathingSite": "COLWELL BAY",
          "eventStart": "2023-11-04T14:45:00",
          "eventStop": "2023-11-04T14:47:12",
          "duration": 2,
          "status": "Genuine",
          "associatedSiteId": 115498,
          "outfallName": "NORTON TRANSFER IOW",
          "isImpacting": true,
          "overFlowSiteId": 109524,
          "historicSpillsList": []
        }
      ]
    },
    {
      "id": 344734837,
      "eventId": 896461,
      "siteUnitNumber": 12661,
      "bathingSite": "LANGSTONE HARBOUR",
      "eventStart": "2023-11-04T13:47:00",
      "eventStop": "2023-11-04T14:46:00",
      "duration": 59,
      "status": "Genuine",
      "associatedSiteId": 109772,
      "outfallName": "BUDDS FARM HAVANT NO1",
      "isImpacting": true,
      "overFlowSiteId": 0,
      "historicSpillsList": [
        {
          "id": 344734837,
          "eventId": 896461,
          "siteUnitNumber": 12661,
          "bathingSite": "LANGSTONE HARBOUR",
          "eventStart": "2023-11-04T13:47:00",
          "eventStop": "2023-11-04T14:46:00",
          "duration": 59,
          "status": "Genuine",
          "associatedSiteId": 109772,
          "outfallName": "BUDDS FARM HAVANT NO1",
          "isImpacting": true,
          "overFlowSiteId": 116073
        }
      ]
    },
    {
      "id": 344766666,
      "eventId": 894668,
      "siteUnitNumber": 12614,
      "bathingSite": "TOTLAND BAY",
      "eventStart": "2023-11-04T14:27:48",
      "eventStop": "2023-11-04T14:44:34",
      "duration": 16,
      "status": "Genuine",
      "associatedSiteId": 115498,
      "outfallName": "NORTON TRANSFER IOW",
      "isImpacting": true,
      "overFlowSiteId": 0,
      "historicSpillsList": [
        {
          "id": 344766666,
          "eventId": 894668,
          "siteUnitNumber": 12614,
          "bathingSite": "TOTLAND BAY",
          "eventStart": "2023-11-04T14:27:48",
          "eventStop": "2023-11-04T14:44:34",
          "duration": 16,
          "status": "Genuine",
          "associatedSiteId": 115498,
          "outfallName": "NORTON TRANSFER IOW",
          "isImpacting": true,
          "overFlowSiteId": 109524
        },
        {
          "id": 344766667,
          "eventId": 894668,
          "siteUnitNumber": 12615,
          "bathingSite": "COLWELL BAY",
          "eventStart": "2023-11-04T14:27:48",
          "eventStop": "2023-11-04T14:44:34",
          "duration": 16,
          "status": "Genuine",
          "associatedSiteId": 115498,
          "outfallName": "NORTON TRANSFER IOW",
          "isImpacting": true,
          "overFlowSiteId": 109524,
          "historicSpillsList": []
        }
      ]
    },
    {
      "id": 344746175,
      "eventId": 894723,
      "siteUnitNumber": 12590,
      "bathingSite": "WORTHING",
      "eventStart": "2023-11-04T10:20:00",
      "eventStop": "2023-11-04T14:44:00",
      "duration": 264,
      "status": "Genuine",
      "associatedSiteId": 109912,
      "outfallName": "SEA LANE GORING",
      "isImpacting": false,
      "overFlowSiteId": 0,
      "historicSpillsList": []
    },
    {
      "id": 344769214,
      "eventId": 894553,
      "siteUnitNumber": 12577,
      "bathingSite": "BEXHILL",
      "eventStart": "2023-11-04T12:30:00",
      "eventStop": "2023-11-04T14:39:00",
      "duration": 129,
      "status": "Genuine",
      "associatedSiteId": 115501,
      "outfallName": "LONDON ROAD BEXHILL",
      "isImpacting": true,
      "overFlowSiteId": 0,
      "historicSpillsList": [
        {
          "id": 344769214,
          "eventId": 894553,
          "siteUnitNumber": 12577,
          "bathingSite": "BEXHILL",
          "eventStart": "2023-11-04T12:30:00",
          "eventStop": "2023-11-04T14:39:00",
          "duration": 129,
          "status": "Genuine",
          "associatedSiteId": 115501,
          "outfallName": "LONDON ROAD BEXHILL",
          "isImpacting": true,
          "overFlowSiteId": 108171
        }
      ]
    },
    {
      "id": 344732893,
      "eventId": 894689,
      "siteUnitNumber": 12616,
      "bathingSite": "GURNARD",
      "eventStart": "2023-11-04T14:16:57",
      "eventStop": "2023-11-04T14:37:27",
      "duration": 20,
      "status": "Genuine",
      "associatedSiteId": 109706,
      "outfallName": "HIGH STREET COWES",
      "isImpacting": false,
      "overFlowSiteId": 0,
      "historicSpillsList": []
    },
    {
      "id": 344741141,
      "eventId": 894623,
      "siteUnitNumber": 12579,
      "bathingSite": "PEVENSEY BAY",
      "eventStart": "2023-11-04T13:31:40",
      "eventStop": "2023-11-04T14:34:00",
      "duration": 62,
      "status": "Genuine",
      "associatedSiteId": 109888,
      "outfallName": "EASTBOURNE NO 2",
      "isImpacting": true,
      "overFlowSiteId": 0,
      "historicSpillsList": [
        {
          "id": 344741142,
          "eventId": 894623,
          "siteUnitNumber": 12580,
          "bathingSite": "EASTBOURNE",
          "eventStart": "2023-11-04T13:31:40",
          "eventStop": "2023-11-04T14:34:00",
          "duration": 62,
          "status": "Genuine",
          "associatedSiteId": 109888,
          "outfallName": "EASTBOURNE NO 2",
          "isImpacting": true,
          "overFlowSiteId": 115459,
          "historicSpillsList": []
        }
      ]
    },
    {
      "id": 344753490,
      "eventId": 894437,
      "siteUnitNumber": 12575,
      "bathingSite": "HASTINGS PELHAM BEACH",
      "eventStart": "2023-11-04T11:32:25",
      "eventStop": "2023-11-04T14:33:13",
      "duration": 180,
      "status": "Genuine",
      "associatedSiteId": 109982,
      "outfallName": "COOMBS HASTINGS",
      "isImpacting": false,
      "overFlowSiteId": 0,
      "historicSpillsList": []
    },
    {
      "id": 344736941,
      "eventId": 894028,
      "siteUnitNumber": 12618,
      "bathingSite": "RYDE",
      "eventStart": "2023-11-04T08:48:00",
      "eventStop": "2023-11-04T14:28:00",
      "duration": 340,
      "status": "Genuine",
      "associatedSiteId": 109785,
      "outfallName": "SIMEON STREET RYDE",
      "isImpacting": true,
      "overFlowSiteId": 0,
      "historicSpillsList": [
        {
          "id": 344736941,
          "eventId": 894028,
          "siteUnitNumber": 12618,
          "bathingSite": "RYDE",
          "eventStart": "2023-11-04T08:48:00",
          "eventStop": "2023-11-04T14:28:00",
          "duration": 340,
          "status": "Genuine",
          "associatedSiteId": 109785,
          "outfallName": "SIMEON STREET RYDE",
          "isImpacting": true,
          "overFlowSiteId": 100129
        }
      ]
    },
    {
      "id": 344766668,
      "eventId": 894651,
      "siteUnitNumber": 12614,
      "bathingSite": "TOTLAND BAY",
      "eventStart": "2023-11-04T13:58:23",
      "eventStop": "2023-11-04T14:26:42",
      "duration": 28,
      "status": "Genuine",
      "associatedSiteId": 115498,
      "outfallName": "NORTON TRANSFER IOW",
      "isImpacting": true,
      "overFlowSiteId": 0,
      "historicSpillsList": [
        {
          "id": 344766668,
          "eventId": 894651,
          "siteUnitNumber": 12614,
          "bathingSite": "TOTLAND BAY",
          "eventStart": "2023-11-04T13:58:23",
          "eventStop": "2023-11-04T14:26:42",
          "duration": 28,
          "status": "Genuine",
          "associatedSiteId": 115498,
          "outfallName": "NORTON TRANSFER IOW",
          "isImpacting": true,
          "overFlowSiteId": 109524
        },
        {
          "id": 344766669,
          "eventId": 894651,
          "siteUnitNumber": 12615,
          "bathingSite": "COLWELL BAY",
          "eventStart": "2023-11-04T13:58:23",
          "eventStop": "2023-11-04T14:26:42",
          "duration": 28,
          "status": "Genuine",
          "associatedSiteId": 115498,
          "outfallName": "NORTON TRANSFER IOW",
          "isImpacting": true,
          "overFlowSiteId": 109524,
          "historicSpillsList": []
        }
      ]
    },
    {
      "id": 344734759,
      "eventId": 894548,
      "siteUnitNumber": 12607,
      "bathingSite": "HILLHEAD",
      "eventStart": "2023-11-04T12:41:34",
      "eventStop": "2023-11-04T14:25:00",
      "duration": 103,
      "status": "Genuine",
      "associatedSiteId": 109751,
      "outfallName": "HOOK PARK NO.1",
      "isImpacting": false,
      "overFlowSiteId": 0,
      "historicSpillsList": []
    },
    {
      "id": 344744052,
      "eventId": 924643,
      "siteUnitNumber": 12575,
      "bathingSite": "HASTINGS PELHAM BEACH",
      "eventStart": "2023-11-04T12:37:00",
      "eventStop": "2023-11-04T14:21:00",
      "duration": 104,
      "status": "Genuine",
      "associatedSiteId": 109899,
      "outfallName": "SEASIDE ROAD HASTINGS",
      "isImpacting": true,
      "overFlowSiteId": 0,
      "historicSpillsList": [
        {
          "id": 344744052,
          "eventId": 924643,
          "siteUnitNumber": 12575,
          "bathingSite": "HASTINGS PELHAM BEACH",
          "eventStart": "2023-11-04T12:37:00",
          "eventStop": "2023-11-04T14:21:00",
          "duration": 104,
          "status": "Genuine",
          "associatedSiteId": 109899,
          "outfallName": "SEASIDE ROAD HASTINGS",
          "isImpacting": true,
          "overFlowSiteId": 107639
        },
        {
          "id": 344744053,
          "eventId": 924643,
          "siteUnitNumber": 12576,
          "bathingSite": "ST LEONARDS",
          "eventStart": "2023-11-04T12:37:00",
          "eventStop": "2023-11-04T14:21:00",
          "duration": 104,
          "status": "Genuine",
          "associatedSiteId": 109899,
          "outfallName": "SEASIDE ROAD HASTINGS",
          "isImpacting": true,
          "overFlowSiteId": 107639,
          "historicSpillsList": []
        }
      ]
    },
    {
      "id": 344764182,
      "eventId": 894175,
      "siteUnitNumber": 12616,
      "bathingSite": "GURNARD",
      "eventStart": "2023-11-04T09:25:41",
      "eventStop": "2023-11-04T14:20:43",
      "duration": 295,
      "status": "Genuine",
      "associatedSiteId": 111069,
      "outfallName": "MEDHAM FARM NORTHWOOD",
      "isImpacting": false,
      "overFlowSiteId": 0,
      "historicSpillsList": []
    },
    {
      "id": 344737640,
      "eventId": 896613,
      "siteUnitNumber": 12661,
      "bathingSite": "LANGSTONE HARBOUR",
      "eventStart": "2023-11-04T12:39:00",
      "eventStop": "2023-11-04T14:06:00",
      "duration": 87,
      "status": "Genuine",
      "associatedSiteId": 109817,
      "outfallName": "MAINLAND DRAYTON",
      "isImpacting": true,
      "overFlowSiteId": 0,
      "historicSpillsList": [
        {
          "id": 344737640,
          "eventId": 896613,
          "siteUnitNumber": 12661,
          "bathingSite": "LANGSTONE HARBOUR",
          "eventStart": "2023-11-04T12:39:00",
          "eventStop": "2023-11-04T14:06:00",
          "duration": 87,
          "status": "Genuine",
          "associatedSiteId": 109817,
          "outfallName": "MAINLAND DRAYTON",
          "isImpacting": true,
          "overFlowSiteId": 115960
        }
      ]
    },
    {
      "id": 344729892,
      "eventId": 899689,
      "siteUnitNumber": 12615,
      "bathingSite": "COLWELL BAY",
      "eventStart": "2023-11-04T13:35:00",
      "eventStop": "2023-11-04T14:03:00",
      "duration": 28,
      "status": "Genuine",
      "associatedSiteId": 109665,
      "outfallName": "THORLEY ROAD BOULDNOR",
      "isImpacting": false,
      "overFlowSiteId": 0,
      "historicSpillsList": []
    }
  ]
}