{
  "currentPage": 329,
  "totalItems": 18701,
  "totalPages": 749,
  "items": [
    {
      "id": 344002733,
      "eventId": 752062,
      "siteUnitNumber": 12577,
      "bathingSite": "BEXHILL",
      "eventStart": "2023-01-14T04:44:00",
      "eventStop": "2023-01-14T17:17:00",
      "duration": 753,
      "status": "Genuine",
      "associatedSiteId": 115504,
      "outfallName": "HARTFIELD ROAD BEXHILL",
      "isImpacting": false,
      "overFlowSiteId": 0,
      "historicSpillsList": []
    },
    {
      "id": 343987611,
      "eventId": 732120,
      "siteUnitNumber": 12575,
      "bathingSite": "HASTINGS PELHAM BEACH",
      "eventStart": "2023-01-14T16:58:43",
      "eventStop": "2023-01-14T17:15:00",
      "duration": 16,
      "status": "Genuine",
      "associatedSiteId": 109982,
      "outfallName": "COOMBS HASTINGS",
      "isImpacting": true,
      "overFlowSiteId": 0,
      "historicSpillsList": [
        {
          "id": 343987612,
          "eventId": 732120,
          "siteUnitNumber": 12576,
          "bathingSite": "ST LEONARDS",
          "eventStart": "2023-01-14T16:58:43",
          "eventStop": "2023-01-14T17:15:00",
          "duration": 16,
          "status": "Genuine",
          "associatedSiteId": 109982,
          "outfallName": "COOMBS HASTINGS",
          "isImpacting": true,
          "overFlowSiteId": 110211,
          "historicSpillsList": []
        }
      ]
    },
    {
      "id": 344002629,
      "eventId": 731853,
      "siteUnitNumber": 12577,
      "bathingSite": "BEXHILL",
      "eventStart": "2023-01-14T09:28:19",
      "eventStop": "2023-01-14T17:13:00",
      "duration": 464,
      "status": "Genuine",
      "associatedSiteId": 115503,
      "outfallName": "COODEN BEACH BEXHILL",
      "isImpacting": true,
      "overFlowSiteId": 0,
      "historicSpillsList": [
        {
          "id": 344002629,
          "eventId": 731853,
          "siteUnitNumber": 12577,
          "bathingSite": "BEXHILL",
          "eventStart": "2023-01-14T09:28:19",
          "eventStop": "2023-01-14T17:13:00",
          "duration": 464,
          "status": "Genuine",
          "associatedSiteId": 115503,
          "outfallName": "COODEN BEACH BEXHILL",
          "isImpacting": true,
          "overFlowSiteId": 108029
        },
        {
          "id": 344002630,
          "eventId": 731853,
          "siteUnitNumber": 12578,
          "bathingSite": "NORMANS BAY",
          "eventStart": "2023-01-14T09:28:19",
          "eventStop": "2023-01-14T17:13:00",
          "duration": 464,
          "status": "Genuine",
          "associatedSiteId": 115503,
          "outfallName": "COODEN BEACH BEXHILL",
          "isImpacting": true,
          "overFlowSiteId": 108029,
          "historicSpillsList": []
        }
      ]
    },
    {
      "id": 343981116,
      "eventId": 745078,
      "siteUnitNumber": 12619,
      "bathingSite": "SEAGROVE",
      "eventStart": "2023-01-14T10:12:00",
      "eventStop": "2023-01-14T17:05:00",
      "duration": 413,
      "status": "Genuine",
      "associatedSiteId": 109938,
      "outfallName": "THE POINT BEMBRIDGE",
      "isImpacting": true,
      "overFlowSiteId": 0,
      "historicSpillsList": [
        {
          "id": 343981117,
          "eventId": 745078,
          "siteUnitNumber": 12620,
          "bathingSite": "ST HELENS",
          "eventStart": "2023-01-14T10:12:00",
          "eventStop": "2023-01-14T17:05:00",
          "duration": 413,
          "status": "Genuine",
          "associatedSiteId": 109938,
          "outfallName": "THE POINT BEMBRIDGE",
          "isImpacting": true,
          "overFlowSiteId": 110194,
          "historicSpillsList": []
        }
      ]
    },
    {
      "id": 343967025,
      "eventId": 731194,
      "siteUnitNumber": 12606,
      "bathingSite": "LEE-ON-SOLENT",
      "eventStart": "2023-01-14T05:59:00",
      "eventStop": "2023-01-14T16:27:00",
      "duration": 628,
      "status": "Genuine",
      "associatedSiteId": 109715,
      "outfallName": "SALTERNS ROAD HILL HEAD",
      "isImpacting": true,
      "overFlowSiteId": 0,
      "historicSpillsList": [
        {
          "id": 343967026,
          "eventId": 731194,
          "siteUnitNumber": 12607,
          "bathingSite": "HILLHEAD",
          "eventStart": "2023-01-14T05:59:00",
          "eventStop": "2023-01-14T16:27:00",
          "duration": 628,
          "status": "Genuine",
          "associatedSiteId": 109715,
          "outfallName": "SALTERNS ROAD HILL HEAD",
          "isImpacting": true,
          "overFlowSiteId": 108441,
          "historicSpillsList": []
        }
      ]
    },
    {
      "id": 343987609,
      "eventId": 732069,
      "siteUnitNumber": 12575,
      "bathingSite": "HASTINGS PELHAM BEACH",
      "eventStart": "2023-01-14T15:31:00",
      "eventStop": "2023-01-14T16:00:00",
      "duration": 29,
      "status": "Genuine",
      "associatedSiteId": 109982,
      "outfallName": "COOMBS HASTINGS",
      "isImpacting": true,
      "overFlowSiteId": 0,
      "historicSpillsList": [
        {
          "id": 343987610,
          "eventId": 732069,
          "siteUnitNumber": 12576,
          "bathingSite": "ST LEONARDS",
          "eventStart": "2023-01-14T15:31:00",
          "eventStop": "2023-01-14T16:00:00",
          "duration": 29,
          "status": "Genuine",
          "associatedSiteId": 109982,
          "outfallName": "COOMBS HASTINGS",
          "isImpacting": true,
          "overFlowSiteId": 110211,
          "historicSpillsList": []
        }
      ]
    },
    {
      "id": 343997458,
      "eventId": 731690,
      "siteUnitNumber": 12573,
      "bathingSite": "CAMBER",
      "eventStart": "2023-01-14T10:15:00",
      "eventStop": "2023-01-14T15:19:00",
      "duration": 304,
      "status": "Genuine",
      "associatedSiteId": 110958,
      "outfallName": "RYE",
      "isImpacting": false,
      "overFlowSiteId": 0,
      "historicSpillsList": []
    },
    {
      "id": 343970190,
      "eventId": 731093,
      "siteUnitNumber": 12618,
      "bathingSite": "RYDE",
      "eventStart": "2023-01-14T04:44:00",
      "eventStop": "2023-01-14T15:19:00",
      "duration": 635,
      "status": "Genuine",
      "associatedSiteId": 109780,
      "outfallName": "LADIES WALK BINSTEAD",
      "isImpacting": true,
      "overFlowSiteId": 0,
      "historicSpillsList": [
        {
          "id": 343970190,
          "eventId": 731093,
          "siteUnitNumber": 12618,
          "bathingSite": "RYDE",
          "eventStart": "2023-01-14T04:44:00",
          "eventStop": "2023-01-14T15:19:00",
          "duration": 635,
          "status": "Genuine",
          "associatedSiteId": 109780,
          "outfallName": "LADIES WALK BINSTEAD",
          "isImpacting": true,
          "overFlowSiteId": 107406
        }
      ]
    },
    {
      "id": 343970307,
      "eventId": 731324,
      "siteUnitNumber": 12618,
      "bathingSite": "RYDE",
      "eventStart": "2023-01-14T06:51:03",
      "eventStop": "2023-01-14T15:11:26",
      "duration": 500,
      "status": "Genuine",
      "associatedSiteId": 109784,
      "outfallName": "PARK ROAD RYDE",
      "isImpacting": true,
      "overFlowSiteId": 0,
      "historicSpillsList": [
        {
          "id": 343970307,
          "eventId": 731324,
          "siteUnitNumber": 12618,
          "bathingSite": "RYDE",
          "eventStart": "2023-01-14T06:51:03",
          "eventStop": "2023-01-14T15:11:26",
          "duration": 500,
          "status": "Genuine",
          "associatedSiteId": 109784,
          "outfallName": "PARK ROAD RYDE",
          "isImpacting": true,
          "overFlowSiteId": 107331
        }
      ]
    },
    {
      "id": 343987615,
      "eventId": 731508,
      "siteUnitNumber": 12575,
      "bathingSite": "HASTINGS PELHAM BEACH",
      "eventStart": "2023-01-14T08:36:23",
      "eventStop": "2023-01-14T15:01:43",
      "duration": 385,
      "status": "Genuine",
      "associatedSiteId": 109982,
      "outfallName": "COOMBS HASTINGS",
      "isImpacting": true,
      "overFlowSiteId": 0,
      "historicSpillsList": [
        {
          "id": 343987616,
          "eventId": 731508,
          "siteUnitNumber": 12576,
          "bathingSite": "ST LEONARDS",
          "eventStart": "2023-01-14T08:36:23",
          "eventStop": "2023-01-14T15:01:43",
          "duration": 385,
          "status": "Genuine",
          "associatedSiteId": 109982,
          "outfallName": "COOMBS HASTINGS",
          "isImpacting": true,
          "overFlowSiteId": 110211,
          "historicSpillsList": []
        }
      ]
    },
    {
      "id": 343972083,
      "eventId": 732007,
      "siteUnitNumber": 12601,
      "bathingSite": "BEACHLANDS CENTRAL",
      "eventStart": "2023-01-14T14:32:00",
      "eventStop": "2023-01-14T15:00:00",
      "duration": 28,
      "status": "Genuine",
      "associatedSiteId": 109823,
      "outfallName": "FORT CUMBERLAND NO1",
      "isImpacting": true,
      "overFlowSiteId": 0,
      "historicSpillsList": [
        {
          "id": 343972087,
          "eventId": 732007,
          "siteUnitNumber": 12661,
          "bathingSite": "LANGSTONE HARBOUR",
          "eventStart": "2023-01-14T14:32:00",
          "eventStop": "2023-01-14T15:00:00",
          "duration": 28,
          "status": "Genuine",
          "associatedSiteId": 109823,
          "outfallName": "FORT CUMBERLAND NO1",
          "isImpacting": true,
          "overFlowSiteId": 110658,
          "historicSpillsList": []
        }
      ]
    },
    {
      "id": 343963021,
      "eventId": 731483,
      "siteUnitNumber": 12615,
      "bathingSite": "COLWELL BAY",
      "eventStart": "2023-01-14T05:47:00",
      "eventStop": "2023-01-14T14:42:00",
      "duration": 535,
      "status": "Genuine",
      "associatedSiteId": 109657,
      "outfallName": "THE PROMENADE TOTLAND PIER NO2",
      "isImpacting": false,
      "overFlowSiteId": 0,
      "historicSpillsList": []
    },
    {
      "id": 343967111,
      "eventId": 731557,
      "siteUnitNumber": 12606,
      "bathingSite": "LEE-ON-SOLENT",
      "eventStart": "2023-01-14T09:22:00",
      "eventStop": "2023-01-14T14:28:00",
      "duration": 306,
      "status": "Genuine",
      "associatedSiteId": 109717,
      "outfallName": "NEWGATE LANE PEEL COMMON",
      "isImpacting": false,
      "overFlowSiteId": 0,
      "historicSpillsList": []
    },
    {
      "id": 343974703,
      "eventId": 731330,
      "siteUnitNumber": 12579,
      "bathingSite": "PEVENSEY BAY",
      "eventStart": "2023-01-14T07:11:00",
      "eventStop": "2023-01-14T14:27:00",
      "duration": 436,
      "status": "Genuine",
      "associatedSiteId": 109891,
      "outfallName": "MONTAGUE WAY WESTHAM",
      "isImpacting": true,
      "overFlowSiteId": 0,
      "historicSpillsList": [
        {
          "id": 343974703,
          "eventId": 731330,
          "siteUnitNumber": 12579,
          "bathingSite": "PEVENSEY BAY",
          "eventStart": "2023-01-14T07:11:00",
          "eventStop": "2023-01-14T14:27:00",
          "duration": 436,
          "status": "Genuine",
          "associatedSiteId": 109891,
          "outfallName": "MONTAGUE WAY WESTHAM",
          "isImpacting": true,
          "overFlowSiteId": 108314
        }
      ]
    },
    {
      "id": 344002603,
      "eventId": 731681,
      "siteUnitNumber": 12577,
      "bathingSite": "BEXHILL",
      "eventStart": "2023-01-14T08:52:00",
      "eventStop": "2023-01-14T14:19:00",
      "duration": 327,
      "status": "Genuine",
      "associatedSiteId": 115501,
      "outfallName": "LONDON ROAD BEXHILL",
      "isImpacting": true,
      "overFlowSiteId": 0,
      "historicSpillsList": [
        {
          "id": 344002603,
          "eventId": 731681,
          "siteUnitNumber": 12577,
          "bathingSite": "BEXHILL",
          "eventStart": "2023-01-14T08:52:00",
          "eventStop": "2023-01-14T14:19:00",
          "duration": 327,
          "status": "Genuine",
          "associatedSiteId": 115501,
          "outfallName": "LONDON ROAD BEXHILL",
          "isImpacting": true,
          "overFlowSiteId": 108171
        }
      ]
    },
    {
      "id": 343974439,
      "eventId": 731119,
      "siteUnitNumber": 12662,
      "bathingSite": "CHICHESTER HARBOUR",
      "eventStart": "2023-01-14T08:19:00",
      "eventStop": "2023-01-14T13:56:00",
      "duration": 337,
      "status": "Genuine",
      "associatedSiteId": 109854,
      "outfallName": "KINGS ROAD EMSWORTH",
      "isImpacting": true,
      "overFlowSiteId": 0,
      "historicSpillsList": [
        {
          "id": 343974439,
          "eventId": 731119,
          "siteUnitNumber": 12662,
          "bathingSite": "CHICHESTER HARBOUR",
          "eventStart": "2023-01-14T08:19:00",
          "eventStop": "2023-01-14T13:56:00",
          "duration": 337,
          "status": "Genuine",
          "associatedSiteId": 109854,
          "outfallName": "KINGS ROAD EMSWORTH",
          "isImpacting": true,
          "overFlowSiteId": 109298
        }
      ]
    },
    {
      "id": 343974656,
      "eventId": 731357,
      "siteUnitNumber": 12579,
      "bathingSite": "PEVENSEY BAY",
      "eventStart": "2023-01-14T07:29:02",
      "eventStop": "2023-01-14T13:49:00",
      "duration": 379,
      "status": "Genuine",
      "associatedSiteId": 109889,
      "outfallName": "RATTLE ROAD WESTHAM",
      "isImpacting": false,
      "overFlowSiteId": 0,
      "historicSpillsList": []
    },
    {
      "id": 343966589,
      "eventId": 732004,
      "siteUnitNumber": 12616,
      "bathingSite": "GURNARD",
      "eventStart": "2023-01-14T13:35:37",
      "eventStop": "2023-01-14T13:39:09",
      "duration": 3,
      "status": "Genuine",
      "associatedSiteId": 109706,
      "outfallName": "HIGH STREET COWES",
      "isImpacting": false,
      "overFlowSiteId": 0,
      "historicSpillsList": []
    },
    {
      "id": 343966851,
      "eventId": 730937,
      "siteUnitNumber": 12616,
      "bathingSite": "GURNARD",
      "eventStart": "2023-01-14T03:02:00",
      "eventStop": "2023-01-14T13:28:00",
      "duration": 626,
      "status": "Genuine",
      "associatedSiteId": 109707,
      "outfallName": "MEDINA ROAD COWES",
      "isImpacting": false,
      "overFlowSiteId": 0,
      "historicSpillsList": []
    },
    {
      "id": 343965163,
      "eventId": 731870,
      "siteUnitNumber": 12616,
      "bathingSite": "GURNARD",
      "eventStart": "2023-01-14T13:00:00",
      "eventStop": "2023-01-14T13:24:00",
      "duration": 24,
      "status": "Genuine",
      "associatedSiteId": 109702,
      "outfallName": "ALBANY ROAD EAST COWES",
      "isImpacting": false,
      "overFlowSiteId": 0,
      "historicSpillsList": []
    },
    {
      "id": 343967139,
      "eventId": 731584,
      "siteUnitNumber": 12605,
      "bathingSite": "STOKES BAY",
      "eventStart": "2023-01-14T09:40:00",
      "eventStop": "2023-01-14T13:24:00",
      "duration": 224,
      "status": "Genuine",
      "associatedSiteId": 109718,
      "outfallName": "GREEN CRESCENT GOSPORT",
      "isImpacting": true,
      "overFlowSiteId": 0,
      "historicSpillsList": [
        {
          "id": 343967139,
          "eventId": 731584,
          "siteUnitNumber": 12605,
          "bathingSite": "STOKES BAY",
          "eventStart": "2023-01-14T09:40:00",
          "eventStop": "2023-01-14T13:24:00",
          "duration": 224,
          "status": "Genuine",
          "associatedSiteId": 109718,
          "outfallName": "GREEN CRESCENT GOSPORT",
          "isImpacting": true,
          "overFlowSiteId": 108436
        },
        {
          "id": 343967140,
          "eventId": 731584,
          "siteUnitNumber": 12606,
          "bathingSite": "LEE-ON-SOLENT",
          "eventStart": "2023-01-14T09:40:00",
          "eventStop": "2023-01-14T13:24:00",
          "duration": 224,
          "status": "Genuine",
          "associatedSiteId": 109718,
          "outfallName": "GREEN CRESCENT GOSPORT",
          "isImpacting": true,
          "overFlowSiteId": 108436,
          "historicSpillsList": []
        }
      ]
    },
    {
      "id": 343971003,
      "eventId": 731092,
      "siteUnitNumber": 12611,
      "bathingSite": "CHRISTCHURCH BAY",
      "eventStart": "2023-01-14T09:37:00",
      "eventStop": "2023-01-14T13:05:00",
      "duration": 208,
      "status": "Genuine",
      "associatedSiteId": 109801,
      "outfallName": "BECTON LANE BARTON ON SEA",
      "isImpacting": false,
      "overFlowSiteId": 0,
      "historicSpillsList": []
    },
    {
      "id": 343997584,
      "eventId": 731587,
      "siteUnitNumber": 12616,
      "bathingSite": "GURNARD",
      "eventStart": "2023-01-14T09:14:32",
      "eventStop": "2023-01-14T13:02:57",
      "duration": 228,
      "status": "Genuine",
      "associatedSiteId": 111069,
      "outfallName": "MEDHAM FARM NORTHWOOD",
      "isImpacting": false,
      "overFlowSiteId": 0,
      "historicSpillsList": []
    },
    {
      "id": 343972088,
      "eventId": 731433,
      "siteUnitNumber": 12661,
      "bathingSite": "LANGSTONE HARBOUR",
      "eventStart": "2023-01-14T07:49:00",
      "eventStop": "2023-01-14T13:01:00",
      "duration": 312,
      "status": "Genuine",
      "associatedSiteId": 109823,
      "outfallName": "FORT CUMBERLAND NO1",
      "isImpacting": true,
      "overFlowSiteId": 0,
      "historicSpillsList": [
        {
          "id": 343972088,
          "eventId": 731433,
          "siteUnitNumber": 12661,
          "bathingSite": "LANGSTONE HARBOUR",
          "eventStart": "2023-01-14T07:49:00",
          "eventStop": "2023-01-14T13:01:00",
          "duration": 312,
          "status": "Genuine",
          "associatedSiteId": 109823,
          "outfallName": "FORT CUMBERLAND NO1",
          "isImpacting": true,
          "overFlowSiteId": 110658
        },
        {
          "id": 343972091,
          "eventId": 731433,
          "siteUnitNumber": 12603,
          "bathingSite": "EASTNEY",
          "eventStart": "2023-01-14T07:49:00",
          "eventStop": "2023-01-14T13:01:00",
          "duration": 312,
          "status": "Genuine",
          "associatedSiteId": 109823,
          "outfallName": "FORT CUMBERLAND NO1",
          "isImpacting": true,
          "overFlowSiteId": 110658,
          "historicSpillsList": []
        }
      ]
    },
    {
      "id": 343963444,
      "eventId": 731556,
      "siteUnitNumber": 12614,
      "bathingSite": "TOTLAND BAY",
      "eventStart": "2023-01-14T09:00:00",
      "eventStop": "2023-01-14T12:56:00",
      "duration": 236,
      "status": "Genuine",
      "associatedSiteId": 109668,
      "outfallName": "COLWELL BAY",
      "isImpacting": true,
      "overFlowSiteId": 0,
      "historicSpillsList": [
        {
          "id": 343963445,
          "eventId": 731556,
          "siteUnitNumber": 12615,
          "bathingSite": "COLWELL BAY",
          "eventStart": "2023-01-14T09:00:00",
          "eventStop": "2023-01-14T12:56:00",
          "duration": 236,
          "status": "Genuine",
          "associatedSiteId": 109668,
          "outfallName": "COLWELL BAY",
          "isImpacting": true,
          "overFlowSiteId": 107407,
          "historicSpillsList": []
        }
      ]
    }
  ]
}