{
  "currentPage": 351,
  "totalItems": 18701,
  "totalPages": 749,
  "items": [
    {
      "id": 343973818,
      "eventId": 723588,
      "siteUnitNumber": 12548,
      "bathingSite": "TANKERTON",
      "eventStart": "2023-01-07T20:59:00",
      "eventStop": "2023-01-07T22:40:00",
      "duration": 101,
      "status": "Genuine",
      "associatedSiteId": 109835,
      "outfallName": "SWALECLIFFE NO2",
      "isImpacting": false,
      "overFlowSiteId": 0,
      "historicSpillsList": []
    },
    {
      "id": 343961909,
      "eventId": 729092,
      "siteUnitNumber": 12616,
      "bathingSite": "GURNARD",
      "eventStart": "2023-01-07T22:09:00",
      "eventStop": "2023-01-07T22:13:00",
      "duration": 4,
      "status": "Genuine",
      "associatedSiteId": 109652,
      "outfallName": "WOODVALE TRANSFER NO1",
      "isImpacting": true,
      "overFlowSiteId": 0,
      "historicSpillsList": [
        {
          "id": 343961909,
          "eventId": 729092,
          "siteUnitNumber": 12616,
          "bathingSite": "GURNARD",
          "eventStart": "2023-01-07T22:09:00",
          "eventStop": "2023-01-07T22:13:00",
          "duration": 4,
          "status": "Genuine",
          "associatedSiteId": 109652,
          "outfallName": "WOODVALE TRANSFER NO1",
          "isImpacting": true,
          "overFlowSiteId": 115966
        }
      ]
    },
    {
      "id": 343989368,
      "eventId": 729103,
      "siteUnitNumber": 12622,
      "bathingSite": "WHITECLIFF BAY",
      "eventStart": "2023-01-07T13:17:00",
      "eventStop": "2023-01-07T22:05:00",
      "duration": 528,
      "status": "Genuine",
      "associatedSiteId": 110096,
      "outfallName": "SANDOWN NO1",
      "isImpacting": true,
      "overFlowSiteId": 0,
      "historicSpillsList": [
        {
          "id": 343989368,
          "eventId": 729103,
          "siteUnitNumber": 12622,
          "bathingSite": "WHITECLIFF BAY",
          "eventStart": "2023-01-07T13:17:00",
          "eventStop": "2023-01-07T22:05:00",
          "duration": 528,
          "status": "Genuine",
          "associatedSiteId": 110096,
          "outfallName": "SANDOWN NO1",
          "isImpacting": true,
          "overFlowSiteId": 115453
        },
        {
          "id": 343989369,
          "eventId": 729103,
          "siteUnitNumber": 12623,
          "bathingSite": "YAVERLAND",
          "eventStart": "2023-01-07T13:17:00",
          "eventStop": "2023-01-07T22:05:00",
          "duration": 528,
          "status": "Genuine",
          "associatedSiteId": 110096,
          "outfallName": "SANDOWN NO1",
          "isImpacting": true,
          "overFlowSiteId": 115453,
          "historicSpillsList": []
        },
        {
          "id": 343989370,
          "eventId": 729103,
          "siteUnitNumber": 12624,
          "bathingSite": "SANDOWN",
          "eventStart": "2023-01-07T13:17:00",
          "eventStop": "2023-01-07T22:05:00",
          "duration": 528,
          "status": "Genuine",
          "associatedSiteId": 110096,
          "outfallName": "SANDOWN NO1",
          "isImpacting": true,
          "overFlowSiteId": 115453,
          "historicSpillsList": []
        }
      ]
    },
    {
      "id": 343964068,
      "eventId": 725639,
      "siteUnitNumber": 12549,
      "bathingSite": "HERNE BAY CENTRAL",
      "eventStart": "2023-01-07T21:30:00",
      "eventStop": "2023-01-07T21:33:00",
      "duration": 3,
      "status": "Genuine",
      "associatedSiteId": 109678,
      "outfallName": "EDDINGTON LANE HERNE BAY NO2",
      "isImpacting": false,
      "overFlowSiteId": 0,
      "historicSpillsList": []
    },
    {
      "id": 343961911,
      "eventId": 729091,
      "siteUnitNumber": 12616,
      "bathingSite": "GURNARD",
      "eventStart": "2023-01-07T21:12:00",
      "eventStop": "2023-01-07T21:16:00",
      "duration": 4,
      "status": "Genuine",
      "associatedSiteId": 109652,
      "outfallName": "WOODVALE TRANSFER NO1",
      "isImpacting": true,
      "overFlowSiteId": 0,
      "historicSpillsList": [
        {
          "id": 343961912,
          "eventId": 729091,
          "siteUnitNumber": 12617,
          "bathingSite": "COWES",
          "eventStart": "2023-01-07T21:12:00",
          "eventStop": "2023-01-07T21:16:00",
          "duration": 4,
          "status": "Genuine",
          "associatedSiteId": 109652,
          "outfallName": "WOODVALE TRANSFER NO1",
          "isImpacting": true,
          "overFlowSiteId": 115966,
          "historicSpillsList": []
        }
      ]
    },
    {
      "id": 343970860,
      "eventId": 723319,
      "siteUnitNumber": 12596,
      "bathingSite": "PAGHAM",
      "eventStart": "2023-01-07T15:27:00",
      "eventStop": "2023-01-07T21:16:00",
      "duration": 349,
      "status": "Genuine",
      "associatedSiteId": 109791,
      "outfallName": "SIDLESHAM",
      "isImpacting": true,
      "overFlowSiteId": 0,
      "historicSpillsList": [
        {
          "id": 343970860,
          "eventId": 723319,
          "siteUnitNumber": 12596,
          "bathingSite": "PAGHAM",
          "eventStart": "2023-01-07T15:27:00",
          "eventStop": "2023-01-07T21:16:00",
          "duration": 349,
          "status": "Genuine",
          "associatedSiteId": 109791,
          "outfallName": "SIDLESHAM",
          "isImpacting": true,
          "overFlowSiteId": 115807
        }
      ]
    },
    {
      "id": 343976554,
      "eventId": 723686,
      "siteUnitNumber": 12568,
      "bathingSite": "SANDGATE",
      "eventStart": "2023-01-07T19:15:00",
      "eventStop": "2023-01-07T21:15:00",
      "duration": 120,
      "status": "Genuine",
      "associatedSiteId": 109897,
      "outfallName": "RANGE ROAD HYTHE K LONG",
      "isImpacting": true,
      "overFlowSiteId": 0,
      "historicSpillsList": [
        {
          "id": 343976555,
          "eventId": 723686,
          "siteUnitNumber": 12569,
          "bathingSite": "HYTHE",
          "eventStart": "2023-01-07T19:15:00",
          "eventStop": "2023-01-07T21:15:00",
          "duration": 120,
          "status": "Genuine",
          "associatedSiteId": 109897,
          "outfallName": "RANGE ROAD HYTHE K LONG",
          "isImpacting": true,
          "overFlowSiteId": 116048,
          "historicSpillsList": []
        }
      ]
    },
    {
      "id": 343997138,
      "eventId": 723041,
      "siteUnitNumber": 12582,
      "bathingSite": "SEAFORD",
      "eventStart": "2023-01-07T10:29:02",
      "eventStop": "2023-01-07T21:04:05",
      "duration": 635,
      "status": "Genuine",
      "associatedSiteId": 110920,
      "outfallName": "NEWHAVEN",
      "isImpacting": false,
      "overFlowSiteId": 0,
      "historicSpillsList": []
    },
    {
      "id": 343968456,
      "eventId": 723347,
      "siteUnitNumber": 12661,
      "bathingSite": "LANGSTONE HARBOUR",
      "eventStart": "2023-01-07T20:05:00",
      "eventStop": "2023-01-07T20:57:00",
      "duration": 52,
      "status": "Genuine",
      "associatedSiteId": 109773,
      "outfallName": "BUDDS FARM HAVANT NO2",
      "isImpacting": true,
      "overFlowSiteId": 0,
      "historicSpillsList": [
        {
          "id": 343968456,
          "eventId": 723347,
          "siteUnitNumber": 12661,
          "bathingSite": "LANGSTONE HARBOUR",
          "eventStart": "2023-01-07T20:05:00",
          "eventStop": "2023-01-07T20:57:00",
          "duration": 52,
          "status": "Genuine",
          "associatedSiteId": 109773,
          "outfallName": "BUDDS FARM HAVANT NO2",
          "isImpacting": true,
          "overFlowSiteId": 116279
        }
      ]
    },
    {
      "id": 343972295,
      "eventId": 744191,
      "siteUnitNumber": 12608,
      "bathingSite": "CALSHOT",
      "eventStart": "2023-01-07T10:33:00",
      "eventStop": "2023-01-07T20:50:00",
      "duration": 617,
      "status": "Genuine",
      "associatedSiteId": 109826,
      "outfallName": "ASHLETT CREEK FAWLEY",
      "isImpacting": true,
      "overFlowSiteId": 0,
      "historicSpillsList": [
        {
          "id": 343972295,
          "eventId": 744191,
          "siteUnitNumber": 12608,
          "bathingSite": "CALSHOT",
          "eventStart": "2023-01-07T10:33:00",
          "eventStop": "2023-01-07T20:50:00",
          "duration": 617,
          "status": "Genuine",
          "associatedSiteId": 109826,
          "outfallName": "ASHLETT CREEK FAWLEY",
          "isImpacting": true,
          "overFlowSiteId": 115372
        }
      ]
    },
    {
      "id": 343964070,
      "eventId": 725638,
      "siteUnitNumber": 12549,
      "bathingSite": "HERNE BAY CENTRAL",
      "eventStart": "2023-01-07T20:23:00",
      "eventStop": "2023-01-07T20:26:00",
      "duration": 3,
      "status": "Genuine",
      "associatedSiteId": 109678,
      "outfallName": "EDDINGTON LANE HERNE BAY NO2",
      "isImpacting": false,
      "overFlowSiteId": 0,
      "historicSpillsList": []
    },
    {
      "id": 343961913,
      "eventId": 729090,
      "siteUnitNumber": 12616,
      "bathingSite": "GURNARD",
      "eventStart": "2023-01-07T20:14:00",
      "eventStop": "2023-01-07T20:19:00",
      "duration": 5,
      "status": "Genuine",
      "associatedSiteId": 109652,
      "outfallName": "WOODVALE TRANSFER NO1",
      "isImpacting": true,
      "overFlowSiteId": 0,
      "historicSpillsList": [
        {
          "id": 343961914,
          "eventId": 729090,
          "siteUnitNumber": 12617,
          "bathingSite": "COWES",
          "eventStart": "2023-01-07T20:14:00",
          "eventStop": "2023-01-07T20:19:00",
          "duration": 5,
          "status": "Genuine",
          "associatedSiteId": 109652,
          "outfallName": "WOODVALE TRANSFER NO1",
          "isImpacting": true,
          "overFlowSiteId": 115966,
          "historicSpillsList": []
        }
      ]
    },
    {
      "id": 343992676,
      "eventId": 722825,
      "siteUnitNumber": 12625,
      "bathingSite": "SHANKLIN",
      "eventStart": "2023-01-07T11:11:00",
      "eventStop": "2023-01-07T19:47:00",
      "duration": 516,
      "status": "Genuine",
      "associatedSiteId": 110097,
      "outfallName": "SANDOWN NO2",
      "isImpacting": true,
      "overFlowSiteId": 0,
      "historicSpillsList": [
        {
          "id": 343992676,
          "eventId": 722825,
          "siteUnitNumber": 12625,
          "bathingSite": "SHANKLIN",
          "eventStart": "2023-01-07T11:11:00",
          "eventStop": "2023-01-07T19:47:00",
          "duration": 516,
          "status": "Genuine",
          "associatedSiteId": 110097,
          "outfallName": "SANDOWN NO2",
          "isImpacting": true,
          "overFlowSiteId": 115454
        },
        {
          "id": 343992684,
          "eventId": 722825,
          "siteUnitNumber": 12623,
          "bathingSite": "YAVERLAND",
          "eventStart": "2023-01-07T11:11:00",
          "eventStop": "2023-01-07T19:47:00",
          "duration": 516,
          "status": "Genuine",
          "associatedSiteId": 110097,
          "outfallName": "SANDOWN NO2",
          "isImpacting": true,
          "overFlowSiteId": 115454,
          "historicSpillsList": []
        },
        {
          "id": 343992685,
          "eventId": 722825,
          "siteUnitNumber": 12624,
          "bathingSite": "SANDOWN",
          "eventStart": "2023-01-07T11:11:00",
          "eventStop": "2023-01-07T19:47:00",
          "duration": 516,
          "status": "Genuine",
          "associatedSiteId": 110097,
          "outfallName": "SANDOWN NO2",
          "isImpacting": true,
          "overFlowSiteId": 115454,
          "historicSpillsList": []
        }
      ]
    },
    {
      "id": 343964072,
      "eventId": 725637,
      "siteUnitNumber": 12549,
      "bathingSite": "HERNE BAY CENTRAL",
      "eventStart": "2023-01-07T19:37:00",
      "eventStop": "2023-01-07T19:41:00",
      "duration": 4,
      "status": "Genuine",
      "associatedSiteId": 109678,
      "outfallName": "EDDINGTON LANE HERNE BAY NO2",
      "isImpacting": false,
      "overFlowSiteId": 0,
      "historicSpillsList": []
    },
    {
      "id": 343980807,
      "eventId": 723399,
      "siteUnitNumber": 12581,
      "bathingSite": "BIRLING GAP",
      "eventStart": "2023-01-07T16:59:17",
      "eventStop": "2023-01-07T19:40:07",
      "duration": 160,
      "status": "Genuine",
      "associatedSiteId": 109936,
      "outfallName": "EAST DEAN",
      "isImpacting": false,
      "overFlowSiteId": 0,
      "historicSpillsList": []
    },
    {
      "id": 343973692,
      "eventId": 723484,
      "siteUnitNumber": 12547,
      "bathingSite": "WEST BEACH WHITSTABLE",
      "eventStart": "2023-01-07T18:22:00",
      "eventStop": "2023-01-07T19:36:00",
      "duration": 74,
      "status": "Genuine",
      "associatedSiteId": 109832,
      "outfallName": "GORREL NO1",
      "isImpacting": false,
      "overFlowSiteId": 0,
      "historicSpillsList": []
    },
    {
      "id": 343984110,
      "eventId": 723732,
      "siteUnitNumber": 12595,
      "bathingSite": "BOGNOR REGIS (ALDWICK)",
      "eventStart": "2023-01-07T19:14:00",
      "eventStop": "2023-01-07T19:33:00",
      "duration": 19,
      "status": "Genuine",
      "associatedSiteId": 109959,
      "outfallName": "WEST PARK BOGNOR REGIS",
      "isImpacting": true,
      "overFlowSiteId": 0,
      "historicSpillsList": [
        {
          "id": 343984111,
          "eventId": 723732,
          "siteUnitNumber": 12596,
          "bathingSite": "PAGHAM",
          "eventStart": "2023-01-07T19:14:00",
          "eventStop": "2023-01-07T19:33:00",
          "duration": 19,
          "status": "Genuine",
          "associatedSiteId": 109959,
          "outfallName": "WEST PARK BOGNOR REGIS",
          "isImpacting": true,
          "overFlowSiteId": 108160,
          "historicSpillsList": []
        }
      ]
    },
    {
      "id": 343961915,
      "eventId": 729089,
      "siteUnitNumber": 12616,
      "bathingSite": "GURNARD",
      "eventStart": "2023-01-07T19:25:00",
      "eventStop": "2023-01-07T19:30:00",
      "duration": 5,
      "status": "Genuine",
      "associatedSiteId": 109652,
      "outfallName": "WOODVALE TRANSFER NO1",
      "isImpacting": true,
      "overFlowSiteId": 0,
      "historicSpillsList": [
        {
          "id": 343961916,
          "eventId": 729089,
          "siteUnitNumber": 12617,
          "bathingSite": "COWES",
          "eventStart": "2023-01-07T19:25:00",
          "eventStop": "2023-01-07T19:30:00",
          "duration": 5,
          "status": "Genuine",
          "associatedSiteId": 109652,
          "outfallName": "WOODVALE TRANSFER NO1",
          "isImpacting": true,
          "overFlowSiteId": 115966,
          "historicSpillsList": []
        }
      ]
    },
    {
      "id": 343997858,
      "eventId": 723559,
      "siteUnitNumber": 12549,
      "bathingSite": "HERNE BAY CENTRAL",
      "eventStart": "2023-01-07T18:42:00",
      "eventStop": "2023-01-07T19:22:00",
      "duration": 40,
      "status": "Genuine",
      "associatedSiteId": 111724,
      "outfallName": "GAINSBOROUGH DRIVE HERNE BAY",
      "isImpacting": false,
      "overFlowSiteId": 0,
      "historicSpillsList": []
    },
    {
      "id": 343964074,
      "eventId": 725636,
      "siteUnitNumber": 12549,
      "bathingSite": "HERNE BAY CENTRAL",
      "eventStart": "2023-01-07T19:09:00",
      "eventStop": "2023-01-07T19:12:00",
      "duration": 3,
      "status": "Genuine",
      "associatedSiteId": 109678,
      "outfallName": "EDDINGTON LANE HERNE BAY NO2",
      "isImpacting": false,
      "overFlowSiteId": 0,
      "historicSpillsList": []
    },
    {
      "id": 343973372,
      "eventId": 730088,
      "siteUnitNumber": 12547,
      "bathingSite": "WEST BEACH WHITSTABLE",
      "eventStart": "2023-01-07T18:12:00",
      "eventStop": "2023-01-07T18:57:00",
      "duration": 45,
      "status": "Genuine",
      "associatedSiteId": 109831,
      "outfallName": "TANKERTON CIRCUS",
      "isImpacting": false,
      "overFlowSiteId": 0,
      "historicSpillsList": []
    },
    {
      "id": 343961917,
      "eventId": 729088,
      "siteUnitNumber": 12616,
      "bathingSite": "GURNARD",
      "eventStart": "2023-01-07T18:43:00",
      "eventStop": "2023-01-07T18:49:00",
      "duration": 6,
      "status": "Genuine",
      "associatedSiteId": 109652,
      "outfallName": "WOODVALE TRANSFER NO1",
      "isImpacting": true,
      "overFlowSiteId": 0,
      "historicSpillsList": [
        {
          "id": 343961918,
          "eventId": 729088,
          "siteUnitNumber": 12617,
          "bathingSite": "COWES",
          "eventStart": "2023-01-07T18:43:00",
          "eventStop": "2023-01-07T18:49:00",
          "duration": 6,
          "status": "Genuine",
          "associatedSiteId": 109652,
          "outfallName": "WOODVALE TRANSFER NO1",
          "isImpacting": true,
          "overFlowSiteId": 115966,
          "historicSpillsList": []
        }
      ]
    },
    {
      "id": 343973380,
      "eventId": 725618,
      "siteUnitNumber": 12547,
      "bathingSite": "WEST BEACH WHITSTABLE",
      "eventStart": "2023-01-07T18:10:00",
      "eventStop": "2023-01-07T18:43:00",
      "duration": 33,
      "status": "Genuine",
      "associatedSiteId": 109831,
      "outfallName": "TANKERTON CIRCUS",
      "isImpacting": false,
      "overFlowSiteId": 0,
      "historicSpillsList": []
    },
    {
      "id": 343973374,
      "eventId": 727821,
      "siteUnitNumber": 12548,
      "bathingSite": "TANKERTON",
      "eventStart": "2023-01-07T18:09:00",
      "eventStop": "2023-01-07T18:43:00",
      "duration": 34,
      "status": "Genuine",
      "associatedSiteId": 109831,
      "outfallName": "TANKERTON CIRCUS",
      "isImpacting": false,
      "overFlowSiteId": 0,
      "historicSpillsList": []
    },
    {
      "id": 343961919,
      "eventId": 729087,
      "siteUnitNumber": 12616,
      "bathingSite": "GURNARD",
      "eventStart": "2023-01-07T18:05:00",
      "eventStop": "2023-01-07T18:12:00",
      "duration": 7,
      "status": "Genuine",
      "associatedSiteId": 109652,
      "outfallName": "WOODVALE TRANSFER NO1",
      "isImpacting": true,
      "overFlowSiteId": 0,
      "historicSpillsList": [
        {
          "id": 343961920,
          "eventId": 729087,
          "siteUnitNumber": 12617,
          "bathingSite": "COWES",
          "eventStart": "2023-01-07T18:05:00",
          "eventStop": "2023-01-07T18:12:00",
          "duration": 7,
          "status": "Genuine",
          "associatedSiteId": 109652,
          "outfallName": "WOODVALE TRANSFER NO1",
          "isImpacting": true,
          "overFlowSiteId": 115966,
          "historicSpillsList": []
        }
      ]
    }
  ]
}