{
  "currentPage": 453,
  "totalItems": 18701,
  "totalPages": 749,
  "items": [
    {
      "id": 343966673,
      "eventId": 657953,
      "siteUnitNumber": 12616,
      "bathingSite": "GURNARD",
      "eventStart": "2022-11-06T07:16:34",
      "eventStop": "2022-11-06T11:25:11",
      "duration": 248,
      "status": "Genuine",
      "associatedSiteId": 109706,
      "outfallName": "HIGH STREET COWES",
      "isImpacting": false,
      "overFlowSiteId": 0,
      "historicSpillsList": []
    },
    {
      "id": 343974273,
      "eventId": 658155,
      "siteUnitNumber": 12662,
      "bathingSite": "CHICHESTER HARBOUR",
      "eventStart": "2022-11-06T09:00:51",
      "eventStop": "2022-11-06T11:15:48",
      "duration": 134,
      "status": "Genuine",
      "associatedSiteId": 109836,
      "outfallName": "CHICHESTER",
      "isImpacting": true,
      "overFlowSiteId": 0,
      "historicSpillsList": [
        {
          "id": 343974273,
          "eventId": 658155,
          "siteUnitNumber": 12662,
          "bathingSite": "CHICHESTER HARBOUR",
          "eventStart": "2022-11-06T09:00:51",
          "eventStop": "2022-11-06T11:15:48",
          "duration": 134,
          "status": "Genuine",
          "associatedSiteId": 109836,
          "outfallName": "CHICHESTER",
          "isImpacting": true,
          "overFlowSiteId": 115401
        }
      ]
    },
    {
      "id": 343970375,
      "eventId": 658108,
      "siteUnitNumber": 12618,
      "bathingSite": "RYDE",
      "eventStart": "2022-11-06T08:34:00",
      "eventStop": "2022-11-06T11:05:00",
      "duration": 151,
      "status": "Genuine",
      "associatedSiteId": 109785,
      "outfallName": "SIMEON STREET RYDE",
      "isImpacting": false,
      "overFlowSiteId": 0,
      "historicSpillsList": []
    },
    {
      "id": 343979800,
      "eventId": 658302,
      "siteUnitNumber": 12587,
      "bathingSite": "SOUTHWICK",
      "eventStart": "2022-11-06T09:26:12",
      "eventStop": "2022-11-06T10:50:00",
      "duration": 83,
      "status": "Genuine",
      "associatedSiteId": 109922,
      "outfallName": "ROPETACKLE STREET SHOREHAM",
      "isImpacting": false,
      "overFlowSiteId": 0,
      "historicSpillsList": []
    },
    {
      "id": 343981564,
      "eventId": 658149,
      "siteUnitNumber": 12621,
      "bathingSite": "BEMBRIDGE",
      "eventStart": "2022-11-06T09:10:00",
      "eventStop": "2022-11-06T10:46:00",
      "duration": 96,
      "status": "Genuine",
      "associatedSiteId": 109941,
      "outfallName": "LATIMER ROAD ST HELENS",
      "isImpacting": false,
      "overFlowSiteId": 0,
      "historicSpillsList": []
    },
    {
      "id": 343968268,
      "eventId": 659032,
      "siteUnitNumber": 12661,
      "bathingSite": "LANGSTONE HARBOUR",
      "eventStart": "2022-11-06T09:01:00",
      "eventStop": "2022-11-06T10:46:00",
      "duration": 105,
      "status": "Genuine",
      "associatedSiteId": 109772,
      "outfallName": "BUDDS FARM HAVANT NO1",
      "isImpacting": true,
      "overFlowSiteId": 0,
      "historicSpillsList": [
        {
          "id": 343968268,
          "eventId": 659032,
          "siteUnitNumber": 12661,
          "bathingSite": "LANGSTONE HARBOUR",
          "eventStart": "2022-11-06T09:01:00",
          "eventStop": "2022-11-06T10:46:00",
          "duration": 105,
          "status": "Genuine",
          "associatedSiteId": 109772,
          "outfallName": "BUDDS FARM HAVANT NO1",
          "isImpacting": true,
          "overFlowSiteId": 110704
        }
      ]
    },
    {
      "id": 343997596,
      "eventId": 658100,
      "siteUnitNumber": 12616,
      "bathingSite": "GURNARD",
      "eventStart": "2022-11-06T08:21:33",
      "eventStop": "2022-11-06T10:17:39",
      "duration": 116,
      "status": "Genuine",
      "associatedSiteId": 111069,
      "outfallName": "MEDHAM FARM NORTHWOOD",
      "isImpacting": false,
      "overFlowSiteId": 0,
      "historicSpillsList": []
    },
    {
      "id": 343971083,
      "eventId": 658024,
      "siteUnitNumber": 12661,
      "bathingSite": "LANGSTONE HARBOUR",
      "eventStart": "2022-11-06T07:29:30",
      "eventStop": "2022-11-06T10:00:00",
      "duration": 150,
      "status": "Genuine",
      "associatedSiteId": 109817,
      "outfallName": "MAINLAND DRAYTON",
      "isImpacting": true,
      "overFlowSiteId": 0,
      "historicSpillsList": [
        {
          "id": 343971083,
          "eventId": 658024,
          "siteUnitNumber": 12661,
          "bathingSite": "LANGSTONE HARBOUR",
          "eventStart": "2022-11-06T07:29:30",
          "eventStop": "2022-11-06T10:00:00",
          "duration": 150,
          "status": "Genuine",
          "associatedSiteId": 109817,
          "outfallName": "MAINLAND DRAYTON",
          "isImpacting": true,
          "overFlowSiteId": 115960
        }
      ]
    },
    {
      "id": 343979901,
      "eventId": 658238,
      "siteUnitNumber": 12587,
      "bathingSite": "SOUTHWICK",
      "eventStart": "2022-11-06T09:22:00",
      "eventStop": "2022-11-06T09:48:00",
      "duration": 26,
      "status": "Genuine",
      "associatedSiteId": 109923,
      "outfallName": "THE GREEN SOUTHWICK",
      "isImpacting": false,
      "overFlowSiteId": 0,
      "historicSpillsList": []
    },
    {
      "id": 343979951,
      "eventId": 658267,
      "siteUnitNumber": 12587,
      "bathingSite": "SOUTHWICK",
      "eventStart": "2022-11-06T09:34:00",
      "eventStop": "2022-11-06T09:40:00",
      "duration": 6,
      "status": "Genuine",
      "associatedSiteId": 109924,
      "outfallName": "UPPER SHOREHAM ROAD SHOREHAM",
      "isImpacting": true,
      "overFlowSiteId": 0,
      "historicSpillsList": [
        {
          "id": 343979951,
          "eventId": 658267,
          "siteUnitNumber": 12587,
          "bathingSite": "SOUTHWICK",
          "eventStart": "2022-11-06T09:34:00",
          "eventStop": "2022-11-06T09:40:00",
          "duration": 6,
          "status": "Genuine",
          "associatedSiteId": 109924,
          "outfallName": "UPPER SHOREHAM ROAD SHOREHAM",
          "isImpacting": true,
          "overFlowSiteId": 108819
        },
        {
          "id": 343979952,
          "eventId": 658267,
          "siteUnitNumber": 12588,
          "bathingSite": "SHOREHAM BEACH",
          "eventStart": "2022-11-06T09:34:00",
          "eventStop": "2022-11-06T09:40:00",
          "duration": 6,
          "status": "Genuine",
          "associatedSiteId": 109924,
          "outfallName": "UPPER SHOREHAM ROAD SHOREHAM",
          "isImpacting": true,
          "overFlowSiteId": 108819,
          "historicSpillsList": []
        }
      ]
    },
    {
      "id": 343963378,
      "eventId": 658023,
      "siteUnitNumber": 12614,
      "bathingSite": "TOTLAND BAY",
      "eventStart": "2022-11-06T07:29:16",
      "eventStop": "2022-11-06T09:32:00",
      "duration": 122,
      "status": "Genuine",
      "associatedSiteId": 109665,
      "outfallName": "THORLEY ROAD BOULDNOR",
      "isImpacting": false,
      "overFlowSiteId": 0,
      "historicSpillsList": []
    },
    {
      "id": 343963058,
      "eventId": 658072,
      "siteUnitNumber": 12614,
      "bathingSite": "TOTLAND BAY",
      "eventStart": "2022-11-06T07:48:36",
      "eventStop": "2022-11-06T09:27:00",
      "duration": 98,
      "status": "Genuine",
      "associatedSiteId": 109657,
      "outfallName": "THE PROMENADE TOTLAND PIER NO2",
      "isImpacting": false,
      "overFlowSiteId": 0,
      "historicSpillsList": []
    },
    {
      "id": 343988565,
      "eventId": 658077,
      "siteUnitNumber": 12626,
      "bathingSite": "VENTNOR",
      "eventStart": "2022-11-06T08:07:30",
      "eventStop": "2022-11-06T09:19:00",
      "duration": 71,
      "status": "Genuine",
      "associatedSiteId": 110064,
      "outfallName": "LION POINT VENTNOR",
      "isImpacting": true,
      "overFlowSiteId": 0,
      "historicSpillsList": [
        {
          "id": 343988565,
          "eventId": 658077,
          "siteUnitNumber": 12626,
          "bathingSite": "VENTNOR",
          "eventStart": "2022-11-06T08:07:30",
          "eventStop": "2022-11-06T09:19:00",
          "duration": 71,
          "status": "Genuine",
          "associatedSiteId": 110064,
          "outfallName": "LION POINT VENTNOR",
          "isImpacting": true,
          "overFlowSiteId": 108546
        }
      ]
    },
    {
      "id": 343963231,
      "eventId": 658032,
      "siteUnitNumber": 12615,
      "bathingSite": "COLWELL BAY",
      "eventStart": "2022-11-06T07:45:00",
      "eventStop": "2022-11-06T09:15:00",
      "duration": 90,
      "status": "Genuine",
      "associatedSiteId": 109663,
      "outfallName": "THE INSTITUTE YARMOUTH NO1",
      "isImpacting": false,
      "overFlowSiteId": 0,
      "historicSpillsList": []
    },
    {
      "id": 343987941,
      "eventId": 658019,
      "siteUnitNumber": 12625,
      "bathingSite": "SHANKLIN",
      "eventStart": "2022-11-06T07:26:41",
      "eventStop": "2022-11-06T08:55:00",
      "duration": 88,
      "status": "Genuine",
      "associatedSiteId": 110024,
      "outfallName": "EASTERN GARDENS SANDOWN",
      "isImpacting": true,
      "overFlowSiteId": 0,
      "historicSpillsList": [
        {
          "id": 343987941,
          "eventId": 658019,
          "siteUnitNumber": 12625,
          "bathingSite": "SHANKLIN",
          "eventStart": "2022-11-06T07:26:41",
          "eventStop": "2022-11-06T08:55:00",
          "duration": 88,
          "status": "Genuine",
          "associatedSiteId": 110024,
          "outfallName": "EASTERN GARDENS SANDOWN",
          "isImpacting": true,
          "overFlowSiteId": 108039
        },
        {
          "id": 343987942,
          "eventId": 658019,
          "siteUnitNumber": 12623,
          "bathingSite": "YAVERLAND",
          "eventStart": "2022-11-06T07:26:41",
          "eventStop": "2022-11-06T08:55:00",
          "duration": 88,
          "status": "Genuine",
          "associatedSiteId": 110024,
          "outfallName": "EASTERN GARDENS SANDOWN",
          "isImpacting": true,
          "overFlowSiteId": 108039,
          "historicSpillsList": []
        },
        {
          "id": 343987943,
          "eventId": 658019,
          "siteUnitNumber": 12624,
          "bathingSite": "SANDOWN",
          "eventStart": "2022-11-06T07:26:41",
          "eventStop": "2022-11-06T08:55:00",
          "duration": 88,
          "status": "Genuine",
          "associatedSiteId": 110024,
          "outfallName": "EASTERN GARDENS SANDOWN",
          "isImpacting": true,
          "overFlowSiteId": 108039,
          "historicSpillsList": []
        }
      ]
    },
    {
      "id": 343968269,
      "eventId": 659029,
      "siteUnitNumber": 12661,
      "bathingSite": "LANGSTONE HARBOUR",
      "eventStart": "2022-11-06T08:25:00",
      "eventStop": "2022-11-06T08:39:00",
      "duration": 14,
      "status": "Genuine",
      "associatedSiteId": 109772,
      "outfallName": "BUDDS FARM HAVANT NO1",
      "isImpacting": true,
      "overFlowSiteId": 0,
      "historicSpillsList": [
        {
          "id": 343968269,
          "eventId": 659029,
          "siteUnitNumber": 12661,
          "bathingSite": "LANGSTONE HARBOUR",
          "eventStart": "2022-11-06T08:25:00",
          "eventStop": "2022-11-06T08:39:00",
          "duration": 14,
          "status": "Genuine",
          "associatedSiteId": 109772,
          "outfallName": "BUDDS FARM HAVANT NO1",
          "isImpacting": true,
          "overFlowSiteId": 110704
        }
      ]
    },
    {
      "id": 343968130,
      "eventId": 658020,
      "siteUnitNumber": 12606,
      "bathingSite": "LEE-ON-SOLENT",
      "eventStart": "2022-11-06T07:27:43",
      "eventStop": "2022-11-06T08:08:25",
      "duration": 40,
      "status": "Genuine",
      "associatedSiteId": 109733,
      "outfallName": "QUEENS ROAD LEE ON THE SOLENT",
      "isImpacting": false,
      "overFlowSiteId": 0,
      "historicSpillsList": []
    },
    {
      "id": 343960669,
      "eventId": 663794,
      "siteUnitNumber": 12618,
      "bathingSite": "RYDE",
      "eventStart": "2022-11-06T07:16:00",
      "eventStop": "2022-11-06T08:06:00",
      "duration": 50,
      "status": "Genuine",
      "associatedSiteId": 102971,
      "outfallName": "SPRING VALE",
      "isImpacting": false,
      "overFlowSiteId": 0,
      "historicSpillsList": []
    },
    {
      "id": 343971232,
      "eventId": 657992,
      "siteUnitNumber": 12661,
      "bathingSite": "LANGSTONE HARBOUR",
      "eventStart": "2022-11-06T07:13:15",
      "eventStop": "2022-11-06T08:00:00",
      "duration": 46,
      "status": "Genuine",
      "associatedSiteId": 109820,
      "outfallName": "ST ANDREWS ROAD PORTSMOUTH",
      "isImpacting": true,
      "overFlowSiteId": 0,
      "historicSpillsList": [
        {
          "id": 343971232,
          "eventId": 657992,
          "siteUnitNumber": 12661,
          "bathingSite": "LANGSTONE HARBOUR",
          "eventStart": "2022-11-06T07:13:15",
          "eventStop": "2022-11-06T08:00:00",
          "duration": 46,
          "status": "Genuine",
          "associatedSiteId": 109820,
          "outfallName": "ST ANDREWS ROAD PORTSMOUTH",
          "isImpacting": true,
          "overFlowSiteId": 108474
        }
      ]
    },
    {
      "id": 343997520,
      "eventId": 657835,
      "siteUnitNumber": 12573,
      "bathingSite": "CAMBER",
      "eventStart": "2022-11-06T06:08:00",
      "eventStop": "2022-11-06T07:46:00",
      "duration": 98,
      "status": "Genuine",
      "associatedSiteId": 110958,
      "outfallName": "RYE",
      "isImpacting": false,
      "overFlowSiteId": 0,
      "historicSpillsList": []
    },
    {
      "id": 343989675,
      "eventId": 656975,
      "siteUnitNumber": 12622,
      "bathingSite": "WHITECLIFF BAY",
      "eventStart": "2022-11-05T09:14:52",
      "eventStop": "2022-11-06T07:46:00",
      "duration": 1351,
      "status": "Genuine",
      "associatedSiteId": 110096,
      "outfallName": "SANDOWN NO1",
      "isImpacting": true,
      "overFlowSiteId": 0,
      "historicSpillsList": [
        {
          "id": 343989675,
          "eventId": 656975,
          "siteUnitNumber": 12622,
          "bathingSite": "WHITECLIFF BAY",
          "eventStart": "2022-11-05T09:14:52",
          "eventStop": "2022-11-06T07:46:00",
          "duration": 1351,
          "status": "Genuine",
          "associatedSiteId": 110096,
          "outfallName": "SANDOWN NO1",
          "isImpacting": true,
          "overFlowSiteId": 115453
        },
        {
          "id": 343989676,
          "eventId": 656975,
          "siteUnitNumber": 12623,
          "bathingSite": "YAVERLAND",
          "eventStart": "2022-11-05T09:14:52",
          "eventStop": "2022-11-06T07:46:00",
          "duration": 1351,
          "status": "Genuine",
          "associatedSiteId": 110096,
          "outfallName": "SANDOWN NO1",
          "isImpacting": true,
          "overFlowSiteId": 115453,
          "historicSpillsList": []
        },
        {
          "id": 343989677,
          "eventId": 656975,
          "siteUnitNumber": 12624,
          "bathingSite": "SANDOWN",
          "eventStart": "2022-11-05T09:14:52",
          "eventStop": "2022-11-06T07:46:00",
          "duration": 1351,
          "status": "Genuine",
          "associatedSiteId": 110096,
          "outfallName": "SANDOWN NO1",
          "isImpacting": true,
          "overFlowSiteId": 115453,
          "historicSpillsList": []
        }
      ]
    },
    {
      "id": 343970290,
      "eventId": 657977,
      "siteUnitNumber": 12618,
      "bathingSite": "RYDE",
      "eventStart": "2022-11-06T07:09:00",
      "eventStop": "2022-11-06T07:26:00",
      "duration": 17,
      "status": "Genuine",
      "associatedSiteId": 109782,
      "outfallName": "AUGUSTA ROAD RYDE",
      "isImpacting": true,
      "overFlowSiteId": 0,
      "historicSpillsList": [
        {
          "id": 343970290,
          "eventId": 657977,
          "siteUnitNumber": 12618,
          "bathingSite": "RYDE",
          "eventStart": "2022-11-06T07:09:00",
          "eventStop": "2022-11-06T07:26:00",
          "duration": 17,
          "status": "Genuine",
          "associatedSiteId": 109782,
          "outfallName": "AUGUSTA ROAD RYDE",
          "isImpacting": true,
          "overFlowSiteId": 102348
        }
      ]
    },
    {
      "id": 343966675,
      "eventId": 657792,
      "siteUnitNumber": 12616,
      "bathingSite": "GURNARD",
      "eventStart": "2022-11-06T04:31:08",
      "eventStop": "2022-11-06T06:56:26",
      "duration": 145,
      "status": "Genuine",
      "associatedSiteId": 109706,
      "outfallName": "HIGH STREET COWES",
      "isImpacting": false,
      "overFlowSiteId": 0,
      "historicSpillsList": []
    },
    {
      "id": 343986049,
      "eventId": 657818,
      "siteUnitNumber": 12591,
      "bathingSite": "LITTLEHAMPTON",
      "eventStart": "2022-11-06T04:52:00",
      "eventStop": "2022-11-06T05:13:00",
      "duration": 21,
      "status": "Genuine",
      "associatedSiteId": 109968,
      "outfallName": "FORD ROAD ARUNDEL",
      "isImpacting": true,
      "overFlowSiteId": 0,
      "historicSpillsList": [
        {
          "id": 343986049,
          "eventId": 657818,
          "siteUnitNumber": 12591,
          "bathingSite": "LITTLEHAMPTON",
          "eventStart": "2022-11-06T04:52:00",
          "eventStop": "2022-11-06T05:13:00",
          "duration": 21,
          "status": "Genuine",
          "associatedSiteId": 109968,
          "outfallName": "FORD ROAD ARUNDEL",
          "isImpacting": true,
          "overFlowSiteId": 108002
        }
      ]
    },
    {
      "id": 343964841,
      "eventId": 659024,
      "siteUnitNumber": 12616,
      "bathingSite": "GURNARD",
      "eventStart": "2022-11-06T03:22:37",
      "eventStop": "2022-11-06T03:35:00",
      "duration": 12,
      "status": "Genuine",
      "associatedSiteId": 109700,
      "outfallName": "MARKET HILL COWES",
      "isImpacting": false,
      "overFlowSiteId": 0,
      "historicSpillsList": []
    }
  ]
}