{
  "currentPage": 160,
  "totalItems": 21025,
  "totalPages": 841,
  "items": [
    {
      "id": 344789338,
      "eventId": 883652,
      "siteUnitNumber": 12586,
      "bathingSite": "HOVE",
      "eventStart": "2023-10-28T12:02:44",
      "eventStop": "2023-10-28T12:10:04",
      "duration": 7,
      "status": "Genuine",
      "associatedSiteId": 109929,
      "outfallName": "SHOREHAM NO1",
      "isImpacting": true,
      "overFlowSiteId": 0,
      "historicSpillsList": [
        {
          "id": 344789338,
          "eventId": 883652,
          "siteUnitNumber": 12586,
          "bathingSite": "HOVE",
          "eventStart": "2023-10-28T12:02:44",
          "eventStop": "2023-10-28T12:10:04",
          "duration": 7,
          "status": "Genuine",
          "associatedSiteId": 109929,
          "outfallName": "SHOREHAM NO1",
          "isImpacting": true,
          "overFlowSiteId": 115434
        },
        {
          "id": 344789339,
          "eventId": 883652,
          "siteUnitNumber": 12587,
          "bathingSite": "SOUTHWICK",
          "eventStart": "2023-10-28T12:02:44",
          "eventStop": "2023-10-28T12:10:04",
          "duration": 7,
          "status": "Genuine",
          "associatedSiteId": 109929,
          "outfallName": "SHOREHAM NO1",
          "isImpacting": true,
          "overFlowSiteId": 115434,
          "historicSpillsList": []
        },
        {
          "id": 344789340,
          "eventId": 883652,
          "siteUnitNumber": 12588,
          "bathingSite": "SHOREHAM BEACH",
          "eventStart": "2023-10-28T12:02:44",
          "eventStop": "2023-10-28T12:10:04",
          "duration": 7,
          "status": "Genuine",
          "associatedSiteId": 109929,
          "outfallName": "SHOREHAM NO1",
          "isImpacting": true,
          "overFlowSiteId": 115434,
          "historicSpillsList": []
        }
      ]
    },
    {
      "id": 344774591,
      "eventId": 883653,
      "siteUnitNumber": 12616,
      "bathingSite": "GURNARD",
      "eventStart": "2023-10-28T12:04:16",
      "eventStop": "2023-10-28T12:08:52",
      "duration": 4,
      "status": "Not Genuine",
      "associatedSiteId": 109703,
      "outfallName": "CASTLE STREET COWES",
      "isImpacting": true,
      "overFlowSiteId": 0,
      "historicSpillsList": []
    },
    {
      "id": 344783856,
      "eventId": 882911,
      "siteUnitNumber": 12579,
      "bathingSite": "PEVENSEY BAY",
      "eventStart": "2023-10-28T11:23:00",
      "eventStop": "2023-10-28T12:05:00",
      "duration": 42,
      "status": "Genuine",
      "associatedSiteId": 109889,
      "outfallName": "RATTLE ROAD WESTHAM",
      "isImpacting": false,
      "overFlowSiteId": 0,
      "historicSpillsList": []
    },
    {
      "id": 344789311,
      "eventId": 883863,
      "siteUnitNumber": 12586,
      "bathingSite": "HOVE",
      "eventStart": "2023-10-28T11:56:00",
      "eventStop": "2023-10-28T11:58:00",
      "duration": 2,
      "status": "Genuine",
      "associatedSiteId": 109929,
      "outfallName": "SHOREHAM NO1",
      "isImpacting": true,
      "overFlowSiteId": 0,
      "historicSpillsList": [
        {
          "id": 344789311,
          "eventId": 883863,
          "siteUnitNumber": 12586,
          "bathingSite": "HOVE",
          "eventStart": "2023-10-28T11:56:00",
          "eventStop": "2023-10-28T11:58:00",
          "duration": 2,
          "status": "Genuine",
          "associatedSiteId": 109929,
          "outfallName": "SHOREHAM NO1",
          "isImpacting": true,
          "overFlowSiteId": 115434
        },
        {
          "id": 344789312,
          "eventId": 883863,
          "siteUnitNumber": 12587,
          "bathingSite": "SOUTHWICK",
          "eventStart": "2023-10-28T11:56:00",
          "eventStop": "2023-10-28T11:58:00",
          "duration": 2,
          "status": "Genuine",
          "associatedSiteId": 109929,
          "outfallName": "SHOREHAM NO1",
          "isImpacting": true,
          "overFlowSiteId": 115434,
          "historicSpillsList": []
        },
        {
          "id": 344789313,
          "eventId": 883863,
          "siteUnitNumber": 12588,
          "bathingSite": "SHOREHAM BEACH",
          "eventStart": "2023-10-28T11:56:00",
          "eventStop": "2023-10-28T11:58:00",
          "duration": 2,
          "status": "Genuine",
          "associatedSiteId": 109929,
          "outfallName": "SHOREHAM NO1",
          "isImpacting": true,
          "overFlowSiteId": 115434,
          "historicSpillsList": []
        }
      ]
    },
    {
      "id": 344784758,
      "eventId": 883647,
      "siteUnitNumber": 12568,
      "bathingSite": "SANDGATE",
      "eventStart": "2023-10-28T11:49:05",
      "eventStop": "2023-10-28T11:55:40",
      "duration": 6,
      "status": "Genuine",
      "associatedSiteId": 109896,
      "outfallName": "RANGE ROAD HYTHE K SHORT",
      "isImpacting": true,
      "overFlowSiteId": 0,
      "historicSpillsList": [
        {
          "id": 344784759,
          "eventId": 883647,
          "siteUnitNumber": 12569,
          "bathingSite": "HYTHE",
          "eventStart": "2023-10-28T11:49:05",
          "eventStop": "2023-10-28T11:55:40",
          "duration": 6,
          "status": "Genuine",
          "associatedSiteId": 109896,
          "outfallName": "RANGE ROAD HYTHE K SHORT",
          "isImpacting": true,
          "overFlowSiteId": 116112,
          "historicSpillsList": []
        }
      ]
    },
    {
      "id": 344797715,
      "eventId": 889720,
      "siteUnitNumber": 12582,
      "bathingSite": "SEAFORD",
      "eventStart": "2023-10-28T06:51:00",
      "eventStop": "2023-10-28T11:53:00",
      "duration": 302,
      "status": "Genuine",
      "associatedSiteId": 110046,
      "outfallName": "BEACH ROAD NEWHAVEN",
      "isImpacting": false,
      "overFlowSiteId": 0,
      "historicSpillsList": []
    },
    {
      "id": 344775581,
      "eventId": 883597,
      "siteUnitNumber": 12616,
      "bathingSite": "GURNARD",
      "eventStart": "2023-10-28T11:14:33",
      "eventStop": "2023-10-28T11:50:39",
      "duration": 36,
      "status": "Genuine",
      "associatedSiteId": 109706,
      "outfallName": "HIGH STREET COWES",
      "isImpacting": false,
      "overFlowSiteId": 0,
      "historicSpillsList": []
    },
    {
      "id": 344789309,
      "eventId": 883862,
      "siteUnitNumber": 12587,
      "bathingSite": "SOUTHWICK",
      "eventStart": "2023-10-28T11:48:00",
      "eventStop": "2023-10-28T11:50:00",
      "duration": 2,
      "status": "Genuine",
      "associatedSiteId": 109929,
      "outfallName": "SHOREHAM NO1",
      "isImpacting": true,
      "overFlowSiteId": 0,
      "historicSpillsList": [
        {
          "id": 344789309,
          "eventId": 883862,
          "siteUnitNumber": 12587,
          "bathingSite": "SOUTHWICK",
          "eventStart": "2023-10-28T11:48:00",
          "eventStop": "2023-10-28T11:50:00",
          "duration": 2,
          "status": "Genuine",
          "associatedSiteId": 109929,
          "outfallName": "SHOREHAM NO1",
          "isImpacting": true,
          "overFlowSiteId": 115434
        },
        {
          "id": 344789310,
          "eventId": 883862,
          "siteUnitNumber": 12588,
          "bathingSite": "SHOREHAM BEACH",
          "eventStart": "2023-10-28T11:48:00",
          "eventStop": "2023-10-28T11:50:00",
          "duration": 2,
          "status": "Genuine",
          "associatedSiteId": 109929,
          "outfallName": "SHOREHAM NO1",
          "isImpacting": true,
          "overFlowSiteId": 115434,
          "historicSpillsList": []
        },
        {
          "id": 344789317,
          "eventId": 883862,
          "siteUnitNumber": 12586,
          "bathingSite": "HOVE",
          "eventStart": "2023-10-28T11:48:00",
          "eventStop": "2023-10-28T11:50:00",
          "duration": 2,
          "status": "Genuine",
          "associatedSiteId": 109929,
          "outfallName": "SHOREHAM NO1",
          "isImpacting": true,
          "overFlowSiteId": 115434,
          "historicSpillsList": []
        }
      ]
    },
    {
      "id": 344789314,
      "eventId": 883861,
      "siteUnitNumber": 12586,
      "bathingSite": "HOVE",
      "eventStart": "2023-10-28T11:44:00",
      "eventStop": "2023-10-28T11:46:00",
      "duration": 2,
      "status": "Genuine",
      "associatedSiteId": 109929,
      "outfallName": "SHOREHAM NO1",
      "isImpacting": true,
      "overFlowSiteId": 0,
      "historicSpillsList": [
        {
          "id": 344789314,
          "eventId": 883861,
          "siteUnitNumber": 12586,
          "bathingSite": "HOVE",
          "eventStart": "2023-10-28T11:44:00",
          "eventStop": "2023-10-28T11:46:00",
          "duration": 2,
          "status": "Genuine",
          "associatedSiteId": 109929,
          "outfallName": "SHOREHAM NO1",
          "isImpacting": true,
          "overFlowSiteId": 115434
        },
        {
          "id": 344789315,
          "eventId": 883861,
          "siteUnitNumber": 12587,
          "bathingSite": "SOUTHWICK",
          "eventStart": "2023-10-28T11:44:00",
          "eventStop": "2023-10-28T11:46:00",
          "duration": 2,
          "status": "Genuine",
          "associatedSiteId": 109929,
          "outfallName": "SHOREHAM NO1",
          "isImpacting": true,
          "overFlowSiteId": 115434,
          "historicSpillsList": []
        },
        {
          "id": 344789316,
          "eventId": 883861,
          "siteUnitNumber": 12588,
          "bathingSite": "SHOREHAM BEACH",
          "eventStart": "2023-10-28T11:44:00",
          "eventStop": "2023-10-28T11:46:00",
          "duration": 2,
          "status": "Genuine",
          "associatedSiteId": 109929,
          "outfallName": "SHOREHAM NO1",
          "isImpacting": true,
          "overFlowSiteId": 115434,
          "historicSpillsList": []
        }
      ]
    },
    {
      "id": 344790017,
      "eventId": 882905,
      "siteUnitNumber": 12581,
      "bathingSite": "BIRLING GAP",
      "eventStart": "2023-10-28T04:15:00",
      "eventStop": "2023-10-28T11:32:00",
      "duration": 437,
      "status": "Genuine",
      "associatedSiteId": 109936,
      "outfallName": "EAST DEAN",
      "isImpacting": true,
      "overFlowSiteId": 0,
      "historicSpillsList": [
        {
          "id": 344790017,
          "eventId": 882905,
          "siteUnitNumber": 12581,
          "bathingSite": "BIRLING GAP",
          "eventStart": "2023-10-28T04:15:00",
          "eventStop": "2023-10-28T11:32:00",
          "duration": 437,
          "status": "Genuine",
          "associatedSiteId": 109936,
          "outfallName": "EAST DEAN",
          "isImpacting": true,
          "overFlowSiteId": 115829
        }
      ]
    },
    {
      "id": 344786664,
      "eventId": 884045,
      "siteUnitNumber": 12575,
      "bathingSite": "HASTINGS PELHAM BEACH",
      "eventStart": "2023-10-28T07:31:00",
      "eventStop": "2023-10-28T11:29:00",
      "duration": 238,
      "status": "Genuine",
      "associatedSiteId": 109899,
      "outfallName": "SEASIDE ROAD HASTINGS",
      "isImpacting": true,
      "overFlowSiteId": 0,
      "historicSpillsList": [
        {
          "id": 344786664,
          "eventId": 884045,
          "siteUnitNumber": 12575,
          "bathingSite": "HASTINGS PELHAM BEACH",
          "eventStart": "2023-10-28T07:31:00",
          "eventStop": "2023-10-28T11:29:00",
          "duration": 238,
          "status": "Genuine",
          "associatedSiteId": 109899,
          "outfallName": "SEASIDE ROAD HASTINGS",
          "isImpacting": true,
          "overFlowSiteId": 107639
        },
        {
          "id": 344786665,
          "eventId": 884045,
          "siteUnitNumber": 12576,
          "bathingSite": "ST LEONARDS",
          "eventStart": "2023-10-28T07:31:00",
          "eventStop": "2023-10-28T11:29:00",
          "duration": 238,
          "status": "Genuine",
          "associatedSiteId": 109899,
          "outfallName": "SEASIDE ROAD HASTINGS",
          "isImpacting": true,
          "overFlowSiteId": 107639,
          "historicSpillsList": []
        }
      ]
    },
    {
      "id": 344784762,
      "eventId": 883608,
      "siteUnitNumber": 12568,
      "bathingSite": "SANDGATE",
      "eventStart": "2023-10-28T11:18:55",
      "eventStop": "2023-10-28T11:27:02",
      "duration": 8,
      "status": "Genuine",
      "associatedSiteId": 109896,
      "outfallName": "RANGE ROAD HYTHE K SHORT",
      "isImpacting": true,
      "overFlowSiteId": 0,
      "historicSpillsList": [
        {
          "id": 344784763,
          "eventId": 883608,
          "siteUnitNumber": 12569,
          "bathingSite": "HYTHE",
          "eventStart": "2023-10-28T11:18:55",
          "eventStop": "2023-10-28T11:27:02",
          "duration": 8,
          "status": "Genuine",
          "associatedSiteId": 109896,
          "outfallName": "RANGE ROAD HYTHE K SHORT",
          "isImpacting": true,
          "overFlowSiteId": 116112,
          "historicSpillsList": []
        }
      ]
    },
    {
      "id": 344791926,
      "eventId": 883484,
      "siteUnitNumber": 12594,
      "bathingSite": "BOGNOR REGIS EAST",
      "eventStart": "2023-10-28T00:17:00",
      "eventStop": "2023-10-28T11:18:00",
      "duration": 661,
      "status": "Genuine",
      "associatedSiteId": 109958,
      "outfallName": "CARLTON AVENUE BOGNOR",
      "isImpacting": true,
      "overFlowSiteId": 0,
      "historicSpillsList": [
        {
          "id": 344791926,
          "eventId": 883484,
          "siteUnitNumber": 12594,
          "bathingSite": "BOGNOR REGIS EAST",
          "eventStart": "2023-10-28T00:17:00",
          "eventStop": "2023-10-28T11:18:00",
          "duration": 661,
          "status": "Genuine",
          "associatedSiteId": 109958,
          "outfallName": "CARLTON AVENUE BOGNOR",
          "isImpacting": true,
          "overFlowSiteId": 102492
        },
        {
          "id": 344791921,
          "eventId": 883484,
          "siteUnitNumber": 12595,
          "bathingSite": "BOGNOR REGIS (ALDWICK)",
          "eventStart": "2023-10-28T00:17:00",
          "eventStop": "2023-10-28T11:18:00",
          "duration": 661,
          "status": "Genuine",
          "associatedSiteId": 109958,
          "outfallName": "CARLTON AVENUE BOGNOR",
          "isImpacting": true,
          "overFlowSiteId": 102492,
          "historicSpillsList": []
        },
        {
          "id": 344791922,
          "eventId": 883484,
          "siteUnitNumber": 12596,
          "bathingSite": "PAGHAM",
          "eventStart": "2023-10-28T00:17:00",
          "eventStop": "2023-10-28T11:18:00",
          "duration": 661,
          "status": "Genuine",
          "associatedSiteId": 109958,
          "outfallName": "CARLTON AVENUE BOGNOR",
          "isImpacting": true,
          "overFlowSiteId": 102492,
          "historicSpillsList": []
        }
      ]
    },
    {
      "id": 344784766,
      "eventId": 883590,
      "siteUnitNumber": 12568,
      "bathingSite": "SANDGATE",
      "eventStart": "2023-10-28T10:58:51",
      "eventStop": "2023-10-28T11:05:49",
      "duration": 6,
      "status": "Genuine",
      "associatedSiteId": 109896,
      "outfallName": "RANGE ROAD HYTHE K SHORT",
      "isImpacting": true,
      "overFlowSiteId": 0,
      "historicSpillsList": [
        {
          "id": 344784767,
          "eventId": 883590,
          "siteUnitNumber": 12569,
          "bathingSite": "HYTHE",
          "eventStart": "2023-10-28T10:58:51",
          "eventStop": "2023-10-28T11:05:49",
          "duration": 6,
          "status": "Genuine",
          "associatedSiteId": 109896,
          "outfallName": "RANGE ROAD HYTHE K SHORT",
          "isImpacting": true,
          "overFlowSiteId": 116112,
          "historicSpillsList": []
        }
      ]
    },
    {
      "id": 344783850,
      "eventId": 887945,
      "siteUnitNumber": 12579,
      "bathingSite": "PEVENSEY BAY",
      "eventStart": "2023-10-28T07:55:00",
      "eventStop": "2023-10-28T11:02:00",
      "duration": 187,
      "status": "Genuine",
      "associatedSiteId": 109889,
      "outfallName": "RATTLE ROAD WESTHAM",
      "isImpacting": true,
      "overFlowSiteId": 0,
      "historicSpillsList": [
        {
          "id": 344783850,
          "eventId": 887945,
          "siteUnitNumber": 12579,
          "bathingSite": "PEVENSEY BAY",
          "eventStart": "2023-10-28T07:55:00",
          "eventStop": "2023-10-28T11:02:00",
          "duration": 187,
          "status": "Genuine",
          "associatedSiteId": 109889,
          "outfallName": "RATTLE ROAD WESTHAM",
          "isImpacting": true,
          "overFlowSiteId": 108315
        }
      ]
    },
    {
      "id": 344779369,
      "eventId": 888125,
      "siteUnitNumber": 12618,
      "bathingSite": "RYDE",
      "eventStart": "2023-10-28T09:00:00",
      "eventStop": "2023-10-28T10:50:00",
      "duration": 110,
      "status": "Genuine",
      "associatedSiteId": 109780,
      "outfallName": "LADIES WALK BINSTEAD",
      "isImpacting": true,
      "overFlowSiteId": 0,
      "historicSpillsList": [
        {
          "id": 344779369,
          "eventId": 888125,
          "siteUnitNumber": 12618,
          "bathingSite": "RYDE",
          "eventStart": "2023-10-28T09:00:00",
          "eventStop": "2023-10-28T10:50:00",
          "duration": 110,
          "status": "Genuine",
          "associatedSiteId": 109780,
          "outfallName": "LADIES WALK BINSTEAD",
          "isImpacting": true,
          "overFlowSiteId": 107406
        }
      ]
    },
    {
      "id": 344779627,
      "eventId": 919048,
      "siteUnitNumber": 12618,
      "bathingSite": "RYDE",
      "eventStart": "2023-10-28T04:07:00",
      "eventStop": "2023-10-28T10:49:00",
      "duration": 402,
      "status": "Genuine",
      "associatedSiteId": 109787,
      "outfallName": "SALTERNS ROAD SEAVIEW",
      "isImpacting": true,
      "overFlowSiteId": 0,
      "historicSpillsList": [
        {
          "id": 344779627,
          "eventId": 919048,
          "siteUnitNumber": 12618,
          "bathingSite": "RYDE",
          "eventStart": "2023-10-28T04:07:00",
          "eventStop": "2023-10-28T10:49:00",
          "duration": 402,
          "status": "Genuine",
          "associatedSiteId": 109787,
          "outfallName": "SALTERNS ROAD SEAVIEW",
          "isImpacting": true,
          "overFlowSiteId": 107411
        },
        {
          "id": 344779628,
          "eventId": 919048,
          "siteUnitNumber": 12619,
          "bathingSite": "SEAGROVE",
          "eventStart": "2023-10-28T04:07:00",
          "eventStop": "2023-10-28T10:49:00",
          "duration": 402,
          "status": "Genuine",
          "associatedSiteId": 109787,
          "outfallName": "SALTERNS ROAD SEAVIEW",
          "isImpacting": true,
          "overFlowSiteId": 107411,
          "historicSpillsList": []
        },
        {
          "id": 344779629,
          "eventId": 919048,
          "siteUnitNumber": 12620,
          "bathingSite": "ST HELENS",
          "eventStart": "2023-10-28T04:07:00",
          "eventStop": "2023-10-28T10:49:00",
          "duration": 402,
          "status": "Genuine",
          "associatedSiteId": 109787,
          "outfallName": "SALTERNS ROAD SEAVIEW",
          "isImpacting": true,
          "overFlowSiteId": 107411,
          "historicSpillsList": []
        }
      ]
    },
    {
      "id": 344790833,
      "eventId": 883251,
      "siteUnitNumber": 12575,
      "bathingSite": "HASTINGS PELHAM BEACH",
      "eventStart": "2023-10-28T07:16:00",
      "eventStop": "2023-10-28T10:45:00",
      "duration": 209,
      "status": "Genuine",
      "associatedSiteId": 109950,
      "outfallName": "ST HELENS DOWN HASTINGS",
      "isImpacting": true,
      "overFlowSiteId": 0,
      "historicSpillsList": [
        {
          "id": 344790833,
          "eventId": 883251,
          "siteUnitNumber": 12575,
          "bathingSite": "HASTINGS PELHAM BEACH",
          "eventStart": "2023-10-28T07:16:00",
          "eventStop": "2023-10-28T10:45:00",
          "duration": 209,
          "status": "Genuine",
          "associatedSiteId": 109950,
          "outfallName": "ST HELENS DOWN HASTINGS",
          "isImpacting": true,
          "overFlowSiteId": 109050
        }
      ]
    },
    {
      "id": 344779636,
      "eventId": 882996,
      "siteUnitNumber": 12618,
      "bathingSite": "RYDE",
      "eventStart": "2023-10-28T04:23:00",
      "eventStop": "2023-10-28T10:45:00",
      "duration": 382,
      "status": "Genuine",
      "associatedSiteId": 109787,
      "outfallName": "SALTERNS ROAD SEAVIEW",
      "isImpacting": true,
      "overFlowSiteId": 0,
      "historicSpillsList": [
        {
          "id": 344779636,
          "eventId": 882996,
          "siteUnitNumber": 12618,
          "bathingSite": "RYDE",
          "eventStart": "2023-10-28T04:23:00",
          "eventStop": "2023-10-28T10:45:00",
          "duration": 382,
          "status": "Genuine",
          "associatedSiteId": 109787,
          "outfallName": "SALTERNS ROAD SEAVIEW",
          "isImpacting": true,
          "overFlowSiteId": 107411
        },
        {
          "id": 344779637,
          "eventId": 882996,
          "siteUnitNumber": 12619,
          "bathingSite": "SEAGROVE",
          "eventStart": "2023-10-28T04:23:00",
          "eventStop": "2023-10-28T10:45:00",
          "duration": 382,
          "status": "Genuine",
          "associatedSiteId": 109787,
          "outfallName": "SALTERNS ROAD SEAVIEW",
          "isImpacting": true,
          "overFlowSiteId": 107411,
          "historicSpillsList": []
        },
        {
          "id": 344779638,
          "eventId": 882996,
          "siteUnitNumber": 12620,
          "bathingSite": "ST HELENS",
          "eventStart": "2023-10-28T04:23:00",
          "eventStop": "2023-10-28T10:45:00",
          "duration": 382,
          "status": "Genuine",
          "associatedSiteId": 109787,
          "outfallName": "SALTERNS ROAD SEAVIEW",
          "isImpacting": true,
          "overFlowSiteId": 107411,
          "historicSpillsList": []
        }
      ]
    },
    {
      "id": 344790752,
      "eventId": 883531,
      "siteUnitNumber": 12619,
      "bathingSite": "SEAGROVE",
      "eventStart": "2023-10-28T09:55:00",
      "eventStop": "2023-10-28T10:42:00",
      "duration": 47,
      "status": "Genuine",
      "associatedSiteId": 109941,
      "outfallName": "LATIMER ROAD ST HELENS",
      "isImpacting": false,
      "overFlowSiteId": 0,
      "historicSpillsList": []
    },
    {
      "id": 344775583,
      "eventId": 883509,
      "siteUnitNumber": 12616,
      "bathingSite": "GURNARD",
      "eventStart": "2023-10-28T10:03:28",
      "eventStop": "2023-10-28T10:38:49",
      "duration": 35,
      "status": "Genuine",
      "associatedSiteId": 109706,
      "outfallName": "HIGH STREET COWES",
      "isImpacting": false,
      "overFlowSiteId": 0,
      "historicSpillsList": []
    },
    {
      "id": 344784764,
      "eventId": 883542,
      "siteUnitNumber": 12568,
      "bathingSite": "SANDGATE",
      "eventStart": "2023-10-28T10:29:53",
      "eventStop": "2023-10-28T10:37:56",
      "duration": 8,
      "status": "Genuine",
      "associatedSiteId": 109896,
      "outfallName": "RANGE ROAD HYTHE K SHORT",
      "isImpacting": true,
      "overFlowSiteId": 0,
      "historicSpillsList": [
        {
          "id": 344784765,
          "eventId": 883542,
          "siteUnitNumber": 12569,
          "bathingSite": "HYTHE",
          "eventStart": "2023-10-28T10:29:53",
          "eventStop": "2023-10-28T10:37:56",
          "duration": 8,
          "status": "Genuine",
          "associatedSiteId": 109896,
          "outfallName": "RANGE ROAD HYTHE K SHORT",
          "isImpacting": true,
          "overFlowSiteId": 116112,
          "historicSpillsList": []
        }
      ]
    },
    {
      "id": 344788807,
      "eventId": 886613,
      "siteUnitNumber": 12590,
      "bathingSite": "WORTHING",
      "eventStart": "2023-10-28T08:57:00",
      "eventStop": "2023-10-28T10:33:00",
      "duration": 96,
      "status": "Genuine",
      "associatedSiteId": 109912,
      "outfallName": "SEA LANE GORING",
      "isImpacting": false,
      "overFlowSiteId": 0,
      "historicSpillsList": []
    },
    {
      "id": 344780135,
      "eventId": 883392,
      "siteUnitNumber": 12567,
      "bathingSite": "FOLKESTONE",
      "eventStart": "2023-10-28T08:57:00",
      "eventStop": "2023-10-28T10:32:00",
      "duration": 95,
      "status": "Genuine",
      "associatedSiteId": 109794,
      "outfallName": "GRANVILLE PARADE SANDGATE",
      "isImpacting": false,
      "overFlowSiteId": 0,
      "historicSpillsList": []
    },
    {
      "id": 344784768,
      "eventId": 883512,
      "siteUnitNumber": 12568,
      "bathingSite": "SANDGATE",
      "eventStart": "2023-10-28T10:06:13",
      "eventStop": "2023-10-28T10:20:35",
      "duration": 14,
      "status": "Genuine",
      "associatedSiteId": 109896,
      "outfallName": "RANGE ROAD HYTHE K SHORT",
      "isImpacting": true,
      "overFlowSiteId": 0,
      "historicSpillsList": [
        {
          "id": 344784769,
          "eventId": 883512,
          "siteUnitNumber": 12569,
          "bathingSite": "HYTHE",
          "eventStart": "2023-10-28T10:06:13",
          "eventStop": "2023-10-28T10:20:35",
          "duration": 14,
          "status": "Genuine",
          "associatedSiteId": 109896,
          "outfallName": "RANGE ROAD HYTHE K SHORT",
          "isImpacting": true,
          "overFlowSiteId": 116112,
          "historicSpillsList": []
        }
      ]
    }
  ]
}