{
  "currentPage": 361,
  "totalItems": 21025,
  "totalPages": 841,
  "items": [
    {
      "id": 344788855,
      "eventId": 755840,
      "siteUnitNumber": 12590,
      "bathingSite": "WORTHING",
      "eventStart": "2023-01-16T12:47:06",
      "eventStop": "2023-01-16T14:34:00",
      "duration": 106,
      "status": "Genuine",
      "associatedSiteId": 109912,
      "outfallName": "SEA LANE GORING",
      "isImpacting": false,
      "overFlowSiteId": 0,
      "historicSpillsList": []
    },
    {
      "id": 344776225,
      "eventId": 733621,
      "siteUnitNumber": 12607,
      "bathingSite": "HILLHEAD",
      "eventStart": "2023-01-16T00:34:44",
      "eventStop": "2023-01-16T14:25:36",
      "duration": 830,
      "status": "Genuine",
      "associatedSiteId": 109715,
      "outfallName": "SALTERNS ROAD HILL HEAD",
      "isImpacting": true,
      "overFlowSiteId": 0,
      "historicSpillsList": [
        {
          "id": 344776225,
          "eventId": 733621,
          "siteUnitNumber": 12607,
          "bathingSite": "HILLHEAD",
          "eventStart": "2023-01-16T00:34:44",
          "eventStop": "2023-01-16T14:25:36",
          "duration": 830,
          "status": "Genuine",
          "associatedSiteId": 109715,
          "outfallName": "SALTERNS ROAD HILL HEAD",
          "isImpacting": true,
          "overFlowSiteId": 108441
        }
      ]
    },
    {
      "id": 344795918,
      "eventId": 734338,
      "siteUnitNumber": 12575,
      "bathingSite": "HASTINGS PELHAM BEACH",
      "eventStart": "2023-01-16T04:36:39",
      "eventStop": "2023-01-16T14:25:00",
      "duration": 588,
      "status": "Genuine",
      "associatedSiteId": 109981,
      "outfallName": "ROCK A NORE HASTINGS",
      "isImpacting": false,
      "overFlowSiteId": 0,
      "historicSpillsList": []
    },
    {
      "id": 344773349,
      "eventId": 732373,
      "siteUnitNumber": 12551,
      "bathingSite": "HERNE BAY",
      "eventStart": "2023-01-16T07:06:00",
      "eventStop": "2023-01-16T14:20:00",
      "duration": 434,
      "status": "Genuine",
      "associatedSiteId": 109682,
      "outfallName": "MAY STREET HERNE BAY NO3",
      "isImpacting": false,
      "overFlowSiteId": 0,
      "historicSpillsList": []
    },
    {
      "id": 344772221,
      "eventId": 734524,
      "siteUnitNumber": 12614,
      "bathingSite": "TOTLAND BAY",
      "eventStart": "2023-01-16T00:31:00",
      "eventStop": "2023-01-16T14:18:00",
      "duration": 827,
      "status": "Genuine",
      "associatedSiteId": 109657,
      "outfallName": "THE PROMENADE TOTLAND PIER NO2",
      "isImpacting": false,
      "overFlowSiteId": 0,
      "historicSpillsList": []
    },
    {
      "id": 344783642,
      "eventId": 733368,
      "siteUnitNumber": 12662,
      "bathingSite": "CHICHESTER HARBOUR",
      "eventStart": "2023-01-16T01:03:00",
      "eventStop": "2023-01-16T14:09:00",
      "duration": 786,
      "status": "Genuine",
      "associatedSiteId": 109854,
      "outfallName": "KINGS ROAD EMSWORTH",
      "isImpacting": true,
      "overFlowSiteId": 0,
      "historicSpillsList": [
        {
          "id": 344783642,
          "eventId": 733368,
          "siteUnitNumber": 12662,
          "bathingSite": "CHICHESTER HARBOUR",
          "eventStart": "2023-01-16T01:03:00",
          "eventStop": "2023-01-16T14:09:00",
          "duration": 786,
          "status": "Genuine",
          "associatedSiteId": 109854,
          "outfallName": "KINGS ROAD EMSWORTH",
          "isImpacting": true,
          "overFlowSiteId": 109298
        }
      ]
    },
    {
      "id": 344795469,
      "eventId": 758442,
      "siteUnitNumber": 12591,
      "bathingSite": "LITTLEHAMPTON",
      "eventStart": "2023-01-16T13:54:00",
      "eventStop": "2023-01-16T13:54:00",
      "duration": 0,
      "status": "Not Genuine",
      "associatedSiteId": 109971,
      "outfallName": "BROADMARK LANE RUSTINGTON",
      "isImpacting": true,
      "overFlowSiteId": 0,
      "historicSpillsList": []
    },
    {
      "id": 344769951,
      "eventId": 734246,
      "siteUnitNumber": 12546,
      "bathingSite": "LEYSDOWN",
      "eventStart": "2023-01-16T03:42:45",
      "eventStop": "2023-01-16T13:35:00",
      "duration": 592,
      "status": "Genuine",
      "associatedSiteId": 109613,
      "outfallName": "BARROWS BROOK EASTCHURCH",
      "isImpacting": true,
      "overFlowSiteId": 0,
      "historicSpillsList": [
        {
          "id": 344769951,
          "eventId": 734246,
          "siteUnitNumber": 12546,
          "bathingSite": "LEYSDOWN",
          "eventStart": "2023-01-16T03:42:45",
          "eventStop": "2023-01-16T13:35:00",
          "duration": 592,
          "status": "Genuine",
          "associatedSiteId": 109613,
          "outfallName": "BARROWS BROOK EASTCHURCH",
          "isImpacting": true,
          "overFlowSiteId": 108109
        }
      ]
    },
    {
      "id": 344779563,
      "eventId": 733485,
      "siteUnitNumber": 12618,
      "bathingSite": "RYDE",
      "eventStart": "2023-01-16T01:59:00",
      "eventStop": "2023-01-16T13:35:00",
      "duration": 696,
      "status": "Genuine",
      "associatedSiteId": 109785,
      "outfallName": "SIMEON STREET RYDE",
      "isImpacting": true,
      "overFlowSiteId": 0,
      "historicSpillsList": [
        {
          "id": 344779563,
          "eventId": 733485,
          "siteUnitNumber": 12618,
          "bathingSite": "RYDE",
          "eventStart": "2023-01-16T01:59:00",
          "eventStop": "2023-01-16T13:35:00",
          "duration": 696,
          "status": "Genuine",
          "associatedSiteId": 109785,
          "outfallName": "SIMEON STREET RYDE",
          "isImpacting": true,
          "overFlowSiteId": 100129
        }
      ]
    },
    {
      "id": 344806922,
      "eventId": 733896,
      "siteUnitNumber": 12576,
      "bathingSite": "ST LEONARDS",
      "eventStart": "2023-01-16T02:45:00",
      "eventStop": "2023-01-16T13:26:00",
      "duration": 641,
      "status": "Genuine",
      "associatedSiteId": 111370,
      "outfallName": "YORK ROAD BEXHILL",
      "isImpacting": false,
      "overFlowSiteId": 0,
      "historicSpillsList": []
    },
    {
      "id": 344811841,
      "eventId": 733761,
      "siteUnitNumber": 12577,
      "bathingSite": "BEXHILL",
      "eventStart": "2023-01-16T03:02:48",
      "eventStop": "2023-01-16T12:59:08",
      "duration": 596,
      "status": "Genuine",
      "associatedSiteId": 115503,
      "outfallName": "COODEN BEACH BEXHILL",
      "isImpacting": true,
      "overFlowSiteId": 0,
      "historicSpillsList": [
        {
          "id": 344811841,
          "eventId": 733761,
          "siteUnitNumber": 12577,
          "bathingSite": "BEXHILL",
          "eventStart": "2023-01-16T03:02:48",
          "eventStop": "2023-01-16T12:59:08",
          "duration": 596,
          "status": "Genuine",
          "associatedSiteId": 115503,
          "outfallName": "COODEN BEACH BEXHILL",
          "isImpacting": true,
          "overFlowSiteId": 108029
        },
        {
          "id": 344811842,
          "eventId": 733761,
          "siteUnitNumber": 12578,
          "bathingSite": "NORMANS BAY",
          "eventStart": "2023-01-16T03:02:48",
          "eventStop": "2023-01-16T12:59:08",
          "duration": 596,
          "status": "Genuine",
          "associatedSiteId": 115503,
          "outfallName": "COODEN BEACH BEXHILL",
          "isImpacting": true,
          "overFlowSiteId": 108029,
          "historicSpillsList": []
        }
      ]
    },
    {
      "id": 344783861,
      "eventId": 733764,
      "siteUnitNumber": 12579,
      "bathingSite": "PEVENSEY BAY",
      "eventStart": "2023-01-16T03:10:52",
      "eventStop": "2023-01-16T12:54:00",
      "duration": 583,
      "status": "Genuine",
      "associatedSiteId": 109889,
      "outfallName": "RATTLE ROAD WESTHAM",
      "isImpacting": false,
      "overFlowSiteId": 0,
      "historicSpillsList": []
    },
    {
      "id": 344788854,
      "eventId": 755839,
      "siteUnitNumber": 12590,
      "bathingSite": "WORTHING",
      "eventStart": "2023-01-16T11:48:00",
      "eventStop": "2023-01-16T12:45:00",
      "duration": 57,
      "status": "Genuine",
      "associatedSiteId": 109912,
      "outfallName": "SEA LANE GORING",
      "isImpacting": false,
      "overFlowSiteId": 0,
      "historicSpillsList": []
    },
    {
      "id": 344805067,
      "eventId": 733262,
      "siteUnitNumber": 12616,
      "bathingSite": "GURNARD",
      "eventStart": "2023-01-15T23:18:00",
      "eventStop": "2023-01-16T12:32:00",
      "duration": 794,
      "status": "Genuine",
      "associatedSiteId": 110701,
      "outfallName": "TERMINUS ROAD COWES 2",
      "isImpacting": true,
      "overFlowSiteId": 0,
      "historicSpillsList": [
        {
          "id": 344805067,
          "eventId": 733262,
          "siteUnitNumber": 12616,
          "bathingSite": "GURNARD",
          "eventStart": "2023-01-15T23:18:00",
          "eventStop": "2023-01-16T12:32:00",
          "duration": 794,
          "status": "Genuine",
          "associatedSiteId": 110701,
          "outfallName": "TERMINUS ROAD COWES 2",
          "isImpacting": true,
          "overFlowSiteId": 108562
        },
        {
          "id": 344805068,
          "eventId": 733262,
          "siteUnitNumber": 12617,
          "bathingSite": "COWES",
          "eventStart": "2023-01-15T23:18:00",
          "eventStop": "2023-01-16T12:32:00",
          "duration": 794,
          "status": "Genuine",
          "associatedSiteId": 110701,
          "outfallName": "TERMINUS ROAD COWES 2",
          "isImpacting": true,
          "overFlowSiteId": 108562,
          "historicSpillsList": []
        }
      ]
    },
    {
      "id": 344780207,
      "eventId": 733327,
      "siteUnitNumber": 12610,
      "bathingSite": "MILFORD-ON-SEA",
      "eventStart": "2023-01-16T01:27:00",
      "eventStop": "2023-01-16T12:17:00",
      "duration": 650,
      "status": "Genuine",
      "associatedSiteId": 109801,
      "outfallName": "BECTON LANE BARTON ON SEA",
      "isImpacting": false,
      "overFlowSiteId": 0,
      "historicSpillsList": []
    },
    {
      "id": 344795468,
      "eventId": 758441,
      "siteUnitNumber": 12591,
      "bathingSite": "LITTLEHAMPTON",
      "eventStart": "2023-01-16T12:15:00",
      "eventStop": "2023-01-16T12:15:00",
      "duration": 0,
      "status": "Not Genuine",
      "associatedSiteId": 109971,
      "outfallName": "BROADMARK LANE RUSTINGTON",
      "isImpacting": true,
      "overFlowSiteId": 0,
      "historicSpillsList": []
    },
    {
      "id": 344779391,
      "eventId": 733292,
      "siteUnitNumber": 12618,
      "bathingSite": "RYDE",
      "eventStart": "2023-01-16T00:13:00",
      "eventStop": "2023-01-16T12:09:00",
      "duration": 716,
      "status": "Genuine",
      "associatedSiteId": 109780,
      "outfallName": "LADIES WALK BINSTEAD",
      "isImpacting": true,
      "overFlowSiteId": 0,
      "historicSpillsList": [
        {
          "id": 344779391,
          "eventId": 733292,
          "siteUnitNumber": 12618,
          "bathingSite": "RYDE",
          "eventStart": "2023-01-16T00:13:00",
          "eventStop": "2023-01-16T12:09:00",
          "duration": 716,
          "status": "Genuine",
          "associatedSiteId": 109780,
          "outfallName": "LADIES WALK BINSTEAD",
          "isImpacting": true,
          "overFlowSiteId": 107406
        }
      ]
    },
    {
      "id": 344776305,
      "eventId": 739370,
      "siteUnitNumber": 12606,
      "bathingSite": "LEE-ON-SOLENT",
      "eventStart": "2023-01-16T09:14:00",
      "eventStop": "2023-01-16T12:02:00",
      "duration": 168,
      "status": "Genuine",
      "associatedSiteId": 109717,
      "outfallName": "NEWGATE LANE PEEL COMMON",
      "isImpacting": false,
      "overFlowSiteId": 0,
      "historicSpillsList": []
    },
    {
      "id": 344788858,
      "eventId": 755838,
      "siteUnitNumber": 12590,
      "bathingSite": "WORTHING",
      "eventStart": "2023-01-16T03:02:34",
      "eventStop": "2023-01-16T11:45:00",
      "duration": 522,
      "status": "Genuine",
      "associatedSiteId": 109912,
      "outfallName": "SEA LANE GORING",
      "isImpacting": false,
      "overFlowSiteId": 0,
      "historicSpillsList": []
    },
    {
      "id": 344795575,
      "eventId": 739358,
      "siteUnitNumber": 12594,
      "bathingSite": "BOGNOR REGIS EAST",
      "eventStart": "2023-01-16T07:46:00",
      "eventStop": "2023-01-16T11:42:00",
      "duration": 236,
      "status": "Genuine",
      "associatedSiteId": 109972,
      "outfallName": "BOGNOR MAIN",
      "isImpacting": true,
      "overFlowSiteId": 0,
      "historicSpillsList": [
        {
          "id": 344795581,
          "eventId": 739358,
          "siteUnitNumber": 12593,
          "bathingSite": "FELPHAM",
          "eventStart": "2023-01-16T07:46:00",
          "eventStop": "2023-01-16T11:42:00",
          "duration": 236,
          "status": "Genuine",
          "associatedSiteId": 109972,
          "outfallName": "BOGNOR MAIN",
          "isImpacting": true,
          "overFlowSiteId": 107412,
          "historicSpillsList": []
        }
      ]
    },
    {
      "id": 344811818,
      "eventId": 733482,
      "siteUnitNumber": 12577,
      "bathingSite": "BEXHILL",
      "eventStart": "2023-01-16T01:50:21",
      "eventStop": "2023-01-16T11:41:00",
      "duration": 590,
      "status": "Genuine",
      "associatedSiteId": 115501,
      "outfallName": "LONDON ROAD BEXHILL",
      "isImpacting": true,
      "overFlowSiteId": 0,
      "historicSpillsList": [
        {
          "id": 344811818,
          "eventId": 733482,
          "siteUnitNumber": 12577,
          "bathingSite": "BEXHILL",
          "eventStart": "2023-01-16T01:50:21",
          "eventStop": "2023-01-16T11:41:00",
          "duration": 590,
          "status": "Genuine",
          "associatedSiteId": 115501,
          "outfallName": "LONDON ROAD BEXHILL",
          "isImpacting": true,
          "overFlowSiteId": 108171
        }
      ]
    },
    {
      "id": 344779507,
      "eventId": 733496,
      "siteUnitNumber": 12618,
      "bathingSite": "RYDE",
      "eventStart": "2023-01-16T02:02:43",
      "eventStop": "2023-01-16T11:40:40",
      "duration": 577,
      "status": "Genuine",
      "associatedSiteId": 109784,
      "outfallName": "PARK ROAD RYDE",
      "isImpacting": true,
      "overFlowSiteId": 0,
      "historicSpillsList": [
        {
          "id": 344779507,
          "eventId": 733496,
          "siteUnitNumber": 12618,
          "bathingSite": "RYDE",
          "eventStart": "2023-01-16T02:02:43",
          "eventStop": "2023-01-16T11:40:40",
          "duration": 577,
          "status": "Genuine",
          "associatedSiteId": 109784,
          "outfallName": "PARK ROAD RYDE",
          "isImpacting": true,
          "overFlowSiteId": 107331
        }
      ]
    },
    {
      "id": 344809690,
      "eventId": 741052,
      "siteUnitNumber": 12615,
      "bathingSite": "COLWELL BAY",
      "eventStart": "2023-01-16T00:33:00",
      "eventStop": "2023-01-16T11:15:00",
      "duration": 642,
      "status": "Genuine",
      "associatedSiteId": 115498,
      "outfallName": "NORTON TRANSFER IOW",
      "isImpacting": true,
      "overFlowSiteId": 0,
      "historicSpillsList": [
        {
          "id": 344809690,
          "eventId": 741052,
          "siteUnitNumber": 12615,
          "bathingSite": "COLWELL BAY",
          "eventStart": "2023-01-16T00:33:00",
          "eventStop": "2023-01-16T11:15:00",
          "duration": 642,
          "status": "Genuine",
          "associatedSiteId": 115498,
          "outfallName": "NORTON TRANSFER IOW",
          "isImpacting": true,
          "overFlowSiteId": 108544
        },
        {
          "id": 344809691,
          "eventId": 741052,
          "siteUnitNumber": 12614,
          "bathingSite": "TOTLAND BAY",
          "eventStart": "2023-01-16T00:33:00",
          "eventStop": "2023-01-16T11:15:00",
          "duration": 642,
          "status": "Genuine",
          "associatedSiteId": 115498,
          "outfallName": "NORTON TRANSFER IOW",
          "isImpacting": true,
          "overFlowSiteId": 108544,
          "historicSpillsList": []
        }
      ]
    },
    {
      "id": 344795825,
      "eventId": 719144,
      "siteUnitNumber": 12591,
      "bathingSite": "LITTLEHAMPTON",
      "eventStart": "2023-01-16T10:29:00",
      "eventStop": "2023-01-16T11:04:00",
      "duration": 35,
      "status": "Genuine",
      "associatedSiteId": 109977,
      "outfallName": "FORESHORE TANK LITTLEHAMPTON",
      "isImpacting": true,
      "overFlowSiteId": 0,
      "historicSpillsList": [
        {
          "id": 344795825,
          "eventId": 719144,
          "siteUnitNumber": 12591,
          "bathingSite": "LITTLEHAMPTON",
          "eventStart": "2023-01-16T10:29:00",
          "eventStop": "2023-01-16T11:04:00",
          "duration": 35,
          "status": "Genuine",
          "associatedSiteId": 109977,
          "outfallName": "FORESHORE TANK LITTLEHAMPTON",
          "isImpacting": true,
          "overFlowSiteId": 109390
        }
      ]
    },
    {
      "id": 344790337,
      "eventId": 733440,
      "siteUnitNumber": 12619,
      "bathingSite": "SEAGROVE",
      "eventStart": "2023-01-16T02:03:00",
      "eventStop": "2023-01-16T10:54:00",
      "duration": 531,
      "status": "Genuine",
      "associatedSiteId": 109938,
      "outfallName": "THE POINT BEMBRIDGE",
      "isImpacting": true,
      "overFlowSiteId": 0,
      "historicSpillsList": [
        {
          "id": 344790338,
          "eventId": 733440,
          "siteUnitNumber": 12620,
          "bathingSite": "ST HELENS",
          "eventStart": "2023-01-16T02:03:00",
          "eventStop": "2023-01-16T10:54:00",
          "duration": 531,
          "status": "Genuine",
          "associatedSiteId": 109938,
          "outfallName": "THE POINT BEMBRIDGE",
          "isImpacting": true,
          "overFlowSiteId": 110194,
          "historicSpillsList": []
        }
      ]
    }
  ]
}