{
  "currentPage": 96,
  "totalItems": 21025,
  "totalPages": 841,
  "items": [
    {
      "id": 344741758,
      "eventId": 897369,
      "siteUnitNumber": 12568,
      "bathingSite": "SANDGATE",
      "eventStart": "2023-11-06T01:09:49",
      "eventStop": "2023-11-06T01:11:55",
      "duration": 2,
      "status": "Genuine",
      "associatedSiteId": 109896,
      "outfallName": "RANGE ROAD HYTHE K SHORT",
      "isImpacting": false,
      "overFlowSiteId": 0,
      "historicSpillsList": []
    },
    {
      "id": 344766446,
      "eventId": 897258,
      "siteUnitNumber": 12614,
      "bathingSite": "TOTLAND BAY",
      "eventStart": "2023-11-05T23:46:51",
      "eventStop": "2023-11-06T00:56:16",
      "duration": 69,
      "status": "Genuine",
      "associatedSiteId": 115498,
      "outfallName": "NORTON TRANSFER IOW",
      "isImpacting": true,
      "overFlowSiteId": 0,
      "historicSpillsList": [
        {
          "id": 344766446,
          "eventId": 897258,
          "siteUnitNumber": 12614,
          "bathingSite": "TOTLAND BAY",
          "eventStart": "2023-11-05T23:46:51",
          "eventStop": "2023-11-06T00:56:16",
          "duration": 69,
          "status": "Genuine",
          "associatedSiteId": 115498,
          "outfallName": "NORTON TRANSFER IOW",
          "isImpacting": true,
          "overFlowSiteId": 109524
        },
        {
          "id": 344766447,
          "eventId": 897258,
          "siteUnitNumber": 12615,
          "bathingSite": "COLWELL BAY",
          "eventStart": "2023-11-05T23:46:51",
          "eventStop": "2023-11-06T00:56:16",
          "duration": 69,
          "status": "Genuine",
          "associatedSiteId": 115498,
          "outfallName": "NORTON TRANSFER IOW",
          "isImpacting": true,
          "overFlowSiteId": 109524,
          "historicSpillsList": []
        }
      ]
    },
    {
      "id": 344741756,
      "eventId": 897364,
      "siteUnitNumber": 12568,
      "bathingSite": "SANDGATE",
      "eventStart": "2023-11-06T00:49:24",
      "eventStop": "2023-11-06T00:51:29",
      "duration": 2,
      "status": "Genuine",
      "associatedSiteId": 109896,
      "outfallName": "RANGE ROAD HYTHE K SHORT",
      "isImpacting": false,
      "overFlowSiteId": 0,
      "historicSpillsList": []
    },
    {
      "id": 344741760,
      "eventId": 897362,
      "siteUnitNumber": 12568,
      "bathingSite": "SANDGATE",
      "eventStart": "2023-11-06T00:42:27",
      "eventStop": "2023-11-06T00:44:32",
      "duration": 2,
      "status": "Genuine",
      "associatedSiteId": 109896,
      "outfallName": "RANGE ROAD HYTHE K SHORT",
      "isImpacting": false,
      "overFlowSiteId": 0,
      "historicSpillsList": []
    },
    {
      "id": 344741764,
      "eventId": 897287,
      "siteUnitNumber": 12568,
      "bathingSite": "SANDGATE",
      "eventStart": "2023-11-06T00:35:27",
      "eventStop": "2023-11-06T00:37:31",
      "duration": 2,
      "status": "Genuine",
      "associatedSiteId": 109896,
      "outfallName": "RANGE ROAD HYTHE K SHORT",
      "isImpacting": false,
      "overFlowSiteId": 0,
      "historicSpillsList": []
    },
    {
      "id": 344741762,
      "eventId": 897284,
      "siteUnitNumber": 12568,
      "bathingSite": "SANDGATE",
      "eventStart": "2023-11-06T00:28:21",
      "eventStop": "2023-11-06T00:30:25",
      "duration": 2,
      "status": "Genuine",
      "associatedSiteId": 109896,
      "outfallName": "RANGE ROAD HYTHE K SHORT",
      "isImpacting": false,
      "overFlowSiteId": 0,
      "historicSpillsList": []
    },
    {
      "id": 344751694,
      "eventId": 897837,
      "siteUnitNumber": 12593,
      "bathingSite": "FELPHAM",
      "eventStart": "2023-11-05T22:30:00",
      "eventStop": "2023-11-06T00:30:00",
      "duration": 120,
      "status": "Genuine",
      "associatedSiteId": 109964,
      "outfallName": "SHRIPNEY ROAD SOUTH BERSTED",
      "isImpacting": true,
      "overFlowSiteId": 0,
      "historicSpillsList": [
        {
          "id": 344751694,
          "eventId": 897837,
          "siteUnitNumber": 12593,
          "bathingSite": "FELPHAM",
          "eventStart": "2023-11-05T22:30:00",
          "eventStop": "2023-11-06T00:30:00",
          "duration": 120,
          "status": "Genuine",
          "associatedSiteId": 109964,
          "outfallName": "SHRIPNEY ROAD SOUTH BERSTED",
          "isImpacting": true,
          "overFlowSiteId": 107408
        }
      ]
    },
    {
      "id": 344741766,
      "eventId": 897283,
      "siteUnitNumber": 12568,
      "bathingSite": "SANDGATE",
      "eventStart": "2023-11-06T00:20:45",
      "eventStop": "2023-11-06T00:22:52",
      "duration": 2,
      "status": "Genuine",
      "associatedSiteId": 109896,
      "outfallName": "RANGE ROAD HYTHE K SHORT",
      "isImpacting": false,
      "overFlowSiteId": 0,
      "historicSpillsList": []
    },
    {
      "id": 344741770,
      "eventId": 897281,
      "siteUnitNumber": 12568,
      "bathingSite": "SANDGATE",
      "eventStart": "2023-11-06T00:14:05",
      "eventStop": "2023-11-06T00:16:09",
      "duration": 2,
      "status": "Genuine",
      "associatedSiteId": 109896,
      "outfallName": "RANGE ROAD HYTHE K SHORT",
      "isImpacting": false,
      "overFlowSiteId": 0,
      "historicSpillsList": []
    },
    {
      "id": 344749776,
      "eventId": 896957,
      "siteUnitNumber": 12594,
      "bathingSite": "BOGNOR REGIS EAST",
      "eventStart": "2023-11-05T18:15:00",
      "eventStop": "2023-11-06T00:13:00",
      "duration": 358,
      "status": "Genuine",
      "associatedSiteId": 109959,
      "outfallName": "WEST PARK BOGNOR REGIS",
      "isImpacting": true,
      "overFlowSiteId": 0,
      "historicSpillsList": [
        {
          "id": 344749776,
          "eventId": 896957,
          "siteUnitNumber": 12594,
          "bathingSite": "BOGNOR REGIS EAST",
          "eventStart": "2023-11-05T18:15:00",
          "eventStop": "2023-11-06T00:13:00",
          "duration": 358,
          "status": "Genuine",
          "associatedSiteId": 109959,
          "outfallName": "WEST PARK BOGNOR REGIS",
          "isImpacting": true,
          "overFlowSiteId": 108160
        }
      ]
    },
    {
      "id": 344764039,
      "eventId": 886529,
      "siteUnitNumber": 12573,
      "bathingSite": "CAMBER",
      "eventStart": "2023-10-30T08:27:00",
      "eventStop": "2023-11-06T00:13:00",
      "duration": 9586,
      "status": "Genuine",
      "associatedSiteId": 110958,
      "outfallName": "RYE",
      "isImpacting": false,
      "overFlowSiteId": 0,
      "historicSpillsList": []
    },
    {
      "id": 344741768,
      "eventId": 897269,
      "siteUnitNumber": 12568,
      "bathingSite": "SANDGATE",
      "eventStart": "2023-11-06T00:00:41",
      "eventStop": "2023-11-06T00:02:46",
      "duration": 2,
      "status": "Genuine",
      "associatedSiteId": 109896,
      "outfallName": "RANGE ROAD HYTHE K SHORT",
      "isImpacting": false,
      "overFlowSiteId": 0,
      "historicSpillsList": []
    },
    {
      "id": 344738977,
      "eventId": 893980,
      "siteUnitNumber": 12548,
      "bathingSite": "TANKERTON",
      "eventStart": "2023-11-04T08:04:15",
      "eventStop": "2023-11-05T23:46:37",
      "duration": 2382,
      "status": "Genuine",
      "associatedSiteId": 109830,
      "outfallName": "SWALECLIFFE NO1",
      "isImpacting": true,
      "overFlowSiteId": 0,
      "historicSpillsList": [
        {
          "id": 344738977,
          "eventId": 893980,
          "siteUnitNumber": 12548,
          "bathingSite": "TANKERTON",
          "eventStart": "2023-11-04T08:04:15",
          "eventStop": "2023-11-05T23:46:37",
          "duration": 2382,
          "status": "Genuine",
          "associatedSiteId": 109830,
          "outfallName": "SWALECLIFFE NO1",
          "isImpacting": true,
          "overFlowSiteId": 115444
        },
        {
          "id": 344738972,
          "eventId": 893980,
          "siteUnitNumber": 12549,
          "bathingSite": "HERNE BAY CENTRAL",
          "eventStart": "2023-11-04T08:04:15",
          "eventStop": "2023-11-05T23:46:37",
          "duration": 2382,
          "status": "Genuine",
          "associatedSiteId": 109830,
          "outfallName": "SWALECLIFFE NO1",
          "isImpacting": true,
          "overFlowSiteId": 115444,
          "historicSpillsList": []
        }
      ]
    },
    {
      "id": 344766448,
      "eventId": 897237,
      "siteUnitNumber": 12615,
      "bathingSite": "COLWELL BAY",
      "eventStart": "2023-11-05T23:17:58",
      "eventStop": "2023-11-05T23:42:49",
      "duration": 24,
      "status": "Genuine",
      "associatedSiteId": 115498,
      "outfallName": "NORTON TRANSFER IOW",
      "isImpacting": true,
      "overFlowSiteId": 0,
      "historicSpillsList": [
        {
          "id": 344766448,
          "eventId": 897237,
          "siteUnitNumber": 12615,
          "bathingSite": "COLWELL BAY",
          "eventStart": "2023-11-05T23:17:58",
          "eventStop": "2023-11-05T23:42:49",
          "duration": 24,
          "status": "Genuine",
          "associatedSiteId": 115498,
          "outfallName": "NORTON TRANSFER IOW",
          "isImpacting": true,
          "overFlowSiteId": 109524
        },
        {
          "id": 344766449,
          "eventId": 897237,
          "siteUnitNumber": 12614,
          "bathingSite": "TOTLAND BAY",
          "eventStart": "2023-11-05T23:17:58",
          "eventStop": "2023-11-05T23:42:49",
          "duration": 24,
          "status": "Genuine",
          "associatedSiteId": 115498,
          "outfallName": "NORTON TRANSFER IOW",
          "isImpacting": true,
          "overFlowSiteId": 109524,
          "historicSpillsList": []
        }
      ]
    },
    {
      "id": 344764253,
      "eventId": 893971,
      "siteUnitNumber": 12577,
      "bathingSite": "BEXHILL",
      "eventStart": "2023-11-04T07:59:58",
      "eventStop": "2023-11-05T23:15:00",
      "duration": 2355,
      "status": "Genuine",
      "associatedSiteId": 111338,
      "outfallName": "GALLEY HILL BEXHILL",
      "isImpacting": true,
      "overFlowSiteId": 0,
      "historicSpillsList": [
        {
          "id": 344764253,
          "eventId": 893971,
          "siteUnitNumber": 12577,
          "bathingSite": "BEXHILL",
          "eventStart": "2023-11-04T07:59:58",
          "eventStop": "2023-11-05T23:15:00",
          "duration": 2355,
          "status": "Genuine",
          "associatedSiteId": 111338,
          "outfallName": "GALLEY HILL BEXHILL",
          "isImpacting": true,
          "overFlowSiteId": 116162
        }
      ]
    },
    {
      "id": 344766450,
      "eventId": 897230,
      "siteUnitNumber": 12614,
      "bathingSite": "TOTLAND BAY",
      "eventStart": "2023-11-05T23:00:18",
      "eventStop": "2023-11-05T23:06:39",
      "duration": 6,
      "status": "Genuine",
      "associatedSiteId": 115498,
      "outfallName": "NORTON TRANSFER IOW",
      "isImpacting": true,
      "overFlowSiteId": 0,
      "historicSpillsList": [
        {
          "id": 344766450,
          "eventId": 897230,
          "siteUnitNumber": 12614,
          "bathingSite": "TOTLAND BAY",
          "eventStart": "2023-11-05T23:00:18",
          "eventStop": "2023-11-05T23:06:39",
          "duration": 6,
          "status": "Genuine",
          "associatedSiteId": 115498,
          "outfallName": "NORTON TRANSFER IOW",
          "isImpacting": true,
          "overFlowSiteId": 109524
        },
        {
          "id": 344766451,
          "eventId": 897230,
          "siteUnitNumber": 12615,
          "bathingSite": "COLWELL BAY",
          "eventStart": "2023-11-05T23:00:18",
          "eventStop": "2023-11-05T23:06:39",
          "duration": 6,
          "status": "Genuine",
          "associatedSiteId": 115498,
          "outfallName": "NORTON TRANSFER IOW",
          "isImpacting": true,
          "overFlowSiteId": 109524,
          "historicSpillsList": []
        }
      ]
    },
    {
      "id": 344741772,
      "eventId": 897244,
      "siteUnitNumber": 12568,
      "bathingSite": "SANDGATE",
      "eventStart": "2023-11-05T23:04:22",
      "eventStop": "2023-11-05T23:06:27",
      "duration": 2,
      "status": "Genuine",
      "associatedSiteId": 109896,
      "outfallName": "RANGE ROAD HYTHE K SHORT",
      "isImpacting": false,
      "overFlowSiteId": 0,
      "historicSpillsList": []
    },
    {
      "id": 344741776,
      "eventId": 897243,
      "siteUnitNumber": 12568,
      "bathingSite": "SANDGATE",
      "eventStart": "2023-11-05T22:58:17",
      "eventStop": "2023-11-05T23:00:22",
      "duration": 2,
      "status": "Genuine",
      "associatedSiteId": 109896,
      "outfallName": "RANGE ROAD HYTHE K SHORT",
      "isImpacting": false,
      "overFlowSiteId": 0,
      "historicSpillsList": []
    },
    {
      "id": 344763602,
      "eventId": 897221,
      "siteUnitNumber": 12582,
      "bathingSite": "SEAFORD",
      "eventStart": "2023-11-05T22:41:58",
      "eventStop": "2023-11-05T22:58:52",
      "duration": 16,
      "status": "Genuine",
      "associatedSiteId": 110920,
      "outfallName": "NEWHAVEN",
      "isImpacting": false,
      "overFlowSiteId": 0,
      "historicSpillsList": []
    },
    {
      "id": 344754395,
      "eventId": 894039,
      "siteUnitNumber": 12567,
      "bathingSite": "FOLKESTONE",
      "eventStart": "2023-11-04T08:25:17",
      "eventStop": "2023-11-05T22:58:00",
      "duration": 2312,
      "status": "Genuine",
      "associatedSiteId": 110010,
      "outfallName": "THE STADE FOLKESTONE",
      "isImpacting": true,
      "overFlowSiteId": 0,
      "historicSpillsList": [
        {
          "id": 344754395,
          "eventId": 894039,
          "siteUnitNumber": 12567,
          "bathingSite": "FOLKESTONE",
          "eventStart": "2023-11-04T08:25:17",
          "eventStop": "2023-11-05T22:58:00",
          "duration": 2312,
          "status": "Genuine",
          "associatedSiteId": 110010,
          "outfallName": "THE STADE FOLKESTONE",
          "isImpacting": true,
          "overFlowSiteId": 108909
        }
      ]
    },
    {
      "id": 344766452,
      "eventId": 897227,
      "siteUnitNumber": 12614,
      "bathingSite": "TOTLAND BAY",
      "eventStart": "2023-11-05T22:53:24",
      "eventStop": "2023-11-05T22:57:39",
      "duration": 4,
      "status": "Genuine",
      "associatedSiteId": 115498,
      "outfallName": "NORTON TRANSFER IOW",
      "isImpacting": true,
      "overFlowSiteId": 0,
      "historicSpillsList": [
        {
          "id": 344766452,
          "eventId": 897227,
          "siteUnitNumber": 12614,
          "bathingSite": "TOTLAND BAY",
          "eventStart": "2023-11-05T22:53:24",
          "eventStop": "2023-11-05T22:57:39",
          "duration": 4,
          "status": "Genuine",
          "associatedSiteId": 115498,
          "outfallName": "NORTON TRANSFER IOW",
          "isImpacting": true,
          "overFlowSiteId": 109524
        },
        {
          "id": 344766453,
          "eventId": 897227,
          "siteUnitNumber": 12615,
          "bathingSite": "COLWELL BAY",
          "eventStart": "2023-11-05T22:53:24",
          "eventStop": "2023-11-05T22:57:39",
          "duration": 4,
          "status": "Genuine",
          "associatedSiteId": 115498,
          "outfallName": "NORTON TRANSFER IOW",
          "isImpacting": true,
          "overFlowSiteId": 109524,
          "historicSpillsList": []
        }
      ]
    },
    {
      "id": 344741774,
      "eventId": 897242,
      "siteUnitNumber": 12568,
      "bathingSite": "SANDGATE",
      "eventStart": "2023-11-05T22:51:46",
      "eventStop": "2023-11-05T22:53:59",
      "duration": 2,
      "status": "Genuine",
      "associatedSiteId": 109896,
      "outfallName": "RANGE ROAD HYTHE K SHORT",
      "isImpacting": false,
      "overFlowSiteId": 0,
      "historicSpillsList": []
    },
    {
      "id": 344766454,
      "eventId": 897211,
      "siteUnitNumber": 12615,
      "bathingSite": "COLWELL BAY",
      "eventStart": "2023-11-05T22:40:00",
      "eventStop": "2023-11-05T22:46:19",
      "duration": 6,
      "status": "Genuine",
      "associatedSiteId": 115498,
      "outfallName": "NORTON TRANSFER IOW",
      "isImpacting": true,
      "overFlowSiteId": 0,
      "historicSpillsList": [
        {
          "id": 344766454,
          "eventId": 897211,
          "siteUnitNumber": 12615,
          "bathingSite": "COLWELL BAY",
          "eventStart": "2023-11-05T22:40:00",
          "eventStop": "2023-11-05T22:46:19",
          "duration": 6,
          "status": "Genuine",
          "associatedSiteId": 115498,
          "outfallName": "NORTON TRANSFER IOW",
          "isImpacting": true,
          "overFlowSiteId": 109524
        },
        {
          "id": 344766455,
          "eventId": 897211,
          "siteUnitNumber": 12614,
          "bathingSite": "TOTLAND BAY",
          "eventStart": "2023-11-05T22:40:00",
          "eventStop": "2023-11-05T22:46:19",
          "duration": 6,
          "status": "Genuine",
          "associatedSiteId": 115498,
          "outfallName": "NORTON TRANSFER IOW",
          "isImpacting": true,
          "overFlowSiteId": 109524,
          "historicSpillsList": []
        }
      ]
    },
    {
      "id": 344741778,
      "eventId": 897219,
      "siteUnitNumber": 12568,
      "bathingSite": "SANDGATE",
      "eventStart": "2023-11-05T22:33:02",
      "eventStop": "2023-11-05T22:35:06",
      "duration": 2,
      "status": "Genuine",
      "associatedSiteId": 109896,
      "outfallName": "RANGE ROAD HYTHE K SHORT",
      "isImpacting": false,
      "overFlowSiteId": 0,
      "historicSpillsList": []
    },
    {
      "id": 344763601,
      "eventId": 893731,
      "siteUnitNumber": 12582,
      "bathingSite": "SEAFORD",
      "eventStart": "2023-11-04T06:33:58",
      "eventStop": "2023-11-05T22:34:13",
      "duration": 2400,
      "status": "Genuine",
      "associatedSiteId": 110920,
      "outfallName": "NEWHAVEN",
      "isImpacting": false,
      "overFlowSiteId": 0,
      "historicSpillsList": []
    }
  ]
}