{
  "currentPage": 348,
  "totalItems": 21025,
  "totalPages": 841,
  "items": [
    {
      "id": 344797942,
      "eventId": 751900,
      "siteUnitNumber": 12593,
      "bathingSite": "FELPHAM",
      "eventStart": "2023-01-27T17:37:00",
      "eventStop": "2023-01-27T18:26:00",
      "duration": 49,
      "status": "Not Genuine",
      "associatedSiteId": 110095,
      "outfallName": "LIDSEY",
      "isImpacting": false,
      "overFlowSiteId": 0,
      "historicSpillsList": []
    },
    {
      "id": 344773827,
      "eventId": 749272,
      "siteUnitNumber": 12616,
      "bathingSite": "GURNARD",
      "eventStart": "2023-01-27T16:30:00",
      "eventStop": "2023-01-27T18:00:00",
      "duration": 90,
      "status": "Not Genuine",
      "associatedSiteId": 109700,
      "outfallName": "MARKET HILL COWES",
      "isImpacting": false,
      "overFlowSiteId": 0,
      "historicSpillsList": []
    },
    {
      "id": 344789464,
      "eventId": 756323,
      "siteUnitNumber": 12586,
      "bathingSite": "HOVE",
      "eventStart": "2023-01-27T17:43:00",
      "eventStop": "2023-01-27T17:53:00",
      "duration": 10,
      "status": "Genuine",
      "associatedSiteId": 109929,
      "outfallName": "SHOREHAM NO1",
      "isImpacting": true,
      "overFlowSiteId": 0,
      "historicSpillsList": [
        {
          "id": 344789464,
          "eventId": 756323,
          "siteUnitNumber": 12586,
          "bathingSite": "HOVE",
          "eventStart": "2023-01-27T17:43:00",
          "eventStop": "2023-01-27T17:53:00",
          "duration": 10,
          "status": "Genuine",
          "associatedSiteId": 109929,
          "outfallName": "SHOREHAM NO1",
          "isImpacting": true,
          "overFlowSiteId": 115434
        },
        {
          "id": 344789465,
          "eventId": 756323,
          "siteUnitNumber": 12587,
          "bathingSite": "SOUTHWICK",
          "eventStart": "2023-01-27T17:43:00",
          "eventStop": "2023-01-27T17:53:00",
          "duration": 10,
          "status": "Genuine",
          "associatedSiteId": 109929,
          "outfallName": "SHOREHAM NO1",
          "isImpacting": true,
          "overFlowSiteId": 115434,
          "historicSpillsList": []
        },
        {
          "id": 344789466,
          "eventId": 756323,
          "siteUnitNumber": 12588,
          "bathingSite": "SHOREHAM BEACH",
          "eventStart": "2023-01-27T17:43:00",
          "eventStop": "2023-01-27T17:53:00",
          "duration": 10,
          "status": "Genuine",
          "associatedSiteId": 109929,
          "outfallName": "SHOREHAM NO1",
          "isImpacting": true,
          "overFlowSiteId": 115434,
          "historicSpillsList": []
        }
      ]
    },
    {
      "id": 344794683,
      "eventId": 747782,
      "siteUnitNumber": 12591,
      "bathingSite": "LITTLEHAMPTON",
      "eventStart": "2023-01-27T09:45:00",
      "eventStop": "2023-01-27T17:52:00",
      "duration": 487,
      "status": "Genuine",
      "associatedSiteId": 109965,
      "outfallName": "SEA ROAD LITTLEHAMPTON",
      "isImpacting": true,
      "overFlowSiteId": 0,
      "historicSpillsList": [
        {
          "id": 344794683,
          "eventId": 747782,
          "siteUnitNumber": 12591,
          "bathingSite": "LITTLEHAMPTON",
          "eventStart": "2023-01-27T09:45:00",
          "eventStop": "2023-01-27T17:52:00",
          "duration": 487,
          "status": "Genuine",
          "associatedSiteId": 109965,
          "outfallName": "SEA ROAD LITTLEHAMPTON",
          "isImpacting": true,
          "overFlowSiteId": 109368
        }
      ]
    },
    {
      "id": 344789470,
      "eventId": 756320,
      "siteUnitNumber": 12586,
      "bathingSite": "HOVE",
      "eventStart": "2023-01-27T17:04:00",
      "eventStop": "2023-01-27T17:08:00",
      "duration": 4,
      "status": "Genuine",
      "associatedSiteId": 109929,
      "outfallName": "SHOREHAM NO1",
      "isImpacting": true,
      "overFlowSiteId": 0,
      "historicSpillsList": [
        {
          "id": 344789470,
          "eventId": 756320,
          "siteUnitNumber": 12586,
          "bathingSite": "HOVE",
          "eventStart": "2023-01-27T17:04:00",
          "eventStop": "2023-01-27T17:08:00",
          "duration": 4,
          "status": "Genuine",
          "associatedSiteId": 109929,
          "outfallName": "SHOREHAM NO1",
          "isImpacting": true,
          "overFlowSiteId": 115434
        },
        {
          "id": 344789471,
          "eventId": 756320,
          "siteUnitNumber": 12587,
          "bathingSite": "SOUTHWICK",
          "eventStart": "2023-01-27T17:04:00",
          "eventStop": "2023-01-27T17:08:00",
          "duration": 4,
          "status": "Genuine",
          "associatedSiteId": 109929,
          "outfallName": "SHOREHAM NO1",
          "isImpacting": true,
          "overFlowSiteId": 115434,
          "historicSpillsList": []
        },
        {
          "id": 344789472,
          "eventId": 756320,
          "siteUnitNumber": 12588,
          "bathingSite": "SHOREHAM BEACH",
          "eventStart": "2023-01-27T17:04:00",
          "eventStop": "2023-01-27T17:08:00",
          "duration": 4,
          "status": "Genuine",
          "associatedSiteId": 109929,
          "outfallName": "SHOREHAM NO1",
          "isImpacting": true,
          "overFlowSiteId": 115434,
          "historicSpillsList": []
        }
      ]
    },
    {
      "id": 344797941,
      "eventId": 751899,
      "siteUnitNumber": 12593,
      "bathingSite": "FELPHAM",
      "eventStart": "2023-01-27T15:21:00",
      "eventStop": "2023-01-27T16:50:00",
      "duration": 89,
      "status": "Not Genuine",
      "associatedSiteId": 110095,
      "outfallName": "LIDSEY",
      "isImpacting": false,
      "overFlowSiteId": 0,
      "historicSpillsList": []
    },
    {
      "id": 344797940,
      "eventId": 751889,
      "siteUnitNumber": 12593,
      "bathingSite": "FELPHAM",
      "eventStart": "2023-01-27T07:18:00",
      "eventStop": "2023-01-27T15:00:00",
      "duration": 462,
      "status": "Not Genuine",
      "associatedSiteId": 110095,
      "outfallName": "LIDSEY",
      "isImpacting": true,
      "overFlowSiteId": 0,
      "historicSpillsList": []
    },
    {
      "id": 344811702,
      "eventId": 748150,
      "siteUnitNumber": 12577,
      "bathingSite": "BEXHILL",
      "eventStart": "2023-01-27T14:13:05",
      "eventStop": "2023-01-27T14:45:00",
      "duration": 31,
      "status": "Not Genuine",
      "associatedSiteId": 115500,
      "outfallName": "BEXHILL DOWN",
      "isImpacting": true,
      "overFlowSiteId": 0,
      "historicSpillsList": []
    },
    {
      "id": 344811703,
      "eventId": 748141,
      "siteUnitNumber": 12577,
      "bathingSite": "BEXHILL",
      "eventStart": "2023-01-27T13:30:57",
      "eventStop": "2023-01-27T14:07:05",
      "duration": 36,
      "status": "Not Genuine",
      "associatedSiteId": 115500,
      "outfallName": "BEXHILL DOWN",
      "isImpacting": true,
      "overFlowSiteId": 0,
      "historicSpillsList": []
    },
    {
      "id": 344811704,
      "eventId": 747658,
      "siteUnitNumber": 12577,
      "bathingSite": "BEXHILL",
      "eventStart": "2023-01-27T03:32:10",
      "eventStop": "2023-01-27T11:39:30",
      "duration": 487,
      "status": "Not Genuine",
      "associatedSiteId": 115500,
      "outfallName": "BEXHILL DOWN",
      "isImpacting": true,
      "overFlowSiteId": 0,
      "historicSpillsList": []
    },
    {
      "id": 344773829,
      "eventId": 749271,
      "siteUnitNumber": 12616,
      "bathingSite": "GURNARD",
      "eventStart": "2023-01-27T11:24:33",
      "eventStop": "2023-01-27T11:30:00",
      "duration": 5,
      "status": "Not Genuine",
      "associatedSiteId": 109700,
      "outfallName": "MARKET HILL COWES",
      "isImpacting": false,
      "overFlowSiteId": 0,
      "historicSpillsList": []
    },
    {
      "id": 344797945,
      "eventId": 751888,
      "siteUnitNumber": 12593,
      "bathingSite": "FELPHAM",
      "eventStart": "2023-01-27T04:30:00",
      "eventStop": "2023-01-27T04:54:00",
      "duration": 24,
      "status": "Not Genuine",
      "associatedSiteId": 110095,
      "outfallName": "LIDSEY",
      "isImpacting": false,
      "overFlowSiteId": 0,
      "historicSpillsList": []
    },
    {
      "id": 344797944,
      "eventId": 751886,
      "siteUnitNumber": 12593,
      "bathingSite": "FELPHAM",
      "eventStart": "2023-01-27T02:48:00",
      "eventStop": "2023-01-27T03:27:00",
      "duration": 39,
      "status": "Not Genuine",
      "associatedSiteId": 110095,
      "outfallName": "LIDSEY",
      "isImpacting": false,
      "overFlowSiteId": 0,
      "historicSpillsList": []
    },
    {
      "id": 344811707,
      "eventId": 747553,
      "siteUnitNumber": 12577,
      "bathingSite": "BEXHILL",
      "eventStart": "2023-01-26T22:35:43",
      "eventStop": "2023-01-27T02:42:04",
      "duration": 246,
      "status": "Not Genuine",
      "associatedSiteId": 115500,
      "outfallName": "BEXHILL DOWN",
      "isImpacting": true,
      "overFlowSiteId": 0,
      "historicSpillsList": []
    },
    {
      "id": 344797943,
      "eventId": 751883,
      "siteUnitNumber": 12593,
      "bathingSite": "FELPHAM",
      "eventStart": "2023-01-26T07:41:00",
      "eventStop": "2023-01-27T02:06:00",
      "duration": 1105,
      "status": "Not Genuine",
      "associatedSiteId": 110095,
      "outfallName": "LIDSEY",
      "isImpacting": true,
      "overFlowSiteId": 0,
      "historicSpillsList": []
    },
    {
      "id": 344811706,
      "eventId": 747543,
      "siteUnitNumber": 12577,
      "bathingSite": "BEXHILL",
      "eventStart": "2023-01-26T22:15:00",
      "eventStop": "2023-01-26T22:30:00",
      "duration": 15,
      "status": "Not Genuine",
      "associatedSiteId": 115500,
      "outfallName": "BEXHILL DOWN",
      "isImpacting": true,
      "overFlowSiteId": 0,
      "historicSpillsList": []
    },
    {
      "id": 344811705,
      "eventId": 747528,
      "siteUnitNumber": 12577,
      "bathingSite": "BEXHILL",
      "eventStart": "2023-01-26T21:32:46",
      "eventStop": "2023-01-26T22:08:44",
      "duration": 35,
      "status": "Not Genuine",
      "associatedSiteId": 115500,
      "outfallName": "BEXHILL DOWN",
      "isImpacting": true,
      "overFlowSiteId": 0,
      "historicSpillsList": []
    },
    {
      "id": 344811708,
      "eventId": 747503,
      "siteUnitNumber": 12577,
      "bathingSite": "BEXHILL",
      "eventStart": "2023-01-26T20:52:57",
      "eventStop": "2023-01-26T21:30:00",
      "duration": 37,
      "status": "Not Genuine",
      "associatedSiteId": 115500,
      "outfallName": "BEXHILL DOWN",
      "isImpacting": true,
      "overFlowSiteId": 0,
      "historicSpillsList": []
    },
    {
      "id": 344811710,
      "eventId": 747474,
      "siteUnitNumber": 12577,
      "bathingSite": "BEXHILL",
      "eventStart": "2023-01-26T19:22:59",
      "eventStop": "2023-01-26T19:45:00",
      "duration": 22,
      "status": "Not Genuine",
      "associatedSiteId": 115500,
      "outfallName": "BEXHILL DOWN",
      "isImpacting": true,
      "overFlowSiteId": 0,
      "historicSpillsList": []
    },
    {
      "id": 344811709,
      "eventId": 747386,
      "siteUnitNumber": 12577,
      "bathingSite": "BEXHILL",
      "eventStart": "2023-01-26T17:29:41",
      "eventStop": "2023-01-26T17:45:00",
      "duration": 15,
      "status": "Not Genuine",
      "associatedSiteId": 115500,
      "outfallName": "BEXHILL DOWN",
      "isImpacting": true,
      "overFlowSiteId": 0,
      "historicSpillsList": []
    },
    {
      "id": 344811712,
      "eventId": 747307,
      "siteUnitNumber": 12577,
      "bathingSite": "BEXHILL",
      "eventStart": "2023-01-26T15:16:00",
      "eventStop": "2023-01-26T16:00:00",
      "duration": 44,
      "status": "Not Genuine",
      "associatedSiteId": 115500,
      "outfallName": "BEXHILL DOWN",
      "isImpacting": true,
      "overFlowSiteId": 0,
      "historicSpillsList": []
    },
    {
      "id": 344776294,
      "eventId": 747290,
      "siteUnitNumber": 12607,
      "bathingSite": "HILLHEAD",
      "eventStart": "2023-01-26T14:10:48",
      "eventStop": "2023-01-26T15:23:57",
      "duration": 73,
      "status": "Genuine",
      "associatedSiteId": 109716,
      "outfallName": "CROFTON TITCHFIELD",
      "isImpacting": false,
      "overFlowSiteId": 0,
      "historicSpillsList": []
    },
    {
      "id": 344811711,
      "eventId": 747248,
      "siteUnitNumber": 12577,
      "bathingSite": "BEXHILL",
      "eventStart": "2023-01-26T13:10:36",
      "eventStop": "2023-01-26T13:45:00",
      "duration": 34,
      "status": "Not Genuine",
      "associatedSiteId": 115500,
      "outfallName": "BEXHILL DOWN",
      "isImpacting": true,
      "overFlowSiteId": 0,
      "historicSpillsList": []
    },
    {
      "id": 344773831,
      "eventId": 747793,
      "siteUnitNumber": 12616,
      "bathingSite": "GURNARD",
      "eventStart": "2023-01-26T12:55:58",
      "eventStop": "2023-01-26T13:00:00",
      "duration": 4,
      "status": "Not Genuine",
      "associatedSiteId": 109700,
      "outfallName": "MARKET HILL COWES",
      "isImpacting": false,
      "overFlowSiteId": 0,
      "historicSpillsList": []
    },
    {
      "id": 344794669,
      "eventId": 750477,
      "siteUnitNumber": 12591,
      "bathingSite": "LITTLEHAMPTON",
      "eventStart": "2023-01-26T09:39:00",
      "eventStop": "2023-01-26T10:39:00",
      "duration": 60,
      "status": "Genuine",
      "associatedSiteId": 109965,
      "outfallName": "SEA ROAD LITTLEHAMPTON",
      "isImpacting": false,
      "overFlowSiteId": 0,
      "historicSpillsList": []
    }
  ]
}