{
  "currentPage": 429,
  "totalItems": 18701,
  "totalPages": 749,
  "items": [
    {
      "id": 343960756,
      "eventId": 671867,
      "siteUnitNumber": 12546,
      "bathingSite": "LEYSDOWN",
      "eventStart": "2022-11-17T05:02:32",
      "eventStop": "2022-11-17T09:16:00",
      "duration": 253,
      "status": "Genuine",
      "associatedSiteId": 109613,
      "outfallName": "BARROWS BROOK EASTCHURCH",
      "isImpacting": true,
      "overFlowSiteId": 0,
      "historicSpillsList": [
        {
          "id": 343960756,
          "eventId": 671867,
          "siteUnitNumber": 12546,
          "bathingSite": "LEYSDOWN",
          "eventStart": "2022-11-17T05:02:32",
          "eventStop": "2022-11-17T09:16:00",
          "duration": 253,
          "status": "Genuine",
          "associatedSiteId": 109613,
          "outfallName": "BARROWS BROOK EASTCHURCH",
          "isImpacting": true,
          "overFlowSiteId": 108109
        }
      ]
    },
    {
      "id": 343964078,
      "eventId": 673825,
      "siteUnitNumber": 12549,
      "bathingSite": "HERNE BAY CENTRAL",
      "eventStart": "2022-11-17T07:15:00",
      "eventStop": "2022-11-17T08:45:00",
      "duration": 90,
      "status": "Genuine",
      "associatedSiteId": 109678,
      "outfallName": "EDDINGTON LANE HERNE BAY NO2",
      "isImpacting": true,
      "overFlowSiteId": 0,
      "historicSpillsList": [
        {
          "id": 343964079,
          "eventId": 673825,
          "siteUnitNumber": 12551,
          "bathingSite": "HERNE BAY",
          "eventStart": "2022-11-17T07:15:00",
          "eventStop": "2022-11-17T08:45:00",
          "duration": 90,
          "status": "Genuine",
          "associatedSiteId": 109678,
          "outfallName": "EDDINGTON LANE HERNE BAY NO2",
          "isImpacting": true,
          "overFlowSiteId": 108093,
          "historicSpillsList": []
        }
      ]
    },
    {
      "id": 343996902,
      "eventId": 669725,
      "siteUnitNumber": 12620,
      "bathingSite": "ST HELENS",
      "eventStart": "2022-11-16T16:03:38",
      "eventStop": "2022-11-17T08:07:41",
      "duration": 964,
      "status": "Genuine",
      "associatedSiteId": 110761,
      "outfallName": "BRADING",
      "isImpacting": true,
      "overFlowSiteId": 0,
      "historicSpillsList": [
        {
          "id": 343996902,
          "eventId": 669725,
          "siteUnitNumber": 12620,
          "bathingSite": "ST HELENS",
          "eventStart": "2022-11-16T16:03:38",
          "eventStop": "2022-11-17T08:07:41",
          "duration": 964,
          "status": "Genuine",
          "associatedSiteId": 110761,
          "outfallName": "BRADING",
          "isImpacting": true,
          "overFlowSiteId": 113676
        }
      ]
    },
    {
      "id": 343965751,
      "eventId": 671927,
      "siteUnitNumber": 12616,
      "bathingSite": "GURNARD",
      "eventStart": "2022-11-17T05:56:49",
      "eventStop": "2022-11-17T07:26:00",
      "duration": 89,
      "status": "Genuine",
      "associatedSiteId": 109704,
      "outfallName": "EGYPT POINT COWES",
      "isImpacting": true,
      "overFlowSiteId": 0,
      "historicSpillsList": [
        {
          "id": 343965752,
          "eventId": 671927,
          "siteUnitNumber": 12617,
          "bathingSite": "COWES",
          "eventStart": "2022-11-17T05:56:49",
          "eventStop": "2022-11-17T07:26:00",
          "duration": 89,
          "status": "Genuine",
          "associatedSiteId": 109704,
          "outfallName": "EGYPT POINT COWES",
          "isImpacting": true,
          "overFlowSiteId": 108518,
          "historicSpillsList": []
        }
      ]
    },
    {
      "id": 343964799,
      "eventId": 672495,
      "siteUnitNumber": 12616,
      "bathingSite": "GURNARD",
      "eventStart": "2022-11-17T07:07:00",
      "eventStop": "2022-11-17T07:23:00",
      "duration": 16,
      "status": "Genuine",
      "associatedSiteId": 109700,
      "outfallName": "MARKET HILL COWES",
      "isImpacting": false,
      "overFlowSiteId": 0,
      "historicSpillsList": []
    },
    {
      "id": 343982434,
      "eventId": 670386,
      "siteUnitNumber": 12582,
      "bathingSite": "SEAFORD",
      "eventStart": "2022-11-16T18:29:00",
      "eventStop": "2022-11-17T07:12:00",
      "duration": 763,
      "status": "Genuine",
      "associatedSiteId": 109957,
      "outfallName": "PORTOBELLO BRIGHTON NO2",
      "isImpacting": false,
      "overFlowSiteId": 0,
      "historicSpillsList": []
    },
    {
      "id": 343964320,
      "eventId": 671928,
      "siteUnitNumber": 12564,
      "bathingSite": "RAMSGATE WESTERN UNDERCLIFFE",
      "eventStart": "2022-11-17T05:57:02",
      "eventStop": "2022-11-17T07:01:00",
      "duration": 63,
      "status": "Genuine",
      "associatedSiteId": 109687,
      "outfallName": "FOADS LANE RAMSGATE",
      "isImpacting": true,
      "overFlowSiteId": 0,
      "historicSpillsList": [
        {
          "id": 343964320,
          "eventId": 671928,
          "siteUnitNumber": 12564,
          "bathingSite": "RAMSGATE WESTERN UNDERCLIFFE",
          "eventStart": "2022-11-17T05:57:02",
          "eventStop": "2022-11-17T07:01:00",
          "duration": 63,
          "status": "Genuine",
          "associatedSiteId": 109687,
          "outfallName": "FOADS LANE RAMSGATE",
          "isImpacting": true,
          "overFlowSiteId": 108911
        }
      ]
    },
    {
      "id": 343975764,
      "eventId": 671960,
      "siteUnitNumber": 12568,
      "bathingSite": "SANDGATE",
      "eventStart": "2022-11-17T06:39:29",
      "eventStop": "2022-11-17T06:46:39",
      "duration": 7,
      "status": "Genuine",
      "associatedSiteId": 109896,
      "outfallName": "RANGE ROAD HYTHE K SHORT",
      "isImpacting": true,
      "overFlowSiteId": 0,
      "historicSpillsList": [
        {
          "id": 343975765,
          "eventId": 671960,
          "siteUnitNumber": 12569,
          "bathingSite": "HYTHE",
          "eventStart": "2022-11-17T06:39:29",
          "eventStop": "2022-11-17T06:46:39",
          "duration": 7,
          "status": "Genuine",
          "associatedSiteId": 109896,
          "outfallName": "RANGE ROAD HYTHE K SHORT",
          "isImpacting": true,
          "overFlowSiteId": 116112,
          "historicSpillsList": []
        }
      ]
    },
    {
      "id": 343973712,
      "eventId": 675428,
      "siteUnitNumber": 12547,
      "bathingSite": "WEST BEACH WHITSTABLE",
      "eventStart": "2022-11-16T18:56:00",
      "eventStop": "2022-11-17T06:27:00",
      "duration": 691,
      "status": "Genuine",
      "associatedSiteId": 109832,
      "outfallName": "GORREL NO1",
      "isImpacting": true,
      "overFlowSiteId": 0,
      "historicSpillsList": [
        {
          "id": 343973713,
          "eventId": 675428,
          "siteUnitNumber": 12548,
          "bathingSite": "TANKERTON",
          "eventStart": "2022-11-16T18:56:00",
          "eventStop": "2022-11-17T06:27:00",
          "duration": 691,
          "status": "Genuine",
          "associatedSiteId": 109832,
          "outfallName": "GORREL NO1",
          "isImpacting": true,
          "overFlowSiteId": 103279,
          "historicSpillsList": []
        }
      ]
    },
    {
      "id": 343993730,
      "eventId": 667252,
      "siteUnitNumber": 12619,
      "bathingSite": "SEAGROVE",
      "eventStart": "2022-11-15T06:48:34",
      "eventStop": "2022-11-17T06:20:58",
      "duration": 2852,
      "status": "Genuine",
      "associatedSiteId": 110097,
      "outfallName": "SANDOWN NO2",
      "isImpacting": true,
      "overFlowSiteId": 0,
      "historicSpillsList": [
        {
          "id": 343993733,
          "eventId": 667252,
          "siteUnitNumber": 12623,
          "bathingSite": "YAVERLAND",
          "eventStart": "2022-11-15T06:48:34",
          "eventStop": "2022-11-17T06:20:58",
          "duration": 2852,
          "status": "Genuine",
          "associatedSiteId": 110097,
          "outfallName": "SANDOWN NO2",
          "isImpacting": true,
          "overFlowSiteId": 115454,
          "historicSpillsList": []
        },
        {
          "id": 343993734,
          "eventId": 667252,
          "siteUnitNumber": 12624,
          "bathingSite": "SANDOWN",
          "eventStart": "2022-11-15T06:48:34",
          "eventStop": "2022-11-17T06:20:58",
          "duration": 2852,
          "status": "Genuine",
          "associatedSiteId": 110097,
          "outfallName": "SANDOWN NO2",
          "isImpacting": true,
          "overFlowSiteId": 115454,
          "historicSpillsList": []
        },
        {
          "id": 343993735,
          "eventId": 667252,
          "siteUnitNumber": 12625,
          "bathingSite": "SHANKLIN",
          "eventStart": "2022-11-15T06:48:34",
          "eventStop": "2022-11-17T06:20:58",
          "duration": 2852,
          "status": "Genuine",
          "associatedSiteId": 110097,
          "outfallName": "SANDOWN NO2",
          "isImpacting": true,
          "overFlowSiteId": 115454,
          "historicSpillsList": []
        }
      ]
    },
    {
      "id": 343997882,
      "eventId": 672001,
      "siteUnitNumber": 12549,
      "bathingSite": "HERNE BAY CENTRAL",
      "eventStart": "2022-11-17T05:24:00",
      "eventStop": "2022-11-17T06:12:00",
      "duration": 48,
      "status": "Genuine",
      "associatedSiteId": 111724,
      "outfallName": "GAINSBOROUGH DRIVE HERNE BAY",
      "isImpacting": true,
      "overFlowSiteId": 0,
      "historicSpillsList": [
        {
          "id": 343997882,
          "eventId": 672001,
          "siteUnitNumber": 12549,
          "bathingSite": "HERNE BAY CENTRAL",
          "eventStart": "2022-11-17T05:24:00",
          "eventStop": "2022-11-17T06:12:00",
          "duration": 48,
          "status": "Genuine",
          "associatedSiteId": 111724,
          "outfallName": "GAINSBOROUGH DRIVE HERNE BAY",
          "isImpacting": true,
          "overFlowSiteId": 111725
        },
        {
          "id": 343997883,
          "eventId": 672001,
          "siteUnitNumber": 12551,
          "bathingSite": "HERNE BAY",
          "eventStart": "2022-11-17T05:24:00",
          "eventStop": "2022-11-17T06:12:00",
          "duration": 48,
          "status": "Genuine",
          "associatedSiteId": 111724,
          "outfallName": "GAINSBOROUGH DRIVE HERNE BAY",
          "isImpacting": true,
          "overFlowSiteId": 111725,
          "historicSpillsList": []
        }
      ]
    },
    {
      "id": 343986261,
      "eventId": 670143,
      "siteUnitNumber": 12591,
      "bathingSite": "LITTLEHAMPTON",
      "eventStart": "2022-11-16T18:49:21",
      "eventStop": "2022-11-17T06:02:00",
      "duration": 672,
      "status": "Genuine",
      "associatedSiteId": 109971,
      "outfallName": "BROADMARK LANE RUSTINGTON",
      "isImpacting": true,
      "overFlowSiteId": 0,
      "historicSpillsList": [
        {
          "id": 343986261,
          "eventId": 670143,
          "siteUnitNumber": 12591,
          "bathingSite": "LITTLEHAMPTON",
          "eventStart": "2022-11-16T18:49:21",
          "eventStop": "2022-11-17T06:02:00",
          "duration": 672,
          "status": "Genuine",
          "associatedSiteId": 109971,
          "outfallName": "BROADMARK LANE RUSTINGTON",
          "isImpacting": true,
          "overFlowSiteId": 107443
        }
      ]
    },
    {
      "id": 343969136,
      "eventId": 673139,
      "siteUnitNumber": 12617,
      "bathingSite": "COWES",
      "eventStart": "2022-11-17T05:01:00",
      "eventStop": "2022-11-17T06:00:00",
      "duration": 59,
      "status": "Genuine",
      "associatedSiteId": 109777,
      "outfallName": "APPLEY PARK RYDE TRANSFER",
      "isImpacting": false,
      "overFlowSiteId": 0,
      "historicSpillsList": []
    },
    {
      "id": 344002765,
      "eventId": 688144,
      "siteUnitNumber": 12577,
      "bathingSite": "BEXHILL",
      "eventStart": "2022-11-17T04:02:00",
      "eventStop": "2022-11-17T05:56:00",
      "duration": 114,
      "status": "Genuine",
      "associatedSiteId": 115504,
      "outfallName": "HARTFIELD ROAD BEXHILL",
      "isImpacting": false,
      "overFlowSiteId": 0,
      "historicSpillsList": []
    },
    {
      "id": 343964082,
      "eventId": 671347,
      "siteUnitNumber": 12549,
      "bathingSite": "HERNE BAY CENTRAL",
      "eventStart": "2022-11-17T02:00:00",
      "eventStop": "2022-11-17T05:40:00",
      "duration": 220,
      "status": "Genuine",
      "associatedSiteId": 109678,
      "outfallName": "EDDINGTON LANE HERNE BAY NO2",
      "isImpacting": true,
      "overFlowSiteId": 0,
      "historicSpillsList": [
        {
          "id": 343964082,
          "eventId": 671347,
          "siteUnitNumber": 12549,
          "bathingSite": "HERNE BAY CENTRAL",
          "eventStart": "2022-11-17T02:00:00",
          "eventStop": "2022-11-17T05:40:00",
          "duration": 220,
          "status": "Genuine",
          "associatedSiteId": 109678,
          "outfallName": "EDDINGTON LANE HERNE BAY NO2",
          "isImpacting": true,
          "overFlowSiteId": 108093
        },
        {
          "id": 343964083,
          "eventId": 671347,
          "siteUnitNumber": 12551,
          "bathingSite": "HERNE BAY",
          "eventStart": "2022-11-17T02:00:00",
          "eventStop": "2022-11-17T05:40:00",
          "duration": 220,
          "status": "Genuine",
          "associatedSiteId": 109678,
          "outfallName": "EDDINGTON LANE HERNE BAY NO2",
          "isImpacting": true,
          "overFlowSiteId": 108093,
          "historicSpillsList": []
        }
      ]
    },
    {
      "id": 343979653,
      "eventId": 755799,
      "siteUnitNumber": 12590,
      "bathingSite": "WORTHING",
      "eventStart": "2022-11-17T04:56:19",
      "eventStop": "2022-11-17T05:30:00",
      "duration": 33,
      "status": "Genuine",
      "associatedSiteId": 109912,
      "outfallName": "SEA LANE GORING",
      "isImpacting": false,
      "overFlowSiteId": 0,
      "historicSpillsList": []
    },
    {
      "id": 343963717,
      "eventId": 671264,
      "siteUnitNumber": 12559,
      "bathingSite": "BOTANY BAY BROADSTAIRS",
      "eventStart": "2022-11-17T01:15:00",
      "eventStop": "2022-11-17T05:20:55",
      "duration": 245,
      "status": "Genuine",
      "associatedSiteId": 109674,
      "outfallName": "MARGATE NO2",
      "isImpacting": true,
      "overFlowSiteId": 0,
      "historicSpillsList": [
        {
          "id": 343963717,
          "eventId": 671264,
          "siteUnitNumber": 12559,
          "bathingSite": "BOTANY BAY BROADSTAIRS",
          "eventStart": "2022-11-17T01:15:00",
          "eventStop": "2022-11-17T05:20:55",
          "duration": 245,
          "status": "Genuine",
          "associatedSiteId": 109674,
          "outfallName": "MARGATE NO2",
          "isImpacting": true,
          "overFlowSiteId": 116100
        },
        {
          "id": 343963718,
          "eventId": 671264,
          "siteUnitNumber": 12560,
          "bathingSite": "JOSS BAY BROADSTAIRS",
          "eventStart": "2022-11-17T01:15:00",
          "eventStop": "2022-11-17T05:20:55",
          "duration": 245,
          "status": "Genuine",
          "associatedSiteId": 109674,
          "outfallName": "MARGATE NO2",
          "isImpacting": true,
          "overFlowSiteId": 116100,
          "historicSpillsList": []
        },
        {
          "id": 343963721,
          "eventId": 671264,
          "siteUnitNumber": 12557,
          "bathingSite": "MARGATE FULSAM ROCK",
          "eventStart": "2022-11-17T01:15:00",
          "eventStop": "2022-11-17T05:20:55",
          "duration": 245,
          "status": "Genuine",
          "associatedSiteId": 109674,
          "outfallName": "MARGATE NO2",
          "isImpacting": true,
          "overFlowSiteId": 116100,
          "historicSpillsList": []
        },
        {
          "id": 343963722,
          "eventId": 671264,
          "siteUnitNumber": 12558,
          "bathingSite": "WALPOLE BAY MARGATE",
          "eventStart": "2022-11-17T01:15:00",
          "eventStop": "2022-11-17T05:20:55",
          "duration": 245,
          "status": "Genuine",
          "associatedSiteId": 109674,
          "outfallName": "MARGATE NO2",
          "isImpacting": true,
          "overFlowSiteId": 116100,
          "historicSpillsList": []
        }
      ]
    },
    {
      "id": 343965757,
      "eventId": 667199,
      "siteUnitNumber": 12616,
      "bathingSite": "GURNARD",
      "eventStart": "2022-11-15T05:15:00",
      "eventStop": "2022-11-17T05:11:00",
      "duration": 2876,
      "status": "Genuine",
      "associatedSiteId": 109704,
      "outfallName": "EGYPT POINT COWES",
      "isImpacting": true,
      "overFlowSiteId": 0,
      "historicSpillsList": [
        {
          "id": 343965758,
          "eventId": 667199,
          "siteUnitNumber": 12617,
          "bathingSite": "COWES",
          "eventStart": "2022-11-15T05:15:00",
          "eventStop": "2022-11-17T05:11:00",
          "duration": 2876,
          "status": "Genuine",
          "associatedSiteId": 109704,
          "outfallName": "EGYPT POINT COWES",
          "isImpacting": true,
          "overFlowSiteId": 116213,
          "historicSpillsList": []
        }
      ]
    },
    {
      "id": 343966635,
      "eventId": 671019,
      "siteUnitNumber": 12616,
      "bathingSite": "GURNARD",
      "eventStart": "2022-11-16T23:56:23",
      "eventStop": "2022-11-17T05:10:54",
      "duration": 314,
      "status": "Genuine",
      "associatedSiteId": 109706,
      "outfallName": "HIGH STREET COWES",
      "isImpacting": false,
      "overFlowSiteId": 0,
      "historicSpillsList": []
    },
    {
      "id": 343969138,
      "eventId": 673106,
      "siteUnitNumber": 12617,
      "bathingSite": "COWES",
      "eventStart": "2022-11-15T05:58:00",
      "eventStop": "2022-11-17T05:00:00",
      "duration": 2822,
      "status": "Genuine",
      "associatedSiteId": 109777,
      "outfallName": "APPLEY PARK RYDE TRANSFER",
      "isImpacting": true,
      "overFlowSiteId": 0,
      "historicSpillsList": [
        {
          "id": 343969139,
          "eventId": 673106,
          "siteUnitNumber": 12618,
          "bathingSite": "RYDE",
          "eventStart": "2022-11-15T05:58:00",
          "eventStop": "2022-11-17T05:00:00",
          "duration": 2822,
          "status": "Genuine",
          "associatedSiteId": 109777,
          "outfallName": "APPLEY PARK RYDE TRANSFER",
          "isImpacting": true,
          "overFlowSiteId": 108941,
          "historicSpillsList": []
        }
      ]
    },
    {
      "id": 343967143,
      "eventId": 669915,
      "siteUnitNumber": 12605,
      "bathingSite": "STOKES BAY",
      "eventStart": "2022-11-16T17:42:00",
      "eventStop": "2022-11-17T04:52:00",
      "duration": 670,
      "status": "Genuine",
      "associatedSiteId": 109718,
      "outfallName": "GREEN CRESCENT GOSPORT",
      "isImpacting": true,
      "overFlowSiteId": 0,
      "historicSpillsList": [
        {
          "id": 343967143,
          "eventId": 669915,
          "siteUnitNumber": 12605,
          "bathingSite": "STOKES BAY",
          "eventStart": "2022-11-16T17:42:00",
          "eventStop": "2022-11-17T04:52:00",
          "duration": 670,
          "status": "Genuine",
          "associatedSiteId": 109718,
          "outfallName": "GREEN CRESCENT GOSPORT",
          "isImpacting": true,
          "overFlowSiteId": 108436
        },
        {
          "id": 343967144,
          "eventId": 669915,
          "siteUnitNumber": 12606,
          "bathingSite": "LEE-ON-SOLENT",
          "eventStart": "2022-11-16T17:42:00",
          "eventStop": "2022-11-17T04:52:00",
          "duration": 670,
          "status": "Genuine",
          "associatedSiteId": 109718,
          "outfallName": "GREEN CRESCENT GOSPORT",
          "isImpacting": true,
          "overFlowSiteId": 108436,
          "historicSpillsList": []
        }
      ]
    },
    {
      "id": 343979652,
      "eventId": 755798,
      "siteUnitNumber": 12590,
      "bathingSite": "WORTHING",
      "eventStart": "2022-11-17T03:19:09",
      "eventStop": "2022-11-17T04:45:00",
      "duration": 85,
      "status": "Genuine",
      "associatedSiteId": 109912,
      "outfallName": "SEA LANE GORING",
      "isImpacting": false,
      "overFlowSiteId": 0,
      "historicSpillsList": []
    },
    {
      "id": 343967035,
      "eventId": 669884,
      "siteUnitNumber": 12607,
      "bathingSite": "HILLHEAD",
      "eventStart": "2022-11-16T17:14:00",
      "eventStop": "2022-11-17T04:10:00",
      "duration": 656,
      "status": "Genuine",
      "associatedSiteId": 109715,
      "outfallName": "SALTERNS ROAD HILL HEAD",
      "isImpacting": true,
      "overFlowSiteId": 0,
      "historicSpillsList": [
        {
          "id": 343967035,
          "eventId": 669884,
          "siteUnitNumber": 12607,
          "bathingSite": "HILLHEAD",
          "eventStart": "2022-11-16T17:14:00",
          "eventStop": "2022-11-17T04:10:00",
          "duration": 656,
          "status": "Genuine",
          "associatedSiteId": 109715,
          "outfallName": "SALTERNS ROAD HILL HEAD",
          "isImpacting": true,
          "overFlowSiteId": 108441
        }
      ]
    },
    {
      "id": 343970203,
      "eventId": 669748,
      "siteUnitNumber": 12618,
      "bathingSite": "RYDE",
      "eventStart": "2022-11-16T16:29:00",
      "eventStop": "2022-11-17T04:00:00",
      "duration": 691,
      "status": "Genuine",
      "associatedSiteId": 109780,
      "outfallName": "LADIES WALK BINSTEAD",
      "isImpacting": true,
      "overFlowSiteId": 0,
      "historicSpillsList": [
        {
          "id": 343970203,
          "eventId": 669748,
          "siteUnitNumber": 12618,
          "bathingSite": "RYDE",
          "eventStart": "2022-11-16T16:29:00",
          "eventStop": "2022-11-17T04:00:00",
          "duration": 691,
          "status": "Genuine",
          "associatedSiteId": 109780,
          "outfallName": "LADIES WALK BINSTEAD",
          "isImpacting": true,
          "overFlowSiteId": 107406
        }
      ]
    },
    {
      "id": 343986218,
      "eventId": 670100,
      "siteUnitNumber": 12593,
      "bathingSite": "FELPHAM",
      "eventStart": "2022-11-16T18:15:00",
      "eventStop": "2022-11-17T03:59:00",
      "duration": 584,
      "status": "Genuine",
      "associatedSiteId": 109970,
      "outfallName": "CHICHESTER ROAD BOGNOR",
      "isImpacting": true,
      "overFlowSiteId": 0,
      "historicSpillsList": [
        {
          "id": 343986218,
          "eventId": 670100,
          "siteUnitNumber": 12593,
          "bathingSite": "FELPHAM",
          "eventStart": "2022-11-16T18:15:00",
          "eventStop": "2022-11-17T03:59:00",
          "duration": 584,
          "status": "Genuine",
          "associatedSiteId": 109970,
          "outfallName": "CHICHESTER ROAD BOGNOR",
          "isImpacting": true,
          "overFlowSiteId": 103301
        },
        {
          "id": 343986219,
          "eventId": 670100,
          "siteUnitNumber": 12594,
          "bathingSite": "BOGNOR REGIS EAST",
          "eventStart": "2022-11-16T18:15:00",
          "eventStop": "2022-11-17T03:59:00",
          "duration": 584,
          "status": "Genuine",
          "associatedSiteId": 109970,
          "outfallName": "CHICHESTER ROAD BOGNOR",
          "isImpacting": true,
          "overFlowSiteId": 103301,
          "historicSpillsList": []
        },
        {
          "id": 343986220,
          "eventId": 670100,
          "siteUnitNumber": 12595,
          "bathingSite": "BOGNOR REGIS (ALDWICK)",
          "eventStart": "2022-11-16T18:15:00",
          "eventStop": "2022-11-17T03:59:00",
          "duration": 584,
          "status": "Genuine",
          "associatedSiteId": 109970,
          "outfallName": "CHICHESTER ROAD BOGNOR",
          "isImpacting": true,
          "overFlowSiteId": 103301,
          "historicSpillsList": []
        }
      ]
    }
  ]
}