{
  "currentPage": 548,
  "totalItems": 21025,
  "totalPages": 841,
  "items": [
    {
      "id": 344818521,
      "eventId": 637519,
      "siteUnitNumber": 12616,
      "bathingSite": "GURNARD",
      "eventStart": "2022-09-30T16:16:42",
      "eventStop": "2022-09-30T16:45:39",
      "duration": 28,
      "status": "Genuine",
      "associatedSiteId": 109706,
      "outfallName": "HIGH STREET COWES",
      "isImpacting": false,
      "overFlowSiteId": 0,
      "historicSpillsList": []
    },
    {
      "id": 344847919,
      "eventId": 637521,
      "siteUnitNumber": 12617,
      "bathingSite": "COWES",
      "eventStart": "2022-09-30T16:39:00",
      "eventStop": "2022-09-30T16:43:00",
      "duration": 4,
      "status": "Genuine",
      "associatedSiteId": 110701,
      "outfallName": "TERMINUS ROAD COWES 2",
      "isImpacting": true,
      "overFlowSiteId": 0,
      "historicSpillsList": [
        {
          "id": 344847919,
          "eventId": 637521,
          "siteUnitNumber": 12617,
          "bathingSite": "COWES",
          "eventStart": "2022-09-30T16:39:00",
          "eventStop": "2022-09-30T16:43:00",
          "duration": 4,
          "status": "Genuine",
          "associatedSiteId": 110701,
          "outfallName": "TERMINUS ROAD COWES 2",
          "isImpacting": true,
          "overFlowSiteId": 108562
        },
        {
          "id": 344847920,
          "eventId": 637521,
          "siteUnitNumber": 12616,
          "bathingSite": "GURNARD",
          "eventStart": "2022-09-30T16:39:00",
          "eventStop": "2022-09-30T16:43:00",
          "duration": 4,
          "status": "Genuine",
          "associatedSiteId": 110701,
          "outfallName": "TERMINUS ROAD COWES 2",
          "isImpacting": true,
          "overFlowSiteId": 108562,
          "historicSpillsList": []
        }
      ]
    },
    {
      "id": 344847921,
      "eventId": 637518,
      "siteUnitNumber": 12616,
      "bathingSite": "GURNARD",
      "eventStart": "2022-09-30T16:19:00",
      "eventStop": "2022-09-30T16:39:00",
      "duration": 20,
      "status": "Genuine",
      "associatedSiteId": 110701,
      "outfallName": "TERMINUS ROAD COWES 2",
      "isImpacting": true,
      "overFlowSiteId": 0,
      "historicSpillsList": [
        {
          "id": 344847921,
          "eventId": 637518,
          "siteUnitNumber": 12616,
          "bathingSite": "GURNARD",
          "eventStart": "2022-09-30T16:19:00",
          "eventStop": "2022-09-30T16:39:00",
          "duration": 20,
          "status": "Genuine",
          "associatedSiteId": 110701,
          "outfallName": "TERMINUS ROAD COWES 2",
          "isImpacting": true,
          "overFlowSiteId": 108563
        },
        {
          "id": 344847922,
          "eventId": 637518,
          "siteUnitNumber": 12617,
          "bathingSite": "COWES",
          "eventStart": "2022-09-30T16:19:00",
          "eventStop": "2022-09-30T16:39:00",
          "duration": 20,
          "status": "Genuine",
          "associatedSiteId": 110701,
          "outfallName": "TERMINUS ROAD COWES 2",
          "isImpacting": true,
          "overFlowSiteId": 108563,
          "historicSpillsList": []
        }
      ]
    },
    {
      "id": 344832173,
      "eventId": 637089,
      "siteUnitNumber": 12587,
      "bathingSite": "SOUTHWICK",
      "eventStart": "2022-09-29T00:59:14",
      "eventStop": "2022-09-29T01:30:33",
      "duration": 31,
      "status": "Not Genuine",
      "associatedSiteId": 109929,
      "outfallName": "SHOREHAM NO1",
      "isImpacting": true,
      "overFlowSiteId": 0,
      "historicSpillsList": []
    },
    {
      "id": 344832175,
      "eventId": 637083,
      "siteUnitNumber": 12586,
      "bathingSite": "HOVE",
      "eventStart": "2022-09-29T00:00:50",
      "eventStop": "2022-09-29T00:35:08",
      "duration": 34,
      "status": "Not Genuine",
      "associatedSiteId": 109929,
      "outfallName": "SHOREHAM NO1",
      "isImpacting": true,
      "overFlowSiteId": 0,
      "historicSpillsList": []
    },
    {
      "id": 344824549,
      "eventId": 636771,
      "siteUnitNumber": 12548,
      "bathingSite": "TANKERTON",
      "eventStart": "2022-09-27T14:40:04",
      "eventStop": "2022-09-27T15:33:48",
      "duration": 53,
      "status": "Genuine",
      "associatedSiteId": 109830,
      "outfallName": "SWALECLIFFE NO1",
      "isImpacting": true,
      "overFlowSiteId": 0,
      "historicSpillsList": [
        {
          "id": 344824550,
          "eventId": 636771,
          "siteUnitNumber": 12549,
          "bathingSite": "HERNE BAY CENTRAL",
          "eventStart": "2022-09-27T14:40:04",
          "eventStop": "2022-09-27T15:33:48",
          "duration": 53,
          "status": "Genuine",
          "associatedSiteId": 109830,
          "outfallName": "SWALECLIFFE NO1",
          "isImpacting": true,
          "overFlowSiteId": 115444,
          "historicSpillsList": []
        }
      ]
    },
    {
      "id": 344837890,
      "eventId": 636742,
      "siteUnitNumber": 12591,
      "bathingSite": "LITTLEHAMPTON",
      "eventStart": "2022-09-27T13:27:48",
      "eventStop": "2022-09-27T14:15:00",
      "duration": 47,
      "status": "Genuine",
      "associatedSiteId": 109968,
      "outfallName": "FORD ROAD ARUNDEL",
      "isImpacting": false,
      "overFlowSiteId": 0,
      "historicSpillsList": []
    },
    {
      "id": 344816701,
      "eventId": 636563,
      "siteUnitNumber": 12616,
      "bathingSite": "GURNARD",
      "eventStart": "2022-09-26T23:00:00",
      "eventStop": "2022-09-26T23:45:00",
      "duration": 45,
      "status": "Not Genuine",
      "associatedSiteId": 109700,
      "outfallName": "MARKET HILL COWES",
      "isImpacting": false,
      "overFlowSiteId": 0,
      "historicSpillsList": []
    },
    {
      "id": 344812369,
      "eventId": 636426,
      "siteUnitNumber": 12618,
      "bathingSite": "RYDE",
      "eventStart": "2022-09-26T13:00:00",
      "eventStop": "2022-09-26T13:15:00",
      "duration": 15,
      "status": "Not Genuine",
      "associatedSiteId": 102050,
      "outfallName": "ESPLANADE SEAVIEW",
      "isImpacting": false,
      "overFlowSiteId": 0,
      "historicSpillsList": []
    },
    {
      "id": 344847923,
      "eventId": 636321,
      "siteUnitNumber": 12616,
      "bathingSite": "GURNARD",
      "eventStart": "2022-09-26T07:35:00",
      "eventStop": "2022-09-26T11:45:00",
      "duration": 250,
      "status": "Genuine",
      "associatedSiteId": 110701,
      "outfallName": "TERMINUS ROAD COWES 2",
      "isImpacting": true,
      "overFlowSiteId": 0,
      "historicSpillsList": [
        {
          "id": 344847923,
          "eventId": 636321,
          "siteUnitNumber": 12616,
          "bathingSite": "GURNARD",
          "eventStart": "2022-09-26T07:35:00",
          "eventStop": "2022-09-26T11:45:00",
          "duration": 250,
          "status": "Genuine",
          "associatedSiteId": 110701,
          "outfallName": "TERMINUS ROAD COWES 2",
          "isImpacting": true,
          "overFlowSiteId": 108563
        },
        {
          "id": 344847924,
          "eventId": 636321,
          "siteUnitNumber": 12617,
          "bathingSite": "COWES",
          "eventStart": "2022-09-26T07:35:00",
          "eventStop": "2022-09-26T11:45:00",
          "duration": 250,
          "status": "Genuine",
          "associatedSiteId": 110701,
          "outfallName": "TERMINUS ROAD COWES 2",
          "isImpacting": true,
          "overFlowSiteId": 108563,
          "historicSpillsList": []
        }
      ]
    },
    {
      "id": 344830440,
      "eventId": 636410,
      "siteUnitNumber": 12576,
      "bathingSite": "ST LEONARDS",
      "eventStart": "2022-09-26T10:49:21",
      "eventStop": "2022-09-26T11:14:27",
      "duration": 25,
      "status": "Genuine",
      "associatedSiteId": 109903,
      "outfallName": "BEXHILL & HASTINGS NO2",
      "isImpacting": true,
      "overFlowSiteId": 0,
      "historicSpillsList": [
        {
          "id": 344830440,
          "eventId": 636410,
          "siteUnitNumber": 12576,
          "bathingSite": "ST LEONARDS",
          "eventStart": "2022-09-26T10:49:21",
          "eventStop": "2022-09-26T11:14:27",
          "duration": 25,
          "status": "Genuine",
          "associatedSiteId": 109903,
          "outfallName": "BEXHILL & HASTINGS NO2",
          "isImpacting": true,
          "overFlowSiteId": 115398
        },
        {
          "id": 344830441,
          "eventId": 636410,
          "siteUnitNumber": 12577,
          "bathingSite": "BEXHILL",
          "eventStart": "2022-09-26T10:49:21",
          "eventStop": "2022-09-26T11:14:27",
          "duration": 25,
          "status": "Genuine",
          "associatedSiteId": 109903,
          "outfallName": "BEXHILL & HASTINGS NO2",
          "isImpacting": true,
          "overFlowSiteId": 115398,
          "historicSpillsList": []
        }
      ]
    },
    {
      "id": 344830438,
      "eventId": 636315,
      "siteUnitNumber": 12576,
      "bathingSite": "ST LEONARDS",
      "eventStart": "2022-09-26T07:27:43",
      "eventStop": "2022-09-26T10:12:00",
      "duration": 164,
      "status": "Genuine",
      "associatedSiteId": 109903,
      "outfallName": "BEXHILL & HASTINGS NO2",
      "isImpacting": true,
      "overFlowSiteId": 0,
      "historicSpillsList": [
        {
          "id": 344830438,
          "eventId": 636315,
          "siteUnitNumber": 12576,
          "bathingSite": "ST LEONARDS",
          "eventStart": "2022-09-26T07:27:43",
          "eventStop": "2022-09-26T10:12:00",
          "duration": 164,
          "status": "Genuine",
          "associatedSiteId": 109903,
          "outfallName": "BEXHILL & HASTINGS NO2",
          "isImpacting": true,
          "overFlowSiteId": 115398
        },
        {
          "id": 344830439,
          "eventId": 636315,
          "siteUnitNumber": 12577,
          "bathingSite": "BEXHILL",
          "eventStart": "2022-09-26T07:27:43",
          "eventStop": "2022-09-26T10:12:00",
          "duration": 164,
          "status": "Genuine",
          "associatedSiteId": 109903,
          "outfallName": "BEXHILL & HASTINGS NO2",
          "isImpacting": true,
          "overFlowSiteId": 115398,
          "historicSpillsList": []
        }
      ]
    },
    {
      "id": 344852480,
      "eventId": 636438,
      "siteUnitNumber": 12614,
      "bathingSite": "TOTLAND BAY",
      "eventStart": "2022-09-26T09:09:00",
      "eventStop": "2022-09-26T09:35:00",
      "duration": 26,
      "status": "Genuine",
      "associatedSiteId": 115498,
      "outfallName": "NORTON TRANSFER IOW",
      "isImpacting": true,
      "overFlowSiteId": 0,
      "historicSpillsList": [
        {
          "id": 344852480,
          "eventId": 636438,
          "siteUnitNumber": 12614,
          "bathingSite": "TOTLAND BAY",
          "eventStart": "2022-09-26T09:09:00",
          "eventStop": "2022-09-26T09:35:00",
          "duration": 26,
          "status": "Genuine",
          "associatedSiteId": 115498,
          "outfallName": "NORTON TRANSFER IOW",
          "isImpacting": true,
          "overFlowSiteId": 108544
        },
        {
          "id": 344852481,
          "eventId": 636438,
          "siteUnitNumber": 12615,
          "bathingSite": "COLWELL BAY",
          "eventStart": "2022-09-26T09:09:00",
          "eventStop": "2022-09-26T09:35:00",
          "duration": 26,
          "status": "Genuine",
          "associatedSiteId": 115498,
          "outfallName": "NORTON TRANSFER IOW",
          "isImpacting": true,
          "overFlowSiteId": 108544,
          "historicSpillsList": []
        }
      ]
    },
    {
      "id": 344849046,
      "eventId": 636281,
      "siteUnitNumber": 12582,
      "bathingSite": "SEAFORD",
      "eventStart": "2022-09-26T06:12:21",
      "eventStop": "2022-09-26T08:34:30",
      "duration": 142,
      "status": "Genuine",
      "associatedSiteId": 110920,
      "outfallName": "NEWHAVEN",
      "isImpacting": false,
      "overFlowSiteId": 0,
      "historicSpillsList": []
    },
    {
      "id": 344824553,
      "eventId": 636266,
      "siteUnitNumber": 12548,
      "bathingSite": "TANKERTON",
      "eventStart": "2022-09-26T05:47:09",
      "eventStop": "2022-09-26T07:18:34",
      "duration": 91,
      "status": "Genuine",
      "associatedSiteId": 109830,
      "outfallName": "SWALECLIFFE NO1",
      "isImpacting": false,
      "overFlowSiteId": 0,
      "historicSpillsList": []
    },
    {
      "id": 344828718,
      "eventId": 636068,
      "siteUnitNumber": 12568,
      "bathingSite": "SANDGATE",
      "eventStart": "2022-09-25T07:15:00",
      "eventStop": "2022-09-25T08:15:00",
      "duration": 60,
      "status": "Genuine",
      "associatedSiteId": 109897,
      "outfallName": "RANGE ROAD HYTHE K LONG",
      "isImpacting": false,
      "overFlowSiteId": 0,
      "historicSpillsList": []
    },
    {
      "id": 344820996,
      "eventId": 635869,
      "siteUnitNumber": 12617,
      "bathingSite": "COWES",
      "eventStart": "2022-09-24T11:14:10",
      "eventStop": "2022-09-24T13:20:00",
      "duration": 125,
      "status": "Genuine",
      "associatedSiteId": 109777,
      "outfallName": "APPLEY PARK RYDE TRANSFER",
      "isImpacting": false,
      "overFlowSiteId": 0,
      "historicSpillsList": []
    },
    {
      "id": 344841679,
      "eventId": 635358,
      "siteUnitNumber": 12622,
      "bathingSite": "WHITECLIFF BAY",
      "eventStart": "2022-09-23T17:43:00",
      "eventStop": "2022-09-24T10:30:00",
      "duration": 1007,
      "status": "Not Genuine",
      "associatedSiteId": 110096,
      "outfallName": "SANDOWN NO1",
      "isImpacting": true,
      "overFlowSiteId": 0,
      "historicSpillsList": []
    },
    {
      "id": 344830444,
      "eventId": 635490,
      "siteUnitNumber": 12576,
      "bathingSite": "ST LEONARDS",
      "eventStart": "2022-09-23T12:57:40",
      "eventStop": "2022-09-24T04:22:00",
      "duration": 924,
      "status": "Genuine",
      "associatedSiteId": 109903,
      "outfallName": "BEXHILL & HASTINGS NO2",
      "isImpacting": true,
      "overFlowSiteId": 0,
      "historicSpillsList": [
        {
          "id": 344830444,
          "eventId": 635490,
          "siteUnitNumber": 12576,
          "bathingSite": "ST LEONARDS",
          "eventStart": "2022-09-23T12:57:40",
          "eventStop": "2022-09-24T04:22:00",
          "duration": 924,
          "status": "Genuine",
          "associatedSiteId": 109903,
          "outfallName": "BEXHILL & HASTINGS NO2",
          "isImpacting": true,
          "overFlowSiteId": 115398
        },
        {
          "id": 344830445,
          "eventId": 635490,
          "siteUnitNumber": 12577,
          "bathingSite": "BEXHILL",
          "eventStart": "2022-09-23T12:57:40",
          "eventStop": "2022-09-24T04:22:00",
          "duration": 924,
          "status": "Genuine",
          "associatedSiteId": 109903,
          "outfallName": "BEXHILL & HASTINGS NO2",
          "isImpacting": true,
          "overFlowSiteId": 115398,
          "historicSpillsList": []
        }
      ]
    },
    {
      "id": 344832643,
      "eventId": 635706,
      "siteUnitNumber": 12581,
      "bathingSite": "BIRLING GAP",
      "eventStart": "2022-09-23T22:30:00",
      "eventStop": "2022-09-24T00:15:00",
      "duration": 105,
      "status": "Not Genuine",
      "associatedSiteId": 109936,
      "outfallName": "EAST DEAN",
      "isImpacting": true,
      "overFlowSiteId": 0,
      "historicSpillsList": []
    },
    {
      "id": 344849045,
      "eventId": 635647,
      "siteUnitNumber": 12582,
      "bathingSite": "SEAFORD",
      "eventStart": "2022-09-23T20:29:27",
      "eventStop": "2022-09-23T23:37:23",
      "duration": 187,
      "status": "Genuine",
      "associatedSiteId": 110920,
      "outfallName": "NEWHAVEN",
      "isImpacting": false,
      "overFlowSiteId": 0,
      "historicSpillsList": []
    },
    {
      "id": 344834322,
      "eventId": 635704,
      "siteUnitNumber": 12582,
      "bathingSite": "SEAFORD",
      "eventStart": "2022-09-23T22:24:13",
      "eventStop": "2022-09-23T22:39:00",
      "duration": 14,
      "status": "Genuine",
      "associatedSiteId": 109957,
      "outfallName": "PORTOBELLO BRIGHTON NO2",
      "isImpacting": false,
      "overFlowSiteId": 0,
      "historicSpillsList": []
    },
    {
      "id": 344832642,
      "eventId": 635672,
      "siteUnitNumber": 12581,
      "bathingSite": "BIRLING GAP",
      "eventStart": "2022-09-23T21:30:00",
      "eventStop": "2022-09-23T22:23:00",
      "duration": 53,
      "status": "Genuine",
      "associatedSiteId": 109936,
      "outfallName": "EAST DEAN",
      "isImpacting": true,
      "overFlowSiteId": 0,
      "historicSpillsList": [
        {
          "id": 344832642,
          "eventId": 635672,
          "siteUnitNumber": 12581,
          "bathingSite": "BIRLING GAP",
          "eventStart": "2022-09-23T21:30:00",
          "eventStop": "2022-09-23T22:23:00",
          "duration": 53,
          "status": "Genuine",
          "associatedSiteId": 109936,
          "outfallName": "EAST DEAN",
          "isImpacting": true,
          "overFlowSiteId": 115829
        }
      ]
    },
    {
      "id": 344820994,
      "eventId": 636060,
      "siteUnitNumber": 12617,
      "bathingSite": "COWES",
      "eventStart": "2022-09-23T19:55:00",
      "eventStop": "2022-09-23T21:55:00",
      "duration": 120,
      "status": "Genuine",
      "associatedSiteId": 109777,
      "outfallName": "APPLEY PARK RYDE TRANSFER",
      "isImpacting": true,
      "overFlowSiteId": 0,
      "historicSpillsList": [
        {
          "id": 344820994,
          "eventId": 636060,
          "siteUnitNumber": 12617,
          "bathingSite": "COWES",
          "eventStart": "2022-09-23T19:55:00",
          "eventStop": "2022-09-23T21:55:00",
          "duration": 120,
          "status": "Genuine",
          "associatedSiteId": 109777,
          "outfallName": "APPLEY PARK RYDE TRANSFER",
          "isImpacting": true,
          "overFlowSiteId": 108941
        },
        {
          "id": 344820995,
          "eventId": 636060,
          "siteUnitNumber": 12618,
          "bathingSite": "RYDE",
          "eventStart": "2022-09-23T19:55:00",
          "eventStop": "2022-09-23T21:55:00",
          "duration": 120,
          "status": "Genuine",
          "associatedSiteId": 109777,
          "outfallName": "APPLEY PARK RYDE TRANSFER",
          "isImpacting": true,
          "overFlowSiteId": 108941,
          "historicSpillsList": []
        }
      ]
    },
    {
      "id": 344854149,
      "eventId": 635569,
      "siteUnitNumber": 12577,
      "bathingSite": "BEXHILL",
      "eventStart": "2022-09-23T19:11:00",
      "eventStop": "2022-09-23T20:19:00",
      "duration": 68,
      "status": "Genuine",
      "associatedSiteId": 115499,
      "outfallName": "BROCKLEY ROAD BEXHILL",
      "isImpacting": true,
      "overFlowSiteId": 0,
      "historicSpillsList": [
        {
          "id": 344854149,
          "eventId": 635569,
          "siteUnitNumber": 12577,
          "bathingSite": "BEXHILL",
          "eventStart": "2022-09-23T19:11:00",
          "eventStop": "2022-09-23T20:19:00",
          "duration": 68,
          "status": "Genuine",
          "associatedSiteId": 115499,
          "outfallName": "BROCKLEY ROAD BEXHILL",
          "isImpacting": true,
          "overFlowSiteId": 103297
        }
      ]
    }
  ]
}