{
  "currentPage": 57,
  "totalItems": 18701,
  "totalPages": 749,
  "items": [
    {
      "id": 343956768,
      "eventId": 906116,
      "siteUnitNumber": 12614,
      "bathingSite": "TOTLAND BAY",
      "eventStart": "2023-11-13T06:47:53",
      "eventStop": "2023-11-13T07:04:03",
      "duration": 16,
      "status": "Genuine",
      "associatedSiteId": 115498,
      "outfallName": "NORTON TRANSFER IOW",
      "isImpacting": true,
      "overFlowSiteId": 0,
      "historicSpillsList": [
        {
          "id": 343956768,
          "eventId": 906116,
          "siteUnitNumber": 12614,
          "bathingSite": "TOTLAND BAY",
          "eventStart": "2023-11-13T06:47:53",
          "eventStop": "2023-11-13T07:04:03",
          "duration": 16,
          "status": "Genuine",
          "associatedSiteId": 115498,
          "outfallName": "NORTON TRANSFER IOW",
          "isImpacting": true,
          "overFlowSiteId": 109524
        },
        {
          "id": 343956769,
          "eventId": 906116,
          "siteUnitNumber": 12615,
          "bathingSite": "COLWELL BAY",
          "eventStart": "2023-11-13T06:47:53",
          "eventStop": "2023-11-13T07:04:03",
          "duration": 16,
          "status": "Genuine",
          "associatedSiteId": 115498,
          "outfallName": "NORTON TRANSFER IOW",
          "isImpacting": true,
          "overFlowSiteId": 109524,
          "historicSpillsList": []
        }
      ]
    },
    {
      "id": 343955239,
      "eventId": 905994,
      "siteUnitNumber": 12549,
      "bathingSite": "HERNE BAY CENTRAL",
      "eventStart": "2023-11-13T05:18:00",
      "eventStop": "2023-11-13T07:00:00",
      "duration": 102,
      "status": "Genuine",
      "associatedSiteId": 111724,
      "outfallName": "GAINSBOROUGH DRIVE HERNE BAY",
      "isImpacting": false,
      "overFlowSiteId": 0,
      "historicSpillsList": []
    },
    {
      "id": 343918220,
      "eventId": 905978,
      "siteUnitNumber": 12544,
      "bathingSite": "SHEERNESS",
      "eventStart": "2023-11-13T04:11:00",
      "eventStop": "2023-11-13T06:58:00",
      "duration": 167,
      "status": "Genuine",
      "associatedSiteId": 109614,
      "outfallName": "BRIELLE WAY WESTMINSTER",
      "isImpacting": false,
      "overFlowSiteId": 0,
      "historicSpillsList": []
    },
    {
      "id": 343921380,
      "eventId": 906119,
      "siteUnitNumber": 12549,
      "bathingSite": "HERNE BAY CENTRAL",
      "eventStart": "2023-11-13T06:54:13",
      "eventStop": "2023-11-13T06:57:37",
      "duration": 3,
      "status": "Genuine",
      "associatedSiteId": 109678,
      "outfallName": "EDDINGTON LANE HERNE BAY NO2",
      "isImpacting": false,
      "overFlowSiteId": 0,
      "historicSpillsList": []
    },
    {
      "id": 343918500,
      "eventId": 905921,
      "siteUnitNumber": 12544,
      "bathingSite": "SHEERNESS",
      "eventStart": "2023-11-13T06:46:00",
      "eventStop": "2023-11-13T06:57:00",
      "duration": 11,
      "status": "Genuine",
      "associatedSiteId": 109619,
      "outfallName": "WARDS HILL ROAD MINSTER IOS",
      "isImpacting": false,
      "overFlowSiteId": 0,
      "historicSpillsList": []
    },
    {
      "id": 343956770,
      "eventId": 906033,
      "siteUnitNumber": 12615,
      "bathingSite": "COLWELL BAY",
      "eventStart": "2023-11-13T06:21:14",
      "eventStop": "2023-11-13T06:46:41",
      "duration": 25,
      "status": "Genuine",
      "associatedSiteId": 115498,
      "outfallName": "NORTON TRANSFER IOW",
      "isImpacting": true,
      "overFlowSiteId": 0,
      "historicSpillsList": [
        {
          "id": 343956770,
          "eventId": 906033,
          "siteUnitNumber": 12615,
          "bathingSite": "COLWELL BAY",
          "eventStart": "2023-11-13T06:21:14",
          "eventStop": "2023-11-13T06:46:41",
          "duration": 25,
          "status": "Genuine",
          "associatedSiteId": 115498,
          "outfallName": "NORTON TRANSFER IOW",
          "isImpacting": true,
          "overFlowSiteId": 109524
        },
        {
          "id": 343956771,
          "eventId": 906033,
          "siteUnitNumber": 12614,
          "bathingSite": "TOTLAND BAY",
          "eventStart": "2023-11-13T06:21:14",
          "eventStop": "2023-11-13T06:46:41",
          "duration": 25,
          "status": "Genuine",
          "associatedSiteId": 115498,
          "outfallName": "NORTON TRANSFER IOW",
          "isImpacting": true,
          "overFlowSiteId": 109524,
          "historicSpillsList": []
        }
      ]
    },
    {
      "id": 343931863,
      "eventId": 905775,
      "siteUnitNumber": 12544,
      "bathingSite": "SHEERNESS",
      "eventStart": "2023-11-13T04:16:23",
      "eventStop": "2023-11-13T06:30:00",
      "duration": 133,
      "status": "Genuine",
      "associatedSiteId": 109869,
      "outfallName": "GRAIN NO2",
      "isImpacting": true,
      "overFlowSiteId": 0,
      "historicSpillsList": [
        {
          "id": 343931863,
          "eventId": 905775,
          "siteUnitNumber": 12544,
          "bathingSite": "SHEERNESS",
          "eventStart": "2023-11-13T04:16:23",
          "eventStop": "2023-11-13T06:30:00",
          "duration": 133,
          "status": "Genuine",
          "associatedSiteId": 109869,
          "outfallName": "GRAIN NO2",
          "isImpacting": true,
          "overFlowSiteId": 115411
        }
      ]
    },
    {
      "id": 343921382,
      "eventId": 906075,
      "siteUnitNumber": 12549,
      "bathingSite": "HERNE BAY CENTRAL",
      "eventStart": "2023-11-13T06:25:10",
      "eventStop": "2023-11-13T06:28:36",
      "duration": 3,
      "status": "Genuine",
      "associatedSiteId": 109678,
      "outfallName": "EDDINGTON LANE HERNE BAY NO2",
      "isImpacting": false,
      "overFlowSiteId": 0,
      "historicSpillsList": []
    },
    {
      "id": 343939334,
      "eventId": 905473,
      "siteUnitNumber": 12582,
      "bathingSite": "SEAFORD",
      "eventStart": "2023-11-13T01:51:11",
      "eventStop": "2023-11-13T06:18:23",
      "duration": 267,
      "status": "Genuine",
      "associatedSiteId": 109957,
      "outfallName": "PORTOBELLO BRIGHTON NO2",
      "isImpacting": true,
      "overFlowSiteId": 0,
      "historicSpillsList": [
        {
          "id": 343939335,
          "eventId": 905473,
          "siteUnitNumber": 12583,
          "bathingSite": "SALTDEAN",
          "eventStart": "2023-11-13T01:51:11",
          "eventStop": "2023-11-13T06:18:23",
          "duration": 267,
          "status": "Genuine",
          "associatedSiteId": 109957,
          "outfallName": "PORTOBELLO BRIGHTON NO2",
          "isImpacting": true,
          "overFlowSiteId": 116036,
          "historicSpillsList": []
        }
      ]
    },
    {
      "id": 343956772,
      "eventId": 906025,
      "siteUnitNumber": 12614,
      "bathingSite": "TOTLAND BAY",
      "eventStart": "2023-11-13T06:04:35",
      "eventStop": "2023-11-13T06:17:02",
      "duration": 12,
      "status": "Genuine",
      "associatedSiteId": 115498,
      "outfallName": "NORTON TRANSFER IOW",
      "isImpacting": true,
      "overFlowSiteId": 0,
      "historicSpillsList": [
        {
          "id": 343956772,
          "eventId": 906025,
          "siteUnitNumber": 12614,
          "bathingSite": "TOTLAND BAY",
          "eventStart": "2023-11-13T06:04:35",
          "eventStop": "2023-11-13T06:17:02",
          "duration": 12,
          "status": "Genuine",
          "associatedSiteId": 115498,
          "outfallName": "NORTON TRANSFER IOW",
          "isImpacting": true,
          "overFlowSiteId": 109524
        },
        {
          "id": 343956773,
          "eventId": 906025,
          "siteUnitNumber": 12615,
          "bathingSite": "COLWELL BAY",
          "eventStart": "2023-11-13T06:04:35",
          "eventStop": "2023-11-13T06:17:02",
          "duration": 12,
          "status": "Genuine",
          "associatedSiteId": 115498,
          "outfallName": "NORTON TRANSFER IOW",
          "isImpacting": true,
          "overFlowSiteId": 109524,
          "historicSpillsList": []
        }
      ]
    },
    {
      "id": 343932158,
      "eventId": 917822,
      "siteUnitNumber": 12568,
      "bathingSite": "SANDGATE",
      "eventStart": "2023-11-13T04:41:00",
      "eventStop": "2023-11-13T06:10:00",
      "duration": 89,
      "status": "Genuine",
      "associatedSiteId": 109896,
      "outfallName": "RANGE ROAD HYTHE K SHORT",
      "isImpacting": false,
      "overFlowSiteId": 0,
      "historicSpillsList": []
    },
    {
      "id": 343927556,
      "eventId": 910190,
      "siteUnitNumber": 12618,
      "bathingSite": "RYDE",
      "eventStart": "2023-11-13T04:53:00",
      "eventStop": "2023-11-13T06:07:00",
      "duration": 74,
      "status": "Genuine",
      "associatedSiteId": 109780,
      "outfallName": "LADIES WALK BINSTEAD",
      "isImpacting": true,
      "overFlowSiteId": 0,
      "historicSpillsList": [
        {
          "id": 343927556,
          "eventId": 910190,
          "siteUnitNumber": 12618,
          "bathingSite": "RYDE",
          "eventStart": "2023-11-13T04:53:00",
          "eventStop": "2023-11-13T06:07:00",
          "duration": 74,
          "status": "Genuine",
          "associatedSiteId": 109780,
          "outfallName": "LADIES WALK BINSTEAD",
          "isImpacting": true,
          "overFlowSiteId": 107406
        }
      ]
    },
    {
      "id": 343921384,
      "eventId": 906061,
      "siteUnitNumber": 12549,
      "bathingSite": "HERNE BAY CENTRAL",
      "eventStart": "2023-11-13T06:02:00",
      "eventStop": "2023-11-13T06:04:24",
      "duration": 2,
      "status": "Genuine",
      "associatedSiteId": 109678,
      "outfallName": "EDDINGTON LANE HERNE BAY NO2",
      "isImpacting": false,
      "overFlowSiteId": 0,
      "historicSpillsList": []
    },
    {
      "id": 343956776,
      "eventId": 905987,
      "siteUnitNumber": 12614,
      "bathingSite": "TOTLAND BAY",
      "eventStart": "2023-11-13T05:43:58",
      "eventStop": "2023-11-13T06:03:25",
      "duration": 19,
      "status": "Genuine",
      "associatedSiteId": 115498,
      "outfallName": "NORTON TRANSFER IOW",
      "isImpacting": true,
      "overFlowSiteId": 0,
      "historicSpillsList": [
        {
          "id": 343956776,
          "eventId": 905987,
          "siteUnitNumber": 12614,
          "bathingSite": "TOTLAND BAY",
          "eventStart": "2023-11-13T05:43:58",
          "eventStop": "2023-11-13T06:03:25",
          "duration": 19,
          "status": "Genuine",
          "associatedSiteId": 115498,
          "outfallName": "NORTON TRANSFER IOW",
          "isImpacting": true,
          "overFlowSiteId": 109524
        },
        {
          "id": 343956777,
          "eventId": 905987,
          "siteUnitNumber": 12615,
          "bathingSite": "COLWELL BAY",
          "eventStart": "2023-11-13T05:43:58",
          "eventStop": "2023-11-13T06:03:25",
          "duration": 19,
          "status": "Genuine",
          "associatedSiteId": 115498,
          "outfallName": "NORTON TRANSFER IOW",
          "isImpacting": true,
          "overFlowSiteId": 109524,
          "historicSpillsList": []
        }
      ]
    },
    {
      "id": 343943278,
      "eventId": 905444,
      "siteUnitNumber": 12591,
      "bathingSite": "LITTLEHAMPTON",
      "eventStart": "2023-11-13T01:28:52",
      "eventStop": "2023-11-13T06:01:42",
      "duration": 272,
      "status": "Genuine",
      "associatedSiteId": 109968,
      "outfallName": "FORD ROAD ARUNDEL",
      "isImpacting": true,
      "overFlowSiteId": 0,
      "historicSpillsList": [
        {
          "id": 343943278,
          "eventId": 905444,
          "siteUnitNumber": 12591,
          "bathingSite": "LITTLEHAMPTON",
          "eventStart": "2023-11-13T01:28:52",
          "eventStop": "2023-11-13T06:01:42",
          "duration": 272,
          "status": "Genuine",
          "associatedSiteId": 109968,
          "outfallName": "FORD ROAD ARUNDEL",
          "isImpacting": true,
          "overFlowSiteId": 108002
        }
      ]
    },
    {
      "id": 343952901,
      "eventId": 911056,
      "siteUnitNumber": 12616,
      "bathingSite": "GURNARD",
      "eventStart": "2023-11-13T00:25:00",
      "eventStop": "2023-11-13T05:51:00",
      "duration": 326,
      "status": "Genuine",
      "associatedSiteId": 110701,
      "outfallName": "TERMINUS ROAD COWES 2",
      "isImpacting": true,
      "overFlowSiteId": 0,
      "historicSpillsList": [
        {
          "id": 343952901,
          "eventId": 911056,
          "siteUnitNumber": 12616,
          "bathingSite": "GURNARD",
          "eventStart": "2023-11-13T00:25:00",
          "eventStop": "2023-11-13T05:51:00",
          "duration": 326,
          "status": "Genuine",
          "associatedSiteId": 110701,
          "outfallName": "TERMINUS ROAD COWES 2",
          "isImpacting": true,
          "overFlowSiteId": 108562
        },
        {
          "id": 343952902,
          "eventId": 911056,
          "siteUnitNumber": 12617,
          "bathingSite": "COWES",
          "eventStart": "2023-11-13T00:25:00",
          "eventStop": "2023-11-13T05:51:00",
          "duration": 326,
          "status": "Genuine",
          "associatedSiteId": 110701,
          "outfallName": "TERMINUS ROAD COWES 2",
          "isImpacting": true,
          "overFlowSiteId": 108562,
          "historicSpillsList": []
        }
      ]
    },
    {
      "id": 343930658,
      "eventId": 905913,
      "siteUnitNumber": 12547,
      "bathingSite": "WEST BEACH WHITSTABLE",
      "eventStart": "2023-11-13T04:51:00",
      "eventStop": "2023-11-13T05:41:00",
      "duration": 50,
      "status": "Genuine",
      "associatedSiteId": 109831,
      "outfallName": "TANKERTON CIRCUS",
      "isImpacting": false,
      "overFlowSiteId": 0,
      "historicSpillsList": []
    },
    {
      "id": 343956778,
      "eventId": 905937,
      "siteUnitNumber": 12614,
      "bathingSite": "TOTLAND BAY",
      "eventStart": "2023-11-13T05:27:03",
      "eventStop": "2023-11-13T05:39:18",
      "duration": 12,
      "status": "Genuine",
      "associatedSiteId": 115498,
      "outfallName": "NORTON TRANSFER IOW",
      "isImpacting": true,
      "overFlowSiteId": 0,
      "historicSpillsList": [
        {
          "id": 343956778,
          "eventId": 905937,
          "siteUnitNumber": 12614,
          "bathingSite": "TOTLAND BAY",
          "eventStart": "2023-11-13T05:27:03",
          "eventStop": "2023-11-13T05:39:18",
          "duration": 12,
          "status": "Genuine",
          "associatedSiteId": 115498,
          "outfallName": "NORTON TRANSFER IOW",
          "isImpacting": true,
          "overFlowSiteId": 109524
        },
        {
          "id": 343956779,
          "eventId": 905937,
          "siteUnitNumber": 12615,
          "bathingSite": "COLWELL BAY",
          "eventStart": "2023-11-13T05:27:03",
          "eventStop": "2023-11-13T05:39:18",
          "duration": 12,
          "status": "Genuine",
          "associatedSiteId": 115498,
          "outfallName": "NORTON TRANSFER IOW",
          "isImpacting": true,
          "overFlowSiteId": 109524,
          "historicSpillsList": []
        }
      ]
    },
    {
      "id": 343943693,
      "eventId": 905652,
      "siteUnitNumber": 12592,
      "bathingSite": "MIDDLETON-ON-SEA",
      "eventStart": "2023-11-13T04:17:00",
      "eventStop": "2023-11-13T05:29:00",
      "duration": 72,
      "status": "Genuine",
      "associatedSiteId": 109972,
      "outfallName": "BOGNOR MAIN",
      "isImpacting": true,
      "overFlowSiteId": 0,
      "historicSpillsList": [
        {
          "id": 343943688,
          "eventId": 905652,
          "siteUnitNumber": 12593,
          "bathingSite": "FELPHAM",
          "eventStart": "2023-11-13T04:17:00",
          "eventStop": "2023-11-13T05:29:00",
          "duration": 72,
          "status": "Genuine",
          "associatedSiteId": 109972,
          "outfallName": "BOGNOR MAIN",
          "isImpacting": true,
          "overFlowSiteId": 107412,
          "historicSpillsList": []
        }
      ]
    },
    {
      "id": 343918311,
      "eventId": 905812,
      "siteUnitNumber": 12544,
      "bathingSite": "SHEERNESS",
      "eventStart": "2023-11-13T05:04:00",
      "eventStop": "2023-11-13T05:28:00",
      "duration": 24,
      "status": "Genuine",
      "associatedSiteId": 109616,
      "outfallName": "SOUTH STREET QUEENBOROUGH",
      "isImpacting": true,
      "overFlowSiteId": 0,
      "historicSpillsList": [
        {
          "id": 343918311,
          "eventId": 905812,
          "siteUnitNumber": 12544,
          "bathingSite": "SHEERNESS",
          "eventStart": "2023-11-13T05:04:00",
          "eventStop": "2023-11-13T05:28:00",
          "duration": 24,
          "status": "Genuine",
          "associatedSiteId": 109616,
          "outfallName": "SOUTH STREET QUEENBOROUGH",
          "isImpacting": true,
          "overFlowSiteId": 108732
        }
      ]
    },
    {
      "id": 343956780,
      "eventId": 905935,
      "siteUnitNumber": 12615,
      "bathingSite": "COLWELL BAY",
      "eventStart": "2023-11-13T05:16:00",
      "eventStop": "2023-11-13T05:24:30",
      "duration": 8,
      "status": "Genuine",
      "associatedSiteId": 115498,
      "outfallName": "NORTON TRANSFER IOW",
      "isImpacting": true,
      "overFlowSiteId": 0,
      "historicSpillsList": [
        {
          "id": 343956780,
          "eventId": 905935,
          "siteUnitNumber": 12615,
          "bathingSite": "COLWELL BAY",
          "eventStart": "2023-11-13T05:16:00",
          "eventStop": "2023-11-13T05:24:30",
          "duration": 8,
          "status": "Genuine",
          "associatedSiteId": 115498,
          "outfallName": "NORTON TRANSFER IOW",
          "isImpacting": true,
          "overFlowSiteId": 109524
        },
        {
          "id": 343956781,
          "eventId": 905935,
          "siteUnitNumber": 12614,
          "bathingSite": "TOTLAND BAY",
          "eventStart": "2023-11-13T05:16:00",
          "eventStop": "2023-11-13T05:24:30",
          "duration": 8,
          "status": "Genuine",
          "associatedSiteId": 115498,
          "outfallName": "NORTON TRANSFER IOW",
          "isImpacting": true,
          "overFlowSiteId": 109524,
          "historicSpillsList": []
        }
      ]
    },
    {
      "id": 343956762,
      "eventId": 906209,
      "siteUnitNumber": 12614,
      "bathingSite": "TOTLAND BAY",
      "eventStart": "2023-11-13T05:18:00",
      "eventStop": "2023-11-13T05:23:00",
      "duration": 5,
      "status": "Genuine",
      "associatedSiteId": 115498,
      "outfallName": "NORTON TRANSFER IOW",
      "isImpacting": true,
      "overFlowSiteId": 0,
      "historicSpillsList": [
        {
          "id": 343956762,
          "eventId": 906209,
          "siteUnitNumber": 12614,
          "bathingSite": "TOTLAND BAY",
          "eventStart": "2023-11-13T05:18:00",
          "eventStop": "2023-11-13T05:23:00",
          "duration": 5,
          "status": "Genuine",
          "associatedSiteId": 115498,
          "outfallName": "NORTON TRANSFER IOW",
          "isImpacting": true,
          "overFlowSiteId": 109524
        },
        {
          "id": 343956763,
          "eventId": 906209,
          "siteUnitNumber": 12615,
          "bathingSite": "COLWELL BAY",
          "eventStart": "2023-11-13T05:18:00",
          "eventStop": "2023-11-13T05:23:00",
          "duration": 5,
          "status": "Genuine",
          "associatedSiteId": 115498,
          "outfallName": "NORTON TRANSFER IOW",
          "isImpacting": true,
          "overFlowSiteId": 109524,
          "historicSpillsList": []
        }
      ]
    },
    {
      "id": 343956782,
      "eventId": 905891,
      "siteUnitNumber": 12614,
      "bathingSite": "TOTLAND BAY",
      "eventStart": "2023-11-13T04:59:38",
      "eventStop": "2023-11-13T05:14:03",
      "duration": 14,
      "status": "Genuine",
      "associatedSiteId": 115498,
      "outfallName": "NORTON TRANSFER IOW",
      "isImpacting": true,
      "overFlowSiteId": 0,
      "historicSpillsList": [
        {
          "id": 343956782,
          "eventId": 905891,
          "siteUnitNumber": 12614,
          "bathingSite": "TOTLAND BAY",
          "eventStart": "2023-11-13T04:59:38",
          "eventStop": "2023-11-13T05:14:03",
          "duration": 14,
          "status": "Genuine",
          "associatedSiteId": 115498,
          "outfallName": "NORTON TRANSFER IOW",
          "isImpacting": true,
          "overFlowSiteId": 109524
        },
        {
          "id": 343956783,
          "eventId": 905891,
          "siteUnitNumber": 12615,
          "bathingSite": "COLWELL BAY",
          "eventStart": "2023-11-13T04:59:38",
          "eventStop": "2023-11-13T05:14:03",
          "duration": 14,
          "status": "Genuine",
          "associatedSiteId": 115498,
          "outfallName": "NORTON TRANSFER IOW",
          "isImpacting": true,
          "overFlowSiteId": 109524,
          "historicSpillsList": []
        }
      ]
    },
    {
      "id": 343939013,
      "eventId": 905770,
      "siteUnitNumber": 12575,
      "bathingSite": "HASTINGS PELHAM BEACH",
      "eventStart": "2023-11-13T04:14:17",
      "eventStop": "2023-11-13T05:09:26",
      "duration": 55,
      "status": "Genuine",
      "associatedSiteId": 109950,
      "outfallName": "ST HELENS DOWN HASTINGS",
      "isImpacting": true,
      "overFlowSiteId": 0,
      "historicSpillsList": [
        {
          "id": 343939013,
          "eventId": 905770,
          "siteUnitNumber": 12575,
          "bathingSite": "HASTINGS PELHAM BEACH",
          "eventStart": "2023-11-13T04:14:17",
          "eventStop": "2023-11-13T05:09:26",
          "duration": 55,
          "status": "Genuine",
          "associatedSiteId": 109950,
          "outfallName": "ST HELENS DOWN HASTINGS",
          "isImpacting": true,
          "overFlowSiteId": 109050
        }
      ]
    },
    {
      "id": 343932055,
      "eventId": 905784,
      "siteUnitNumber": 12579,
      "bathingSite": "PEVENSEY BAY",
      "eventStart": "2023-11-13T04:29:00",
      "eventStop": "2023-11-13T05:00:00",
      "duration": 31,
      "status": "Genuine",
      "associatedSiteId": 109889,
      "outfallName": "RATTLE ROAD WESTHAM",
      "isImpacting": false,
      "overFlowSiteId": 0,
      "historicSpillsList": []
    }
  ]
}