{
  "currentPage": 600,
  "totalItems": 21025,
  "totalPages": 841,
  "items": [
    {
      "id": 344834366,
      "eventId": 551922,
      "siteUnitNumber": 12582,
      "bathingSite": "SEAFORD",
      "eventStart": "2022-01-29T20:30:00",
      "eventStop": "2022-01-29T20:33:43",
      "duration": 3,
      "status": "Not Genuine",
      "associatedSiteId": 109957,
      "outfallName": "PORTOBELLO BRIGHTON NO2",
      "isImpacting": true,
      "overFlowSiteId": 0,
      "historicSpillsList": []
    },
    {
      "id": 344834368,
      "eventId": 551034,
      "siteUnitNumber": 12582,
      "bathingSite": "SEAFORD",
      "eventStart": "2022-01-29T18:36:10",
      "eventStop": "2022-01-29T18:45:00",
      "duration": 8,
      "status": "Under Review",
      "associatedSiteId": 109957,
      "outfallName": "PORTOBELLO BRIGHTON NO2",
      "isImpacting": true,
      "overFlowSiteId": 0,
      "historicSpillsList": [
        {
          "id": 344834368,
          "eventId": 551034,
          "siteUnitNumber": 12582,
          "bathingSite": "SEAFORD",
          "eventStart": "2022-01-29T18:36:10",
          "eventStop": "2022-01-29T18:45:00",
          "duration": 8,
          "status": "Under Review",
          "associatedSiteId": 109957,
          "outfallName": "PORTOBELLO BRIGHTON NO2",
          "isImpacting": true,
          "overFlowSiteId": 116036
        },
        {
          "id": 344834369,
          "eventId": 551034,
          "siteUnitNumber": 12583,
          "bathingSite": "SALTDEAN",
          "eventStart": "2022-01-29T18:36:10",
          "eventStop": "2022-01-29T18:45:00",
          "duration": 8,
          "status": "Under Review",
          "associatedSiteId": 109957,
          "outfallName": "PORTOBELLO BRIGHTON NO2",
          "isImpacting": true,
          "overFlowSiteId": 116036,
          "historicSpillsList": []
        }
      ]
    },
    {
      "id": 344840564,
      "eventId": 548022,
      "siteUnitNumber": 12593,
      "bathingSite": "FELPHAM",
      "eventStart": "2022-01-16T21:06:00",
      "eventStop": "2022-01-16T22:19:00",
      "duration": 73,
      "status": "Genuine",
      "associatedSiteId": 110095,
      "outfallName": "LIDSEY",
      "isImpacting": true,
      "overFlowSiteId": 0,
      "historicSpillsList": [
        {
          "id": 344840564,
          "eventId": 548022,
          "siteUnitNumber": 12593,
          "bathingSite": "FELPHAM",
          "eventStart": "2022-01-16T21:06:00",
          "eventStop": "2022-01-16T22:19:00",
          "duration": 73,
          "status": "Genuine",
          "associatedSiteId": 110095,
          "outfallName": "LIDSEY",
          "isImpacting": true,
          "overFlowSiteId": 115776
        }
      ]
    },
    {
      "id": 344840569,
      "eventId": 548021,
      "siteUnitNumber": 12593,
      "bathingSite": "FELPHAM",
      "eventStart": "2022-01-16T19:36:00",
      "eventStop": "2022-01-16T20:54:00",
      "duration": 78,
      "status": "Genuine",
      "associatedSiteId": 110095,
      "outfallName": "LIDSEY",
      "isImpacting": true,
      "overFlowSiteId": 0,
      "historicSpillsList": [
        {
          "id": 344840569,
          "eventId": 548021,
          "siteUnitNumber": 12593,
          "bathingSite": "FELPHAM",
          "eventStart": "2022-01-16T19:36:00",
          "eventStop": "2022-01-16T20:54:00",
          "duration": 78,
          "status": "Genuine",
          "associatedSiteId": 110095,
          "outfallName": "LIDSEY",
          "isImpacting": true,
          "overFlowSiteId": 115776
        }
      ]
    },
    {
      "id": 344840568,
      "eventId": 548020,
      "siteUnitNumber": 12593,
      "bathingSite": "FELPHAM",
      "eventStart": "2022-01-16T15:28:00",
      "eventStop": "2022-01-16T15:51:00",
      "duration": 23,
      "status": "Genuine",
      "associatedSiteId": 110095,
      "outfallName": "LIDSEY",
      "isImpacting": true,
      "overFlowSiteId": 0,
      "historicSpillsList": [
        {
          "id": 344840568,
          "eventId": 548020,
          "siteUnitNumber": 12593,
          "bathingSite": "FELPHAM",
          "eventStart": "2022-01-16T15:28:00",
          "eventStop": "2022-01-16T15:51:00",
          "duration": 23,
          "status": "Genuine",
          "associatedSiteId": 110095,
          "outfallName": "LIDSEY",
          "isImpacting": true,
          "overFlowSiteId": 115776
        }
      ]
    },
    {
      "id": 344840567,
      "eventId": 548018,
      "siteUnitNumber": 12593,
      "bathingSite": "FELPHAM",
      "eventStart": "2022-01-16T13:07:00",
      "eventStop": "2022-01-16T14:24:00",
      "duration": 77,
      "status": "Genuine",
      "associatedSiteId": 110095,
      "outfallName": "LIDSEY",
      "isImpacting": true,
      "overFlowSiteId": 0,
      "historicSpillsList": [
        {
          "id": 344840567,
          "eventId": 548018,
          "siteUnitNumber": 12593,
          "bathingSite": "FELPHAM",
          "eventStart": "2022-01-16T13:07:00",
          "eventStop": "2022-01-16T14:24:00",
          "duration": 77,
          "status": "Genuine",
          "associatedSiteId": 110095,
          "outfallName": "LIDSEY",
          "isImpacting": true,
          "overFlowSiteId": 115776
        }
      ]
    },
    {
      "id": 344840572,
      "eventId": 548017,
      "siteUnitNumber": 12593,
      "bathingSite": "FELPHAM",
      "eventStart": "2022-01-16T12:34:00",
      "eventStop": "2022-01-16T12:55:00",
      "duration": 21,
      "status": "Genuine",
      "associatedSiteId": 110095,
      "outfallName": "LIDSEY",
      "isImpacting": true,
      "overFlowSiteId": 0,
      "historicSpillsList": [
        {
          "id": 344840572,
          "eventId": 548017,
          "siteUnitNumber": 12593,
          "bathingSite": "FELPHAM",
          "eventStart": "2022-01-16T12:34:00",
          "eventStop": "2022-01-16T12:55:00",
          "duration": 21,
          "status": "Genuine",
          "associatedSiteId": 110095,
          "outfallName": "LIDSEY",
          "isImpacting": true,
          "overFlowSiteId": 115776
        }
      ]
    },
    {
      "id": 344821184,
      "eventId": 548012,
      "siteUnitNumber": 12617,
      "bathingSite": "COWES",
      "eventStart": "2022-01-16T11:19:00",
      "eventStop": "2022-01-16T12:14:00",
      "duration": 55,
      "status": "Genuine",
      "associatedSiteId": 109777,
      "outfallName": "APPLEY PARK RYDE TRANSFER",
      "isImpacting": true,
      "overFlowSiteId": 0,
      "historicSpillsList": [
        {
          "id": 344821184,
          "eventId": 548012,
          "siteUnitNumber": 12617,
          "bathingSite": "COWES",
          "eventStart": "2022-01-16T11:19:00",
          "eventStop": "2022-01-16T12:14:00",
          "duration": 55,
          "status": "Genuine",
          "associatedSiteId": 109777,
          "outfallName": "APPLEY PARK RYDE TRANSFER",
          "isImpacting": true,
          "overFlowSiteId": 108941
        },
        {
          "id": 344821185,
          "eventId": 548012,
          "siteUnitNumber": 12618,
          "bathingSite": "RYDE",
          "eventStart": "2022-01-16T11:19:00",
          "eventStop": "2022-01-16T12:14:00",
          "duration": 55,
          "status": "Genuine",
          "associatedSiteId": 109777,
          "outfallName": "APPLEY PARK RYDE TRANSFER",
          "isImpacting": true,
          "overFlowSiteId": 108941,
          "historicSpillsList": []
        }
      ]
    },
    {
      "id": 344821186,
      "eventId": 547805,
      "siteUnitNumber": 12617,
      "bathingSite": "COWES",
      "eventStart": "2022-01-16T02:38:40",
      "eventStop": "2022-01-16T04:27:00",
      "duration": 108,
      "status": "Genuine",
      "associatedSiteId": 109777,
      "outfallName": "APPLEY PARK RYDE TRANSFER",
      "isImpacting": true,
      "overFlowSiteId": 0,
      "historicSpillsList": [
        {
          "id": 344821186,
          "eventId": 547805,
          "siteUnitNumber": 12617,
          "bathingSite": "COWES",
          "eventStart": "2022-01-16T02:38:40",
          "eventStop": "2022-01-16T04:27:00",
          "duration": 108,
          "status": "Genuine",
          "associatedSiteId": 109777,
          "outfallName": "APPLEY PARK RYDE TRANSFER",
          "isImpacting": true,
          "overFlowSiteId": 108941
        },
        {
          "id": 344821187,
          "eventId": 547805,
          "siteUnitNumber": 12618,
          "bathingSite": "RYDE",
          "eventStart": "2022-01-16T02:38:40",
          "eventStop": "2022-01-16T04:27:00",
          "duration": 108,
          "status": "Genuine",
          "associatedSiteId": 109777,
          "outfallName": "APPLEY PARK RYDE TRANSFER",
          "isImpacting": true,
          "overFlowSiteId": 108941,
          "historicSpillsList": []
        }
      ]
    },
    {
      "id": 344852592,
      "eventId": 547867,
      "siteUnitNumber": 12615,
      "bathingSite": "COLWELL BAY",
      "eventStart": "2022-01-16T02:41:00",
      "eventStop": "2022-01-16T04:25:00",
      "duration": 104,
      "status": "Genuine",
      "associatedSiteId": 115498,
      "outfallName": "NORTON TRANSFER IOW",
      "isImpacting": true,
      "overFlowSiteId": 0,
      "historicSpillsList": [
        {
          "id": 344852592,
          "eventId": 547867,
          "siteUnitNumber": 12615,
          "bathingSite": "COLWELL BAY",
          "eventStart": "2022-01-16T02:41:00",
          "eventStop": "2022-01-16T04:25:00",
          "duration": 104,
          "status": "Genuine",
          "associatedSiteId": 115498,
          "outfallName": "NORTON TRANSFER IOW",
          "isImpacting": true,
          "overFlowSiteId": 108544
        },
        {
          "id": 344852593,
          "eventId": 547867,
          "siteUnitNumber": 12614,
          "bathingSite": "TOTLAND BAY",
          "eventStart": "2022-01-16T02:41:00",
          "eventStop": "2022-01-16T04:25:00",
          "duration": 104,
          "status": "Genuine",
          "associatedSiteId": 115498,
          "outfallName": "NORTON TRANSFER IOW",
          "isImpacting": true,
          "overFlowSiteId": 108544,
          "historicSpillsList": []
        }
      ]
    },
    {
      "id": 344852594,
      "eventId": 547810,
      "siteUnitNumber": 12614,
      "bathingSite": "TOTLAND BAY",
      "eventStart": "2022-01-16T02:38:00",
      "eventStop": "2022-01-16T02:57:00",
      "duration": 19,
      "status": "Genuine",
      "associatedSiteId": 115498,
      "outfallName": "NORTON TRANSFER IOW",
      "isImpacting": true,
      "overFlowSiteId": 0,
      "historicSpillsList": [
        {
          "id": 344852594,
          "eventId": 547810,
          "siteUnitNumber": 12614,
          "bathingSite": "TOTLAND BAY",
          "eventStart": "2022-01-16T02:38:00",
          "eventStop": "2022-01-16T02:57:00",
          "duration": 19,
          "status": "Genuine",
          "associatedSiteId": 115498,
          "outfallName": "NORTON TRANSFER IOW",
          "isImpacting": true,
          "overFlowSiteId": 109524
        },
        {
          "id": 344852595,
          "eventId": 547810,
          "siteUnitNumber": 12615,
          "bathingSite": "COLWELL BAY",
          "eventStart": "2022-01-16T02:38:00",
          "eventStop": "2022-01-16T02:57:00",
          "duration": 19,
          "status": "Genuine",
          "associatedSiteId": 115498,
          "outfallName": "NORTON TRANSFER IOW",
          "isImpacting": true,
          "overFlowSiteId": 109524,
          "historicSpillsList": []
        }
      ]
    },
    {
      "id": 344840571,
      "eventId": 547725,
      "siteUnitNumber": 12593,
      "bathingSite": "FELPHAM",
      "eventStart": "2022-01-15T11:26:54",
      "eventStop": "2022-01-15T22:27:00",
      "duration": 660,
      "status": "Genuine",
      "associatedSiteId": 110095,
      "outfallName": "LIDSEY",
      "isImpacting": true,
      "overFlowSiteId": 0,
      "historicSpillsList": [
        {
          "id": 344840571,
          "eventId": 547725,
          "siteUnitNumber": 12593,
          "bathingSite": "FELPHAM",
          "eventStart": "2022-01-15T11:26:54",
          "eventStop": "2022-01-15T22:27:00",
          "duration": 660,
          "status": "Genuine",
          "associatedSiteId": 110095,
          "outfallName": "LIDSEY",
          "isImpacting": true,
          "overFlowSiteId": 115776
        }
      ]
    },
    {
      "id": 344840570,
      "eventId": 547458,
      "siteUnitNumber": 12593,
      "bathingSite": "FELPHAM",
      "eventStart": "2022-01-14T09:48:28",
      "eventStop": "2022-01-15T00:46:00",
      "duration": 897,
      "status": "Genuine",
      "associatedSiteId": 110095,
      "outfallName": "LIDSEY",
      "isImpacting": true,
      "overFlowSiteId": 0,
      "historicSpillsList": [
        {
          "id": 344840570,
          "eventId": 547458,
          "siteUnitNumber": 12593,
          "bathingSite": "FELPHAM",
          "eventStart": "2022-01-14T09:48:28",
          "eventStop": "2022-01-15T00:46:00",
          "duration": 897,
          "status": "Genuine",
          "associatedSiteId": 110095,
          "outfallName": "LIDSEY",
          "isImpacting": true,
          "overFlowSiteId": 115776
        }
      ]
    },
    {
      "id": 344840575,
      "eventId": 547454,
      "siteUnitNumber": 12593,
      "bathingSite": "FELPHAM",
      "eventStart": "2022-01-13T17:23:00",
      "eventStop": "2022-01-14T01:37:00",
      "duration": 494,
      "status": "Genuine",
      "associatedSiteId": 110095,
      "outfallName": "LIDSEY",
      "isImpacting": true,
      "overFlowSiteId": 0,
      "historicSpillsList": [
        {
          "id": 344840575,
          "eventId": 547454,
          "siteUnitNumber": 12593,
          "bathingSite": "FELPHAM",
          "eventStart": "2022-01-13T17:23:00",
          "eventStop": "2022-01-14T01:37:00",
          "duration": 494,
          "status": "Genuine",
          "associatedSiteId": 110095,
          "outfallName": "LIDSEY",
          "isImpacting": true,
          "overFlowSiteId": 115776
        }
      ]
    },
    {
      "id": 344840574,
      "eventId": 547453,
      "siteUnitNumber": 12593,
      "bathingSite": "FELPHAM",
      "eventStart": "2022-01-13T08:44:00",
      "eventStop": "2022-01-13T16:50:00",
      "duration": 486,
      "status": "Genuine",
      "associatedSiteId": 110095,
      "outfallName": "LIDSEY",
      "isImpacting": true,
      "overFlowSiteId": 0,
      "historicSpillsList": [
        {
          "id": 344840574,
          "eventId": 547453,
          "siteUnitNumber": 12593,
          "bathingSite": "FELPHAM",
          "eventStart": "2022-01-13T08:44:00",
          "eventStop": "2022-01-13T16:50:00",
          "duration": 486,
          "status": "Genuine",
          "associatedSiteId": 110095,
          "outfallName": "LIDSEY",
          "isImpacting": true,
          "overFlowSiteId": 115776
        }
      ]
    },
    {
      "id": 344840573,
      "eventId": 547452,
      "siteUnitNumber": 12593,
      "bathingSite": "FELPHAM",
      "eventStart": "2022-01-12T08:05:00",
      "eventStop": "2022-01-13T02:58:00",
      "duration": 1133,
      "status": "Genuine",
      "associatedSiteId": 110095,
      "outfallName": "LIDSEY",
      "isImpacting": true,
      "overFlowSiteId": 0,
      "historicSpillsList": [
        {
          "id": 344840573,
          "eventId": 547452,
          "siteUnitNumber": 12593,
          "bathingSite": "FELPHAM",
          "eventStart": "2022-01-12T08:05:00",
          "eventStop": "2022-01-13T02:58:00",
          "duration": 1133,
          "status": "Genuine",
          "associatedSiteId": 110095,
          "outfallName": "LIDSEY",
          "isImpacting": true,
          "overFlowSiteId": 115776
        }
      ]
    },
    {
      "id": 344840578,
      "eventId": 546855,
      "siteUnitNumber": 12593,
      "bathingSite": "FELPHAM",
      "eventStart": "2022-01-11T07:24:00",
      "eventStop": "2022-01-12T03:41:00",
      "duration": 1217,
      "status": "Genuine",
      "associatedSiteId": 110095,
      "outfallName": "LIDSEY",
      "isImpacting": true,
      "overFlowSiteId": 0,
      "historicSpillsList": [
        {
          "id": 344840578,
          "eventId": 546855,
          "siteUnitNumber": 12593,
          "bathingSite": "FELPHAM",
          "eventStart": "2022-01-11T07:24:00",
          "eventStop": "2022-01-12T03:41:00",
          "duration": 1217,
          "status": "Genuine",
          "associatedSiteId": 110095,
          "outfallName": "LIDSEY",
          "isImpacting": true,
          "overFlowSiteId": 115776
        }
      ]
    },
    {
      "id": 344824087,
      "eventId": 546675,
      "siteUnitNumber": 12609,
      "bathingSite": "LEPE",
      "eventStart": "2022-01-11T18:56:00",
      "eventStop": "2022-01-11T22:38:00",
      "duration": 222,
      "status": "Genuine",
      "associatedSiteId": 109825,
      "outfallName": "WEST COMMON FAWLEY",
      "isImpacting": true,
      "overFlowSiteId": 0,
      "historicSpillsList": [
        {
          "id": 344824087,
          "eventId": 546675,
          "siteUnitNumber": 12609,
          "bathingSite": "LEPE",
          "eventStart": "2022-01-11T18:56:00",
          "eventStop": "2022-01-11T22:38:00",
          "duration": 222,
          "status": "Genuine",
          "associatedSiteId": 109825,
          "outfallName": "WEST COMMON FAWLEY",
          "isImpacting": true,
          "overFlowSiteId": 108890
        }
      ]
    },
    {
      "id": 344849088,
      "eventId": 546692,
      "siteUnitNumber": 12582,
      "bathingSite": "SEAFORD",
      "eventStart": "2022-01-11T20:20:53",
      "eventStop": "2022-01-11T20:48:21",
      "duration": 27,
      "status": "Genuine",
      "associatedSiteId": 110920,
      "outfallName": "NEWHAVEN",
      "isImpacting": true,
      "overFlowSiteId": 0,
      "historicSpillsList": [
        {
          "id": 344849088,
          "eventId": 546692,
          "siteUnitNumber": 12582,
          "bathingSite": "SEAFORD",
          "eventStart": "2022-01-11T20:20:53",
          "eventStop": "2022-01-11T20:48:21",
          "duration": 27,
          "status": "Genuine",
          "associatedSiteId": 110920,
          "outfallName": "NEWHAVEN",
          "isImpacting": true,
          "overFlowSiteId": 116065
        }
      ]
    },
    {
      "id": 344821188,
      "eventId": 546917,
      "siteUnitNumber": 12617,
      "bathingSite": "COWES",
      "eventStart": "2022-01-11T16:03:00",
      "eventStop": "2022-01-11T20:31:00",
      "duration": 268,
      "status": "Genuine",
      "associatedSiteId": 109777,
      "outfallName": "APPLEY PARK RYDE TRANSFER",
      "isImpacting": true,
      "overFlowSiteId": 0,
      "historicSpillsList": [
        {
          "id": 344821188,
          "eventId": 546917,
          "siteUnitNumber": 12617,
          "bathingSite": "COWES",
          "eventStart": "2022-01-11T16:03:00",
          "eventStop": "2022-01-11T20:31:00",
          "duration": 268,
          "status": "Genuine",
          "associatedSiteId": 109777,
          "outfallName": "APPLEY PARK RYDE TRANSFER",
          "isImpacting": true,
          "overFlowSiteId": 108941
        },
        {
          "id": 344821189,
          "eventId": 546917,
          "siteUnitNumber": 12618,
          "bathingSite": "RYDE",
          "eventStart": "2022-01-11T16:03:00",
          "eventStop": "2022-01-11T20:31:00",
          "duration": 268,
          "status": "Genuine",
          "associatedSiteId": 109777,
          "outfallName": "APPLEY PARK RYDE TRANSFER",
          "isImpacting": true,
          "overFlowSiteId": 108941,
          "historicSpillsList": []
        }
      ]
    },
    {
      "id": 344840577,
      "eventId": 546854,
      "siteUnitNumber": 12593,
      "bathingSite": "FELPHAM",
      "eventStart": "2022-01-11T02:47:00",
      "eventStop": "2022-01-11T06:53:00",
      "duration": 246,
      "status": "Genuine",
      "associatedSiteId": 110095,
      "outfallName": "LIDSEY",
      "isImpacting": true,
      "overFlowSiteId": 0,
      "historicSpillsList": [
        {
          "id": 344840577,
          "eventId": 546854,
          "siteUnitNumber": 12593,
          "bathingSite": "FELPHAM",
          "eventStart": "2022-01-11T02:47:00",
          "eventStop": "2022-01-11T06:53:00",
          "duration": 246,
          "status": "Genuine",
          "associatedSiteId": 110095,
          "outfallName": "LIDSEY",
          "isImpacting": true,
          "overFlowSiteId": 115776
        }
      ]
    },
    {
      "id": 344852600,
      "eventId": 546334,
      "siteUnitNumber": 12615,
      "bathingSite": "COLWELL BAY",
      "eventStart": "2022-01-11T01:51:06",
      "eventStop": "2022-01-11T04:20:00",
      "duration": 148,
      "status": "Genuine",
      "associatedSiteId": 115498,
      "outfallName": "NORTON TRANSFER IOW",
      "isImpacting": true,
      "overFlowSiteId": 0,
      "historicSpillsList": [
        {
          "id": 344852600,
          "eventId": 546334,
          "siteUnitNumber": 12615,
          "bathingSite": "COLWELL BAY",
          "eventStart": "2022-01-11T01:51:06",
          "eventStop": "2022-01-11T04:20:00",
          "duration": 148,
          "status": "Genuine",
          "associatedSiteId": 115498,
          "outfallName": "NORTON TRANSFER IOW",
          "isImpacting": true,
          "overFlowSiteId": 109524
        },
        {
          "id": 344852601,
          "eventId": 546334,
          "siteUnitNumber": 12614,
          "bathingSite": "TOTLAND BAY",
          "eventStart": "2022-01-11T01:51:06",
          "eventStop": "2022-01-11T04:20:00",
          "duration": 148,
          "status": "Genuine",
          "associatedSiteId": 115498,
          "outfallName": "NORTON TRANSFER IOW",
          "isImpacting": true,
          "overFlowSiteId": 109524,
          "historicSpillsList": []
        }
      ]
    },
    {
      "id": 344852596,
      "eventId": 546722,
      "siteUnitNumber": 12614,
      "bathingSite": "TOTLAND BAY",
      "eventStart": "2022-01-11T01:57:00",
      "eventStop": "2022-01-11T03:46:00",
      "duration": 109,
      "status": "Genuine",
      "associatedSiteId": 115498,
      "outfallName": "NORTON TRANSFER IOW",
      "isImpacting": true,
      "overFlowSiteId": 0,
      "historicSpillsList": [
        {
          "id": 344852596,
          "eventId": 546722,
          "siteUnitNumber": 12614,
          "bathingSite": "TOTLAND BAY",
          "eventStart": "2022-01-11T01:57:00",
          "eventStop": "2022-01-11T03:46:00",
          "duration": 109,
          "status": "Genuine",
          "associatedSiteId": 115498,
          "outfallName": "NORTON TRANSFER IOW",
          "isImpacting": true,
          "overFlowSiteId": 108544
        },
        {
          "id": 344852597,
          "eventId": 546722,
          "siteUnitNumber": 12615,
          "bathingSite": "COLWELL BAY",
          "eventStart": "2022-01-11T01:57:00",
          "eventStop": "2022-01-11T03:46:00",
          "duration": 109,
          "status": "Genuine",
          "associatedSiteId": 115498,
          "outfallName": "NORTON TRANSFER IOW",
          "isImpacting": true,
          "overFlowSiteId": 108544,
          "historicSpillsList": []
        }
      ]
    },
    {
      "id": 344840576,
      "eventId": 546850,
      "siteUnitNumber": 12593,
      "bathingSite": "FELPHAM",
      "eventStart": "2022-01-11T01:06:00",
      "eventStop": "2022-01-11T02:40:00",
      "duration": 94,
      "status": "Genuine",
      "associatedSiteId": 110095,
      "outfallName": "LIDSEY",
      "isImpacting": true,
      "overFlowSiteId": 0,
      "historicSpillsList": [
        {
          "id": 344840576,
          "eventId": 546850,
          "siteUnitNumber": 12593,
          "bathingSite": "FELPHAM",
          "eventStart": "2022-01-11T01:06:00",
          "eventStop": "2022-01-11T02:40:00",
          "duration": 94,
          "status": "Genuine",
          "associatedSiteId": 110095,
          "outfallName": "LIDSEY",
          "isImpacting": true,
          "overFlowSiteId": 115776
        }
      ]
    },
    {
      "id": 344840581,
      "eventId": 546849,
      "siteUnitNumber": 12593,
      "bathingSite": "FELPHAM",
      "eventStart": "2022-01-10T01:42:00",
      "eventStop": "2022-01-11T00:59:00",
      "duration": 1397,
      "status": "Genuine",
      "associatedSiteId": 110095,
      "outfallName": "LIDSEY",
      "isImpacting": true,
      "overFlowSiteId": 0,
      "historicSpillsList": [
        {
          "id": 344840581,
          "eventId": 546849,
          "siteUnitNumber": 12593,
          "bathingSite": "FELPHAM",
          "eventStart": "2022-01-10T01:42:00",
          "eventStop": "2022-01-11T00:59:00",
          "duration": 1397,
          "status": "Genuine",
          "associatedSiteId": 110095,
          "outfallName": "LIDSEY",
          "isImpacting": true,
          "overFlowSiteId": 115776
        }
      ]
    }
  ]
}