{
  "currentPage": 562,
  "totalItems": 21025,
  "totalPages": 841,
  "items": [
    {
      "id": 344823040,
      "eventId": 627890,
      "siteUnitNumber": 12661,
      "bathingSite": "LANGSTONE HARBOUR",
      "eventStart": "2022-09-05T20:28:00",
      "eventStop": "2022-09-05T21:45:00",
      "duration": 77,
      "status": "Not Genuine",
      "associatedSiteId": 109820,
      "outfallName": "ST ANDREWS ROAD PORTSMOUTH",
      "isImpacting": true,
      "overFlowSiteId": 0,
      "historicSpillsList": []
    },
    {
      "id": 344833003,
      "eventId": 627953,
      "siteUnitNumber": 12619,
      "bathingSite": "SEAGROVE",
      "eventStart": "2022-09-05T21:03:15",
      "eventStop": "2022-09-05T21:39:00",
      "duration": 35,
      "status": "Genuine",
      "associatedSiteId": 109938,
      "outfallName": "THE POINT BEMBRIDGE",
      "isImpacting": false,
      "overFlowSiteId": 0,
      "historicSpillsList": []
    },
    {
      "id": 344818857,
      "eventId": 627913,
      "siteUnitNumber": 12607,
      "bathingSite": "HILLHEAD",
      "eventStart": "2022-09-05T20:32:45",
      "eventStop": "2022-09-05T21:28:07",
      "duration": 55,
      "status": "Genuine",
      "associatedSiteId": 109715,
      "outfallName": "SALTERNS ROAD HILL HEAD",
      "isImpacting": true,
      "overFlowSiteId": 0,
      "historicSpillsList": [
        {
          "id": 344818857,
          "eventId": 627913,
          "siteUnitNumber": 12607,
          "bathingSite": "HILLHEAD",
          "eventStart": "2022-09-05T20:32:45",
          "eventStop": "2022-09-05T21:28:07",
          "duration": 55,
          "status": "Genuine",
          "associatedSiteId": 109715,
          "outfallName": "SALTERNS ROAD HILL HEAD",
          "isImpacting": true,
          "overFlowSiteId": 108441
        }
      ]
    },
    {
      "id": 344818745,
      "eventId": 627854,
      "siteUnitNumber": 12616,
      "bathingSite": "GURNARD",
      "eventStart": "2022-09-05T20:00:51",
      "eventStop": "2022-09-05T21:19:00",
      "duration": 78,
      "status": "Genuine",
      "associatedSiteId": 109707,
      "outfallName": "MEDINA ROAD COWES",
      "isImpacting": false,
      "overFlowSiteId": 0,
      "historicSpillsList": []
    },
    {
      "id": 344815039,
      "eventId": 627837,
      "siteUnitNumber": 12615,
      "bathingSite": "COLWELL BAY",
      "eventStart": "2022-09-05T19:44:00",
      "eventStop": "2022-09-05T21:16:00",
      "duration": 92,
      "status": "Genuine",
      "associatedSiteId": 109663,
      "outfallName": "THE INSTITUTE YARMOUTH NO1",
      "isImpacting": false,
      "overFlowSiteId": 0,
      "historicSpillsList": []
    },
    {
      "id": 344822014,
      "eventId": 627936,
      "siteUnitNumber": 12618,
      "bathingSite": "RYDE",
      "eventStart": "2022-09-05T21:00:00",
      "eventStop": "2022-09-05T21:15:00",
      "duration": 15,
      "status": "Genuine",
      "associatedSiteId": 109780,
      "outfallName": "LADIES WALK BINSTEAD",
      "isImpacting": true,
      "overFlowSiteId": 0,
      "historicSpillsList": [
        {
          "id": 344822014,
          "eventId": 627936,
          "siteUnitNumber": 12618,
          "bathingSite": "RYDE",
          "eventStart": "2022-09-05T21:00:00",
          "eventStop": "2022-09-05T21:15:00",
          "duration": 15,
          "status": "Genuine",
          "associatedSiteId": 109780,
          "outfallName": "LADIES WALK BINSTEAD",
          "isImpacting": true,
          "overFlowSiteId": 107406
        }
      ]
    },
    {
      "id": 344818535,
      "eventId": 627860,
      "siteUnitNumber": 12616,
      "bathingSite": "GURNARD",
      "eventStart": "2022-09-05T20:03:59",
      "eventStop": "2022-09-05T21:06:21",
      "duration": 62,
      "status": "Genuine",
      "associatedSiteId": 109706,
      "outfallName": "HIGH STREET COWES",
      "isImpacting": false,
      "overFlowSiteId": 0,
      "historicSpillsList": []
    },
    {
      "id": 344847963,
      "eventId": 627851,
      "siteUnitNumber": 12616,
      "bathingSite": "GURNARD",
      "eventStart": "2022-09-05T20:02:00",
      "eventStop": "2022-09-05T21:05:00",
      "duration": 63,
      "status": "Genuine",
      "associatedSiteId": 110701,
      "outfallName": "TERMINUS ROAD COWES 2",
      "isImpacting": true,
      "overFlowSiteId": 0,
      "historicSpillsList": [
        {
          "id": 344847963,
          "eventId": 627851,
          "siteUnitNumber": 12616,
          "bathingSite": "GURNARD",
          "eventStart": "2022-09-05T20:02:00",
          "eventStop": "2022-09-05T21:05:00",
          "duration": 63,
          "status": "Genuine",
          "associatedSiteId": 110701,
          "outfallName": "TERMINUS ROAD COWES 2",
          "isImpacting": true,
          "overFlowSiteId": 108563
        },
        {
          "id": 344847964,
          "eventId": 627851,
          "siteUnitNumber": 12617,
          "bathingSite": "COWES",
          "eventStart": "2022-09-05T20:02:00",
          "eventStop": "2022-09-05T21:05:00",
          "duration": 63,
          "status": "Genuine",
          "associatedSiteId": 110701,
          "outfallName": "TERMINUS ROAD COWES 2",
          "isImpacting": true,
          "overFlowSiteId": 108563,
          "historicSpillsList": []
        }
      ]
    },
    {
      "id": 344814872,
      "eventId": 628134,
      "siteUnitNumber": 12614,
      "bathingSite": "TOTLAND BAY",
      "eventStart": "2022-09-05T20:04:00",
      "eventStop": "2022-09-05T20:58:00",
      "duration": 54,
      "status": "Genuine",
      "associatedSiteId": 109657,
      "outfallName": "THE PROMENADE TOTLAND PIER NO2",
      "isImpacting": false,
      "overFlowSiteId": 0,
      "historicSpillsList": []
    },
    {
      "id": 344817601,
      "eventId": 627862,
      "siteUnitNumber": 12616,
      "bathingSite": "GURNARD",
      "eventStart": "2022-09-05T20:04:12",
      "eventStop": "2022-09-05T20:56:00",
      "duration": 51,
      "status": "Genuine",
      "associatedSiteId": 109704,
      "outfallName": "EGYPT POINT COWES",
      "isImpacting": true,
      "overFlowSiteId": 0,
      "historicSpillsList": [
        {
          "id": 344817602,
          "eventId": 627862,
          "siteUnitNumber": 12617,
          "bathingSite": "COWES",
          "eventStart": "2022-09-05T20:04:12",
          "eventStop": "2022-09-05T20:56:00",
          "duration": 51,
          "status": "Genuine",
          "associatedSiteId": 109704,
          "outfallName": "EGYPT POINT COWES",
          "isImpacting": true,
          "overFlowSiteId": 116213,
          "historicSpillsList": []
        }
      ]
    },
    {
      "id": 344817113,
      "eventId": 627876,
      "siteUnitNumber": 12616,
      "bathingSite": "GURNARD",
      "eventStart": "2022-09-05T20:10:00",
      "eventStop": "2022-09-05T20:54:00",
      "duration": 44,
      "status": "Genuine",
      "associatedSiteId": 109702,
      "outfallName": "ALBANY ROAD EAST COWES",
      "isImpacting": false,
      "overFlowSiteId": 0,
      "historicSpillsList": []
    },
    {
      "id": 344847961,
      "eventId": 627988,
      "siteUnitNumber": 12616,
      "bathingSite": "GURNARD",
      "eventStart": "2022-09-05T19:57:42",
      "eventStop": "2022-09-05T20:43:00",
      "duration": 45,
      "status": "Genuine",
      "associatedSiteId": 110701,
      "outfallName": "TERMINUS ROAD COWES 2",
      "isImpacting": true,
      "overFlowSiteId": 0,
      "historicSpillsList": [
        {
          "id": 344847961,
          "eventId": 627988,
          "siteUnitNumber": 12616,
          "bathingSite": "GURNARD",
          "eventStart": "2022-09-05T19:57:42",
          "eventStop": "2022-09-05T20:43:00",
          "duration": 45,
          "status": "Genuine",
          "associatedSiteId": 110701,
          "outfallName": "TERMINUS ROAD COWES 2",
          "isImpacting": true,
          "overFlowSiteId": 108562
        },
        {
          "id": 344847962,
          "eventId": 627988,
          "siteUnitNumber": 12617,
          "bathingSite": "COWES",
          "eventStart": "2022-09-05T19:57:42",
          "eventStop": "2022-09-05T20:43:00",
          "duration": 45,
          "status": "Genuine",
          "associatedSiteId": 110701,
          "outfallName": "TERMINUS ROAD COWES 2",
          "isImpacting": true,
          "overFlowSiteId": 108562,
          "historicSpillsList": []
        }
      ]
    },
    {
      "id": 344816711,
      "eventId": 629225,
      "siteUnitNumber": 12616,
      "bathingSite": "GURNARD",
      "eventStart": "2022-09-05T20:01:00",
      "eventStop": "2022-09-05T20:30:00",
      "duration": 29,
      "status": "Genuine",
      "associatedSiteId": 109700,
      "outfallName": "MARKET HILL COWES",
      "isImpacting": false,
      "overFlowSiteId": 0,
      "historicSpillsList": []
    },
    {
      "id": 344815064,
      "eventId": 628135,
      "siteUnitNumber": 12615,
      "bathingSite": "COLWELL BAY",
      "eventStart": "2022-09-05T19:59:00",
      "eventStop": "2022-09-05T20:17:00",
      "duration": 18,
      "status": "Genuine",
      "associatedSiteId": 109664,
      "outfallName": "THE INSTITUTE YARMOUTH NO2",
      "isImpacting": false,
      "overFlowSiteId": 0,
      "historicSpillsList": []
    },
    {
      "id": 344815190,
      "eventId": 627838,
      "siteUnitNumber": 12615,
      "bathingSite": "COLWELL BAY",
      "eventStart": "2022-09-05T19:43:00",
      "eventStop": "2022-09-05T20:03:00",
      "duration": 20,
      "status": "Genuine",
      "associatedSiteId": 109665,
      "outfallName": "THORLEY ROAD BOULDNOR",
      "isImpacting": false,
      "overFlowSiteId": 0,
      "historicSpillsList": []
    },
    {
      "id": 344816142,
      "eventId": 627803,
      "siteUnitNumber": 12563,
      "bathingSite": "RAMSGATE SANDS",
      "eventStart": "2022-09-05T14:37:57",
      "eventStop": "2022-09-05T15:59:31",
      "duration": 81,
      "status": "Not Genuine",
      "associatedSiteId": 109688,
      "outfallName": "FOADS HILL CLIFFS END",
      "isImpacting": true,
      "overFlowSiteId": 0,
      "historicSpillsList": []
    },
    {
      "id": 344816091,
      "eventId": 627751,
      "siteUnitNumber": 12563,
      "bathingSite": "RAMSGATE SANDS",
      "eventStart": "2022-09-05T10:01:36",
      "eventStop": "2022-09-05T10:01:36",
      "duration": 0,
      "status": "Not Genuine",
      "associatedSiteId": 109686,
      "outfallName": "MILITARY ROAD RAMSGATE NO2",
      "isImpacting": true,
      "overFlowSiteId": 0,
      "historicSpillsList": []
    },
    {
      "id": 344816093,
      "eventId": 627734,
      "siteUnitNumber": 12563,
      "bathingSite": "RAMSGATE SANDS",
      "eventStart": "2022-09-05T08:56:59",
      "eventStop": "2022-09-05T08:56:59",
      "duration": 0,
      "status": "Not Genuine",
      "associatedSiteId": 109686,
      "outfallName": "MILITARY ROAD RAMSGATE NO2",
      "isImpacting": true,
      "overFlowSiteId": 0,
      "historicSpillsList": []
    },
    {
      "id": 344820336,
      "eventId": 627610,
      "siteUnitNumber": 12661,
      "bathingSite": "LANGSTONE HARBOUR",
      "eventStart": "2022-09-05T01:46:00",
      "eventStop": "2022-09-05T02:26:00",
      "duration": 40,
      "status": "Genuine",
      "associatedSiteId": 109773,
      "outfallName": "BUDDS FARM HAVANT NO2",
      "isImpacting": true,
      "overFlowSiteId": 0,
      "historicSpillsList": [
        {
          "id": 344820336,
          "eventId": 627610,
          "siteUnitNumber": 12661,
          "bathingSite": "LANGSTONE HARBOUR",
          "eventStart": "2022-09-05T01:46:00",
          "eventStop": "2022-09-05T02:26:00",
          "duration": 40,
          "status": "Genuine",
          "associatedSiteId": 109773,
          "outfallName": "BUDDS FARM HAVANT NO2",
          "isImpacting": true,
          "overFlowSiteId": 115936
        }
      ]
    },
    {
      "id": 344832197,
      "eventId": 627602,
      "siteUnitNumber": 12586,
      "bathingSite": "HOVE",
      "eventStart": "2022-09-05T00:35:14",
      "eventStop": "2022-09-05T01:25:00",
      "duration": 49,
      "status": "Genuine",
      "associatedSiteId": 109929,
      "outfallName": "SHOREHAM NO1",
      "isImpacting": true,
      "overFlowSiteId": 0,
      "historicSpillsList": [
        {
          "id": 344832197,
          "eventId": 627602,
          "siteUnitNumber": 12586,
          "bathingSite": "HOVE",
          "eventStart": "2022-09-05T00:35:14",
          "eventStop": "2022-09-05T01:25:00",
          "duration": 49,
          "status": "Genuine",
          "associatedSiteId": 109929,
          "outfallName": "SHOREHAM NO1",
          "isImpacting": true,
          "overFlowSiteId": 115434
        },
        {
          "id": 344832198,
          "eventId": 627602,
          "siteUnitNumber": 12587,
          "bathingSite": "SOUTHWICK",
          "eventStart": "2022-09-05T00:35:14",
          "eventStop": "2022-09-05T01:25:00",
          "duration": 49,
          "status": "Genuine",
          "associatedSiteId": 109929,
          "outfallName": "SHOREHAM NO1",
          "isImpacting": true,
          "overFlowSiteId": 115434,
          "historicSpillsList": []
        },
        {
          "id": 344832199,
          "eventId": 627602,
          "siteUnitNumber": 12588,
          "bathingSite": "SHOREHAM BEACH",
          "eventStart": "2022-09-05T00:35:14",
          "eventStop": "2022-09-05T01:25:00",
          "duration": 49,
          "status": "Genuine",
          "associatedSiteId": 109929,
          "outfallName": "SHOREHAM NO1",
          "isImpacting": true,
          "overFlowSiteId": 115434,
          "historicSpillsList": []
        }
      ]
    },
    {
      "id": 344834338,
      "eventId": 627577,
      "siteUnitNumber": 12582,
      "bathingSite": "SEAFORD",
      "eventStart": "2022-09-05T00:15:00",
      "eventStop": "2022-09-05T01:14:00",
      "duration": 59,
      "status": "Genuine",
      "associatedSiteId": 109957,
      "outfallName": "PORTOBELLO BRIGHTON NO2",
      "isImpacting": false,
      "overFlowSiteId": 0,
      "historicSpillsList": []
    },
    {
      "id": 344821026,
      "eventId": 627564,
      "siteUnitNumber": 12618,
      "bathingSite": "RYDE",
      "eventStart": "2022-09-04T23:43:48",
      "eventStop": "2022-09-05T00:56:00",
      "duration": 72,
      "status": "Genuine",
      "associatedSiteId": 109777,
      "outfallName": "APPLEY PARK RYDE TRANSFER",
      "isImpacting": false,
      "overFlowSiteId": 0,
      "historicSpillsList": []
    },
    {
      "id": 344838451,
      "eventId": 627576,
      "siteUnitNumber": 12591,
      "bathingSite": "LITTLEHAMPTON",
      "eventStart": "2022-09-04T23:36:00",
      "eventStop": "2022-09-05T00:42:00",
      "duration": 66,
      "status": "Genuine",
      "associatedSiteId": 109977,
      "outfallName": "FORESHORE TANK LITTLEHAMPTON",
      "isImpacting": true,
      "overFlowSiteId": 0,
      "historicSpillsList": [
        {
          "id": 344838451,
          "eventId": 627576,
          "siteUnitNumber": 12591,
          "bathingSite": "LITTLEHAMPTON",
          "eventStart": "2022-09-04T23:36:00",
          "eventStop": "2022-09-05T00:42:00",
          "duration": 66,
          "status": "Genuine",
          "associatedSiteId": 109977,
          "outfallName": "FORESHORE TANK LITTLEHAMPTON",
          "isImpacting": true,
          "overFlowSiteId": 109390
        }
      ]
    },
    {
      "id": 344823006,
      "eventId": 627550,
      "siteUnitNumber": 12661,
      "bathingSite": "LANGSTONE HARBOUR",
      "eventStart": "2022-09-04T23:27:00",
      "eventStop": "2022-09-05T00:28:00",
      "duration": 61,
      "status": "Genuine",
      "associatedSiteId": 109819,
      "outfallName": "COURT LANE COSHAM",
      "isImpacting": true,
      "overFlowSiteId": 0,
      "historicSpillsList": [
        {
          "id": 344823006,
          "eventId": 627550,
          "siteUnitNumber": 12661,
          "bathingSite": "LANGSTONE HARBOUR",
          "eventStart": "2022-09-04T23:27:00",
          "eventStop": "2022-09-05T00:28:00",
          "duration": 61,
          "status": "Genuine",
          "associatedSiteId": 109819,
          "outfallName": "COURT LANE COSHAM",
          "isImpacting": true,
          "overFlowSiteId": 115958
        }
      ]
    },
    {
      "id": 344836503,
      "eventId": 627587,
      "siteUnitNumber": 12594,
      "bathingSite": "BOGNOR REGIS EAST",
      "eventStart": "2022-09-05T00:15:00",
      "eventStop": "2022-09-05T00:17:00",
      "duration": 2,
      "status": "Genuine",
      "associatedSiteId": 109959,
      "outfallName": "WEST PARK BOGNOR REGIS",
      "isImpacting": true,
      "overFlowSiteId": 0,
      "historicSpillsList": [
        {
          "id": 344836505,
          "eventId": 627587,
          "siteUnitNumber": 12596,
          "bathingSite": "PAGHAM",
          "eventStart": "2022-09-05T00:15:00",
          "eventStop": "2022-09-05T00:17:00",
          "duration": 2,
          "status": "Genuine",
          "associatedSiteId": 109959,
          "outfallName": "WEST PARK BOGNOR REGIS",
          "isImpacting": true,
          "overFlowSiteId": 108160,
          "historicSpillsList": []
        }
      ]
    }
  ]
}