{
  "currentPage": 729,
  "totalItems": 21025,
  "totalPages": 841,
  "items": [
    {
      "id": 344854852,
      "eventId": 460027,
      "siteUnitNumber": 12607,
      "bathingSite": "HILLHEAD",
      "eventStart": "2021-07-12T05:39:51",
      "eventStop": "2021-07-12T10:34:00",
      "duration": 294,
      "status": "Genuine",
      "associatedSiteId": 116111,
      "outfallName": "HOOK PARK NO.2",
      "isImpacting": true,
      "overFlowSiteId": 0,
      "historicSpillsList": [
        {
          "id": 344854852,
          "eventId": 460027,
          "siteUnitNumber": 12607,
          "bathingSite": "HILLHEAD",
          "eventStart": "2021-07-12T05:39:51",
          "eventStop": "2021-07-12T10:34:00",
          "duration": 294,
          "status": "Genuine",
          "associatedSiteId": 116111,
          "outfallName": "HOOK PARK NO.2",
          "isImpacting": true,
          "overFlowSiteId": 108444
        }
      ]
    },
    {
      "id": 344849145,
      "eventId": 460193,
      "siteUnitNumber": 12582,
      "bathingSite": "SEAFORD",
      "eventStart": "2021-07-12T10:08:29",
      "eventStop": "2021-07-12T10:30:55",
      "duration": 22,
      "status": "Genuine",
      "associatedSiteId": 110920,
      "outfallName": "NEWHAVEN",
      "isImpacting": true,
      "overFlowSiteId": 0,
      "historicSpillsList": [
        {
          "id": 344849145,
          "eventId": 460193,
          "siteUnitNumber": 12582,
          "bathingSite": "SEAFORD",
          "eventStart": "2021-07-12T10:08:29",
          "eventStop": "2021-07-12T10:30:55",
          "duration": 22,
          "status": "Genuine",
          "associatedSiteId": 110920,
          "outfallName": "NEWHAVEN",
          "isImpacting": true,
          "overFlowSiteId": 116065
        }
      ]
    },
    {
      "id": 344824812,
      "eventId": 460112,
      "siteUnitNumber": 12548,
      "bathingSite": "TANKERTON",
      "eventStart": "2021-07-12T08:22:08",
      "eventStop": "2021-07-12T10:03:00",
      "duration": 100,
      "status": "Genuine",
      "associatedSiteId": 109830,
      "outfallName": "SWALECLIFFE NO1",
      "isImpacting": true,
      "overFlowSiteId": 0,
      "historicSpillsList": [
        {
          "id": 344824812,
          "eventId": 460112,
          "siteUnitNumber": 12548,
          "bathingSite": "TANKERTON",
          "eventStart": "2021-07-12T08:22:08",
          "eventStop": "2021-07-12T10:03:00",
          "duration": 100,
          "status": "Genuine",
          "associatedSiteId": 109830,
          "outfallName": "SWALECLIFFE NO1",
          "isImpacting": true,
          "overFlowSiteId": 115444
        },
        {
          "id": 344824813,
          "eventId": 460112,
          "siteUnitNumber": 12549,
          "bathingSite": "HERNE BAY CENTRAL",
          "eventStart": "2021-07-12T08:22:08",
          "eventStop": "2021-07-12T10:03:00",
          "duration": 100,
          "status": "Genuine",
          "associatedSiteId": 109830,
          "outfallName": "SWALECLIFFE NO1",
          "isImpacting": true,
          "overFlowSiteId": 115444,
          "historicSpillsList": []
        }
      ]
    },
    {
      "id": 344848759,
      "eventId": 459911,
      "siteUnitNumber": 12620,
      "bathingSite": "ST HELENS",
      "eventStart": "2021-07-12T03:53:26",
      "eventStop": "2021-07-12T09:52:31",
      "duration": 359,
      "status": "Genuine",
      "associatedSiteId": 110761,
      "outfallName": "BRADING",
      "isImpacting": true,
      "overFlowSiteId": 0,
      "historicSpillsList": [
        {
          "id": 344848759,
          "eventId": 459911,
          "siteUnitNumber": 12620,
          "bathingSite": "ST HELENS",
          "eventStart": "2021-07-12T03:53:26",
          "eventStop": "2021-07-12T09:52:31",
          "duration": 359,
          "status": "Genuine",
          "associatedSiteId": 110761,
          "outfallName": "BRADING",
          "isImpacting": true,
          "overFlowSiteId": 113676
        }
      ]
    },
    {
      "id": 344839674,
      "eventId": 460085,
      "siteUnitNumber": 12567,
      "bathingSite": "FOLKESTONE",
      "eventStart": "2021-07-12T07:00:32",
      "eventStop": "2021-07-12T09:47:53",
      "duration": 167,
      "status": "Genuine",
      "associatedSiteId": 110010,
      "outfallName": "THE STADE FOLKESTONE",
      "isImpacting": true,
      "overFlowSiteId": 0,
      "historicSpillsList": [
        {
          "id": 344839674,
          "eventId": 460085,
          "siteUnitNumber": 12567,
          "bathingSite": "FOLKESTONE",
          "eventStart": "2021-07-12T07:00:32",
          "eventStop": "2021-07-12T09:47:53",
          "duration": 167,
          "status": "Genuine",
          "associatedSiteId": 110010,
          "outfallName": "THE STADE FOLKESTONE",
          "isImpacting": true,
          "overFlowSiteId": 108909
        }
      ]
    },
    {
      "id": 344830768,
      "eventId": 460201,
      "siteUnitNumber": 12576,
      "bathingSite": "ST LEONARDS",
      "eventStart": "2021-07-12T08:57:00",
      "eventStop": "2021-07-12T09:39:00",
      "duration": 42,
      "status": "Genuine",
      "associatedSiteId": 109903,
      "outfallName": "BEXHILL & HASTINGS NO2",
      "isImpacting": true,
      "overFlowSiteId": 0,
      "historicSpillsList": [
        {
          "id": 344830768,
          "eventId": 460201,
          "siteUnitNumber": 12576,
          "bathingSite": "ST LEONARDS",
          "eventStart": "2021-07-12T08:57:00",
          "eventStop": "2021-07-12T09:39:00",
          "duration": 42,
          "status": "Genuine",
          "associatedSiteId": 109903,
          "outfallName": "BEXHILL & HASTINGS NO2",
          "isImpacting": true,
          "overFlowSiteId": 115398
        },
        {
          "id": 344830769,
          "eventId": 460201,
          "siteUnitNumber": 12577,
          "bathingSite": "BEXHILL",
          "eventStart": "2021-07-12T08:57:00",
          "eventStop": "2021-07-12T09:39:00",
          "duration": 42,
          "status": "Genuine",
          "associatedSiteId": 109903,
          "outfallName": "BEXHILL & HASTINGS NO2",
          "isImpacting": true,
          "overFlowSiteId": 115398,
          "historicSpillsList": []
        }
      ]
    },
    {
      "id": 344830766,
      "eventId": 460200,
      "siteUnitNumber": 12576,
      "bathingSite": "ST LEONARDS",
      "eventStart": "2021-07-12T07:18:00",
      "eventStop": "2021-07-12T08:45:00",
      "duration": 87,
      "status": "Genuine",
      "associatedSiteId": 109903,
      "outfallName": "BEXHILL & HASTINGS NO2",
      "isImpacting": true,
      "overFlowSiteId": 0,
      "historicSpillsList": [
        {
          "id": 344830766,
          "eventId": 460200,
          "siteUnitNumber": 12576,
          "bathingSite": "ST LEONARDS",
          "eventStart": "2021-07-12T07:18:00",
          "eventStop": "2021-07-12T08:45:00",
          "duration": 87,
          "status": "Genuine",
          "associatedSiteId": 109903,
          "outfallName": "BEXHILL & HASTINGS NO2",
          "isImpacting": true,
          "overFlowSiteId": 115398
        },
        {
          "id": 344830767,
          "eventId": 460200,
          "siteUnitNumber": 12577,
          "bathingSite": "BEXHILL",
          "eventStart": "2021-07-12T07:18:00",
          "eventStop": "2021-07-12T08:45:00",
          "duration": 87,
          "status": "Genuine",
          "associatedSiteId": 109903,
          "outfallName": "BEXHILL & HASTINGS NO2",
          "isImpacting": true,
          "overFlowSiteId": 115398,
          "historicSpillsList": []
        }
      ]
    },
    {
      "id": 344853592,
      "eventId": 460115,
      "siteUnitNumber": 12615,
      "bathingSite": "COLWELL BAY",
      "eventStart": "2021-07-12T08:28:13",
      "eventStop": "2021-07-12T08:38:47",
      "duration": 10,
      "status": "Under Review",
      "associatedSiteId": 115498,
      "outfallName": "NORTON TRANSFER IOW",
      "isImpacting": true,
      "overFlowSiteId": 0,
      "historicSpillsList": [
        {
          "id": 344853592,
          "eventId": 460115,
          "siteUnitNumber": 12615,
          "bathingSite": "COLWELL BAY",
          "eventStart": "2021-07-12T08:28:13",
          "eventStop": "2021-07-12T08:38:47",
          "duration": 10,
          "status": "Under Review",
          "associatedSiteId": 115498,
          "outfallName": "NORTON TRANSFER IOW",
          "isImpacting": true,
          "overFlowSiteId": 108544
        },
        {
          "id": 344853593,
          "eventId": 460115,
          "siteUnitNumber": 12614,
          "bathingSite": "TOTLAND BAY",
          "eventStart": "2021-07-12T08:28:13",
          "eventStop": "2021-07-12T08:38:47",
          "duration": 10,
          "status": "Under Review",
          "associatedSiteId": 115498,
          "outfallName": "NORTON TRANSFER IOW",
          "isImpacting": true,
          "overFlowSiteId": 108544,
          "historicSpillsList": []
        }
      ]
    },
    {
      "id": 344812810,
      "eventId": 460228,
      "siteUnitNumber": 12544,
      "bathingSite": "SHEERNESS",
      "eventStart": "2021-07-12T08:17:00",
      "eventStop": "2021-07-12T08:21:00",
      "duration": 4,
      "status": "Genuine",
      "associatedSiteId": 109616,
      "outfallName": "SOUTH STREET QUEENBOROUGH",
      "isImpacting": true,
      "overFlowSiteId": 0,
      "historicSpillsList": [
        {
          "id": 344812810,
          "eventId": 460228,
          "siteUnitNumber": 12544,
          "bathingSite": "SHEERNESS",
          "eventStart": "2021-07-12T08:17:00",
          "eventStop": "2021-07-12T08:21:00",
          "duration": 4,
          "status": "Genuine",
          "associatedSiteId": 109616,
          "outfallName": "SOUTH STREET QUEENBOROUGH",
          "isImpacting": true,
          "overFlowSiteId": 108732
        }
      ]
    },
    {
      "id": 344812812,
      "eventId": 460227,
      "siteUnitNumber": 12544,
      "bathingSite": "SHEERNESS",
      "eventStart": "2021-07-12T05:46:00",
      "eventStop": "2021-07-12T08:10:00",
      "duration": 144,
      "status": "Genuine",
      "associatedSiteId": 109616,
      "outfallName": "SOUTH STREET QUEENBOROUGH",
      "isImpacting": true,
      "overFlowSiteId": 0,
      "historicSpillsList": [
        {
          "id": 344812812,
          "eventId": 460227,
          "siteUnitNumber": 12544,
          "bathingSite": "SHEERNESS",
          "eventStart": "2021-07-12T05:46:00",
          "eventStop": "2021-07-12T08:10:00",
          "duration": 144,
          "status": "Genuine",
          "associatedSiteId": 109616,
          "outfallName": "SOUTH STREET QUEENBOROUGH",
          "isImpacting": true,
          "overFlowSiteId": 108732
        }
      ]
    },
    {
      "id": 344818007,
      "eventId": 460022,
      "siteUnitNumber": 12616,
      "bathingSite": "GURNARD",
      "eventStart": "2021-07-12T05:30:00",
      "eventStop": "2021-07-12T07:53:00",
      "duration": 143,
      "status": "Genuine",
      "associatedSiteId": 109705,
      "outfallName": "SPRINGHILL COWES TRANSFER",
      "isImpacting": true,
      "overFlowSiteId": 0,
      "historicSpillsList": [
        {
          "id": 344818007,
          "eventId": 460022,
          "siteUnitNumber": 12616,
          "bathingSite": "GURNARD",
          "eventStart": "2021-07-12T05:30:00",
          "eventStop": "2021-07-12T07:53:00",
          "duration": 143,
          "status": "Genuine",
          "associatedSiteId": 109705,
          "outfallName": "SPRINGHILL COWES TRANSFER",
          "isImpacting": true,
          "overFlowSiteId": 108943
        },
        {
          "id": 344818008,
          "eventId": 460022,
          "siteUnitNumber": 12617,
          "bathingSite": "COWES",
          "eventStart": "2021-07-12T05:30:00",
          "eventStop": "2021-07-12T07:53:00",
          "duration": 143,
          "status": "Genuine",
          "associatedSiteId": 109705,
          "outfallName": "SPRINGHILL COWES TRANSFER",
          "isImpacting": true,
          "overFlowSiteId": 108943,
          "historicSpillsList": []
        }
      ]
    },
    {
      "id": 344822779,
      "eventId": 460086,
      "siteUnitNumber": 12567,
      "bathingSite": "FOLKESTONE",
      "eventStart": "2021-07-12T07:07:12",
      "eventStop": "2021-07-12T07:38:35",
      "duration": 31,
      "status": "Genuine",
      "associatedSiteId": 109794,
      "outfallName": "GRANVILLE PARADE SANDGATE",
      "isImpacting": true,
      "overFlowSiteId": 0,
      "historicSpillsList": [
        {
          "id": 344822779,
          "eventId": 460086,
          "siteUnitNumber": 12567,
          "bathingSite": "FOLKESTONE",
          "eventStart": "2021-07-12T07:07:12",
          "eventStop": "2021-07-12T07:38:35",
          "duration": 31,
          "status": "Genuine",
          "associatedSiteId": 109794,
          "outfallName": "GRANVILLE PARADE SANDGATE",
          "isImpacting": true,
          "overFlowSiteId": 108642
        },
        {
          "id": 344822780,
          "eventId": 460086,
          "siteUnitNumber": 12568,
          "bathingSite": "SANDGATE",
          "eventStart": "2021-07-12T07:07:12",
          "eventStop": "2021-07-12T07:38:35",
          "duration": 31,
          "status": "Genuine",
          "associatedSiteId": 109794,
          "outfallName": "GRANVILLE PARADE SANDGATE",
          "isImpacting": true,
          "overFlowSiteId": 108642,
          "historicSpillsList": []
        }
      ]
    },
    {
      "id": 344812685,
      "eventId": 460019,
      "siteUnitNumber": 12544,
      "bathingSite": "SHEERNESS",
      "eventStart": "2021-07-12T05:24:38",
      "eventStop": "2021-07-12T06:51:00",
      "duration": 86,
      "status": "Genuine",
      "associatedSiteId": 109614,
      "outfallName": "BRIELLE WAY WESTMINSTER",
      "isImpacting": true,
      "overFlowSiteId": 0,
      "historicSpillsList": [
        {
          "id": 344812685,
          "eventId": 460019,
          "siteUnitNumber": 12544,
          "bathingSite": "SHEERNESS",
          "eventStart": "2021-07-12T05:24:38",
          "eventStop": "2021-07-12T06:51:00",
          "duration": 86,
          "status": "Genuine",
          "associatedSiteId": 109614,
          "outfallName": "BRIELLE WAY WESTMINSTER",
          "isImpacting": true,
          "overFlowSiteId": 108810
        }
      ]
    },
    {
      "id": 344830772,
      "eventId": 460199,
      "siteUnitNumber": 12576,
      "bathingSite": "ST LEONARDS",
      "eventStart": "2021-07-12T00:59:00",
      "eventStop": "2021-07-12T06:48:00",
      "duration": 349,
      "status": "Genuine",
      "associatedSiteId": 109903,
      "outfallName": "BEXHILL & HASTINGS NO2",
      "isImpacting": true,
      "overFlowSiteId": 0,
      "historicSpillsList": [
        {
          "id": 344830772,
          "eventId": 460199,
          "siteUnitNumber": 12576,
          "bathingSite": "ST LEONARDS",
          "eventStart": "2021-07-12T00:59:00",
          "eventStop": "2021-07-12T06:48:00",
          "duration": 349,
          "status": "Genuine",
          "associatedSiteId": 109903,
          "outfallName": "BEXHILL & HASTINGS NO2",
          "isImpacting": true,
          "overFlowSiteId": 115398
        },
        {
          "id": 344830773,
          "eventId": 460199,
          "siteUnitNumber": 12577,
          "bathingSite": "BEXHILL",
          "eventStart": "2021-07-12T00:59:00",
          "eventStop": "2021-07-12T06:48:00",
          "duration": 349,
          "status": "Genuine",
          "associatedSiteId": 109903,
          "outfallName": "BEXHILL & HASTINGS NO2",
          "isImpacting": true,
          "overFlowSiteId": 115398,
          "historicSpillsList": []
        }
      ]
    },
    {
      "id": 344818885,
      "eventId": 460024,
      "siteUnitNumber": 12607,
      "bathingSite": "HILLHEAD",
      "eventStart": "2021-07-12T05:33:37",
      "eventStop": "2021-07-12T05:54:40",
      "duration": 21,
      "status": "Genuine",
      "associatedSiteId": 109715,
      "outfallName": "SALTERNS ROAD HILL HEAD",
      "isImpacting": true,
      "overFlowSiteId": 0,
      "historicSpillsList": [
        {
          "id": 344818885,
          "eventId": 460024,
          "siteUnitNumber": 12607,
          "bathingSite": "HILLHEAD",
          "eventStart": "2021-07-12T05:33:37",
          "eventStop": "2021-07-12T05:54:40",
          "duration": 21,
          "status": "Genuine",
          "associatedSiteId": 109715,
          "outfallName": "SALTERNS ROAD HILL HEAD",
          "isImpacting": true,
          "overFlowSiteId": 108441
        },
        {
          "id": 344818886,
          "eventId": 460024,
          "siteUnitNumber": 12606,
          "bathingSite": "LEE-ON-SOLENT",
          "eventStart": "2021-07-12T05:33:37",
          "eventStop": "2021-07-12T05:54:40",
          "duration": 21,
          "status": "Genuine",
          "associatedSiteId": 109715,
          "outfallName": "SALTERNS ROAD HILL HEAD",
          "isImpacting": true,
          "overFlowSiteId": 108441,
          "historicSpillsList": []
        }
      ]
    },
    {
      "id": 344821900,
      "eventId": 459838,
      "siteUnitNumber": 12618,
      "bathingSite": "RYDE",
      "eventStart": "2021-07-12T05:00:00",
      "eventStop": "2021-07-12T05:50:00",
      "duration": 50,
      "status": "Genuine",
      "associatedSiteId": 109778,
      "outfallName": "PRINCE CONSORT RYDE NEW",
      "isImpacting": true,
      "overFlowSiteId": 0,
      "historicSpillsList": [
        {
          "id": 344821900,
          "eventId": 459838,
          "siteUnitNumber": 12618,
          "bathingSite": "RYDE",
          "eventStart": "2021-07-12T05:00:00",
          "eventStop": "2021-07-12T05:50:00",
          "duration": 50,
          "status": "Genuine",
          "associatedSiteId": 109778,
          "outfallName": "PRINCE CONSORT RYDE NEW",
          "isImpacting": true,
          "overFlowSiteId": 108043
        }
      ]
    },
    {
      "id": 344849149,
      "eventId": 459817,
      "siteUnitNumber": 12582,
      "bathingSite": "SEAFORD",
      "eventStart": "2021-07-12T01:29:28",
      "eventStop": "2021-07-12T05:41:24",
      "duration": 251,
      "status": "Genuine",
      "associatedSiteId": 110920,
      "outfallName": "NEWHAVEN",
      "isImpacting": true,
      "overFlowSiteId": 0,
      "historicSpillsList": [
        {
          "id": 344849149,
          "eventId": 459817,
          "siteUnitNumber": 12582,
          "bathingSite": "SEAFORD",
          "eventStart": "2021-07-12T01:29:28",
          "eventStop": "2021-07-12T05:41:24",
          "duration": 251,
          "status": "Genuine",
          "associatedSiteId": 110920,
          "outfallName": "NEWHAVEN",
          "isImpacting": true,
          "overFlowSiteId": 116065
        }
      ]
    },
    {
      "id": 344822030,
      "eventId": 459954,
      "siteUnitNumber": 12618,
      "bathingSite": "RYDE",
      "eventStart": "2021-07-12T04:22:10",
      "eventStop": "2021-07-12T05:35:28",
      "duration": 73,
      "status": "Genuine",
      "associatedSiteId": 109780,
      "outfallName": "LADIES WALK BINSTEAD",
      "isImpacting": true,
      "overFlowSiteId": 0,
      "historicSpillsList": [
        {
          "id": 344822030,
          "eventId": 459954,
          "siteUnitNumber": 12618,
          "bathingSite": "RYDE",
          "eventStart": "2021-07-12T04:22:10",
          "eventStop": "2021-07-12T05:35:28",
          "duration": 73,
          "status": "Genuine",
          "associatedSiteId": 109780,
          "outfallName": "LADIES WALK BINSTEAD",
          "isImpacting": true,
          "overFlowSiteId": 107406
        }
      ]
    },
    {
      "id": 344812814,
      "eventId": 460061,
      "siteUnitNumber": 12544,
      "bathingSite": "SHEERNESS",
      "eventStart": "2021-07-12T05:23:00",
      "eventStop": "2021-07-12T05:33:00",
      "duration": 10,
      "status": "Genuine",
      "associatedSiteId": 109616,
      "outfallName": "SOUTH STREET QUEENBOROUGH",
      "isImpacting": true,
      "overFlowSiteId": 0,
      "historicSpillsList": [
        {
          "id": 344812814,
          "eventId": 460061,
          "siteUnitNumber": 12544,
          "bathingSite": "SHEERNESS",
          "eventStart": "2021-07-12T05:23:00",
          "eventStop": "2021-07-12T05:33:00",
          "duration": 10,
          "status": "Genuine",
          "associatedSiteId": 109616,
          "outfallName": "SOUTH STREET QUEENBOROUGH",
          "isImpacting": true,
          "overFlowSiteId": 108732
        }
      ]
    },
    {
      "id": 344812813,
      "eventId": 460060,
      "siteUnitNumber": 12544,
      "bathingSite": "SHEERNESS",
      "eventStart": "2021-07-12T05:14:00",
      "eventStop": "2021-07-12T05:19:00",
      "duration": 5,
      "status": "Genuine",
      "associatedSiteId": 109616,
      "outfallName": "SOUTH STREET QUEENBOROUGH",
      "isImpacting": true,
      "overFlowSiteId": 0,
      "historicSpillsList": [
        {
          "id": 344812813,
          "eventId": 460060,
          "siteUnitNumber": 12544,
          "bathingSite": "SHEERNESS",
          "eventStart": "2021-07-12T05:14:00",
          "eventStop": "2021-07-12T05:19:00",
          "duration": 5,
          "status": "Genuine",
          "associatedSiteId": 109616,
          "outfallName": "SOUTH STREET QUEENBOROUGH",
          "isImpacting": true,
          "overFlowSiteId": 108732
        }
      ]
    },
    {
      "id": 344814701,
      "eventId": 459988,
      "siteUnitNumber": 12616,
      "bathingSite": "GURNARD",
      "eventStart": "2021-07-12T05:09:18",
      "eventStop": "2021-07-12T05:16:00",
      "duration": 6,
      "status": "Genuine",
      "associatedSiteId": 109652,
      "outfallName": "WOODVALE TRANSFER NO1",
      "isImpacting": true,
      "overFlowSiteId": 0,
      "historicSpillsList": [
        {
          "id": 344814701,
          "eventId": 459988,
          "siteUnitNumber": 12616,
          "bathingSite": "GURNARD",
          "eventStart": "2021-07-12T05:09:18",
          "eventStop": "2021-07-12T05:16:00",
          "duration": 6,
          "status": "Genuine",
          "associatedSiteId": 109652,
          "outfallName": "WOODVALE TRANSFER NO1",
          "isImpacting": true,
          "overFlowSiteId": 115966
        },
        {
          "id": 344814702,
          "eventId": 459988,
          "siteUnitNumber": 12617,
          "bathingSite": "COWES",
          "eventStart": "2021-07-12T05:09:18",
          "eventStop": "2021-07-12T05:16:00",
          "duration": 6,
          "status": "Genuine",
          "associatedSiteId": 109652,
          "outfallName": "WOODVALE TRANSFER NO1",
          "isImpacting": true,
          "overFlowSiteId": 115966,
          "historicSpillsList": []
        }
      ]
    },
    {
      "id": 344812815,
      "eventId": 460059,
      "siteUnitNumber": 12544,
      "bathingSite": "SHEERNESS",
      "eventStart": "2021-07-12T05:05:00",
      "eventStop": "2021-07-12T05:12:00",
      "duration": 7,
      "status": "Genuine",
      "associatedSiteId": 109616,
      "outfallName": "SOUTH STREET QUEENBOROUGH",
      "isImpacting": true,
      "overFlowSiteId": 0,
      "historicSpillsList": [
        {
          "id": 344812815,
          "eventId": 460059,
          "siteUnitNumber": 12544,
          "bathingSite": "SHEERNESS",
          "eventStart": "2021-07-12T05:05:00",
          "eventStop": "2021-07-12T05:12:00",
          "duration": 7,
          "status": "Genuine",
          "associatedSiteId": 109616,
          "outfallName": "SOUTH STREET QUEENBOROUGH",
          "isImpacting": true,
          "overFlowSiteId": 108732
        }
      ]
    },
    {
      "id": 344848295,
      "eventId": 459881,
      "siteUnitNumber": 12616,
      "bathingSite": "GURNARD",
      "eventStart": "2021-07-12T03:40:10",
      "eventStop": "2021-07-12T05:08:00",
      "duration": 87,
      "status": "Genuine",
      "associatedSiteId": 110701,
      "outfallName": "TERMINUS ROAD COWES 2",
      "isImpacting": true,
      "overFlowSiteId": 0,
      "historicSpillsList": [
        {
          "id": 344848295,
          "eventId": 459881,
          "siteUnitNumber": 12616,
          "bathingSite": "GURNARD",
          "eventStart": "2021-07-12T03:40:10",
          "eventStop": "2021-07-12T05:08:00",
          "duration": 87,
          "status": "Genuine",
          "associatedSiteId": 110701,
          "outfallName": "TERMINUS ROAD COWES 2",
          "isImpacting": true,
          "overFlowSiteId": 108563
        },
        {
          "id": 344848296,
          "eventId": 459881,
          "siteUnitNumber": 12617,
          "bathingSite": "COWES",
          "eventStart": "2021-07-12T03:40:10",
          "eventStop": "2021-07-12T05:08:00",
          "duration": 87,
          "status": "Genuine",
          "associatedSiteId": 110701,
          "outfallName": "TERMINUS ROAD COWES 2",
          "isImpacting": true,
          "overFlowSiteId": 108563,
          "historicSpillsList": []
        }
      ]
    },
    {
      "id": 344828896,
      "eventId": 459820,
      "siteUnitNumber": 12568,
      "bathingSite": "SANDGATE",
      "eventStart": "2021-07-12T02:00:00",
      "eventStop": "2021-07-12T05:00:00",
      "duration": 180,
      "status": "Genuine",
      "associatedSiteId": 109897,
      "outfallName": "RANGE ROAD HYTHE K LONG",
      "isImpacting": true,
      "overFlowSiteId": 0,
      "historicSpillsList": [
        {
          "id": 344828896,
          "eventId": 459820,
          "siteUnitNumber": 12568,
          "bathingSite": "SANDGATE",
          "eventStart": "2021-07-12T02:00:00",
          "eventStop": "2021-07-12T05:00:00",
          "duration": 180,
          "status": "Genuine",
          "associatedSiteId": 109897,
          "outfallName": "RANGE ROAD HYTHE K LONG",
          "isImpacting": true,
          "overFlowSiteId": 116048
        },
        {
          "id": 344828897,
          "eventId": 459820,
          "siteUnitNumber": 12569,
          "bathingSite": "HYTHE",
          "eventStart": "2021-07-12T02:00:00",
          "eventStop": "2021-07-12T05:00:00",
          "duration": 180,
          "status": "Genuine",
          "associatedSiteId": 109897,
          "outfallName": "RANGE ROAD HYTHE K LONG",
          "isImpacting": true,
          "overFlowSiteId": 116048,
          "historicSpillsList": []
        }
      ]
    },
    {
      "id": 344848293,
      "eventId": 460035,
      "siteUnitNumber": 12616,
      "bathingSite": "GURNARD",
      "eventStart": "2021-07-12T03:57:45",
      "eventStop": "2021-07-12T04:43:20",
      "duration": 45,
      "status": "Genuine",
      "associatedSiteId": 110701,
      "outfallName": "TERMINUS ROAD COWES 2",
      "isImpacting": true,
      "overFlowSiteId": 0,
      "historicSpillsList": [
        {
          "id": 344848293,
          "eventId": 460035,
          "siteUnitNumber": 12616,
          "bathingSite": "GURNARD",
          "eventStart": "2021-07-12T03:57:45",
          "eventStop": "2021-07-12T04:43:20",
          "duration": 45,
          "status": "Genuine",
          "associatedSiteId": 110701,
          "outfallName": "TERMINUS ROAD COWES 2",
          "isImpacting": true,
          "overFlowSiteId": 108562
        },
        {
          "id": 344848294,
          "eventId": 460035,
          "siteUnitNumber": 12617,
          "bathingSite": "COWES",
          "eventStart": "2021-07-12T03:57:45",
          "eventStop": "2021-07-12T04:43:20",
          "duration": 45,
          "status": "Genuine",
          "associatedSiteId": 110701,
          "outfallName": "TERMINUS ROAD COWES 2",
          "isImpacting": true,
          "overFlowSiteId": 108562,
          "historicSpillsList": []
        }
      ]
    }
  ]
}