{
  "currentPage": 153,
  "totalItems": 21025,
  "totalPages": 841,
  "items": [
    {
      "id": 344806221,
      "eventId": 884423,
      "siteUnitNumber": 12582,
      "bathingSite": "SEAFORD",
      "eventStart": "2023-10-28T22:21:07",
      "eventStop": "2023-10-29T06:01:09",
      "duration": 460,
      "status": "Genuine",
      "associatedSiteId": 110920,
      "outfallName": "NEWHAVEN",
      "isImpacting": false,
      "overFlowSiteId": 0,
      "historicSpillsList": []
    },
    {
      "id": 344796516,
      "eventId": 884956,
      "siteUnitNumber": 12575,
      "bathingSite": "HASTINGS PELHAM BEACH",
      "eventStart": "2023-10-29T05:42:30",
      "eventStop": "2023-10-29T05:51:00",
      "duration": 8,
      "status": "Genuine",
      "associatedSiteId": 109982,
      "outfallName": "COOMBS HASTINGS",
      "isImpacting": false,
      "overFlowSiteId": 0,
      "historicSpillsList": []
    },
    {
      "id": 344783897,
      "eventId": 884504,
      "siteUnitNumber": 12579,
      "bathingSite": "PEVENSEY BAY",
      "eventStart": "2023-10-28T21:54:03",
      "eventStop": "2023-10-29T05:45:00",
      "duration": 470,
      "status": "Not Genuine",
      "associatedSiteId": 109891,
      "outfallName": "MONTAGUE WAY WESTHAM",
      "isImpacting": true,
      "overFlowSiteId": 0,
      "historicSpillsList": []
    },
    {
      "id": 344796522,
      "eventId": 884935,
      "siteUnitNumber": 12575,
      "bathingSite": "HASTINGS PELHAM BEACH",
      "eventStart": "2023-10-29T05:24:17",
      "eventStop": "2023-10-29T05:33:38",
      "duration": 9,
      "status": "Genuine",
      "associatedSiteId": 109982,
      "outfallName": "COOMBS HASTINGS",
      "isImpacting": false,
      "overFlowSiteId": 0,
      "historicSpillsList": []
    },
    {
      "id": 344791356,
      "eventId": 883776,
      "siteUnitNumber": 12582,
      "bathingSite": "SEAFORD",
      "eventStart": "2023-10-28T14:37:39",
      "eventStop": "2023-10-29T05:24:14",
      "duration": 886,
      "status": "Not Genuine",
      "associatedSiteId": 109957,
      "outfallName": "PORTOBELLO BRIGHTON NO2",
      "isImpacting": false,
      "overFlowSiteId": 0,
      "historicSpillsList": []
    },
    {
      "id": 344796520,
      "eventId": 884930,
      "siteUnitNumber": 12575,
      "bathingSite": "HASTINGS PELHAM BEACH",
      "eventStart": "2023-10-29T05:06:05",
      "eventStop": "2023-10-29T05:16:02",
      "duration": 9,
      "status": "Genuine",
      "associatedSiteId": 109982,
      "outfallName": "COOMBS HASTINGS",
      "isImpacting": false,
      "overFlowSiteId": 0,
      "historicSpillsList": []
    },
    {
      "id": 344779367,
      "eventId": 888256,
      "siteUnitNumber": 12618,
      "bathingSite": "RYDE",
      "eventStart": "2023-10-29T02:00:00",
      "eventStop": "2023-10-29T05:08:00",
      "duration": 188,
      "status": "Genuine",
      "associatedSiteId": 109780,
      "outfallName": "LADIES WALK BINSTEAD",
      "isImpacting": true,
      "overFlowSiteId": 0,
      "historicSpillsList": [
        {
          "id": 344779367,
          "eventId": 888256,
          "siteUnitNumber": 12618,
          "bathingSite": "RYDE",
          "eventStart": "2023-10-29T02:00:00",
          "eventStop": "2023-10-29T05:08:00",
          "duration": 188,
          "status": "Genuine",
          "associatedSiteId": 109780,
          "outfallName": "LADIES WALK BINSTEAD",
          "isImpacting": true,
          "overFlowSiteId": 107406
        }
      ]
    },
    {
      "id": 344784710,
      "eventId": 884939,
      "siteUnitNumber": 12568,
      "bathingSite": "SANDGATE",
      "eventStart": "2023-10-29T04:52:32",
      "eventStop": "2023-10-29T04:59:00",
      "duration": 6,
      "status": "Genuine",
      "associatedSiteId": 109896,
      "outfallName": "RANGE ROAD HYTHE K SHORT",
      "isImpacting": false,
      "overFlowSiteId": 0,
      "historicSpillsList": []
    },
    {
      "id": 344796526,
      "eventId": 884922,
      "siteUnitNumber": 12575,
      "bathingSite": "HASTINGS PELHAM BEACH",
      "eventStart": "2023-10-29T04:48:21",
      "eventStop": "2023-10-29T04:57:53",
      "duration": 9,
      "status": "Genuine",
      "associatedSiteId": 109982,
      "outfallName": "COOMBS HASTINGS",
      "isImpacting": false,
      "overFlowSiteId": 0,
      "historicSpillsList": []
    },
    {
      "id": 344777427,
      "eventId": 884442,
      "siteUnitNumber": 12599,
      "bathingSite": "WEST WITTERING",
      "eventStart": "2023-10-28T22:42:31",
      "eventStop": "2023-10-29T04:42:00",
      "duration": 359,
      "status": "Genuine",
      "associatedSiteId": 109764,
      "outfallName": "FISHERY LANE HAYLING ISLAND",
      "isImpacting": true,
      "overFlowSiteId": 0,
      "historicSpillsList": [
        {
          "id": 344777427,
          "eventId": 884442,
          "siteUnitNumber": 12599,
          "bathingSite": "WEST WITTERING",
          "eventStart": "2023-10-28T22:42:31",
          "eventStop": "2023-10-29T04:42:00",
          "duration": 359,
          "status": "Genuine",
          "associatedSiteId": 109764,
          "outfallName": "FISHERY LANE HAYLING ISLAND",
          "isImpacting": true,
          "overFlowSiteId": 108429
        },
        {
          "id": 344777428,
          "eventId": 884442,
          "siteUnitNumber": 12600,
          "bathingSite": "EASTOKE",
          "eventStart": "2023-10-28T22:42:31",
          "eventStop": "2023-10-29T04:42:00",
          "duration": 359,
          "status": "Genuine",
          "associatedSiteId": 109764,
          "outfallName": "FISHERY LANE HAYLING ISLAND",
          "isImpacting": true,
          "overFlowSiteId": 108429,
          "historicSpillsList": []
        },
        {
          "id": 344777429,
          "eventId": 884442,
          "siteUnitNumber": 12601,
          "bathingSite": "BEACHLANDS CENTRAL",
          "eventStart": "2023-10-28T22:42:31",
          "eventStop": "2023-10-29T04:42:00",
          "duration": 359,
          "status": "Genuine",
          "associatedSiteId": 109764,
          "outfallName": "FISHERY LANE HAYLING ISLAND",
          "isImpacting": true,
          "overFlowSiteId": 108429,
          "historicSpillsList": []
        },
        {
          "id": 344777430,
          "eventId": 884442,
          "siteUnitNumber": 12602,
          "bathingSite": "BEACHLANDS WEST",
          "eventStart": "2023-10-28T22:42:31",
          "eventStop": "2023-10-29T04:42:00",
          "duration": 359,
          "status": "Genuine",
          "associatedSiteId": 109764,
          "outfallName": "FISHERY LANE HAYLING ISLAND",
          "isImpacting": true,
          "overFlowSiteId": 108429,
          "historicSpillsList": []
        },
        {
          "id": 344777424,
          "eventId": 884442,
          "siteUnitNumber": 12662,
          "bathingSite": "CHICHESTER HARBOUR",
          "eventStart": "2023-10-28T22:42:31",
          "eventStop": "2023-10-29T04:42:00",
          "duration": 359,
          "status": "Genuine",
          "associatedSiteId": 109764,
          "outfallName": "FISHERY LANE HAYLING ISLAND",
          "isImpacting": true,
          "overFlowSiteId": 108429,
          "historicSpillsList": []
        }
      ]
    },
    {
      "id": 344796354,
      "eventId": 887961,
      "siteUnitNumber": 12575,
      "bathingSite": "HASTINGS PELHAM BEACH",
      "eventStart": "2023-10-29T04:30:00",
      "eventStop": "2023-10-29T04:40:00",
      "duration": 10,
      "status": "Genuine",
      "associatedSiteId": 109982,
      "outfallName": "COOMBS HASTINGS",
      "isImpacting": false,
      "overFlowSiteId": 0,
      "historicSpillsList": []
    },
    {
      "id": 344790506,
      "eventId": 900551,
      "siteUnitNumber": 12620,
      "bathingSite": "ST HELENS",
      "eventStart": "2023-10-28T21:43:00",
      "eventStop": "2023-10-29T04:23:00",
      "duration": 400,
      "status": "Genuine",
      "associatedSiteId": 109939,
      "outfallName": "LANE END ROAD BEMBRIDGE",
      "isImpacting": true,
      "overFlowSiteId": 0,
      "historicSpillsList": [
        {
          "id": 344790507,
          "eventId": 900551,
          "siteUnitNumber": 12621,
          "bathingSite": "BEMBRIDGE",
          "eventStart": "2023-10-28T21:43:00",
          "eventStop": "2023-10-29T04:23:00",
          "duration": 400,
          "status": "Genuine",
          "associatedSiteId": 109939,
          "outfallName": "LANE END ROAD BEMBRIDGE",
          "isImpacting": true,
          "overFlowSiteId": 108533,
          "historicSpillsList": []
        }
      ]
    },
    {
      "id": 344796524,
      "eventId": 884885,
      "siteUnitNumber": 12575,
      "bathingSite": "HASTINGS PELHAM BEACH",
      "eventStart": "2023-10-29T04:10:24",
      "eventStop": "2023-10-29T04:22:00",
      "duration": 11,
      "status": "Genuine",
      "associatedSiteId": 109982,
      "outfallName": "COOMBS HASTINGS",
      "isImpacting": false,
      "overFlowSiteId": 0,
      "historicSpillsList": []
    },
    {
      "id": 344795104,
      "eventId": 883895,
      "siteUnitNumber": 12591,
      "bathingSite": "LITTLEHAMPTON",
      "eventStart": "2023-10-28T16:45:00",
      "eventStop": "2023-10-29T04:08:00",
      "duration": 683,
      "status": "Genuine",
      "associatedSiteId": 109968,
      "outfallName": "FORD ROAD ARUNDEL",
      "isImpacting": true,
      "overFlowSiteId": 0,
      "historicSpillsList": [
        {
          "id": 344795104,
          "eventId": 883895,
          "siteUnitNumber": 12591,
          "bathingSite": "LITTLEHAMPTON",
          "eventStart": "2023-10-28T16:45:00",
          "eventStop": "2023-10-29T04:08:00",
          "duration": 683,
          "status": "Genuine",
          "associatedSiteId": 109968,
          "outfallName": "FORD ROAD ARUNDEL",
          "isImpacting": true,
          "overFlowSiteId": 108002
        }
      ]
    },
    {
      "id": 344784714,
      "eventId": 884937,
      "siteUnitNumber": 12568,
      "bathingSite": "SANDGATE",
      "eventStart": "2023-10-29T04:00:50",
      "eventStop": "2023-10-29T04:07:24",
      "duration": 6,
      "status": "Genuine",
      "associatedSiteId": 109896,
      "outfallName": "RANGE ROAD HYTHE K SHORT",
      "isImpacting": false,
      "overFlowSiteId": 0,
      "historicSpillsList": []
    },
    {
      "id": 344796530,
      "eventId": 884850,
      "siteUnitNumber": 12575,
      "bathingSite": "HASTINGS PELHAM BEACH",
      "eventStart": "2023-10-29T03:40:10",
      "eventStop": "2023-10-29T04:04:22",
      "duration": 24,
      "status": "Genuine",
      "associatedSiteId": 109982,
      "outfallName": "COOMBS HASTINGS",
      "isImpacting": false,
      "overFlowSiteId": 0,
      "historicSpillsList": []
    },
    {
      "id": 344777365,
      "eventId": 884385,
      "siteUnitNumber": 12607,
      "bathingSite": "HILLHEAD",
      "eventStart": "2023-10-28T21:53:54",
      "eventStop": "2023-10-29T04:00:00",
      "duration": 366,
      "status": "Genuine",
      "associatedSiteId": 109751,
      "outfallName": "HOOK PARK NO.1",
      "isImpacting": false,
      "overFlowSiteId": 0,
      "historicSpillsList": []
    },
    {
      "id": 344796532,
      "eventId": 884789,
      "siteUnitNumber": 12575,
      "bathingSite": "HASTINGS PELHAM BEACH",
      "eventStart": "2023-10-29T02:40:51",
      "eventStop": "2023-10-29T03:57:00",
      "duration": 76,
      "status": "Genuine",
      "associatedSiteId": 109982,
      "outfallName": "COOMBS HASTINGS",
      "isImpacting": true,
      "overFlowSiteId": 0,
      "historicSpillsList": [
        {
          "id": 344796533,
          "eventId": 884789,
          "siteUnitNumber": 12576,
          "bathingSite": "ST LEONARDS",
          "eventStart": "2023-10-29T02:40:51",
          "eventStop": "2023-10-29T03:57:00",
          "duration": 76,
          "status": "Genuine",
          "associatedSiteId": 109982,
          "outfallName": "COOMBS HASTINGS",
          "isImpacting": true,
          "overFlowSiteId": 110211,
          "historicSpillsList": []
        }
      ]
    },
    {
      "id": 344791320,
      "eventId": 887989,
      "siteUnitNumber": 12582,
      "bathingSite": "SEAFORD",
      "eventStart": "2023-10-29T02:05:00",
      "eventStop": "2023-10-29T03:47:00",
      "duration": 102,
      "status": "Genuine",
      "associatedSiteId": 109957,
      "outfallName": "PORTOBELLO BRIGHTON NO2",
      "isImpacting": true,
      "overFlowSiteId": 0,
      "historicSpillsList": [
        {
          "id": 344791321,
          "eventId": 887989,
          "siteUnitNumber": 12583,
          "bathingSite": "SALTDEAN",
          "eventStart": "2023-10-29T02:05:00",
          "eventStop": "2023-10-29T03:47:00",
          "duration": 102,
          "status": "Genuine",
          "associatedSiteId": 109957,
          "outfallName": "PORTOBELLO BRIGHTON NO2",
          "isImpacting": true,
          "overFlowSiteId": 116036,
          "historicSpillsList": []
        }
      ]
    },
    {
      "id": 344806078,
      "eventId": 884366,
      "siteUnitNumber": 12620,
      "bathingSite": "ST HELENS",
      "eventStart": "2023-10-28T21:38:00",
      "eventStop": "2023-10-29T03:45:00",
      "duration": 367,
      "status": "Genuine",
      "associatedSiteId": 110761,
      "outfallName": "BRADING",
      "isImpacting": true,
      "overFlowSiteId": 0,
      "historicSpillsList": [
        {
          "id": 344806078,
          "eventId": 884366,
          "siteUnitNumber": 12620,
          "bathingSite": "ST HELENS",
          "eventStart": "2023-10-28T21:38:00",
          "eventStop": "2023-10-29T03:45:00",
          "duration": 367,
          "status": "Genuine",
          "associatedSiteId": 110761,
          "outfallName": "BRADING",
          "isImpacting": true,
          "overFlowSiteId": 113676
        }
      ]
    },
    {
      "id": 344774711,
      "eventId": 898875,
      "siteUnitNumber": 12616,
      "bathingSite": "GURNARD",
      "eventStart": "2023-10-28T20:30:00",
      "eventStop": "2023-10-29T03:42:00",
      "duration": 432,
      "status": "Genuine",
      "associatedSiteId": 109704,
      "outfallName": "EGYPT POINT COWES",
      "isImpacting": true,
      "overFlowSiteId": 0,
      "historicSpillsList": [
        {
          "id": 344774712,
          "eventId": 898875,
          "siteUnitNumber": 12617,
          "bathingSite": "COWES",
          "eventStart": "2023-10-28T20:30:00",
          "eventStop": "2023-10-29T03:42:00",
          "duration": 432,
          "status": "Genuine",
          "associatedSiteId": 109704,
          "outfallName": "EGYPT POINT COWES",
          "isImpacting": true,
          "overFlowSiteId": 116213,
          "historicSpillsList": []
        }
      ]
    },
    {
      "id": 344773687,
      "eventId": 890274,
      "siteUnitNumber": 12616,
      "bathingSite": "GURNARD",
      "eventStart": "2023-10-28T20:05:00",
      "eventStop": "2023-10-29T03:36:00",
      "duration": 451,
      "status": "Genuine",
      "associatedSiteId": 109700,
      "outfallName": "MARKET HILL COWES",
      "isImpacting": false,
      "overFlowSiteId": 0,
      "historicSpillsList": []
    },
    {
      "id": 344796528,
      "eventId": 884827,
      "siteUnitNumber": 12575,
      "bathingSite": "HASTINGS PELHAM BEACH",
      "eventStart": "2023-10-29T03:22:41",
      "eventStop": "2023-10-29T03:32:41",
      "duration": 10,
      "status": "Genuine",
      "associatedSiteId": 109982,
      "outfallName": "COOMBS HASTINGS",
      "isImpacting": false,
      "overFlowSiteId": 0,
      "historicSpillsList": []
    },
    {
      "id": 344780247,
      "eventId": 884725,
      "siteUnitNumber": 12661,
      "bathingSite": "LANGSTONE HARBOUR",
      "eventStart": "2023-10-29T02:00:00",
      "eventStop": "2023-10-29T03:30:00",
      "duration": 90,
      "status": "Genuine",
      "associatedSiteId": 109817,
      "outfallName": "MAINLAND DRAYTON",
      "isImpacting": true,
      "overFlowSiteId": 0,
      "historicSpillsList": [
        {
          "id": 344780247,
          "eventId": 884725,
          "siteUnitNumber": 12661,
          "bathingSite": "LANGSTONE HARBOUR",
          "eventStart": "2023-10-29T02:00:00",
          "eventStop": "2023-10-29T03:30:00",
          "duration": 90,
          "status": "Genuine",
          "associatedSiteId": 109817,
          "outfallName": "MAINLAND DRAYTON",
          "isImpacting": true,
          "overFlowSiteId": 115960
        }
      ]
    },
    {
      "id": 344784718,
      "eventId": 884839,
      "siteUnitNumber": 12568,
      "bathingSite": "SANDGATE",
      "eventStart": "2023-10-29T03:20:37",
      "eventStop": "2023-10-29T03:27:04",
      "duration": 6,
      "status": "Genuine",
      "associatedSiteId": 109896,
      "outfallName": "RANGE ROAD HYTHE K SHORT",
      "isImpacting": false,
      "overFlowSiteId": 0,
      "historicSpillsList": []
    }
  ]
}