{
  "currentPage": 174,
  "totalItems": 21025,
  "totalPages": 841,
  "items": [
    {
      "id": 344788832,
      "eventId": 878832,
      "siteUnitNumber": 12590,
      "bathingSite": "WORTHING",
      "eventStart": "2023-10-25T05:45:00",
      "eventStop": "2023-10-25T11:32:00",
      "duration": 347,
      "status": "Genuine",
      "associatedSiteId": 109912,
      "outfallName": "SEA LANE GORING",
      "isImpacting": false,
      "overFlowSiteId": 0,
      "historicSpillsList": []
    },
    {
      "id": 344775619,
      "eventId": 879143,
      "siteUnitNumber": 12616,
      "bathingSite": "GURNARD",
      "eventStart": "2023-10-25T11:26:29",
      "eventStop": "2023-10-25T11:29:17",
      "duration": 2,
      "status": "Genuine",
      "associatedSiteId": 109706,
      "outfallName": "HIGH STREET COWES",
      "isImpacting": false,
      "overFlowSiteId": 0,
      "historicSpillsList": []
    },
    {
      "id": 344775621,
      "eventId": 879140,
      "siteUnitNumber": 12616,
      "bathingSite": "GURNARD",
      "eventStart": "2023-10-25T11:20:29",
      "eventStop": "2023-10-25T11:23:18",
      "duration": 2,
      "status": "Genuine",
      "associatedSiteId": 109706,
      "outfallName": "HIGH STREET COWES",
      "isImpacting": false,
      "overFlowSiteId": 0,
      "historicSpillsList": []
    },
    {
      "id": 344775623,
      "eventId": 879135,
      "siteUnitNumber": 12616,
      "bathingSite": "GURNARD",
      "eventStart": "2023-10-25T11:14:21",
      "eventStop": "2023-10-25T11:17:19",
      "duration": 2,
      "status": "Genuine",
      "associatedSiteId": 109706,
      "outfallName": "HIGH STREET COWES",
      "isImpacting": false,
      "overFlowSiteId": 0,
      "historicSpillsList": []
    },
    {
      "id": 344775625,
      "eventId": 879131,
      "siteUnitNumber": 12616,
      "bathingSite": "GURNARD",
      "eventStart": "2023-10-25T11:08:16",
      "eventStop": "2023-10-25T11:11:13",
      "duration": 2,
      "status": "Genuine",
      "associatedSiteId": 109706,
      "outfallName": "HIGH STREET COWES",
      "isImpacting": false,
      "overFlowSiteId": 0,
      "historicSpillsList": []
    },
    {
      "id": 344795111,
      "eventId": 878763,
      "siteUnitNumber": 12591,
      "bathingSite": "LITTLEHAMPTON",
      "eventStart": "2023-10-25T04:16:00",
      "eventStop": "2023-10-25T11:11:00",
      "duration": 415,
      "status": "Genuine",
      "associatedSiteId": 109968,
      "outfallName": "FORD ROAD ARUNDEL",
      "isImpacting": true,
      "overFlowSiteId": 0,
      "historicSpillsList": [
        {
          "id": 344795111,
          "eventId": 878763,
          "siteUnitNumber": 12591,
          "bathingSite": "LITTLEHAMPTON",
          "eventStart": "2023-10-25T04:16:00",
          "eventStop": "2023-10-25T11:11:00",
          "duration": 415,
          "status": "Genuine",
          "associatedSiteId": 109968,
          "outfallName": "FORD ROAD ARUNDEL",
          "isImpacting": true,
          "overFlowSiteId": 108002
        }
      ]
    },
    {
      "id": 344773727,
      "eventId": 878435,
      "siteUnitNumber": 12616,
      "bathingSite": "GURNARD",
      "eventStart": "2023-10-25T00:31:21",
      "eventStop": "2023-10-25T11:09:00",
      "duration": 637,
      "status": "Genuine",
      "associatedSiteId": 109700,
      "outfallName": "MARKET HILL COWES",
      "isImpacting": false,
      "overFlowSiteId": 0,
      "historicSpillsList": []
    },
    {
      "id": 344772373,
      "eventId": 878591,
      "siteUnitNumber": 12614,
      "bathingSite": "TOTLAND BAY",
      "eventStart": "2023-10-25T01:59:00",
      "eventStop": "2023-10-25T11:08:00",
      "duration": 549,
      "status": "Genuine",
      "associatedSiteId": 109658,
      "outfallName": "MONKS LANE LINSTONE CHINE",
      "isImpacting": true,
      "overFlowSiteId": 0,
      "historicSpillsList": [
        {
          "id": 344772374,
          "eventId": 878591,
          "siteUnitNumber": 12615,
          "bathingSite": "COLWELL BAY",
          "eventStart": "2023-10-25T01:59:00",
          "eventStop": "2023-10-25T11:08:00",
          "duration": 549,
          "status": "Genuine",
          "associatedSiteId": 109658,
          "outfallName": "MONKS LANE LINSTONE CHINE",
          "isImpacting": true,
          "overFlowSiteId": 101227,
          "historicSpillsList": []
        }
      ]
    },
    {
      "id": 344775627,
      "eventId": 879127,
      "siteUnitNumber": 12616,
      "bathingSite": "GURNARD",
      "eventStart": "2023-10-25T11:01:58",
      "eventStop": "2023-10-25T11:05:05",
      "duration": 3,
      "status": "Genuine",
      "associatedSiteId": 109706,
      "outfallName": "HIGH STREET COWES",
      "isImpacting": false,
      "overFlowSiteId": 0,
      "historicSpillsList": []
    },
    {
      "id": 344772538,
      "eventId": 880082,
      "siteUnitNumber": 12614,
      "bathingSite": "TOTLAND BAY",
      "eventStart": "2023-10-25T10:11:00",
      "eventStop": "2023-10-25T11:05:00",
      "duration": 54,
      "status": "Genuine",
      "associatedSiteId": 109665,
      "outfallName": "THORLEY ROAD BOULDNOR",
      "isImpacting": false,
      "overFlowSiteId": 0,
      "historicSpillsList": []
    },
    {
      "id": 344779630,
      "eventId": 919047,
      "siteUnitNumber": 12618,
      "bathingSite": "RYDE",
      "eventStart": "2023-10-25T01:57:00",
      "eventStop": "2023-10-25T11:02:00",
      "duration": 545,
      "status": "Genuine",
      "associatedSiteId": 109787,
      "outfallName": "SALTERNS ROAD SEAVIEW",
      "isImpacting": true,
      "overFlowSiteId": 0,
      "historicSpillsList": [
        {
          "id": 344779630,
          "eventId": 919047,
          "siteUnitNumber": 12618,
          "bathingSite": "RYDE",
          "eventStart": "2023-10-25T01:57:00",
          "eventStop": "2023-10-25T11:02:00",
          "duration": 545,
          "status": "Genuine",
          "associatedSiteId": 109787,
          "outfallName": "SALTERNS ROAD SEAVIEW",
          "isImpacting": true,
          "overFlowSiteId": 107411
        },
        {
          "id": 344779631,
          "eventId": 919047,
          "siteUnitNumber": 12619,
          "bathingSite": "SEAGROVE",
          "eventStart": "2023-10-25T01:57:00",
          "eventStop": "2023-10-25T11:02:00",
          "duration": 545,
          "status": "Genuine",
          "associatedSiteId": 109787,
          "outfallName": "SALTERNS ROAD SEAVIEW",
          "isImpacting": true,
          "overFlowSiteId": 107411,
          "historicSpillsList": []
        },
        {
          "id": 344779632,
          "eventId": 919047,
          "siteUnitNumber": 12620,
          "bathingSite": "ST HELENS",
          "eventStart": "2023-10-25T01:57:00",
          "eventStop": "2023-10-25T11:02:00",
          "duration": 545,
          "status": "Genuine",
          "associatedSiteId": 109787,
          "outfallName": "SALTERNS ROAD SEAVIEW",
          "isImpacting": true,
          "overFlowSiteId": 107411,
          "historicSpillsList": []
        }
      ]
    },
    {
      "id": 344779639,
      "eventId": 878535,
      "siteUnitNumber": 12618,
      "bathingSite": "RYDE",
      "eventStart": "2023-10-25T01:58:14",
      "eventStop": "2023-10-25T11:00:57",
      "duration": 542,
      "status": "Genuine",
      "associatedSiteId": 109787,
      "outfallName": "SALTERNS ROAD SEAVIEW",
      "isImpacting": true,
      "overFlowSiteId": 0,
      "historicSpillsList": [
        {
          "id": 344779639,
          "eventId": 878535,
          "siteUnitNumber": 12618,
          "bathingSite": "RYDE",
          "eventStart": "2023-10-25T01:58:14",
          "eventStop": "2023-10-25T11:00:57",
          "duration": 542,
          "status": "Genuine",
          "associatedSiteId": 109787,
          "outfallName": "SALTERNS ROAD SEAVIEW",
          "isImpacting": true,
          "overFlowSiteId": 107411
        },
        {
          "id": 344779640,
          "eventId": 878535,
          "siteUnitNumber": 12619,
          "bathingSite": "SEAGROVE",
          "eventStart": "2023-10-25T01:58:14",
          "eventStop": "2023-10-25T11:00:57",
          "duration": 542,
          "status": "Genuine",
          "associatedSiteId": 109787,
          "outfallName": "SALTERNS ROAD SEAVIEW",
          "isImpacting": true,
          "overFlowSiteId": 107411,
          "historicSpillsList": []
        },
        {
          "id": 344779641,
          "eventId": 878535,
          "siteUnitNumber": 12620,
          "bathingSite": "ST HELENS",
          "eventStart": "2023-10-25T01:58:14",
          "eventStop": "2023-10-25T11:00:57",
          "duration": 542,
          "status": "Genuine",
          "associatedSiteId": 109787,
          "outfallName": "SALTERNS ROAD SEAVIEW",
          "isImpacting": true,
          "overFlowSiteId": 107411,
          "historicSpillsList": []
        }
      ]
    },
    {
      "id": 344797303,
      "eventId": 889474,
      "siteUnitNumber": 12624,
      "bathingSite": "SANDOWN",
      "eventStart": "2023-10-25T10:27:00",
      "eventStop": "2023-10-25T11:00:00",
      "duration": 33,
      "status": "Genuine",
      "associatedSiteId": 110029,
      "outfallName": "HOPE BEACH SHANKLIN NEW",
      "isImpacting": true,
      "overFlowSiteId": 0,
      "historicSpillsList": [
        {
          "id": 344797304,
          "eventId": 889474,
          "siteUnitNumber": 12625,
          "bathingSite": "SHANKLIN",
          "eventStart": "2023-10-25T10:27:00",
          "eventStop": "2023-10-25T11:00:00",
          "duration": 33,
          "status": "Genuine",
          "associatedSiteId": 110029,
          "outfallName": "HOPE BEACH SHANKLIN NEW",
          "isImpacting": true,
          "overFlowSiteId": 109389,
          "historicSpillsList": []
        }
      ]
    },
    {
      "id": 344775629,
      "eventId": 879116,
      "siteUnitNumber": 12616,
      "bathingSite": "GURNARD",
      "eventStart": "2023-10-25T10:55:20",
      "eventStop": "2023-10-25T10:58:45",
      "duration": 3,
      "status": "Genuine",
      "associatedSiteId": 109706,
      "outfallName": "HIGH STREET COWES",
      "isImpacting": false,
      "overFlowSiteId": 0,
      "historicSpillsList": []
    },
    {
      "id": 344775631,
      "eventId": 879112,
      "siteUnitNumber": 12616,
      "bathingSite": "GURNARD",
      "eventStart": "2023-10-25T10:49:18",
      "eventStop": "2023-10-25T10:55:06",
      "duration": 5,
      "status": "Genuine",
      "associatedSiteId": 109706,
      "outfallName": "HIGH STREET COWES",
      "isImpacting": false,
      "overFlowSiteId": 0,
      "historicSpillsList": []
    },
    {
      "id": 344777443,
      "eventId": 879013,
      "siteUnitNumber": 12661,
      "bathingSite": "LANGSTONE HARBOUR",
      "eventStart": "2023-10-25T02:48:00",
      "eventStop": "2023-10-25T10:45:00",
      "duration": 477,
      "status": "Genuine",
      "associatedSiteId": 109772,
      "outfallName": "BUDDS FARM HAVANT NO1",
      "isImpacting": true,
      "overFlowSiteId": 0,
      "historicSpillsList": [
        {
          "id": 344777443,
          "eventId": 879013,
          "siteUnitNumber": 12661,
          "bathingSite": "LANGSTONE HARBOUR",
          "eventStart": "2023-10-25T02:48:00",
          "eventStop": "2023-10-25T10:45:00",
          "duration": 477,
          "status": "Genuine",
          "associatedSiteId": 109772,
          "outfallName": "BUDDS FARM HAVANT NO1",
          "isImpacting": true,
          "overFlowSiteId": 116073
        }
      ]
    },
    {
      "id": 344794476,
      "eventId": 878346,
      "siteUnitNumber": 12591,
      "bathingSite": "LITTLEHAMPTON",
      "eventStart": "2023-10-24T23:26:55",
      "eventStop": "2023-10-25T10:45:00",
      "duration": 678,
      "status": "Not Genuine",
      "associatedSiteId": 109965,
      "outfallName": "SEA ROAD LITTLEHAMPTON",
      "isImpacting": false,
      "overFlowSiteId": 0,
      "historicSpillsList": []
    },
    {
      "id": 344775633,
      "eventId": 879087,
      "siteUnitNumber": 12616,
      "bathingSite": "GURNARD",
      "eventStart": "2023-10-25T10:22:55",
      "eventStop": "2023-10-25T10:33:06",
      "duration": 10,
      "status": "Genuine",
      "associatedSiteId": 109706,
      "outfallName": "HIGH STREET COWES",
      "isImpacting": false,
      "overFlowSiteId": 0,
      "historicSpillsList": []
    },
    {
      "id": 344809500,
      "eventId": 879308,
      "siteUnitNumber": 12614,
      "bathingSite": "TOTLAND BAY",
      "eventStart": "2023-10-25T10:00:00",
      "eventStop": "2023-10-25T10:30:00",
      "duration": 30,
      "status": "Genuine",
      "associatedSiteId": 115498,
      "outfallName": "NORTON TRANSFER IOW",
      "isImpacting": true,
      "overFlowSiteId": 0,
      "historicSpillsList": [
        {
          "id": 344809500,
          "eventId": 879308,
          "siteUnitNumber": 12614,
          "bathingSite": "TOTLAND BAY",
          "eventStart": "2023-10-25T10:00:00",
          "eventStop": "2023-10-25T10:30:00",
          "duration": 30,
          "status": "Genuine",
          "associatedSiteId": 115498,
          "outfallName": "NORTON TRANSFER IOW",
          "isImpacting": true,
          "overFlowSiteId": 108544
        },
        {
          "id": 344809501,
          "eventId": 879308,
          "siteUnitNumber": 12615,
          "bathingSite": "COLWELL BAY",
          "eventStart": "2023-10-25T10:00:00",
          "eventStop": "2023-10-25T10:30:00",
          "duration": 30,
          "status": "Genuine",
          "associatedSiteId": 115498,
          "outfallName": "NORTON TRANSFER IOW",
          "isImpacting": true,
          "overFlowSiteId": 108544,
          "historicSpillsList": []
        }
      ]
    },
    {
      "id": 344786776,
      "eventId": 879093,
      "siteUnitNumber": 12576,
      "bathingSite": "ST LEONARDS",
      "eventStart": "2023-10-25T10:05:32",
      "eventStop": "2023-10-25T10:19:03",
      "duration": 13,
      "status": "Genuine",
      "associatedSiteId": 109903,
      "outfallName": "BEXHILL & HASTINGS NO2",
      "isImpacting": true,
      "overFlowSiteId": 0,
      "historicSpillsList": [
        {
          "id": 344786776,
          "eventId": 879093,
          "siteUnitNumber": 12576,
          "bathingSite": "ST LEONARDS",
          "eventStart": "2023-10-25T10:05:32",
          "eventStop": "2023-10-25T10:19:03",
          "duration": 13,
          "status": "Genuine",
          "associatedSiteId": 109903,
          "outfallName": "BEXHILL & HASTINGS NO2",
          "isImpacting": true,
          "overFlowSiteId": 115398
        },
        {
          "id": 344786777,
          "eventId": 879093,
          "siteUnitNumber": 12577,
          "bathingSite": "BEXHILL",
          "eventStart": "2023-10-25T10:05:32",
          "eventStop": "2023-10-25T10:19:03",
          "duration": 13,
          "status": "Genuine",
          "associatedSiteId": 109903,
          "outfallName": "BEXHILL & HASTINGS NO2",
          "isImpacting": true,
          "overFlowSiteId": 115398,
          "historicSpillsList": []
        }
      ]
    },
    {
      "id": 344783536,
      "eventId": 878376,
      "siteUnitNumber": 12662,
      "bathingSite": "CHICHESTER HARBOUR",
      "eventStart": "2023-10-25T04:10:00",
      "eventStop": "2023-10-25T10:06:00",
      "duration": 356,
      "status": "Genuine",
      "associatedSiteId": 109850,
      "outfallName": "THORNHAM",
      "isImpacting": true,
      "overFlowSiteId": 0,
      "historicSpillsList": [
        {
          "id": 344783536,
          "eventId": 878376,
          "siteUnitNumber": 12662,
          "bathingSite": "CHICHESTER HARBOUR",
          "eventStart": "2023-10-25T04:10:00",
          "eventStop": "2023-10-25T10:06:00",
          "duration": 356,
          "status": "Genuine",
          "associatedSiteId": 109850,
          "outfallName": "THORNHAM",
          "isImpacting": true,
          "overFlowSiteId": 115370
        }
      ]
    },
    {
      "id": 344775635,
      "eventId": 879082,
      "siteUnitNumber": 12616,
      "bathingSite": "GURNARD",
      "eventStart": "2023-10-25T09:58:29",
      "eventStop": "2023-10-25T10:04:51",
      "duration": 6,
      "status": "Genuine",
      "associatedSiteId": 109706,
      "outfallName": "HIGH STREET COWES",
      "isImpacting": false,
      "overFlowSiteId": 0,
      "historicSpillsList": []
    },
    {
      "id": 344772540,
      "eventId": 880081,
      "siteUnitNumber": 12615,
      "bathingSite": "COLWELL BAY",
      "eventStart": "2023-10-25T06:31:00",
      "eventStop": "2023-10-25T10:02:00",
      "duration": 211,
      "status": "Genuine",
      "associatedSiteId": 109665,
      "outfallName": "THORLEY ROAD BOULDNOR",
      "isImpacting": false,
      "overFlowSiteId": 0,
      "historicSpillsList": []
    },
    {
      "id": 344772165,
      "eventId": 878613,
      "siteUnitNumber": 12616,
      "bathingSite": "GURNARD",
      "eventStart": "2023-10-25T02:36:19",
      "eventStop": "2023-10-25T09:58:28",
      "duration": 442,
      "status": "Genuine",
      "associatedSiteId": 109654,
      "outfallName": "WHITFORD BRIDGE NORTHWOOD",
      "isImpacting": true,
      "overFlowSiteId": 0,
      "historicSpillsList": [
        {
          "id": 344772165,
          "eventId": 878613,
          "siteUnitNumber": 12616,
          "bathingSite": "GURNARD",
          "eventStart": "2023-10-25T02:36:19",
          "eventStop": "2023-10-25T09:58:28",
          "duration": 442,
          "status": "Genuine",
          "associatedSiteId": 109654,
          "outfallName": "WHITFORD BRIDGE NORTHWOOD",
          "isImpacting": true,
          "overFlowSiteId": 101029
        },
        {
          "id": 344772166,
          "eventId": 878613,
          "siteUnitNumber": 12617,
          "bathingSite": "COWES",
          "eventStart": "2023-10-25T02:36:19",
          "eventStop": "2023-10-25T09:58:28",
          "duration": 442,
          "status": "Genuine",
          "associatedSiteId": 109654,
          "outfallName": "WHITFORD BRIDGE NORTHWOOD",
          "isImpacting": true,
          "overFlowSiteId": 101029,
          "historicSpillsList": []
        }
      ]
    },
    {
      "id": 344795710,
      "eventId": 879081,
      "siteUnitNumber": 12593,
      "bathingSite": "FELPHAM",
      "eventStart": "2023-10-25T09:55:34",
      "eventStop": "2023-10-25T09:57:50",
      "duration": 2,
      "status": "Genuine",
      "associatedSiteId": 109973,
      "outfallName": "ALDWICK AVENUE BOGNOR",
      "isImpacting": true,
      "overFlowSiteId": 0,
      "historicSpillsList": [
        {
          "id": 344795710,
          "eventId": 879081,
          "siteUnitNumber": 12593,
          "bathingSite": "FELPHAM",
          "eventStart": "2023-10-25T09:55:34",
          "eventStop": "2023-10-25T09:57:50",
          "duration": 2,
          "status": "Genuine",
          "associatedSiteId": 109973,
          "outfallName": "ALDWICK AVENUE BOGNOR",
          "isImpacting": true,
          "overFlowSiteId": 103303
        },
        {
          "id": 344795701,
          "eventId": 879081,
          "siteUnitNumber": 12594,
          "bathingSite": "BOGNOR REGIS EAST",
          "eventStart": "2023-10-25T09:55:34",
          "eventStop": "2023-10-25T09:57:50",
          "duration": 2,
          "status": "Genuine",
          "associatedSiteId": 109973,
          "outfallName": "ALDWICK AVENUE BOGNOR",
          "isImpacting": true,
          "overFlowSiteId": 103303,
          "historicSpillsList": []
        },
        {
          "id": 344795702,
          "eventId": 879081,
          "siteUnitNumber": 12595,
          "bathingSite": "BOGNOR REGIS (ALDWICK)",
          "eventStart": "2023-10-25T09:55:34",
          "eventStop": "2023-10-25T09:57:50",
          "duration": 2,
          "status": "Genuine",
          "associatedSiteId": 109973,
          "outfallName": "ALDWICK AVENUE BOGNOR",
          "isImpacting": true,
          "overFlowSiteId": 103303,
          "historicSpillsList": []
        },
        {
          "id": 344795703,
          "eventId": 879081,
          "siteUnitNumber": 12596,
          "bathingSite": "PAGHAM",
          "eventStart": "2023-10-25T09:55:34",
          "eventStop": "2023-10-25T09:57:50",
          "duration": 2,
          "status": "Genuine",
          "associatedSiteId": 109973,
          "outfallName": "ALDWICK AVENUE BOGNOR",
          "isImpacting": true,
          "overFlowSiteId": 103303,
          "historicSpillsList": []
        }
      ]
    }
  ]
}