{
  "currentPage": 130,
  "totalItems": 21025,
  "totalPages": 841,
  "items": [
    {
      "id": 344791254,
      "eventId": 890540,
      "siteUnitNumber": 12582,
      "bathingSite": "SEAFORD",
      "eventStart": "2023-11-02T02:10:43",
      "eventStop": "2023-11-02T02:13:15",
      "duration": 2,
      "status": "Genuine",
      "associatedSiteId": 109957,
      "outfallName": "PORTOBELLO BRIGHTON NO2",
      "isImpacting": true,
      "overFlowSiteId": 0,
      "historicSpillsList": [
        {
          "id": 344791255,
          "eventId": 890540,
          "siteUnitNumber": 12583,
          "bathingSite": "SALTDEAN",
          "eventStart": "2023-11-02T02:10:43",
          "eventStop": "2023-11-02T02:13:15",
          "duration": 2,
          "status": "Genuine",
          "associatedSiteId": 109957,
          "outfallName": "PORTOBELLO BRIGHTON NO2",
          "isImpacting": true,
          "overFlowSiteId": 116012,
          "historicSpillsList": []
        }
      ]
    },
    {
      "id": 344775985,
      "eventId": 890460,
      "siteUnitNumber": 12616,
      "bathingSite": "GURNARD",
      "eventStart": "2023-11-02T01:29:38",
      "eventStop": "2023-11-02T02:10:00",
      "duration": 40,
      "status": "Genuine",
      "associatedSiteId": 109707,
      "outfallName": "MEDINA ROAD COWES",
      "isImpacting": false,
      "overFlowSiteId": 0,
      "historicSpillsList": []
    },
    {
      "id": 344791258,
      "eventId": 890208,
      "siteUnitNumber": 12582,
      "bathingSite": "SEAFORD",
      "eventStart": "2023-11-01T22:14:00",
      "eventStop": "2023-11-02T02:06:37",
      "duration": 232,
      "status": "Genuine",
      "associatedSiteId": 109957,
      "outfallName": "PORTOBELLO BRIGHTON NO2",
      "isImpacting": true,
      "overFlowSiteId": 0,
      "historicSpillsList": [
        {
          "id": 344791258,
          "eventId": 890208,
          "siteUnitNumber": 12582,
          "bathingSite": "SEAFORD",
          "eventStart": "2023-11-01T22:14:00",
          "eventStop": "2023-11-02T02:06:37",
          "duration": 232,
          "status": "Genuine",
          "associatedSiteId": 109957,
          "outfallName": "PORTOBELLO BRIGHTON NO2",
          "isImpacting": true,
          "overFlowSiteId": 116012
        },
        {
          "id": 344791259,
          "eventId": 890208,
          "siteUnitNumber": 12583,
          "bathingSite": "SALTDEAN",
          "eventStart": "2023-11-01T22:14:00",
          "eventStop": "2023-11-02T02:06:37",
          "duration": 232,
          "status": "Genuine",
          "associatedSiteId": 109957,
          "outfallName": "PORTOBELLO BRIGHTON NO2",
          "isImpacting": true,
          "overFlowSiteId": 116012,
          "historicSpillsList": []
        }
      ]
    },
    {
      "id": 344779478,
      "eventId": 890490,
      "siteUnitNumber": 12618,
      "bathingSite": "RYDE",
      "eventStart": "2023-11-02T01:28:55",
      "eventStop": "2023-11-02T02:01:00",
      "duration": 32,
      "status": "Genuine",
      "associatedSiteId": 109782,
      "outfallName": "AUGUSTA ROAD RYDE",
      "isImpacting": true,
      "overFlowSiteId": 0,
      "historicSpillsList": [
        {
          "id": 344779478,
          "eventId": 890490,
          "siteUnitNumber": 12618,
          "bathingSite": "RYDE",
          "eventStart": "2023-11-02T01:28:55",
          "eventStop": "2023-11-02T02:01:00",
          "duration": 32,
          "status": "Genuine",
          "associatedSiteId": 109782,
          "outfallName": "AUGUSTA ROAD RYDE",
          "isImpacting": true,
          "overFlowSiteId": 102348
        }
      ]
    },
    {
      "id": 344772486,
      "eventId": 899797,
      "siteUnitNumber": 12615,
      "bathingSite": "COLWELL BAY",
      "eventStart": "2023-11-02T01:48:00",
      "eventStop": "2023-11-02T01:54:00",
      "duration": 6,
      "status": "Genuine",
      "associatedSiteId": 109665,
      "outfallName": "THORLEY ROAD BOULDNOR",
      "isImpacting": false,
      "overFlowSiteId": 0,
      "historicSpillsList": []
    },
    {
      "id": 344779448,
      "eventId": 890204,
      "siteUnitNumber": 12618,
      "bathingSite": "RYDE",
      "eventStart": "2023-11-02T01:26:00",
      "eventStop": "2023-11-02T01:52:00",
      "duration": 26,
      "status": "Genuine",
      "associatedSiteId": 109781,
      "outfallName": "SPENCER ROAD RYDE",
      "isImpacting": true,
      "overFlowSiteId": 0,
      "historicSpillsList": [
        {
          "id": 344779448,
          "eventId": 890204,
          "siteUnitNumber": 12618,
          "bathingSite": "RYDE",
          "eventStart": "2023-11-02T01:26:00",
          "eventStop": "2023-11-02T01:52:00",
          "duration": 26,
          "status": "Genuine",
          "associatedSiteId": 109781,
          "outfallName": "SPENCER ROAD RYDE",
          "isImpacting": true,
          "overFlowSiteId": 108566
        }
      ]
    },
    {
      "id": 344796168,
      "eventId": 890434,
      "siteUnitNumber": 12575,
      "bathingSite": "HASTINGS PELHAM BEACH",
      "eventStart": "2023-11-02T01:28:47",
      "eventStop": "2023-11-02T01:45:00",
      "duration": 16,
      "status": "Genuine",
      "associatedSiteId": 109982,
      "outfallName": "COOMBS HASTINGS",
      "isImpacting": true,
      "overFlowSiteId": 0,
      "historicSpillsList": [
        {
          "id": 344796169,
          "eventId": 890434,
          "siteUnitNumber": 12576,
          "bathingSite": "ST LEONARDS",
          "eventStart": "2023-11-02T01:28:47",
          "eventStop": "2023-11-02T01:45:00",
          "duration": 16,
          "status": "Genuine",
          "associatedSiteId": 109982,
          "outfallName": "COOMBS HASTINGS",
          "isImpacting": true,
          "overFlowSiteId": 110211,
          "historicSpillsList": []
        }
      ]
    },
    {
      "id": 344779361,
      "eventId": 891715,
      "siteUnitNumber": 12618,
      "bathingSite": "RYDE",
      "eventStart": "2023-11-02T00:07:00",
      "eventStop": "2023-11-02T01:40:00",
      "duration": 93,
      "status": "Genuine",
      "associatedSiteId": 109780,
      "outfallName": "LADIES WALK BINSTEAD",
      "isImpacting": true,
      "overFlowSiteId": 0,
      "historicSpillsList": [
        {
          "id": 344779361,
          "eventId": 891715,
          "siteUnitNumber": 12618,
          "bathingSite": "RYDE",
          "eventStart": "2023-11-02T00:07:00",
          "eventStop": "2023-11-02T01:40:00",
          "duration": 93,
          "status": "Genuine",
          "associatedSiteId": 109780,
          "outfallName": "LADIES WALK BINSTEAD",
          "isImpacting": true,
          "overFlowSiteId": 107406
        }
      ]
    },
    {
      "id": 344774571,
      "eventId": 890467,
      "siteUnitNumber": 12616,
      "bathingSite": "GURNARD",
      "eventStart": "2023-11-02T01:31:30",
      "eventStop": "2023-11-02T01:34:12",
      "duration": 2,
      "status": "Not Genuine",
      "associatedSiteId": 109703,
      "outfallName": "CASTLE STREET COWES",
      "isImpacting": true,
      "overFlowSiteId": 0,
      "historicSpillsList": []
    },
    {
      "id": 344772526,
      "eventId": 890448,
      "siteUnitNumber": 12614,
      "bathingSite": "TOTLAND BAY",
      "eventStart": "2023-11-02T01:16:46",
      "eventStop": "2023-11-02T01:26:00",
      "duration": 9,
      "status": "Genuine",
      "associatedSiteId": 109665,
      "outfallName": "THORLEY ROAD BOULDNOR",
      "isImpacting": false,
      "overFlowSiteId": 0,
      "historicSpillsList": []
    },
    {
      "id": 344780367,
      "eventId": 890238,
      "siteUnitNumber": 12661,
      "bathingSite": "LANGSTONE HARBOUR",
      "eventStart": "2023-11-01T22:42:50",
      "eventStop": "2023-11-02T01:07:00",
      "duration": 144,
      "status": "Genuine",
      "associatedSiteId": 109819,
      "outfallName": "COURT LANE COSHAM",
      "isImpacting": true,
      "overFlowSiteId": 0,
      "historicSpillsList": [
        {
          "id": 344780367,
          "eventId": 890238,
          "siteUnitNumber": 12661,
          "bathingSite": "LANGSTONE HARBOUR",
          "eventStart": "2023-11-01T22:42:50",
          "eventStop": "2023-11-02T01:07:00",
          "duration": 144,
          "status": "Genuine",
          "associatedSiteId": 109819,
          "outfallName": "COURT LANE COSHAM",
          "isImpacting": true,
          "overFlowSiteId": 115958
        }
      ]
    },
    {
      "id": 344796174,
      "eventId": 890406,
      "siteUnitNumber": 12575,
      "bathingSite": "HASTINGS PELHAM BEACH",
      "eventStart": "2023-11-02T00:57:25",
      "eventStop": "2023-11-02T01:02:30",
      "duration": 5,
      "status": "Genuine",
      "associatedSiteId": 109982,
      "outfallName": "COOMBS HASTINGS",
      "isImpacting": true,
      "overFlowSiteId": 0,
      "historicSpillsList": [
        {
          "id": 344796175,
          "eventId": 890406,
          "siteUnitNumber": 12576,
          "bathingSite": "ST LEONARDS",
          "eventStart": "2023-11-02T00:57:25",
          "eventStop": "2023-11-02T01:02:30",
          "duration": 5,
          "status": "Genuine",
          "associatedSiteId": 109982,
          "outfallName": "COOMBS HASTINGS",
          "isImpacting": true,
          "overFlowSiteId": 110211,
          "historicSpillsList": []
        }
      ]
    },
    {
      "id": 344809496,
      "eventId": 887920,
      "siteUnitNumber": 12614,
      "bathingSite": "TOTLAND BAY",
      "eventStart": "2023-11-01T15:01:00",
      "eventStop": "2023-11-02T00:51:00",
      "duration": 590,
      "status": "Genuine",
      "associatedSiteId": 115498,
      "outfallName": "NORTON TRANSFER IOW",
      "isImpacting": true,
      "overFlowSiteId": 0,
      "historicSpillsList": [
        {
          "id": 344809496,
          "eventId": 887920,
          "siteUnitNumber": 12614,
          "bathingSite": "TOTLAND BAY",
          "eventStart": "2023-11-01T15:01:00",
          "eventStop": "2023-11-02T00:51:00",
          "duration": 590,
          "status": "Genuine",
          "associatedSiteId": 115498,
          "outfallName": "NORTON TRANSFER IOW",
          "isImpacting": true,
          "overFlowSiteId": 109524
        },
        {
          "id": 344809497,
          "eventId": 887920,
          "siteUnitNumber": 12615,
          "bathingSite": "COLWELL BAY",
          "eventStart": "2023-11-01T15:01:00",
          "eventStop": "2023-11-02T00:51:00",
          "duration": 590,
          "status": "Genuine",
          "associatedSiteId": 115498,
          "outfallName": "NORTON TRANSFER IOW",
          "isImpacting": true,
          "overFlowSiteId": 109524,
          "historicSpillsList": []
        }
      ]
    },
    {
      "id": 344774701,
      "eventId": 898967,
      "siteUnitNumber": 12616,
      "bathingSite": "GURNARD",
      "eventStart": "2023-10-31T04:33:00",
      "eventStop": "2023-11-02T00:48:00",
      "duration": 2655,
      "status": "Genuine",
      "associatedSiteId": 109704,
      "outfallName": "EGYPT POINT COWES",
      "isImpacting": true,
      "overFlowSiteId": 0,
      "historicSpillsList": [
        {
          "id": 344774702,
          "eventId": 898967,
          "siteUnitNumber": 12617,
          "bathingSite": "COWES",
          "eventStart": "2023-10-31T04:33:00",
          "eventStop": "2023-11-02T00:48:00",
          "duration": 2655,
          "status": "Genuine",
          "associatedSiteId": 109704,
          "outfallName": "EGYPT POINT COWES",
          "isImpacting": true,
          "overFlowSiteId": 116213,
          "historicSpillsList": []
        }
      ]
    },
    {
      "id": 344796172,
      "eventId": 890346,
      "siteUnitNumber": 12575,
      "bathingSite": "HASTINGS PELHAM BEACH",
      "eventStart": "2023-11-02T00:28:33",
      "eventStop": "2023-11-02T00:45:00",
      "duration": 16,
      "status": "Genuine",
      "associatedSiteId": 109982,
      "outfallName": "COOMBS HASTINGS",
      "isImpacting": true,
      "overFlowSiteId": 0,
      "historicSpillsList": [
        {
          "id": 344796173,
          "eventId": 890346,
          "siteUnitNumber": 12576,
          "bathingSite": "ST LEONARDS",
          "eventStart": "2023-11-02T00:28:33",
          "eventStop": "2023-11-02T00:45:00",
          "duration": 16,
          "status": "Genuine",
          "associatedSiteId": 109982,
          "outfallName": "COOMBS HASTINGS",
          "isImpacting": true,
          "overFlowSiteId": 110211,
          "historicSpillsList": []
        }
      ]
    },
    {
      "id": 344780244,
      "eventId": 890259,
      "siteUnitNumber": 12661,
      "bathingSite": "LANGSTONE HARBOUR",
      "eventStart": "2023-11-01T22:46:21",
      "eventStop": "2023-11-02T00:35:00",
      "duration": 108,
      "status": "Genuine",
      "associatedSiteId": 109817,
      "outfallName": "MAINLAND DRAYTON",
      "isImpacting": true,
      "overFlowSiteId": 0,
      "historicSpillsList": [
        {
          "id": 344780244,
          "eventId": 890259,
          "siteUnitNumber": 12661,
          "bathingSite": "LANGSTONE HARBOUR",
          "eventStart": "2023-11-01T22:46:21",
          "eventStop": "2023-11-02T00:35:00",
          "duration": 108,
          "status": "Genuine",
          "associatedSiteId": 109817,
          "outfallName": "MAINLAND DRAYTON",
          "isImpacting": true,
          "overFlowSiteId": 115960
        }
      ]
    },
    {
      "id": 344796178,
      "eventId": 890341,
      "siteUnitNumber": 12575,
      "bathingSite": "HASTINGS PELHAM BEACH",
      "eventStart": "2023-11-02T00:05:11",
      "eventStop": "2023-11-02T00:14:49",
      "duration": 9,
      "status": "Genuine",
      "associatedSiteId": 109982,
      "outfallName": "COOMBS HASTINGS",
      "isImpacting": true,
      "overFlowSiteId": 0,
      "historicSpillsList": [
        {
          "id": 344796179,
          "eventId": 890341,
          "siteUnitNumber": 12576,
          "bathingSite": "ST LEONARDS",
          "eventStart": "2023-11-02T00:05:11",
          "eventStop": "2023-11-02T00:14:49",
          "duration": 9,
          "status": "Genuine",
          "associatedSiteId": 109982,
          "outfallName": "COOMBS HASTINGS",
          "isImpacting": true,
          "overFlowSiteId": 110211,
          "historicSpillsList": []
        }
      ]
    },
    {
      "id": 344779196,
      "eventId": 892909,
      "siteUnitNumber": 12618,
      "bathingSite": "RYDE",
      "eventStart": "2023-11-01T23:06:00",
      "eventStop": "2023-11-02T00:14:00",
      "duration": 68,
      "status": "Genuine",
      "associatedSiteId": 109778,
      "outfallName": "PRINCE CONSORT RYDE NEW",
      "isImpacting": true,
      "overFlowSiteId": 0,
      "historicSpillsList": [
        {
          "id": 344779196,
          "eventId": 892909,
          "siteUnitNumber": 12618,
          "bathingSite": "RYDE",
          "eventStart": "2023-11-01T23:06:00",
          "eventStop": "2023-11-02T00:14:00",
          "duration": 68,
          "status": "Genuine",
          "associatedSiteId": 109778,
          "outfallName": "PRINCE CONSORT RYDE NEW",
          "isImpacting": true,
          "overFlowSiteId": 108043
        }
      ]
    },
    {
      "id": 344779363,
      "eventId": 891714,
      "siteUnitNumber": 12618,
      "bathingSite": "RYDE",
      "eventStart": "2023-11-01T22:30:00",
      "eventStop": "2023-11-02T00:06:00",
      "duration": 96,
      "status": "Genuine",
      "associatedSiteId": 109780,
      "outfallName": "LADIES WALK BINSTEAD",
      "isImpacting": true,
      "overFlowSiteId": 0,
      "historicSpillsList": [
        {
          "id": 344779363,
          "eventId": 891714,
          "siteUnitNumber": 12618,
          "bathingSite": "RYDE",
          "eventStart": "2023-11-01T22:30:00",
          "eventStop": "2023-11-02T00:06:00",
          "duration": 96,
          "status": "Genuine",
          "associatedSiteId": 109780,
          "outfallName": "LADIES WALK BINSTEAD",
          "isImpacting": true,
          "overFlowSiteId": 107406
        }
      ]
    },
    {
      "id": 344796176,
      "eventId": 890335,
      "siteUnitNumber": 12575,
      "bathingSite": "HASTINGS PELHAM BEACH",
      "eventStart": "2023-11-01T23:45:44",
      "eventStop": "2023-11-01T23:57:02",
      "duration": 11,
      "status": "Genuine",
      "associatedSiteId": 109982,
      "outfallName": "COOMBS HASTINGS",
      "isImpacting": true,
      "overFlowSiteId": 0,
      "historicSpillsList": [
        {
          "id": 344796177,
          "eventId": 890335,
          "siteUnitNumber": 12576,
          "bathingSite": "ST LEONARDS",
          "eventStart": "2023-11-01T23:45:44",
          "eventStop": "2023-11-01T23:57:02",
          "duration": 11,
          "status": "Genuine",
          "associatedSiteId": 109982,
          "outfallName": "COOMBS HASTINGS",
          "isImpacting": true,
          "overFlowSiteId": 110211,
          "historicSpillsList": []
        }
      ]
    },
    {
      "id": 344775509,
      "eventId": 890320,
      "siteUnitNumber": 12616,
      "bathingSite": "GURNARD",
      "eventStart": "2023-11-01T23:32:15",
      "eventStop": "2023-11-01T23:50:54",
      "duration": 18,
      "status": "Genuine",
      "associatedSiteId": 109706,
      "outfallName": "HIGH STREET COWES",
      "isImpacting": false,
      "overFlowSiteId": 0,
      "historicSpillsList": []
    },
    {
      "id": 344791256,
      "eventId": 890156,
      "siteUnitNumber": 12582,
      "bathingSite": "SEAFORD",
      "eventStart": "2023-11-01T23:00:00",
      "eventStop": "2023-11-01T23:45:00",
      "duration": 45,
      "status": "Genuine",
      "associatedSiteId": 109957,
      "outfallName": "PORTOBELLO BRIGHTON NO2",
      "isImpacting": false,
      "overFlowSiteId": 0,
      "historicSpillsList": []
    },
    {
      "id": 344780323,
      "eventId": 890221,
      "siteUnitNumber": 12661,
      "bathingSite": "LANGSTONE HARBOUR",
      "eventStart": "2023-11-01T22:39:00",
      "eventStop": "2023-11-01T23:44:00",
      "duration": 65,
      "status": "Genuine",
      "associatedSiteId": 109818,
      "outfallName": "KIRTLEY CLOSE DRAYTON",
      "isImpacting": true,
      "overFlowSiteId": 0,
      "historicSpillsList": [
        {
          "id": 344780323,
          "eventId": 890221,
          "siteUnitNumber": 12661,
          "bathingSite": "LANGSTONE HARBOUR",
          "eventStart": "2023-11-01T22:39:00",
          "eventStop": "2023-11-01T23:44:00",
          "duration": 65,
          "status": "Genuine",
          "associatedSiteId": 109818,
          "outfallName": "KIRTLEY CLOSE DRAYTON",
          "isImpacting": true,
          "overFlowSiteId": 108774
        }
      ]
    },
    {
      "id": 344796182,
      "eventId": 890272,
      "siteUnitNumber": 12575,
      "bathingSite": "HASTINGS PELHAM BEACH",
      "eventStart": "2023-11-01T23:24:36",
      "eventStop": "2023-11-01T23:38:46",
      "duration": 14,
      "status": "Genuine",
      "associatedSiteId": 109982,
      "outfallName": "COOMBS HASTINGS",
      "isImpacting": true,
      "overFlowSiteId": 0,
      "historicSpillsList": [
        {
          "id": 344796183,
          "eventId": 890272,
          "siteUnitNumber": 12576,
          "bathingSite": "ST LEONARDS",
          "eventStart": "2023-11-01T23:24:36",
          "eventStop": "2023-11-01T23:38:46",
          "duration": 14,
          "status": "Genuine",
          "associatedSiteId": 109982,
          "outfallName": "COOMBS HASTINGS",
          "isImpacting": true,
          "overFlowSiteId": 110211,
          "historicSpillsList": []
        }
      ]
    },
    {
      "id": 344796180,
      "eventId": 890111,
      "siteUnitNumber": 12575,
      "bathingSite": "HASTINGS PELHAM BEACH",
      "eventStart": "2023-11-01T22:20:38",
      "eventStop": "2023-11-01T23:18:40",
      "duration": 58,
      "status": "Genuine",
      "associatedSiteId": 109982,
      "outfallName": "COOMBS HASTINGS",
      "isImpacting": false,
      "overFlowSiteId": 0,
      "historicSpillsList": []
    }
  ]
}