{
  "currentPage": 152,
  "totalItems": 21025,
  "totalPages": 841,
  "items": [
    {
      "id": 344796500,
      "eventId": 885096,
      "siteUnitNumber": 12575,
      "bathingSite": "HASTINGS PELHAM BEACH",
      "eventStart": "2023-10-29T09:04:27",
      "eventStop": "2023-10-29T09:12:31",
      "duration": 8,
      "status": "Genuine",
      "associatedSiteId": 109982,
      "outfallName": "COOMBS HASTINGS",
      "isImpacting": true,
      "overFlowSiteId": 0,
      "historicSpillsList": [
        {
          "id": 344796501,
          "eventId": 885096,
          "siteUnitNumber": 12576,
          "bathingSite": "ST LEONARDS",
          "eventStart": "2023-10-29T09:04:27",
          "eventStop": "2023-10-29T09:12:31",
          "duration": 8,
          "status": "Genuine",
          "associatedSiteId": 109982,
          "outfallName": "COOMBS HASTINGS",
          "isImpacting": true,
          "overFlowSiteId": 110211,
          "historicSpillsList": []
        }
      ]
    },
    {
      "id": 344784704,
      "eventId": 885149,
      "siteUnitNumber": 12568,
      "bathingSite": "SANDGATE",
      "eventStart": "2023-10-29T09:00:41",
      "eventStop": "2023-10-29T09:06:58",
      "duration": 6,
      "status": "Genuine",
      "associatedSiteId": 109896,
      "outfallName": "RANGE ROAD HYTHE K SHORT",
      "isImpacting": true,
      "overFlowSiteId": 0,
      "historicSpillsList": [
        {
          "id": 344784705,
          "eventId": 885149,
          "siteUnitNumber": 12569,
          "bathingSite": "HYTHE",
          "eventStart": "2023-10-29T09:00:41",
          "eventStop": "2023-10-29T09:06:58",
          "duration": 6,
          "status": "Genuine",
          "associatedSiteId": 109896,
          "outfallName": "RANGE ROAD HYTHE K SHORT",
          "isImpacting": true,
          "overFlowSiteId": 116112,
          "historicSpillsList": []
        }
      ]
    },
    {
      "id": 344796506,
      "eventId": 885072,
      "siteUnitNumber": 12575,
      "bathingSite": "HASTINGS PELHAM BEACH",
      "eventStart": "2023-10-29T08:28:02",
      "eventStop": "2023-10-29T08:36:00",
      "duration": 7,
      "status": "Genuine",
      "associatedSiteId": 109982,
      "outfallName": "COOMBS HASTINGS",
      "isImpacting": false,
      "overFlowSiteId": 0,
      "historicSpillsList": []
    },
    {
      "id": 344783619,
      "eventId": 884440,
      "siteUnitNumber": 12662,
      "bathingSite": "CHICHESTER HARBOUR",
      "eventStart": "2023-10-28T22:39:11",
      "eventStop": "2023-10-29T08:24:00",
      "duration": 584,
      "status": "Genuine",
      "associatedSiteId": 109853,
      "outfallName": "CHIDHAM",
      "isImpacting": true,
      "overFlowSiteId": 0,
      "historicSpillsList": [
        {
          "id": 344783619,
          "eventId": 884440,
          "siteUnitNumber": 12662,
          "bathingSite": "CHICHESTER HARBOUR",
          "eventStart": "2023-10-28T22:39:11",
          "eventStop": "2023-10-29T08:24:00",
          "duration": 584,
          "status": "Genuine",
          "associatedSiteId": 109853,
          "outfallName": "CHIDHAM",
          "isImpacting": true,
          "overFlowSiteId": 108205
        }
      ]
    },
    {
      "id": 344791350,
      "eventId": 885064,
      "siteUnitNumber": 12582,
      "bathingSite": "SEAFORD",
      "eventStart": "2023-10-29T07:58:00",
      "eventStop": "2023-10-29T08:21:00",
      "duration": 23,
      "status": "Genuine",
      "associatedSiteId": 109957,
      "outfallName": "PORTOBELLO BRIGHTON NO2",
      "isImpacting": false,
      "overFlowSiteId": 0,
      "historicSpillsList": []
    },
    {
      "id": 344796504,
      "eventId": 885052,
      "siteUnitNumber": 12575,
      "bathingSite": "HASTINGS PELHAM BEACH",
      "eventStart": "2023-10-29T08:09:36",
      "eventStop": "2023-10-29T08:17:18",
      "duration": 7,
      "status": "Genuine",
      "associatedSiteId": 109982,
      "outfallName": "COOMBS HASTINGS",
      "isImpacting": false,
      "overFlowSiteId": 0,
      "historicSpillsList": []
    },
    {
      "id": 344779205,
      "eventId": 892868,
      "siteUnitNumber": 12618,
      "bathingSite": "RYDE",
      "eventStart": "2023-10-28T21:20:00",
      "eventStop": "2023-10-29T08:15:00",
      "duration": 655,
      "status": "Genuine",
      "associatedSiteId": 109778,
      "outfallName": "PRINCE CONSORT RYDE NEW",
      "isImpacting": true,
      "overFlowSiteId": 0,
      "historicSpillsList": [
        {
          "id": 344779205,
          "eventId": 892868,
          "siteUnitNumber": 12618,
          "bathingSite": "RYDE",
          "eventStart": "2023-10-28T21:20:00",
          "eventStop": "2023-10-29T08:15:00",
          "duration": 655,
          "status": "Genuine",
          "associatedSiteId": 109778,
          "outfallName": "PRINCE CONSORT RYDE NEW",
          "isImpacting": true,
          "overFlowSiteId": 108043
        }
      ]
    },
    {
      "id": 344791346,
      "eventId": 885079,
      "siteUnitNumber": 12582,
      "bathingSite": "SEAFORD",
      "eventStart": "2023-10-29T07:12:13",
      "eventStop": "2023-10-29T08:00:00",
      "duration": 47,
      "status": "Not Genuine",
      "associatedSiteId": 109957,
      "outfallName": "PORTOBELLO BRIGHTON NO2",
      "isImpacting": false,
      "overFlowSiteId": 0,
      "historicSpillsList": []
    },
    {
      "id": 344795462,
      "eventId": 883940,
      "siteUnitNumber": 12591,
      "bathingSite": "LITTLEHAMPTON",
      "eventStart": "2023-10-28T17:36:52",
      "eventStop": "2023-10-29T07:59:00",
      "duration": 862,
      "status": "Genuine",
      "associatedSiteId": 109971,
      "outfallName": "BROADMARK LANE RUSTINGTON",
      "isImpacting": true,
      "overFlowSiteId": 0,
      "historicSpillsList": [
        {
          "id": 344795462,
          "eventId": 883940,
          "siteUnitNumber": 12591,
          "bathingSite": "LITTLEHAMPTON",
          "eventStart": "2023-10-28T17:36:52",
          "eventStop": "2023-10-29T07:59:00",
          "duration": 862,
          "status": "Genuine",
          "associatedSiteId": 109971,
          "outfallName": "BROADMARK LANE RUSTINGTON",
          "isImpacting": true,
          "overFlowSiteId": 107443
        }
      ]
    },
    {
      "id": 344796510,
      "eventId": 885040,
      "siteUnitNumber": 12575,
      "bathingSite": "HASTINGS PELHAM BEACH",
      "eventStart": "2023-10-29T07:51:06",
      "eventStop": "2023-10-29T07:58:44",
      "duration": 7,
      "status": "Genuine",
      "associatedSiteId": 109982,
      "outfallName": "COOMBS HASTINGS",
      "isImpacting": false,
      "overFlowSiteId": 0,
      "historicSpillsList": []
    },
    {
      "id": 344784708,
      "eventId": 885081,
      "siteUnitNumber": 12568,
      "bathingSite": "SANDGATE",
      "eventStart": "2023-10-29T07:35:12",
      "eventStop": "2023-10-29T07:41:44",
      "duration": 6,
      "status": "Genuine",
      "associatedSiteId": 109896,
      "outfallName": "RANGE ROAD HYTHE K SHORT",
      "isImpacting": false,
      "overFlowSiteId": 0,
      "historicSpillsList": []
    },
    {
      "id": 344796346,
      "eventId": 888001,
      "siteUnitNumber": 12575,
      "bathingSite": "HASTINGS PELHAM BEACH",
      "eventStart": "2023-10-29T07:32:00",
      "eventStop": "2023-10-29T07:40:00",
      "duration": 8,
      "status": "Genuine",
      "associatedSiteId": 109982,
      "outfallName": "COOMBS HASTINGS",
      "isImpacting": false,
      "overFlowSiteId": 0,
      "historicSpillsList": []
    },
    {
      "id": 344791352,
      "eventId": 885059,
      "siteUnitNumber": 12582,
      "bathingSite": "SEAFORD",
      "eventStart": "2023-10-29T07:35:11",
      "eventStop": "2023-10-29T07:39:41",
      "duration": 4,
      "status": "Genuine",
      "associatedSiteId": 109957,
      "outfallName": "PORTOBELLO BRIGHTON NO2",
      "isImpacting": false,
      "overFlowSiteId": 0,
      "historicSpillsList": []
    },
    {
      "id": 344797001,
      "eventId": 882209,
      "siteUnitNumber": 12567,
      "bathingSite": "FOLKESTONE",
      "eventStart": "2023-10-27T22:08:36",
      "eventStop": "2023-10-29T07:28:00",
      "duration": 1999,
      "status": "Genuine",
      "associatedSiteId": 110010,
      "outfallName": "THE STADE FOLKESTONE",
      "isImpacting": true,
      "overFlowSiteId": 0,
      "historicSpillsList": [
        {
          "id": 344797001,
          "eventId": 882209,
          "siteUnitNumber": 12567,
          "bathingSite": "FOLKESTONE",
          "eventStart": "2023-10-27T22:08:36",
          "eventStop": "2023-10-29T07:28:00",
          "duration": 1999,
          "status": "Genuine",
          "associatedSiteId": 110010,
          "outfallName": "THE STADE FOLKESTONE",
          "isImpacting": true,
          "overFlowSiteId": 108909
        }
      ]
    },
    {
      "id": 344796508,
      "eventId": 885005,
      "siteUnitNumber": 12575,
      "bathingSite": "HASTINGS PELHAM BEACH",
      "eventStart": "2023-10-29T07:13:56",
      "eventStop": "2023-10-29T07:21:00",
      "duration": 7,
      "status": "Genuine",
      "associatedSiteId": 109982,
      "outfallName": "COOMBS HASTINGS",
      "isImpacting": false,
      "overFlowSiteId": 0,
      "historicSpillsList": []
    },
    {
      "id": 344773336,
      "eventId": 892793,
      "siteUnitNumber": 12551,
      "bathingSite": "HERNE BAY",
      "eventStart": "2023-10-28T19:58:00",
      "eventStop": "2023-10-29T07:15:00",
      "duration": 677,
      "status": "Genuine",
      "associatedSiteId": 109682,
      "outfallName": "MAY STREET HERNE BAY NO3",
      "isImpacting": true,
      "overFlowSiteId": 0,
      "historicSpillsList": [
        {
          "id": 344773336,
          "eventId": 892793,
          "siteUnitNumber": 12551,
          "bathingSite": "HERNE BAY",
          "eventStart": "2023-10-28T19:58:00",
          "eventStop": "2023-10-29T07:15:00",
          "duration": 677,
          "status": "Genuine",
          "associatedSiteId": 109682,
          "outfallName": "MAY STREET HERNE BAY NO3",
          "isImpacting": true,
          "overFlowSiteId": 115418
        }
      ]
    },
    {
      "id": 344796514,
      "eventId": 884996,
      "siteUnitNumber": 12575,
      "bathingSite": "HASTINGS PELHAM BEACH",
      "eventStart": "2023-10-29T06:55:48",
      "eventStop": "2023-10-29T07:03:27",
      "duration": 7,
      "status": "Genuine",
      "associatedSiteId": 109982,
      "outfallName": "COOMBS HASTINGS",
      "isImpacting": false,
      "overFlowSiteId": 0,
      "historicSpillsList": []
    },
    {
      "id": 344795910,
      "eventId": 884603,
      "siteUnitNumber": 12575,
      "bathingSite": "HASTINGS PELHAM BEACH",
      "eventStart": "2023-10-29T00:39:20",
      "eventStop": "2023-10-29T07:00:00",
      "duration": 380,
      "status": "Genuine",
      "associatedSiteId": 109981,
      "outfallName": "ROCK A NORE HASTINGS",
      "isImpacting": true,
      "overFlowSiteId": 0,
      "historicSpillsList": [
        {
          "id": 344795910,
          "eventId": 884603,
          "siteUnitNumber": 12575,
          "bathingSite": "HASTINGS PELHAM BEACH",
          "eventStart": "2023-10-29T00:39:20",
          "eventStop": "2023-10-29T07:00:00",
          "duration": 380,
          "status": "Genuine",
          "associatedSiteId": 109981,
          "outfallName": "ROCK A NORE HASTINGS",
          "isImpacting": true,
          "overFlowSiteId": 110200
        }
      ]
    },
    {
      "id": 344796512,
      "eventId": 884988,
      "siteUnitNumber": 12575,
      "bathingSite": "HASTINGS PELHAM BEACH",
      "eventStart": "2023-10-29T06:37:05",
      "eventStop": "2023-10-29T06:45:03",
      "duration": 7,
      "status": "Genuine",
      "associatedSiteId": 109982,
      "outfallName": "COOMBS HASTINGS",
      "isImpacting": false,
      "overFlowSiteId": 0,
      "historicSpillsList": []
    },
    {
      "id": 344795101,
      "eventId": 884920,
      "siteUnitNumber": 12591,
      "bathingSite": "LITTLEHAMPTON",
      "eventStart": "2023-10-29T04:40:00",
      "eventStop": "2023-10-29T06:42:00",
      "duration": 122,
      "status": "Genuine",
      "associatedSiteId": 109968,
      "outfallName": "FORD ROAD ARUNDEL",
      "isImpacting": true,
      "overFlowSiteId": 0,
      "historicSpillsList": [
        {
          "id": 344795101,
          "eventId": 884920,
          "siteUnitNumber": 12591,
          "bathingSite": "LITTLEHAMPTON",
          "eventStart": "2023-10-29T04:40:00",
          "eventStop": "2023-10-29T06:42:00",
          "duration": 122,
          "status": "Genuine",
          "associatedSiteId": 109968,
          "outfallName": "FORD ROAD ARUNDEL",
          "isImpacting": true,
          "overFlowSiteId": 108002
        }
      ]
    },
    {
      "id": 344796518,
      "eventId": 884975,
      "siteUnitNumber": 12575,
      "bathingSite": "HASTINGS PELHAM BEACH",
      "eventStart": "2023-10-29T06:18:47",
      "eventStop": "2023-10-29T06:26:50",
      "duration": 8,
      "status": "Genuine",
      "associatedSiteId": 109982,
      "outfallName": "COOMBS HASTINGS",
      "isImpacting": false,
      "overFlowSiteId": 0,
      "historicSpillsList": []
    },
    {
      "id": 344791360,
      "eventId": 881879,
      "siteUnitNumber": 12582,
      "bathingSite": "SEAFORD",
      "eventStart": "2023-10-27T19:01:31",
      "eventStop": "2023-10-29T06:11:14",
      "duration": 2109,
      "status": "Genuine",
      "associatedSiteId": 109957,
      "outfallName": "PORTOBELLO BRIGHTON NO2",
      "isImpacting": true,
      "overFlowSiteId": 0,
      "historicSpillsList": [
        {
          "id": 344791360,
          "eventId": 881879,
          "siteUnitNumber": 12582,
          "bathingSite": "SEAFORD",
          "eventStart": "2023-10-27T19:01:31",
          "eventStop": "2023-10-29T06:11:14",
          "duration": 2109,
          "status": "Genuine",
          "associatedSiteId": 109957,
          "outfallName": "PORTOBELLO BRIGHTON NO2",
          "isImpacting": true,
          "overFlowSiteId": 116012
        },
        {
          "id": 344791361,
          "eventId": 881879,
          "siteUnitNumber": 12583,
          "bathingSite": "SALTDEAN",
          "eventStart": "2023-10-27T19:01:31",
          "eventStop": "2023-10-29T06:11:14",
          "duration": 2109,
          "status": "Genuine",
          "associatedSiteId": 109957,
          "outfallName": "PORTOBELLO BRIGHTON NO2",
          "isImpacting": true,
          "overFlowSiteId": 116012,
          "historicSpillsList": []
        }
      ]
    },
    {
      "id": 344781215,
      "eventId": 884796,
      "siteUnitNumber": 12602,
      "bathingSite": "BEACHLANDS WEST",
      "eventStart": "2023-10-28T22:00:00",
      "eventStop": "2023-10-29T06:10:00",
      "duration": 490,
      "status": "Genuine",
      "associatedSiteId": 109823,
      "outfallName": "FORT CUMBERLAND NO1",
      "isImpacting": true,
      "overFlowSiteId": 0,
      "historicSpillsList": [
        {
          "id": 344781215,
          "eventId": 884796,
          "siteUnitNumber": 12602,
          "bathingSite": "BEACHLANDS WEST",
          "eventStart": "2023-10-28T22:00:00",
          "eventStop": "2023-10-29T06:10:00",
          "duration": 490,
          "status": "Genuine",
          "associatedSiteId": 109823,
          "outfallName": "FORT CUMBERLAND NO1",
          "isImpacting": true,
          "overFlowSiteId": 110658
        },
        {
          "id": 344781216,
          "eventId": 884796,
          "siteUnitNumber": 12603,
          "bathingSite": "EASTNEY",
          "eventStart": "2023-10-28T22:00:00",
          "eventStop": "2023-10-29T06:10:00",
          "duration": 490,
          "status": "Genuine",
          "associatedSiteId": 109823,
          "outfallName": "FORT CUMBERLAND NO1",
          "isImpacting": true,
          "overFlowSiteId": 110658,
          "historicSpillsList": []
        },
        {
          "id": 344781218,
          "eventId": 884796,
          "siteUnitNumber": 12661,
          "bathingSite": "LANGSTONE HARBOUR",
          "eventStart": "2023-10-28T22:00:00",
          "eventStop": "2023-10-29T06:10:00",
          "duration": 490,
          "status": "Genuine",
          "associatedSiteId": 109823,
          "outfallName": "FORT CUMBERLAND NO1",
          "isImpacting": true,
          "overFlowSiteId": 110658,
          "historicSpillsList": []
        }
      ]
    },
    {
      "id": 344796344,
      "eventId": 887990,
      "siteUnitNumber": 12575,
      "bathingSite": "HASTINGS PELHAM BEACH",
      "eventStart": "2023-10-29T06:00:00",
      "eventStop": "2023-10-29T06:09:00",
      "duration": 9,
      "status": "Genuine",
      "associatedSiteId": 109982,
      "outfallName": "COOMBS HASTINGS",
      "isImpacting": false,
      "overFlowSiteId": 0,
      "historicSpillsList": []
    },
    {
      "id": 344784712,
      "eventId": 884968,
      "siteUnitNumber": 12568,
      "bathingSite": "SANDGATE",
      "eventStart": "2023-10-29T05:59:17",
      "eventStop": "2023-10-29T06:05:41",
      "duration": 6,
      "status": "Genuine",
      "associatedSiteId": 109896,
      "outfallName": "RANGE ROAD HYTHE K SHORT",
      "isImpacting": false,
      "overFlowSiteId": 0,
      "historicSpillsList": []
    }
  ]
}