{
  "currentPage": 74,
  "totalItems": 21025,
  "totalPages": 841,
  "items": [
    {
      "id": 344768998,
      "eventId": 901498,
      "siteUnitNumber": 12577,
      "bathingSite": "BEXHILL",
      "eventStart": "2023-11-09T09:25:14",
      "eventStop": "2023-11-10T07:15:00",
      "duration": 1309,
      "status": "Genuine",
      "associatedSiteId": 115500,
      "outfallName": "BEXHILL DOWN",
      "isImpacting": true,
      "overFlowSiteId": 0,
      "historicSpillsList": [
        {
          "id": 344768998,
          "eventId": 901498,
          "siteUnitNumber": 12577,
          "bathingSite": "BEXHILL",
          "eventStart": "2023-11-09T09:25:14",
          "eventStop": "2023-11-10T07:15:00",
          "duration": 1309,
          "status": "Genuine",
          "associatedSiteId": 115500,
          "outfallName": "BEXHILL DOWN",
          "isImpacting": true,
          "overFlowSiteId": 107638
        }
      ]
    },
    {
      "id": 344766190,
      "eventId": 902626,
      "siteUnitNumber": 12614,
      "bathingSite": "TOTLAND BAY",
      "eventStart": "2023-11-10T06:48:20",
      "eventStop": "2023-11-10T06:52:32",
      "duration": 4,
      "status": "Genuine",
      "associatedSiteId": 115498,
      "outfallName": "NORTON TRANSFER IOW",
      "isImpacting": true,
      "overFlowSiteId": 0,
      "historicSpillsList": [
        {
          "id": 344766190,
          "eventId": 902626,
          "siteUnitNumber": 12614,
          "bathingSite": "TOTLAND BAY",
          "eventStart": "2023-11-10T06:48:20",
          "eventStop": "2023-11-10T06:52:32",
          "duration": 4,
          "status": "Genuine",
          "associatedSiteId": 115498,
          "outfallName": "NORTON TRANSFER IOW",
          "isImpacting": true,
          "overFlowSiteId": 109524
        },
        {
          "id": 344766191,
          "eventId": 902626,
          "siteUnitNumber": 12615,
          "bathingSite": "COLWELL BAY",
          "eventStart": "2023-11-10T06:48:20",
          "eventStop": "2023-11-10T06:52:32",
          "duration": 4,
          "status": "Genuine",
          "associatedSiteId": 115498,
          "outfallName": "NORTON TRANSFER IOW",
          "isImpacting": true,
          "overFlowSiteId": 109524,
          "historicSpillsList": []
        }
      ]
    },
    {
      "id": 344749681,
      "eventId": 902285,
      "siteUnitNumber": 12595,
      "bathingSite": "BOGNOR REGIS (ALDWICK)",
      "eventStart": "2023-11-09T23:12:16",
      "eventStop": "2023-11-10T04:59:00",
      "duration": 346,
      "status": "Genuine",
      "associatedSiteId": 109959,
      "outfallName": "WEST PARK BOGNOR REGIS",
      "isImpacting": true,
      "overFlowSiteId": 0,
      "historicSpillsList": [
        {
          "id": 344749689,
          "eventId": 902285,
          "siteUnitNumber": 12594,
          "bathingSite": "BOGNOR REGIS EAST",
          "eventStart": "2023-11-09T23:12:16",
          "eventStop": "2023-11-10T04:59:00",
          "duration": 346,
          "status": "Genuine",
          "associatedSiteId": 109959,
          "outfallName": "WEST PARK BOGNOR REGIS",
          "isImpacting": true,
          "overFlowSiteId": 108160,
          "historicSpillsList": []
        }
      ]
    },
    {
      "id": 344728005,
      "eventId": 899394,
      "siteUnitNumber": 12616,
      "bathingSite": "GURNARD",
      "eventStart": "2023-11-08T06:39:00",
      "eventStop": "2023-11-10T04:45:00",
      "duration": 2766,
      "status": "Genuine",
      "associatedSiteId": 109652,
      "outfallName": "WOODVALE TRANSFER NO1",
      "isImpacting": true,
      "overFlowSiteId": 0,
      "historicSpillsList": [
        {
          "id": 344728005,
          "eventId": 899394,
          "siteUnitNumber": 12616,
          "bathingSite": "GURNARD",
          "eventStart": "2023-11-08T06:39:00",
          "eventStop": "2023-11-10T04:45:00",
          "duration": 2766,
          "status": "Genuine",
          "associatedSiteId": 109652,
          "outfallName": "WOODVALE TRANSFER NO1",
          "isImpacting": true,
          "overFlowSiteId": 115966
        },
        {
          "id": 344728006,
          "eventId": 899394,
          "siteUnitNumber": 12617,
          "bathingSite": "COWES",
          "eventStart": "2023-11-08T06:39:00",
          "eventStop": "2023-11-10T04:45:00",
          "duration": 2766,
          "status": "Genuine",
          "associatedSiteId": 109652,
          "outfallName": "WOODVALE TRANSFER NO1",
          "isImpacting": true,
          "overFlowSiteId": 115966,
          "historicSpillsList": []
        }
      ]
    },
    {
      "id": 344766192,
      "eventId": 902521,
      "siteUnitNumber": 12615,
      "bathingSite": "COLWELL BAY",
      "eventStart": "2023-11-10T04:19:29",
      "eventStop": "2023-11-10T04:24:16",
      "duration": 4,
      "status": "Genuine",
      "associatedSiteId": 115498,
      "outfallName": "NORTON TRANSFER IOW",
      "isImpacting": true,
      "overFlowSiteId": 0,
      "historicSpillsList": [
        {
          "id": 344766192,
          "eventId": 902521,
          "siteUnitNumber": 12615,
          "bathingSite": "COLWELL BAY",
          "eventStart": "2023-11-10T04:19:29",
          "eventStop": "2023-11-10T04:24:16",
          "duration": 4,
          "status": "Genuine",
          "associatedSiteId": 115498,
          "outfallName": "NORTON TRANSFER IOW",
          "isImpacting": true,
          "overFlowSiteId": 109524
        },
        {
          "id": 344766193,
          "eventId": 902521,
          "siteUnitNumber": 12614,
          "bathingSite": "TOTLAND BAY",
          "eventStart": "2023-11-10T04:19:29",
          "eventStop": "2023-11-10T04:24:16",
          "duration": 4,
          "status": "Genuine",
          "associatedSiteId": 115498,
          "outfallName": "NORTON TRANSFER IOW",
          "isImpacting": true,
          "overFlowSiteId": 109524,
          "historicSpillsList": []
        }
      ]
    },
    {
      "id": 344766194,
      "eventId": 902517,
      "siteUnitNumber": 12614,
      "bathingSite": "TOTLAND BAY",
      "eventStart": "2023-11-10T04:11:38",
      "eventStop": "2023-11-10T04:14:28",
      "duration": 2,
      "status": "Genuine",
      "associatedSiteId": 115498,
      "outfallName": "NORTON TRANSFER IOW",
      "isImpacting": true,
      "overFlowSiteId": 0,
      "historicSpillsList": [
        {
          "id": 344766194,
          "eventId": 902517,
          "siteUnitNumber": 12614,
          "bathingSite": "TOTLAND BAY",
          "eventStart": "2023-11-10T04:11:38",
          "eventStop": "2023-11-10T04:14:28",
          "duration": 2,
          "status": "Genuine",
          "associatedSiteId": 115498,
          "outfallName": "NORTON TRANSFER IOW",
          "isImpacting": true,
          "overFlowSiteId": 109524
        },
        {
          "id": 344766195,
          "eventId": 902517,
          "siteUnitNumber": 12615,
          "bathingSite": "COLWELL BAY",
          "eventStart": "2023-11-10T04:11:38",
          "eventStop": "2023-11-10T04:14:28",
          "duration": 2,
          "status": "Genuine",
          "associatedSiteId": 115498,
          "outfallName": "NORTON TRANSFER IOW",
          "isImpacting": true,
          "overFlowSiteId": 109524,
          "historicSpillsList": []
        }
      ]
    },
    {
      "id": 344766196,
      "eventId": 902514,
      "siteUnitNumber": 12614,
      "bathingSite": "TOTLAND BAY",
      "eventStart": "2023-11-10T04:03:26",
      "eventStop": "2023-11-10T04:07:07",
      "duration": 3,
      "status": "Genuine",
      "associatedSiteId": 115498,
      "outfallName": "NORTON TRANSFER IOW",
      "isImpacting": true,
      "overFlowSiteId": 0,
      "historicSpillsList": [
        {
          "id": 344766196,
          "eventId": 902514,
          "siteUnitNumber": 12614,
          "bathingSite": "TOTLAND BAY",
          "eventStart": "2023-11-10T04:03:26",
          "eventStop": "2023-11-10T04:07:07",
          "duration": 3,
          "status": "Genuine",
          "associatedSiteId": 115498,
          "outfallName": "NORTON TRANSFER IOW",
          "isImpacting": true,
          "overFlowSiteId": 109524
        },
        {
          "id": 344766197,
          "eventId": 902514,
          "siteUnitNumber": 12615,
          "bathingSite": "COLWELL BAY",
          "eventStart": "2023-11-10T04:03:26",
          "eventStop": "2023-11-10T04:07:07",
          "duration": 3,
          "status": "Genuine",
          "associatedSiteId": 115498,
          "outfallName": "NORTON TRANSFER IOW",
          "isImpacting": true,
          "overFlowSiteId": 109524,
          "historicSpillsList": []
        }
      ]
    },
    {
      "id": 344766198,
      "eventId": 902498,
      "siteUnitNumber": 12615,
      "bathingSite": "COLWELL BAY",
      "eventStart": "2023-11-10T03:42:07",
      "eventStop": "2023-11-10T03:53:13",
      "duration": 11,
      "status": "Genuine",
      "associatedSiteId": 115498,
      "outfallName": "NORTON TRANSFER IOW",
      "isImpacting": true,
      "overFlowSiteId": 0,
      "historicSpillsList": [
        {
          "id": 344766198,
          "eventId": 902498,
          "siteUnitNumber": 12615,
          "bathingSite": "COLWELL BAY",
          "eventStart": "2023-11-10T03:42:07",
          "eventStop": "2023-11-10T03:53:13",
          "duration": 11,
          "status": "Genuine",
          "associatedSiteId": 115498,
          "outfallName": "NORTON TRANSFER IOW",
          "isImpacting": true,
          "overFlowSiteId": 109524
        },
        {
          "id": 344766199,
          "eventId": 902498,
          "siteUnitNumber": 12614,
          "bathingSite": "TOTLAND BAY",
          "eventStart": "2023-11-10T03:42:07",
          "eventStop": "2023-11-10T03:53:13",
          "duration": 11,
          "status": "Genuine",
          "associatedSiteId": 115498,
          "outfallName": "NORTON TRANSFER IOW",
          "isImpacting": true,
          "overFlowSiteId": 109524,
          "historicSpillsList": []
        }
      ]
    },
    {
      "id": 344763589,
      "eventId": 902422,
      "siteUnitNumber": 12582,
      "bathingSite": "SEAFORD",
      "eventStart": "2023-11-10T02:22:40",
      "eventStop": "2023-11-10T03:39:21",
      "duration": 76,
      "status": "Genuine",
      "associatedSiteId": 110920,
      "outfallName": "NEWHAVEN",
      "isImpacting": false,
      "overFlowSiteId": 0,
      "historicSpillsList": []
    },
    {
      "id": 344754392,
      "eventId": 901470,
      "siteUnitNumber": 12567,
      "bathingSite": "FOLKESTONE",
      "eventStart": "2023-11-09T09:15:00",
      "eventStop": "2023-11-10T03:03:00",
      "duration": 1068,
      "status": "Genuine",
      "associatedSiteId": 110010,
      "outfallName": "THE STADE FOLKESTONE",
      "isImpacting": true,
      "overFlowSiteId": 0,
      "historicSpillsList": [
        {
          "id": 344754392,
          "eventId": 901470,
          "siteUnitNumber": 12567,
          "bathingSite": "FOLKESTONE",
          "eventStart": "2023-11-09T09:15:00",
          "eventStop": "2023-11-10T03:03:00",
          "duration": 1068,
          "status": "Genuine",
          "associatedSiteId": 110010,
          "outfallName": "THE STADE FOLKESTONE",
          "isImpacting": true,
          "overFlowSiteId": 108909
        }
      ]
    },
    {
      "id": 344769519,
      "eventId": 899896,
      "siteUnitNumber": 12662,
      "bathingSite": "CHICHESTER HARBOUR",
      "eventStart": "2023-11-08T10:45:00",
      "eventStop": "2023-11-10T02:43:00",
      "duration": 2398,
      "status": "Genuine",
      "associatedSiteId": 116025,
      "outfallName": "PRIORS LEAZE LANE NUTBOURNE",
      "isImpacting": true,
      "overFlowSiteId": 0,
      "historicSpillsList": [
        {
          "id": 344769519,
          "eventId": 899896,
          "siteUnitNumber": 12662,
          "bathingSite": "CHICHESTER HARBOUR",
          "eventStart": "2023-11-08T10:45:00",
          "eventStop": "2023-11-10T02:43:00",
          "duration": 2398,
          "status": "Genuine",
          "associatedSiteId": 116025,
          "outfallName": "PRIORS LEAZE LANE NUTBOURNE",
          "isImpacting": true,
          "overFlowSiteId": 111267
        }
      ]
    },
    {
      "id": 344740928,
      "eventId": 918682,
      "siteUnitNumber": 12662,
      "bathingSite": "CHICHESTER HARBOUR",
      "eventStart": "2023-11-08T07:39:00",
      "eventStop": "2023-11-10T01:09:00",
      "duration": 2490,
      "status": "Genuine",
      "associatedSiteId": 109850,
      "outfallName": "THORNHAM",
      "isImpacting": true,
      "overFlowSiteId": 0,
      "historicSpillsList": [
        {
          "id": 344740928,
          "eventId": 918682,
          "siteUnitNumber": 12662,
          "bathingSite": "CHICHESTER HARBOUR",
          "eventStart": "2023-11-08T07:39:00",
          "eventStop": "2023-11-10T01:09:00",
          "duration": 2490,
          "status": "Genuine",
          "associatedSiteId": 109850,
          "outfallName": "THORNHAM",
          "isImpacting": true,
          "overFlowSiteId": 115369
        }
      ]
    },
    {
      "id": 344732531,
      "eventId": 899719,
      "siteUnitNumber": 12616,
      "bathingSite": "GURNARD",
      "eventStart": "2023-11-08T09:21:43",
      "eventStop": "2023-11-10T01:02:24",
      "duration": 2380,
      "status": "Genuine",
      "associatedSiteId": 109705,
      "outfallName": "SPRINGHILL COWES TRANSFER",
      "isImpacting": true,
      "overFlowSiteId": 0,
      "historicSpillsList": [
        {
          "id": 344732532,
          "eventId": 899719,
          "siteUnitNumber": 12617,
          "bathingSite": "COWES",
          "eventStart": "2023-11-08T09:21:43",
          "eventStop": "2023-11-10T01:02:24",
          "duration": 2380,
          "status": "Genuine",
          "associatedSiteId": 109705,
          "outfallName": "SPRINGHILL COWES TRANSFER",
          "isImpacting": true,
          "overFlowSiteId": 108943,
          "historicSpillsList": []
        }
      ]
    },
    {
      "id": 344766200,
      "eventId": 902351,
      "siteUnitNumber": 12614,
      "bathingSite": "TOTLAND BAY",
      "eventStart": "2023-11-10T00:57:04",
      "eventStop": "2023-11-10T00:59:40",
      "duration": 2,
      "status": "Genuine",
      "associatedSiteId": 115498,
      "outfallName": "NORTON TRANSFER IOW",
      "isImpacting": true,
      "overFlowSiteId": 0,
      "historicSpillsList": [
        {
          "id": 344766200,
          "eventId": 902351,
          "siteUnitNumber": 12614,
          "bathingSite": "TOTLAND BAY",
          "eventStart": "2023-11-10T00:57:04",
          "eventStop": "2023-11-10T00:59:40",
          "duration": 2,
          "status": "Genuine",
          "associatedSiteId": 115498,
          "outfallName": "NORTON TRANSFER IOW",
          "isImpacting": true,
          "overFlowSiteId": 109524
        },
        {
          "id": 344766201,
          "eventId": 902351,
          "siteUnitNumber": 12615,
          "bathingSite": "COLWELL BAY",
          "eventStart": "2023-11-10T00:57:04",
          "eventStop": "2023-11-10T00:59:40",
          "duration": 2,
          "status": "Genuine",
          "associatedSiteId": 115498,
          "outfallName": "NORTON TRANSFER IOW",
          "isImpacting": true,
          "overFlowSiteId": 109524,
          "historicSpillsList": []
        }
      ]
    },
    {
      "id": 344733814,
      "eventId": 899781,
      "siteUnitNumber": 12606,
      "bathingSite": "LEE-ON-SOLENT",
      "eventStart": "2023-11-09T09:50:00",
      "eventStop": "2023-11-10T00:50:00",
      "duration": 900,
      "status": "Genuine",
      "associatedSiteId": 109732,
      "outfallName": "PEEL COMMON",
      "isImpacting": true,
      "overFlowSiteId": 0,
      "historicSpillsList": [
        {
          "id": 344733814,
          "eventId": 899781,
          "siteUnitNumber": 12606,
          "bathingSite": "LEE-ON-SOLENT",
          "eventStart": "2023-11-09T09:50:00",
          "eventStop": "2023-11-10T00:50:00",
          "duration": 900,
          "status": "Genuine",
          "associatedSiteId": 109732,
          "outfallName": "PEEL COMMON",
          "isImpacting": true,
          "overFlowSiteId": 115425
        },
        {
          "id": 344733818,
          "eventId": 899781,
          "siteUnitNumber": 12605,
          "bathingSite": "STOKES BAY",
          "eventStart": "2023-11-09T09:50:00",
          "eventStop": "2023-11-10T00:50:00",
          "duration": 900,
          "status": "Genuine",
          "associatedSiteId": 109732,
          "outfallName": "PEEL COMMON",
          "isImpacting": true,
          "overFlowSiteId": 115425,
          "historicSpillsList": []
        }
      ]
    },
    {
      "id": 344740590,
      "eventId": 902324,
      "siteUnitNumber": 12662,
      "bathingSite": "CHICHESTER HARBOUR",
      "eventStart": "2023-11-10T00:30:00",
      "eventStop": "2023-11-10T00:45:00",
      "duration": 15,
      "status": "Genuine",
      "associatedSiteId": 109836,
      "outfallName": "CHICHESTER",
      "isImpacting": true,
      "overFlowSiteId": 0,
      "historicSpillsList": [
        {
          "id": 344740590,
          "eventId": 902324,
          "siteUnitNumber": 12662,
          "bathingSite": "CHICHESTER HARBOUR",
          "eventStart": "2023-11-10T00:30:00",
          "eventStop": "2023-11-10T00:45:00",
          "duration": 15,
          "status": "Genuine",
          "associatedSiteId": 109836,
          "outfallName": "CHICHESTER",
          "isImpacting": true,
          "overFlowSiteId": 115401
        }
      ]
    },
    {
      "id": 344763594,
      "eventId": 901997,
      "siteUnitNumber": 12582,
      "bathingSite": "SEAFORD",
      "eventStart": "2023-11-09T18:33:41",
      "eventStop": "2023-11-10T00:41:16",
      "duration": 367,
      "status": "Genuine",
      "associatedSiteId": 110920,
      "outfallName": "NEWHAVEN",
      "isImpacting": false,
      "overFlowSiteId": 0,
      "historicSpillsList": []
    },
    {
      "id": 344734929,
      "eventId": 899924,
      "siteUnitNumber": 12661,
      "bathingSite": "LANGSTONE HARBOUR",
      "eventStart": "2023-11-08T11:23:00",
      "eventStop": "2023-11-10T00:36:00",
      "duration": 2233,
      "status": "Genuine",
      "associatedSiteId": 109773,
      "outfallName": "BUDDS FARM HAVANT NO2",
      "isImpacting": true,
      "overFlowSiteId": 0,
      "historicSpillsList": [
        {
          "id": 344734929,
          "eventId": 899924,
          "siteUnitNumber": 12661,
          "bathingSite": "LANGSTONE HARBOUR",
          "eventStart": "2023-11-08T11:23:00",
          "eventStop": "2023-11-10T00:36:00",
          "duration": 2233,
          "status": "Genuine",
          "associatedSiteId": 109773,
          "outfallName": "BUDDS FARM HAVANT NO2",
          "isImpacting": true,
          "overFlowSiteId": 115936
        }
      ]
    },
    {
      "id": 344766202,
      "eventId": 902319,
      "siteUnitNumber": 12614,
      "bathingSite": "TOTLAND BAY",
      "eventStart": "2023-11-10T00:08:28",
      "eventStop": "2023-11-10T00:10:45",
      "duration": 2,
      "status": "Genuine",
      "associatedSiteId": 115498,
      "outfallName": "NORTON TRANSFER IOW",
      "isImpacting": true,
      "overFlowSiteId": 0,
      "historicSpillsList": [
        {
          "id": 344766202,
          "eventId": 902319,
          "siteUnitNumber": 12614,
          "bathingSite": "TOTLAND BAY",
          "eventStart": "2023-11-10T00:08:28",
          "eventStop": "2023-11-10T00:10:45",
          "duration": 2,
          "status": "Genuine",
          "associatedSiteId": 115498,
          "outfallName": "NORTON TRANSFER IOW",
          "isImpacting": true,
          "overFlowSiteId": 109524
        },
        {
          "id": 344766203,
          "eventId": 902319,
          "siteUnitNumber": 12615,
          "bathingSite": "COLWELL BAY",
          "eventStart": "2023-11-10T00:08:28",
          "eventStop": "2023-11-10T00:10:45",
          "duration": 2,
          "status": "Genuine",
          "associatedSiteId": 115498,
          "outfallName": "NORTON TRANSFER IOW",
          "isImpacting": true,
          "overFlowSiteId": 109524,
          "historicSpillsList": []
        }
      ]
    },
    {
      "id": 344734928,
      "eventId": 899939,
      "siteUnitNumber": 12661,
      "bathingSite": "LANGSTONE HARBOUR",
      "eventStart": "2023-11-08T11:23:26",
      "eventStop": "2023-11-10T00:06:29",
      "duration": 2203,
      "status": "Genuine",
      "associatedSiteId": 109773,
      "outfallName": "BUDDS FARM HAVANT NO2",
      "isImpacting": true,
      "overFlowSiteId": 0,
      "historicSpillsList": [
        {
          "id": 344734928,
          "eventId": 899939,
          "siteUnitNumber": 12661,
          "bathingSite": "LANGSTONE HARBOUR",
          "eventStart": "2023-11-08T11:23:26",
          "eventStop": "2023-11-10T00:06:29",
          "duration": 2203,
          "status": "Genuine",
          "associatedSiteId": 109773,
          "outfallName": "BUDDS FARM HAVANT NO2",
          "isImpacting": true,
          "overFlowSiteId": 116279
        }
      ]
    },
    {
      "id": 344740591,
      "eventId": 902257,
      "siteUnitNumber": 12662,
      "bathingSite": "CHICHESTER HARBOUR",
      "eventStart": "2023-11-09T23:00:00",
      "eventStop": "2023-11-09T23:15:00",
      "duration": 15,
      "status": "Genuine",
      "associatedSiteId": 109836,
      "outfallName": "CHICHESTER",
      "isImpacting": true,
      "overFlowSiteId": 0,
      "historicSpillsList": [
        {
          "id": 344740591,
          "eventId": 902257,
          "siteUnitNumber": 12662,
          "bathingSite": "CHICHESTER HARBOUR",
          "eventStart": "2023-11-09T23:00:00",
          "eventStop": "2023-11-09T23:15:00",
          "duration": 15,
          "status": "Genuine",
          "associatedSiteId": 109836,
          "outfallName": "CHICHESTER",
          "isImpacting": true,
          "overFlowSiteId": 115401
        }
      ]
    },
    {
      "id": 344766204,
      "eventId": 902283,
      "siteUnitNumber": 12615,
      "bathingSite": "COLWELL BAY",
      "eventStart": "2023-11-09T23:08:29",
      "eventStop": "2023-11-09T23:12:35",
      "duration": 4,
      "status": "Genuine",
      "associatedSiteId": 115498,
      "outfallName": "NORTON TRANSFER IOW",
      "isImpacting": true,
      "overFlowSiteId": 0,
      "historicSpillsList": [
        {
          "id": 344766204,
          "eventId": 902283,
          "siteUnitNumber": 12615,
          "bathingSite": "COLWELL BAY",
          "eventStart": "2023-11-09T23:08:29",
          "eventStop": "2023-11-09T23:12:35",
          "duration": 4,
          "status": "Genuine",
          "associatedSiteId": 115498,
          "outfallName": "NORTON TRANSFER IOW",
          "isImpacting": true,
          "overFlowSiteId": 109524
        },
        {
          "id": 344766205,
          "eventId": 902283,
          "siteUnitNumber": 12614,
          "bathingSite": "TOTLAND BAY",
          "eventStart": "2023-11-09T23:08:29",
          "eventStop": "2023-11-09T23:12:35",
          "duration": 4,
          "status": "Genuine",
          "associatedSiteId": 115498,
          "outfallName": "NORTON TRANSFER IOW",
          "isImpacting": true,
          "overFlowSiteId": 109524,
          "historicSpillsList": []
        }
      ]
    },
    {
      "id": 344749686,
      "eventId": 902062,
      "siteUnitNumber": 12594,
      "bathingSite": "BOGNOR REGIS EAST",
      "eventStart": "2023-11-09T20:00:00",
      "eventStop": "2023-11-09T23:07:00",
      "duration": 187,
      "status": "Genuine",
      "associatedSiteId": 109959,
      "outfallName": "WEST PARK BOGNOR REGIS",
      "isImpacting": true,
      "overFlowSiteId": 0,
      "historicSpillsList": [
        {
          "id": 344749686,
          "eventId": 902062,
          "siteUnitNumber": 12594,
          "bathingSite": "BOGNOR REGIS EAST",
          "eventStart": "2023-11-09T20:00:00",
          "eventStop": "2023-11-09T23:07:00",
          "duration": 187,
          "status": "Genuine",
          "associatedSiteId": 109959,
          "outfallName": "WEST PARK BOGNOR REGIS",
          "isImpacting": true,
          "overFlowSiteId": 108160
        }
      ]
    },
    {
      "id": 344740592,
      "eventId": 902232,
      "siteUnitNumber": 12662,
      "bathingSite": "CHICHESTER HARBOUR",
      "eventStart": "2023-11-09T22:19:18",
      "eventStop": "2023-11-09T22:45:00",
      "duration": 25,
      "status": "Not Genuine",
      "associatedSiteId": 109836,
      "outfallName": "CHICHESTER",
      "isImpacting": true,
      "overFlowSiteId": 0,
      "historicSpillsList": []
    },
    {
      "id": 344740593,
      "eventId": 902219,
      "siteUnitNumber": 12662,
      "bathingSite": "CHICHESTER HARBOUR",
      "eventStart": "2023-11-09T21:59:00",
      "eventStop": "2023-11-09T22:15:00",
      "duration": 16,
      "status": "Genuine",
      "associatedSiteId": 109836,
      "outfallName": "CHICHESTER",
      "isImpacting": true,
      "overFlowSiteId": 0,
      "historicSpillsList": [
        {
          "id": 344740593,
          "eventId": 902219,
          "siteUnitNumber": 12662,
          "bathingSite": "CHICHESTER HARBOUR",
          "eventStart": "2023-11-09T21:59:00",
          "eventStop": "2023-11-09T22:15:00",
          "duration": 16,
          "status": "Genuine",
          "associatedSiteId": 109836,
          "outfallName": "CHICHESTER",
          "isImpacting": true,
          "overFlowSiteId": 115401
        }
      ]
    }
  ]
}