{
  "currentPage": 10,
  "totalItems": 21024,
  "totalPages": 841,
  "items": [
    {
      "id": 344700196,
      "eventId": 921134,
      "siteUnitNumber": 12568,
      "bathingSite": "SANDGATE",
      "eventStart": "2023-11-25T04:07:00",
      "eventStop": "2023-11-25T04:29:00",
      "duration": 22,
      "status": "Genuine",
      "associatedSiteId": 109897,
      "outfallName": "RANGE ROAD HYTHE K LONG",
      "isImpacting": false,
      "overFlowSiteId": 0,
      "historicSpillsList": []
    },
    {
      "id": 344700202,
      "eventId": 921133,
      "siteUnitNumber": 12568,
      "bathingSite": "SANDGATE",
      "eventStart": "2023-11-25T03:07:00",
      "eventStop": "2023-11-25T03:38:00",
      "duration": 31,
      "status": "Genuine",
      "associatedSiteId": 109897,
      "outfallName": "RANGE ROAD HYTHE K LONG",
      "isImpacting": false,
      "overFlowSiteId": 0,
      "historicSpillsList": []
    },
    {
      "id": 344700226,
      "eventId": 920128,
      "siteUnitNumber": 12568,
      "bathingSite": "SANDGATE",
      "eventStart": "2023-11-25T00:01:00",
      "eventStop": "2023-11-25T02:29:00",
      "duration": 148,
      "status": "Genuine",
      "associatedSiteId": 109897,
      "outfallName": "RANGE ROAD HYTHE K LONG",
      "isImpacting": true,
      "overFlowSiteId": 0,
      "historicSpillsList": [
        {
          "id": 344700226,
          "eventId": 920128,
          "siteUnitNumber": 12568,
          "bathingSite": "SANDGATE",
          "eventStart": "2023-11-25T00:01:00",
          "eventStop": "2023-11-25T02:29:00",
          "duration": 148,
          "status": "Genuine",
          "associatedSiteId": 109897,
          "outfallName": "RANGE ROAD HYTHE K LONG",
          "isImpacting": true,
          "overFlowSiteId": 116048
        },
        {
          "id": 344700227,
          "eventId": 920128,
          "siteUnitNumber": 12569,
          "bathingSite": "HYTHE",
          "eventStart": "2023-11-25T00:01:00",
          "eventStop": "2023-11-25T02:29:00",
          "duration": 148,
          "status": "Genuine",
          "associatedSiteId": 109897,
          "outfallName": "RANGE ROAD HYTHE K LONG",
          "isImpacting": true,
          "overFlowSiteId": 116048,
          "historicSpillsList": []
        }
      ]
    },
    {
      "id": 344697892,
      "eventId": 920112,
      "siteUnitNumber": 12662,
      "bathingSite": "CHICHESTER HARBOUR",
      "eventStart": "2023-11-24T23:41:45",
      "eventStop": "2023-11-25T00:15:00",
      "duration": 33,
      "status": "Not Genuine",
      "associatedSiteId": 109836,
      "outfallName": "CHICHESTER",
      "isImpacting": true,
      "overFlowSiteId": 0,
      "historicSpillsList": []
    },
    {
      "id": 344712852,
      "eventId": 924184,
      "siteUnitNumber": 12622,
      "bathingSite": "WHITECLIFF BAY",
      "eventStart": "2023-11-24T23:31:00",
      "eventStop": "2023-11-25T00:15:00",
      "duration": 44,
      "status": "Genuine",
      "associatedSiteId": 110096,
      "outfallName": "SANDOWN NO1",
      "isImpacting": false,
      "overFlowSiteId": 0,
      "historicSpillsList": []
    },
    {
      "id": 344700234,
      "eventId": 919947,
      "siteUnitNumber": 12568,
      "bathingSite": "SANDGATE",
      "eventStart": "2023-11-24T18:35:00",
      "eventStop": "2023-11-25T00:00:00",
      "duration": 325,
      "status": "Genuine",
      "associatedSiteId": 109897,
      "outfallName": "RANGE ROAD HYTHE K LONG",
      "isImpacting": true,
      "overFlowSiteId": 0,
      "historicSpillsList": [
        {
          "id": 344700234,
          "eventId": 919947,
          "siteUnitNumber": 12568,
          "bathingSite": "SANDGATE",
          "eventStart": "2023-11-24T18:35:00",
          "eventStop": "2023-11-25T00:00:00",
          "duration": 325,
          "status": "Genuine",
          "associatedSiteId": 109897,
          "outfallName": "RANGE ROAD HYTHE K LONG",
          "isImpacting": true,
          "overFlowSiteId": 116048
        },
        {
          "id": 344700235,
          "eventId": 919947,
          "siteUnitNumber": 12569,
          "bathingSite": "HYTHE",
          "eventStart": "2023-11-24T18:35:00",
          "eventStop": "2023-11-25T00:00:00",
          "duration": 325,
          "status": "Genuine",
          "associatedSiteId": 109897,
          "outfallName": "RANGE ROAD HYTHE K LONG",
          "isImpacting": true,
          "overFlowSiteId": 116048,
          "historicSpillsList": []
        }
      ]
    },
    {
      "id": 344706789,
      "eventId": 920480,
      "siteUnitNumber": 12594,
      "bathingSite": "BOGNOR REGIS EAST",
      "eventStart": "2023-11-24T23:31:00",
      "eventStop": "2023-11-24T23:34:00",
      "duration": 3,
      "status": "Genuine",
      "associatedSiteId": 109959,
      "outfallName": "WEST PARK BOGNOR REGIS",
      "isImpacting": false,
      "overFlowSiteId": 0,
      "historicSpillsList": []
    },
    {
      "id": 344697893,
      "eventId": 920102,
      "siteUnitNumber": 12662,
      "bathingSite": "CHICHESTER HARBOUR",
      "eventStart": "2023-11-24T23:14:39",
      "eventStop": "2023-11-24T23:30:00",
      "duration": 15,
      "status": "Not Genuine",
      "associatedSiteId": 109836,
      "outfallName": "CHICHESTER",
      "isImpacting": true,
      "overFlowSiteId": 0,
      "historicSpillsList": []
    },
    {
      "id": 344700224,
      "eventId": 920100,
      "siteUnitNumber": 12568,
      "bathingSite": "SANDGATE",
      "eventStart": "2023-11-24T23:01:38",
      "eventStop": "2023-11-24T23:15:00",
      "duration": 13,
      "status": "Not Genuine",
      "associatedSiteId": 109897,
      "outfallName": "RANGE ROAD HYTHE K LONG",
      "isImpacting": true,
      "overFlowSiteId": 0,
      "historicSpillsList": []
    },
    {
      "id": 344706831,
      "eventId": 920080,
      "siteUnitNumber": 12594,
      "bathingSite": "BOGNOR REGIS EAST",
      "eventStart": "2023-11-24T22:45:00",
      "eventStop": "2023-11-24T22:47:00",
      "duration": 2,
      "status": "Genuine",
      "associatedSiteId": 109959,
      "outfallName": "WEST PARK BOGNOR REGIS",
      "isImpacting": false,
      "overFlowSiteId": 0,
      "historicSpillsList": []
    },
    {
      "id": 344706793,
      "eventId": 920434,
      "siteUnitNumber": 12595,
      "bathingSite": "BOGNOR REGIS (ALDWICK)",
      "eventStart": "2023-11-24T21:54:00",
      "eventStop": "2023-11-24T21:56:00",
      "duration": 2,
      "status": "Genuine",
      "associatedSiteId": 109959,
      "outfallName": "WEST PARK BOGNOR REGIS",
      "isImpacting": false,
      "overFlowSiteId": 0,
      "historicSpillsList": []
    },
    {
      "id": 344700230,
      "eventId": 920072,
      "siteUnitNumber": 12568,
      "bathingSite": "SANDGATE",
      "eventStart": "2023-11-24T20:59:36",
      "eventStop": "2023-11-24T21:31:36",
      "duration": 32,
      "status": "Not Genuine",
      "associatedSiteId": 109897,
      "outfallName": "RANGE ROAD HYTHE K LONG",
      "isImpacting": true,
      "overFlowSiteId": 0,
      "historicSpillsList": []
    },
    {
      "id": 344706798,
      "eventId": 920433,
      "siteUnitNumber": 12594,
      "bathingSite": "BOGNOR REGIS EAST",
      "eventStart": "2023-11-24T21:12:00",
      "eventStop": "2023-11-24T21:15:00",
      "duration": 3,
      "status": "Genuine",
      "associatedSiteId": 109959,
      "outfallName": "WEST PARK BOGNOR REGIS",
      "isImpacting": false,
      "overFlowSiteId": 0,
      "historicSpillsList": []
    },
    {
      "id": 344697894,
      "eventId": 920046,
      "siteUnitNumber": 12662,
      "bathingSite": "CHICHESTER HARBOUR",
      "eventStart": "2023-11-24T20:59:16",
      "eventStop": "2023-11-24T21:15:00",
      "duration": 15,
      "status": "Not Genuine",
      "associatedSiteId": 109836,
      "outfallName": "CHICHESTER",
      "isImpacting": true,
      "overFlowSiteId": 0,
      "historicSpillsList": []
    },
    {
      "id": 344700228,
      "eventId": 920034,
      "siteUnitNumber": 12568,
      "bathingSite": "SANDGATE",
      "eventStart": "2023-11-24T20:11:36",
      "eventStop": "2023-11-24T20:45:00",
      "duration": 33,
      "status": "Not Genuine",
      "associatedSiteId": 109897,
      "outfallName": "RANGE ROAD HYTHE K LONG",
      "isImpacting": true,
      "overFlowSiteId": 0,
      "historicSpillsList": []
    },
    {
      "id": 344706804,
      "eventId": 920432,
      "siteUnitNumber": 12594,
      "bathingSite": "BOGNOR REGIS EAST",
      "eventStart": "2023-11-24T20:37:00",
      "eventStop": "2023-11-24T20:40:00",
      "duration": 3,
      "status": "Genuine",
      "associatedSiteId": 109959,
      "outfallName": "WEST PARK BOGNOR REGIS",
      "isImpacting": false,
      "overFlowSiteId": 0,
      "historicSpillsList": []
    },
    {
      "id": 344706802,
      "eventId": 920431,
      "siteUnitNumber": 12595,
      "bathingSite": "BOGNOR REGIS (ALDWICK)",
      "eventStart": "2023-11-24T20:05:00",
      "eventStop": "2023-11-24T20:07:00",
      "duration": 2,
      "status": "Genuine",
      "associatedSiteId": 109959,
      "outfallName": "WEST PARK BOGNOR REGIS",
      "isImpacting": false,
      "overFlowSiteId": 0,
      "historicSpillsList": []
    },
    {
      "id": 344706809,
      "eventId": 920430,
      "siteUnitNumber": 12596,
      "bathingSite": "PAGHAM",
      "eventStart": "2023-11-24T19:38:00",
      "eventStop": "2023-11-24T19:40:00",
      "duration": 2,
      "status": "Genuine",
      "associatedSiteId": 109959,
      "outfallName": "WEST PARK BOGNOR REGIS",
      "isImpacting": false,
      "overFlowSiteId": 0,
      "historicSpillsList": []
    },
    {
      "id": 344697896,
      "eventId": 919939,
      "siteUnitNumber": 12662,
      "bathingSite": "CHICHESTER HARBOUR",
      "eventStart": "2023-11-24T19:10:31",
      "eventStop": "2023-11-24T19:30:00",
      "duration": 19,
      "status": "Not Genuine",
      "associatedSiteId": 109836,
      "outfallName": "CHICHESTER",
      "isImpacting": true,
      "overFlowSiteId": 0,
      "historicSpillsList": []
    },
    {
      "id": 344706813,
      "eventId": 920429,
      "siteUnitNumber": 12594,
      "bathingSite": "BOGNOR REGIS EAST",
      "eventStart": "2023-11-24T19:09:00",
      "eventStop": "2023-11-24T19:11:00",
      "duration": 2,
      "status": "Genuine",
      "associatedSiteId": 109959,
      "outfallName": "WEST PARK BOGNOR REGIS",
      "isImpacting": false,
      "overFlowSiteId": 0,
      "historicSpillsList": []
    },
    {
      "id": 344706811,
      "eventId": 920428,
      "siteUnitNumber": 12595,
      "bathingSite": "BOGNOR REGIS (ALDWICK)",
      "eventStart": "2023-11-24T18:47:00",
      "eventStop": "2023-11-24T18:49:00",
      "duration": 2,
      "status": "Genuine",
      "associatedSiteId": 109959,
      "outfallName": "WEST PARK BOGNOR REGIS",
      "isImpacting": false,
      "overFlowSiteId": 0,
      "historicSpillsList": []
    },
    {
      "id": 344700248,
      "eventId": 919801,
      "siteUnitNumber": 12568,
      "bathingSite": "SANDGATE",
      "eventStart": "2023-11-24T15:01:00",
      "eventStop": "2023-11-24T18:30:00",
      "duration": 209,
      "status": "Genuine",
      "associatedSiteId": 109897,
      "outfallName": "RANGE ROAD HYTHE K LONG",
      "isImpacting": true,
      "overFlowSiteId": 0,
      "historicSpillsList": [
        {
          "id": 344700248,
          "eventId": 919801,
          "siteUnitNumber": 12568,
          "bathingSite": "SANDGATE",
          "eventStart": "2023-11-24T15:01:00",
          "eventStop": "2023-11-24T18:30:00",
          "duration": 209,
          "status": "Genuine",
          "associatedSiteId": 109897,
          "outfallName": "RANGE ROAD HYTHE K LONG",
          "isImpacting": true,
          "overFlowSiteId": 116048
        },
        {
          "id": 344700249,
          "eventId": 919801,
          "siteUnitNumber": 12569,
          "bathingSite": "HYTHE",
          "eventStart": "2023-11-24T15:01:00",
          "eventStop": "2023-11-24T18:30:00",
          "duration": 209,
          "status": "Genuine",
          "associatedSiteId": 109897,
          "outfallName": "RANGE ROAD HYTHE K LONG",
          "isImpacting": true,
          "overFlowSiteId": 116048,
          "historicSpillsList": []
        }
      ]
    },
    {
      "id": 344706829,
      "eventId": 919900,
      "siteUnitNumber": 12595,
      "bathingSite": "BOGNOR REGIS (ALDWICK)",
      "eventStart": "2023-11-24T18:16:00",
      "eventStop": "2023-11-24T18:18:00",
      "duration": 2,
      "status": "Genuine",
      "associatedSiteId": 109959,
      "outfallName": "WEST PARK BOGNOR REGIS",
      "isImpacting": true,
      "overFlowSiteId": 0,
      "historicSpillsList": [
        {
          "id": 344706830,
          "eventId": 919900,
          "siteUnitNumber": 12596,
          "bathingSite": "PAGHAM",
          "eventStart": "2023-11-24T18:16:00",
          "eventStop": "2023-11-24T18:18:00",
          "duration": 2,
          "status": "Genuine",
          "associatedSiteId": 109959,
          "outfallName": "WEST PARK BOGNOR REGIS",
          "isImpacting": true,
          "overFlowSiteId": 108160,
          "historicSpillsList": []
        }
      ]
    },
    {
      "id": 344706816,
      "eventId": 920424,
      "siteUnitNumber": 12594,
      "bathingSite": "BOGNOR REGIS EAST",
      "eventStart": "2023-11-24T17:38:00",
      "eventStop": "2023-11-24T17:41:00",
      "duration": 3,
      "status": "Genuine",
      "associatedSiteId": 109959,
      "outfallName": "WEST PARK BOGNOR REGIS",
      "isImpacting": false,
      "overFlowSiteId": 0,
      "historicSpillsList": []
    },
    {
      "id": 344700238,
      "eventId": 919865,
      "siteUnitNumber": 12568,
      "bathingSite": "SANDGATE",
      "eventStart": "2023-11-24T17:05:15",
      "eventStop": "2023-11-24T17:15:00",
      "duration": 9,
      "status": "Not Genuine",
      "associatedSiteId": 109897,
      "outfallName": "RANGE ROAD HYTHE K LONG",
      "isImpacting": false,
      "overFlowSiteId": 0,
      "historicSpillsList": []
    }
  ]
}