{
  "currentPage": 687,
  "totalItems": 21025,
  "totalPages": 841,
  "items": [
    {
      "id": 344812918,
      "eventId": 483625,
      "siteUnitNumber": 12544,
      "bathingSite": "SHEERNESS",
      "eventStart": "2021-08-22T04:25:39",
      "eventStop": "2021-08-22T09:28:00",
      "duration": 302,
      "status": "Genuine",
      "associatedSiteId": 109619,
      "outfallName": "WARDS HILL ROAD MINSTER IOS",
      "isImpacting": true,
      "overFlowSiteId": 0,
      "historicSpillsList": [
        {
          "id": 344812918,
          "eventId": 483625,
          "siteUnitNumber": 12544,
          "bathingSite": "SHEERNESS",
          "eventStart": "2021-08-22T04:25:39",
          "eventStop": "2021-08-22T09:28:00",
          "duration": 302,
          "status": "Genuine",
          "associatedSiteId": 109619,
          "outfallName": "WARDS HILL ROAD MINSTER IOS",
          "isImpacting": true,
          "overFlowSiteId": 107413
        },
        {
          "id": 344812919,
          "eventId": 483625,
          "siteUnitNumber": 12550,
          "bathingSite": "MINSTER LEAS",
          "eventStart": "2021-08-22T04:25:39",
          "eventStop": "2021-08-22T09:28:00",
          "duration": 302,
          "status": "Genuine",
          "associatedSiteId": 109619,
          "outfallName": "WARDS HILL ROAD MINSTER IOS",
          "isImpacting": true,
          "overFlowSiteId": 107413,
          "historicSpillsList": []
        }
      ]
    },
    {
      "id": 344812681,
      "eventId": 483620,
      "siteUnitNumber": 12544,
      "bathingSite": "SHEERNESS",
      "eventStart": "2021-08-22T04:17:29",
      "eventStop": "2021-08-22T09:02:00",
      "duration": 284,
      "status": "Genuine",
      "associatedSiteId": 109614,
      "outfallName": "BRIELLE WAY WESTMINSTER",
      "isImpacting": true,
      "overFlowSiteId": 0,
      "historicSpillsList": [
        {
          "id": 344812681,
          "eventId": 483620,
          "siteUnitNumber": 12544,
          "bathingSite": "SHEERNESS",
          "eventStart": "2021-08-22T04:17:29",
          "eventStop": "2021-08-22T09:02:00",
          "duration": 284,
          "status": "Genuine",
          "associatedSiteId": 109614,
          "outfallName": "BRIELLE WAY WESTMINSTER",
          "isImpacting": true,
          "overFlowSiteId": 108810
        }
      ]
    },
    {
      "id": 344812790,
      "eventId": 483754,
      "siteUnitNumber": 12544,
      "bathingSite": "SHEERNESS",
      "eventStart": "2021-08-22T08:40:00",
      "eventStop": "2021-08-22T08:42:00",
      "duration": 2,
      "status": "Genuine",
      "associatedSiteId": 109616,
      "outfallName": "SOUTH STREET QUEENBOROUGH",
      "isImpacting": true,
      "overFlowSiteId": 0,
      "historicSpillsList": [
        {
          "id": 344812790,
          "eventId": 483754,
          "siteUnitNumber": 12544,
          "bathingSite": "SHEERNESS",
          "eventStart": "2021-08-22T08:40:00",
          "eventStop": "2021-08-22T08:42:00",
          "duration": 2,
          "status": "Genuine",
          "associatedSiteId": 109616,
          "outfallName": "SOUTH STREET QUEENBOROUGH",
          "isImpacting": true,
          "overFlowSiteId": 108732
        }
      ]
    },
    {
      "id": 344812584,
      "eventId": 483634,
      "siteUnitNumber": 12546,
      "bathingSite": "LEYSDOWN",
      "eventStart": "2021-08-22T04:38:35",
      "eventStop": "2021-08-22T08:41:00",
      "duration": 242,
      "status": "Genuine",
      "associatedSiteId": 109613,
      "outfallName": "BARROWS BROOK EASTCHURCH",
      "isImpacting": true,
      "overFlowSiteId": 0,
      "historicSpillsList": [
        {
          "id": 344812584,
          "eventId": 483634,
          "siteUnitNumber": 12546,
          "bathingSite": "LEYSDOWN",
          "eventStart": "2021-08-22T04:38:35",
          "eventStop": "2021-08-22T08:41:00",
          "duration": 242,
          "status": "Genuine",
          "associatedSiteId": 109613,
          "outfallName": "BARROWS BROOK EASTCHURCH",
          "isImpacting": true,
          "overFlowSiteId": 108109
        }
      ]
    },
    {
      "id": 344816155,
      "eventId": 507474,
      "siteUnitNumber": 12561,
      "bathingSite": "BROADSTAIRS STONE BAY",
      "eventStart": "2021-08-22T05:52:00",
      "eventStop": "2021-08-22T08:10:00",
      "duration": 138,
      "status": "Genuine",
      "associatedSiteId": 109694,
      "outfallName": "THANET ROAD RAMSGATE",
      "isImpacting": true,
      "overFlowSiteId": 0,
      "historicSpillsList": [
        {
          "id": 344816155,
          "eventId": 507474,
          "siteUnitNumber": 12561,
          "bathingSite": "BROADSTAIRS STONE BAY",
          "eventStart": "2021-08-22T05:52:00",
          "eventStop": "2021-08-22T08:10:00",
          "duration": 138,
          "status": "Genuine",
          "associatedSiteId": 109694,
          "outfallName": "THANET ROAD RAMSGATE",
          "isImpacting": true,
          "overFlowSiteId": 108650
        },
        {
          "id": 344816156,
          "eventId": 507474,
          "siteUnitNumber": 12562,
          "bathingSite": "BROADSTAIRS VIKING BAY",
          "eventStart": "2021-08-22T05:52:00",
          "eventStop": "2021-08-22T08:10:00",
          "duration": 138,
          "status": "Genuine",
          "associatedSiteId": 109694,
          "outfallName": "THANET ROAD RAMSGATE",
          "isImpacting": true,
          "overFlowSiteId": 108650,
          "historicSpillsList": []
        },
        {
          "id": 344816157,
          "eventId": 507474,
          "siteUnitNumber": 12563,
          "bathingSite": "RAMSGATE SANDS",
          "eventStart": "2021-08-22T05:52:00",
          "eventStop": "2021-08-22T08:10:00",
          "duration": 138,
          "status": "Genuine",
          "associatedSiteId": 109694,
          "outfallName": "THANET ROAD RAMSGATE",
          "isImpacting": true,
          "overFlowSiteId": 108650,
          "historicSpillsList": []
        },
        {
          "id": 344816158,
          "eventId": 507474,
          "siteUnitNumber": 12564,
          "bathingSite": "RAMSGATE WESTERN UNDERCLIFFE",
          "eventStart": "2021-08-22T05:52:00",
          "eventStop": "2021-08-22T08:10:00",
          "duration": 138,
          "status": "Genuine",
          "associatedSiteId": 109694,
          "outfallName": "THANET ROAD RAMSGATE",
          "isImpacting": true,
          "overFlowSiteId": 108650,
          "historicSpillsList": []
        }
      ]
    },
    {
      "id": 344824136,
      "eventId": 483648,
      "siteUnitNumber": 12547,
      "bathingSite": "WEST BEACH WHITSTABLE",
      "eventStart": "2021-08-22T04:55:39",
      "eventStop": "2021-08-22T07:45:00",
      "duration": 169,
      "status": "Genuine",
      "associatedSiteId": 109829,
      "outfallName": "BROOK ROAD SWALECLIFFE",
      "isImpacting": true,
      "overFlowSiteId": 0,
      "historicSpillsList": [
        {
          "id": 344824136,
          "eventId": 483648,
          "siteUnitNumber": 12547,
          "bathingSite": "WEST BEACH WHITSTABLE",
          "eventStart": "2021-08-22T04:55:39",
          "eventStop": "2021-08-22T07:45:00",
          "duration": 169,
          "status": "Genuine",
          "associatedSiteId": 109829,
          "outfallName": "BROOK ROAD SWALECLIFFE",
          "isImpacting": true,
          "overFlowSiteId": 110179
        },
        {
          "id": 344824137,
          "eventId": 483648,
          "siteUnitNumber": 12548,
          "bathingSite": "TANKERTON",
          "eventStart": "2021-08-22T04:55:39",
          "eventStop": "2021-08-22T07:45:00",
          "duration": 169,
          "status": "Genuine",
          "associatedSiteId": 109829,
          "outfallName": "BROOK ROAD SWALECLIFFE",
          "isImpacting": true,
          "overFlowSiteId": 110179,
          "historicSpillsList": []
        },
        {
          "id": 344824138,
          "eventId": 483648,
          "siteUnitNumber": 12549,
          "bathingSite": "HERNE BAY CENTRAL",
          "eventStart": "2021-08-22T04:55:39",
          "eventStop": "2021-08-22T07:45:00",
          "duration": 169,
          "status": "Genuine",
          "associatedSiteId": 109829,
          "outfallName": "BROOK ROAD SWALECLIFFE",
          "isImpacting": true,
          "overFlowSiteId": 110179,
          "historicSpillsList": []
        }
      ]
    },
    {
      "id": 344812792,
      "eventId": 483729,
      "siteUnitNumber": 12544,
      "bathingSite": "SHEERNESS",
      "eventStart": "2021-08-22T07:35:00",
      "eventStop": "2021-08-22T07:37:00",
      "duration": 2,
      "status": "Genuine",
      "associatedSiteId": 109616,
      "outfallName": "SOUTH STREET QUEENBOROUGH",
      "isImpacting": true,
      "overFlowSiteId": 0,
      "historicSpillsList": [
        {
          "id": 344812792,
          "eventId": 483729,
          "siteUnitNumber": 12544,
          "bathingSite": "SHEERNESS",
          "eventStart": "2021-08-22T07:35:00",
          "eventStop": "2021-08-22T07:37:00",
          "duration": 2,
          "status": "Genuine",
          "associatedSiteId": 109616,
          "outfallName": "SOUTH STREET QUEENBOROUGH",
          "isImpacting": true,
          "overFlowSiteId": 108732
        }
      ]
    },
    {
      "id": 344815728,
      "eventId": 483663,
      "siteUnitNumber": 12549,
      "bathingSite": "HERNE BAY CENTRAL",
      "eventStart": "2021-08-22T05:15:00",
      "eventStop": "2021-08-22T07:30:00",
      "duration": 135,
      "status": "Genuine",
      "associatedSiteId": 109677,
      "outfallName": "EDDINGTON LANE HERNE BAY NO1",
      "isImpacting": true,
      "overFlowSiteId": 0,
      "historicSpillsList": [
        {
          "id": 344815728,
          "eventId": 483663,
          "siteUnitNumber": 12549,
          "bathingSite": "HERNE BAY CENTRAL",
          "eventStart": "2021-08-22T05:15:00",
          "eventStop": "2021-08-22T07:30:00",
          "duration": 135,
          "status": "Genuine",
          "associatedSiteId": 109677,
          "outfallName": "EDDINGTON LANE HERNE BAY NO1",
          "isImpacting": true,
          "overFlowSiteId": 108091
        },
        {
          "id": 344815729,
          "eventId": 483663,
          "siteUnitNumber": 12551,
          "bathingSite": "HERNE BAY",
          "eventStart": "2021-08-22T05:15:00",
          "eventStop": "2021-08-22T07:30:00",
          "duration": 135,
          "status": "Genuine",
          "associatedSiteId": 109677,
          "outfallName": "EDDINGTON LANE HERNE BAY NO1",
          "isImpacting": true,
          "overFlowSiteId": 108091,
          "historicSpillsList": []
        }
      ]
    },
    {
      "id": 344825335,
      "eventId": 483612,
      "siteUnitNumber": 12547,
      "bathingSite": "WEST BEACH WHITSTABLE",
      "eventStart": "2021-08-22T04:25:00",
      "eventStop": "2021-08-22T07:05:00",
      "duration": 160,
      "status": "Genuine",
      "associatedSiteId": 109831,
      "outfallName": "TANKERTON CIRCUS",
      "isImpacting": true,
      "overFlowSiteId": 0,
      "historicSpillsList": [
        {
          "id": 344825335,
          "eventId": 483612,
          "siteUnitNumber": 12547,
          "bathingSite": "WEST BEACH WHITSTABLE",
          "eventStart": "2021-08-22T04:25:00",
          "eventStop": "2021-08-22T07:05:00",
          "duration": 160,
          "status": "Genuine",
          "associatedSiteId": 109831,
          "outfallName": "TANKERTON CIRCUS",
          "isImpacting": true,
          "overFlowSiteId": 102252
        },
        {
          "id": 344825336,
          "eventId": 483612,
          "siteUnitNumber": 12548,
          "bathingSite": "TANKERTON",
          "eventStart": "2021-08-22T04:25:00",
          "eventStop": "2021-08-22T07:05:00",
          "duration": 160,
          "status": "Genuine",
          "associatedSiteId": 109831,
          "outfallName": "TANKERTON CIRCUS",
          "isImpacting": true,
          "overFlowSiteId": 102252,
          "historicSpillsList": []
        }
      ]
    },
    {
      "id": 344825334,
      "eventId": 483617,
      "siteUnitNumber": 12548,
      "bathingSite": "TANKERTON",
      "eventStart": "2021-08-22T04:02:00",
      "eventStop": "2021-08-22T07:05:00",
      "duration": 183,
      "status": "Genuine",
      "associatedSiteId": 109831,
      "outfallName": "TANKERTON CIRCUS",
      "isImpacting": true,
      "overFlowSiteId": 0,
      "historicSpillsList": [
        {
          "id": 344825334,
          "eventId": 483617,
          "siteUnitNumber": 12548,
          "bathingSite": "TANKERTON",
          "eventStart": "2021-08-22T04:02:00",
          "eventStop": "2021-08-22T07:05:00",
          "duration": 183,
          "status": "Genuine",
          "associatedSiteId": 109831,
          "outfallName": "TANKERTON CIRCUS",
          "isImpacting": true,
          "overFlowSiteId": 103280
        },
        {
          "id": 344825337,
          "eventId": 483617,
          "siteUnitNumber": 12547,
          "bathingSite": "WEST BEACH WHITSTABLE",
          "eventStart": "2021-08-22T04:02:00",
          "eventStop": "2021-08-22T07:05:00",
          "duration": 183,
          "status": "Genuine",
          "associatedSiteId": 109831,
          "outfallName": "TANKERTON CIRCUS",
          "isImpacting": true,
          "overFlowSiteId": 103280,
          "historicSpillsList": []
        }
      ]
    },
    {
      "id": 344812791,
      "eventId": 483709,
      "siteUnitNumber": 12544,
      "bathingSite": "SHEERNESS",
      "eventStart": "2021-08-22T06:35:00",
      "eventStop": "2021-08-22T06:37:00",
      "duration": 2,
      "status": "Genuine",
      "associatedSiteId": 109616,
      "outfallName": "SOUTH STREET QUEENBOROUGH",
      "isImpacting": true,
      "overFlowSiteId": 0,
      "historicSpillsList": [
        {
          "id": 344812791,
          "eventId": 483709,
          "siteUnitNumber": 12544,
          "bathingSite": "SHEERNESS",
          "eventStart": "2021-08-22T06:35:00",
          "eventStop": "2021-08-22T06:37:00",
          "duration": 2,
          "status": "Genuine",
          "associatedSiteId": 109616,
          "outfallName": "SOUTH STREET QUEENBOROUGH",
          "isImpacting": true,
          "overFlowSiteId": 108732
        }
      ]
    },
    {
      "id": 344825338,
      "eventId": 483610,
      "siteUnitNumber": 12547,
      "bathingSite": "WEST BEACH WHITSTABLE",
      "eventStart": "2021-08-22T04:13:00",
      "eventStop": "2021-08-22T06:34:00",
      "duration": 141,
      "status": "Genuine",
      "associatedSiteId": 109831,
      "outfallName": "TANKERTON CIRCUS",
      "isImpacting": true,
      "overFlowSiteId": 0,
      "historicSpillsList": [
        {
          "id": 344825338,
          "eventId": 483610,
          "siteUnitNumber": 12547,
          "bathingSite": "WEST BEACH WHITSTABLE",
          "eventStart": "2021-08-22T04:13:00",
          "eventStop": "2021-08-22T06:34:00",
          "duration": 141,
          "status": "Genuine",
          "associatedSiteId": 109831,
          "outfallName": "TANKERTON CIRCUS",
          "isImpacting": true,
          "overFlowSiteId": 103281
        },
        {
          "id": 344825339,
          "eventId": 483610,
          "siteUnitNumber": 12548,
          "bathingSite": "TANKERTON",
          "eventStart": "2021-08-22T04:13:00",
          "eventStop": "2021-08-22T06:34:00",
          "duration": 141,
          "status": "Genuine",
          "associatedSiteId": 109831,
          "outfallName": "TANKERTON CIRCUS",
          "isImpacting": true,
          "overFlowSiteId": 103281,
          "historicSpillsList": []
        }
      ]
    },
    {
      "id": 344815624,
      "eventId": 483646,
      "siteUnitNumber": 12549,
      "bathingSite": "HERNE BAY CENTRAL",
      "eventStart": "2021-08-22T05:00:00",
      "eventStop": "2021-08-22T05:59:00",
      "duration": 59,
      "status": "Genuine",
      "associatedSiteId": 109676,
      "outfallName": "KINGS HALL HERNE BAY A",
      "isImpacting": true,
      "overFlowSiteId": 0,
      "historicSpillsList": [
        {
          "id": 344815624,
          "eventId": 483646,
          "siteUnitNumber": 12549,
          "bathingSite": "HERNE BAY CENTRAL",
          "eventStart": "2021-08-22T05:00:00",
          "eventStop": "2021-08-22T05:59:00",
          "duration": 59,
          "status": "Genuine",
          "associatedSiteId": 109676,
          "outfallName": "KINGS HALL HERNE BAY A",
          "isImpacting": true,
          "overFlowSiteId": 108096
        },
        {
          "id": 344815625,
          "eventId": 483646,
          "siteUnitNumber": 12551,
          "bathingSite": "HERNE BAY",
          "eventStart": "2021-08-22T05:00:00",
          "eventStop": "2021-08-22T05:59:00",
          "duration": 59,
          "status": "Genuine",
          "associatedSiteId": 109676,
          "outfallName": "KINGS HALL HERNE BAY A",
          "isImpacting": true,
          "overFlowSiteId": 108096,
          "historicSpillsList": []
        }
      ]
    },
    {
      "id": 344815924,
      "eventId": 483697,
      "siteUnitNumber": 12551,
      "bathingSite": "HERNE BAY",
      "eventStart": "2021-08-22T05:11:58",
      "eventStop": "2021-08-22T05:54:00",
      "duration": 42,
      "status": "Genuine",
      "associatedSiteId": 109680,
      "outfallName": "MAY STREET HERNE BAY NO1",
      "isImpacting": true,
      "overFlowSiteId": 0,
      "historicSpillsList": [
        {
          "id": 344815924,
          "eventId": 483697,
          "siteUnitNumber": 12551,
          "bathingSite": "HERNE BAY",
          "eventStart": "2021-08-22T05:11:58",
          "eventStop": "2021-08-22T05:54:00",
          "duration": 42,
          "status": "Genuine",
          "associatedSiteId": 109680,
          "outfallName": "MAY STREET HERNE BAY NO1",
          "isImpacting": true,
          "overFlowSiteId": 115417
        }
      ]
    },
    {
      "id": 344812793,
      "eventId": 483659,
      "siteUnitNumber": 12544,
      "bathingSite": "SHEERNESS",
      "eventStart": "2021-08-22T05:44:00",
      "eventStop": "2021-08-22T05:46:00",
      "duration": 2,
      "status": "Genuine",
      "associatedSiteId": 109616,
      "outfallName": "SOUTH STREET QUEENBOROUGH",
      "isImpacting": true,
      "overFlowSiteId": 0,
      "historicSpillsList": [
        {
          "id": 344812793,
          "eventId": 483659,
          "siteUnitNumber": 12544,
          "bathingSite": "SHEERNESS",
          "eventStart": "2021-08-22T05:44:00",
          "eventStop": "2021-08-22T05:46:00",
          "duration": 2,
          "status": "Genuine",
          "associatedSiteId": 109616,
          "outfallName": "SOUTH STREET QUEENBOROUGH",
          "isImpacting": true,
          "overFlowSiteId": 108732
        }
      ]
    },
    {
      "id": 344815970,
      "eventId": 483707,
      "siteUnitNumber": 12551,
      "bathingSite": "HERNE BAY",
      "eventStart": "2021-08-22T05:01:27",
      "eventStop": "2021-08-22T05:45:27",
      "duration": 44,
      "status": "Genuine",
      "associatedSiteId": 109682,
      "outfallName": "MAY STREET HERNE BAY NO3",
      "isImpacting": true,
      "overFlowSiteId": 0,
      "historicSpillsList": [
        {
          "id": 344815970,
          "eventId": 483707,
          "siteUnitNumber": 12551,
          "bathingSite": "HERNE BAY",
          "eventStart": "2021-08-22T05:01:27",
          "eventStop": "2021-08-22T05:45:27",
          "duration": 44,
          "status": "Genuine",
          "associatedSiteId": 109682,
          "outfallName": "MAY STREET HERNE BAY NO3",
          "isImpacting": true,
          "overFlowSiteId": 115418
        }
      ]
    },
    {
      "id": 344830696,
      "eventId": 483604,
      "siteUnitNumber": 12576,
      "bathingSite": "ST LEONARDS",
      "eventStart": "2021-08-22T03:47:25",
      "eventStop": "2021-08-22T05:39:10",
      "duration": 111,
      "status": "Genuine",
      "associatedSiteId": 109903,
      "outfallName": "BEXHILL & HASTINGS NO2",
      "isImpacting": true,
      "overFlowSiteId": 0,
      "historicSpillsList": [
        {
          "id": 344830696,
          "eventId": 483604,
          "siteUnitNumber": 12576,
          "bathingSite": "ST LEONARDS",
          "eventStart": "2021-08-22T03:47:25",
          "eventStop": "2021-08-22T05:39:10",
          "duration": 111,
          "status": "Genuine",
          "associatedSiteId": 109903,
          "outfallName": "BEXHILL & HASTINGS NO2",
          "isImpacting": true,
          "overFlowSiteId": 115398
        },
        {
          "id": 344830697,
          "eventId": 483604,
          "siteUnitNumber": 12577,
          "bathingSite": "BEXHILL",
          "eventStart": "2021-08-22T03:47:25",
          "eventStop": "2021-08-22T05:39:10",
          "duration": 111,
          "status": "Genuine",
          "associatedSiteId": 109903,
          "outfallName": "BEXHILL & HASTINGS NO2",
          "isImpacting": true,
          "overFlowSiteId": 115398,
          "historicSpillsList": []
        }
      ]
    },
    {
      "id": 344839574,
      "eventId": 483640,
      "siteUnitNumber": 12546,
      "bathingSite": "LEYSDOWN",
      "eventStart": "2021-08-22T04:45:00",
      "eventStop": "2021-08-22T05:30:00",
      "duration": 45,
      "status": "Genuine",
      "associatedSiteId": 109998,
      "outfallName": "MUSTARDS ROAD LEYSDOWN ON SEA",
      "isImpacting": true,
      "overFlowSiteId": 0,
      "historicSpillsList": [
        {
          "id": 344839574,
          "eventId": 483640,
          "siteUnitNumber": 12546,
          "bathingSite": "LEYSDOWN",
          "eventStart": "2021-08-22T04:45:00",
          "eventStop": "2021-08-22T05:30:00",
          "duration": 45,
          "status": "Genuine",
          "associatedSiteId": 109998,
          "outfallName": "MUSTARDS ROAD LEYSDOWN ON SEA",
          "isImpacting": true,
          "overFlowSiteId": 108113
        }
      ]
    },
    {
      "id": 344826305,
      "eventId": 483613,
      "siteUnitNumber": 12544,
      "bathingSite": "SHEERNESS",
      "eventStart": "2021-08-22T04:09:11",
      "eventStop": "2021-08-22T05:15:00",
      "duration": 65,
      "status": "Genuine",
      "associatedSiteId": 109869,
      "outfallName": "GRAIN NO2",
      "isImpacting": true,
      "overFlowSiteId": 0,
      "historicSpillsList": [
        {
          "id": 344826305,
          "eventId": 483613,
          "siteUnitNumber": 12544,
          "bathingSite": "SHEERNESS",
          "eventStart": "2021-08-22T04:09:11",
          "eventStop": "2021-08-22T05:15:00",
          "duration": 65,
          "status": "Genuine",
          "associatedSiteId": 109869,
          "outfallName": "GRAIN NO2",
          "isImpacting": true,
          "overFlowSiteId": 115411
        }
      ]
    },
    {
      "id": 344812795,
      "eventId": 483638,
      "siteUnitNumber": 12544,
      "bathingSite": "SHEERNESS",
      "eventStart": "2021-08-22T04:41:20",
      "eventStop": "2021-08-22T05:12:00",
      "duration": 30,
      "status": "Genuine",
      "associatedSiteId": 109616,
      "outfallName": "SOUTH STREET QUEENBOROUGH",
      "isImpacting": true,
      "overFlowSiteId": 0,
      "historicSpillsList": [
        {
          "id": 344812795,
          "eventId": 483638,
          "siteUnitNumber": 12544,
          "bathingSite": "SHEERNESS",
          "eventStart": "2021-08-22T04:41:20",
          "eventStop": "2021-08-22T05:12:00",
          "duration": 30,
          "status": "Genuine",
          "associatedSiteId": 109616,
          "outfallName": "SOUTH STREET QUEENBOROUGH",
          "isImpacting": true,
          "overFlowSiteId": 108732
        }
      ]
    },
    {
      "id": 344812954,
      "eventId": 483682,
      "siteUnitNumber": 12550,
      "bathingSite": "MINSTER LEAS",
      "eventStart": "2021-08-22T04:21:39",
      "eventStop": "2021-08-22T05:07:49",
      "duration": 46,
      "status": "Genuine",
      "associatedSiteId": 109620,
      "outfallName": "WESTCLIFFE DRIVE MINSTER IOS",
      "isImpacting": true,
      "overFlowSiteId": 0,
      "historicSpillsList": [
        {
          "id": 344812954,
          "eventId": 483682,
          "siteUnitNumber": 12550,
          "bathingSite": "MINSTER LEAS",
          "eventStart": "2021-08-22T04:21:39",
          "eventStop": "2021-08-22T05:07:49",
          "duration": 46,
          "status": "Genuine",
          "associatedSiteId": 109620,
          "outfallName": "WESTCLIFFE DRIVE MINSTER IOS",
          "isImpacting": true,
          "overFlowSiteId": 108755
        }
      ]
    },
    {
      "id": 344849732,
      "eventId": 483626,
      "siteUnitNumber": 12549,
      "bathingSite": "HERNE BAY CENTRAL",
      "eventStart": "2021-08-22T04:26:00",
      "eventStop": "2021-08-22T04:56:00",
      "duration": 30,
      "status": "Genuine",
      "associatedSiteId": 111724,
      "outfallName": "GAINSBOROUGH DRIVE HERNE BAY",
      "isImpacting": true,
      "overFlowSiteId": 0,
      "historicSpillsList": [
        {
          "id": 344849732,
          "eventId": 483626,
          "siteUnitNumber": 12549,
          "bathingSite": "HERNE BAY CENTRAL",
          "eventStart": "2021-08-22T04:26:00",
          "eventStop": "2021-08-22T04:56:00",
          "duration": 30,
          "status": "Genuine",
          "associatedSiteId": 111724,
          "outfallName": "GAINSBOROUGH DRIVE HERNE BAY",
          "isImpacting": true,
          "overFlowSiteId": 111725
        },
        {
          "id": 344849733,
          "eventId": 483626,
          "siteUnitNumber": 12551,
          "bathingSite": "HERNE BAY",
          "eventStart": "2021-08-22T04:26:00",
          "eventStop": "2021-08-22T04:56:00",
          "duration": 30,
          "status": "Genuine",
          "associatedSiteId": 111724,
          "outfallName": "GAINSBOROUGH DRIVE HERNE BAY",
          "isImpacting": true,
          "overFlowSiteId": 111725,
          "historicSpillsList": []
        }
      ]
    },
    {
      "id": 344812794,
      "eventId": 483630,
      "siteUnitNumber": 12544,
      "bathingSite": "SHEERNESS",
      "eventStart": "2021-08-22T04:32:38",
      "eventStop": "2021-08-22T04:35:31",
      "duration": 2,
      "status": "Genuine",
      "associatedSiteId": 109616,
      "outfallName": "SOUTH STREET QUEENBOROUGH",
      "isImpacting": true,
      "overFlowSiteId": 0,
      "historicSpillsList": [
        {
          "id": 344812794,
          "eventId": 483630,
          "siteUnitNumber": 12544,
          "bathingSite": "SHEERNESS",
          "eventStart": "2021-08-22T04:32:38",
          "eventStop": "2021-08-22T04:35:31",
          "duration": 2,
          "status": "Genuine",
          "associatedSiteId": 109616,
          "outfallName": "SOUTH STREET QUEENBOROUGH",
          "isImpacting": true,
          "overFlowSiteId": 108732
        }
      ]
    },
    {
      "id": 344812796,
      "eventId": 483624,
      "siteUnitNumber": 12544,
      "bathingSite": "SHEERNESS",
      "eventStart": "2021-08-22T04:24:32",
      "eventStop": "2021-08-22T04:29:31",
      "duration": 4,
      "status": "Genuine",
      "associatedSiteId": 109616,
      "outfallName": "SOUTH STREET QUEENBOROUGH",
      "isImpacting": true,
      "overFlowSiteId": 0,
      "historicSpillsList": [
        {
          "id": 344812796,
          "eventId": 483624,
          "siteUnitNumber": 12544,
          "bathingSite": "SHEERNESS",
          "eventStart": "2021-08-22T04:24:32",
          "eventStop": "2021-08-22T04:29:31",
          "duration": 4,
          "status": "Genuine",
          "associatedSiteId": 109616,
          "outfallName": "SOUTH STREET QUEENBOROUGH",
          "isImpacting": true,
          "overFlowSiteId": 108732
        }
      ]
    },
    {
      "id": 344812798,
      "eventId": 483621,
      "siteUnitNumber": 12544,
      "bathingSite": "SHEERNESS",
      "eventStart": "2021-08-22T04:18:05",
      "eventStop": "2021-08-22T04:22:10",
      "duration": 4,
      "status": "Genuine",
      "associatedSiteId": 109616,
      "outfallName": "SOUTH STREET QUEENBOROUGH",
      "isImpacting": true,
      "overFlowSiteId": 0,
      "historicSpillsList": [
        {
          "id": 344812798,
          "eventId": 483621,
          "siteUnitNumber": 12544,
          "bathingSite": "SHEERNESS",
          "eventStart": "2021-08-22T04:18:05",
          "eventStop": "2021-08-22T04:22:10",
          "duration": 4,
          "status": "Genuine",
          "associatedSiteId": 109616,
          "outfallName": "SOUTH STREET QUEENBOROUGH",
          "isImpacting": true,
          "overFlowSiteId": 108732
        }
      ]
    }
  ]
}