{
  "currentPage": 49,
  "totalItems": 21024,
  "totalPages": 841,
  "items": [
    {
      "id": 344697978,
      "eventId": 907765,
      "siteUnitNumber": 12662,
      "bathingSite": "CHICHESTER HARBOUR",
      "eventStart": "2023-11-14T08:42:57",
      "eventStop": "2023-11-15T02:31:15",
      "duration": 1068,
      "status": "Genuine",
      "associatedSiteId": 109836,
      "outfallName": "CHICHESTER",
      "isImpacting": true,
      "overFlowSiteId": 0,
      "historicSpillsList": [
        {
          "id": 344697978,
          "eventId": 907765,
          "siteUnitNumber": 12662,
          "bathingSite": "CHICHESTER HARBOUR",
          "eventStart": "2023-11-14T08:42:57",
          "eventStop": "2023-11-15T02:31:15",
          "duration": 1068,
          "status": "Genuine",
          "associatedSiteId": 109836,
          "outfallName": "CHICHESTER",
          "isImpacting": true,
          "overFlowSiteId": 115401
        }
      ]
    },
    {
      "id": 344723034,
      "eventId": 909288,
      "siteUnitNumber": 12614,
      "bathingSite": "TOTLAND BAY",
      "eventStart": "2023-11-15T02:23:58",
      "eventStop": "2023-11-15T02:28:28",
      "duration": 4,
      "status": "Genuine",
      "associatedSiteId": 115498,
      "outfallName": "NORTON TRANSFER IOW",
      "isImpacting": true,
      "overFlowSiteId": 0,
      "historicSpillsList": [
        {
          "id": 344723034,
          "eventId": 909288,
          "siteUnitNumber": 12614,
          "bathingSite": "TOTLAND BAY",
          "eventStart": "2023-11-15T02:23:58",
          "eventStop": "2023-11-15T02:28:28",
          "duration": 4,
          "status": "Genuine",
          "associatedSiteId": 115498,
          "outfallName": "NORTON TRANSFER IOW",
          "isImpacting": true,
          "overFlowSiteId": 109524
        },
        {
          "id": 344723035,
          "eventId": 909288,
          "siteUnitNumber": 12615,
          "bathingSite": "COLWELL BAY",
          "eventStart": "2023-11-15T02:23:58",
          "eventStop": "2023-11-15T02:28:28",
          "duration": 4,
          "status": "Genuine",
          "associatedSiteId": 115498,
          "outfallName": "NORTON TRANSFER IOW",
          "isImpacting": true,
          "overFlowSiteId": 109524,
          "historicSpillsList": []
        }
      ]
    },
    {
      "id": 344726391,
      "eventId": 909246,
      "siteUnitNumber": 12577,
      "bathingSite": "BEXHILL",
      "eventStart": "2023-11-15T01:49:45",
      "eventStop": "2023-11-15T02:15:14",
      "duration": 25,
      "status": "Not Genuine",
      "associatedSiteId": 115500,
      "outfallName": "BEXHILL DOWN",
      "isImpacting": true,
      "overFlowSiteId": 0,
      "historicSpillsList": []
    },
    {
      "id": 344723036,
      "eventId": 909280,
      "siteUnitNumber": 12615,
      "bathingSite": "COLWELL BAY",
      "eventStart": "2023-11-15T02:03:27",
      "eventStop": "2023-11-15T02:14:49",
      "duration": 11,
      "status": "Genuine",
      "associatedSiteId": 115498,
      "outfallName": "NORTON TRANSFER IOW",
      "isImpacting": true,
      "overFlowSiteId": 0,
      "historicSpillsList": [
        {
          "id": 344723036,
          "eventId": 909280,
          "siteUnitNumber": 12615,
          "bathingSite": "COLWELL BAY",
          "eventStart": "2023-11-15T02:03:27",
          "eventStop": "2023-11-15T02:14:49",
          "duration": 11,
          "status": "Genuine",
          "associatedSiteId": 115498,
          "outfallName": "NORTON TRANSFER IOW",
          "isImpacting": true,
          "overFlowSiteId": 109524
        },
        {
          "id": 344723037,
          "eventId": 909280,
          "siteUnitNumber": 12614,
          "bathingSite": "TOTLAND BAY",
          "eventStart": "2023-11-15T02:03:27",
          "eventStop": "2023-11-15T02:14:49",
          "duration": 11,
          "status": "Genuine",
          "associatedSiteId": 115498,
          "outfallName": "NORTON TRANSFER IOW",
          "isImpacting": true,
          "overFlowSiteId": 109524,
          "historicSpillsList": []
        }
      ]
    },
    {
      "id": 344723040,
      "eventId": 909208,
      "siteUnitNumber": 12614,
      "bathingSite": "TOTLAND BAY",
      "eventStart": "2023-11-15T01:26:26",
      "eventStop": "2023-11-15T01:43:23",
      "duration": 16,
      "status": "Genuine",
      "associatedSiteId": 115498,
      "outfallName": "NORTON TRANSFER IOW",
      "isImpacting": true,
      "overFlowSiteId": 0,
      "historicSpillsList": [
        {
          "id": 344723040,
          "eventId": 909208,
          "siteUnitNumber": 12614,
          "bathingSite": "TOTLAND BAY",
          "eventStart": "2023-11-15T01:26:26",
          "eventStop": "2023-11-15T01:43:23",
          "duration": 16,
          "status": "Genuine",
          "associatedSiteId": 115498,
          "outfallName": "NORTON TRANSFER IOW",
          "isImpacting": true,
          "overFlowSiteId": 109524
        },
        {
          "id": 344723041,
          "eventId": 909208,
          "siteUnitNumber": 12615,
          "bathingSite": "COLWELL BAY",
          "eventStart": "2023-11-15T01:26:26",
          "eventStop": "2023-11-15T01:43:23",
          "duration": 16,
          "status": "Genuine",
          "associatedSiteId": 115498,
          "outfallName": "NORTON TRANSFER IOW",
          "isImpacting": true,
          "overFlowSiteId": 109524,
          "historicSpillsList": []
        }
      ]
    },
    {
      "id": 344726386,
      "eventId": 910086,
      "siteUnitNumber": 12577,
      "bathingSite": "BEXHILL",
      "eventStart": "2023-11-15T00:58:00",
      "eventStop": "2023-11-15T01:30:00",
      "duration": 32,
      "status": "Genuine",
      "associatedSiteId": 115500,
      "outfallName": "BEXHILL DOWN",
      "isImpacting": true,
      "overFlowSiteId": 0,
      "historicSpillsList": [
        {
          "id": 344726386,
          "eventId": 910086,
          "siteUnitNumber": 12577,
          "bathingSite": "BEXHILL",
          "eventStart": "2023-11-15T00:58:00",
          "eventStop": "2023-11-15T01:30:00",
          "duration": 32,
          "status": "Genuine",
          "associatedSiteId": 115500,
          "outfallName": "BEXHILL DOWN",
          "isImpacting": true,
          "overFlowSiteId": 107638
        }
      ]
    },
    {
      "id": 344723042,
      "eventId": 909205,
      "siteUnitNumber": 12615,
      "bathingSite": "COLWELL BAY",
      "eventStart": "2023-11-15T01:17:44",
      "eventStop": "2023-11-15T01:23:44",
      "duration": 6,
      "status": "Genuine",
      "associatedSiteId": 115498,
      "outfallName": "NORTON TRANSFER IOW",
      "isImpacting": true,
      "overFlowSiteId": 0,
      "historicSpillsList": [
        {
          "id": 344723042,
          "eventId": 909205,
          "siteUnitNumber": 12615,
          "bathingSite": "COLWELL BAY",
          "eventStart": "2023-11-15T01:17:44",
          "eventStop": "2023-11-15T01:23:44",
          "duration": 6,
          "status": "Genuine",
          "associatedSiteId": 115498,
          "outfallName": "NORTON TRANSFER IOW",
          "isImpacting": true,
          "overFlowSiteId": 109524
        },
        {
          "id": 344723043,
          "eventId": 909205,
          "siteUnitNumber": 12614,
          "bathingSite": "TOTLAND BAY",
          "eventStart": "2023-11-15T01:17:44",
          "eventStop": "2023-11-15T01:23:44",
          "duration": 6,
          "status": "Genuine",
          "associatedSiteId": 115498,
          "outfallName": "NORTON TRANSFER IOW",
          "isImpacting": true,
          "overFlowSiteId": 109524,
          "historicSpillsList": []
        }
      ]
    },
    {
      "id": 344705902,
      "eventId": 909214,
      "siteUnitNumber": 12582,
      "bathingSite": "SEAFORD",
      "eventStart": "2023-11-15T01:18:17",
      "eventStop": "2023-11-15T01:21:58",
      "duration": 3,
      "status": "Genuine",
      "associatedSiteId": 109957,
      "outfallName": "PORTOBELLO BRIGHTON NO2",
      "isImpacting": true,
      "overFlowSiteId": 0,
      "historicSpillsList": [
        {
          "id": 344705903,
          "eventId": 909214,
          "siteUnitNumber": 12583,
          "bathingSite": "SALTDEAN",
          "eventStart": "2023-11-15T01:18:17",
          "eventStop": "2023-11-15T01:21:58",
          "duration": 3,
          "status": "Genuine",
          "associatedSiteId": 109957,
          "outfallName": "PORTOBELLO BRIGHTON NO2",
          "isImpacting": true,
          "overFlowSiteId": 116012,
          "historicSpillsList": []
        }
      ]
    },
    {
      "id": 344705900,
      "eventId": 909212,
      "siteUnitNumber": 12582,
      "bathingSite": "SEAFORD",
      "eventStart": "2023-11-14T23:24:42",
      "eventStop": "2023-11-15T01:17:12",
      "duration": 112,
      "status": "Genuine",
      "associatedSiteId": 109957,
      "outfallName": "PORTOBELLO BRIGHTON NO2",
      "isImpacting": true,
      "overFlowSiteId": 0,
      "historicSpillsList": [
        {
          "id": 344705901,
          "eventId": 909212,
          "siteUnitNumber": 12583,
          "bathingSite": "SALTDEAN",
          "eventStart": "2023-11-14T23:24:42",
          "eventStop": "2023-11-15T01:17:12",
          "duration": 112,
          "status": "Genuine",
          "associatedSiteId": 109957,
          "outfallName": "PORTOBELLO BRIGHTON NO2",
          "isImpacting": true,
          "overFlowSiteId": 116012,
          "historicSpillsList": []
        }
      ]
    },
    {
      "id": 344723044,
      "eventId": 909200,
      "siteUnitNumber": 12614,
      "bathingSite": "TOTLAND BAY",
      "eventStart": "2023-11-15T01:01:07",
      "eventStop": "2023-11-15T01:08:58",
      "duration": 7,
      "status": "Genuine",
      "associatedSiteId": 115498,
      "outfallName": "NORTON TRANSFER IOW",
      "isImpacting": true,
      "overFlowSiteId": 0,
      "historicSpillsList": [
        {
          "id": 344723044,
          "eventId": 909200,
          "siteUnitNumber": 12614,
          "bathingSite": "TOTLAND BAY",
          "eventStart": "2023-11-15T01:01:07",
          "eventStop": "2023-11-15T01:08:58",
          "duration": 7,
          "status": "Genuine",
          "associatedSiteId": 115498,
          "outfallName": "NORTON TRANSFER IOW",
          "isImpacting": true,
          "overFlowSiteId": 109524
        },
        {
          "id": 344723045,
          "eventId": 909200,
          "siteUnitNumber": 12615,
          "bathingSite": "COLWELL BAY",
          "eventStart": "2023-11-15T01:01:07",
          "eventStop": "2023-11-15T01:08:58",
          "duration": 7,
          "status": "Genuine",
          "associatedSiteId": 115498,
          "outfallName": "NORTON TRANSFER IOW",
          "isImpacting": true,
          "overFlowSiteId": 109524,
          "historicSpillsList": []
        }
      ]
    },
    {
      "id": 344688134,
      "eventId": 908404,
      "siteUnitNumber": 12551,
      "bathingSite": "HERNE BAY",
      "eventStart": "2023-11-14T13:44:09",
      "eventStop": "2023-11-15T01:07:00",
      "duration": 682,
      "status": "Genuine",
      "associatedSiteId": 109682,
      "outfallName": "MAY STREET HERNE BAY NO3",
      "isImpacting": true,
      "overFlowSiteId": 0,
      "historicSpillsList": [
        {
          "id": 344688134,
          "eventId": 908404,
          "siteUnitNumber": 12551,
          "bathingSite": "HERNE BAY",
          "eventStart": "2023-11-14T13:44:09",
          "eventStop": "2023-11-15T01:07:00",
          "duration": 682,
          "status": "Genuine",
          "associatedSiteId": 109682,
          "outfallName": "MAY STREET HERNE BAY NO3",
          "isImpacting": true,
          "overFlowSiteId": 115418
        }
      ]
    },
    {
      "id": 344723046,
      "eventId": 909178,
      "siteUnitNumber": 12614,
      "bathingSite": "TOTLAND BAY",
      "eventStart": "2023-11-15T00:37:55",
      "eventStop": "2023-11-15T00:55:58",
      "duration": 18,
      "status": "Genuine",
      "associatedSiteId": 115498,
      "outfallName": "NORTON TRANSFER IOW",
      "isImpacting": true,
      "overFlowSiteId": 0,
      "historicSpillsList": [
        {
          "id": 344723046,
          "eventId": 909178,
          "siteUnitNumber": 12614,
          "bathingSite": "TOTLAND BAY",
          "eventStart": "2023-11-15T00:37:55",
          "eventStop": "2023-11-15T00:55:58",
          "duration": 18,
          "status": "Genuine",
          "associatedSiteId": 115498,
          "outfallName": "NORTON TRANSFER IOW",
          "isImpacting": true,
          "overFlowSiteId": 109524
        },
        {
          "id": 344723047,
          "eventId": 909178,
          "siteUnitNumber": 12615,
          "bathingSite": "COLWELL BAY",
          "eventStart": "2023-11-15T00:37:55",
          "eventStop": "2023-11-15T00:55:58",
          "duration": 18,
          "status": "Genuine",
          "associatedSiteId": 115498,
          "outfallName": "NORTON TRANSFER IOW",
          "isImpacting": true,
          "overFlowSiteId": 109524,
          "historicSpillsList": []
        }
      ]
    },
    {
      "id": 344726390,
      "eventId": 909176,
      "siteUnitNumber": 12577,
      "bathingSite": "BEXHILL",
      "eventStart": "2023-11-15T00:34:00",
      "eventStop": "2023-11-15T00:48:00",
      "duration": 14,
      "status": "Genuine",
      "associatedSiteId": 115500,
      "outfallName": "BEXHILL DOWN",
      "isImpacting": true,
      "overFlowSiteId": 0,
      "historicSpillsList": [
        {
          "id": 344726390,
          "eventId": 909176,
          "siteUnitNumber": 12577,
          "bathingSite": "BEXHILL",
          "eventStart": "2023-11-15T00:34:00",
          "eventStop": "2023-11-15T00:48:00",
          "duration": 14,
          "status": "Genuine",
          "associatedSiteId": 115500,
          "outfallName": "BEXHILL DOWN",
          "isImpacting": true,
          "overFlowSiteId": 107638
        }
      ]
    },
    {
      "id": 344723048,
      "eventId": 909175,
      "siteUnitNumber": 12615,
      "bathingSite": "COLWELL BAY",
      "eventStart": "2023-11-15T00:31:27",
      "eventStop": "2023-11-15T00:34:28",
      "duration": 3,
      "status": "Genuine",
      "associatedSiteId": 115498,
      "outfallName": "NORTON TRANSFER IOW",
      "isImpacting": true,
      "overFlowSiteId": 0,
      "historicSpillsList": [
        {
          "id": 344723048,
          "eventId": 909175,
          "siteUnitNumber": 12615,
          "bathingSite": "COLWELL BAY",
          "eventStart": "2023-11-15T00:31:27",
          "eventStop": "2023-11-15T00:34:28",
          "duration": 3,
          "status": "Genuine",
          "associatedSiteId": 115498,
          "outfallName": "NORTON TRANSFER IOW",
          "isImpacting": true,
          "overFlowSiteId": 109524
        },
        {
          "id": 344723049,
          "eventId": 909175,
          "siteUnitNumber": 12614,
          "bathingSite": "TOTLAND BAY",
          "eventStart": "2023-11-15T00:31:27",
          "eventStop": "2023-11-15T00:34:28",
          "duration": 3,
          "status": "Genuine",
          "associatedSiteId": 115498,
          "outfallName": "NORTON TRANSFER IOW",
          "isImpacting": true,
          "overFlowSiteId": 109524,
          "historicSpillsList": []
        }
      ]
    },
    {
      "id": 344723038,
      "eventId": 909225,
      "siteUnitNumber": 12614,
      "bathingSite": "TOTLAND BAY",
      "eventStart": "2023-11-15T00:25:00",
      "eventStop": "2023-11-15T00:29:21",
      "duration": 4,
      "status": "Genuine",
      "associatedSiteId": 115498,
      "outfallName": "NORTON TRANSFER IOW",
      "isImpacting": true,
      "overFlowSiteId": 0,
      "historicSpillsList": [
        {
          "id": 344723038,
          "eventId": 909225,
          "siteUnitNumber": 12614,
          "bathingSite": "TOTLAND BAY",
          "eventStart": "2023-11-15T00:25:00",
          "eventStop": "2023-11-15T00:29:21",
          "duration": 4,
          "status": "Genuine",
          "associatedSiteId": 115498,
          "outfallName": "NORTON TRANSFER IOW",
          "isImpacting": true,
          "overFlowSiteId": 109524
        },
        {
          "id": 344723039,
          "eventId": 909225,
          "siteUnitNumber": 12615,
          "bathingSite": "COLWELL BAY",
          "eventStart": "2023-11-15T00:25:00",
          "eventStop": "2023-11-15T00:29:21",
          "duration": 4,
          "status": "Genuine",
          "associatedSiteId": 115498,
          "outfallName": "NORTON TRANSFER IOW",
          "isImpacting": true,
          "overFlowSiteId": 109524,
          "historicSpillsList": []
        }
      ]
    },
    {
      "id": 344723050,
      "eventId": 909136,
      "siteUnitNumber": 12614,
      "bathingSite": "TOTLAND BAY",
      "eventStart": "2023-11-14T23:45:50",
      "eventStop": "2023-11-15T00:25:00",
      "duration": 39,
      "status": "Genuine",
      "associatedSiteId": 115498,
      "outfallName": "NORTON TRANSFER IOW",
      "isImpacting": true,
      "overFlowSiteId": 0,
      "historicSpillsList": [
        {
          "id": 344723050,
          "eventId": 909136,
          "siteUnitNumber": 12614,
          "bathingSite": "TOTLAND BAY",
          "eventStart": "2023-11-14T23:45:50",
          "eventStop": "2023-11-15T00:25:00",
          "duration": 39,
          "status": "Genuine",
          "associatedSiteId": 115498,
          "outfallName": "NORTON TRANSFER IOW",
          "isImpacting": true,
          "overFlowSiteId": 109524
        },
        {
          "id": 344723051,
          "eventId": 909136,
          "siteUnitNumber": 12615,
          "bathingSite": "COLWELL BAY",
          "eventStart": "2023-11-14T23:45:50",
          "eventStop": "2023-11-15T00:25:00",
          "duration": 39,
          "status": "Genuine",
          "associatedSiteId": 115498,
          "outfallName": "NORTON TRANSFER IOW",
          "isImpacting": true,
          "overFlowSiteId": 109524,
          "historicSpillsList": []
        }
      ]
    },
    {
      "id": 344726394,
      "eventId": 909146,
      "siteUnitNumber": 12577,
      "bathingSite": "BEXHILL",
      "eventStart": "2023-11-15T00:11:34",
      "eventStop": "2023-11-15T00:23:00",
      "duration": 11,
      "status": "Genuine",
      "associatedSiteId": 115500,
      "outfallName": "BEXHILL DOWN",
      "isImpacting": true,
      "overFlowSiteId": 0,
      "historicSpillsList": [
        {
          "id": 344726394,
          "eventId": 909146,
          "siteUnitNumber": 12577,
          "bathingSite": "BEXHILL",
          "eventStart": "2023-11-15T00:11:34",
          "eventStop": "2023-11-15T00:23:00",
          "duration": 11,
          "status": "Genuine",
          "associatedSiteId": 115500,
          "outfallName": "BEXHILL DOWN",
          "isImpacting": true,
          "overFlowSiteId": 107638
        }
      ]
    },
    {
      "id": 344721430,
      "eventId": 909937,
      "siteUnitNumber": 12573,
      "bathingSite": "CAMBER",
      "eventStart": "2023-11-15T00:03:00",
      "eventStop": "2023-11-15T00:17:00",
      "duration": 14,
      "status": "Genuine",
      "associatedSiteId": 110958,
      "outfallName": "RYE",
      "isImpacting": false,
      "overFlowSiteId": 0,
      "historicSpillsList": []
    },
    {
      "id": 344711997,
      "eventId": 909160,
      "siteUnitNumber": 12623,
      "bathingSite": "YAVERLAND",
      "eventStart": "2023-11-14T13:54:09",
      "eventStop": "2023-11-15T00:15:00",
      "duration": 620,
      "status": "Not Genuine",
      "associatedSiteId": 110029,
      "outfallName": "HOPE BEACH SHANKLIN NEW",
      "isImpacting": false,
      "overFlowSiteId": 0,
      "historicSpillsList": []
    },
    {
      "id": 344726393,
      "eventId": 909145,
      "siteUnitNumber": 12577,
      "bathingSite": "BEXHILL",
      "eventStart": "2023-11-15T00:04:07",
      "eventStop": "2023-11-15T00:09:20",
      "duration": 5,
      "status": "Genuine",
      "associatedSiteId": 115500,
      "outfallName": "BEXHILL DOWN",
      "isImpacting": true,
      "overFlowSiteId": 0,
      "historicSpillsList": [
        {
          "id": 344726393,
          "eventId": 909145,
          "siteUnitNumber": 12577,
          "bathingSite": "BEXHILL",
          "eventStart": "2023-11-15T00:04:07",
          "eventStop": "2023-11-15T00:09:20",
          "duration": 5,
          "status": "Genuine",
          "associatedSiteId": 115500,
          "outfallName": "BEXHILL DOWN",
          "isImpacting": true,
          "overFlowSiteId": 107638
        }
      ]
    },
    {
      "id": 344726392,
      "eventId": 909144,
      "siteUnitNumber": 12577,
      "bathingSite": "BEXHILL",
      "eventStart": "2023-11-14T23:59:22",
      "eventStop": "2023-11-15T00:01:24",
      "duration": 2,
      "status": "Genuine",
      "associatedSiteId": 115500,
      "outfallName": "BEXHILL DOWN",
      "isImpacting": true,
      "overFlowSiteId": 0,
      "historicSpillsList": [
        {
          "id": 344726392,
          "eventId": 909144,
          "siteUnitNumber": 12577,
          "bathingSite": "BEXHILL",
          "eventStart": "2023-11-14T23:59:22",
          "eventStop": "2023-11-15T00:01:24",
          "duration": 2,
          "status": "Genuine",
          "associatedSiteId": 115500,
          "outfallName": "BEXHILL DOWN",
          "isImpacting": true,
          "overFlowSiteId": 107638
        }
      ]
    },
    {
      "id": 344721431,
      "eventId": 909938,
      "siteUnitNumber": 12573,
      "bathingSite": "CAMBER",
      "eventStart": "2023-11-14T23:43:00",
      "eventStop": "2023-11-14T23:58:00",
      "duration": 15,
      "status": "Genuine",
      "associatedSiteId": 110958,
      "outfallName": "RYE",
      "isImpacting": false,
      "overFlowSiteId": 0,
      "historicSpillsList": []
    },
    {
      "id": 344720864,
      "eventId": 907634,
      "siteUnitNumber": 12620,
      "bathingSite": "ST HELENS",
      "eventStart": "2023-11-14T05:49:27",
      "eventStop": "2023-11-14T23:49:51",
      "duration": 1080,
      "status": "Genuine",
      "associatedSiteId": 110761,
      "outfallName": "BRADING",
      "isImpacting": true,
      "overFlowSiteId": 0,
      "historicSpillsList": [
        {
          "id": 344720864,
          "eventId": 907634,
          "siteUnitNumber": 12620,
          "bathingSite": "ST HELENS",
          "eventStart": "2023-11-14T05:49:27",
          "eventStop": "2023-11-14T23:49:51",
          "duration": 1080,
          "status": "Genuine",
          "associatedSiteId": 110761,
          "outfallName": "BRADING",
          "isImpacting": true,
          "overFlowSiteId": 113676
        }
      ]
    },
    {
      "id": 344723052,
      "eventId": 909128,
      "siteUnitNumber": 12614,
      "bathingSite": "TOTLAND BAY",
      "eventStart": "2023-11-14T23:37:12",
      "eventStop": "2023-11-14T23:43:57",
      "duration": 6,
      "status": "Genuine",
      "associatedSiteId": 115498,
      "outfallName": "NORTON TRANSFER IOW",
      "isImpacting": true,
      "overFlowSiteId": 0,
      "historicSpillsList": [
        {
          "id": 344723052,
          "eventId": 909128,
          "siteUnitNumber": 12614,
          "bathingSite": "TOTLAND BAY",
          "eventStart": "2023-11-14T23:37:12",
          "eventStop": "2023-11-14T23:43:57",
          "duration": 6,
          "status": "Genuine",
          "associatedSiteId": 115498,
          "outfallName": "NORTON TRANSFER IOW",
          "isImpacting": true,
          "overFlowSiteId": 109524
        },
        {
          "id": 344723053,
          "eventId": 909128,
          "siteUnitNumber": 12615,
          "bathingSite": "COLWELL BAY",
          "eventStart": "2023-11-14T23:37:12",
          "eventStop": "2023-11-14T23:43:57",
          "duration": 6,
          "status": "Genuine",
          "associatedSiteId": 115498,
          "outfallName": "NORTON TRANSFER IOW",
          "isImpacting": true,
          "overFlowSiteId": 109524,
          "historicSpillsList": []
        }
      ]
    },
    {
      "id": 344721432,
      "eventId": 909952,
      "siteUnitNumber": 12573,
      "bathingSite": "CAMBER",
      "eventStart": "2023-11-14T23:24:00",
      "eventStop": "2023-11-14T23:38:00",
      "duration": 14,
      "status": "Genuine",
      "associatedSiteId": 110958,
      "outfallName": "RYE",
      "isImpacting": false,
      "overFlowSiteId": 0,
      "historicSpillsList": []
    }
  ]
}