{
  "currentPage": 571,
  "totalItems": 21025,
  "totalPages": 841,
  "items": [
    {
      "id": 344847981,
      "eventId": 610596,
      "siteUnitNumber": 12616,
      "bathingSite": "GURNARD",
      "eventStart": "2022-06-27T08:57:58",
      "eventStop": "2022-06-27T09:09:50",
      "duration": 11,
      "status": "Genuine",
      "associatedSiteId": 110701,
      "outfallName": "TERMINUS ROAD COWES 2",
      "isImpacting": true,
      "overFlowSiteId": 0,
      "historicSpillsList": [
        {
          "id": 344847981,
          "eventId": 610596,
          "siteUnitNumber": 12616,
          "bathingSite": "GURNARD",
          "eventStart": "2022-06-27T08:57:58",
          "eventStop": "2022-06-27T09:09:50",
          "duration": 11,
          "status": "Genuine",
          "associatedSiteId": 110701,
          "outfallName": "TERMINUS ROAD COWES 2",
          "isImpacting": true,
          "overFlowSiteId": 108563
        },
        {
          "id": 344847982,
          "eventId": 610596,
          "siteUnitNumber": 12617,
          "bathingSite": "COWES",
          "eventStart": "2022-06-27T08:57:58",
          "eventStop": "2022-06-27T09:09:50",
          "duration": 11,
          "status": "Genuine",
          "associatedSiteId": 110701,
          "outfallName": "TERMINUS ROAD COWES 2",
          "isImpacting": true,
          "overFlowSiteId": 108563,
          "historicSpillsList": []
        }
      ]
    },
    {
      "id": 344847983,
      "eventId": 610587,
      "siteUnitNumber": 12616,
      "bathingSite": "GURNARD",
      "eventStart": "2022-06-27T09:03:00",
      "eventStop": "2022-06-27T09:05:00",
      "duration": 2,
      "status": "Genuine",
      "associatedSiteId": 110701,
      "outfallName": "TERMINUS ROAD COWES 2",
      "isImpacting": true,
      "overFlowSiteId": 0,
      "historicSpillsList": [
        {
          "id": 344847983,
          "eventId": 610587,
          "siteUnitNumber": 12616,
          "bathingSite": "GURNARD",
          "eventStart": "2022-06-27T09:03:00",
          "eventStop": "2022-06-27T09:05:00",
          "duration": 2,
          "status": "Genuine",
          "associatedSiteId": 110701,
          "outfallName": "TERMINUS ROAD COWES 2",
          "isImpacting": true,
          "overFlowSiteId": 108562
        },
        {
          "id": 344847984,
          "eventId": 610587,
          "siteUnitNumber": 12617,
          "bathingSite": "COWES",
          "eventStart": "2022-06-27T09:03:00",
          "eventStop": "2022-06-27T09:05:00",
          "duration": 2,
          "status": "Genuine",
          "associatedSiteId": 110701,
          "outfallName": "TERMINUS ROAD COWES 2",
          "isImpacting": true,
          "overFlowSiteId": 108562,
          "historicSpillsList": []
        }
      ]
    },
    {
      "id": 344812572,
      "eventId": 610575,
      "siteUnitNumber": 12546,
      "bathingSite": "LEYSDOWN",
      "eventStart": "2022-06-27T07:47:17",
      "eventStop": "2022-06-27T08:45:00",
      "duration": 57,
      "status": "Not Genuine",
      "associatedSiteId": 109613,
      "outfallName": "BARROWS BROOK EASTCHURCH",
      "isImpacting": true,
      "overFlowSiteId": 0,
      "historicSpillsList": []
    },
    {
      "id": 344847985,
      "eventId": 610251,
      "siteUnitNumber": 12617,
      "bathingSite": "COWES",
      "eventStart": "2022-06-26T02:04:00",
      "eventStop": "2022-06-26T02:17:00",
      "duration": 13,
      "status": "Genuine",
      "associatedSiteId": 110701,
      "outfallName": "TERMINUS ROAD COWES 2",
      "isImpacting": true,
      "overFlowSiteId": 0,
      "historicSpillsList": [
        {
          "id": 344847985,
          "eventId": 610251,
          "siteUnitNumber": 12617,
          "bathingSite": "COWES",
          "eventStart": "2022-06-26T02:04:00",
          "eventStop": "2022-06-26T02:17:00",
          "duration": 13,
          "status": "Genuine",
          "associatedSiteId": 110701,
          "outfallName": "TERMINUS ROAD COWES 2",
          "isImpacting": true,
          "overFlowSiteId": 108563
        },
        {
          "id": 344847986,
          "eventId": 610251,
          "siteUnitNumber": 12616,
          "bathingSite": "GURNARD",
          "eventStart": "2022-06-26T02:04:00",
          "eventStop": "2022-06-26T02:17:00",
          "duration": 13,
          "status": "Genuine",
          "associatedSiteId": 110701,
          "outfallName": "TERMINUS ROAD COWES 2",
          "isImpacting": true,
          "overFlowSiteId": 108563,
          "historicSpillsList": []
        }
      ]
    },
    {
      "id": 344824600,
      "eventId": 610198,
      "siteUnitNumber": 12548,
      "bathingSite": "TANKERTON",
      "eventStart": "2022-06-25T21:19:57",
      "eventStop": "2022-06-25T22:08:43",
      "duration": 48,
      "status": "Genuine",
      "associatedSiteId": 109830,
      "outfallName": "SWALECLIFFE NO1",
      "isImpacting": true,
      "overFlowSiteId": 0,
      "historicSpillsList": [
        {
          "id": 344824600,
          "eventId": 610198,
          "siteUnitNumber": 12548,
          "bathingSite": "TANKERTON",
          "eventStart": "2022-06-25T21:19:57",
          "eventStop": "2022-06-25T22:08:43",
          "duration": 48,
          "status": "Genuine",
          "associatedSiteId": 109830,
          "outfallName": "SWALECLIFFE NO1",
          "isImpacting": true,
          "overFlowSiteId": 115444
        },
        {
          "id": 344824601,
          "eventId": 610198,
          "siteUnitNumber": 12549,
          "bathingSite": "HERNE BAY CENTRAL",
          "eventStart": "2022-06-25T21:19:57",
          "eventStop": "2022-06-25T22:08:43",
          "duration": 48,
          "status": "Genuine",
          "associatedSiteId": 109830,
          "outfallName": "SWALECLIFFE NO1",
          "isImpacting": true,
          "overFlowSiteId": 115444,
          "historicSpillsList": []
        }
      ]
    },
    {
      "id": 344821038,
      "eventId": 609968,
      "siteUnitNumber": 12617,
      "bathingSite": "COWES",
      "eventStart": "2022-06-24T20:58:48",
      "eventStop": "2022-06-24T23:36:00",
      "duration": 157,
      "status": "Genuine",
      "associatedSiteId": 109777,
      "outfallName": "APPLEY PARK RYDE TRANSFER",
      "isImpacting": true,
      "overFlowSiteId": 0,
      "historicSpillsList": [
        {
          "id": 344821038,
          "eventId": 609968,
          "siteUnitNumber": 12617,
          "bathingSite": "COWES",
          "eventStart": "2022-06-24T20:58:48",
          "eventStop": "2022-06-24T23:36:00",
          "duration": 157,
          "status": "Genuine",
          "associatedSiteId": 109777,
          "outfallName": "APPLEY PARK RYDE TRANSFER",
          "isImpacting": true,
          "overFlowSiteId": 108941
        },
        {
          "id": 344821039,
          "eventId": 609968,
          "siteUnitNumber": 12618,
          "bathingSite": "RYDE",
          "eventStart": "2022-06-24T20:58:48",
          "eventStop": "2022-06-24T23:36:00",
          "duration": 157,
          "status": "Genuine",
          "associatedSiteId": 109777,
          "outfallName": "APPLEY PARK RYDE TRANSFER",
          "isImpacting": true,
          "overFlowSiteId": 108941,
          "historicSpillsList": []
        }
      ]
    },
    {
      "id": 344841749,
      "eventId": 610000,
      "siteUnitNumber": 12622,
      "bathingSite": "WHITECLIFF BAY",
      "eventStart": "2022-06-24T22:43:52",
      "eventStop": "2022-06-24T23:11:00",
      "duration": 27,
      "status": "Genuine",
      "associatedSiteId": 110096,
      "outfallName": "SANDOWN NO1",
      "isImpacting": true,
      "overFlowSiteId": 0,
      "historicSpillsList": [
        {
          "id": 344841749,
          "eventId": 610000,
          "siteUnitNumber": 12622,
          "bathingSite": "WHITECLIFF BAY",
          "eventStart": "2022-06-24T22:43:52",
          "eventStop": "2022-06-24T23:11:00",
          "duration": 27,
          "status": "Genuine",
          "associatedSiteId": 110096,
          "outfallName": "SANDOWN NO1",
          "isImpacting": true,
          "overFlowSiteId": 115453
        },
        {
          "id": 344841750,
          "eventId": 610000,
          "siteUnitNumber": 12623,
          "bathingSite": "YAVERLAND",
          "eventStart": "2022-06-24T22:43:52",
          "eventStop": "2022-06-24T23:11:00",
          "duration": 27,
          "status": "Genuine",
          "associatedSiteId": 110096,
          "outfallName": "SANDOWN NO1",
          "isImpacting": true,
          "overFlowSiteId": 115453,
          "historicSpillsList": []
        },
        {
          "id": 344841751,
          "eventId": 610000,
          "siteUnitNumber": 12624,
          "bathingSite": "SANDOWN",
          "eventStart": "2022-06-24T22:43:52",
          "eventStop": "2022-06-24T23:11:00",
          "duration": 27,
          "status": "Genuine",
          "associatedSiteId": 110096,
          "outfallName": "SANDOWN NO1",
          "isImpacting": true,
          "overFlowSiteId": 115453,
          "historicSpillsList": []
        }
      ]
    },
    {
      "id": 344823644,
      "eventId": 609959,
      "siteUnitNumber": 12604,
      "bathingSite": "SOUTHSEA EAST",
      "eventStart": "2022-06-24T20:30:00",
      "eventStop": "2022-06-24T22:17:00",
      "duration": 107,
      "status": "Genuine",
      "associatedSiteId": 109822,
      "outfallName": "PIER ROAD SOUTHSEA",
      "isImpacting": true,
      "overFlowSiteId": 0,
      "historicSpillsList": [
        {
          "id": 344823644,
          "eventId": 609959,
          "siteUnitNumber": 12604,
          "bathingSite": "SOUTHSEA EAST",
          "eventStart": "2022-06-24T20:30:00",
          "eventStop": "2022-06-24T22:17:00",
          "duration": 107,
          "status": "Genuine",
          "associatedSiteId": 109822,
          "outfallName": "PIER ROAD SOUTHSEA",
          "isImpacting": true,
          "overFlowSiteId": 108469
        },
        {
          "id": 344823645,
          "eventId": 609959,
          "siteUnitNumber": 12605,
          "bathingSite": "STOKES BAY",
          "eventStart": "2022-06-24T20:30:00",
          "eventStop": "2022-06-24T22:17:00",
          "duration": 107,
          "status": "Genuine",
          "associatedSiteId": 109822,
          "outfallName": "PIER ROAD SOUTHSEA",
          "isImpacting": true,
          "overFlowSiteId": 108469,
          "historicSpillsList": []
        }
      ]
    },
    {
      "id": 344841754,
      "eventId": 609974,
      "siteUnitNumber": 12622,
      "bathingSite": "WHITECLIFF BAY",
      "eventStart": "2022-06-24T21:37:56",
      "eventStop": "2022-06-24T21:53:08",
      "duration": 15,
      "status": "Genuine",
      "associatedSiteId": 110096,
      "outfallName": "SANDOWN NO1",
      "isImpacting": true,
      "overFlowSiteId": 0,
      "historicSpillsList": [
        {
          "id": 344841754,
          "eventId": 609974,
          "siteUnitNumber": 12622,
          "bathingSite": "WHITECLIFF BAY",
          "eventStart": "2022-06-24T21:37:56",
          "eventStop": "2022-06-24T21:53:08",
          "duration": 15,
          "status": "Genuine",
          "associatedSiteId": 110096,
          "outfallName": "SANDOWN NO1",
          "isImpacting": true,
          "overFlowSiteId": 115453
        },
        {
          "id": 344841755,
          "eventId": 609974,
          "siteUnitNumber": 12623,
          "bathingSite": "YAVERLAND",
          "eventStart": "2022-06-24T21:37:56",
          "eventStop": "2022-06-24T21:53:08",
          "duration": 15,
          "status": "Genuine",
          "associatedSiteId": 110096,
          "outfallName": "SANDOWN NO1",
          "isImpacting": true,
          "overFlowSiteId": 115453,
          "historicSpillsList": []
        },
        {
          "id": 344841748,
          "eventId": 609974,
          "siteUnitNumber": 12624,
          "bathingSite": "SANDOWN",
          "eventStart": "2022-06-24T21:37:56",
          "eventStop": "2022-06-24T21:53:08",
          "duration": 15,
          "status": "Genuine",
          "associatedSiteId": 110096,
          "outfallName": "SANDOWN NO1",
          "isImpacting": true,
          "overFlowSiteId": 115453,
          "historicSpillsList": []
        }
      ]
    },
    {
      "id": 344822897,
      "eventId": 609970,
      "siteUnitNumber": 12661,
      "bathingSite": "LANGSTONE HARBOUR",
      "eventStart": "2022-06-24T21:04:06",
      "eventStop": "2022-06-24T21:22:00",
      "duration": 17,
      "status": "Genuine",
      "associatedSiteId": 109817,
      "outfallName": "MAINLAND DRAYTON",
      "isImpacting": true,
      "overFlowSiteId": 0,
      "historicSpillsList": [
        {
          "id": 344822897,
          "eventId": 609970,
          "siteUnitNumber": 12661,
          "bathingSite": "LANGSTONE HARBOUR",
          "eventStart": "2022-06-24T21:04:06",
          "eventStop": "2022-06-24T21:22:00",
          "duration": 17,
          "status": "Genuine",
          "associatedSiteId": 109817,
          "outfallName": "MAINLAND DRAYTON",
          "isImpacting": true,
          "overFlowSiteId": 115960
        }
      ]
    },
    {
      "id": 344818749,
      "eventId": 609939,
      "siteUnitNumber": 12616,
      "bathingSite": "GURNARD",
      "eventStart": "2022-06-24T19:59:31",
      "eventStop": "2022-06-24T20:46:00",
      "duration": 46,
      "status": "Genuine",
      "associatedSiteId": 109707,
      "outfallName": "MEDINA ROAD COWES",
      "isImpacting": true,
      "overFlowSiteId": 0,
      "historicSpillsList": [
        {
          "id": 344818749,
          "eventId": 609939,
          "siteUnitNumber": 12616,
          "bathingSite": "GURNARD",
          "eventStart": "2022-06-24T19:59:31",
          "eventStop": "2022-06-24T20:46:00",
          "duration": 46,
          "status": "Genuine",
          "associatedSiteId": 109707,
          "outfallName": "MEDINA ROAD COWES",
          "isImpacting": true,
          "overFlowSiteId": 108537
        },
        {
          "id": 344818750,
          "eventId": 609939,
          "siteUnitNumber": 12617,
          "bathingSite": "COWES",
          "eventStart": "2022-06-24T19:59:31",
          "eventStop": "2022-06-24T20:46:00",
          "duration": 46,
          "status": "Genuine",
          "associatedSiteId": 109707,
          "outfallName": "MEDINA ROAD COWES",
          "isImpacting": true,
          "overFlowSiteId": 108537,
          "historicSpillsList": []
        }
      ]
    },
    {
      "id": 344847987,
      "eventId": 609933,
      "siteUnitNumber": 12616,
      "bathingSite": "GURNARD",
      "eventStart": "2022-06-24T19:49:59",
      "eventStop": "2022-06-24T20:11:00",
      "duration": 21,
      "status": "Genuine",
      "associatedSiteId": 110701,
      "outfallName": "TERMINUS ROAD COWES 2",
      "isImpacting": true,
      "overFlowSiteId": 0,
      "historicSpillsList": [
        {
          "id": 344847987,
          "eventId": 609933,
          "siteUnitNumber": 12616,
          "bathingSite": "GURNARD",
          "eventStart": "2022-06-24T19:49:59",
          "eventStop": "2022-06-24T20:11:00",
          "duration": 21,
          "status": "Genuine",
          "associatedSiteId": 110701,
          "outfallName": "TERMINUS ROAD COWES 2",
          "isImpacting": true,
          "overFlowSiteId": 108563
        },
        {
          "id": 344847988,
          "eventId": 609933,
          "siteUnitNumber": 12617,
          "bathingSite": "COWES",
          "eventStart": "2022-06-24T19:49:59",
          "eventStop": "2022-06-24T20:11:00",
          "duration": 21,
          "status": "Genuine",
          "associatedSiteId": 110701,
          "outfallName": "TERMINUS ROAD COWES 2",
          "isImpacting": true,
          "overFlowSiteId": 108563,
          "historicSpillsList": []
        }
      ]
    },
    {
      "id": 344812573,
      "eventId": 609675,
      "siteUnitNumber": 12546,
      "bathingSite": "LEYSDOWN",
      "eventStart": "2022-06-23T12:00:00",
      "eventStop": "2022-06-23T12:15:00",
      "duration": 15,
      "status": "Not Genuine",
      "associatedSiteId": 109613,
      "outfallName": "BARROWS BROOK EASTCHURCH",
      "isImpacting": true,
      "overFlowSiteId": 0,
      "historicSpillsList": []
    },
    {
      "id": 344812574,
      "eventId": 609581,
      "siteUnitNumber": 12546,
      "bathingSite": "LEYSDOWN",
      "eventStart": "2022-06-23T07:45:00",
      "eventStop": "2022-06-23T08:30:00",
      "duration": 45,
      "status": "Not Genuine",
      "associatedSiteId": 109613,
      "outfallName": "BARROWS BROOK EASTCHURCH",
      "isImpacting": true,
      "overFlowSiteId": 0,
      "historicSpillsList": []
    },
    {
      "id": 344812575,
      "eventId": 609396,
      "siteUnitNumber": 12546,
      "bathingSite": "LEYSDOWN",
      "eventStart": "2022-06-22T10:25:14",
      "eventStop": "2022-06-22T11:15:00",
      "duration": 49,
      "status": "Not Genuine",
      "associatedSiteId": 109613,
      "outfallName": "BARROWS BROOK EASTCHURCH",
      "isImpacting": true,
      "overFlowSiteId": 0,
      "historicSpillsList": []
    },
    {
      "id": 344837412,
      "eventId": 609089,
      "siteUnitNumber": 12591,
      "bathingSite": "LITTLEHAMPTON",
      "eventStart": "2022-06-20T19:19:00",
      "eventStop": "2022-06-20T19:39:00",
      "duration": 20,
      "status": "Genuine",
      "associatedSiteId": 109965,
      "outfallName": "SEA ROAD LITTLEHAMPTON",
      "isImpacting": true,
      "overFlowSiteId": 0,
      "historicSpillsList": [
        {
          "id": 344837412,
          "eventId": 609089,
          "siteUnitNumber": 12591,
          "bathingSite": "LITTLEHAMPTON",
          "eventStart": "2022-06-20T19:19:00",
          "eventStop": "2022-06-20T19:39:00",
          "duration": 20,
          "status": "Genuine",
          "associatedSiteId": 109965,
          "outfallName": "SEA ROAD LITTLEHAMPTON",
          "isImpacting": true,
          "overFlowSiteId": 109368
        }
      ]
    },
    {
      "id": 344837411,
      "eventId": 609065,
      "siteUnitNumber": 12591,
      "bathingSite": "LITTLEHAMPTON",
      "eventStart": "2022-06-20T16:38:46",
      "eventStop": "2022-06-20T18:13:46",
      "duration": 95,
      "status": "Genuine",
      "associatedSiteId": 109965,
      "outfallName": "SEA ROAD LITTLEHAMPTON",
      "isImpacting": true,
      "overFlowSiteId": 0,
      "historicSpillsList": [
        {
          "id": 344837411,
          "eventId": 609065,
          "siteUnitNumber": 12591,
          "bathingSite": "LITTLEHAMPTON",
          "eventStart": "2022-06-20T16:38:46",
          "eventStop": "2022-06-20T18:13:46",
          "duration": 95,
          "status": "Genuine",
          "associatedSiteId": 109965,
          "outfallName": "SEA ROAD LITTLEHAMPTON",
          "isImpacting": true,
          "overFlowSiteId": 109368
        }
      ]
    },
    {
      "id": 344824602,
      "eventId": 608883,
      "siteUnitNumber": 12548,
      "bathingSite": "TANKERTON",
      "eventStart": "2022-06-19T09:37:26",
      "eventStop": "2022-06-19T09:57:03",
      "duration": 19,
      "status": "Genuine",
      "associatedSiteId": 109830,
      "outfallName": "SWALECLIFFE NO1",
      "isImpacting": true,
      "overFlowSiteId": 0,
      "historicSpillsList": [
        {
          "id": 344824602,
          "eventId": 608883,
          "siteUnitNumber": 12548,
          "bathingSite": "TANKERTON",
          "eventStart": "2022-06-19T09:37:26",
          "eventStop": "2022-06-19T09:57:03",
          "duration": 19,
          "status": "Genuine",
          "associatedSiteId": 109830,
          "outfallName": "SWALECLIFFE NO1",
          "isImpacting": true,
          "overFlowSiteId": 115444
        },
        {
          "id": 344824603,
          "eventId": 608883,
          "siteUnitNumber": 12549,
          "bathingSite": "HERNE BAY CENTRAL",
          "eventStart": "2022-06-19T09:37:26",
          "eventStop": "2022-06-19T09:57:03",
          "duration": 19,
          "status": "Genuine",
          "associatedSiteId": 109830,
          "outfallName": "SWALECLIFFE NO1",
          "isImpacting": true,
          "overFlowSiteId": 115444,
          "historicSpillsList": []
        }
      ]
    },
    {
      "id": 344824605,
      "eventId": 608722,
      "siteUnitNumber": 12548,
      "bathingSite": "TANKERTON",
      "eventStart": "2022-06-18T23:16:12",
      "eventStop": "2022-06-19T01:41:21",
      "duration": 145,
      "status": "Genuine",
      "associatedSiteId": 109830,
      "outfallName": "SWALECLIFFE NO1",
      "isImpacting": true,
      "overFlowSiteId": 0,
      "historicSpillsList": [
        {
          "id": 344824605,
          "eventId": 608722,
          "siteUnitNumber": 12548,
          "bathingSite": "TANKERTON",
          "eventStart": "2022-06-18T23:16:12",
          "eventStop": "2022-06-19T01:41:21",
          "duration": 145,
          "status": "Genuine",
          "associatedSiteId": 109830,
          "outfallName": "SWALECLIFFE NO1",
          "isImpacting": true,
          "overFlowSiteId": 115444
        },
        {
          "id": 344824606,
          "eventId": 608722,
          "siteUnitNumber": 12549,
          "bathingSite": "HERNE BAY CENTRAL",
          "eventStart": "2022-06-18T23:16:12",
          "eventStop": "2022-06-19T01:41:21",
          "duration": 145,
          "status": "Genuine",
          "associatedSiteId": 109830,
          "outfallName": "SWALECLIFFE NO1",
          "isImpacting": true,
          "overFlowSiteId": 115444,
          "historicSpillsList": []
        }
      ]
    },
    {
      "id": 344828742,
      "eventId": 608766,
      "siteUnitNumber": 12568,
      "bathingSite": "SANDGATE",
      "eventStart": "2022-06-19T00:00:00",
      "eventStop": "2022-06-19T01:31:00",
      "duration": 91,
      "status": "Genuine",
      "associatedSiteId": 109897,
      "outfallName": "RANGE ROAD HYTHE K LONG",
      "isImpacting": true,
      "overFlowSiteId": 0,
      "historicSpillsList": [
        {
          "id": 344828742,
          "eventId": 608766,
          "siteUnitNumber": 12568,
          "bathingSite": "SANDGATE",
          "eventStart": "2022-06-19T00:00:00",
          "eventStop": "2022-06-19T01:31:00",
          "duration": 91,
          "status": "Genuine",
          "associatedSiteId": 109897,
          "outfallName": "RANGE ROAD HYTHE K LONG",
          "isImpacting": true,
          "overFlowSiteId": 116048
        },
        {
          "id": 344828743,
          "eventId": 608766,
          "siteUnitNumber": 12569,
          "bathingSite": "HYTHE",
          "eventStart": "2022-06-19T00:00:00",
          "eventStop": "2022-06-19T01:31:00",
          "duration": 91,
          "status": "Genuine",
          "associatedSiteId": 109897,
          "outfallName": "RANGE ROAD HYTHE K LONG",
          "isImpacting": true,
          "overFlowSiteId": 116048,
          "historicSpillsList": []
        }
      ]
    },
    {
      "id": 344812659,
      "eventId": 641673,
      "siteUnitNumber": 12544,
      "bathingSite": "SHEERNESS",
      "eventStart": "2022-06-19T00:51:00",
      "eventStop": "2022-06-19T01:09:00",
      "duration": 18,
      "status": "Genuine",
      "associatedSiteId": 109614,
      "outfallName": "BRIELLE WAY WESTMINSTER",
      "isImpacting": true,
      "overFlowSiteId": 0,
      "historicSpillsList": [
        {
          "id": 344812659,
          "eventId": 641673,
          "siteUnitNumber": 12544,
          "bathingSite": "SHEERNESS",
          "eventStart": "2022-06-19T00:51:00",
          "eventStop": "2022-06-19T01:09:00",
          "duration": 18,
          "status": "Genuine",
          "associatedSiteId": 109614,
          "outfallName": "BRIELLE WAY WESTMINSTER",
          "isImpacting": true,
          "overFlowSiteId": 108810
        }
      ]
    },
    {
      "id": 344825538,
      "eventId": 608719,
      "siteUnitNumber": 12547,
      "bathingSite": "WEST BEACH WHITSTABLE",
      "eventStart": "2022-06-18T23:12:31",
      "eventStop": "2022-06-19T00:36:03",
      "duration": 83,
      "status": "Genuine",
      "associatedSiteId": 109832,
      "outfallName": "GORREL NO1",
      "isImpacting": true,
      "overFlowSiteId": 0,
      "historicSpillsList": [
        {
          "id": 344825538,
          "eventId": 608719,
          "siteUnitNumber": 12547,
          "bathingSite": "WEST BEACH WHITSTABLE",
          "eventStart": "2022-06-18T23:12:31",
          "eventStop": "2022-06-19T00:36:03",
          "duration": 83,
          "status": "Genuine",
          "associatedSiteId": 109832,
          "outfallName": "GORREL NO1",
          "isImpacting": true,
          "overFlowSiteId": 103279
        },
        {
          "id": 344825539,
          "eventId": 608719,
          "siteUnitNumber": 12548,
          "bathingSite": "TANKERTON",
          "eventStart": "2022-06-18T23:12:31",
          "eventStop": "2022-06-19T00:36:03",
          "duration": 83,
          "status": "Genuine",
          "associatedSiteId": 109832,
          "outfallName": "GORREL NO1",
          "isImpacting": true,
          "overFlowSiteId": 103279,
          "historicSpillsList": []
        }
      ]
    },
    {
      "id": 344812667,
      "eventId": 610889,
      "siteUnitNumber": 12544,
      "bathingSite": "SHEERNESS",
      "eventStart": "2022-06-18T22:47:00",
      "eventStop": "2022-06-19T00:34:00",
      "duration": 107,
      "status": "Genuine",
      "associatedSiteId": 109614,
      "outfallName": "BRIELLE WAY WESTMINSTER",
      "isImpacting": true,
      "overFlowSiteId": 0,
      "historicSpillsList": [
        {
          "id": 344812667,
          "eventId": 610889,
          "siteUnitNumber": 12544,
          "bathingSite": "SHEERNESS",
          "eventStart": "2022-06-18T22:47:00",
          "eventStop": "2022-06-19T00:34:00",
          "duration": 107,
          "status": "Genuine",
          "associatedSiteId": 109614,
          "outfallName": "BRIELLE WAY WESTMINSTER",
          "isImpacting": true,
          "overFlowSiteId": 108810
        }
      ]
    },
    {
      "id": 344830470,
      "eventId": 608710,
      "siteUnitNumber": 12576,
      "bathingSite": "ST LEONARDS",
      "eventStart": "2022-06-18T23:06:51",
      "eventStop": "2022-06-19T00:10:00",
      "duration": 63,
      "status": "Genuine",
      "associatedSiteId": 109903,
      "outfallName": "BEXHILL & HASTINGS NO2",
      "isImpacting": true,
      "overFlowSiteId": 0,
      "historicSpillsList": [
        {
          "id": 344830470,
          "eventId": 608710,
          "siteUnitNumber": 12576,
          "bathingSite": "ST LEONARDS",
          "eventStart": "2022-06-18T23:06:51",
          "eventStop": "2022-06-19T00:10:00",
          "duration": 63,
          "status": "Genuine",
          "associatedSiteId": 109903,
          "outfallName": "BEXHILL & HASTINGS NO2",
          "isImpacting": true,
          "overFlowSiteId": 115398
        },
        {
          "id": 344830471,
          "eventId": 608710,
          "siteUnitNumber": 12577,
          "bathingSite": "BEXHILL",
          "eventStart": "2022-06-18T23:06:51",
          "eventStop": "2022-06-19T00:10:00",
          "duration": 63,
          "status": "Genuine",
          "associatedSiteId": 109903,
          "outfallName": "BEXHILL & HASTINGS NO2",
          "isImpacting": true,
          "overFlowSiteId": 115398,
          "historicSpillsList": []
        }
      ]
    },
    {
      "id": 344812759,
      "eventId": 608668,
      "siteUnitNumber": 12544,
      "bathingSite": "SHEERNESS",
      "eventStart": "2022-06-18T22:36:09",
      "eventStop": "2022-06-18T23:20:00",
      "duration": 43,
      "status": "Genuine",
      "associatedSiteId": 109616,
      "outfallName": "SOUTH STREET QUEENBOROUGH",
      "isImpacting": true,
      "overFlowSiteId": 0,
      "historicSpillsList": [
        {
          "id": 344812759,
          "eventId": 608668,
          "siteUnitNumber": 12544,
          "bathingSite": "SHEERNESS",
          "eventStart": "2022-06-18T22:36:09",
          "eventStop": "2022-06-18T23:20:00",
          "duration": 43,
          "status": "Genuine",
          "associatedSiteId": 109616,
          "outfallName": "SOUTH STREET QUEENBOROUGH",
          "isImpacting": true,
          "overFlowSiteId": 108732
        }
      ]
    }
  ]
}