{
  "currentPage": 390,
  "totalItems": 18701,
  "totalPages": 749,
  "items": [
    {
      "id": 343996762,
      "eventId": 701712,
      "siteUnitNumber": 12662,
      "bathingSite": "CHICHESTER HARBOUR",
      "eventStart": "2022-12-22T07:03:00",
      "eventStop": "2022-12-23T00:39:00",
      "duration": 1056,
      "status": "Genuine",
      "associatedSiteId": 110760,
      "outfallName": "BOSHAM",
      "isImpacting": true,
      "overFlowSiteId": 0,
      "historicSpillsList": [
        {
          "id": 343996762,
          "eventId": 701712,
          "siteUnitNumber": 12662,
          "bathingSite": "CHICHESTER HARBOUR",
          "eventStart": "2022-12-22T07:03:00",
          "eventStop": "2022-12-23T00:39:00",
          "duration": 1056,
          "status": "Genuine",
          "associatedSiteId": 110760,
          "outfallName": "BOSHAM",
          "isImpacting": true,
          "overFlowSiteId": 115735
        }
      ]
    },
    {
      "id": 343962055,
      "eventId": 707758,
      "siteUnitNumber": 12616,
      "bathingSite": "GURNARD",
      "eventStart": "2022-12-23T00:32:00",
      "eventStop": "2022-12-23T00:36:00",
      "duration": 4,
      "status": "Genuine",
      "associatedSiteId": 109652,
      "outfallName": "WOODVALE TRANSFER NO1",
      "isImpacting": false,
      "overFlowSiteId": 0,
      "historicSpillsList": []
    },
    {
      "id": 343969100,
      "eventId": 702356,
      "siteUnitNumber": 12617,
      "bathingSite": "COWES",
      "eventStart": "2022-12-21T23:01:00",
      "eventStop": "2022-12-22T23:59:00",
      "duration": 1498,
      "status": "Genuine",
      "associatedSiteId": 109777,
      "outfallName": "APPLEY PARK RYDE TRANSFER",
      "isImpacting": true,
      "overFlowSiteId": 0,
      "historicSpillsList": [
        {
          "id": 343969101,
          "eventId": 702356,
          "siteUnitNumber": 12618,
          "bathingSite": "RYDE",
          "eventStart": "2022-12-21T23:01:00",
          "eventStop": "2022-12-22T23:59:00",
          "duration": 1498,
          "status": "Genuine",
          "associatedSiteId": 109777,
          "outfallName": "APPLEY PARK RYDE TRANSFER",
          "isImpacting": true,
          "overFlowSiteId": 108941,
          "historicSpillsList": []
        }
      ]
    },
    {
      "id": 343967512,
      "eventId": 709016,
      "siteUnitNumber": 12606,
      "bathingSite": "LEE-ON-SOLENT",
      "eventStart": "2022-12-22T23:21:00",
      "eventStop": "2022-12-22T23:57:00",
      "duration": 36,
      "status": "Genuine",
      "associatedSiteId": 109732,
      "outfallName": "PEEL COMMON",
      "isImpacting": true,
      "overFlowSiteId": 0,
      "historicSpillsList": [
        {
          "id": 343967516,
          "eventId": 709016,
          "siteUnitNumber": 12605,
          "bathingSite": "STOKES BAY",
          "eventStart": "2022-12-22T23:21:00",
          "eventStop": "2022-12-22T23:57:00",
          "duration": 36,
          "status": "Genuine",
          "associatedSiteId": 109732,
          "outfallName": "PEEL COMMON",
          "isImpacting": true,
          "overFlowSiteId": 115425,
          "historicSpillsList": []
        }
      ]
    },
    {
      "id": 343976730,
      "eventId": 702784,
      "siteUnitNumber": 12568,
      "bathingSite": "SANDGATE",
      "eventStart": "2022-12-22T22:21:00",
      "eventStop": "2022-12-22T23:09:00",
      "duration": 48,
      "status": "Genuine",
      "associatedSiteId": 109897,
      "outfallName": "RANGE ROAD HYTHE K LONG",
      "isImpacting": true,
      "overFlowSiteId": 0,
      "historicSpillsList": [
        {
          "id": 343976730,
          "eventId": 702784,
          "siteUnitNumber": 12568,
          "bathingSite": "SANDGATE",
          "eventStart": "2022-12-22T22:21:00",
          "eventStop": "2022-12-22T23:09:00",
          "duration": 48,
          "status": "Genuine",
          "associatedSiteId": 109897,
          "outfallName": "RANGE ROAD HYTHE K LONG",
          "isImpacting": true,
          "overFlowSiteId": 116048
        }
      ]
    },
    {
      "id": 343979441,
      "eventId": 701747,
      "siteUnitNumber": 12596,
      "bathingSite": "PAGHAM",
      "eventStart": "2022-12-22T05:57:00",
      "eventStop": "2022-12-22T23:06:00",
      "duration": 1029,
      "status": "Genuine",
      "associatedSiteId": 109911,
      "outfallName": "SUMMER LANE PAGHAM",
      "isImpacting": true,
      "overFlowSiteId": 0,
      "historicSpillsList": [
        {
          "id": 343979441,
          "eventId": 701747,
          "siteUnitNumber": 12596,
          "bathingSite": "PAGHAM",
          "eventStart": "2022-12-22T05:57:00",
          "eventStop": "2022-12-22T23:06:00",
          "duration": 1029,
          "status": "Genuine",
          "associatedSiteId": 109911,
          "outfallName": "SUMMER LANE PAGHAM",
          "isImpacting": true,
          "overFlowSiteId": 115443
        }
      ]
    },
    {
      "id": 343964747,
      "eventId": 701470,
      "siteUnitNumber": 12616,
      "bathingSite": "GURNARD",
      "eventStart": "2022-12-22T21:57:28",
      "eventStop": "2022-12-22T22:50:00",
      "duration": 52,
      "status": "Genuine",
      "associatedSiteId": 109700,
      "outfallName": "MARKET HILL COWES",
      "isImpacting": false,
      "overFlowSiteId": 0,
      "historicSpillsList": []
    },
    {
      "id": 343967517,
      "eventId": 709015,
      "siteUnitNumber": 12604,
      "bathingSite": "SOUTHSEA EAST",
      "eventStart": "2022-12-22T21:53:00",
      "eventStop": "2022-12-22T22:34:00",
      "duration": 41,
      "status": "Genuine",
      "associatedSiteId": 109732,
      "outfallName": "PEEL COMMON",
      "isImpacting": true,
      "overFlowSiteId": 0,
      "historicSpillsList": [
        {
          "id": 343967518,
          "eventId": 709015,
          "siteUnitNumber": 12605,
          "bathingSite": "STOKES BAY",
          "eventStart": "2022-12-22T21:53:00",
          "eventStop": "2022-12-22T22:34:00",
          "duration": 41,
          "status": "Genuine",
          "associatedSiteId": 109732,
          "outfallName": "PEEL COMMON",
          "isImpacting": true,
          "overFlowSiteId": 115425,
          "historicSpillsList": []
        }
      ]
    },
    {
      "id": 343962057,
      "eventId": 707757,
      "siteUnitNumber": 12616,
      "bathingSite": "GURNARD",
      "eventStart": "2022-12-22T22:17:00",
      "eventStop": "2022-12-22T22:23:00",
      "duration": 6,
      "status": "Genuine",
      "associatedSiteId": 109652,
      "outfallName": "WOODVALE TRANSFER NO1",
      "isImpacting": false,
      "overFlowSiteId": 0,
      "historicSpillsList": []
    },
    {
      "id": 343997482,
      "eventId": 701945,
      "siteUnitNumber": 12573,
      "bathingSite": "CAMBER",
      "eventStart": "2022-12-22T20:58:00",
      "eventStop": "2022-12-22T22:04:00",
      "duration": 66,
      "status": "Genuine",
      "associatedSiteId": 110958,
      "outfallName": "RYE",
      "isImpacting": false,
      "overFlowSiteId": 0,
      "historicSpillsList": []
    },
    {
      "id": 343968470,
      "eventId": 708468,
      "siteUnitNumber": 12661,
      "bathingSite": "LANGSTONE HARBOUR",
      "eventStart": "2022-12-22T08:09:00",
      "eventStop": "2022-12-22T21:44:00",
      "duration": 815,
      "status": "Genuine",
      "associatedSiteId": 109773,
      "outfallName": "BUDDS FARM HAVANT NO2",
      "isImpacting": true,
      "overFlowSiteId": 0,
      "historicSpillsList": [
        {
          "id": 343968470,
          "eventId": 708468,
          "siteUnitNumber": 12661,
          "bathingSite": "LANGSTONE HARBOUR",
          "eventStart": "2022-12-22T08:09:00",
          "eventStop": "2022-12-22T21:44:00",
          "duration": 815,
          "status": "Genuine",
          "associatedSiteId": 109773,
          "outfallName": "BUDDS FARM HAVANT NO2",
          "isImpacting": true,
          "overFlowSiteId": 115936
        }
      ]
    },
    {
      "id": 343976728,
      "eventId": 702783,
      "siteUnitNumber": 12568,
      "bathingSite": "SANDGATE",
      "eventStart": "2022-12-22T21:02:00",
      "eventStop": "2022-12-22T21:43:00",
      "duration": 41,
      "status": "Genuine",
      "associatedSiteId": 109897,
      "outfallName": "RANGE ROAD HYTHE K LONG",
      "isImpacting": true,
      "overFlowSiteId": 0,
      "historicSpillsList": [
        {
          "id": 343976728,
          "eventId": 702783,
          "siteUnitNumber": 12568,
          "bathingSite": "SANDGATE",
          "eventStart": "2022-12-22T21:02:00",
          "eventStop": "2022-12-22T21:43:00",
          "duration": 41,
          "status": "Genuine",
          "associatedSiteId": 109897,
          "outfallName": "RANGE ROAD HYTHE K LONG",
          "isImpacting": true,
          "overFlowSiteId": 116048
        }
      ]
    },
    {
      "id": 343967522,
      "eventId": 709014,
      "siteUnitNumber": 12603,
      "bathingSite": "EASTNEY",
      "eventStart": "2022-12-22T18:37:00",
      "eventStop": "2022-12-22T21:12:00",
      "duration": 155,
      "status": "Genuine",
      "associatedSiteId": 109732,
      "outfallName": "PEEL COMMON",
      "isImpacting": true,
      "overFlowSiteId": 0,
      "historicSpillsList": [
        {
          "id": 343967524,
          "eventId": 709014,
          "siteUnitNumber": 12605,
          "bathingSite": "STOKES BAY",
          "eventStart": "2022-12-22T18:37:00",
          "eventStop": "2022-12-22T21:12:00",
          "duration": 155,
          "status": "Genuine",
          "associatedSiteId": 109732,
          "outfallName": "PEEL COMMON",
          "isImpacting": true,
          "overFlowSiteId": 115425,
          "historicSpillsList": []
        }
      ]
    },
    {
      "id": 343993113,
      "eventId": 701318,
      "siteUnitNumber": 12619,
      "bathingSite": "SEAGROVE",
      "eventStart": "2022-12-22T20:25:00",
      "eventStop": "2022-12-22T20:42:00",
      "duration": 17,
      "status": "Genuine",
      "associatedSiteId": 110097,
      "outfallName": "SANDOWN NO2",
      "isImpacting": true,
      "overFlowSiteId": 0,
      "historicSpillsList": [
        {
          "id": 343993106,
          "eventId": 701318,
          "siteUnitNumber": 12623,
          "bathingSite": "YAVERLAND",
          "eventStart": "2022-12-22T20:25:00",
          "eventStop": "2022-12-22T20:42:00",
          "duration": 17,
          "status": "Genuine",
          "associatedSiteId": 110097,
          "outfallName": "SANDOWN NO2",
          "isImpacting": true,
          "overFlowSiteId": 115454,
          "historicSpillsList": []
        },
        {
          "id": 343993107,
          "eventId": 701318,
          "siteUnitNumber": 12624,
          "bathingSite": "SANDOWN",
          "eventStart": "2022-12-22T20:25:00",
          "eventStop": "2022-12-22T20:42:00",
          "duration": 17,
          "status": "Genuine",
          "associatedSiteId": 110097,
          "outfallName": "SANDOWN NO2",
          "isImpacting": true,
          "overFlowSiteId": 115454,
          "historicSpillsList": []
        },
        {
          "id": 343993108,
          "eventId": 701318,
          "siteUnitNumber": 12625,
          "bathingSite": "SHANKLIN",
          "eventStart": "2022-12-22T20:25:00",
          "eventStop": "2022-12-22T20:42:00",
          "duration": 17,
          "status": "Genuine",
          "associatedSiteId": 110097,
          "outfallName": "SANDOWN NO2",
          "isImpacting": true,
          "overFlowSiteId": 115454,
          "historicSpillsList": []
        }
      ]
    },
    {
      "id": 343962059,
      "eventId": 707756,
      "siteUnitNumber": 12616,
      "bathingSite": "GURNARD",
      "eventStart": "2022-12-22T20:29:00",
      "eventStop": "2022-12-22T20:34:00",
      "duration": 5,
      "status": "Genuine",
      "associatedSiteId": 109652,
      "outfallName": "WOODVALE TRANSFER NO1",
      "isImpacting": true,
      "overFlowSiteId": 0,
      "historicSpillsList": [
        {
          "id": 343962060,
          "eventId": 707756,
          "siteUnitNumber": 12617,
          "bathingSite": "COWES",
          "eventStart": "2022-12-22T20:29:00",
          "eventStop": "2022-12-22T20:34:00",
          "duration": 5,
          "status": "Genuine",
          "associatedSiteId": 109652,
          "outfallName": "WOODVALE TRANSFER NO1",
          "isImpacting": true,
          "overFlowSiteId": 115966,
          "historicSpillsList": []
        }
      ]
    },
    {
      "id": 343976734,
      "eventId": 702782,
      "siteUnitNumber": 12568,
      "bathingSite": "SANDGATE",
      "eventStart": "2022-12-22T19:30:00",
      "eventStop": "2022-12-22T20:15:00",
      "duration": 45,
      "status": "Genuine",
      "associatedSiteId": 109897,
      "outfallName": "RANGE ROAD HYTHE K LONG",
      "isImpacting": false,
      "overFlowSiteId": 0,
      "historicSpillsList": []
    },
    {
      "id": 343993110,
      "eventId": 701293,
      "siteUnitNumber": 12623,
      "bathingSite": "YAVERLAND",
      "eventStart": "2022-12-22T19:15:00",
      "eventStop": "2022-12-22T19:44:00",
      "duration": 29,
      "status": "Genuine",
      "associatedSiteId": 110097,
      "outfallName": "SANDOWN NO2",
      "isImpacting": true,
      "overFlowSiteId": 0,
      "historicSpillsList": [
        {
          "id": 343993110,
          "eventId": 701293,
          "siteUnitNumber": 12623,
          "bathingSite": "YAVERLAND",
          "eventStart": "2022-12-22T19:15:00",
          "eventStop": "2022-12-22T19:44:00",
          "duration": 29,
          "status": "Genuine",
          "associatedSiteId": 110097,
          "outfallName": "SANDOWN NO2",
          "isImpacting": true,
          "overFlowSiteId": 115454
        }
      ]
    },
    {
      "id": 343997481,
      "eventId": 700358,
      "siteUnitNumber": 12573,
      "bathingSite": "CAMBER",
      "eventStart": "2022-12-22T02:27:00",
      "eventStop": "2022-12-22T19:39:00",
      "duration": 1032,
      "status": "Genuine",
      "associatedSiteId": 110958,
      "outfallName": "RYE",
      "isImpacting": false,
      "overFlowSiteId": 0,
      "historicSpillsList": []
    },
    {
      "id": 343984281,
      "eventId": 702088,
      "siteUnitNumber": 12595,
      "bathingSite": "BOGNOR REGIS (ALDWICK)",
      "eventStart": "2022-12-22T18:51:00",
      "eventStop": "2022-12-22T19:10:00",
      "duration": 19,
      "status": "Genuine",
      "associatedSiteId": 109959,
      "outfallName": "WEST PARK BOGNOR REGIS",
      "isImpacting": false,
      "overFlowSiteId": 0,
      "historicSpillsList": []
    },
    {
      "id": 343962061,
      "eventId": 707755,
      "siteUnitNumber": 12616,
      "bathingSite": "GURNARD",
      "eventStart": "2022-12-22T19:02:00",
      "eventStop": "2022-12-22T19:07:00",
      "duration": 5,
      "status": "Genuine",
      "associatedSiteId": 109652,
      "outfallName": "WOODVALE TRANSFER NO1",
      "isImpacting": true,
      "overFlowSiteId": 0,
      "historicSpillsList": [
        {
          "id": 343962062,
          "eventId": 707755,
          "siteUnitNumber": 12617,
          "bathingSite": "COWES",
          "eventStart": "2022-12-22T19:02:00",
          "eventStop": "2022-12-22T19:07:00",
          "duration": 5,
          "status": "Genuine",
          "associatedSiteId": 109652,
          "outfallName": "WOODVALE TRANSFER NO1",
          "isImpacting": true,
          "overFlowSiteId": 115966,
          "historicSpillsList": []
        }
      ]
    },
    {
      "id": 343993115,
      "eventId": 701195,
      "siteUnitNumber": 12624,
      "bathingSite": "SANDOWN",
      "eventStart": "2022-12-22T18:19:00",
      "eventStop": "2022-12-22T18:50:00",
      "duration": 31,
      "status": "Genuine",
      "associatedSiteId": 110097,
      "outfallName": "SANDOWN NO2",
      "isImpacting": true,
      "overFlowSiteId": 0,
      "historicSpillsList": [
        {
          "id": 343993124,
          "eventId": 701195,
          "siteUnitNumber": 12623,
          "bathingSite": "YAVERLAND",
          "eventStart": "2022-12-22T18:19:00",
          "eventStop": "2022-12-22T18:50:00",
          "duration": 31,
          "status": "Genuine",
          "associatedSiteId": 110097,
          "outfallName": "SANDOWN NO2",
          "isImpacting": true,
          "overFlowSiteId": 115454,
          "historicSpillsList": []
        }
      ]
    },
    {
      "id": 343976736,
      "eventId": 701038,
      "siteUnitNumber": 12568,
      "bathingSite": "SANDGATE",
      "eventStart": "2022-12-22T14:10:00",
      "eventStop": "2022-12-22T18:39:00",
      "duration": 269,
      "status": "Genuine",
      "associatedSiteId": 109897,
      "outfallName": "RANGE ROAD HYTHE K LONG",
      "isImpacting": true,
      "overFlowSiteId": 0,
      "historicSpillsList": [
        {
          "id": 343976736,
          "eventId": 701038,
          "siteUnitNumber": 12568,
          "bathingSite": "SANDGATE",
          "eventStart": "2022-12-22T14:10:00",
          "eventStop": "2022-12-22T18:39:00",
          "duration": 269,
          "status": "Genuine",
          "associatedSiteId": 109897,
          "outfallName": "RANGE ROAD HYTHE K LONG",
          "isImpacting": true,
          "overFlowSiteId": 116048
        },
        {
          "id": 343976737,
          "eventId": 701038,
          "siteUnitNumber": 12569,
          "bathingSite": "HYTHE",
          "eventStart": "2022-12-22T14:10:00",
          "eventStop": "2022-12-22T18:39:00",
          "duration": 269,
          "status": "Genuine",
          "associatedSiteId": 109897,
          "outfallName": "RANGE ROAD HYTHE K LONG",
          "isImpacting": true,
          "overFlowSiteId": 116048,
          "historicSpillsList": []
        }
      ]
    },
    {
      "id": 344002325,
      "eventId": 700828,
      "siteUnitNumber": 12577,
      "bathingSite": "BEXHILL",
      "eventStart": "2022-12-22T10:50:54",
      "eventStop": "2022-12-22T18:02:28",
      "duration": 431,
      "status": "Genuine",
      "associatedSiteId": 115499,
      "outfallName": "BROCKLEY ROAD BEXHILL",
      "isImpacting": true,
      "overFlowSiteId": 0,
      "historicSpillsList": [
        {
          "id": 344002325,
          "eventId": 700828,
          "siteUnitNumber": 12577,
          "bathingSite": "BEXHILL",
          "eventStart": "2022-12-22T10:50:54",
          "eventStop": "2022-12-22T18:02:28",
          "duration": 431,
          "status": "Genuine",
          "associatedSiteId": 115499,
          "outfallName": "BROCKLEY ROAD BEXHILL",
          "isImpacting": true,
          "overFlowSiteId": 103297
        }
      ]
    },
    {
      "id": 343984286,
      "eventId": 702082,
      "siteUnitNumber": 12594,
      "bathingSite": "BOGNOR REGIS EAST",
      "eventStart": "2022-12-22T17:45:00",
      "eventStop": "2022-12-22T18:01:00",
      "duration": 16,
      "status": "Genuine",
      "associatedSiteId": 109959,
      "outfallName": "WEST PARK BOGNOR REGIS",
      "isImpacting": false,
      "overFlowSiteId": 0,
      "historicSpillsList": []
    },
    {
      "id": 343967527,
      "eventId": 709013,
      "siteUnitNumber": 12606,
      "bathingSite": "LEE-ON-SOLENT",
      "eventStart": "2022-12-22T17:11:00",
      "eventStop": "2022-12-22T18:00:00",
      "duration": 49,
      "status": "Genuine",
      "associatedSiteId": 109732,
      "outfallName": "PEEL COMMON",
      "isImpacting": true,
      "overFlowSiteId": 0,
      "historicSpillsList": [
        {
          "id": 343967531,
          "eventId": 709013,
          "siteUnitNumber": 12605,
          "bathingSite": "STOKES BAY",
          "eventStart": "2022-12-22T17:11:00",
          "eventStop": "2022-12-22T18:00:00",
          "duration": 49,
          "status": "Genuine",
          "associatedSiteId": 109732,
          "outfallName": "PEEL COMMON",
          "isImpacting": true,
          "overFlowSiteId": 115425,
          "historicSpillsList": []
        }
      ]
    }
  ]
}