{
  "currentPage": 791,
  "totalItems": 21025,
  "totalPages": 841,
  "items": [
    {
      "id": 344875907,
      "eventId": 345001,
      "siteUnitNumber": 12621,
      "bathingSite": "BEMBRIDGE",
      "eventStart": "2021-02-06T22:17:00",
      "eventStop": "2021-02-08T13:38:00",
      "duration": 2361,
      "status": "Genuine",
      "associatedSiteId": 109939,
      "outfallName": "LANE END ROAD BEMBRIDGE",
      "isImpacting": true,
      "overFlowSiteId": 0,
      "historicSpillsList": [
        {
          "id": 344875907,
          "eventId": 345001,
          "siteUnitNumber": 12621,
          "bathingSite": "BEMBRIDGE",
          "eventStart": "2021-02-06T22:17:00",
          "eventStop": "2021-02-08T13:38:00",
          "duration": 2361,
          "status": "Genuine",
          "associatedSiteId": 109939,
          "outfallName": "LANE END ROAD BEMBRIDGE",
          "isImpacting": true,
          "overFlowSiteId": 108533
        },
        {
          "id": 344875912,
          "eventId": 345001,
          "siteUnitNumber": 12620,
          "bathingSite": "ST HELENS",
          "eventStart": "2021-02-06T22:17:00",
          "eventStop": "2021-02-08T13:38:00",
          "duration": 2361,
          "status": "Genuine",
          "associatedSiteId": 109939,
          "outfallName": "LANE END ROAD BEMBRIDGE",
          "isImpacting": true,
          "overFlowSiteId": 108533,
          "historicSpillsList": []
        }
      ]
    },
    {
      "id": 344891238,
      "eventId": 344506,
      "siteUnitNumber": 12662,
      "bathingSite": "CHICHESTER HARBOUR",
      "eventStart": "2021-02-08T07:32:00",
      "eventStop": "2021-02-08T13:28:00",
      "duration": 356,
      "status": "Genuine",
      "associatedSiteId": 110760,
      "outfallName": "BOSHAM",
      "isImpacting": true,
      "overFlowSiteId": 0,
      "historicSpillsList": [
        {
          "id": 344891238,
          "eventId": 344506,
          "siteUnitNumber": 12662,
          "bathingSite": "CHICHESTER HARBOUR",
          "eventStart": "2021-02-08T07:32:00",
          "eventStop": "2021-02-08T13:28:00",
          "duration": 356,
          "status": "Genuine",
          "associatedSiteId": 110760,
          "outfallName": "BOSHAM",
          "isImpacting": true,
          "overFlowSiteId": 115735
        }
      ]
    },
    {
      "id": 344865314,
      "eventId": 344239,
      "siteUnitNumber": 12596,
      "bathingSite": "PAGHAM",
      "eventStart": "2021-02-08T10:22:55",
      "eventStop": "2021-02-08T12:41:58",
      "duration": 139,
      "status": "Genuine",
      "associatedSiteId": 109791,
      "outfallName": "SIDLESHAM",
      "isImpacting": true,
      "overFlowSiteId": 0,
      "historicSpillsList": [
        {
          "id": 344865314,
          "eventId": 344239,
          "siteUnitNumber": 12596,
          "bathingSite": "PAGHAM",
          "eventStart": "2021-02-08T10:22:55",
          "eventStop": "2021-02-08T12:41:58",
          "duration": 139,
          "status": "Genuine",
          "associatedSiteId": 109791,
          "outfallName": "SIDLESHAM",
          "isImpacting": true,
          "overFlowSiteId": 115807
        }
      ]
    },
    {
      "id": 344873564,
      "eventId": 344303,
      "siteUnitNumber": 12576,
      "bathingSite": "ST LEONARDS",
      "eventStart": "2021-02-08T11:31:55",
      "eventStop": "2021-02-08T12:06:17",
      "duration": 34,
      "status": "Genuine",
      "associatedSiteId": 109903,
      "outfallName": "BEXHILL & HASTINGS NO2",
      "isImpacting": true,
      "overFlowSiteId": 0,
      "historicSpillsList": [
        {
          "id": 344873564,
          "eventId": 344303,
          "siteUnitNumber": 12576,
          "bathingSite": "ST LEONARDS",
          "eventStart": "2021-02-08T11:31:55",
          "eventStop": "2021-02-08T12:06:17",
          "duration": 34,
          "status": "Genuine",
          "associatedSiteId": 109903,
          "outfallName": "BEXHILL & HASTINGS NO2",
          "isImpacting": true,
          "overFlowSiteId": 115398
        },
        {
          "id": 344873565,
          "eventId": 344303,
          "siteUnitNumber": 12577,
          "bathingSite": "BEXHILL",
          "eventStart": "2021-02-08T11:31:55",
          "eventStop": "2021-02-08T12:06:17",
          "duration": 34,
          "status": "Genuine",
          "associatedSiteId": 109903,
          "outfallName": "BEXHILL & HASTINGS NO2",
          "isImpacting": true,
          "overFlowSiteId": 115398,
          "historicSpillsList": []
        }
      ]
    },
    {
      "id": 344864232,
      "eventId": 344226,
      "siteUnitNumber": 12617,
      "bathingSite": "COWES",
      "eventStart": "2021-02-08T07:00:00",
      "eventStop": "2021-02-08T08:17:00",
      "duration": 77,
      "status": "Genuine",
      "associatedSiteId": 109777,
      "outfallName": "APPLEY PARK RYDE TRANSFER",
      "isImpacting": true,
      "overFlowSiteId": 0,
      "historicSpillsList": [
        {
          "id": 344864232,
          "eventId": 344226,
          "siteUnitNumber": 12617,
          "bathingSite": "COWES",
          "eventStart": "2021-02-08T07:00:00",
          "eventStop": "2021-02-08T08:17:00",
          "duration": 77,
          "status": "Genuine",
          "associatedSiteId": 109777,
          "outfallName": "APPLEY PARK RYDE TRANSFER",
          "isImpacting": true,
          "overFlowSiteId": 108941
        },
        {
          "id": 344864233,
          "eventId": 344226,
          "siteUnitNumber": 12618,
          "bathingSite": "RYDE",
          "eventStart": "2021-02-08T07:00:00",
          "eventStop": "2021-02-08T08:17:00",
          "duration": 77,
          "status": "Genuine",
          "associatedSiteId": 109777,
          "outfallName": "APPLEY PARK RYDE TRANSFER",
          "isImpacting": true,
          "overFlowSiteId": 108941,
          "historicSpillsList": []
        }
      ]
    },
    {
      "id": 344882282,
      "eventId": 343956,
      "siteUnitNumber": 12567,
      "bathingSite": "FOLKESTONE",
      "eventStart": "2021-02-08T04:21:01",
      "eventStop": "2021-02-08T05:09:58",
      "duration": 48,
      "status": "Genuine",
      "associatedSiteId": 110010,
      "outfallName": "THE STADE FOLKESTONE",
      "isImpacting": true,
      "overFlowSiteId": 0,
      "historicSpillsList": [
        {
          "id": 344882282,
          "eventId": 343956,
          "siteUnitNumber": 12567,
          "bathingSite": "FOLKESTONE",
          "eventStart": "2021-02-08T04:21:01",
          "eventStop": "2021-02-08T05:09:58",
          "duration": 48,
          "status": "Genuine",
          "associatedSiteId": 110010,
          "outfallName": "THE STADE FOLKESTONE",
          "isImpacting": true,
          "overFlowSiteId": 108909
        }
      ]
    },
    {
      "id": 344864234,
      "eventId": 343930,
      "siteUnitNumber": 12617,
      "bathingSite": "COWES",
      "eventStart": "2021-02-08T04:11:00",
      "eventStop": "2021-02-08T04:28:00",
      "duration": 17,
      "status": "Genuine",
      "associatedSiteId": 109777,
      "outfallName": "APPLEY PARK RYDE TRANSFER",
      "isImpacting": true,
      "overFlowSiteId": 0,
      "historicSpillsList": [
        {
          "id": 344864234,
          "eventId": 343930,
          "siteUnitNumber": 12617,
          "bathingSite": "COWES",
          "eventStart": "2021-02-08T04:11:00",
          "eventStop": "2021-02-08T04:28:00",
          "duration": 17,
          "status": "Genuine",
          "associatedSiteId": 109777,
          "outfallName": "APPLEY PARK RYDE TRANSFER",
          "isImpacting": true,
          "overFlowSiteId": 108941
        },
        {
          "id": 344864235,
          "eventId": 343930,
          "siteUnitNumber": 12618,
          "bathingSite": "RYDE",
          "eventStart": "2021-02-08T04:11:00",
          "eventStop": "2021-02-08T04:28:00",
          "duration": 17,
          "status": "Genuine",
          "associatedSiteId": 109777,
          "outfallName": "APPLEY PARK RYDE TRANSFER",
          "isImpacting": true,
          "overFlowSiteId": 108941,
          "historicSpillsList": []
        }
      ]
    },
    {
      "id": 344873930,
      "eventId": 334064,
      "siteUnitNumber": 12596,
      "bathingSite": "PAGHAM",
      "eventStart": "2021-02-01T21:21:47",
      "eventStop": "2021-02-08T02:54:00",
      "duration": 8972,
      "status": "Genuine",
      "associatedSiteId": 109911,
      "outfallName": "SUMMER LANE PAGHAM",
      "isImpacting": true,
      "overFlowSiteId": 0,
      "historicSpillsList": [
        {
          "id": 344873930,
          "eventId": 334064,
          "siteUnitNumber": 12596,
          "bathingSite": "PAGHAM",
          "eventStart": "2021-02-01T21:21:47",
          "eventStop": "2021-02-08T02:54:00",
          "duration": 8972,
          "status": "Genuine",
          "associatedSiteId": 109911,
          "outfallName": "SUMMER LANE PAGHAM",
          "isImpacting": true,
          "overFlowSiteId": 115443
        }
      ]
    },
    {
      "id": 344881100,
      "eventId": 366503,
      "siteUnitNumber": 12591,
      "bathingSite": "LITTLEHAMPTON",
      "eventStart": "2021-02-07T21:43:00",
      "eventStop": "2021-02-08T02:01:00",
      "duration": 258,
      "status": "Genuine",
      "associatedSiteId": 109977,
      "outfallName": "FORESHORE TANK LITTLEHAMPTON",
      "isImpacting": true,
      "overFlowSiteId": 0,
      "historicSpillsList": [
        {
          "id": 344881100,
          "eventId": 366503,
          "siteUnitNumber": 12591,
          "bathingSite": "LITTLEHAMPTON",
          "eventStart": "2021-02-07T21:43:00",
          "eventStop": "2021-02-08T02:01:00",
          "duration": 258,
          "status": "Genuine",
          "associatedSiteId": 109977,
          "outfallName": "FORESHORE TANK LITTLEHAMPTON",
          "isImpacting": true,
          "overFlowSiteId": 109390
        }
      ]
    },
    {
      "id": 344865319,
      "eventId": 341940,
      "siteUnitNumber": 12596,
      "bathingSite": "PAGHAM",
      "eventStart": "2021-02-06T17:30:00",
      "eventStop": "2021-02-08T01:45:00",
      "duration": 1935,
      "status": "Genuine",
      "associatedSiteId": 109791,
      "outfallName": "SIDLESHAM",
      "isImpacting": true,
      "overFlowSiteId": 0,
      "historicSpillsList": [
        {
          "id": 344865319,
          "eventId": 341940,
          "siteUnitNumber": 12596,
          "bathingSite": "PAGHAM",
          "eventStart": "2021-02-06T17:30:00",
          "eventStop": "2021-02-08T01:45:00",
          "duration": 1935,
          "status": "Genuine",
          "associatedSiteId": 109791,
          "outfallName": "SIDLESHAM",
          "isImpacting": true,
          "overFlowSiteId": 115807
        }
      ]
    },
    {
      "id": 344864236,
      "eventId": 343796,
      "siteUnitNumber": 12617,
      "bathingSite": "COWES",
      "eventStart": "2021-02-08T01:25:00",
      "eventStop": "2021-02-08T01:43:00",
      "duration": 18,
      "status": "Genuine",
      "associatedSiteId": 109777,
      "outfallName": "APPLEY PARK RYDE TRANSFER",
      "isImpacting": true,
      "overFlowSiteId": 0,
      "historicSpillsList": [
        {
          "id": 344864236,
          "eventId": 343796,
          "siteUnitNumber": 12617,
          "bathingSite": "COWES",
          "eventStart": "2021-02-08T01:25:00",
          "eventStop": "2021-02-08T01:43:00",
          "duration": 18,
          "status": "Genuine",
          "associatedSiteId": 109777,
          "outfallName": "APPLEY PARK RYDE TRANSFER",
          "isImpacting": true,
          "overFlowSiteId": 108941
        },
        {
          "id": 344864237,
          "eventId": 343796,
          "siteUnitNumber": 12618,
          "bathingSite": "RYDE",
          "eventStart": "2021-02-08T01:25:00",
          "eventStop": "2021-02-08T01:43:00",
          "duration": 18,
          "status": "Genuine",
          "associatedSiteId": 109777,
          "outfallName": "APPLEY PARK RYDE TRANSFER",
          "isImpacting": true,
          "overFlowSiteId": 108941,
          "historicSpillsList": []
        }
      ]
    },
    {
      "id": 344863017,
      "eventId": 341825,
      "siteUnitNumber": 12661,
      "bathingSite": "LANGSTONE HARBOUR",
      "eventStart": "2021-02-06T10:00:00",
      "eventStop": "2021-02-08T01:30:00",
      "duration": 2370,
      "status": "Genuine",
      "associatedSiteId": 109773,
      "outfallName": "BUDDS FARM HAVANT NO2",
      "isImpacting": true,
      "overFlowSiteId": 0,
      "historicSpillsList": [
        {
          "id": 344863017,
          "eventId": 341825,
          "siteUnitNumber": 12661,
          "bathingSite": "LANGSTONE HARBOUR",
          "eventStart": "2021-02-06T10:00:00",
          "eventStop": "2021-02-08T01:30:00",
          "duration": 2370,
          "status": "Genuine",
          "associatedSiteId": 109773,
          "outfallName": "BUDDS FARM HAVANT NO2",
          "isImpacting": true,
          "overFlowSiteId": 115936
        }
      ]
    },
    {
      "id": 344864238,
      "eventId": 342200,
      "siteUnitNumber": 12618,
      "bathingSite": "RYDE",
      "eventStart": "2021-02-06T22:15:00",
      "eventStop": "2021-02-08T01:25:00",
      "duration": 1630,
      "status": "Genuine",
      "associatedSiteId": 109777,
      "outfallName": "APPLEY PARK RYDE TRANSFER",
      "isImpacting": true,
      "overFlowSiteId": 0,
      "historicSpillsList": [
        {
          "id": 344864238,
          "eventId": 342200,
          "siteUnitNumber": 12618,
          "bathingSite": "RYDE",
          "eventStart": "2021-02-06T22:15:00",
          "eventStop": "2021-02-08T01:25:00",
          "duration": 1630,
          "status": "Genuine",
          "associatedSiteId": 109777,
          "outfallName": "APPLEY PARK RYDE TRANSFER",
          "isImpacting": true,
          "overFlowSiteId": 108941
        },
        {
          "id": 344864239,
          "eventId": 342200,
          "siteUnitNumber": 12617,
          "bathingSite": "COWES",
          "eventStart": "2021-02-06T22:15:00",
          "eventStop": "2021-02-08T01:25:00",
          "duration": 1630,
          "status": "Genuine",
          "associatedSiteId": 109777,
          "outfallName": "APPLEY PARK RYDE TRANSFER",
          "isImpacting": true,
          "overFlowSiteId": 108941,
          "historicSpillsList": []
        }
      ]
    },
    {
      "id": 344882286,
      "eventId": 343732,
      "siteUnitNumber": 12567,
      "bathingSite": "FOLKESTONE",
      "eventStart": "2021-02-07T23:23:19",
      "eventStop": "2021-02-08T00:27:53",
      "duration": 64,
      "status": "Genuine",
      "associatedSiteId": 110010,
      "outfallName": "THE STADE FOLKESTONE",
      "isImpacting": true,
      "overFlowSiteId": 0,
      "historicSpillsList": [
        {
          "id": 344882286,
          "eventId": 343732,
          "siteUnitNumber": 12567,
          "bathingSite": "FOLKESTONE",
          "eventStart": "2021-02-07T23:23:19",
          "eventStop": "2021-02-08T00:27:53",
          "duration": 64,
          "status": "Genuine",
          "associatedSiteId": 110010,
          "outfallName": "THE STADE FOLKESTONE",
          "isImpacting": true,
          "overFlowSiteId": 108909
        }
      ]
    },
    {
      "id": 344891239,
      "eventId": 343406,
      "siteUnitNumber": 12662,
      "bathingSite": "CHICHESTER HARBOUR",
      "eventStart": "2021-02-07T17:56:00",
      "eventStop": "2021-02-08T00:16:00",
      "duration": 380,
      "status": "Genuine",
      "associatedSiteId": 110760,
      "outfallName": "BOSHAM",
      "isImpacting": true,
      "overFlowSiteId": 0,
      "historicSpillsList": [
        {
          "id": 344891239,
          "eventId": 343406,
          "siteUnitNumber": 12662,
          "bathingSite": "CHICHESTER HARBOUR",
          "eventStart": "2021-02-07T17:56:00",
          "eventStop": "2021-02-08T00:16:00",
          "duration": 380,
          "status": "Genuine",
          "associatedSiteId": 110760,
          "outfallName": "BOSHAM",
          "isImpacting": true,
          "overFlowSiteId": 115735
        }
      ]
    },
    {
      "id": 344873562,
      "eventId": 343719,
      "siteUnitNumber": 12576,
      "bathingSite": "ST LEONARDS",
      "eventStart": "2021-02-07T23:20:32",
      "eventStop": "2021-02-08T00:15:04",
      "duration": 54,
      "status": "Genuine",
      "associatedSiteId": 109903,
      "outfallName": "BEXHILL & HASTINGS NO2",
      "isImpacting": true,
      "overFlowSiteId": 0,
      "historicSpillsList": [
        {
          "id": 344873562,
          "eventId": 343719,
          "siteUnitNumber": 12576,
          "bathingSite": "ST LEONARDS",
          "eventStart": "2021-02-07T23:20:32",
          "eventStop": "2021-02-08T00:15:04",
          "duration": 54,
          "status": "Genuine",
          "associatedSiteId": 109903,
          "outfallName": "BEXHILL & HASTINGS NO2",
          "isImpacting": true,
          "overFlowSiteId": 115398
        },
        {
          "id": 344873563,
          "eventId": 343719,
          "siteUnitNumber": 12577,
          "bathingSite": "BEXHILL",
          "eventStart": "2021-02-07T23:20:32",
          "eventStop": "2021-02-08T00:15:04",
          "duration": 54,
          "status": "Genuine",
          "associatedSiteId": 109903,
          "outfallName": "BEXHILL & HASTINGS NO2",
          "isImpacting": true,
          "overFlowSiteId": 115398,
          "historicSpillsList": []
        }
      ]
    },
    {
      "id": 344862454,
      "eventId": 343152,
      "siteUnitNumber": 12603,
      "bathingSite": "EASTNEY",
      "eventStart": "2021-02-07T12:58:20",
      "eventStop": "2021-02-07T23:40:00",
      "duration": 641,
      "status": "Genuine",
      "associatedSiteId": 109732,
      "outfallName": "PEEL COMMON",
      "isImpacting": true,
      "overFlowSiteId": 0,
      "historicSpillsList": [
        {
          "id": 344862454,
          "eventId": 343152,
          "siteUnitNumber": 12603,
          "bathingSite": "EASTNEY",
          "eventStart": "2021-02-07T12:58:20",
          "eventStop": "2021-02-07T23:40:00",
          "duration": 641,
          "status": "Genuine",
          "associatedSiteId": 109732,
          "outfallName": "PEEL COMMON",
          "isImpacting": true,
          "overFlowSiteId": 115425
        },
        {
          "id": 344862455,
          "eventId": 343152,
          "siteUnitNumber": 12604,
          "bathingSite": "SOUTHSEA EAST",
          "eventStart": "2021-02-07T12:58:20",
          "eventStop": "2021-02-07T23:40:00",
          "duration": 641,
          "status": "Genuine",
          "associatedSiteId": 109732,
          "outfallName": "PEEL COMMON",
          "isImpacting": true,
          "overFlowSiteId": 115425,
          "historicSpillsList": []
        },
        {
          "id": 344862456,
          "eventId": 343152,
          "siteUnitNumber": 12605,
          "bathingSite": "STOKES BAY",
          "eventStart": "2021-02-07T12:58:20",
          "eventStop": "2021-02-07T23:40:00",
          "duration": 641,
          "status": "Genuine",
          "associatedSiteId": 109732,
          "outfallName": "PEEL COMMON",
          "isImpacting": true,
          "overFlowSiteId": 115425,
          "historicSpillsList": []
        },
        {
          "id": 344862457,
          "eventId": 343152,
          "siteUnitNumber": 12606,
          "bathingSite": "LEE-ON-SOLENT",
          "eventStart": "2021-02-07T12:58:20",
          "eventStop": "2021-02-07T23:40:00",
          "duration": 641,
          "status": "Genuine",
          "associatedSiteId": 109732,
          "outfallName": "PEEL COMMON",
          "isImpacting": true,
          "overFlowSiteId": 115425,
          "historicSpillsList": []
        },
        {
          "id": 344862458,
          "eventId": 343152,
          "siteUnitNumber": 12607,
          "bathingSite": "HILLHEAD",
          "eventStart": "2021-02-07T12:58:20",
          "eventStop": "2021-02-07T23:40:00",
          "duration": 641,
          "status": "Genuine",
          "associatedSiteId": 109732,
          "outfallName": "PEEL COMMON",
          "isImpacting": true,
          "overFlowSiteId": 115425,
          "historicSpillsList": []
        }
      ]
    },
    {
      "id": 344882285,
      "eventId": 343649,
      "siteUnitNumber": 12567,
      "bathingSite": "FOLKESTONE",
      "eventStart": "2021-02-07T22:12:10",
      "eventStop": "2021-02-07T23:20:00",
      "duration": 67,
      "status": "Genuine",
      "associatedSiteId": 110010,
      "outfallName": "THE STADE FOLKESTONE",
      "isImpacting": true,
      "overFlowSiteId": 0,
      "historicSpillsList": [
        {
          "id": 344882285,
          "eventId": 343649,
          "siteUnitNumber": 12567,
          "bathingSite": "FOLKESTONE",
          "eventStart": "2021-02-07T22:12:10",
          "eventStop": "2021-02-07T23:20:00",
          "duration": 67,
          "status": "Genuine",
          "associatedSiteId": 110010,
          "outfallName": "THE STADE FOLKESTONE",
          "isImpacting": true,
          "overFlowSiteId": 108909
        }
      ]
    },
    {
      "id": 344891973,
      "eventId": 330182,
      "siteUnitNumber": 12573,
      "bathingSite": "CAMBER",
      "eventStart": "2021-01-30T09:10:00",
      "eventStop": "2021-02-07T23:15:00",
      "duration": 12365,
      "status": "Genuine",
      "associatedSiteId": 110958,
      "outfallName": "RYE",
      "isImpacting": true,
      "overFlowSiteId": 0,
      "historicSpillsList": [
        {
          "id": 344891973,
          "eventId": 330182,
          "siteUnitNumber": 12573,
          "bathingSite": "CAMBER",
          "eventStart": "2021-01-30T09:10:00",
          "eventStop": "2021-02-07T23:15:00",
          "duration": 12365,
          "status": "Genuine",
          "associatedSiteId": 110958,
          "outfallName": "RYE",
          "isImpacting": true,
          "overFlowSiteId": 115433
        }
      ]
    },
    {
      "id": 344873568,
      "eventId": 342762,
      "siteUnitNumber": 12576,
      "bathingSite": "ST LEONARDS",
      "eventStart": "2021-02-07T07:38:33",
      "eventStop": "2021-02-07T22:46:51",
      "duration": 908,
      "status": "Genuine",
      "associatedSiteId": 109903,
      "outfallName": "BEXHILL & HASTINGS NO2",
      "isImpacting": true,
      "overFlowSiteId": 0,
      "historicSpillsList": [
        {
          "id": 344873568,
          "eventId": 342762,
          "siteUnitNumber": 12576,
          "bathingSite": "ST LEONARDS",
          "eventStart": "2021-02-07T07:38:33",
          "eventStop": "2021-02-07T22:46:51",
          "duration": 908,
          "status": "Genuine",
          "associatedSiteId": 109903,
          "outfallName": "BEXHILL & HASTINGS NO2",
          "isImpacting": true,
          "overFlowSiteId": 115398
        },
        {
          "id": 344873569,
          "eventId": 342762,
          "siteUnitNumber": 12577,
          "bathingSite": "BEXHILL",
          "eventStart": "2021-02-07T07:38:33",
          "eventStop": "2021-02-07T22:46:51",
          "duration": 908,
          "status": "Genuine",
          "associatedSiteId": 109903,
          "outfallName": "BEXHILL & HASTINGS NO2",
          "isImpacting": true,
          "overFlowSiteId": 115398,
          "historicSpillsList": []
        }
      ]
    },
    {
      "id": 344870328,
      "eventId": 343655,
      "siteUnitNumber": 12568,
      "bathingSite": "SANDGATE",
      "eventStart": "2021-02-07T22:18:03",
      "eventStop": "2021-02-07T22:23:56",
      "duration": 5,
      "status": "Genuine",
      "associatedSiteId": 109896,
      "outfallName": "RANGE ROAD HYTHE K SHORT",
      "isImpacting": true,
      "overFlowSiteId": 0,
      "historicSpillsList": [
        {
          "id": 344870328,
          "eventId": 343655,
          "siteUnitNumber": 12568,
          "bathingSite": "SANDGATE",
          "eventStart": "2021-02-07T22:18:03",
          "eventStop": "2021-02-07T22:23:56",
          "duration": 5,
          "status": "Genuine",
          "associatedSiteId": 109896,
          "outfallName": "RANGE ROAD HYTHE K SHORT",
          "isImpacting": true,
          "overFlowSiteId": 116112
        },
        {
          "id": 344870329,
          "eventId": 343655,
          "siteUnitNumber": 12569,
          "bathingSite": "HYTHE",
          "eventStart": "2021-02-07T22:18:03",
          "eventStop": "2021-02-07T22:23:56",
          "duration": 5,
          "status": "Genuine",
          "associatedSiteId": 109896,
          "outfallName": "RANGE ROAD HYTHE K SHORT",
          "isImpacting": true,
          "overFlowSiteId": 116112,
          "historicSpillsList": []
        }
      ]
    },
    {
      "id": 344870326,
      "eventId": 343654,
      "siteUnitNumber": 12568,
      "bathingSite": "SANDGATE",
      "eventStart": "2021-02-07T22:04:09",
      "eventStop": "2021-02-07T22:09:00",
      "duration": 4,
      "status": "Genuine",
      "associatedSiteId": 109896,
      "outfallName": "RANGE ROAD HYTHE K SHORT",
      "isImpacting": true,
      "overFlowSiteId": 0,
      "historicSpillsList": [
        {
          "id": 344870326,
          "eventId": 343654,
          "siteUnitNumber": 12568,
          "bathingSite": "SANDGATE",
          "eventStart": "2021-02-07T22:04:09",
          "eventStop": "2021-02-07T22:09:00",
          "duration": 4,
          "status": "Genuine",
          "associatedSiteId": 109896,
          "outfallName": "RANGE ROAD HYTHE K SHORT",
          "isImpacting": true,
          "overFlowSiteId": 116112
        },
        {
          "id": 344870327,
          "eventId": 343654,
          "siteUnitNumber": 12569,
          "bathingSite": "HYTHE",
          "eventStart": "2021-02-07T22:04:09",
          "eventStop": "2021-02-07T22:09:00",
          "duration": 4,
          "status": "Genuine",
          "associatedSiteId": 109896,
          "outfallName": "RANGE ROAD HYTHE K SHORT",
          "isImpacting": true,
          "overFlowSiteId": 116112,
          "historicSpillsList": []
        }
      ]
    },
    {
      "id": 344882284,
      "eventId": 343562,
      "siteUnitNumber": 12567,
      "bathingSite": "FOLKESTONE",
      "eventStart": "2021-02-07T20:59:29",
      "eventStop": "2021-02-07T22:08:53",
      "duration": 69,
      "status": "Genuine",
      "associatedSiteId": 110010,
      "outfallName": "THE STADE FOLKESTONE",
      "isImpacting": true,
      "overFlowSiteId": 0,
      "historicSpillsList": [
        {
          "id": 344882284,
          "eventId": 343562,
          "siteUnitNumber": 12567,
          "bathingSite": "FOLKESTONE",
          "eventStart": "2021-02-07T20:59:29",
          "eventStop": "2021-02-07T22:08:53",
          "duration": 69,
          "status": "Genuine",
          "associatedSiteId": 110010,
          "outfallName": "THE STADE FOLKESTONE",
          "isImpacting": true,
          "overFlowSiteId": 108909
        }
      ]
    },
    {
      "id": 344870330,
      "eventId": 343627,
      "siteUnitNumber": 12568,
      "bathingSite": "SANDGATE",
      "eventStart": "2021-02-07T21:43:00",
      "eventStop": "2021-02-07T22:00:00",
      "duration": 17,
      "status": "Genuine",
      "associatedSiteId": 109896,
      "outfallName": "RANGE ROAD HYTHE K SHORT",
      "isImpacting": true,
      "overFlowSiteId": 0,
      "historicSpillsList": [
        {
          "id": 344870330,
          "eventId": 343627,
          "siteUnitNumber": 12568,
          "bathingSite": "SANDGATE",
          "eventStart": "2021-02-07T21:43:00",
          "eventStop": "2021-02-07T22:00:00",
          "duration": 17,
          "status": "Genuine",
          "associatedSiteId": 109896,
          "outfallName": "RANGE ROAD HYTHE K SHORT",
          "isImpacting": true,
          "overFlowSiteId": 116112
        },
        {
          "id": 344870331,
          "eventId": 343627,
          "siteUnitNumber": 12569,
          "bathingSite": "HYTHE",
          "eventStart": "2021-02-07T21:43:00",
          "eventStop": "2021-02-07T22:00:00",
          "duration": 17,
          "status": "Genuine",
          "associatedSiteId": 109896,
          "outfallName": "RANGE ROAD HYTHE K SHORT",
          "isImpacting": true,
          "overFlowSiteId": 116112,
          "historicSpillsList": []
        }
      ]
    },
    {
      "id": 344870334,
      "eventId": 343411,
      "siteUnitNumber": 12568,
      "bathingSite": "SANDGATE",
      "eventStart": "2021-02-07T17:23:31",
      "eventStop": "2021-02-07T20:59:29",
      "duration": 215,
      "status": "Genuine",
      "associatedSiteId": 109896,
      "outfallName": "RANGE ROAD HYTHE K SHORT",
      "isImpacting": true,
      "overFlowSiteId": 0,
      "historicSpillsList": [
        {
          "id": 344870334,
          "eventId": 343411,
          "siteUnitNumber": 12568,
          "bathingSite": "SANDGATE",
          "eventStart": "2021-02-07T17:23:31",
          "eventStop": "2021-02-07T20:59:29",
          "duration": 215,
          "status": "Genuine",
          "associatedSiteId": 109896,
          "outfallName": "RANGE ROAD HYTHE K SHORT",
          "isImpacting": true,
          "overFlowSiteId": 116112
        },
        {
          "id": 344870335,
          "eventId": 343411,
          "siteUnitNumber": 12569,
          "bathingSite": "HYTHE",
          "eventStart": "2021-02-07T17:23:31",
          "eventStop": "2021-02-07T20:59:29",
          "duration": 215,
          "status": "Genuine",
          "associatedSiteId": 109896,
          "outfallName": "RANGE ROAD HYTHE K SHORT",
          "isImpacting": true,
          "overFlowSiteId": 116112,
          "historicSpillsList": []
        }
      ]
    }
  ]
}