{
  "currentPage": 534,
  "totalItems": 21025,
  "totalPages": 841,
  "items": [
    {
      "id": 344845750,
      "eventId": 647107,
      "siteUnitNumber": 12619,
      "bathingSite": "SEAGROVE",
      "eventStart": "2022-10-24T05:20:44",
      "eventStop": "2022-10-24T05:54:00",
      "duration": 33,
      "status": "Genuine",
      "associatedSiteId": 110097,
      "outfallName": "SANDOWN NO2",
      "isImpacting": true,
      "overFlowSiteId": 0,
      "historicSpillsList": [
        {
          "id": 344845753,
          "eventId": 647107,
          "siteUnitNumber": 12623,
          "bathingSite": "YAVERLAND",
          "eventStart": "2022-10-24T05:20:44",
          "eventStop": "2022-10-24T05:54:00",
          "duration": 33,
          "status": "Genuine",
          "associatedSiteId": 110097,
          "outfallName": "SANDOWN NO2",
          "isImpacting": true,
          "overFlowSiteId": 115454,
          "historicSpillsList": []
        }
      ]
    },
    {
      "id": 344841578,
      "eventId": 647101,
      "siteUnitNumber": 12622,
      "bathingSite": "WHITECLIFF BAY",
      "eventStart": "2022-10-24T04:36:07",
      "eventStop": "2022-10-24T05:23:52",
      "duration": 47,
      "status": "Genuine",
      "associatedSiteId": 110096,
      "outfallName": "SANDOWN NO1",
      "isImpacting": false,
      "overFlowSiteId": 0,
      "historicSpillsList": []
    },
    {
      "id": 344849340,
      "eventId": 647047,
      "siteUnitNumber": 12573,
      "bathingSite": "CAMBER",
      "eventStart": "2022-10-24T03:45:00",
      "eventStop": "2022-10-24T05:15:00",
      "duration": 90,
      "status": "Not Genuine",
      "associatedSiteId": 110958,
      "outfallName": "RYE",
      "isImpacting": false,
      "overFlowSiteId": 0,
      "historicSpillsList": []
    },
    {
      "id": 344828700,
      "eventId": 647044,
      "siteUnitNumber": 12568,
      "bathingSite": "SANDGATE",
      "eventStart": "2022-10-24T03:42:00",
      "eventStop": "2022-10-24T05:11:00",
      "duration": 89,
      "status": "Genuine",
      "associatedSiteId": 109897,
      "outfallName": "RANGE ROAD HYTHE K LONG",
      "isImpacting": true,
      "overFlowSiteId": 0,
      "historicSpillsList": [
        {
          "id": 344828700,
          "eventId": 647044,
          "siteUnitNumber": 12568,
          "bathingSite": "SANDGATE",
          "eventStart": "2022-10-24T03:42:00",
          "eventStop": "2022-10-24T05:11:00",
          "duration": 89,
          "status": "Genuine",
          "associatedSiteId": 109897,
          "outfallName": "RANGE ROAD HYTHE K LONG",
          "isImpacting": true,
          "overFlowSiteId": 116048
        },
        {
          "id": 344828701,
          "eventId": 647044,
          "siteUnitNumber": 12569,
          "bathingSite": "HYTHE",
          "eventStart": "2022-10-24T03:42:00",
          "eventStop": "2022-10-24T05:11:00",
          "duration": 89,
          "status": "Genuine",
          "associatedSiteId": 109897,
          "outfallName": "RANGE ROAD HYTHE K LONG",
          "isImpacting": true,
          "overFlowSiteId": 116048,
          "historicSpillsList": []
        }
      ]
    },
    {
      "id": 344845756,
      "eventId": 646635,
      "siteUnitNumber": 12621,
      "bathingSite": "BEMBRIDGE",
      "eventStart": "2022-10-23T19:36:00",
      "eventStop": "2022-10-24T05:05:00",
      "duration": 569,
      "status": "Genuine",
      "associatedSiteId": 110097,
      "outfallName": "SANDOWN NO2",
      "isImpacting": true,
      "overFlowSiteId": 0,
      "historicSpillsList": [
        {
          "id": 344845758,
          "eventId": 646635,
          "siteUnitNumber": 12623,
          "bathingSite": "YAVERLAND",
          "eventStart": "2022-10-23T19:36:00",
          "eventStop": "2022-10-24T05:05:00",
          "duration": 569,
          "status": "Genuine",
          "associatedSiteId": 110097,
          "outfallName": "SANDOWN NO2",
          "isImpacting": true,
          "overFlowSiteId": 115454,
          "historicSpillsList": []
        },
        {
          "id": 344845759,
          "eventId": 646635,
          "siteUnitNumber": 12624,
          "bathingSite": "SANDOWN",
          "eventStart": "2022-10-23T19:36:00",
          "eventStop": "2022-10-24T05:05:00",
          "duration": 569,
          "status": "Genuine",
          "associatedSiteId": 110097,
          "outfallName": "SANDOWN NO2",
          "isImpacting": true,
          "overFlowSiteId": 115454,
          "historicSpillsList": []
        },
        {
          "id": 344845760,
          "eventId": 646635,
          "siteUnitNumber": 12625,
          "bathingSite": "SHANKLIN",
          "eventStart": "2022-10-23T19:36:00",
          "eventStop": "2022-10-24T05:05:00",
          "duration": 569,
          "status": "Genuine",
          "associatedSiteId": 110097,
          "outfallName": "SANDOWN NO2",
          "isImpacting": true,
          "overFlowSiteId": 115454,
          "historicSpillsList": []
        }
      ]
    },
    {
      "id": 344814091,
      "eventId": 646643,
      "siteUnitNumber": 12616,
      "bathingSite": "GURNARD",
      "eventStart": "2022-10-23T20:43:03",
      "eventStop": "2022-10-24T04:45:00",
      "duration": 481,
      "status": "Genuine",
      "associatedSiteId": 109652,
      "outfallName": "WOODVALE TRANSFER NO1",
      "isImpacting": true,
      "overFlowSiteId": 0,
      "historicSpillsList": [
        {
          "id": 344814091,
          "eventId": 646643,
          "siteUnitNumber": 12616,
          "bathingSite": "GURNARD",
          "eventStart": "2022-10-23T20:43:03",
          "eventStop": "2022-10-24T04:45:00",
          "duration": 481,
          "status": "Genuine",
          "associatedSiteId": 109652,
          "outfallName": "WOODVALE TRANSFER NO1",
          "isImpacting": true,
          "overFlowSiteId": 115966
        },
        {
          "id": 344814092,
          "eventId": 646643,
          "siteUnitNumber": 12617,
          "bathingSite": "COWES",
          "eventStart": "2022-10-23T20:43:03",
          "eventStop": "2022-10-24T04:45:00",
          "duration": 481,
          "status": "Genuine",
          "associatedSiteId": 109652,
          "outfallName": "WOODVALE TRANSFER NO1",
          "isImpacting": true,
          "overFlowSiteId": 115966,
          "historicSpillsList": []
        }
      ]
    },
    {
      "id": 344849034,
      "eventId": 646895,
      "siteUnitNumber": 12582,
      "bathingSite": "SEAFORD",
      "eventStart": "2022-10-24T01:16:47",
      "eventStop": "2022-10-24T04:41:33",
      "duration": 204,
      "status": "Genuine",
      "associatedSiteId": 110920,
      "outfallName": "NEWHAVEN",
      "isImpacting": false,
      "overFlowSiteId": 0,
      "historicSpillsList": []
    },
    {
      "id": 344817925,
      "eventId": 646548,
      "siteUnitNumber": 12616,
      "bathingSite": "GURNARD",
      "eventStart": "2022-10-23T20:00:00",
      "eventStop": "2022-10-24T04:36:00",
      "duration": 516,
      "status": "Genuine",
      "associatedSiteId": 109705,
      "outfallName": "SPRINGHILL COWES TRANSFER",
      "isImpacting": true,
      "overFlowSiteId": 0,
      "historicSpillsList": [
        {
          "id": 344817926,
          "eventId": 646548,
          "siteUnitNumber": 12617,
          "bathingSite": "COWES",
          "eventStart": "2022-10-23T20:00:00",
          "eventStop": "2022-10-24T04:36:00",
          "duration": 516,
          "status": "Genuine",
          "associatedSiteId": 109705,
          "outfallName": "SPRINGHILL COWES TRANSFER",
          "isImpacting": true,
          "overFlowSiteId": 108943,
          "historicSpillsList": []
        }
      ]
    },
    {
      "id": 344833224,
      "eventId": 646621,
      "siteUnitNumber": 12620,
      "bathingSite": "ST HELENS",
      "eventStart": "2022-10-23T20:33:00",
      "eventStop": "2022-10-24T04:26:00",
      "duration": 473,
      "status": "Genuine",
      "associatedSiteId": 109939,
      "outfallName": "LANE END ROAD BEMBRIDGE",
      "isImpacting": true,
      "overFlowSiteId": 0,
      "historicSpillsList": [
        {
          "id": 344833225,
          "eventId": 646621,
          "siteUnitNumber": 12621,
          "bathingSite": "BEMBRIDGE",
          "eventStart": "2022-10-23T20:33:00",
          "eventStop": "2022-10-24T04:26:00",
          "duration": 473,
          "status": "Genuine",
          "associatedSiteId": 109939,
          "outfallName": "LANE END ROAD BEMBRIDGE",
          "isImpacting": true,
          "overFlowSiteId": 108533,
          "historicSpillsList": []
        }
      ]
    },
    {
      "id": 344826391,
      "eventId": 646980,
      "siteUnitNumber": 12579,
      "bathingSite": "PEVENSEY BAY",
      "eventStart": "2022-10-24T02:58:49",
      "eventStop": "2022-10-24T04:15:00",
      "duration": 76,
      "status": "Genuine",
      "associatedSiteId": 109888,
      "outfallName": "EASTBOURNE NO 2",
      "isImpacting": true,
      "overFlowSiteId": 0,
      "historicSpillsList": [
        {
          "id": 344826392,
          "eventId": 646980,
          "siteUnitNumber": 12580,
          "bathingSite": "EASTBOURNE",
          "eventStart": "2022-10-24T02:58:49",
          "eventStop": "2022-10-24T04:15:00",
          "duration": 76,
          "status": "Genuine",
          "associatedSiteId": 109888,
          "outfallName": "EASTBOURNE NO 2",
          "isImpacting": true,
          "overFlowSiteId": 115459,
          "historicSpillsList": []
        }
      ]
    },
    {
      "id": 344848600,
      "eventId": 646716,
      "siteUnitNumber": 12662,
      "bathingSite": "CHICHESTER HARBOUR",
      "eventStart": "2022-10-23T22:11:00",
      "eventStop": "2022-10-24T03:52:00",
      "duration": 341,
      "status": "Genuine",
      "associatedSiteId": 110760,
      "outfallName": "BOSHAM",
      "isImpacting": true,
      "overFlowSiteId": 0,
      "historicSpillsList": [
        {
          "id": 344848600,
          "eventId": 646716,
          "siteUnitNumber": 12662,
          "bathingSite": "CHICHESTER HARBOUR",
          "eventStart": "2022-10-23T22:11:00",
          "eventStop": "2022-10-24T03:52:00",
          "duration": 341,
          "status": "Genuine",
          "associatedSiteId": 110760,
          "outfallName": "BOSHAM",
          "isImpacting": true,
          "overFlowSiteId": 115735
        }
      ]
    },
    {
      "id": 344824527,
      "eventId": 646984,
      "siteUnitNumber": 12548,
      "bathingSite": "TANKERTON",
      "eventStart": "2022-10-24T02:52:00",
      "eventStop": "2022-10-24T03:43:00",
      "duration": 51,
      "status": "Genuine",
      "associatedSiteId": 109830,
      "outfallName": "SWALECLIFFE NO1",
      "isImpacting": false,
      "overFlowSiteId": 0,
      "historicSpillsList": []
    },
    {
      "id": 344840553,
      "eventId": 648012,
      "siteUnitNumber": 12593,
      "bathingSite": "FELPHAM",
      "eventStart": "2022-10-23T21:13:00",
      "eventStop": "2022-10-24T03:38:00",
      "duration": 385,
      "status": "Genuine",
      "associatedSiteId": 110095,
      "outfallName": "LIDSEY",
      "isImpacting": true,
      "overFlowSiteId": 0,
      "historicSpillsList": [
        {
          "id": 344840553,
          "eventId": 648012,
          "siteUnitNumber": 12593,
          "bathingSite": "FELPHAM",
          "eventStart": "2022-10-23T21:13:00",
          "eventStop": "2022-10-24T03:38:00",
          "duration": 385,
          "status": "Genuine",
          "associatedSiteId": 110095,
          "outfallName": "LIDSEY",
          "isImpacting": true,
          "overFlowSiteId": 115776
        }
      ]
    },
    {
      "id": 344849484,
      "eventId": 646969,
      "siteUnitNumber": 12577,
      "bathingSite": "BEXHILL",
      "eventStart": "2022-10-24T02:45:00",
      "eventStop": "2022-10-24T03:30:00",
      "duration": 45,
      "status": "Not Genuine",
      "associatedSiteId": 111338,
      "outfallName": "GALLEY HILL BEXHILL",
      "isImpacting": false,
      "overFlowSiteId": 0,
      "historicSpillsList": []
    },
    {
      "id": 344822686,
      "eventId": 648392,
      "siteUnitNumber": 12596,
      "bathingSite": "PAGHAM",
      "eventStart": "2022-10-23T22:04:00",
      "eventStop": "2022-10-24T03:25:00",
      "duration": 321,
      "status": "Genuine",
      "associatedSiteId": 109791,
      "outfallName": "SIDLESHAM",
      "isImpacting": true,
      "overFlowSiteId": 0,
      "historicSpillsList": [
        {
          "id": 344822686,
          "eventId": 648392,
          "siteUnitNumber": 12596,
          "bathingSite": "PAGHAM",
          "eventStart": "2022-10-23T22:04:00",
          "eventStop": "2022-10-24T03:25:00",
          "duration": 321,
          "status": "Genuine",
          "associatedSiteId": 109791,
          "outfallName": "SIDLESHAM",
          "isImpacting": true,
          "overFlowSiteId": 115807
        }
      ]
    },
    {
      "id": 344854593,
      "eventId": 647312,
      "siteUnitNumber": 12577,
      "bathingSite": "BEXHILL",
      "eventStart": "2022-10-24T02:31:23",
      "eventStop": "2022-10-24T03:19:00",
      "duration": 47,
      "status": "Genuine",
      "associatedSiteId": 115504,
      "outfallName": "HARTFIELD ROAD BEXHILL",
      "isImpacting": false,
      "overFlowSiteId": 0,
      "historicSpillsList": []
    },
    {
      "id": 344826178,
      "eventId": 648967,
      "siteUnitNumber": 12662,
      "bathingSite": "CHICHESTER HARBOUR",
      "eventStart": "2022-10-23T22:38:00",
      "eventStop": "2022-10-24T03:15:00",
      "duration": 277,
      "status": "Genuine",
      "associatedSiteId": 109850,
      "outfallName": "THORNHAM",
      "isImpacting": true,
      "overFlowSiteId": 0,
      "historicSpillsList": [
        {
          "id": 344826178,
          "eventId": 648967,
          "siteUnitNumber": 12662,
          "bathingSite": "CHICHESTER HARBOUR",
          "eventStart": "2022-10-23T22:38:00",
          "eventStop": "2022-10-24T03:15:00",
          "duration": 277,
          "status": "Genuine",
          "associatedSiteId": 109850,
          "outfallName": "THORNHAM",
          "isImpacting": true,
          "overFlowSiteId": 115369
        }
      ]
    },
    {
      "id": 344819444,
      "eventId": 648332,
      "siteUnitNumber": 12606,
      "bathingSite": "LEE-ON-SOLENT",
      "eventStart": "2022-10-23T19:38:00",
      "eventStop": "2022-10-24T03:14:00",
      "duration": 456,
      "status": "Genuine",
      "associatedSiteId": 109732,
      "outfallName": "PEEL COMMON",
      "isImpacting": true,
      "overFlowSiteId": 0,
      "historicSpillsList": [
        {
          "id": 344819444,
          "eventId": 648332,
          "siteUnitNumber": 12606,
          "bathingSite": "LEE-ON-SOLENT",
          "eventStart": "2022-10-23T19:38:00",
          "eventStop": "2022-10-24T03:14:00",
          "duration": 456,
          "status": "Genuine",
          "associatedSiteId": 109732,
          "outfallName": "PEEL COMMON",
          "isImpacting": true,
          "overFlowSiteId": 115425
        },
        {
          "id": 344819445,
          "eventId": 648332,
          "siteUnitNumber": 12607,
          "bathingSite": "HILLHEAD",
          "eventStart": "2022-10-23T19:38:00",
          "eventStop": "2022-10-24T03:14:00",
          "duration": 456,
          "status": "Genuine",
          "associatedSiteId": 109732,
          "outfallName": "PEEL COMMON",
          "isImpacting": true,
          "overFlowSiteId": 115425,
          "historicSpillsList": []
        },
        {
          "id": 344819447,
          "eventId": 648332,
          "siteUnitNumber": 12604,
          "bathingSite": "SOUTHSEA EAST",
          "eventStart": "2022-10-23T19:38:00",
          "eventStop": "2022-10-24T03:14:00",
          "duration": 456,
          "status": "Genuine",
          "associatedSiteId": 109732,
          "outfallName": "PEEL COMMON",
          "isImpacting": true,
          "overFlowSiteId": 115425,
          "historicSpillsList": []
        },
        {
          "id": 344819448,
          "eventId": 648332,
          "siteUnitNumber": 12605,
          "bathingSite": "STOKES BAY",
          "eventStart": "2022-10-23T19:38:00",
          "eventStop": "2022-10-24T03:14:00",
          "duration": 456,
          "status": "Genuine",
          "associatedSiteId": 109732,
          "outfallName": "PEEL COMMON",
          "isImpacting": true,
          "overFlowSiteId": 115425,
          "historicSpillsList": []
        }
      ]
    },
    {
      "id": 344832638,
      "eventId": 647019,
      "siteUnitNumber": 12581,
      "bathingSite": "BIRLING GAP",
      "eventStart": "2022-10-24T02:55:00",
      "eventStop": "2022-10-24T03:12:00",
      "duration": 17,
      "status": "Genuine",
      "associatedSiteId": 109936,
      "outfallName": "EAST DEAN",
      "isImpacting": false,
      "overFlowSiteId": 0,
      "historicSpillsList": []
    },
    {
      "id": 344854453,
      "eventId": 647150,
      "siteUnitNumber": 12577,
      "bathingSite": "BEXHILL",
      "eventStart": "2022-10-24T02:43:43",
      "eventStop": "2022-10-24T03:08:18",
      "duration": 24,
      "status": "Genuine",
      "associatedSiteId": 115503,
      "outfallName": "COODEN BEACH BEXHILL",
      "isImpacting": true,
      "overFlowSiteId": 0,
      "historicSpillsList": [
        {
          "id": 344854453,
          "eventId": 647150,
          "siteUnitNumber": 12577,
          "bathingSite": "BEXHILL",
          "eventStart": "2022-10-24T02:43:43",
          "eventStop": "2022-10-24T03:08:18",
          "duration": 24,
          "status": "Genuine",
          "associatedSiteId": 115503,
          "outfallName": "COODEN BEACH BEXHILL",
          "isImpacting": true,
          "overFlowSiteId": 108029
        },
        {
          "id": 344854454,
          "eventId": 647150,
          "siteUnitNumber": 12578,
          "bathingSite": "NORMANS BAY",
          "eventStart": "2022-10-24T02:43:43",
          "eventStop": "2022-10-24T03:08:18",
          "duration": 24,
          "status": "Genuine",
          "associatedSiteId": 115503,
          "outfallName": "COODEN BEACH BEXHILL",
          "isImpacting": true,
          "overFlowSiteId": 108029,
          "historicSpillsList": []
        }
      ]
    },
    {
      "id": 344833515,
      "eventId": 646945,
      "siteUnitNumber": 12575,
      "bathingSite": "HASTINGS PELHAM BEACH",
      "eventStart": "2022-10-24T02:35:25",
      "eventStop": "2022-10-24T03:03:45",
      "duration": 28,
      "status": "Genuine",
      "associatedSiteId": 109950,
      "outfallName": "ST HELENS DOWN HASTINGS",
      "isImpacting": true,
      "overFlowSiteId": 0,
      "historicSpillsList": [
        {
          "id": 344833515,
          "eventId": 646945,
          "siteUnitNumber": 12575,
          "bathingSite": "HASTINGS PELHAM BEACH",
          "eventStart": "2022-10-24T02:35:25",
          "eventStop": "2022-10-24T03:03:45",
          "duration": 28,
          "status": "Genuine",
          "associatedSiteId": 109950,
          "outfallName": "ST HELENS DOWN HASTINGS",
          "isImpacting": true,
          "overFlowSiteId": 109050
        }
      ]
    },
    {
      "id": 344822997,
      "eventId": 648002,
      "siteUnitNumber": 12661,
      "bathingSite": "LANGSTONE HARBOUR",
      "eventStart": "2022-10-24T01:36:00",
      "eventStop": "2022-10-24T02:58:00",
      "duration": 82,
      "status": "Genuine",
      "associatedSiteId": 109819,
      "outfallName": "COURT LANE COSHAM",
      "isImpacting": true,
      "overFlowSiteId": 0,
      "historicSpillsList": [
        {
          "id": 344822997,
          "eventId": 648002,
          "siteUnitNumber": 12661,
          "bathingSite": "LANGSTONE HARBOUR",
          "eventStart": "2022-10-24T01:36:00",
          "eventStop": "2022-10-24T02:58:00",
          "duration": 82,
          "status": "Genuine",
          "associatedSiteId": 109819,
          "outfallName": "COURT LANE COSHAM",
          "isImpacting": true,
          "overFlowSiteId": 115958
        }
      ]
    },
    {
      "id": 344821869,
      "eventId": 648364,
      "siteUnitNumber": 12618,
      "bathingSite": "RYDE",
      "eventStart": "2022-10-23T19:50:00",
      "eventStop": "2022-10-24T02:21:00",
      "duration": 391,
      "status": "Genuine",
      "associatedSiteId": 109778,
      "outfallName": "PRINCE CONSORT RYDE NEW",
      "isImpacting": true,
      "overFlowSiteId": 0,
      "historicSpillsList": [
        {
          "id": 344821869,
          "eventId": 648364,
          "siteUnitNumber": 12618,
          "bathingSite": "RYDE",
          "eventStart": "2022-10-23T19:50:00",
          "eventStop": "2022-10-24T02:21:00",
          "duration": 391,
          "status": "Genuine",
          "associatedSiteId": 109778,
          "outfallName": "PRINCE CONSORT RYDE NEW",
          "isImpacting": true,
          "overFlowSiteId": 108043
        }
      ]
    },
    {
      "id": 344834306,
      "eventId": 646814,
      "siteUnitNumber": 12582,
      "bathingSite": "SEAFORD",
      "eventStart": "2022-10-24T00:44:00",
      "eventStop": "2022-10-24T02:00:00",
      "duration": 76,
      "status": "Genuine",
      "associatedSiteId": 109957,
      "outfallName": "PORTOBELLO BRIGHTON NO2",
      "isImpacting": true,
      "overFlowSiteId": 0,
      "historicSpillsList": [
        {
          "id": 344834307,
          "eventId": 646814,
          "siteUnitNumber": 12583,
          "bathingSite": "SALTDEAN",
          "eventStart": "2022-10-24T00:44:00",
          "eventStop": "2022-10-24T02:00:00",
          "duration": 76,
          "status": "Genuine",
          "associatedSiteId": 109957,
          "outfallName": "PORTOBELLO BRIGHTON NO2",
          "isImpacting": true,
          "overFlowSiteId": 116036,
          "historicSpillsList": []
        }
      ]
    },
    {
      "id": 344837383,
      "eventId": 646851,
      "siteUnitNumber": 12591,
      "bathingSite": "LITTLEHAMPTON",
      "eventStart": "2022-10-24T00:40:20",
      "eventStop": "2022-10-24T01:47:14",
      "duration": 66,
      "status": "Not Genuine",
      "associatedSiteId": 109965,
      "outfallName": "SEA ROAD LITTLEHAMPTON",
      "isImpacting": false,
      "overFlowSiteId": 0,
      "historicSpillsList": []
    }
  ]
}