{
  "currentPage": 63,
  "totalItems": 21025,
  "totalPages": 841,
  "items": [
    {
      "id": 344736742,
      "eventId": 910240,
      "siteUnitNumber": 12618,
      "bathingSite": "RYDE",
      "eventStart": "2023-11-13T08:33:00",
      "eventStop": "2023-11-13T09:55:00",
      "duration": 82,
      "status": "Genuine",
      "associatedSiteId": 109780,
      "outfallName": "LADIES WALK BINSTEAD",
      "isImpacting": true,
      "overFlowSiteId": 0,
      "historicSpillsList": [
        {
          "id": 344736742,
          "eventId": 910240,
          "siteUnitNumber": 12618,
          "bathingSite": "RYDE",
          "eventStart": "2023-11-13T08:33:00",
          "eventStop": "2023-11-13T09:55:00",
          "duration": 82,
          "status": "Genuine",
          "associatedSiteId": 109780,
          "outfallName": "LADIES WALK BINSTEAD",
          "isImpacting": true,
          "overFlowSiteId": 107406
        }
      ]
    },
    {
      "id": 344765952,
      "eventId": 906359,
      "siteUnitNumber": 12614,
      "bathingSite": "TOTLAND BAY",
      "eventStart": "2023-11-13T09:36:46",
      "eventStop": "2023-11-13T09:53:26",
      "duration": 16,
      "status": "Genuine",
      "associatedSiteId": 115498,
      "outfallName": "NORTON TRANSFER IOW",
      "isImpacting": true,
      "overFlowSiteId": 0,
      "historicSpillsList": [
        {
          "id": 344765952,
          "eventId": 906359,
          "siteUnitNumber": 12614,
          "bathingSite": "TOTLAND BAY",
          "eventStart": "2023-11-13T09:36:46",
          "eventStop": "2023-11-13T09:53:26",
          "duration": 16,
          "status": "Genuine",
          "associatedSiteId": 115498,
          "outfallName": "NORTON TRANSFER IOW",
          "isImpacting": true,
          "overFlowSiteId": 109524
        },
        {
          "id": 344765953,
          "eventId": 906359,
          "siteUnitNumber": 12615,
          "bathingSite": "COLWELL BAY",
          "eventStart": "2023-11-13T09:36:46",
          "eventStop": "2023-11-13T09:53:26",
          "duration": 16,
          "status": "Genuine",
          "associatedSiteId": 115498,
          "outfallName": "NORTON TRANSFER IOW",
          "isImpacting": true,
          "overFlowSiteId": 109524,
          "historicSpillsList": []
        }
      ]
    },
    {
      "id": 344753382,
      "eventId": 906378,
      "siteUnitNumber": 12575,
      "bathingSite": "HASTINGS PELHAM BEACH",
      "eventStart": "2023-11-13T09:40:29",
      "eventStop": "2023-11-13T09:51:40",
      "duration": 11,
      "status": "Genuine",
      "associatedSiteId": 109982,
      "outfallName": "COOMBS HASTINGS",
      "isImpacting": true,
      "overFlowSiteId": 0,
      "historicSpillsList": [
        {
          "id": 344753383,
          "eventId": 906378,
          "siteUnitNumber": 12576,
          "bathingSite": "ST LEONARDS",
          "eventStart": "2023-11-13T09:40:29",
          "eventStop": "2023-11-13T09:51:40",
          "duration": 11,
          "status": "Genuine",
          "associatedSiteId": 109982,
          "outfallName": "COOMBS HASTINGS",
          "isImpacting": true,
          "overFlowSiteId": 110211,
          "historicSpillsList": []
        }
      ]
    },
    {
      "id": 344765954,
      "eventId": 906338,
      "siteUnitNumber": 12615,
      "bathingSite": "COLWELL BAY",
      "eventStart": "2023-11-13T09:23:01",
      "eventStop": "2023-11-13T09:33:50",
      "duration": 10,
      "status": "Genuine",
      "associatedSiteId": 115498,
      "outfallName": "NORTON TRANSFER IOW",
      "isImpacting": true,
      "overFlowSiteId": 0,
      "historicSpillsList": [
        {
          "id": 344765954,
          "eventId": 906338,
          "siteUnitNumber": 12615,
          "bathingSite": "COLWELL BAY",
          "eventStart": "2023-11-13T09:23:01",
          "eventStop": "2023-11-13T09:33:50",
          "duration": 10,
          "status": "Genuine",
          "associatedSiteId": 115498,
          "outfallName": "NORTON TRANSFER IOW",
          "isImpacting": true,
          "overFlowSiteId": 109524
        },
        {
          "id": 344765955,
          "eventId": 906338,
          "siteUnitNumber": 12614,
          "bathingSite": "TOTLAND BAY",
          "eventStart": "2023-11-13T09:23:01",
          "eventStop": "2023-11-13T09:33:50",
          "duration": 10,
          "status": "Genuine",
          "associatedSiteId": 115498,
          "outfallName": "NORTON TRANSFER IOW",
          "isImpacting": true,
          "overFlowSiteId": 109524,
          "historicSpillsList": []
        }
      ]
    },
    {
      "id": 344730554,
      "eventId": 907787,
      "siteUnitNumber": 12549,
      "bathingSite": "HERNE BAY CENTRAL",
      "eventStart": "2023-11-13T09:16:00",
      "eventStop": "2023-11-13T09:18:00",
      "duration": 2,
      "status": "Genuine",
      "associatedSiteId": 109678,
      "outfallName": "EDDINGTON LANE HERNE BAY NO2",
      "isImpacting": true,
      "overFlowSiteId": 0,
      "historicSpillsList": [
        {
          "id": 344730555,
          "eventId": 907787,
          "siteUnitNumber": 12551,
          "bathingSite": "HERNE BAY",
          "eventStart": "2023-11-13T09:16:00",
          "eventStop": "2023-11-13T09:18:00",
          "duration": 2,
          "status": "Genuine",
          "associatedSiteId": 109678,
          "outfallName": "EDDINGTON LANE HERNE BAY NO2",
          "isImpacting": true,
          "overFlowSiteId": 108093,
          "historicSpillsList": []
        }
      ]
    },
    {
      "id": 344765956,
      "eventId": 906306,
      "siteUnitNumber": 12614,
      "bathingSite": "TOTLAND BAY",
      "eventStart": "2023-11-13T08:53:42",
      "eventStop": "2023-11-13T09:17:28",
      "duration": 23,
      "status": "Genuine",
      "associatedSiteId": 115498,
      "outfallName": "NORTON TRANSFER IOW",
      "isImpacting": true,
      "overFlowSiteId": 0,
      "historicSpillsList": [
        {
          "id": 344765956,
          "eventId": 906306,
          "siteUnitNumber": 12614,
          "bathingSite": "TOTLAND BAY",
          "eventStart": "2023-11-13T08:53:42",
          "eventStop": "2023-11-13T09:17:28",
          "duration": 23,
          "status": "Genuine",
          "associatedSiteId": 115498,
          "outfallName": "NORTON TRANSFER IOW",
          "isImpacting": true,
          "overFlowSiteId": 109524
        },
        {
          "id": 344765957,
          "eventId": 906306,
          "siteUnitNumber": 12615,
          "bathingSite": "COLWELL BAY",
          "eventStart": "2023-11-13T08:53:42",
          "eventStop": "2023-11-13T09:17:28",
          "duration": 23,
          "status": "Genuine",
          "associatedSiteId": 115498,
          "outfallName": "NORTON TRANSFER IOW",
          "isImpacting": true,
          "overFlowSiteId": 109524,
          "historicSpillsList": []
        }
      ]
    },
    {
      "id": 344755175,
      "eventId": 906251,
      "siteUnitNumber": 12626,
      "bathingSite": "VENTNOR",
      "eventStart": "2023-11-13T08:03:00",
      "eventStop": "2023-11-13T09:14:00",
      "duration": 71,
      "status": "Genuine",
      "associatedSiteId": 110064,
      "outfallName": "LION POINT VENTNOR",
      "isImpacting": false,
      "overFlowSiteId": 0,
      "historicSpillsList": []
    },
    {
      "id": 344754592,
      "eventId": 909621,
      "siteUnitNumber": 12623,
      "bathingSite": "YAVERLAND",
      "eventStart": "2023-11-13T06:49:00",
      "eventStop": "2023-11-13T09:08:00",
      "duration": 139,
      "status": "Genuine",
      "associatedSiteId": 110029,
      "outfallName": "HOPE BEACH SHANKLIN NEW",
      "isImpacting": false,
      "overFlowSiteId": 0,
      "historicSpillsList": []
    },
    {
      "id": 344746166,
      "eventId": 906366,
      "siteUnitNumber": 12590,
      "bathingSite": "WORTHING",
      "eventStart": "2023-11-13T08:12:29",
      "eventStop": "2023-11-13T09:00:00",
      "duration": 47,
      "status": "Not Genuine",
      "associatedSiteId": 109912,
      "outfallName": "SEA LANE GORING",
      "isImpacting": false,
      "overFlowSiteId": 0,
      "historicSpillsList": []
    },
    {
      "id": 344765958,
      "eventId": 906280,
      "siteUnitNumber": 12614,
      "bathingSite": "TOTLAND BAY",
      "eventStart": "2023-11-13T08:35:45",
      "eventStop": "2023-11-13T08:50:42",
      "duration": 14,
      "status": "Genuine",
      "associatedSiteId": 115498,
      "outfallName": "NORTON TRANSFER IOW",
      "isImpacting": true,
      "overFlowSiteId": 0,
      "historicSpillsList": [
        {
          "id": 344765958,
          "eventId": 906280,
          "siteUnitNumber": 12614,
          "bathingSite": "TOTLAND BAY",
          "eventStart": "2023-11-13T08:35:45",
          "eventStop": "2023-11-13T08:50:42",
          "duration": 14,
          "status": "Genuine",
          "associatedSiteId": 115498,
          "outfallName": "NORTON TRANSFER IOW",
          "isImpacting": true,
          "overFlowSiteId": 109524
        },
        {
          "id": 344765959,
          "eventId": 906280,
          "siteUnitNumber": 12615,
          "bathingSite": "COLWELL BAY",
          "eventStart": "2023-11-13T08:35:45",
          "eventStop": "2023-11-13T08:50:42",
          "duration": 14,
          "status": "Genuine",
          "associatedSiteId": 115498,
          "outfallName": "NORTON TRANSFER IOW",
          "isImpacting": true,
          "overFlowSiteId": 109524,
          "historicSpillsList": []
        }
      ]
    },
    {
      "id": 344747657,
      "eventId": 906244,
      "siteUnitNumber": 12619,
      "bathingSite": "SEAGROVE",
      "eventStart": "2023-11-13T07:16:00",
      "eventStop": "2023-11-13T08:46:00",
      "duration": 90,
      "status": "Genuine",
      "associatedSiteId": 109938,
      "outfallName": "THE POINT BEMBRIDGE",
      "isImpacting": true,
      "overFlowSiteId": 0,
      "historicSpillsList": [
        {
          "id": 344747658,
          "eventId": 906244,
          "siteUnitNumber": 12620,
          "bathingSite": "ST HELENS",
          "eventStart": "2023-11-13T07:16:00",
          "eventStop": "2023-11-13T08:46:00",
          "duration": 90,
          "status": "Genuine",
          "associatedSiteId": 109938,
          "outfallName": "THE POINT BEMBRIDGE",
          "isImpacting": true,
          "overFlowSiteId": 110194,
          "historicSpillsList": []
        }
      ]
    },
    {
      "id": 344762113,
      "eventId": 906109,
      "siteUnitNumber": 12616,
      "bathingSite": "GURNARD",
      "eventStart": "2023-11-13T06:40:00",
      "eventStop": "2023-11-13T08:40:00",
      "duration": 120,
      "status": "Genuine",
      "associatedSiteId": 110701,
      "outfallName": "TERMINUS ROAD COWES 2",
      "isImpacting": true,
      "overFlowSiteId": 0,
      "historicSpillsList": [
        {
          "id": 344762113,
          "eventId": 906109,
          "siteUnitNumber": 12616,
          "bathingSite": "GURNARD",
          "eventStart": "2023-11-13T06:40:00",
          "eventStop": "2023-11-13T08:40:00",
          "duration": 120,
          "status": "Genuine",
          "associatedSiteId": 110701,
          "outfallName": "TERMINUS ROAD COWES 2",
          "isImpacting": true,
          "overFlowSiteId": 108563
        },
        {
          "id": 344762114,
          "eventId": 906109,
          "siteUnitNumber": 12617,
          "bathingSite": "COWES",
          "eventStart": "2023-11-13T06:40:00",
          "eventStop": "2023-11-13T08:40:00",
          "duration": 120,
          "status": "Genuine",
          "associatedSiteId": 110701,
          "outfallName": "TERMINUS ROAD COWES 2",
          "isImpacting": true,
          "overFlowSiteId": 108563,
          "historicSpillsList": []
        }
      ]
    },
    {
      "id": 344730556,
      "eventId": 907786,
      "siteUnitNumber": 12549,
      "bathingSite": "HERNE BAY CENTRAL",
      "eventStart": "2023-11-13T08:32:00",
      "eventStop": "2023-11-13T08:34:00",
      "duration": 2,
      "status": "Genuine",
      "associatedSiteId": 109678,
      "outfallName": "EDDINGTON LANE HERNE BAY NO2",
      "isImpacting": false,
      "overFlowSiteId": 0,
      "historicSpillsList": []
    },
    {
      "id": 344765960,
      "eventId": 906227,
      "siteUnitNumber": 12615,
      "bathingSite": "COLWELL BAY",
      "eventStart": "2023-11-13T08:19:08",
      "eventStop": "2023-11-13T08:32:08",
      "duration": 13,
      "status": "Genuine",
      "associatedSiteId": 115498,
      "outfallName": "NORTON TRANSFER IOW",
      "isImpacting": true,
      "overFlowSiteId": 0,
      "historicSpillsList": [
        {
          "id": 344765960,
          "eventId": 906227,
          "siteUnitNumber": 12615,
          "bathingSite": "COLWELL BAY",
          "eventStart": "2023-11-13T08:19:08",
          "eventStop": "2023-11-13T08:32:08",
          "duration": 13,
          "status": "Genuine",
          "associatedSiteId": 115498,
          "outfallName": "NORTON TRANSFER IOW",
          "isImpacting": true,
          "overFlowSiteId": 109524
        },
        {
          "id": 344765961,
          "eventId": 906227,
          "siteUnitNumber": 12614,
          "bathingSite": "TOTLAND BAY",
          "eventStart": "2023-11-13T08:19:08",
          "eventStop": "2023-11-13T08:32:08",
          "duration": 13,
          "status": "Genuine",
          "associatedSiteId": 115498,
          "outfallName": "NORTON TRANSFER IOW",
          "isImpacting": true,
          "overFlowSiteId": 109524,
          "historicSpillsList": []
        }
      ]
    },
    {
      "id": 344736743,
      "eventId": 910239,
      "siteUnitNumber": 12618,
      "bathingSite": "RYDE",
      "eventStart": "2023-11-13T07:31:00",
      "eventStop": "2023-11-13T08:32:00",
      "duration": 61,
      "status": "Genuine",
      "associatedSiteId": 109780,
      "outfallName": "LADIES WALK BINSTEAD",
      "isImpacting": true,
      "overFlowSiteId": 0,
      "historicSpillsList": [
        {
          "id": 344736743,
          "eventId": 910239,
          "siteUnitNumber": 12618,
          "bathingSite": "RYDE",
          "eventStart": "2023-11-13T07:31:00",
          "eventStop": "2023-11-13T08:32:00",
          "duration": 61,
          "status": "Genuine",
          "associatedSiteId": 109780,
          "outfallName": "LADIES WALK BINSTEAD",
          "isImpacting": true,
          "overFlowSiteId": 107406
        }
      ]
    },
    {
      "id": 344727338,
      "eventId": 905946,
      "siteUnitNumber": 12546,
      "bathingSite": "LEYSDOWN",
      "eventStart": "2023-11-13T05:01:00",
      "eventStop": "2023-11-13T08:31:00",
      "duration": 210,
      "status": "Genuine",
      "associatedSiteId": 109613,
      "outfallName": "BARROWS BROOK EASTCHURCH",
      "isImpacting": true,
      "overFlowSiteId": 0,
      "historicSpillsList": [
        {
          "id": 344727338,
          "eventId": 905946,
          "siteUnitNumber": 12546,
          "bathingSite": "LEYSDOWN",
          "eventStart": "2023-11-13T05:01:00",
          "eventStop": "2023-11-13T08:31:00",
          "duration": 210,
          "status": "Genuine",
          "associatedSiteId": 109613,
          "outfallName": "BARROWS BROOK EASTCHURCH",
          "isImpacting": true,
          "overFlowSiteId": 108109
        }
      ]
    },
    {
      "id": 344730367,
      "eventId": 906103,
      "siteUnitNumber": 12549,
      "bathingSite": "HERNE BAY CENTRAL",
      "eventStart": "2023-11-13T06:49:00",
      "eventStop": "2023-11-13T08:18:00",
      "duration": 89,
      "status": "Genuine",
      "associatedSiteId": 109676,
      "outfallName": "KINGS HALL HERNE BAY A",
      "isImpacting": true,
      "overFlowSiteId": 0,
      "historicSpillsList": [
        {
          "id": 344730368,
          "eventId": 906103,
          "siteUnitNumber": 12551,
          "bathingSite": "HERNE BAY",
          "eventStart": "2023-11-13T06:49:00",
          "eventStop": "2023-11-13T08:18:00",
          "duration": 89,
          "status": "Genuine",
          "associatedSiteId": 109676,
          "outfallName": "KINGS HALL HERNE BAY A",
          "isImpacting": true,
          "overFlowSiteId": 108096,
          "historicSpillsList": []
        }
      ]
    },
    {
      "id": 344765962,
      "eventId": 906222,
      "siteUnitNumber": 12614,
      "bathingSite": "TOTLAND BAY",
      "eventStart": "2023-11-13T08:06:32",
      "eventStop": "2023-11-13T08:16:11",
      "duration": 9,
      "status": "Genuine",
      "associatedSiteId": 115498,
      "outfallName": "NORTON TRANSFER IOW",
      "isImpacting": true,
      "overFlowSiteId": 0,
      "historicSpillsList": [
        {
          "id": 344765962,
          "eventId": 906222,
          "siteUnitNumber": 12614,
          "bathingSite": "TOTLAND BAY",
          "eventStart": "2023-11-13T08:06:32",
          "eventStop": "2023-11-13T08:16:11",
          "duration": 9,
          "status": "Genuine",
          "associatedSiteId": 115498,
          "outfallName": "NORTON TRANSFER IOW",
          "isImpacting": true,
          "overFlowSiteId": 109524
        },
        {
          "id": 344765963,
          "eventId": 906222,
          "siteUnitNumber": 12615,
          "bathingSite": "COLWELL BAY",
          "eventStart": "2023-11-13T08:06:32",
          "eventStop": "2023-11-13T08:16:11",
          "duration": 9,
          "status": "Genuine",
          "associatedSiteId": 115498,
          "outfallName": "NORTON TRANSFER IOW",
          "isImpacting": true,
          "overFlowSiteId": 109524,
          "historicSpillsList": []
        }
      ]
    },
    {
      "id": 344765966,
      "eventId": 906147,
      "siteUnitNumber": 12615,
      "bathingSite": "COLWELL BAY",
      "eventStart": "2023-11-13T07:16:51",
      "eventStop": "2023-11-13T08:01:55",
      "duration": 45,
      "status": "Genuine",
      "associatedSiteId": 115498,
      "outfallName": "NORTON TRANSFER IOW",
      "isImpacting": true,
      "overFlowSiteId": 0,
      "historicSpillsList": [
        {
          "id": 344765966,
          "eventId": 906147,
          "siteUnitNumber": 12615,
          "bathingSite": "COLWELL BAY",
          "eventStart": "2023-11-13T07:16:51",
          "eventStop": "2023-11-13T08:01:55",
          "duration": 45,
          "status": "Genuine",
          "associatedSiteId": 115498,
          "outfallName": "NORTON TRANSFER IOW",
          "isImpacting": true,
          "overFlowSiteId": 109524
        },
        {
          "id": 344765967,
          "eventId": 906147,
          "siteUnitNumber": 12614,
          "bathingSite": "TOTLAND BAY",
          "eventStart": "2023-11-13T07:16:51",
          "eventStop": "2023-11-13T08:01:55",
          "duration": 45,
          "status": "Genuine",
          "associatedSiteId": 115498,
          "outfallName": "NORTON TRANSFER IOW",
          "isImpacting": true,
          "overFlowSiteId": 109524,
          "historicSpillsList": []
        }
      ]
    },
    {
      "id": 344730558,
      "eventId": 907785,
      "siteUnitNumber": 12549,
      "bathingSite": "HERNE BAY CENTRAL",
      "eventStart": "2023-11-13T07:55:00",
      "eventStop": "2023-11-13T07:57:00",
      "duration": 2,
      "status": "Genuine",
      "associatedSiteId": 109678,
      "outfallName": "EDDINGTON LANE HERNE BAY NO2",
      "isImpacting": false,
      "overFlowSiteId": 0,
      "historicSpillsList": []
    },
    {
      "id": 344740224,
      "eventId": 905917,
      "siteUnitNumber": 12547,
      "bathingSite": "WEST BEACH WHITSTABLE",
      "eventStart": "2023-11-13T04:48:50",
      "eventStop": "2023-11-13T07:52:00",
      "duration": 183,
      "status": "Genuine",
      "associatedSiteId": 109832,
      "outfallName": "GORREL NO1",
      "isImpacting": true,
      "overFlowSiteId": 0,
      "historicSpillsList": [
        {
          "id": 344740224,
          "eventId": 905917,
          "siteUnitNumber": 12547,
          "bathingSite": "WEST BEACH WHITSTABLE",
          "eventStart": "2023-11-13T04:48:50",
          "eventStop": "2023-11-13T07:52:00",
          "duration": 183,
          "status": "Genuine",
          "associatedSiteId": 109832,
          "outfallName": "GORREL NO1",
          "isImpacting": true,
          "overFlowSiteId": 103279
        },
        {
          "id": 344740225,
          "eventId": 905917,
          "siteUnitNumber": 12548,
          "bathingSite": "TANKERTON",
          "eventStart": "2023-11-13T04:48:50",
          "eventStop": "2023-11-13T07:52:00",
          "duration": 183,
          "status": "Genuine",
          "associatedSiteId": 109832,
          "outfallName": "GORREL NO1",
          "isImpacting": true,
          "overFlowSiteId": 103279,
          "historicSpillsList": []
        }
      ]
    },
    {
      "id": 344736746,
      "eventId": 906137,
      "siteUnitNumber": 12618,
      "bathingSite": "RYDE",
      "eventStart": "2023-11-13T07:10:00",
      "eventStop": "2023-11-13T07:30:00",
      "duration": 20,
      "status": "Genuine",
      "associatedSiteId": 109780,
      "outfallName": "LADIES WALK BINSTEAD",
      "isImpacting": true,
      "overFlowSiteId": 0,
      "historicSpillsList": [
        {
          "id": 344736746,
          "eventId": 906137,
          "siteUnitNumber": 12618,
          "bathingSite": "RYDE",
          "eventStart": "2023-11-13T07:10:00",
          "eventStop": "2023-11-13T07:30:00",
          "duration": 20,
          "status": "Genuine",
          "associatedSiteId": 109780,
          "outfallName": "LADIES WALK BINSTEAD",
          "isImpacting": true,
          "overFlowSiteId": 107406
        }
      ]
    },
    {
      "id": 344730560,
      "eventId": 907778,
      "siteUnitNumber": 12549,
      "bathingSite": "HERNE BAY CENTRAL",
      "eventStart": "2023-11-13T07:25:00",
      "eventStop": "2023-11-13T07:27:00",
      "duration": 2,
      "status": "Genuine",
      "associatedSiteId": 109678,
      "outfallName": "EDDINGTON LANE HERNE BAY NO2",
      "isImpacting": false,
      "overFlowSiteId": 0,
      "historicSpillsList": []
    },
    {
      "id": 344765968,
      "eventId": 906141,
      "siteUnitNumber": 12614,
      "bathingSite": "TOTLAND BAY",
      "eventStart": "2023-11-13T07:07:15",
      "eventStop": "2023-11-13T07:13:45",
      "duration": 6,
      "status": "Genuine",
      "associatedSiteId": 115498,
      "outfallName": "NORTON TRANSFER IOW",
      "isImpacting": true,
      "overFlowSiteId": 0,
      "historicSpillsList": [
        {
          "id": 344765968,
          "eventId": 906141,
          "siteUnitNumber": 12614,
          "bathingSite": "TOTLAND BAY",
          "eventStart": "2023-11-13T07:07:15",
          "eventStop": "2023-11-13T07:13:45",
          "duration": 6,
          "status": "Genuine",
          "associatedSiteId": 115498,
          "outfallName": "NORTON TRANSFER IOW",
          "isImpacting": true,
          "overFlowSiteId": 109524
        },
        {
          "id": 344765969,
          "eventId": 906141,
          "siteUnitNumber": 12615,
          "bathingSite": "COLWELL BAY",
          "eventStart": "2023-11-13T07:07:15",
          "eventStop": "2023-11-13T07:13:45",
          "duration": 6,
          "status": "Genuine",
          "associatedSiteId": 115498,
          "outfallName": "NORTON TRANSFER IOW",
          "isImpacting": true,
          "overFlowSiteId": 109524,
          "historicSpillsList": []
        }
      ]
    },
    {
      "id": 344765970,
      "eventId": 906116,
      "siteUnitNumber": 12614,
      "bathingSite": "TOTLAND BAY",
      "eventStart": "2023-11-13T06:47:53",
      "eventStop": "2023-11-13T07:04:03",
      "duration": 16,
      "status": "Genuine",
      "associatedSiteId": 115498,
      "outfallName": "NORTON TRANSFER IOW",
      "isImpacting": true,
      "overFlowSiteId": 0,
      "historicSpillsList": [
        {
          "id": 344765970,
          "eventId": 906116,
          "siteUnitNumber": 12614,
          "bathingSite": "TOTLAND BAY",
          "eventStart": "2023-11-13T06:47:53",
          "eventStop": "2023-11-13T07:04:03",
          "duration": 16,
          "status": "Genuine",
          "associatedSiteId": 115498,
          "outfallName": "NORTON TRANSFER IOW",
          "isImpacting": true,
          "overFlowSiteId": 109524
        },
        {
          "id": 344765971,
          "eventId": 906116,
          "siteUnitNumber": 12615,
          "bathingSite": "COLWELL BAY",
          "eventStart": "2023-11-13T06:47:53",
          "eventStop": "2023-11-13T07:04:03",
          "duration": 16,
          "status": "Genuine",
          "associatedSiteId": 115498,
          "outfallName": "NORTON TRANSFER IOW",
          "isImpacting": true,
          "overFlowSiteId": 109524,
          "historicSpillsList": []
        }
      ]
    }
  ]
}