{
  "currentPage": 430,
  "totalItems": 18701,
  "totalPages": 749,
  "items": [
    {
      "id": 343973798,
      "eventId": 671255,
      "siteUnitNumber": 12547,
      "bathingSite": "WEST BEACH WHITSTABLE",
      "eventStart": "2022-11-17T00:59:56",
      "eventStop": "2022-11-17T03:50:39",
      "duration": 170,
      "status": "Genuine",
      "associatedSiteId": 109833,
      "outfallName": "GRASMERE ROAD CHESTFIELD",
      "isImpacting": true,
      "overFlowSiteId": 0,
      "historicSpillsList": [
        {
          "id": 343973798,
          "eventId": 671255,
          "siteUnitNumber": 12547,
          "bathingSite": "WEST BEACH WHITSTABLE",
          "eventStart": "2022-11-17T00:59:56",
          "eventStop": "2022-11-17T03:50:39",
          "duration": 170,
          "status": "Genuine",
          "associatedSiteId": 109833,
          "outfallName": "GRASMERE ROAD CHESTFIELD",
          "isImpacting": true,
          "overFlowSiteId": 108605
        },
        {
          "id": 343973799,
          "eventId": 671255,
          "siteUnitNumber": 12548,
          "bathingSite": "TANKERTON",
          "eventStart": "2022-11-17T00:59:56",
          "eventStop": "2022-11-17T03:50:39",
          "duration": 170,
          "status": "Genuine",
          "associatedSiteId": 109833,
          "outfallName": "GRASMERE ROAD CHESTFIELD",
          "isImpacting": true,
          "overFlowSiteId": 108605,
          "historicSpillsList": []
        }
      ]
    },
    {
      "id": 343964322,
      "eventId": 671473,
      "siteUnitNumber": 12564,
      "bathingSite": "RAMSGATE WESTERN UNDERCLIFFE",
      "eventStart": "2022-11-17T02:00:31",
      "eventStop": "2022-11-17T03:44:00",
      "duration": 103,
      "status": "Genuine",
      "associatedSiteId": 109687,
      "outfallName": "FOADS LANE RAMSGATE",
      "isImpacting": true,
      "overFlowSiteId": 0,
      "historicSpillsList": [
        {
          "id": 343964322,
          "eventId": 671473,
          "siteUnitNumber": 12564,
          "bathingSite": "RAMSGATE WESTERN UNDERCLIFFE",
          "eventStart": "2022-11-17T02:00:31",
          "eventStop": "2022-11-17T03:44:00",
          "duration": 103,
          "status": "Genuine",
          "associatedSiteId": 109687,
          "outfallName": "FOADS LANE RAMSGATE",
          "isImpacting": true,
          "overFlowSiteId": 108911
        }
      ]
    },
    {
      "id": 343979665,
      "eventId": 670917,
      "siteUnitNumber": 12589,
      "bathingSite": "LANCING BEACH GREEN",
      "eventStart": "2022-11-17T00:49:00",
      "eventStop": "2022-11-17T03:39:00",
      "duration": 170,
      "status": "Genuine",
      "associatedSiteId": 109915,
      "outfallName": "EAST WORTHING NO2",
      "isImpacting": true,
      "overFlowSiteId": 0,
      "historicSpillsList": [
        {
          "id": 343979665,
          "eventId": 670917,
          "siteUnitNumber": 12589,
          "bathingSite": "LANCING BEACH GREEN",
          "eventStart": "2022-11-17T00:49:00",
          "eventStop": "2022-11-17T03:39:00",
          "duration": 170,
          "status": "Genuine",
          "associatedSiteId": 109915,
          "outfallName": "EAST WORTHING NO2",
          "isImpacting": true,
          "overFlowSiteId": 115406
        },
        {
          "id": 343979666,
          "eventId": 670917,
          "siteUnitNumber": 12590,
          "bathingSite": "WORTHING",
          "eventStart": "2022-11-17T00:49:00",
          "eventStop": "2022-11-17T03:39:00",
          "duration": 170,
          "status": "Genuine",
          "associatedSiteId": 109915,
          "outfallName": "EAST WORTHING NO2",
          "isImpacting": true,
          "overFlowSiteId": 115406,
          "historicSpillsList": []
        }
      ]
    },
    {
      "id": 343970369,
      "eventId": 670049,
      "siteUnitNumber": 12618,
      "bathingSite": "RYDE",
      "eventStart": "2022-11-16T18:25:00",
      "eventStop": "2022-11-17T03:38:00",
      "duration": 553,
      "status": "Genuine",
      "associatedSiteId": 109785,
      "outfallName": "SIMEON STREET RYDE",
      "isImpacting": true,
      "overFlowSiteId": 0,
      "historicSpillsList": [
        {
          "id": 343970369,
          "eventId": 670049,
          "siteUnitNumber": 12618,
          "bathingSite": "RYDE",
          "eventStart": "2022-11-16T18:25:00",
          "eventStop": "2022-11-17T03:38:00",
          "duration": 553,
          "status": "Genuine",
          "associatedSiteId": 109785,
          "outfallName": "SIMEON STREET RYDE",
          "isImpacting": true,
          "overFlowSiteId": 100129
        }
      ]
    },
    {
      "id": 343980291,
      "eventId": 673072,
      "siteUnitNumber": 12586,
      "bathingSite": "HOVE",
      "eventStart": "2022-11-16T23:45:00",
      "eventStop": "2022-11-17T03:37:00",
      "duration": 232,
      "status": "Genuine",
      "associatedSiteId": 109929,
      "outfallName": "SHOREHAM NO1",
      "isImpacting": true,
      "overFlowSiteId": 0,
      "historicSpillsList": [
        {
          "id": 343980291,
          "eventId": 673072,
          "siteUnitNumber": 12586,
          "bathingSite": "HOVE",
          "eventStart": "2022-11-16T23:45:00",
          "eventStop": "2022-11-17T03:37:00",
          "duration": 232,
          "status": "Genuine",
          "associatedSiteId": 109929,
          "outfallName": "SHOREHAM NO1",
          "isImpacting": true,
          "overFlowSiteId": 115434
        },
        {
          "id": 343980292,
          "eventId": 673072,
          "siteUnitNumber": 12587,
          "bathingSite": "SOUTHWICK",
          "eventStart": "2022-11-16T23:45:00",
          "eventStop": "2022-11-17T03:37:00",
          "duration": 232,
          "status": "Genuine",
          "associatedSiteId": 109929,
          "outfallName": "SHOREHAM NO1",
          "isImpacting": true,
          "overFlowSiteId": 115434,
          "historicSpillsList": []
        },
        {
          "id": 343980293,
          "eventId": 673072,
          "siteUnitNumber": 12588,
          "bathingSite": "SHOREHAM BEACH",
          "eventStart": "2022-11-16T23:45:00",
          "eventStop": "2022-11-17T03:37:00",
          "duration": 232,
          "status": "Genuine",
          "associatedSiteId": 109929,
          "outfallName": "SHOREHAM NO1",
          "isImpacting": true,
          "overFlowSiteId": 115434,
          "historicSpillsList": []
        }
      ]
    },
    {
      "id": 343986705,
      "eventId": 670890,
      "siteUnitNumber": 12575,
      "bathingSite": "HASTINGS PELHAM BEACH",
      "eventStart": "2022-11-16T22:55:59",
      "eventStop": "2022-11-17T03:30:00",
      "duration": 274,
      "status": "Genuine",
      "associatedSiteId": 109981,
      "outfallName": "ROCK A NORE HASTINGS",
      "isImpacting": false,
      "overFlowSiteId": 0,
      "historicSpillsList": []
    },
    {
      "id": 344002771,
      "eventId": 688143,
      "siteUnitNumber": 12577,
      "bathingSite": "BEXHILL",
      "eventStart": "2022-11-17T02:01:00",
      "eventStop": "2022-11-17T03:25:00",
      "duration": 84,
      "status": "Genuine",
      "associatedSiteId": 115504,
      "outfallName": "HARTFIELD ROAD BEXHILL",
      "isImpacting": false,
      "overFlowSiteId": 0,
      "historicSpillsList": []
    },
    {
      "id": 343967119,
      "eventId": 674791,
      "siteUnitNumber": 12606,
      "bathingSite": "LEE-ON-SOLENT",
      "eventStart": "2022-11-17T01:47:00",
      "eventStop": "2022-11-17T03:12:00",
      "duration": 85,
      "status": "Genuine",
      "associatedSiteId": 109717,
      "outfallName": "NEWGATE LANE PEEL COMMON",
      "isImpacting": false,
      "overFlowSiteId": 0,
      "historicSpillsList": []
    },
    {
      "id": 343968260,
      "eventId": 669991,
      "siteUnitNumber": 12661,
      "bathingSite": "LANGSTONE HARBOUR",
      "eventStart": "2022-11-16T18:02:25",
      "eventStop": "2022-11-17T03:09:19",
      "duration": 546,
      "status": "Genuine",
      "associatedSiteId": 109772,
      "outfallName": "BUDDS FARM HAVANT NO1",
      "isImpacting": true,
      "overFlowSiteId": 0,
      "historicSpillsList": [
        {
          "id": 343968260,
          "eventId": 669991,
          "siteUnitNumber": 12661,
          "bathingSite": "LANGSTONE HARBOUR",
          "eventStart": "2022-11-16T18:02:25",
          "eventStop": "2022-11-17T03:09:19",
          "duration": 546,
          "status": "Genuine",
          "associatedSiteId": 109772,
          "outfallName": "BUDDS FARM HAVANT NO1",
          "isImpacting": true,
          "overFlowSiteId": 116073
        }
      ]
    },
    {
      "id": 343968519,
      "eventId": 667462,
      "siteUnitNumber": 12661,
      "bathingSite": "LANGSTONE HARBOUR",
      "eventStart": "2022-11-16T17:45:00",
      "eventStop": "2022-11-17T03:08:00",
      "duration": 563,
      "status": "Genuine",
      "associatedSiteId": 109773,
      "outfallName": "BUDDS FARM HAVANT NO2",
      "isImpacting": true,
      "overFlowSiteId": 0,
      "historicSpillsList": [
        {
          "id": 343968519,
          "eventId": 667462,
          "siteUnitNumber": 12661,
          "bathingSite": "LANGSTONE HARBOUR",
          "eventStart": "2022-11-16T17:45:00",
          "eventStop": "2022-11-17T03:08:00",
          "duration": 563,
          "status": "Genuine",
          "associatedSiteId": 109773,
          "outfallName": "BUDDS FARM HAVANT NO2",
          "isImpacting": true,
          "overFlowSiteId": 116279
        }
      ]
    },
    {
      "id": 343970578,
      "eventId": 669832,
      "siteUnitNumber": 12618,
      "bathingSite": "RYDE",
      "eventStart": "2022-11-16T16:46:54",
      "eventStop": "2022-11-17T03:05:40",
      "duration": 618,
      "status": "Genuine",
      "associatedSiteId": 109787,
      "outfallName": "SALTERNS ROAD SEAVIEW",
      "isImpacting": true,
      "overFlowSiteId": 0,
      "historicSpillsList": [
        {
          "id": 343970578,
          "eventId": 669832,
          "siteUnitNumber": 12618,
          "bathingSite": "RYDE",
          "eventStart": "2022-11-16T16:46:54",
          "eventStop": "2022-11-17T03:05:40",
          "duration": 618,
          "status": "Genuine",
          "associatedSiteId": 109787,
          "outfallName": "SALTERNS ROAD SEAVIEW",
          "isImpacting": true,
          "overFlowSiteId": 107411
        },
        {
          "id": 343970579,
          "eventId": 669832,
          "siteUnitNumber": 12619,
          "bathingSite": "SEAGROVE",
          "eventStart": "2022-11-16T16:46:54",
          "eventStop": "2022-11-17T03:05:40",
          "duration": 618,
          "status": "Genuine",
          "associatedSiteId": 109787,
          "outfallName": "SALTERNS ROAD SEAVIEW",
          "isImpacting": true,
          "overFlowSiteId": 107411,
          "historicSpillsList": []
        },
        {
          "id": 343970580,
          "eventId": 669832,
          "siteUnitNumber": 12620,
          "bathingSite": "ST HELENS",
          "eventStart": "2022-11-16T16:46:54",
          "eventStop": "2022-11-17T03:05:40",
          "duration": 618,
          "status": "Genuine",
          "associatedSiteId": 109787,
          "outfallName": "SALTERNS ROAD SEAVIEW",
          "isImpacting": true,
          "overFlowSiteId": 107411,
          "historicSpillsList": []
        }
      ]
    },
    {
      "id": 343979651,
      "eventId": 755796,
      "siteUnitNumber": 12590,
      "bathingSite": "WORTHING",
      "eventStart": "2022-11-17T02:44:28",
      "eventStop": "2022-11-17T03:00:21",
      "duration": 15,
      "status": "Genuine",
      "associatedSiteId": 109912,
      "outfallName": "SEA LANE GORING",
      "isImpacting": false,
      "overFlowSiteId": 0,
      "historicSpillsList": []
    },
    {
      "id": 343997886,
      "eventId": 671215,
      "siteUnitNumber": 12549,
      "bathingSite": "HERNE BAY CENTRAL",
      "eventStart": "2022-11-17T00:48:00",
      "eventStop": "2022-11-17T03:00:00",
      "duration": 132,
      "status": "Genuine",
      "associatedSiteId": 111724,
      "outfallName": "GAINSBOROUGH DRIVE HERNE BAY",
      "isImpacting": true,
      "overFlowSiteId": 0,
      "historicSpillsList": [
        {
          "id": 343997886,
          "eventId": 671215,
          "siteUnitNumber": 12549,
          "bathingSite": "HERNE BAY CENTRAL",
          "eventStart": "2022-11-17T00:48:00",
          "eventStop": "2022-11-17T03:00:00",
          "duration": 132,
          "status": "Genuine",
          "associatedSiteId": 111724,
          "outfallName": "GAINSBOROUGH DRIVE HERNE BAY",
          "isImpacting": true,
          "overFlowSiteId": 111725
        },
        {
          "id": 343997887,
          "eventId": 671215,
          "siteUnitNumber": 12551,
          "bathingSite": "HERNE BAY",
          "eventStart": "2022-11-17T00:48:00",
          "eventStop": "2022-11-17T03:00:00",
          "duration": 132,
          "status": "Genuine",
          "associatedSiteId": 111724,
          "outfallName": "GAINSBOROUGH DRIVE HERNE BAY",
          "isImpacting": true,
          "overFlowSiteId": 111725,
          "historicSpillsList": []
        }
      ]
    },
    {
      "id": 343979356,
      "eventId": 670754,
      "siteUnitNumber": 12571,
      "bathingSite": "ST MARYS BAY (KENT)",
      "eventStart": "2022-11-16T21:56:09",
      "eventStop": "2022-11-17T03:00:00",
      "duration": 303,
      "status": "Genuine",
      "associatedSiteId": 109907,
      "outfallName": "QUEENS ROAD NEW ROMNEY",
      "isImpacting": true,
      "overFlowSiteId": 0,
      "historicSpillsList": [
        {
          "id": 343979357,
          "eventId": 670754,
          "siteUnitNumber": 12572,
          "bathingSite": "LITTLESTONE",
          "eventStart": "2022-11-16T21:56:09",
          "eventStop": "2022-11-17T03:00:00",
          "duration": 303,
          "status": "Genuine",
          "associatedSiteId": 109907,
          "outfallName": "QUEENS ROAD NEW ROMNEY",
          "isImpacting": true,
          "overFlowSiteId": 108711,
          "historicSpillsList": []
        }
      ]
    },
    {
      "id": 343960654,
      "eventId": 670010,
      "siteUnitNumber": 12618,
      "bathingSite": "RYDE",
      "eventStart": "2022-11-16T17:15:00",
      "eventStop": "2022-11-17T03:00:00",
      "duration": 585,
      "status": "Genuine",
      "associatedSiteId": 102971,
      "outfallName": "SPRING VALE",
      "isImpacting": false,
      "overFlowSiteId": 0,
      "historicSpillsList": []
    },
    {
      "id": 343974717,
      "eventId": 670552,
      "siteUnitNumber": 12579,
      "bathingSite": "PEVENSEY BAY",
      "eventStart": "2022-11-16T18:55:00",
      "eventStop": "2022-11-17T02:55:00",
      "duration": 480,
      "status": "Genuine",
      "associatedSiteId": 109891,
      "outfallName": "MONTAGUE WAY WESTHAM",
      "isImpacting": true,
      "overFlowSiteId": 0,
      "historicSpillsList": [
        {
          "id": 343974717,
          "eventId": 670552,
          "siteUnitNumber": 12579,
          "bathingSite": "PEVENSEY BAY",
          "eventStart": "2022-11-16T18:55:00",
          "eventStop": "2022-11-17T02:55:00",
          "duration": 480,
          "status": "Genuine",
          "associatedSiteId": 109891,
          "outfallName": "MONTAGUE WAY WESTHAM",
          "isImpacting": true,
          "overFlowSiteId": 108314
        }
      ]
    },
    {
      "id": 343975768,
      "eventId": 671441,
      "siteUnitNumber": 12568,
      "bathingSite": "SANDGATE",
      "eventStart": "2022-11-17T02:33:26",
      "eventStop": "2022-11-17T02:40:41",
      "duration": 7,
      "status": "Genuine",
      "associatedSiteId": 109896,
      "outfallName": "RANGE ROAD HYTHE K SHORT",
      "isImpacting": true,
      "overFlowSiteId": 0,
      "historicSpillsList": [
        {
          "id": 343975769,
          "eventId": 671441,
          "siteUnitNumber": 12569,
          "bathingSite": "HYTHE",
          "eventStart": "2022-11-17T02:33:26",
          "eventStop": "2022-11-17T02:40:41",
          "duration": 7,
          "status": "Genuine",
          "associatedSiteId": 109896,
          "outfallName": "RANGE ROAD HYTHE K SHORT",
          "isImpacting": true,
          "overFlowSiteId": 116112,
          "historicSpillsList": []
        }
      ]
    },
    {
      "id": 343963607,
      "eventId": 671272,
      "siteUnitNumber": 12556,
      "bathingSite": "MARGATE THE BAY",
      "eventStart": "2022-11-17T01:31:00",
      "eventStop": "2022-11-17T02:35:00",
      "duration": 64,
      "status": "Genuine",
      "associatedSiteId": 109673,
      "outfallName": "MARGATE NO1",
      "isImpacting": true,
      "overFlowSiteId": 0,
      "historicSpillsList": [
        {
          "id": 343963607,
          "eventId": 671272,
          "siteUnitNumber": 12556,
          "bathingSite": "MARGATE THE BAY",
          "eventStart": "2022-11-17T01:31:00",
          "eventStop": "2022-11-17T02:35:00",
          "duration": 64,
          "status": "Genuine",
          "associatedSiteId": 109673,
          "outfallName": "MARGATE NO1",
          "isImpacting": true,
          "overFlowSiteId": 116101
        },
        {
          "id": 343963608,
          "eventId": 671272,
          "siteUnitNumber": 12557,
          "bathingSite": "MARGATE FULSAM ROCK",
          "eventStart": "2022-11-17T01:31:00",
          "eventStop": "2022-11-17T02:35:00",
          "duration": 64,
          "status": "Genuine",
          "associatedSiteId": 109673,
          "outfallName": "MARGATE NO1",
          "isImpacting": true,
          "overFlowSiteId": 116101,
          "historicSpillsList": []
        },
        {
          "id": 343963609,
          "eventId": 671272,
          "siteUnitNumber": 12558,
          "bathingSite": "WALPOLE BAY MARGATE",
          "eventStart": "2022-11-17T01:31:00",
          "eventStop": "2022-11-17T02:35:00",
          "duration": 64,
          "status": "Genuine",
          "associatedSiteId": 109673,
          "outfallName": "MARGATE NO1",
          "isImpacting": true,
          "overFlowSiteId": 116101,
          "historicSpillsList": []
        },
        {
          "id": 343963610,
          "eventId": 671272,
          "siteUnitNumber": 12559,
          "bathingSite": "BOTANY BAY BROADSTAIRS",
          "eventStart": "2022-11-17T01:31:00",
          "eventStop": "2022-11-17T02:35:00",
          "duration": 64,
          "status": "Genuine",
          "associatedSiteId": 109673,
          "outfallName": "MARGATE NO1",
          "isImpacting": true,
          "overFlowSiteId": 116101,
          "historicSpillsList": []
        },
        {
          "id": 343963611,
          "eventId": 671272,
          "siteUnitNumber": 12560,
          "bathingSite": "JOSS BAY BROADSTAIRS",
          "eventStart": "2022-11-17T01:31:00",
          "eventStop": "2022-11-17T02:35:00",
          "duration": 64,
          "status": "Genuine",
          "associatedSiteId": 109673,
          "outfallName": "MARGATE NO1",
          "isImpacting": true,
          "overFlowSiteId": 116101,
          "historicSpillsList": []
        },
        {
          "id": 343963612,
          "eventId": 671272,
          "siteUnitNumber": 12561,
          "bathingSite": "BROADSTAIRS STONE BAY",
          "eventStart": "2022-11-17T01:31:00",
          "eventStop": "2022-11-17T02:35:00",
          "duration": 64,
          "status": "Genuine",
          "associatedSiteId": 109673,
          "outfallName": "MARGATE NO1",
          "isImpacting": true,
          "overFlowSiteId": 116101,
          "historicSpillsList": []
        }
      ]
    },
    {
      "id": 343960657,
      "eventId": 670003,
      "siteUnitNumber": 12618,
      "bathingSite": "RYDE",
      "eventStart": "2022-11-16T16:21:31",
      "eventStop": "2022-11-17T02:30:00",
      "duration": 608,
      "status": "Genuine",
      "associatedSiteId": 102971,
      "outfallName": "SPRING VALE",
      "isImpacting": false,
      "overFlowSiteId": 0,
      "historicSpillsList": []
    },
    {
      "id": 343981149,
      "eventId": 669730,
      "siteUnitNumber": 12619,
      "bathingSite": "SEAGROVE",
      "eventStart": "2022-11-16T16:09:59",
      "eventStop": "2022-11-17T02:29:00",
      "duration": 619,
      "status": "Genuine",
      "associatedSiteId": 109938,
      "outfallName": "THE POINT BEMBRIDGE",
      "isImpacting": true,
      "overFlowSiteId": 0,
      "historicSpillsList": [
        {
          "id": 343981150,
          "eventId": 669730,
          "siteUnitNumber": 12620,
          "bathingSite": "ST HELENS",
          "eventStart": "2022-11-16T16:09:59",
          "eventStop": "2022-11-17T02:29:00",
          "duration": 619,
          "status": "Genuine",
          "associatedSiteId": 109938,
          "outfallName": "THE POINT BEMBRIDGE",
          "isImpacting": true,
          "overFlowSiteId": 110194,
          "historicSpillsList": []
        }
      ]
    },
    {
      "id": 343970953,
      "eventId": 671069,
      "siteUnitNumber": 12567,
      "bathingSite": "FOLKESTONE",
      "eventStart": "2022-11-16T23:53:40",
      "eventStop": "2022-11-17T02:22:46",
      "duration": 149,
      "status": "Genuine",
      "associatedSiteId": 109794,
      "outfallName": "GRANVILLE PARADE SANDGATE",
      "isImpacting": false,
      "overFlowSiteId": 0,
      "historicSpillsList": []
    },
    {
      "id": 343995383,
      "eventId": 671576,
      "siteUnitNumber": 12559,
      "bathingSite": "BOTANY BAY BROADSTAIRS",
      "eventStart": "2022-11-17T01:31:25",
      "eventStop": "2022-11-17T02:13:43",
      "duration": 42,
      "status": "Genuine",
      "associatedSiteId": 110673,
      "outfallName": "BROADSTAIRS SSO 1",
      "isImpacting": true,
      "overFlowSiteId": 0,
      "historicSpillsList": [
        {
          "id": 343995383,
          "eventId": 671576,
          "siteUnitNumber": 12559,
          "bathingSite": "BOTANY BAY BROADSTAIRS",
          "eventStart": "2022-11-17T01:31:25",
          "eventStop": "2022-11-17T02:13:43",
          "duration": 42,
          "status": "Genuine",
          "associatedSiteId": 110673,
          "outfallName": "BROADSTAIRS SSO 1",
          "isImpacting": true,
          "overFlowSiteId": 116106
        },
        {
          "id": 343995384,
          "eventId": 671576,
          "siteUnitNumber": 12560,
          "bathingSite": "JOSS BAY BROADSTAIRS",
          "eventStart": "2022-11-17T01:31:25",
          "eventStop": "2022-11-17T02:13:43",
          "duration": 42,
          "status": "Genuine",
          "associatedSiteId": 110673,
          "outfallName": "BROADSTAIRS SSO 1",
          "isImpacting": true,
          "overFlowSiteId": 116106,
          "historicSpillsList": []
        },
        {
          "id": 343995385,
          "eventId": 671576,
          "siteUnitNumber": 12561,
          "bathingSite": "BROADSTAIRS STONE BAY",
          "eventStart": "2022-11-17T01:31:25",
          "eventStop": "2022-11-17T02:13:43",
          "duration": 42,
          "status": "Genuine",
          "associatedSiteId": 110673,
          "outfallName": "BROADSTAIRS SSO 1",
          "isImpacting": true,
          "overFlowSiteId": 116106,
          "historicSpillsList": []
        },
        {
          "id": 343995386,
          "eventId": 671576,
          "siteUnitNumber": 12562,
          "bathingSite": "BROADSTAIRS VIKING BAY",
          "eventStart": "2022-11-17T01:31:25",
          "eventStop": "2022-11-17T02:13:43",
          "duration": 42,
          "status": "Genuine",
          "associatedSiteId": 110673,
          "outfallName": "BROADSTAIRS SSO 1",
          "isImpacting": true,
          "overFlowSiteId": 116106,
          "historicSpillsList": []
        }
      ]
    },
    {
      "id": 343964229,
      "eventId": 671188,
      "siteUnitNumber": 12564,
      "bathingSite": "RAMSGATE WESTERN UNDERCLIFFE",
      "eventStart": "2022-11-17T00:44:09",
      "eventStop": "2022-11-17T02:07:00",
      "duration": 82,
      "status": "Genuine",
      "associatedSiteId": 109685,
      "outfallName": "MILITARY ROAD RAMSGATE NO1",
      "isImpacting": true,
      "overFlowSiteId": 0,
      "historicSpillsList": [
        {
          "id": 343964229,
          "eventId": 671188,
          "siteUnitNumber": 12564,
          "bathingSite": "RAMSGATE WESTERN UNDERCLIFFE",
          "eventStart": "2022-11-17T00:44:09",
          "eventStop": "2022-11-17T02:07:00",
          "duration": 82,
          "status": "Genuine",
          "associatedSiteId": 109685,
          "outfallName": "MILITARY ROAD RAMSGATE NO1",
          "isImpacting": true,
          "overFlowSiteId": 109384
        },
        {
          "id": 343964232,
          "eventId": 671188,
          "siteUnitNumber": 12562,
          "bathingSite": "BROADSTAIRS VIKING BAY",
          "eventStart": "2022-11-17T00:44:09",
          "eventStop": "2022-11-17T02:07:00",
          "duration": 82,
          "status": "Genuine",
          "associatedSiteId": 109685,
          "outfallName": "MILITARY ROAD RAMSGATE NO1",
          "isImpacting": true,
          "overFlowSiteId": 109384,
          "historicSpillsList": []
        },
        {
          "id": 343964233,
          "eventId": 671188,
          "siteUnitNumber": 12563,
          "bathingSite": "RAMSGATE SANDS",
          "eventStart": "2022-11-17T00:44:09",
          "eventStop": "2022-11-17T02:07:00",
          "duration": 82,
          "status": "Genuine",
          "associatedSiteId": 109685,
          "outfallName": "MILITARY ROAD RAMSGATE NO1",
          "isImpacting": true,
          "overFlowSiteId": 109384,
          "historicSpillsList": []
        }
      ]
    },
    {
      "id": 343988493,
      "eventId": 671212,
      "siteUnitNumber": 12582,
      "bathingSite": "SEAFORD",
      "eventStart": "2022-11-16T22:59:00",
      "eventStop": "2022-11-17T02:03:00",
      "duration": 184,
      "status": "Genuine",
      "associatedSiteId": 110043,
      "outfallName": "WEST PIER NEWHAVEN",
      "isImpacting": true,
      "overFlowSiteId": 0,
      "historicSpillsList": [
        {
          "id": 343988493,
          "eventId": 671212,
          "siteUnitNumber": 12582,
          "bathingSite": "SEAFORD",
          "eventStart": "2022-11-16T22:59:00",
          "eventStop": "2022-11-17T02:03:00",
          "duration": 184,
          "status": "Genuine",
          "associatedSiteId": 110043,
          "outfallName": "WEST PIER NEWHAVEN",
          "isImpacting": true,
          "overFlowSiteId": 115953
        }
      ]
    },
    {
      "id": 343979656,
      "eventId": 755792,
      "siteUnitNumber": 12590,
      "bathingSite": "WORTHING",
      "eventStart": "2022-11-16T22:16:54",
      "eventStop": "2022-11-17T02:00:03",
      "duration": 223,
      "status": "Genuine",
      "associatedSiteId": 109912,
      "outfallName": "SEA LANE GORING",
      "isImpacting": false,
      "overFlowSiteId": 0,
      "historicSpillsList": []
    }
  ]
}