{
  "currentPage": 172,
  "totalItems": 21025,
  "totalPages": 841,
  "items": [
    {
      "id": 344806222,
      "eventId": 879986,
      "siteUnitNumber": 12582,
      "bathingSite": "SEAFORD",
      "eventStart": "2023-10-26T04:20:02",
      "eventStop": "2023-10-26T04:44:40",
      "duration": 24,
      "status": "Genuine",
      "associatedSiteId": 110920,
      "outfallName": "NEWHAVEN",
      "isImpacting": false,
      "overFlowSiteId": 0,
      "historicSpillsList": []
    },
    {
      "id": 344783249,
      "eventId": 879956,
      "siteUnitNumber": 12662,
      "bathingSite": "CHICHESTER HARBOUR",
      "eventStart": "2023-10-26T02:59:34",
      "eventStop": "2023-10-26T03:15:00",
      "duration": 15,
      "status": "Not Genuine",
      "associatedSiteId": 109836,
      "outfallName": "CHICHESTER",
      "isImpacting": true,
      "overFlowSiteId": 0,
      "historicSpillsList": []
    },
    {
      "id": 344804747,
      "eventId": 879936,
      "siteUnitNumber": 12616,
      "bathingSite": "GURNARD",
      "eventStart": "2023-10-26T02:21:00",
      "eventStop": "2023-10-26T02:31:00",
      "duration": 10,
      "status": "Genuine",
      "associatedSiteId": 110701,
      "outfallName": "TERMINUS ROAD COWES 2",
      "isImpacting": true,
      "overFlowSiteId": 0,
      "historicSpillsList": [
        {
          "id": 344804747,
          "eventId": 879936,
          "siteUnitNumber": 12616,
          "bathingSite": "GURNARD",
          "eventStart": "2023-10-26T02:21:00",
          "eventStop": "2023-10-26T02:31:00",
          "duration": 10,
          "status": "Genuine",
          "associatedSiteId": 110701,
          "outfallName": "TERMINUS ROAD COWES 2",
          "isImpacting": true,
          "overFlowSiteId": 108562
        },
        {
          "id": 344804748,
          "eventId": 879936,
          "siteUnitNumber": 12617,
          "bathingSite": "COWES",
          "eventStart": "2023-10-26T02:21:00",
          "eventStop": "2023-10-26T02:31:00",
          "duration": 10,
          "status": "Genuine",
          "associatedSiteId": 110701,
          "outfallName": "TERMINUS ROAD COWES 2",
          "isImpacting": true,
          "overFlowSiteId": 108562,
          "historicSpillsList": []
        }
      ]
    },
    {
      "id": 344783248,
      "eventId": 878702,
      "siteUnitNumber": 12662,
      "bathingSite": "CHICHESTER HARBOUR",
      "eventStart": "2023-10-25T03:54:00",
      "eventStop": "2023-10-25T23:22:00",
      "duration": 1168,
      "status": "Genuine",
      "associatedSiteId": 109836,
      "outfallName": "CHICHESTER",
      "isImpacting": true,
      "overFlowSiteId": 0,
      "historicSpillsList": [
        {
          "id": 344783248,
          "eventId": 878702,
          "siteUnitNumber": 12662,
          "bathingSite": "CHICHESTER HARBOUR",
          "eventStart": "2023-10-25T03:54:00",
          "eventStop": "2023-10-25T23:22:00",
          "duration": 1168,
          "status": "Genuine",
          "associatedSiteId": 109836,
          "outfallName": "CHICHESTER",
          "isImpacting": true,
          "overFlowSiteId": 115401
        }
      ]
    },
    {
      "id": 344812225,
      "eventId": 878724,
      "siteUnitNumber": 12662,
      "bathingSite": "CHICHESTER HARBOUR",
      "eventStart": "2023-10-25T03:34:15",
      "eventStop": "2023-10-25T22:24:00",
      "duration": 1129,
      "status": "Genuine",
      "associatedSiteId": 116108,
      "outfallName": "TAYLORS LANE BOSHAM PS PUMPED",
      "isImpacting": true,
      "overFlowSiteId": 0,
      "historicSpillsList": [
        {
          "id": 344812225,
          "eventId": 878724,
          "siteUnitNumber": 12662,
          "bathingSite": "CHICHESTER HARBOUR",
          "eventStart": "2023-10-25T03:34:15",
          "eventStop": "2023-10-25T22:24:00",
          "duration": 1129,
          "status": "Genuine",
          "associatedSiteId": 116108,
          "outfallName": "TAYLORS LANE BOSHAM PS PUMPED",
          "isImpacting": true,
          "overFlowSiteId": 116066
        }
      ]
    },
    {
      "id": 344781491,
      "eventId": 902889,
      "siteUnitNumber": 12608,
      "bathingSite": "CALSHOT",
      "eventStart": "2023-10-25T02:06:00",
      "eventStop": "2023-10-25T22:07:00",
      "duration": 1201,
      "status": "Genuine",
      "associatedSiteId": 109826,
      "outfallName": "ASHLETT CREEK FAWLEY",
      "isImpacting": true,
      "overFlowSiteId": 0,
      "historicSpillsList": [
        {
          "id": 344781491,
          "eventId": 902889,
          "siteUnitNumber": 12608,
          "bathingSite": "CALSHOT",
          "eventStart": "2023-10-25T02:06:00",
          "eventStop": "2023-10-25T22:07:00",
          "duration": 1201,
          "status": "Genuine",
          "associatedSiteId": 109826,
          "outfallName": "ASHLETT CREEK FAWLEY",
          "isImpacting": true,
          "overFlowSiteId": 115372
        }
      ]
    },
    {
      "id": 344779211,
      "eventId": 880524,
      "siteUnitNumber": 12618,
      "bathingSite": "RYDE",
      "eventStart": "2023-10-25T00:13:00",
      "eventStop": "2023-10-25T21:45:00",
      "duration": 1292,
      "status": "Genuine",
      "associatedSiteId": 109778,
      "outfallName": "PRINCE CONSORT RYDE NEW",
      "isImpacting": true,
      "overFlowSiteId": 0,
      "historicSpillsList": [
        {
          "id": 344779211,
          "eventId": 880524,
          "siteUnitNumber": 12618,
          "bathingSite": "RYDE",
          "eventStart": "2023-10-25T00:13:00",
          "eventStop": "2023-10-25T21:45:00",
          "duration": 1292,
          "status": "Genuine",
          "associatedSiteId": 109778,
          "outfallName": "PRINCE CONSORT RYDE NEW",
          "isImpacting": true,
          "overFlowSiteId": 108043
        }
      ]
    },
    {
      "id": 344790089,
      "eventId": 878470,
      "siteUnitNumber": 12621,
      "bathingSite": "BEMBRIDGE",
      "eventStart": "2023-10-25T00:52:00",
      "eventStop": "2023-10-25T21:08:00",
      "duration": 1216,
      "status": "Genuine",
      "associatedSiteId": 109937,
      "outfallName": "HILLWAY BEMBRIDGE",
      "isImpacting": false,
      "overFlowSiteId": 0,
      "historicSpillsList": []
    },
    {
      "id": 344806982,
      "eventId": 891233,
      "siteUnitNumber": 12662,
      "bathingSite": "CHICHESTER HARBOUR",
      "eventStart": "2023-10-25T20:04:00",
      "eventStop": "2023-10-25T20:32:00",
      "duration": 28,
      "status": "Genuine",
      "associatedSiteId": 111600,
      "outfallName": "MILL LANE FISHBOURNE",
      "isImpacting": true,
      "overFlowSiteId": 0,
      "historicSpillsList": [
        {
          "id": 344806982,
          "eventId": 891233,
          "siteUnitNumber": 12662,
          "bathingSite": "CHICHESTER HARBOUR",
          "eventStart": "2023-10-25T20:04:00",
          "eventStop": "2023-10-25T20:32:00",
          "duration": 28,
          "status": "Genuine",
          "associatedSiteId": 111600,
          "outfallName": "MILL LANE FISHBOURNE",
          "isImpacting": true,
          "overFlowSiteId": 111371
        }
      ]
    },
    {
      "id": 344795535,
      "eventId": 878384,
      "siteUnitNumber": 12592,
      "bathingSite": "MIDDLETON-ON-SEA",
      "eventStart": "2023-10-24T23:54:10",
      "eventStop": "2023-10-25T20:17:00",
      "duration": 1222,
      "status": "Genuine",
      "associatedSiteId": 109972,
      "outfallName": "BOGNOR MAIN",
      "isImpacting": true,
      "overFlowSiteId": 0,
      "historicSpillsList": [
        {
          "id": 344795536,
          "eventId": 878384,
          "siteUnitNumber": 12593,
          "bathingSite": "FELPHAM",
          "eventStart": "2023-10-24T23:54:10",
          "eventStop": "2023-10-25T20:17:00",
          "duration": 1222,
          "status": "Genuine",
          "associatedSiteId": 109972,
          "outfallName": "BOGNOR MAIN",
          "isImpacting": true,
          "overFlowSiteId": 107412,
          "historicSpillsList": []
        }
      ]
    },
    {
      "id": 344806994,
      "eventId": 878422,
      "siteUnitNumber": 12662,
      "bathingSite": "CHICHESTER HARBOUR",
      "eventStart": "2023-10-25T00:11:55",
      "eventStop": "2023-10-25T19:46:00",
      "duration": 1174,
      "status": "Genuine",
      "associatedSiteId": 111600,
      "outfallName": "MILL LANE FISHBOURNE",
      "isImpacting": true,
      "overFlowSiteId": 0,
      "historicSpillsList": [
        {
          "id": 344806994,
          "eventId": 878422,
          "siteUnitNumber": 12662,
          "bathingSite": "CHICHESTER HARBOUR",
          "eventStart": "2023-10-25T00:11:55",
          "eventStop": "2023-10-25T19:46:00",
          "duration": 1174,
          "status": "Genuine",
          "associatedSiteId": 111600,
          "outfallName": "MILL LANE FISHBOURNE",
          "isImpacting": true,
          "overFlowSiteId": 111371
        }
      ]
    },
    {
      "id": 344772542,
      "eventId": 879478,
      "siteUnitNumber": 12614,
      "bathingSite": "TOTLAND BAY",
      "eventStart": "2023-10-25T19:21:20",
      "eventStop": "2023-10-25T19:27:05",
      "duration": 5,
      "status": "Not Genuine",
      "associatedSiteId": 109665,
      "outfallName": "THORLEY ROAD BOULDNOR",
      "isImpacting": false,
      "overFlowSiteId": 0,
      "historicSpillsList": []
    },
    {
      "id": 344772544,
      "eventId": 879397,
      "siteUnitNumber": 12614,
      "bathingSite": "TOTLAND BAY",
      "eventStart": "2023-10-25T17:40:52",
      "eventStop": "2023-10-25T18:00:00",
      "duration": 19,
      "status": "Genuine",
      "associatedSiteId": 109665,
      "outfallName": "THORLEY ROAD BOULDNOR",
      "isImpacting": false,
      "overFlowSiteId": 0,
      "historicSpillsList": []
    },
    {
      "id": 344806074,
      "eventId": 886763,
      "siteUnitNumber": 12620,
      "bathingSite": "ST HELENS",
      "eventStart": "2023-10-25T07:02:00",
      "eventStop": "2023-10-25T17:53:00",
      "duration": 651,
      "status": "Genuine",
      "associatedSiteId": 110761,
      "outfallName": "BRADING",
      "isImpacting": true,
      "overFlowSiteId": 0,
      "historicSpillsList": [
        {
          "id": 344806074,
          "eventId": 886763,
          "siteUnitNumber": 12620,
          "bathingSite": "ST HELENS",
          "eventStart": "2023-10-25T07:02:00",
          "eventStop": "2023-10-25T17:53:00",
          "duration": 651,
          "status": "Genuine",
          "associatedSiteId": 110761,
          "outfallName": "BRADING",
          "isImpacting": true,
          "overFlowSiteId": 113676
        }
      ]
    },
    {
      "id": 344774323,
      "eventId": 881548,
      "siteUnitNumber": 12616,
      "bathingSite": "GURNARD",
      "eventStart": "2023-10-25T07:53:00",
      "eventStop": "2023-10-25T17:50:00",
      "duration": 597,
      "status": "Genuine",
      "associatedSiteId": 109702,
      "outfallName": "ALBANY ROAD EAST COWES",
      "isImpacting": false,
      "overFlowSiteId": 0,
      "historicSpillsList": []
    },
    {
      "id": 344783621,
      "eventId": 878778,
      "siteUnitNumber": 12662,
      "bathingSite": "CHICHESTER HARBOUR",
      "eventStart": "2023-10-25T04:39:06",
      "eventStop": "2023-10-25T17:48:00",
      "duration": 788,
      "status": "Genuine",
      "associatedSiteId": 109853,
      "outfallName": "CHIDHAM",
      "isImpacting": true,
      "overFlowSiteId": 0,
      "historicSpillsList": [
        {
          "id": 344783621,
          "eventId": 878778,
          "siteUnitNumber": 12662,
          "bathingSite": "CHICHESTER HARBOUR",
          "eventStart": "2023-10-25T04:39:06",
          "eventStop": "2023-10-25T17:48:00",
          "duration": 788,
          "status": "Genuine",
          "associatedSiteId": 109853,
          "outfallName": "CHIDHAM",
          "isImpacting": true,
          "overFlowSiteId": 108205
        }
      ]
    },
    {
      "id": 344812057,
      "eventId": 878751,
      "siteUnitNumber": 12662,
      "bathingSite": "CHICHESTER HARBOUR",
      "eventStart": "2023-10-25T04:32:00",
      "eventStop": "2023-10-25T17:25:00",
      "duration": 773,
      "status": "Genuine",
      "associatedSiteId": 115540,
      "outfallName": "TAYLORS LANE BOSHAM",
      "isImpacting": true,
      "overFlowSiteId": 0,
      "historicSpillsList": [
        {
          "id": 344812057,
          "eventId": 878751,
          "siteUnitNumber": 12662,
          "bathingSite": "CHICHESTER HARBOUR",
          "eventStart": "2023-10-25T04:32:00",
          "eventStop": "2023-10-25T17:25:00",
          "duration": 773,
          "status": "Genuine",
          "associatedSiteId": 115540,
          "outfallName": "TAYLORS LANE BOSHAM",
          "isImpacting": true,
          "overFlowSiteId": 108353
        }
      ]
    },
    {
      "id": 344772546,
      "eventId": 879393,
      "siteUnitNumber": 12615,
      "bathingSite": "COLWELL BAY",
      "eventStart": "2023-10-25T17:20:00",
      "eventStop": "2023-10-25T17:23:00",
      "duration": 3,
      "status": "Genuine",
      "associatedSiteId": 109665,
      "outfallName": "THORLEY ROAD BOULDNOR",
      "isImpacting": false,
      "overFlowSiteId": 0,
      "historicSpillsList": []
    },
    {
      "id": 344791929,
      "eventId": 879047,
      "siteUnitNumber": 12594,
      "bathingSite": "BOGNOR REGIS EAST",
      "eventStart": "2023-10-25T04:19:35",
      "eventStop": "2023-10-25T16:46:00",
      "duration": 746,
      "status": "Genuine",
      "associatedSiteId": 109958,
      "outfallName": "CARLTON AVENUE BOGNOR",
      "isImpacting": true,
      "overFlowSiteId": 0,
      "historicSpillsList": [
        {
          "id": 344791929,
          "eventId": 879047,
          "siteUnitNumber": 12594,
          "bathingSite": "BOGNOR REGIS EAST",
          "eventStart": "2023-10-25T04:19:35",
          "eventStop": "2023-10-25T16:46:00",
          "duration": 746,
          "status": "Genuine",
          "associatedSiteId": 109958,
          "outfallName": "CARLTON AVENUE BOGNOR",
          "isImpacting": true,
          "overFlowSiteId": 102492
        },
        {
          "id": 344791930,
          "eventId": 879047,
          "siteUnitNumber": 12595,
          "bathingSite": "BOGNOR REGIS (ALDWICK)",
          "eventStart": "2023-10-25T04:19:35",
          "eventStop": "2023-10-25T16:46:00",
          "duration": 746,
          "status": "Genuine",
          "associatedSiteId": 109958,
          "outfallName": "CARLTON AVENUE BOGNOR",
          "isImpacting": true,
          "overFlowSiteId": 102492,
          "historicSpillsList": []
        },
        {
          "id": 344791931,
          "eventId": 879047,
          "siteUnitNumber": 12596,
          "bathingSite": "PAGHAM",
          "eventStart": "2023-10-25T04:19:35",
          "eventStop": "2023-10-25T16:46:00",
          "duration": 746,
          "status": "Genuine",
          "associatedSiteId": 109958,
          "outfallName": "CARLTON AVENUE BOGNOR",
          "isImpacting": true,
          "overFlowSiteId": 102492,
          "historicSpillsList": []
        }
      ]
    },
    {
      "id": 344772536,
      "eventId": 880361,
      "siteUnitNumber": 12614,
      "bathingSite": "TOTLAND BAY",
      "eventStart": "2023-10-25T16:14:00",
      "eventStop": "2023-10-25T16:45:00",
      "duration": 31,
      "status": "Genuine",
      "associatedSiteId": 109665,
      "outfallName": "THORLEY ROAD BOULDNOR",
      "isImpacting": false,
      "overFlowSiteId": 0,
      "historicSpillsList": []
    },
    {
      "id": 344779553,
      "eventId": 878444,
      "siteUnitNumber": 12618,
      "bathingSite": "RYDE",
      "eventStart": "2023-10-25T00:31:13",
      "eventStop": "2023-10-25T16:43:00",
      "duration": 971,
      "status": "Genuine",
      "associatedSiteId": 109785,
      "outfallName": "SIMEON STREET RYDE",
      "isImpacting": true,
      "overFlowSiteId": 0,
      "historicSpillsList": [
        {
          "id": 344779553,
          "eventId": 878444,
          "siteUnitNumber": 12618,
          "bathingSite": "RYDE",
          "eventStart": "2023-10-25T00:31:13",
          "eventStop": "2023-10-25T16:43:00",
          "duration": 971,
          "status": "Genuine",
          "associatedSiteId": 109785,
          "outfallName": "SIMEON STREET RYDE",
          "isImpacting": true,
          "overFlowSiteId": 100129
        }
      ]
    },
    {
      "id": 344779377,
      "eventId": 881394,
      "siteUnitNumber": 12618,
      "bathingSite": "RYDE",
      "eventStart": "2023-10-25T14:40:00",
      "eventStop": "2023-10-25T16:40:00",
      "duration": 120,
      "status": "Genuine",
      "associatedSiteId": 109780,
      "outfallName": "LADIES WALK BINSTEAD",
      "isImpacting": true,
      "overFlowSiteId": 0,
      "historicSpillsList": [
        {
          "id": 344779377,
          "eventId": 881394,
          "siteUnitNumber": 12618,
          "bathingSite": "RYDE",
          "eventStart": "2023-10-25T14:40:00",
          "eventStop": "2023-10-25T16:40:00",
          "duration": 120,
          "status": "Genuine",
          "associatedSiteId": 109780,
          "outfallName": "LADIES WALK BINSTEAD",
          "isImpacting": true,
          "overFlowSiteId": 107406
        }
      ]
    },
    {
      "id": 344795414,
      "eventId": 879101,
      "siteUnitNumber": 12594,
      "bathingSite": "BOGNOR REGIS EAST",
      "eventStart": "2023-10-25T03:28:00",
      "eventStop": "2023-10-25T16:09:00",
      "duration": 761,
      "status": "Genuine",
      "associatedSiteId": 109970,
      "outfallName": "CHICHESTER ROAD BOGNOR",
      "isImpacting": true,
      "overFlowSiteId": 0,
      "historicSpillsList": [
        {
          "id": 344795414,
          "eventId": 879101,
          "siteUnitNumber": 12594,
          "bathingSite": "BOGNOR REGIS EAST",
          "eventStart": "2023-10-25T03:28:00",
          "eventStop": "2023-10-25T16:09:00",
          "duration": 761,
          "status": "Genuine",
          "associatedSiteId": 109970,
          "outfallName": "CHICHESTER ROAD BOGNOR",
          "isImpacting": true,
          "overFlowSiteId": 103301
        },
        {
          "id": 344795415,
          "eventId": 879101,
          "siteUnitNumber": 12595,
          "bathingSite": "BOGNOR REGIS (ALDWICK)",
          "eventStart": "2023-10-25T03:28:00",
          "eventStop": "2023-10-25T16:09:00",
          "duration": 761,
          "status": "Genuine",
          "associatedSiteId": 109970,
          "outfallName": "CHICHESTER ROAD BOGNOR",
          "isImpacting": true,
          "overFlowSiteId": 103301,
          "historicSpillsList": []
        },
        {
          "id": 344795422,
          "eventId": 879101,
          "siteUnitNumber": 12593,
          "bathingSite": "FELPHAM",
          "eventStart": "2023-10-25T03:28:00",
          "eventStop": "2023-10-25T16:09:00",
          "duration": 761,
          "status": "Genuine",
          "associatedSiteId": 109970,
          "outfallName": "CHICHESTER ROAD BOGNOR",
          "isImpacting": true,
          "overFlowSiteId": 103301,
          "historicSpillsList": []
        }
      ]
    },
    {
      "id": 344790518,
      "eventId": 900474,
      "siteUnitNumber": 12620,
      "bathingSite": "ST HELENS",
      "eventStart": "2023-10-25T00:15:00",
      "eventStop": "2023-10-25T16:08:00",
      "duration": 953,
      "status": "Genuine",
      "associatedSiteId": 109939,
      "outfallName": "LANE END ROAD BEMBRIDGE",
      "isImpacting": true,
      "overFlowSiteId": 0,
      "historicSpillsList": [
        {
          "id": 344790519,
          "eventId": 900474,
          "siteUnitNumber": 12621,
          "bathingSite": "BEMBRIDGE",
          "eventStart": "2023-10-25T00:15:00",
          "eventStop": "2023-10-25T16:08:00",
          "duration": 953,
          "status": "Genuine",
          "associatedSiteId": 109939,
          "outfallName": "LANE END ROAD BEMBRIDGE",
          "isImpacting": true,
          "overFlowSiteId": 108533,
          "historicSpillsList": []
        }
      ]
    },
    {
      "id": 344772548,
      "eventId": 879296,
      "siteUnitNumber": 12614,
      "bathingSite": "TOTLAND BAY",
      "eventStart": "2023-10-25T15:45:00",
      "eventStop": "2023-10-25T16:04:00",
      "duration": 19,
      "status": "Genuine",
      "associatedSiteId": 109665,
      "outfallName": "THORLEY ROAD BOULDNOR",
      "isImpacting": false,
      "overFlowSiteId": 0,
      "historicSpillsList": []
    }
  ]
}