{
  "currentPage": 472,
  "totalItems": 18701,
  "totalPages": 749,
  "items": [
    {
      "id": 344002931,
      "eventId": 646650,
      "siteUnitNumber": 12662,
      "bathingSite": "CHICHESTER HARBOUR",
      "eventStart": "2022-10-23T20:54:31",
      "eventStop": "2022-10-24T00:54:20",
      "duration": 239,
      "status": "Genuine",
      "associatedSiteId": 116025,
      "outfallName": "PRIORS LEAZE LANE NUTBOURNE",
      "isImpacting": true,
      "overFlowSiteId": 0,
      "historicSpillsList": [
        {
          "id": 344002931,
          "eventId": 646650,
          "siteUnitNumber": 12662,
          "bathingSite": "CHICHESTER HARBOUR",
          "eventStart": "2022-10-23T20:54:31",
          "eventStop": "2022-10-24T00:54:20",
          "duration": 239,
          "status": "Genuine",
          "associatedSiteId": 116025,
          "outfallName": "PRIORS LEAZE LANE NUTBOURNE",
          "isImpacting": true,
          "overFlowSiteId": 111267
        }
      ]
    },
    {
      "id": 343986058,
      "eventId": 646939,
      "siteUnitNumber": 12591,
      "bathingSite": "LITTLEHAMPTON",
      "eventStart": "2022-10-24T00:03:06",
      "eventStop": "2022-10-24T00:53:00",
      "duration": 49,
      "status": "Genuine",
      "associatedSiteId": 109968,
      "outfallName": "FORD ROAD ARUNDEL",
      "isImpacting": false,
      "overFlowSiteId": 0,
      "historicSpillsList": []
    },
    {
      "id": 343966711,
      "eventId": 646666,
      "siteUnitNumber": 12616,
      "bathingSite": "GURNARD",
      "eventStart": "2022-10-23T21:03:23",
      "eventStop": "2022-10-24T00:49:00",
      "duration": 225,
      "status": "Genuine",
      "associatedSiteId": 109706,
      "outfallName": "HIGH STREET COWES",
      "isImpacting": false,
      "overFlowSiteId": 0,
      "historicSpillsList": []
    },
    {
      "id": 344000638,
      "eventId": 646858,
      "siteUnitNumber": 12615,
      "bathingSite": "COLWELL BAY",
      "eventStart": "2022-10-23T22:00:00",
      "eventStop": "2022-10-24T00:47:00",
      "duration": 167,
      "status": "Genuine",
      "associatedSiteId": 115498,
      "outfallName": "NORTON TRANSFER IOW",
      "isImpacting": true,
      "overFlowSiteId": 0,
      "historicSpillsList": [
        {
          "id": 344000638,
          "eventId": 646858,
          "siteUnitNumber": 12615,
          "bathingSite": "COLWELL BAY",
          "eventStart": "2022-10-23T22:00:00",
          "eventStop": "2022-10-24T00:47:00",
          "duration": 167,
          "status": "Genuine",
          "associatedSiteId": 115498,
          "outfallName": "NORTON TRANSFER IOW",
          "isImpacting": true,
          "overFlowSiteId": 108544
        },
        {
          "id": 344000639,
          "eventId": 646858,
          "siteUnitNumber": 12614,
          "bathingSite": "TOTLAND BAY",
          "eventStart": "2022-10-23T22:00:00",
          "eventStop": "2022-10-24T00:47:00",
          "duration": 167,
          "status": "Genuine",
          "associatedSiteId": 115498,
          "outfallName": "NORTON TRANSFER IOW",
          "isImpacting": true,
          "overFlowSiteId": 108544,
          "historicSpillsList": []
        }
      ]
    },
    {
      "id": 343997807,
      "eventId": 646736,
      "siteUnitNumber": 12662,
      "bathingSite": "CHICHESTER HARBOUR",
      "eventStart": "2022-10-23T22:15:00",
      "eventStop": "2022-10-24T00:41:00",
      "duration": 146,
      "status": "Genuine",
      "associatedSiteId": 111600,
      "outfallName": "MILL LANE FISHBOURNE",
      "isImpacting": true,
      "overFlowSiteId": 0,
      "historicSpillsList": [
        {
          "id": 343997807,
          "eventId": 646736,
          "siteUnitNumber": 12662,
          "bathingSite": "CHICHESTER HARBOUR",
          "eventStart": "2022-10-23T22:15:00",
          "eventStop": "2022-10-24T00:41:00",
          "duration": 146,
          "status": "Genuine",
          "associatedSiteId": 111600,
          "outfallName": "MILL LANE FISHBOURNE",
          "isImpacting": true,
          "overFlowSiteId": 111371
        }
      ]
    },
    {
      "id": 343965781,
      "eventId": 646644,
      "siteUnitNumber": 12616,
      "bathingSite": "GURNARD",
      "eventStart": "2022-10-23T20:55:00",
      "eventStop": "2022-10-24T00:31:00",
      "duration": 216,
      "status": "Genuine",
      "associatedSiteId": 109704,
      "outfallName": "EGYPT POINT COWES",
      "isImpacting": true,
      "overFlowSiteId": 0,
      "historicSpillsList": [
        {
          "id": 343965782,
          "eventId": 646644,
          "siteUnitNumber": 12617,
          "bathingSite": "COWES",
          "eventStart": "2022-10-23T20:55:00",
          "eventStop": "2022-10-24T00:31:00",
          "duration": 216,
          "status": "Genuine",
          "associatedSiteId": 109704,
          "outfallName": "EGYPT POINT COWES",
          "isImpacting": true,
          "overFlowSiteId": 116213,
          "historicSpillsList": []
        }
      ]
    },
    {
      "id": 343972188,
      "eventId": 646792,
      "siteUnitNumber": 12602,
      "bathingSite": "BEACHLANDS WEST",
      "eventStart": "2022-10-23T23:41:00",
      "eventStop": "2022-10-24T00:24:00",
      "duration": 43,
      "status": "Genuine",
      "associatedSiteId": 109823,
      "outfallName": "FORT CUMBERLAND NO1",
      "isImpacting": true,
      "overFlowSiteId": 0,
      "historicSpillsList": [
        {
          "id": 343972189,
          "eventId": 646792,
          "siteUnitNumber": 12603,
          "bathingSite": "EASTNEY",
          "eventStart": "2022-10-23T23:41:00",
          "eventStop": "2022-10-24T00:24:00",
          "duration": 43,
          "status": "Genuine",
          "associatedSiteId": 109823,
          "outfallName": "FORT CUMBERLAND NO1",
          "isImpacting": true,
          "overFlowSiteId": 110658,
          "historicSpillsList": []
        },
        {
          "id": 343972191,
          "eventId": 646792,
          "siteUnitNumber": 12661,
          "bathingSite": "LANGSTONE HARBOUR",
          "eventStart": "2022-10-23T23:41:00",
          "eventStop": "2022-10-24T00:24:00",
          "duration": 43,
          "status": "Genuine",
          "associatedSiteId": 109823,
          "outfallName": "FORT CUMBERLAND NO1",
          "isImpacting": true,
          "overFlowSiteId": 110658,
          "historicSpillsList": []
        }
      ]
    },
    {
      "id": 343960949,
      "eventId": 646765,
      "siteUnitNumber": 12544,
      "bathingSite": "SHEERNESS",
      "eventStart": "2022-10-23T23:15:00",
      "eventStop": "2022-10-23T23:30:00",
      "duration": 15,
      "status": "Genuine",
      "associatedSiteId": 109616,
      "outfallName": "SOUTH STREET QUEENBOROUGH",
      "isImpacting": true,
      "overFlowSiteId": 0,
      "historicSpillsList": [
        {
          "id": 343960949,
          "eventId": 646765,
          "siteUnitNumber": 12544,
          "bathingSite": "SHEERNESS",
          "eventStart": "2022-10-23T23:15:00",
          "eventStop": "2022-10-23T23:30:00",
          "duration": 15,
          "status": "Genuine",
          "associatedSiteId": 109616,
          "outfallName": "SOUTH STREET QUEENBOROUGH",
          "isImpacting": true,
          "overFlowSiteId": 108732
        }
      ]
    },
    {
      "id": 343989761,
      "eventId": 646751,
      "siteUnitNumber": 12624,
      "bathingSite": "SANDOWN",
      "eventStart": "2022-10-23T22:53:00",
      "eventStop": "2022-10-23T23:25:00",
      "duration": 32,
      "status": "Genuine",
      "associatedSiteId": 110096,
      "outfallName": "SANDOWN NO1",
      "isImpacting": false,
      "overFlowSiteId": 0,
      "historicSpillsList": []
    },
    {
      "id": 343972193,
      "eventId": 646728,
      "siteUnitNumber": 12601,
      "bathingSite": "BEACHLANDS CENTRAL",
      "eventStart": "2022-10-23T22:24:00",
      "eventStop": "2022-10-23T23:24:00",
      "duration": 60,
      "status": "Genuine",
      "associatedSiteId": 109823,
      "outfallName": "FORT CUMBERLAND NO1",
      "isImpacting": true,
      "overFlowSiteId": 0,
      "historicSpillsList": [
        {
          "id": 343972195,
          "eventId": 646728,
          "siteUnitNumber": 12603,
          "bathingSite": "EASTNEY",
          "eventStart": "2022-10-23T22:24:00",
          "eventStop": "2022-10-23T23:24:00",
          "duration": 60,
          "status": "Genuine",
          "associatedSiteId": 109823,
          "outfallName": "FORT CUMBERLAND NO1",
          "isImpacting": true,
          "overFlowSiteId": 110658,
          "historicSpillsList": []
        },
        {
          "id": 343972197,
          "eventId": 646728,
          "siteUnitNumber": 12661,
          "bathingSite": "LANGSTONE HARBOUR",
          "eventStart": "2022-10-23T22:24:00",
          "eventStop": "2022-10-23T23:24:00",
          "duration": 60,
          "status": "Genuine",
          "associatedSiteId": 109823,
          "outfallName": "FORT CUMBERLAND NO1",
          "isImpacting": true,
          "overFlowSiteId": 110658,
          "historicSpillsList": []
        }
      ]
    },
    {
      "id": 343986422,
      "eventId": 646734,
      "siteUnitNumber": 12593,
      "bathingSite": "FELPHAM",
      "eventStart": "2022-10-23T20:57:23",
      "eventStop": "2022-10-23T23:16:00",
      "duration": 138,
      "status": "Genuine",
      "associatedSiteId": 109972,
      "outfallName": "BOGNOR MAIN",
      "isImpacting": true,
      "overFlowSiteId": 0,
      "historicSpillsList": [
        {
          "id": 343986422,
          "eventId": 646734,
          "siteUnitNumber": 12593,
          "bathingSite": "FELPHAM",
          "eventStart": "2022-10-23T20:57:23",
          "eventStop": "2022-10-23T23:16:00",
          "duration": 138,
          "status": "Genuine",
          "associatedSiteId": 109972,
          "outfallName": "BOGNOR MAIN",
          "isImpacting": true,
          "overFlowSiteId": 107412
        }
      ]
    },
    {
      "id": 343971196,
      "eventId": 646573,
      "siteUnitNumber": 12661,
      "bathingSite": "LANGSTONE HARBOUR",
      "eventStart": "2022-10-23T20:13:00",
      "eventStop": "2022-10-23T23:14:00",
      "duration": 181,
      "status": "Genuine",
      "associatedSiteId": 109819,
      "outfallName": "COURT LANE COSHAM",
      "isImpacting": true,
      "overFlowSiteId": 0,
      "historicSpillsList": [
        {
          "id": 343971196,
          "eventId": 646573,
          "siteUnitNumber": 12661,
          "bathingSite": "LANGSTONE HARBOUR",
          "eventStart": "2022-10-23T20:13:00",
          "eventStop": "2022-10-23T23:14:00",
          "duration": 181,
          "status": "Genuine",
          "associatedSiteId": 109819,
          "outfallName": "COURT LANE COSHAM",
          "isImpacting": true,
          "overFlowSiteId": 115958
        }
      ]
    },
    {
      "id": 343971810,
      "eventId": 646569,
      "siteUnitNumber": 12604,
      "bathingSite": "SOUTHSEA EAST",
      "eventStart": "2022-10-23T20:00:20",
      "eventStop": "2022-10-23T23:10:00",
      "duration": 189,
      "status": "Genuine",
      "associatedSiteId": 109822,
      "outfallName": "PIER ROAD SOUTHSEA",
      "isImpacting": true,
      "overFlowSiteId": 0,
      "historicSpillsList": [
        {
          "id": 343971810,
          "eventId": 646569,
          "siteUnitNumber": 12604,
          "bathingSite": "SOUTHSEA EAST",
          "eventStart": "2022-10-23T20:00:20",
          "eventStop": "2022-10-23T23:10:00",
          "duration": 189,
          "status": "Genuine",
          "associatedSiteId": 109822,
          "outfallName": "PIER ROAD SOUTHSEA",
          "isImpacting": true,
          "overFlowSiteId": 108469
        },
        {
          "id": 343971811,
          "eventId": 646569,
          "siteUnitNumber": 12605,
          "bathingSite": "STOKES BAY",
          "eventStart": "2022-10-23T20:00:20",
          "eventStop": "2022-10-23T23:10:00",
          "duration": 189,
          "status": "Genuine",
          "associatedSiteId": 109822,
          "outfallName": "PIER ROAD SOUTHSEA",
          "isImpacting": true,
          "overFlowSiteId": 108469,
          "historicSpillsList": []
        }
      ]
    },
    {
      "id": 343970738,
      "eventId": 646543,
      "siteUnitNumber": 12618,
      "bathingSite": "RYDE",
      "eventStart": "2022-10-23T19:55:00",
      "eventStop": "2022-10-23T23:02:00",
      "duration": 187,
      "status": "Genuine",
      "associatedSiteId": 109790,
      "outfallName": "GREAT PRESTON ROAD RYDE",
      "isImpacting": true,
      "overFlowSiteId": 0,
      "historicSpillsList": [
        {
          "id": 343970738,
          "eventId": 646543,
          "siteUnitNumber": 12618,
          "bathingSite": "RYDE",
          "eventStart": "2022-10-23T19:55:00",
          "eventStop": "2022-10-23T23:02:00",
          "duration": 187,
          "status": "Genuine",
          "associatedSiteId": 109790,
          "outfallName": "GREAT PRESTON ROAD RYDE",
          "isImpacting": true,
          "overFlowSiteId": 109304
        },
        {
          "id": 343970739,
          "eventId": 646543,
          "siteUnitNumber": 12619,
          "bathingSite": "SEAGROVE",
          "eventStart": "2022-10-23T19:55:00",
          "eventStop": "2022-10-23T23:02:00",
          "duration": 187,
          "status": "Genuine",
          "associatedSiteId": 109790,
          "outfallName": "GREAT PRESTON ROAD RYDE",
          "isImpacting": true,
          "overFlowSiteId": 109304,
          "historicSpillsList": []
        }
      ]
    },
    {
      "id": 344000640,
      "eventId": 646696,
      "siteUnitNumber": 12614,
      "bathingSite": "TOTLAND BAY",
      "eventStart": "2022-10-23T21:41:01",
      "eventStop": "2022-10-23T22:56:00",
      "duration": 74,
      "status": "Genuine",
      "associatedSiteId": 115498,
      "outfallName": "NORTON TRANSFER IOW",
      "isImpacting": true,
      "overFlowSiteId": 0,
      "historicSpillsList": [
        {
          "id": 344000640,
          "eventId": 646696,
          "siteUnitNumber": 12614,
          "bathingSite": "TOTLAND BAY",
          "eventStart": "2022-10-23T21:41:01",
          "eventStop": "2022-10-23T22:56:00",
          "duration": 74,
          "status": "Genuine",
          "associatedSiteId": 115498,
          "outfallName": "NORTON TRANSFER IOW",
          "isImpacting": true,
          "overFlowSiteId": 109524
        },
        {
          "id": 344000641,
          "eventId": 646696,
          "siteUnitNumber": 12615,
          "bathingSite": "COLWELL BAY",
          "eventStart": "2022-10-23T21:41:01",
          "eventStop": "2022-10-23T22:56:00",
          "duration": 74,
          "status": "Genuine",
          "associatedSiteId": 115498,
          "outfallName": "NORTON TRANSFER IOW",
          "isImpacting": true,
          "overFlowSiteId": 109524,
          "historicSpillsList": []
        }
      ]
    },
    {
      "id": 343981173,
      "eventId": 646567,
      "siteUnitNumber": 12619,
      "bathingSite": "SEAGROVE",
      "eventStart": "2022-10-23T19:44:58",
      "eventStop": "2022-10-23T22:56:00",
      "duration": 191,
      "status": "Genuine",
      "associatedSiteId": 109938,
      "outfallName": "THE POINT BEMBRIDGE",
      "isImpacting": true,
      "overFlowSiteId": 0,
      "historicSpillsList": [
        {
          "id": 343981174,
          "eventId": 646567,
          "siteUnitNumber": 12620,
          "bathingSite": "ST HELENS",
          "eventStart": "2022-10-23T19:44:58",
          "eventStop": "2022-10-23T22:56:00",
          "duration": 191,
          "status": "Genuine",
          "associatedSiteId": 109938,
          "outfallName": "THE POINT BEMBRIDGE",
          "isImpacting": true,
          "overFlowSiteId": 110194,
          "historicSpillsList": []
        }
      ]
    },
    {
      "id": 343988567,
      "eventId": 646729,
      "siteUnitNumber": 12626,
      "bathingSite": "VENTNOR",
      "eventStart": "2022-10-23T22:31:23",
      "eventStop": "2022-10-23T22:55:00",
      "duration": 23,
      "status": "Genuine",
      "associatedSiteId": 110064,
      "outfallName": "LION POINT VENTNOR",
      "isImpacting": true,
      "overFlowSiteId": 0,
      "historicSpillsList": [
        {
          "id": 343988567,
          "eventId": 646729,
          "siteUnitNumber": 12626,
          "bathingSite": "VENTNOR",
          "eventStart": "2022-10-23T22:31:23",
          "eventStop": "2022-10-23T22:55:00",
          "duration": 23,
          "status": "Genuine",
          "associatedSiteId": 110064,
          "outfallName": "LION POINT VENTNOR",
          "isImpacting": true,
          "overFlowSiteId": 108546
        }
      ]
    },
    {
      "id": 343988323,
      "eventId": 646654,
      "siteUnitNumber": 12623,
      "bathingSite": "YAVERLAND",
      "eventStart": "2022-10-23T21:00:00",
      "eventStop": "2022-10-23T22:48:00",
      "duration": 108,
      "status": "Genuine",
      "associatedSiteId": 110029,
      "outfallName": "HOPE BEACH SHANKLIN NEW",
      "isImpacting": true,
      "overFlowSiteId": 0,
      "historicSpillsList": [
        {
          "id": 343988325,
          "eventId": 646654,
          "siteUnitNumber": 12625,
          "bathingSite": "SHANKLIN",
          "eventStart": "2022-10-23T21:00:00",
          "eventStop": "2022-10-23T22:48:00",
          "duration": 108,
          "status": "Genuine",
          "associatedSiteId": 110029,
          "outfallName": "HOPE BEACH SHANKLIN NEW",
          "isImpacting": true,
          "overFlowSiteId": 109389,
          "historicSpillsList": []
        }
      ]
    },
    {
      "id": 343974445,
      "eventId": 646617,
      "siteUnitNumber": 12662,
      "bathingSite": "CHICHESTER HARBOUR",
      "eventStart": "2022-10-23T21:09:00",
      "eventStop": "2022-10-23T22:40:00",
      "duration": 91,
      "status": "Genuine",
      "associatedSiteId": 109854,
      "outfallName": "KINGS ROAD EMSWORTH",
      "isImpacting": true,
      "overFlowSiteId": 0,
      "historicSpillsList": [
        {
          "id": 343974445,
          "eventId": 646617,
          "siteUnitNumber": 12662,
          "bathingSite": "CHICHESTER HARBOUR",
          "eventStart": "2022-10-23T21:09:00",
          "eventStop": "2022-10-23T22:40:00",
          "duration": 91,
          "status": "Genuine",
          "associatedSiteId": 109854,
          "outfallName": "KINGS ROAD EMSWORTH",
          "isImpacting": true,
          "overFlowSiteId": 109298
        }
      ]
    },
    {
      "id": 343996065,
      "eventId": 646510,
      "siteUnitNumber": 12617,
      "bathingSite": "COWES",
      "eventStart": "2022-10-23T19:34:17",
      "eventStop": "2022-10-23T22:26:00",
      "duration": 171,
      "status": "Genuine",
      "associatedSiteId": 110701,
      "outfallName": "TERMINUS ROAD COWES 2",
      "isImpacting": true,
      "overFlowSiteId": 0,
      "historicSpillsList": [
        {
          "id": 343996065,
          "eventId": 646510,
          "siteUnitNumber": 12617,
          "bathingSite": "COWES",
          "eventStart": "2022-10-23T19:34:17",
          "eventStop": "2022-10-23T22:26:00",
          "duration": 171,
          "status": "Genuine",
          "associatedSiteId": 110701,
          "outfallName": "TERMINUS ROAD COWES 2",
          "isImpacting": true,
          "overFlowSiteId": 108563
        },
        {
          "id": 343996066,
          "eventId": 646510,
          "siteUnitNumber": 12616,
          "bathingSite": "GURNARD",
          "eventStart": "2022-10-23T19:34:17",
          "eventStop": "2022-10-23T22:26:00",
          "duration": 171,
          "status": "Genuine",
          "associatedSiteId": 110701,
          "outfallName": "TERMINUS ROAD COWES 2",
          "isImpacting": true,
          "overFlowSiteId": 108563,
          "historicSpillsList": []
        }
      ]
    },
    {
      "id": 343971087,
      "eventId": 646608,
      "siteUnitNumber": 12661,
      "bathingSite": "LANGSTONE HARBOUR",
      "eventStart": "2022-10-23T20:14:21",
      "eventStop": "2022-10-23T22:15:00",
      "duration": 120,
      "status": "Genuine",
      "associatedSiteId": 109817,
      "outfallName": "MAINLAND DRAYTON",
      "isImpacting": true,
      "overFlowSiteId": 0,
      "historicSpillsList": [
        {
          "id": 343971087,
          "eventId": 646608,
          "siteUnitNumber": 12661,
          "bathingSite": "LANGSTONE HARBOUR",
          "eventStart": "2022-10-23T20:14:21",
          "eventStop": "2022-10-23T22:15:00",
          "duration": 120,
          "status": "Genuine",
          "associatedSiteId": 109817,
          "outfallName": "MAINLAND DRAYTON",
          "isImpacting": true,
          "overFlowSiteId": 115960
        }
      ]
    },
    {
      "id": 343968653,
      "eventId": 646675,
      "siteUnitNumber": 12600,
      "bathingSite": "EASTOKE",
      "eventStart": "2022-10-23T21:26:00",
      "eventStop": "2022-10-23T21:58:00",
      "duration": 32,
      "status": "Genuine",
      "associatedSiteId": 109775,
      "outfallName": "GREEN LANE HAYLING ISLAND",
      "isImpacting": true,
      "overFlowSiteId": 0,
      "historicSpillsList": [
        {
          "id": 343968653,
          "eventId": 646675,
          "siteUnitNumber": 12600,
          "bathingSite": "EASTOKE",
          "eventStart": "2022-10-23T21:26:00",
          "eventStop": "2022-10-23T21:58:00",
          "duration": 32,
          "status": "Genuine",
          "associatedSiteId": 109775,
          "outfallName": "GREEN LANE HAYLING ISLAND",
          "isImpacting": true,
          "overFlowSiteId": 108769
        },
        {
          "id": 343968654,
          "eventId": 646675,
          "siteUnitNumber": 12601,
          "bathingSite": "BEACHLANDS CENTRAL",
          "eventStart": "2022-10-23T21:26:00",
          "eventStop": "2022-10-23T21:58:00",
          "duration": 32,
          "status": "Genuine",
          "associatedSiteId": 109775,
          "outfallName": "GREEN LANE HAYLING ISLAND",
          "isImpacting": true,
          "overFlowSiteId": 108769,
          "historicSpillsList": []
        },
        {
          "id": 343968655,
          "eventId": 646675,
          "siteUnitNumber": 12602,
          "bathingSite": "BEACHLANDS WEST",
          "eventStart": "2022-10-23T21:26:00",
          "eventStop": "2022-10-23T21:58:00",
          "duration": 32,
          "status": "Genuine",
          "associatedSiteId": 109775,
          "outfallName": "GREEN LANE HAYLING ISLAND",
          "isImpacting": true,
          "overFlowSiteId": 108769,
          "historicSpillsList": []
        }
      ]
    },
    {
      "id": 343988566,
      "eventId": 646669,
      "siteUnitNumber": 12626,
      "bathingSite": "VENTNOR",
      "eventStart": "2022-10-23T21:09:58",
      "eventStop": "2022-10-23T21:34:00",
      "duration": 24,
      "status": "Genuine",
      "associatedSiteId": 110064,
      "outfallName": "LION POINT VENTNOR",
      "isImpacting": true,
      "overFlowSiteId": 0,
      "historicSpillsList": [
        {
          "id": 343988566,
          "eventId": 646669,
          "siteUnitNumber": 12626,
          "bathingSite": "VENTNOR",
          "eventStart": "2022-10-23T21:09:58",
          "eventStop": "2022-10-23T21:34:00",
          "duration": 24,
          "status": "Genuine",
          "associatedSiteId": 110064,
          "outfallName": "LION POINT VENTNOR",
          "isImpacting": true,
          "overFlowSiteId": 108546
        }
      ]
    },
    {
      "id": 343985828,
      "eventId": 646628,
      "siteUnitNumber": 12592,
      "bathingSite": "MIDDLETON-ON-SEA",
      "eventStart": "2022-10-23T20:45:03",
      "eventStop": "2022-10-23T21:15:00",
      "duration": 29,
      "status": "Genuine",
      "associatedSiteId": 109967,
      "outfallName": "GLOUCESTER ROAD BOGNOR",
      "isImpacting": false,
      "overFlowSiteId": 0,
      "historicSpillsList": []
    },
    {
      "id": 343989765,
      "eventId": 646640,
      "siteUnitNumber": 12623,
      "bathingSite": "YAVERLAND",
      "eventStart": "2022-10-23T20:35:00",
      "eventStop": "2022-10-23T21:04:00",
      "duration": 29,
      "status": "Genuine",
      "associatedSiteId": 110096,
      "outfallName": "SANDOWN NO1",
      "isImpacting": false,
      "overFlowSiteId": 0,
      "historicSpillsList": []
    }
  ]
}