{
  "currentPage": 480,
  "totalItems": 18701,
  "totalPages": 749,
  "items": [
    {
      "id": 343996912,
      "eventId": 641190,
      "siteUnitNumber": 12620,
      "bathingSite": "ST HELENS",
      "eventStart": "2022-10-13T02:12:08",
      "eventStop": "2022-10-13T06:34:40",
      "duration": 262,
      "status": "Genuine",
      "associatedSiteId": 110761,
      "outfallName": "BRADING",
      "isImpacting": true,
      "overFlowSiteId": 0,
      "historicSpillsList": [
        {
          "id": 343996912,
          "eventId": 641190,
          "siteUnitNumber": 12620,
          "bathingSite": "ST HELENS",
          "eventStart": "2022-10-13T02:12:08",
          "eventStop": "2022-10-13T06:34:40",
          "duration": 262,
          "status": "Genuine",
          "associatedSiteId": 110761,
          "outfallName": "BRADING",
          "isImpacting": true,
          "overFlowSiteId": 113676
        }
      ]
    },
    {
      "id": 343970742,
      "eventId": 641208,
      "siteUnitNumber": 12618,
      "bathingSite": "RYDE",
      "eventStart": "2022-10-13T02:05:46",
      "eventStop": "2022-10-13T06:16:00",
      "duration": 250,
      "status": "Genuine",
      "associatedSiteId": 109790,
      "outfallName": "GREAT PRESTON ROAD RYDE",
      "isImpacting": true,
      "overFlowSiteId": 0,
      "historicSpillsList": [
        {
          "id": 343970742,
          "eventId": 641208,
          "siteUnitNumber": 12618,
          "bathingSite": "RYDE",
          "eventStart": "2022-10-13T02:05:46",
          "eventStop": "2022-10-13T06:16:00",
          "duration": 250,
          "status": "Genuine",
          "associatedSiteId": 109790,
          "outfallName": "GREAT PRESTON ROAD RYDE",
          "isImpacting": true,
          "overFlowSiteId": 109304
        },
        {
          "id": 343970743,
          "eventId": 641208,
          "siteUnitNumber": 12619,
          "bathingSite": "SEAGROVE",
          "eventStart": "2022-10-13T02:05:46",
          "eventStop": "2022-10-13T06:16:00",
          "duration": 250,
          "status": "Genuine",
          "associatedSiteId": 109790,
          "outfallName": "GREAT PRESTON ROAD RYDE",
          "isImpacting": true,
          "overFlowSiteId": 109304,
          "historicSpillsList": []
        }
      ]
    },
    {
      "id": 343972198,
      "eventId": 641463,
      "siteUnitNumber": 12661,
      "bathingSite": "LANGSTONE HARBOUR",
      "eventStart": "2022-10-13T05:00:00",
      "eventStop": "2022-10-13T06:11:00",
      "duration": 71,
      "status": "Genuine",
      "associatedSiteId": 109823,
      "outfallName": "FORT CUMBERLAND NO1",
      "isImpacting": true,
      "overFlowSiteId": 0,
      "historicSpillsList": [
        {
          "id": 343972198,
          "eventId": 641463,
          "siteUnitNumber": 12661,
          "bathingSite": "LANGSTONE HARBOUR",
          "eventStart": "2022-10-13T05:00:00",
          "eventStop": "2022-10-13T06:11:00",
          "duration": 71,
          "status": "Genuine",
          "associatedSiteId": 109823,
          "outfallName": "FORT CUMBERLAND NO1",
          "isImpacting": true,
          "overFlowSiteId": 110658
        }
      ]
    },
    {
      "id": 344000652,
      "eventId": 641546,
      "siteUnitNumber": 12615,
      "bathingSite": "COLWELL BAY",
      "eventStart": "2022-10-13T02:30:00",
      "eventStop": "2022-10-13T06:00:00",
      "duration": 210,
      "status": "Genuine",
      "associatedSiteId": 115498,
      "outfallName": "NORTON TRANSFER IOW",
      "isImpacting": true,
      "overFlowSiteId": 0,
      "historicSpillsList": [
        {
          "id": 344000652,
          "eventId": 641546,
          "siteUnitNumber": 12615,
          "bathingSite": "COLWELL BAY",
          "eventStart": "2022-10-13T02:30:00",
          "eventStop": "2022-10-13T06:00:00",
          "duration": 210,
          "status": "Genuine",
          "associatedSiteId": 115498,
          "outfallName": "NORTON TRANSFER IOW",
          "isImpacting": true,
          "overFlowSiteId": 108544
        },
        {
          "id": 344000653,
          "eventId": 641546,
          "siteUnitNumber": 12614,
          "bathingSite": "TOTLAND BAY",
          "eventStart": "2022-10-13T02:30:00",
          "eventStop": "2022-10-13T06:00:00",
          "duration": 210,
          "status": "Genuine",
          "associatedSiteId": 115498,
          "outfallName": "NORTON TRANSFER IOW",
          "isImpacting": true,
          "overFlowSiteId": 108544,
          "historicSpillsList": []
        }
      ]
    },
    {
      "id": 343965787,
      "eventId": 641105,
      "siteUnitNumber": 12616,
      "bathingSite": "GURNARD",
      "eventStart": "2022-10-13T01:26:00",
      "eventStop": "2022-10-13T05:52:00",
      "duration": 266,
      "status": "Genuine",
      "associatedSiteId": 109704,
      "outfallName": "EGYPT POINT COWES",
      "isImpacting": true,
      "overFlowSiteId": 0,
      "historicSpillsList": [
        {
          "id": 343965788,
          "eventId": 641105,
          "siteUnitNumber": 12617,
          "bathingSite": "COWES",
          "eventStart": "2022-10-13T01:26:00",
          "eventStop": "2022-10-13T05:52:00",
          "duration": 266,
          "status": "Genuine",
          "associatedSiteId": 109704,
          "outfallName": "EGYPT POINT COWES",
          "isImpacting": true,
          "overFlowSiteId": 116213,
          "historicSpillsList": []
        }
      ]
    },
    {
      "id": 343980823,
      "eventId": 641440,
      "siteUnitNumber": 12581,
      "bathingSite": "BIRLING GAP",
      "eventStart": "2022-10-13T04:38:00",
      "eventStop": "2022-10-13T05:39:00",
      "duration": 61,
      "status": "Genuine",
      "associatedSiteId": 109936,
      "outfallName": "EAST DEAN",
      "isImpacting": true,
      "overFlowSiteId": 0,
      "historicSpillsList": [
        {
          "id": 343980823,
          "eventId": 641440,
          "siteUnitNumber": 12581,
          "bathingSite": "BIRLING GAP",
          "eventStart": "2022-10-13T04:38:00",
          "eventStop": "2022-10-13T05:39:00",
          "duration": 61,
          "status": "Genuine",
          "associatedSiteId": 109936,
          "outfallName": "EAST DEAN",
          "isImpacting": true,
          "overFlowSiteId": 115829
        }
      ]
    },
    {
      "id": 343984676,
      "eventId": 641243,
      "siteUnitNumber": 12594,
      "bathingSite": "BOGNOR REGIS EAST",
      "eventStart": "2022-10-13T02:15:00",
      "eventStop": "2022-10-13T05:38:00",
      "duration": 203,
      "status": "Genuine",
      "associatedSiteId": 109959,
      "outfallName": "WEST PARK BOGNOR REGIS",
      "isImpacting": true,
      "overFlowSiteId": 0,
      "historicSpillsList": [
        {
          "id": 343984676,
          "eventId": 641243,
          "siteUnitNumber": 12594,
          "bathingSite": "BOGNOR REGIS EAST",
          "eventStart": "2022-10-13T02:15:00",
          "eventStop": "2022-10-13T05:38:00",
          "duration": 203,
          "status": "Genuine",
          "associatedSiteId": 109959,
          "outfallName": "WEST PARK BOGNOR REGIS",
          "isImpacting": true,
          "overFlowSiteId": 108160
        }
      ]
    },
    {
      "id": 343985573,
      "eventId": 641187,
      "siteUnitNumber": 12591,
      "bathingSite": "LITTLEHAMPTON",
      "eventStart": "2022-10-13T02:26:00",
      "eventStop": "2022-10-13T05:34:00",
      "duration": 188,
      "status": "Genuine",
      "associatedSiteId": 109965,
      "outfallName": "SEA ROAD LITTLEHAMPTON",
      "isImpacting": true,
      "overFlowSiteId": 0,
      "historicSpillsList": [
        {
          "id": 343985573,
          "eventId": 641187,
          "siteUnitNumber": 12591,
          "bathingSite": "LITTLEHAMPTON",
          "eventStart": "2022-10-13T02:26:00",
          "eventStop": "2022-10-13T05:34:00",
          "duration": 188,
          "status": "Genuine",
          "associatedSiteId": 109965,
          "outfallName": "SEA ROAD LITTLEHAMPTON",
          "isImpacting": true,
          "overFlowSiteId": 109368
        }
      ]
    },
    {
      "id": 344002932,
      "eventId": 641259,
      "siteUnitNumber": 12662,
      "bathingSite": "CHICHESTER HARBOUR",
      "eventStart": "2022-10-13T02:39:02",
      "eventStop": "2022-10-13T05:31:00",
      "duration": 171,
      "status": "Genuine",
      "associatedSiteId": 116025,
      "outfallName": "PRIORS LEAZE LANE NUTBOURNE",
      "isImpacting": true,
      "overFlowSiteId": 0,
      "historicSpillsList": [
        {
          "id": 344002932,
          "eventId": 641259,
          "siteUnitNumber": 12662,
          "bathingSite": "CHICHESTER HARBOUR",
          "eventStart": "2022-10-13T02:39:02",
          "eventStop": "2022-10-13T05:31:00",
          "duration": 171,
          "status": "Genuine",
          "associatedSiteId": 116025,
          "outfallName": "PRIORS LEAZE LANE NUTBOURNE",
          "isImpacting": true,
          "overFlowSiteId": 111267
        }
      ]
    },
    {
      "id": 343971818,
      "eventId": 641121,
      "siteUnitNumber": 12604,
      "bathingSite": "SOUTHSEA EAST",
      "eventStart": "2022-10-13T01:12:19",
      "eventStop": "2022-10-13T05:25:00",
      "duration": 252,
      "status": "Genuine",
      "associatedSiteId": 109822,
      "outfallName": "PIER ROAD SOUTHSEA",
      "isImpacting": true,
      "overFlowSiteId": 0,
      "historicSpillsList": [
        {
          "id": 343971818,
          "eventId": 641121,
          "siteUnitNumber": 12604,
          "bathingSite": "SOUTHSEA EAST",
          "eventStart": "2022-10-13T01:12:19",
          "eventStop": "2022-10-13T05:25:00",
          "duration": 252,
          "status": "Genuine",
          "associatedSiteId": 109822,
          "outfallName": "PIER ROAD SOUTHSEA",
          "isImpacting": true,
          "overFlowSiteId": 108469
        },
        {
          "id": 343971819,
          "eventId": 641121,
          "siteUnitNumber": 12605,
          "bathingSite": "STOKES BAY",
          "eventStart": "2022-10-13T01:12:19",
          "eventStop": "2022-10-13T05:25:00",
          "duration": 252,
          "status": "Genuine",
          "associatedSiteId": 109822,
          "outfallName": "PIER ROAD SOUTHSEA",
          "isImpacting": true,
          "overFlowSiteId": 108469,
          "historicSpillsList": []
        }
      ]
    },
    {
      "id": 344002783,
      "eventId": 641631,
      "siteUnitNumber": 12577,
      "bathingSite": "BEXHILL",
      "eventStart": "2022-10-13T04:45:44",
      "eventStop": "2022-10-13T05:13:00",
      "duration": 27,
      "status": "Genuine",
      "associatedSiteId": 115504,
      "outfallName": "HARTFIELD ROAD BEXHILL",
      "isImpacting": false,
      "overFlowSiteId": 0,
      "historicSpillsList": []
    },
    {
      "id": 344000654,
      "eventId": 641210,
      "siteUnitNumber": 12614,
      "bathingSite": "TOTLAND BAY",
      "eventStart": "2022-10-13T02:11:30",
      "eventStop": "2022-10-13T05:10:00",
      "duration": 178,
      "status": "Genuine",
      "associatedSiteId": 115498,
      "outfallName": "NORTON TRANSFER IOW",
      "isImpacting": true,
      "overFlowSiteId": 0,
      "historicSpillsList": [
        {
          "id": 344000654,
          "eventId": 641210,
          "siteUnitNumber": 12614,
          "bathingSite": "TOTLAND BAY",
          "eventStart": "2022-10-13T02:11:30",
          "eventStop": "2022-10-13T05:10:00",
          "duration": 178,
          "status": "Genuine",
          "associatedSiteId": 115498,
          "outfallName": "NORTON TRANSFER IOW",
          "isImpacting": true,
          "overFlowSiteId": 109524
        },
        {
          "id": 344000655,
          "eventId": 641210,
          "siteUnitNumber": 12615,
          "bathingSite": "COLWELL BAY",
          "eventStart": "2022-10-13T02:11:30",
          "eventStop": "2022-10-13T05:10:00",
          "duration": 178,
          "status": "Genuine",
          "associatedSiteId": 115498,
          "outfallName": "NORTON TRANSFER IOW",
          "isImpacting": true,
          "overFlowSiteId": 109524,
          "historicSpillsList": []
        }
      ]
    },
    {
      "id": 343982496,
      "eventId": 641204,
      "siteUnitNumber": 12582,
      "bathingSite": "SEAFORD",
      "eventStart": "2022-10-13T02:00:00",
      "eventStop": "2022-10-13T05:06:00",
      "duration": 186,
      "status": "Genuine",
      "associatedSiteId": 109957,
      "outfallName": "PORTOBELLO BRIGHTON NO2",
      "isImpacting": true,
      "overFlowSiteId": 0,
      "historicSpillsList": [
        {
          "id": 343982497,
          "eventId": 641204,
          "siteUnitNumber": 12583,
          "bathingSite": "SALTDEAN",
          "eventStart": "2022-10-13T02:00:00",
          "eventStop": "2022-10-13T05:06:00",
          "duration": 186,
          "status": "Genuine",
          "associatedSiteId": 109957,
          "outfallName": "PORTOBELLO BRIGHTON NO2",
          "isImpacting": true,
          "overFlowSiteId": 116036,
          "historicSpillsList": []
        }
      ]
    },
    {
      "id": 343971197,
      "eventId": 641233,
      "siteUnitNumber": 12661,
      "bathingSite": "LANGSTONE HARBOUR",
      "eventStart": "2022-10-13T01:19:11",
      "eventStop": "2022-10-13T05:05:00",
      "duration": 225,
      "status": "Genuine",
      "associatedSiteId": 109819,
      "outfallName": "COURT LANE COSHAM",
      "isImpacting": true,
      "overFlowSiteId": 0,
      "historicSpillsList": [
        {
          "id": 343971197,
          "eventId": 641233,
          "siteUnitNumber": 12661,
          "bathingSite": "LANGSTONE HARBOUR",
          "eventStart": "2022-10-13T01:19:11",
          "eventStop": "2022-10-13T05:05:00",
          "duration": 225,
          "status": "Genuine",
          "associatedSiteId": 109819,
          "outfallName": "COURT LANE COSHAM",
          "isImpacting": true,
          "overFlowSiteId": 115958
        }
      ]
    },
    {
      "id": 343988329,
      "eventId": 641214,
      "siteUnitNumber": 12623,
      "bathingSite": "YAVERLAND",
      "eventStart": "2022-10-13T02:08:00",
      "eventStop": "2022-10-13T04:59:00",
      "duration": 171,
      "status": "Genuine",
      "associatedSiteId": 110029,
      "outfallName": "HOPE BEACH SHANKLIN NEW",
      "isImpacting": true,
      "overFlowSiteId": 0,
      "historicSpillsList": [
        {
          "id": 343988322,
          "eventId": 641214,
          "siteUnitNumber": 12625,
          "bathingSite": "SHANKLIN",
          "eventStart": "2022-10-13T02:08:00",
          "eventStop": "2022-10-13T04:59:00",
          "duration": 171,
          "status": "Genuine",
          "associatedSiteId": 110029,
          "outfallName": "HOPE BEACH SHANKLIN NEW",
          "isImpacting": true,
          "overFlowSiteId": 109389,
          "historicSpillsList": []
        }
      ]
    },
    {
      "id": 343967001,
      "eventId": 641199,
      "siteUnitNumber": 12606,
      "bathingSite": "LEE-ON-SOLENT",
      "eventStart": "2022-10-13T01:35:36",
      "eventStop": "2022-10-13T04:53:00",
      "duration": 197,
      "status": "Genuine",
      "associatedSiteId": 109713,
      "outfallName": "BROWNDOWN",
      "isImpacting": true,
      "overFlowSiteId": 0,
      "historicSpillsList": [
        {
          "id": 343967001,
          "eventId": 641199,
          "siteUnitNumber": 12606,
          "bathingSite": "LEE-ON-SOLENT",
          "eventStart": "2022-10-13T01:35:36",
          "eventStop": "2022-10-13T04:53:00",
          "duration": 197,
          "status": "Genuine",
          "associatedSiteId": 109713,
          "outfallName": "BROWNDOWN",
          "isImpacting": true,
          "overFlowSiteId": 108402
        },
        {
          "id": 343967002,
          "eventId": 641199,
          "siteUnitNumber": 12605,
          "bathingSite": "STOKES BAY",
          "eventStart": "2022-10-13T01:35:36",
          "eventStop": "2022-10-13T04:53:00",
          "duration": 197,
          "status": "Genuine",
          "associatedSiteId": 109713,
          "outfallName": "BROWNDOWN",
          "isImpacting": true,
          "overFlowSiteId": 108402,
          "historicSpillsList": []
        }
      ]
    },
    {
      "id": 343980330,
      "eventId": 649284,
      "siteUnitNumber": 12586,
      "bathingSite": "HOVE",
      "eventStart": "2022-10-13T03:21:00",
      "eventStop": "2022-10-13T04:50:00",
      "duration": 89,
      "status": "Genuine",
      "associatedSiteId": 109929,
      "outfallName": "SHOREHAM NO1",
      "isImpacting": true,
      "overFlowSiteId": 0,
      "historicSpillsList": [
        {
          "id": 343980330,
          "eventId": 649284,
          "siteUnitNumber": 12586,
          "bathingSite": "HOVE",
          "eventStart": "2022-10-13T03:21:00",
          "eventStop": "2022-10-13T04:50:00",
          "duration": 89,
          "status": "Genuine",
          "associatedSiteId": 109929,
          "outfallName": "SHOREHAM NO1",
          "isImpacting": true,
          "overFlowSiteId": 115434
        },
        {
          "id": 343980322,
          "eventId": 649284,
          "siteUnitNumber": 12587,
          "bathingSite": "SOUTHWICK",
          "eventStart": "2022-10-13T03:21:00",
          "eventStop": "2022-10-13T04:50:00",
          "duration": 89,
          "status": "Genuine",
          "associatedSiteId": 109929,
          "outfallName": "SHOREHAM NO1",
          "isImpacting": true,
          "overFlowSiteId": 115434,
          "historicSpillsList": []
        },
        {
          "id": 343980323,
          "eventId": 649284,
          "siteUnitNumber": 12588,
          "bathingSite": "SHOREHAM BEACH",
          "eventStart": "2022-10-13T03:21:00",
          "eventStop": "2022-10-13T04:50:00",
          "duration": 89,
          "status": "Genuine",
          "associatedSiteId": 109929,
          "outfallName": "SHOREHAM NO1",
          "isImpacting": true,
          "overFlowSiteId": 115434,
          "historicSpillsList": []
        }
      ]
    },
    {
      "id": 343996087,
      "eventId": 641112,
      "siteUnitNumber": 12616,
      "bathingSite": "GURNARD",
      "eventStart": "2022-10-13T00:33:50",
      "eventStop": "2022-10-13T04:37:00",
      "duration": 243,
      "status": "Genuine",
      "associatedSiteId": 110701,
      "outfallName": "TERMINUS ROAD COWES 2",
      "isImpacting": true,
      "overFlowSiteId": 0,
      "historicSpillsList": [
        {
          "id": 343996087,
          "eventId": 641112,
          "siteUnitNumber": 12616,
          "bathingSite": "GURNARD",
          "eventStart": "2022-10-13T00:33:50",
          "eventStop": "2022-10-13T04:37:00",
          "duration": 243,
          "status": "Genuine",
          "associatedSiteId": 110701,
          "outfallName": "TERMINUS ROAD COWES 2",
          "isImpacting": true,
          "overFlowSiteId": 108563
        },
        {
          "id": 343996088,
          "eventId": 641112,
          "siteUnitNumber": 12617,
          "bathingSite": "COWES",
          "eventStart": "2022-10-13T00:33:50",
          "eventStop": "2022-10-13T04:37:00",
          "duration": 243,
          "status": "Genuine",
          "associatedSiteId": 110701,
          "outfallName": "TERMINUS ROAD COWES 2",
          "isImpacting": true,
          "overFlowSiteId": 108563,
          "historicSpillsList": []
        }
      ]
    },
    {
      "id": 343986064,
      "eventId": 641173,
      "siteUnitNumber": 12591,
      "bathingSite": "LITTLEHAMPTON",
      "eventStart": "2022-10-13T01:35:00",
      "eventStop": "2022-10-13T04:36:00",
      "duration": 181,
      "status": "Genuine",
      "associatedSiteId": 109968,
      "outfallName": "FORD ROAD ARUNDEL",
      "isImpacting": true,
      "overFlowSiteId": 0,
      "historicSpillsList": [
        {
          "id": 343986064,
          "eventId": 641173,
          "siteUnitNumber": 12591,
          "bathingSite": "LITTLEHAMPTON",
          "eventStart": "2022-10-13T01:35:00",
          "eventStop": "2022-10-13T04:36:00",
          "duration": 181,
          "status": "Genuine",
          "associatedSiteId": 109968,
          "outfallName": "FORD ROAD ARUNDEL",
          "isImpacting": true,
          "overFlowSiteId": 108002
        }
      ]
    },
    {
      "id": 343966717,
      "eventId": 641102,
      "siteUnitNumber": 12616,
      "bathingSite": "GURNARD",
      "eventStart": "2022-10-13T00:39:12",
      "eventStop": "2022-10-13T04:23:30",
      "duration": 224,
      "status": "Genuine",
      "associatedSiteId": 109706,
      "outfallName": "HIGH STREET COWES",
      "isImpacting": false,
      "overFlowSiteId": 0,
      "historicSpillsList": []
    },
    {
      "id": 343997809,
      "eventId": 641306,
      "siteUnitNumber": 12662,
      "bathingSite": "CHICHESTER HARBOUR",
      "eventStart": "2022-10-13T02:59:43",
      "eventStop": "2022-10-13T04:14:00",
      "duration": 74,
      "status": "Genuine",
      "associatedSiteId": 111600,
      "outfallName": "MILL LANE FISHBOURNE",
      "isImpacting": true,
      "overFlowSiteId": 0,
      "historicSpillsList": [
        {
          "id": 343997809,
          "eventId": 641306,
          "siteUnitNumber": 12662,
          "bathingSite": "CHICHESTER HARBOUR",
          "eventStart": "2022-10-13T02:59:43",
          "eventStop": "2022-10-13T04:14:00",
          "duration": 74,
          "status": "Genuine",
          "associatedSiteId": 111600,
          "outfallName": "MILL LANE FISHBOURNE",
          "isImpacting": true,
          "overFlowSiteId": 111371
        }
      ]
    },
    {
      "id": 343961315,
      "eventId": 641196,
      "siteUnitNumber": 12616,
      "bathingSite": "GURNARD",
      "eventStart": "2022-10-13T01:26:47",
      "eventStop": "2022-10-13T04:12:00",
      "duration": 165,
      "status": "Genuine",
      "associatedSiteId": 109650,
      "outfallName": "MARSH ROAD GURNARD",
      "isImpacting": false,
      "overFlowSiteId": 0,
      "historicSpillsList": []
    },
    {
      "id": 343967151,
      "eventId": 641389,
      "siteUnitNumber": 12605,
      "bathingSite": "STOKES BAY",
      "eventStart": "2022-10-13T03:39:00",
      "eventStop": "2022-10-13T03:41:00",
      "duration": 2,
      "status": "Genuine",
      "associatedSiteId": 109718,
      "outfallName": "GREEN CRESCENT GOSPORT",
      "isImpacting": true,
      "overFlowSiteId": 0,
      "historicSpillsList": [
        {
          "id": 343967151,
          "eventId": 641389,
          "siteUnitNumber": 12605,
          "bathingSite": "STOKES BAY",
          "eventStart": "2022-10-13T03:39:00",
          "eventStop": "2022-10-13T03:41:00",
          "duration": 2,
          "status": "Genuine",
          "associatedSiteId": 109718,
          "outfallName": "GREEN CRESCENT GOSPORT",
          "isImpacting": true,
          "overFlowSiteId": 108436
        },
        {
          "id": 343967152,
          "eventId": 641389,
          "siteUnitNumber": 12606,
          "bathingSite": "LEE-ON-SOLENT",
          "eventStart": "2022-10-13T03:39:00",
          "eventStop": "2022-10-13T03:41:00",
          "duration": 2,
          "status": "Genuine",
          "associatedSiteId": 109718,
          "outfallName": "GREEN CRESCENT GOSPORT",
          "isImpacting": true,
          "overFlowSiteId": 108436,
          "historicSpillsList": []
        }
      ]
    },
    {
      "id": 343964891,
      "eventId": 642002,
      "siteUnitNumber": 12616,
      "bathingSite": "GURNARD",
      "eventStart": "2022-10-13T00:30:00",
      "eventStop": "2022-10-13T03:37:00",
      "duration": 187,
      "status": "Genuine",
      "associatedSiteId": 109700,
      "outfallName": "MARKET HILL COWES",
      "isImpacting": true,
      "overFlowSiteId": 0,
      "historicSpillsList": [
        {
          "id": 343964891,
          "eventId": 642002,
          "siteUnitNumber": 12616,
          "bathingSite": "GURNARD",
          "eventStart": "2022-10-13T00:30:00",
          "eventStop": "2022-10-13T03:37:00",
          "duration": 187,
          "status": "Genuine",
          "associatedSiteId": 109700,
          "outfallName": "MARKET HILL COWES",
          "isImpacting": true,
          "overFlowSiteId": 109299
        },
        {
          "id": 343964892,
          "eventId": 642002,
          "siteUnitNumber": 12617,
          "bathingSite": "COWES",
          "eventStart": "2022-10-13T00:30:00",
          "eventStop": "2022-10-13T03:37:00",
          "duration": 187,
          "status": "Genuine",
          "associatedSiteId": 109700,
          "outfallName": "MARKET HILL COWES",
          "isImpacting": true,
          "overFlowSiteId": 109299,
          "historicSpillsList": []
        }
      ]
    },
    {
      "id": 343971142,
      "eventId": 641119,
      "siteUnitNumber": 12661,
      "bathingSite": "LANGSTONE HARBOUR",
      "eventStart": "2022-10-13T01:09:25",
      "eventStop": "2022-10-13T02:59:09",
      "duration": 109,
      "status": "Genuine",
      "associatedSiteId": 109818,
      "outfallName": "KIRTLEY CLOSE DRAYTON",
      "isImpacting": true,
      "overFlowSiteId": 0,
      "historicSpillsList": [
        {
          "id": 343971142,
          "eventId": 641119,
          "siteUnitNumber": 12661,
          "bathingSite": "LANGSTONE HARBOUR",
          "eventStart": "2022-10-13T01:09:25",
          "eventStop": "2022-10-13T02:59:09",
          "duration": 109,
          "status": "Genuine",
          "associatedSiteId": 109818,
          "outfallName": "KIRTLEY CLOSE DRAYTON",
          "isImpacting": true,
          "overFlowSiteId": 108774
        }
      ]
    }
  ]
}