{
  "currentPage": 513,
  "totalItems": 21025,
  "totalPages": 841,
  "items": [
    {
      "id": 344823955,
      "eventId": 658705,
      "siteUnitNumber": 12603,
      "bathingSite": "EASTNEY",
      "eventStart": "2022-11-06T13:45:00",
      "eventStop": "2022-11-06T16:00:00",
      "duration": 135,
      "status": "Genuine",
      "associatedSiteId": 109823,
      "outfallName": "FORT CUMBERLAND NO1",
      "isImpacting": true,
      "overFlowSiteId": 0,
      "historicSpillsList": [
        {
          "id": 344823955,
          "eventId": 658705,
          "siteUnitNumber": 12603,
          "bathingSite": "EASTNEY",
          "eventStart": "2022-11-06T13:45:00",
          "eventStop": "2022-11-06T16:00:00",
          "duration": 135,
          "status": "Genuine",
          "associatedSiteId": 109823,
          "outfallName": "FORT CUMBERLAND NO1",
          "isImpacting": true,
          "overFlowSiteId": 110658
        },
        {
          "id": 344823957,
          "eventId": 658705,
          "siteUnitNumber": 12661,
          "bathingSite": "LANGSTONE HARBOUR",
          "eventStart": "2022-11-06T13:45:00",
          "eventStop": "2022-11-06T16:00:00",
          "duration": 135,
          "status": "Genuine",
          "associatedSiteId": 109823,
          "outfallName": "FORT CUMBERLAND NO1",
          "isImpacting": true,
          "overFlowSiteId": 110658,
          "historicSpillsList": []
        }
      ]
    },
    {
      "id": 344826074,
      "eventId": 658559,
      "siteUnitNumber": 12662,
      "bathingSite": "CHICHESTER HARBOUR",
      "eventStart": "2022-11-06T12:47:17",
      "eventStop": "2022-11-06T16:00:00",
      "duration": 192,
      "status": "Genuine",
      "associatedSiteId": 109836,
      "outfallName": "CHICHESTER",
      "isImpacting": true,
      "overFlowSiteId": 0,
      "historicSpillsList": [
        {
          "id": 344826074,
          "eventId": 658559,
          "siteUnitNumber": 12662,
          "bathingSite": "CHICHESTER HARBOUR",
          "eventStart": "2022-11-06T12:47:17",
          "eventStop": "2022-11-06T16:00:00",
          "duration": 192,
          "status": "Genuine",
          "associatedSiteId": 109836,
          "outfallName": "CHICHESTER",
          "isImpacting": true,
          "overFlowSiteId": 115401
        }
      ]
    },
    {
      "id": 344837869,
      "eventId": 658116,
      "siteUnitNumber": 12591,
      "bathingSite": "LITTLEHAMPTON",
      "eventStart": "2022-11-06T08:36:01",
      "eventStop": "2022-11-06T15:57:00",
      "duration": 440,
      "status": "Genuine",
      "associatedSiteId": 109968,
      "outfallName": "FORD ROAD ARUNDEL",
      "isImpacting": true,
      "overFlowSiteId": 0,
      "historicSpillsList": [
        {
          "id": 344837869,
          "eventId": 658116,
          "siteUnitNumber": 12591,
          "bathingSite": "LITTLEHAMPTON",
          "eventStart": "2022-11-06T08:36:01",
          "eventStop": "2022-11-06T15:57:00",
          "duration": 440,
          "status": "Genuine",
          "associatedSiteId": 109968,
          "outfallName": "FORD ROAD ARUNDEL",
          "isImpacting": true,
          "overFlowSiteId": 108002
        }
      ]
    },
    {
      "id": 344834272,
      "eventId": 658770,
      "siteUnitNumber": 12582,
      "bathingSite": "SEAFORD",
      "eventStart": "2022-11-06T14:15:00",
      "eventStop": "2022-11-06T15:45:00",
      "duration": 90,
      "status": "Genuine",
      "associatedSiteId": 109957,
      "outfallName": "PORTOBELLO BRIGHTON NO2",
      "isImpacting": true,
      "overFlowSiteId": 0,
      "historicSpillsList": [
        {
          "id": 344834273,
          "eventId": 658770,
          "siteUnitNumber": 12583,
          "bathingSite": "SALTDEAN",
          "eventStart": "2022-11-06T14:15:00",
          "eventStop": "2022-11-06T15:45:00",
          "duration": 90,
          "status": "Genuine",
          "associatedSiteId": 109957,
          "outfallName": "PORTOBELLO BRIGHTON NO2",
          "isImpacting": true,
          "overFlowSiteId": 116036,
          "historicSpillsList": []
        }
      ]
    },
    {
      "id": 344823600,
      "eventId": 658227,
      "siteUnitNumber": 12604,
      "bathingSite": "SOUTHSEA EAST",
      "eventStart": "2022-11-06T07:15:59",
      "eventStop": "2022-11-06T15:37:00",
      "duration": 501,
      "status": "Genuine",
      "associatedSiteId": 109822,
      "outfallName": "PIER ROAD SOUTHSEA",
      "isImpacting": true,
      "overFlowSiteId": 0,
      "historicSpillsList": [
        {
          "id": 344823600,
          "eventId": 658227,
          "siteUnitNumber": 12604,
          "bathingSite": "SOUTHSEA EAST",
          "eventStart": "2022-11-06T07:15:59",
          "eventStop": "2022-11-06T15:37:00",
          "duration": 501,
          "status": "Genuine",
          "associatedSiteId": 109822,
          "outfallName": "PIER ROAD SOUTHSEA",
          "isImpacting": true,
          "overFlowSiteId": 108469
        },
        {
          "id": 344823601,
          "eventId": 658227,
          "siteUnitNumber": 12605,
          "bathingSite": "STOKES BAY",
          "eventStart": "2022-11-06T07:15:59",
          "eventStop": "2022-11-06T15:37:00",
          "duration": 501,
          "status": "Genuine",
          "associatedSiteId": 109822,
          "outfallName": "PIER ROAD SOUTHSEA",
          "isImpacting": true,
          "overFlowSiteId": 108469,
          "historicSpillsList": []
        }
      ]
    },
    {
      "id": 344825249,
      "eventId": 658898,
      "siteUnitNumber": 12547,
      "bathingSite": "WEST BEACH WHITSTABLE",
      "eventStart": "2022-11-06T15:16:31",
      "eventStop": "2022-11-06T15:35:19",
      "duration": 18,
      "status": "Genuine",
      "associatedSiteId": 109831,
      "outfallName": "TANKERTON CIRCUS",
      "isImpacting": false,
      "overFlowSiteId": 0,
      "historicSpillsList": []
    },
    {
      "id": 344826281,
      "eventId": 658873,
      "siteUnitNumber": 12544,
      "bathingSite": "SHEERNESS",
      "eventStart": "2022-11-06T15:13:19",
      "eventStop": "2022-11-06T15:33:00",
      "duration": 19,
      "status": "Genuine",
      "associatedSiteId": 109869,
      "outfallName": "GRAIN NO2",
      "isImpacting": true,
      "overFlowSiteId": 0,
      "historicSpillsList": [
        {
          "id": 344826281,
          "eventId": 658873,
          "siteUnitNumber": 12544,
          "bathingSite": "SHEERNESS",
          "eventStart": "2022-11-06T15:13:19",
          "eventStop": "2022-11-06T15:33:00",
          "duration": 19,
          "status": "Genuine",
          "associatedSiteId": 109869,
          "outfallName": "GRAIN NO2",
          "isImpacting": true,
          "overFlowSiteId": 115411
        }
      ]
    },
    {
      "id": 344818931,
      "eventId": 658603,
      "siteUnitNumber": 12607,
      "bathingSite": "HILLHEAD",
      "eventStart": "2022-11-06T13:15:00",
      "eventStop": "2022-11-06T15:30:00",
      "duration": 135,
      "status": "Genuine",
      "associatedSiteId": 109717,
      "outfallName": "NEWGATE LANE PEEL COMMON",
      "isImpacting": false,
      "overFlowSiteId": 0,
      "historicSpillsList": []
    },
    {
      "id": 344838227,
      "eventId": 659796,
      "siteUnitNumber": 12592,
      "bathingSite": "MIDDLETON-ON-SEA",
      "eventStart": "2022-11-06T12:30:00",
      "eventStop": "2022-11-06T15:30:00",
      "duration": 180,
      "status": "Genuine",
      "associatedSiteId": 109972,
      "outfallName": "BOGNOR MAIN",
      "isImpacting": true,
      "overFlowSiteId": 0,
      "historicSpillsList": [
        {
          "id": 344838228,
          "eventId": 659796,
          "siteUnitNumber": 12593,
          "bathingSite": "FELPHAM",
          "eventStart": "2022-11-06T12:30:00",
          "eventStop": "2022-11-06T15:30:00",
          "duration": 180,
          "status": "Genuine",
          "associatedSiteId": 109972,
          "outfallName": "BOGNOR MAIN",
          "isImpacting": true,
          "overFlowSiteId": 107412,
          "historicSpillsList": []
        }
      ]
    },
    {
      "id": 344825242,
      "eventId": 659228,
      "siteUnitNumber": 12547,
      "bathingSite": "WEST BEACH WHITSTABLE",
      "eventStart": "2022-11-06T12:29:59",
      "eventStop": "2022-11-06T15:16:31",
      "duration": 166,
      "status": "Not Genuine",
      "associatedSiteId": 109831,
      "outfallName": "TANKERTON CIRCUS",
      "isImpacting": false,
      "overFlowSiteId": 0,
      "historicSpillsList": []
    },
    {
      "id": 344822008,
      "eventId": 658593,
      "siteUnitNumber": 12618,
      "bathingSite": "RYDE",
      "eventStart": "2022-11-06T12:55:00",
      "eventStop": "2022-11-06T15:13:00",
      "duration": 138,
      "status": "Genuine",
      "associatedSiteId": 109780,
      "outfallName": "LADIES WALK BINSTEAD",
      "isImpacting": true,
      "overFlowSiteId": 0,
      "historicSpillsList": [
        {
          "id": 344822008,
          "eventId": 658593,
          "siteUnitNumber": 12618,
          "bathingSite": "RYDE",
          "eventStart": "2022-11-06T12:55:00",
          "eventStop": "2022-11-06T15:13:00",
          "duration": 138,
          "status": "Genuine",
          "associatedSiteId": 109780,
          "outfallName": "LADIES WALK BINSTEAD",
          "isImpacting": true,
          "overFlowSiteId": 107406
        }
      ]
    },
    {
      "id": 344831612,
      "eventId": 658767,
      "siteUnitNumber": 12587,
      "bathingSite": "SOUTHWICK",
      "eventStart": "2022-11-06T13:50:00",
      "eventStop": "2022-11-06T15:12:00",
      "duration": 82,
      "status": "Genuine",
      "associatedSiteId": 109922,
      "outfallName": "ROPETACKLE STREET SHOREHAM",
      "isImpacting": false,
      "overFlowSiteId": 0,
      "historicSpillsList": []
    },
    {
      "id": 344818843,
      "eventId": 658583,
      "siteUnitNumber": 12606,
      "bathingSite": "LEE-ON-SOLENT",
      "eventStart": "2022-11-06T12:51:31",
      "eventStop": "2022-11-06T15:10:28",
      "duration": 138,
      "status": "Genuine",
      "associatedSiteId": 109715,
      "outfallName": "SALTERNS ROAD HILL HEAD",
      "isImpacting": true,
      "overFlowSiteId": 0,
      "historicSpillsList": [
        {
          "id": 344818844,
          "eventId": 658583,
          "siteUnitNumber": 12607,
          "bathingSite": "HILLHEAD",
          "eventStart": "2022-11-06T12:51:31",
          "eventStop": "2022-11-06T15:10:28",
          "duration": 138,
          "status": "Genuine",
          "associatedSiteId": 109715,
          "outfallName": "SALTERNS ROAD HILL HEAD",
          "isImpacting": true,
          "overFlowSiteId": 108441,
          "historicSpillsList": []
        }
      ]
    },
    {
      "id": 344840122,
      "eventId": 657742,
      "siteUnitNumber": 12624,
      "bathingSite": "SANDOWN",
      "eventStart": "2022-11-06T02:36:00",
      "eventStop": "2022-11-06T15:07:00",
      "duration": 751,
      "status": "Genuine",
      "associatedSiteId": 110029,
      "outfallName": "HOPE BEACH SHANKLIN NEW",
      "isImpacting": true,
      "overFlowSiteId": 0,
      "historicSpillsList": [
        {
          "id": 344840123,
          "eventId": 657742,
          "siteUnitNumber": 12625,
          "bathingSite": "SHANKLIN",
          "eventStart": "2022-11-06T02:36:00",
          "eventStop": "2022-11-06T15:07:00",
          "duration": 751,
          "status": "Genuine",
          "associatedSiteId": 110029,
          "outfallName": "HOPE BEACH SHANKLIN NEW",
          "isImpacting": true,
          "overFlowSiteId": 109389,
          "historicSpillsList": []
        }
      ]
    },
    {
      "id": 344818949,
      "eventId": 658611,
      "siteUnitNumber": 12605,
      "bathingSite": "STOKES BAY",
      "eventStart": "2022-11-06T13:04:00",
      "eventStop": "2022-11-06T15:04:00",
      "duration": 120,
      "status": "Genuine",
      "associatedSiteId": 109718,
      "outfallName": "GREEN CRESCENT GOSPORT",
      "isImpacting": true,
      "overFlowSiteId": 0,
      "historicSpillsList": [
        {
          "id": 344818949,
          "eventId": 658611,
          "siteUnitNumber": 12605,
          "bathingSite": "STOKES BAY",
          "eventStart": "2022-11-06T13:04:00",
          "eventStop": "2022-11-06T15:04:00",
          "duration": 120,
          "status": "Genuine",
          "associatedSiteId": 109718,
          "outfallName": "GREEN CRESCENT GOSPORT",
          "isImpacting": true,
          "overFlowSiteId": 108436
        },
        {
          "id": 344818950,
          "eventId": 658611,
          "siteUnitNumber": 12606,
          "bathingSite": "LEE-ON-SOLENT",
          "eventStart": "2022-11-06T13:04:00",
          "eventStop": "2022-11-06T15:04:00",
          "duration": 120,
          "status": "Genuine",
          "associatedSiteId": 109718,
          "outfallName": "GREEN CRESCENT GOSPORT",
          "isImpacting": true,
          "overFlowSiteId": 108436,
          "historicSpillsList": []
        }
      ]
    },
    {
      "id": 344819977,
      "eventId": 658102,
      "siteUnitNumber": 12607,
      "bathingSite": "HILLHEAD",
      "eventStart": "2022-11-06T08:25:20",
      "eventStop": "2022-11-06T15:00:00",
      "duration": 394,
      "status": "Genuine",
      "associatedSiteId": 109751,
      "outfallName": "HOOK PARK NO.1",
      "isImpacting": false,
      "overFlowSiteId": 0,
      "historicSpillsList": []
    },
    {
      "id": 344822175,
      "eventId": 660230,
      "siteUnitNumber": 12618,
      "bathingSite": "RYDE",
      "eventStart": "2022-11-06T12:54:00",
      "eventStop": "2022-11-06T14:38:00",
      "duration": 104,
      "status": "Genuine",
      "associatedSiteId": 109785,
      "outfallName": "SIMEON STREET RYDE",
      "isImpacting": false,
      "overFlowSiteId": 0,
      "historicSpillsList": []
    },
    {
      "id": 344820325,
      "eventId": 661409,
      "siteUnitNumber": 12661,
      "bathingSite": "LANGSTONE HARBOUR",
      "eventStart": "2022-11-05T10:57:00",
      "eventStop": "2022-11-06T14:27:00",
      "duration": 1650,
      "status": "Genuine",
      "associatedSiteId": 109773,
      "outfallName": "BUDDS FARM HAVANT NO2",
      "isImpacting": true,
      "overFlowSiteId": 0,
      "historicSpillsList": [
        {
          "id": 344820325,
          "eventId": 661409,
          "siteUnitNumber": 12661,
          "bathingSite": "LANGSTONE HARBOUR",
          "eventStart": "2022-11-05T10:57:00",
          "eventStop": "2022-11-06T14:27:00",
          "duration": 1650,
          "status": "Genuine",
          "associatedSiteId": 109773,
          "outfallName": "BUDDS FARM HAVANT NO2",
          "isImpacting": true,
          "overFlowSiteId": 115936
        }
      ]
    },
    {
      "id": 344831717,
      "eventId": 658769,
      "siteUnitNumber": 12587,
      "bathingSite": "SOUTHWICK",
      "eventStart": "2022-11-06T13:36:00",
      "eventStop": "2022-11-06T14:15:00",
      "duration": 39,
      "status": "Genuine",
      "associatedSiteId": 109923,
      "outfallName": "THE GREEN SOUTHWICK",
      "isImpacting": false,
      "overFlowSiteId": 0,
      "historicSpillsList": []
    },
    {
      "id": 344822884,
      "eventId": 658768,
      "siteUnitNumber": 12661,
      "bathingSite": "LANGSTONE HARBOUR",
      "eventStart": "2022-11-06T13:24:03",
      "eventStop": "2022-11-06T14:11:00",
      "duration": 46,
      "status": "Genuine",
      "associatedSiteId": 109817,
      "outfallName": "MAINLAND DRAYTON",
      "isImpacting": true,
      "overFlowSiteId": 0,
      "historicSpillsList": [
        {
          "id": 344822884,
          "eventId": 658768,
          "siteUnitNumber": 12661,
          "bathingSite": "LANGSTONE HARBOUR",
          "eventStart": "2022-11-06T13:24:03",
          "eventStop": "2022-11-06T14:11:00",
          "duration": 46,
          "status": "Genuine",
          "associatedSiteId": 109817,
          "outfallName": "MAINLAND DRAYTON",
          "isImpacting": true,
          "overFlowSiteId": 115960
        }
      ]
    },
    {
      "id": 344816641,
      "eventId": 659561,
      "siteUnitNumber": 12616,
      "bathingSite": "GURNARD",
      "eventStart": "2022-11-06T12:36:14",
      "eventStop": "2022-11-06T14:02:00",
      "duration": 85,
      "status": "Genuine",
      "associatedSiteId": 109700,
      "outfallName": "MARKET HILL COWES",
      "isImpacting": false,
      "overFlowSiteId": 0,
      "historicSpillsList": []
    },
    {
      "id": 344826466,
      "eventId": 658432,
      "siteUnitNumber": 12579,
      "bathingSite": "PEVENSEY BAY",
      "eventStart": "2022-11-06T11:55:00",
      "eventStop": "2022-11-06T14:01:00",
      "duration": 126,
      "status": "Genuine",
      "associatedSiteId": 109889,
      "outfallName": "RATTLE ROAD WESTHAM",
      "isImpacting": true,
      "overFlowSiteId": 0,
      "historicSpillsList": [
        {
          "id": 344826466,
          "eventId": 658432,
          "siteUnitNumber": 12579,
          "bathingSite": "PEVENSEY BAY",
          "eventStart": "2022-11-06T11:55:00",
          "eventStop": "2022-11-06T14:01:00",
          "duration": 126,
          "status": "Genuine",
          "associatedSiteId": 109889,
          "outfallName": "RATTLE ROAD WESTHAM",
          "isImpacting": true,
          "overFlowSiteId": 108315
        }
      ]
    },
    {
      "id": 344825527,
      "eventId": 658531,
      "siteUnitNumber": 12547,
      "bathingSite": "WEST BEACH WHITSTABLE",
      "eventStart": "2022-11-06T12:11:50",
      "eventStop": "2022-11-06T14:00:00",
      "duration": 108,
      "status": "Genuine",
      "associatedSiteId": 109832,
      "outfallName": "GORREL NO1",
      "isImpacting": true,
      "overFlowSiteId": 0,
      "historicSpillsList": [
        {
          "id": 344825522,
          "eventId": 658531,
          "siteUnitNumber": 12548,
          "bathingSite": "TANKERTON",
          "eventStart": "2022-11-06T12:11:50",
          "eventStop": "2022-11-06T14:00:00",
          "duration": 108,
          "status": "Genuine",
          "associatedSiteId": 109832,
          "outfallName": "GORREL NO1",
          "isImpacting": true,
          "overFlowSiteId": 103279,
          "historicSpillsList": []
        }
      ]
    },
    {
      "id": 344818473,
      "eventId": 658429,
      "siteUnitNumber": 12616,
      "bathingSite": "GURNARD",
      "eventStart": "2022-11-06T11:30:57",
      "eventStop": "2022-11-06T13:49:13",
      "duration": 138,
      "status": "Genuine",
      "associatedSiteId": 109706,
      "outfallName": "HIGH STREET COWES",
      "isImpacting": false,
      "overFlowSiteId": 0,
      "historicSpillsList": []
    },
    {
      "id": 344822091,
      "eventId": 658607,
      "siteUnitNumber": 12618,
      "bathingSite": "RYDE",
      "eventStart": "2022-11-06T12:53:51",
      "eventStop": "2022-11-06T13:30:00",
      "duration": 36,
      "status": "Not Genuine",
      "associatedSiteId": 109782,
      "outfallName": "AUGUSTA ROAD RYDE",
      "isImpacting": true,
      "overFlowSiteId": 0,
      "historicSpillsList": []
    }
  ]
}