{
  "currentPage": 613,
  "totalItems": 18701,
  "totalPages": 749,
  "items": [
    {
      "id": 344039900,
      "eventId": 496655,
      "siteUnitNumber": 12582,
      "bathingSite": "SEAFORD",
      "eventStart": "2021-09-27T09:01:55",
      "eventStop": "2021-09-27T09:21:34",
      "duration": 19,
      "status": "Genuine",
      "associatedSiteId": 110920,
      "outfallName": "NEWHAVEN",
      "isImpacting": true,
      "overFlowSiteId": 0,
      "historicSpillsList": [
        {
          "id": 344039900,
          "eventId": 496655,
          "siteUnitNumber": 12582,
          "bathingSite": "SEAFORD",
          "eventStart": "2021-09-27T09:01:55",
          "eventStop": "2021-09-27T09:21:34",
          "duration": 19,
          "status": "Genuine",
          "associatedSiteId": 110920,
          "outfallName": "NEWHAVEN",
          "isImpacting": true,
          "overFlowSiteId": 116065
        }
      ]
    },
    {
      "id": 344015567,
      "eventId": 496569,
      "siteUnitNumber": 12548,
      "bathingSite": "TANKERTON",
      "eventStart": "2021-09-27T08:24:12",
      "eventStop": "2021-09-27T08:53:29",
      "duration": 29,
      "status": "Genuine",
      "associatedSiteId": 109830,
      "outfallName": "SWALECLIFFE NO1",
      "isImpacting": true,
      "overFlowSiteId": 0,
      "historicSpillsList": [
        {
          "id": 344015567,
          "eventId": 496569,
          "siteUnitNumber": 12548,
          "bathingSite": "TANKERTON",
          "eventStart": "2021-09-27T08:24:12",
          "eventStop": "2021-09-27T08:53:29",
          "duration": 29,
          "status": "Genuine",
          "associatedSiteId": 109830,
          "outfallName": "SWALECLIFFE NO1",
          "isImpacting": true,
          "overFlowSiteId": 115444
        },
        {
          "id": 344015568,
          "eventId": 496569,
          "siteUnitNumber": 12549,
          "bathingSite": "HERNE BAY CENTRAL",
          "eventStart": "2021-09-27T08:24:12",
          "eventStop": "2021-09-27T08:53:29",
          "duration": 29,
          "status": "Genuine",
          "associatedSiteId": 109830,
          "outfallName": "SWALECLIFFE NO1",
          "isImpacting": true,
          "overFlowSiteId": 115444,
          "historicSpillsList": []
        }
      ]
    },
    {
      "id": 344039899,
      "eventId": 496485,
      "siteUnitNumber": 12582,
      "bathingSite": "SEAFORD",
      "eventStart": "2021-09-27T07:12:17",
      "eventStop": "2021-09-27T08:00:49",
      "duration": 48,
      "status": "Genuine",
      "associatedSiteId": 110920,
      "outfallName": "NEWHAVEN",
      "isImpacting": true,
      "overFlowSiteId": 0,
      "historicSpillsList": [
        {
          "id": 344039899,
          "eventId": 496485,
          "siteUnitNumber": 12582,
          "bathingSite": "SEAFORD",
          "eventStart": "2021-09-27T07:12:17",
          "eventStop": "2021-09-27T08:00:49",
          "duration": 48,
          "status": "Genuine",
          "associatedSiteId": 110920,
          "outfallName": "NEWHAVEN",
          "isImpacting": true,
          "overFlowSiteId": 116065
        }
      ]
    },
    {
      "id": 344038999,
      "eventId": 496480,
      "siteUnitNumber": 12617,
      "bathingSite": "COWES",
      "eventStart": "2021-09-27T07:38:00",
      "eventStop": "2021-09-27T07:41:00",
      "duration": 3,
      "status": "Genuine",
      "associatedSiteId": 110701,
      "outfallName": "TERMINUS ROAD COWES 2",
      "isImpacting": true,
      "overFlowSiteId": 0,
      "historicSpillsList": [
        {
          "id": 344038999,
          "eventId": 496480,
          "siteUnitNumber": 12617,
          "bathingSite": "COWES",
          "eventStart": "2021-09-27T07:38:00",
          "eventStop": "2021-09-27T07:41:00",
          "duration": 3,
          "status": "Genuine",
          "associatedSiteId": 110701,
          "outfallName": "TERMINUS ROAD COWES 2",
          "isImpacting": true,
          "overFlowSiteId": 108562
        },
        {
          "id": 344039000,
          "eventId": 496480,
          "siteUnitNumber": 12616,
          "bathingSite": "GURNARD",
          "eventStart": "2021-09-27T07:38:00",
          "eventStop": "2021-09-27T07:41:00",
          "duration": 3,
          "status": "Genuine",
          "associatedSiteId": 110701,
          "outfallName": "TERMINUS ROAD COWES 2",
          "isImpacting": true,
          "overFlowSiteId": 108562,
          "historicSpillsList": []
        }
      ]
    },
    {
      "id": 344039001,
      "eventId": 496446,
      "siteUnitNumber": 12616,
      "bathingSite": "GURNARD",
      "eventStart": "2021-09-27T05:17:00",
      "eventStop": "2021-09-27T05:39:00",
      "duration": 22,
      "status": "Genuine",
      "associatedSiteId": 110701,
      "outfallName": "TERMINUS ROAD COWES 2",
      "isImpacting": true,
      "overFlowSiteId": 0,
      "historicSpillsList": [
        {
          "id": 344039001,
          "eventId": 496446,
          "siteUnitNumber": 12616,
          "bathingSite": "GURNARD",
          "eventStart": "2021-09-27T05:17:00",
          "eventStop": "2021-09-27T05:39:00",
          "duration": 22,
          "status": "Genuine",
          "associatedSiteId": 110701,
          "outfallName": "TERMINUS ROAD COWES 2",
          "isImpacting": true,
          "overFlowSiteId": 108563
        },
        {
          "id": 344039002,
          "eventId": 496446,
          "siteUnitNumber": 12617,
          "bathingSite": "COWES",
          "eventStart": "2021-09-27T05:17:00",
          "eventStop": "2021-09-27T05:39:00",
          "duration": 22,
          "status": "Genuine",
          "associatedSiteId": 110701,
          "outfallName": "TERMINUS ROAD COWES 2",
          "isImpacting": true,
          "overFlowSiteId": 108563,
          "historicSpillsList": []
        }
      ]
    },
    {
      "id": 344039003,
      "eventId": 496445,
      "siteUnitNumber": 12616,
      "bathingSite": "GURNARD",
      "eventStart": "2021-09-27T05:28:00",
      "eventStop": "2021-09-27T05:30:00",
      "duration": 2,
      "status": "Genuine",
      "associatedSiteId": 110701,
      "outfallName": "TERMINUS ROAD COWES 2",
      "isImpacting": true,
      "overFlowSiteId": 0,
      "historicSpillsList": [
        {
          "id": 344039003,
          "eventId": 496445,
          "siteUnitNumber": 12616,
          "bathingSite": "GURNARD",
          "eventStart": "2021-09-27T05:28:00",
          "eventStop": "2021-09-27T05:30:00",
          "duration": 2,
          "status": "Genuine",
          "associatedSiteId": 110701,
          "outfallName": "TERMINUS ROAD COWES 2",
          "isImpacting": true,
          "overFlowSiteId": 108562
        },
        {
          "id": 344039004,
          "eventId": 496445,
          "siteUnitNumber": 12617,
          "bathingSite": "COWES",
          "eventStart": "2021-09-27T05:28:00",
          "eventStop": "2021-09-27T05:30:00",
          "duration": 2,
          "status": "Genuine",
          "associatedSiteId": 110701,
          "outfallName": "TERMINUS ROAD COWES 2",
          "isImpacting": true,
          "overFlowSiteId": 108562,
          "historicSpillsList": []
        }
      ]
    },
    {
      "id": 344045429,
      "eventId": 495908,
      "siteUnitNumber": 12662,
      "bathingSite": "CHICHESTER HARBOUR",
      "eventStart": "2021-09-24T17:38:00",
      "eventStop": "2021-09-24T20:35:00",
      "duration": 177,
      "status": "Genuine",
      "associatedSiteId": 115540,
      "outfallName": "TAYLORS LANE BOSHAM",
      "isImpacting": true,
      "overFlowSiteId": 0,
      "historicSpillsList": [
        {
          "id": 344045429,
          "eventId": 495908,
          "siteUnitNumber": 12662,
          "bathingSite": "CHICHESTER HARBOUR",
          "eventStart": "2021-09-24T17:38:00",
          "eventStop": "2021-09-24T20:35:00",
          "duration": 177,
          "status": "Genuine",
          "associatedSiteId": 115540,
          "outfallName": "TAYLORS LANE BOSHAM",
          "isImpacting": true,
          "overFlowSiteId": 108353
        }
      ]
    },
    {
      "id": 344003739,
      "eventId": 494574,
      "siteUnitNumber": 12550,
      "bathingSite": "MINSTER LEAS",
      "eventStart": "2021-09-19T17:10:33",
      "eventStop": "2021-09-19T18:13:28",
      "duration": 62,
      "status": "Genuine",
      "associatedSiteId": 109620,
      "outfallName": "WESTCLIFFE DRIVE MINSTER IOS",
      "isImpacting": true,
      "overFlowSiteId": 0,
      "historicSpillsList": [
        {
          "id": 344003739,
          "eventId": 494574,
          "siteUnitNumber": 12550,
          "bathingSite": "MINSTER LEAS",
          "eventStart": "2021-09-19T17:10:33",
          "eventStop": "2021-09-19T18:13:28",
          "duration": 62,
          "status": "Genuine",
          "associatedSiteId": 109620,
          "outfallName": "WESTCLIFFE DRIVE MINSTER IOS",
          "isImpacting": true,
          "overFlowSiteId": 108755
        }
      ]
    },
    {
      "id": 344017084,
      "eventId": 494559,
      "siteUnitNumber": 12544,
      "bathingSite": "SHEERNESS",
      "eventStart": "2021-09-19T17:47:00",
      "eventStop": "2021-09-19T18:06:00",
      "duration": 19,
      "status": "Genuine",
      "associatedSiteId": 109869,
      "outfallName": "GRAIN NO2",
      "isImpacting": true,
      "overFlowSiteId": 0,
      "historicSpillsList": [
        {
          "id": 344017084,
          "eventId": 494559,
          "siteUnitNumber": 12544,
          "bathingSite": "SHEERNESS",
          "eventStart": "2021-09-19T17:47:00",
          "eventStop": "2021-09-19T18:06:00",
          "duration": 19,
          "status": "Genuine",
          "associatedSiteId": 109869,
          "outfallName": "GRAIN NO2",
          "isImpacting": true,
          "overFlowSiteId": 115411
        }
      ]
    },
    {
      "id": 344029252,
      "eventId": 494789,
      "siteUnitNumber": 12591,
      "bathingSite": "LITTLEHAMPTON",
      "eventStart": "2021-09-19T12:21:00",
      "eventStop": "2021-09-19T13:24:00",
      "duration": 63,
      "status": "Genuine",
      "associatedSiteId": 109977,
      "outfallName": "FORESHORE TANK LITTLEHAMPTON",
      "isImpacting": true,
      "overFlowSiteId": 0,
      "historicSpillsList": [
        {
          "id": 344029252,
          "eventId": 494789,
          "siteUnitNumber": 12591,
          "bathingSite": "LITTLEHAMPTON",
          "eventStart": "2021-09-19T12:21:00",
          "eventStop": "2021-09-19T13:24:00",
          "duration": 63,
          "status": "Genuine",
          "associatedSiteId": 109977,
          "outfallName": "FORESHORE TANK LITTLEHAMPTON",
          "isImpacting": true,
          "overFlowSiteId": 109390
        }
      ]
    },
    {
      "id": 344028260,
      "eventId": 494420,
      "siteUnitNumber": 12591,
      "bathingSite": "LITTLEHAMPTON",
      "eventStart": "2021-09-19T11:00:00",
      "eventStop": "2021-09-19T12:16:00",
      "duration": 76,
      "status": "Genuine",
      "associatedSiteId": 109965,
      "outfallName": "SEA ROAD LITTLEHAMPTON",
      "isImpacting": true,
      "overFlowSiteId": 0,
      "historicSpillsList": [
        {
          "id": 344028260,
          "eventId": 494420,
          "siteUnitNumber": 12591,
          "bathingSite": "LITTLEHAMPTON",
          "eventStart": "2021-09-19T11:00:00",
          "eventStop": "2021-09-19T12:16:00",
          "duration": 76,
          "status": "Genuine",
          "associatedSiteId": 109965,
          "outfallName": "SEA ROAD LITTLEHAMPTON",
          "isImpacting": true,
          "overFlowSiteId": 109368
        }
      ]
    },
    {
      "id": 344027494,
      "eventId": 494436,
      "siteUnitNumber": 12594,
      "bathingSite": "BOGNOR REGIS EAST",
      "eventStart": "2021-09-19T09:30:00",
      "eventStop": "2021-09-19T11:52:00",
      "duration": 142,
      "status": "Genuine",
      "associatedSiteId": 109959,
      "outfallName": "WEST PARK BOGNOR REGIS",
      "isImpacting": true,
      "overFlowSiteId": 0,
      "historicSpillsList": [
        {
          "id": 344027494,
          "eventId": 494436,
          "siteUnitNumber": 12594,
          "bathingSite": "BOGNOR REGIS EAST",
          "eventStart": "2021-09-19T09:30:00",
          "eventStop": "2021-09-19T11:52:00",
          "duration": 142,
          "status": "Genuine",
          "associatedSiteId": 109959,
          "outfallName": "WEST PARK BOGNOR REGIS",
          "isImpacting": true,
          "overFlowSiteId": 108160
        },
        {
          "id": 344027495,
          "eventId": 494436,
          "siteUnitNumber": 12595,
          "bathingSite": "BOGNOR REGIS (ALDWICK)",
          "eventStart": "2021-09-19T09:30:00",
          "eventStop": "2021-09-19T11:52:00",
          "duration": 142,
          "status": "Genuine",
          "associatedSiteId": 109959,
          "outfallName": "WEST PARK BOGNOR REGIS",
          "isImpacting": true,
          "overFlowSiteId": 108160,
          "historicSpillsList": []
        },
        {
          "id": 344027496,
          "eventId": 494436,
          "siteUnitNumber": 12596,
          "bathingSite": "PAGHAM",
          "eventStart": "2021-09-19T09:30:00",
          "eventStop": "2021-09-19T11:52:00",
          "duration": 142,
          "status": "Genuine",
          "associatedSiteId": 109959,
          "outfallName": "WEST PARK BOGNOR REGIS",
          "isImpacting": true,
          "overFlowSiteId": 108160,
          "historicSpillsList": []
        }
      ]
    },
    {
      "id": 344029251,
      "eventId": 494463,
      "siteUnitNumber": 12591,
      "bathingSite": "LITTLEHAMPTON",
      "eventStart": "2021-09-19T10:45:00",
      "eventStop": "2021-09-19T11:26:00",
      "duration": 41,
      "status": "Genuine",
      "associatedSiteId": 109977,
      "outfallName": "FORESHORE TANK LITTLEHAMPTON",
      "isImpacting": true,
      "overFlowSiteId": 0,
      "historicSpillsList": [
        {
          "id": 344029251,
          "eventId": 494463,
          "siteUnitNumber": 12591,
          "bathingSite": "LITTLEHAMPTON",
          "eventStart": "2021-09-19T10:45:00",
          "eventStop": "2021-09-19T11:26:00",
          "duration": 41,
          "status": "Genuine",
          "associatedSiteId": 109977,
          "outfallName": "FORESHORE TANK LITTLEHAMPTON",
          "isImpacting": true,
          "overFlowSiteId": 109390
        }
      ]
    },
    {
      "id": 344028258,
      "eventId": 492900,
      "siteUnitNumber": 12591,
      "bathingSite": "LITTLEHAMPTON",
      "eventStart": "2021-09-14T09:44:00",
      "eventStop": "2021-09-14T10:30:00",
      "duration": 46,
      "status": "Genuine",
      "associatedSiteId": 109965,
      "outfallName": "SEA ROAD LITTLEHAMPTON",
      "isImpacting": true,
      "overFlowSiteId": 0,
      "historicSpillsList": [
        {
          "id": 344028258,
          "eventId": 492900,
          "siteUnitNumber": 12591,
          "bathingSite": "LITTLEHAMPTON",
          "eventStart": "2021-09-14T09:44:00",
          "eventStop": "2021-09-14T10:30:00",
          "duration": 46,
          "status": "Genuine",
          "associatedSiteId": 109965,
          "outfallName": "SEA ROAD LITTLEHAMPTON",
          "isImpacting": true,
          "overFlowSiteId": 109368
        }
      ]
    },
    {
      "id": 344039902,
      "eventId": 492912,
      "siteUnitNumber": 12582,
      "bathingSite": "SEAFORD",
      "eventStart": "2021-09-14T06:17:37",
      "eventStop": "2021-09-14T08:10:05",
      "duration": 112,
      "status": "Genuine",
      "associatedSiteId": 110920,
      "outfallName": "NEWHAVEN",
      "isImpacting": true,
      "overFlowSiteId": 0,
      "historicSpillsList": [
        {
          "id": 344039902,
          "eventId": 492912,
          "siteUnitNumber": 12582,
          "bathingSite": "SEAFORD",
          "eventStart": "2021-09-14T06:17:37",
          "eventStop": "2021-09-14T08:10:05",
          "duration": 112,
          "status": "Genuine",
          "associatedSiteId": 110920,
          "outfallName": "NEWHAVEN",
          "isImpacting": true,
          "overFlowSiteId": 116065
        }
      ]
    },
    {
      "id": 344023081,
      "eventId": 492911,
      "siteUnitNumber": 12586,
      "bathingSite": "HOVE",
      "eventStart": "2021-09-14T06:16:36",
      "eventStop": "2021-09-14T08:06:40",
      "duration": 110,
      "status": "Genuine",
      "associatedSiteId": 109929,
      "outfallName": "SHOREHAM NO1",
      "isImpacting": true,
      "overFlowSiteId": 0,
      "historicSpillsList": [
        {
          "id": 344023081,
          "eventId": 492911,
          "siteUnitNumber": 12586,
          "bathingSite": "HOVE",
          "eventStart": "2021-09-14T06:16:36",
          "eventStop": "2021-09-14T08:06:40",
          "duration": 110,
          "status": "Genuine",
          "associatedSiteId": 109929,
          "outfallName": "SHOREHAM NO1",
          "isImpacting": true,
          "overFlowSiteId": 115434
        },
        {
          "id": 344023082,
          "eventId": 492911,
          "siteUnitNumber": 12587,
          "bathingSite": "SOUTHWICK",
          "eventStart": "2021-09-14T06:16:36",
          "eventStop": "2021-09-14T08:06:40",
          "duration": 110,
          "status": "Genuine",
          "associatedSiteId": 109929,
          "outfallName": "SHOREHAM NO1",
          "isImpacting": true,
          "overFlowSiteId": 115434,
          "historicSpillsList": []
        },
        {
          "id": 344023083,
          "eventId": 492911,
          "siteUnitNumber": 12588,
          "bathingSite": "SHOREHAM BEACH",
          "eventStart": "2021-09-14T06:16:36",
          "eventStop": "2021-09-14T08:06:40",
          "duration": 110,
          "status": "Genuine",
          "associatedSiteId": 109929,
          "outfallName": "SHOREHAM NO1",
          "isImpacting": true,
          "overFlowSiteId": 115434,
          "historicSpillsList": []
        }
      ]
    },
    {
      "id": 344029250,
      "eventId": 492956,
      "siteUnitNumber": 12591,
      "bathingSite": "LITTLEHAMPTON",
      "eventStart": "2021-09-14T07:23:00",
      "eventStop": "2021-09-14T07:56:00",
      "duration": 33,
      "status": "Genuine",
      "associatedSiteId": 109977,
      "outfallName": "FORESHORE TANK LITTLEHAMPTON",
      "isImpacting": true,
      "overFlowSiteId": 0,
      "historicSpillsList": [
        {
          "id": 344029250,
          "eventId": 492956,
          "siteUnitNumber": 12591,
          "bathingSite": "LITTLEHAMPTON",
          "eventStart": "2021-09-14T07:23:00",
          "eventStop": "2021-09-14T07:56:00",
          "duration": 33,
          "status": "Genuine",
          "associatedSiteId": 109977,
          "outfallName": "FORESHORE TANK LITTLEHAMPTON",
          "isImpacting": true,
          "overFlowSiteId": 109390
        }
      ]
    },
    {
      "id": 344025190,
      "eventId": 492886,
      "siteUnitNumber": 12582,
      "bathingSite": "SEAFORD",
      "eventStart": "2021-09-14T05:56:00",
      "eventStop": "2021-09-14T07:32:00",
      "duration": 96,
      "status": "Genuine",
      "associatedSiteId": 109957,
      "outfallName": "PORTOBELLO BRIGHTON NO2",
      "isImpacting": true,
      "overFlowSiteId": 0,
      "historicSpillsList": [
        {
          "id": 344025190,
          "eventId": 492886,
          "siteUnitNumber": 12582,
          "bathingSite": "SEAFORD",
          "eventStart": "2021-09-14T05:56:00",
          "eventStop": "2021-09-14T07:32:00",
          "duration": 96,
          "status": "Genuine",
          "associatedSiteId": 109957,
          "outfallName": "PORTOBELLO BRIGHTON NO2",
          "isImpacting": true,
          "overFlowSiteId": 116036
        },
        {
          "id": 344025191,
          "eventId": 492886,
          "siteUnitNumber": 12583,
          "bathingSite": "SALTDEAN",
          "eventStart": "2021-09-14T05:56:00",
          "eventStop": "2021-09-14T07:32:00",
          "duration": 96,
          "status": "Genuine",
          "associatedSiteId": 109957,
          "outfallName": "PORTOBELLO BRIGHTON NO2",
          "isImpacting": true,
          "overFlowSiteId": 116036,
          "historicSpillsList": []
        }
      ]
    },
    {
      "id": 344027497,
      "eventId": 492894,
      "siteUnitNumber": 12594,
      "bathingSite": "BOGNOR REGIS EAST",
      "eventStart": "2021-09-14T05:53:00",
      "eventStop": "2021-09-14T07:01:00",
      "duration": 68,
      "status": "Genuine",
      "associatedSiteId": 109959,
      "outfallName": "WEST PARK BOGNOR REGIS",
      "isImpacting": true,
      "overFlowSiteId": 0,
      "historicSpillsList": [
        {
          "id": 344027497,
          "eventId": 492894,
          "siteUnitNumber": 12594,
          "bathingSite": "BOGNOR REGIS EAST",
          "eventStart": "2021-09-14T05:53:00",
          "eventStop": "2021-09-14T07:01:00",
          "duration": 68,
          "status": "Genuine",
          "associatedSiteId": 109959,
          "outfallName": "WEST PARK BOGNOR REGIS",
          "isImpacting": true,
          "overFlowSiteId": 108160
        },
        {
          "id": 344027498,
          "eventId": 492894,
          "siteUnitNumber": 12595,
          "bathingSite": "BOGNOR REGIS (ALDWICK)",
          "eventStart": "2021-09-14T05:53:00",
          "eventStop": "2021-09-14T07:01:00",
          "duration": 68,
          "status": "Genuine",
          "associatedSiteId": 109959,
          "outfallName": "WEST PARK BOGNOR REGIS",
          "isImpacting": true,
          "overFlowSiteId": 108160,
          "historicSpillsList": []
        },
        {
          "id": 344027499,
          "eventId": 492894,
          "siteUnitNumber": 12596,
          "bathingSite": "PAGHAM",
          "eventStart": "2021-09-14T05:53:00",
          "eventStop": "2021-09-14T07:01:00",
          "duration": 68,
          "status": "Genuine",
          "associatedSiteId": 109959,
          "outfallName": "WEST PARK BOGNOR REGIS",
          "isImpacting": true,
          "overFlowSiteId": 108160,
          "historicSpillsList": []
        }
      ]
    },
    {
      "id": 344028259,
      "eventId": 493086,
      "siteUnitNumber": 12591,
      "bathingSite": "LITTLEHAMPTON",
      "eventStart": "2021-09-14T06:08:00",
      "eventStop": "2021-09-14T06:33:00",
      "duration": 25,
      "status": "Genuine",
      "associatedSiteId": 109965,
      "outfallName": "SEA ROAD LITTLEHAMPTON",
      "isImpacting": true,
      "overFlowSiteId": 0,
      "historicSpillsList": [
        {
          "id": 344028259,
          "eventId": 493086,
          "siteUnitNumber": 12591,
          "bathingSite": "LITTLEHAMPTON",
          "eventStart": "2021-09-14T06:08:00",
          "eventStop": "2021-09-14T06:33:00",
          "duration": 25,
          "status": "Genuine",
          "associatedSiteId": 109965,
          "outfallName": "SEA ROAD LITTLEHAMPTON",
          "isImpacting": true,
          "overFlowSiteId": 109368
        }
      ]
    },
    {
      "id": 344028727,
      "eventId": 492888,
      "siteUnitNumber": 12591,
      "bathingSite": "LITTLEHAMPTON",
      "eventStart": "2021-09-14T05:41:57",
      "eventStop": "2021-09-14T06:09:00",
      "duration": 27,
      "status": "Genuine",
      "associatedSiteId": 109968,
      "outfallName": "FORD ROAD ARUNDEL",
      "isImpacting": true,
      "overFlowSiteId": 0,
      "historicSpillsList": [
        {
          "id": 344028727,
          "eventId": 492888,
          "siteUnitNumber": 12591,
          "bathingSite": "LITTLEHAMPTON",
          "eventStart": "2021-09-14T05:41:57",
          "eventStop": "2021-09-14T06:09:00",
          "duration": 27,
          "status": "Genuine",
          "associatedSiteId": 109968,
          "outfallName": "FORD ROAD ARUNDEL",
          "isImpacting": true,
          "overFlowSiteId": 108002
        }
      ]
    },
    {
      "id": 344010780,
      "eventId": 492295,
      "siteUnitNumber": 12607,
      "bathingSite": "HILLHEAD",
      "eventStart": "2021-09-11T21:51:00",
      "eventStop": "2021-09-11T23:48:00",
      "duration": 117,
      "status": "Genuine",
      "associatedSiteId": 109751,
      "outfallName": "HOOK PARK NO.1",
      "isImpacting": true,
      "overFlowSiteId": 0,
      "historicSpillsList": [
        {
          "id": 344010780,
          "eventId": 492295,
          "siteUnitNumber": 12607,
          "bathingSite": "HILLHEAD",
          "eventStart": "2021-09-11T21:51:00",
          "eventStop": "2021-09-11T23:48:00",
          "duration": 117,
          "status": "Genuine",
          "associatedSiteId": 109751,
          "outfallName": "HOOK PARK NO.1",
          "isImpacting": true,
          "overFlowSiteId": 111291
        }
      ]
    },
    {
      "id": 344045619,
      "eventId": 492296,
      "siteUnitNumber": 12607,
      "bathingSite": "HILLHEAD",
      "eventStart": "2021-09-11T21:51:00",
      "eventStop": "2021-09-11T23:46:00",
      "duration": 115,
      "status": "Genuine",
      "associatedSiteId": 116111,
      "outfallName": "HOOK PARK NO.2",
      "isImpacting": true,
      "overFlowSiteId": 0,
      "historicSpillsList": [
        {
          "id": 344045619,
          "eventId": 492296,
          "siteUnitNumber": 12607,
          "bathingSite": "HILLHEAD",
          "eventStart": "2021-09-11T21:51:00",
          "eventStop": "2021-09-11T23:46:00",
          "duration": 115,
          "status": "Genuine",
          "associatedSiteId": 116111,
          "outfallName": "HOOK PARK NO.2",
          "isImpacting": true,
          "overFlowSiteId": 108444
        }
      ]
    },
    {
      "id": 344007619,
      "eventId": 491650,
      "siteUnitNumber": 12616,
      "bathingSite": "GURNARD",
      "eventStart": "2021-09-09T12:07:00",
      "eventStop": "2021-09-09T12:36:00",
      "duration": 29,
      "status": "Genuine",
      "associatedSiteId": 109700,
      "outfallName": "MARKET HILL COWES",
      "isImpacting": true,
      "overFlowSiteId": 0,
      "historicSpillsList": [
        {
          "id": 344007619,
          "eventId": 491650,
          "siteUnitNumber": 12616,
          "bathingSite": "GURNARD",
          "eventStart": "2021-09-09T12:07:00",
          "eventStop": "2021-09-09T12:36:00",
          "duration": 29,
          "status": "Genuine",
          "associatedSiteId": 109700,
          "outfallName": "MARKET HILL COWES",
          "isImpacting": true,
          "overFlowSiteId": 109299
        },
        {
          "id": 344007620,
          "eventId": 491650,
          "siteUnitNumber": 12617,
          "bathingSite": "COWES",
          "eventStart": "2021-09-09T12:07:00",
          "eventStop": "2021-09-09T12:36:00",
          "duration": 29,
          "status": "Genuine",
          "associatedSiteId": 109700,
          "outfallName": "MARKET HILL COWES",
          "isImpacting": true,
          "overFlowSiteId": 109299,
          "historicSpillsList": []
        }
      ]
    },
    {
      "id": 344003168,
      "eventId": 491532,
      "siteUnitNumber": 12618,
      "bathingSite": "RYDE",
      "eventStart": "2021-09-09T07:16:13",
      "eventStop": "2021-09-09T08:36:03",
      "duration": 79,
      "status": "Genuine",
      "associatedSiteId": 102050,
      "outfallName": "ESPLANADE SEAVIEW",
      "isImpacting": true,
      "overFlowSiteId": 0,
      "historicSpillsList": [
        {
          "id": 344003168,
          "eventId": 491532,
          "siteUnitNumber": 12618,
          "bathingSite": "RYDE",
          "eventStart": "2021-09-09T07:16:13",
          "eventStop": "2021-09-09T08:36:03",
          "duration": 79,
          "status": "Genuine",
          "associatedSiteId": 102050,
          "outfallName": "ESPLANADE SEAVIEW",
          "isImpacting": true,
          "overFlowSiteId": 108555
        },
        {
          "id": 344003169,
          "eventId": 491532,
          "siteUnitNumber": 12619,
          "bathingSite": "SEAGROVE",
          "eventStart": "2021-09-09T07:16:13",
          "eventStop": "2021-09-09T08:36:03",
          "duration": 79,
          "status": "Genuine",
          "associatedSiteId": 102050,
          "outfallName": "ESPLANADE SEAVIEW",
          "isImpacting": true,
          "overFlowSiteId": 108555,
          "historicSpillsList": []
        },
        {
          "id": 344003170,
          "eventId": 491532,
          "siteUnitNumber": 12620,
          "bathingSite": "ST HELENS",
          "eventStart": "2021-09-09T07:16:13",
          "eventStop": "2021-09-09T08:36:03",
          "duration": 79,
          "status": "Genuine",
          "associatedSiteId": 102050,
          "outfallName": "ESPLANADE SEAVIEW",
          "isImpacting": true,
          "overFlowSiteId": 108555,
          "historicSpillsList": []
        }
      ]
    }
  ]
}