{
  "currentPage": 368,
  "totalItems": 18701,
  "totalPages": 749,
  "items": [
    {
      "id": 343997152,
      "eventId": 712726,
      "siteUnitNumber": 12582,
      "bathingSite": "SEAFORD",
      "eventStart": "2022-12-30T23:14:49",
      "eventStop": "2022-12-31T04:20:02",
      "duration": 305,
      "status": "Genuine",
      "associatedSiteId": 110920,
      "outfallName": "NEWHAVEN",
      "isImpacting": false,
      "overFlowSiteId": 0,
      "historicSpillsList": []
    },
    {
      "id": 343984190,
      "eventId": 712716,
      "siteUnitNumber": 12594,
      "bathingSite": "BOGNOR REGIS EAST",
      "eventStart": "2022-12-30T22:43:40",
      "eventStop": "2022-12-31T03:15:00",
      "duration": 271,
      "status": "Genuine",
      "associatedSiteId": 109959,
      "outfallName": "WEST PARK BOGNOR REGIS",
      "isImpacting": true,
      "overFlowSiteId": 0,
      "historicSpillsList": [
        {
          "id": 343984190,
          "eventId": 712716,
          "siteUnitNumber": 12594,
          "bathingSite": "BOGNOR REGIS EAST",
          "eventStart": "2022-12-30T22:43:40",
          "eventStop": "2022-12-31T03:15:00",
          "duration": 271,
          "status": "Genuine",
          "associatedSiteId": 109959,
          "outfallName": "WEST PARK BOGNOR REGIS",
          "isImpacting": true,
          "overFlowSiteId": 108160
        }
      ]
    },
    {
      "id": 343970054,
      "eventId": 718023,
      "siteUnitNumber": 12618,
      "bathingSite": "RYDE",
      "eventStart": "2022-12-30T21:50:00",
      "eventStop": "2022-12-31T01:17:00",
      "duration": 207,
      "status": "Genuine",
      "associatedSiteId": 109778,
      "outfallName": "PRINCE CONSORT RYDE NEW",
      "isImpacting": true,
      "overFlowSiteId": 0,
      "historicSpillsList": [
        {
          "id": 343970054,
          "eventId": 718023,
          "siteUnitNumber": 12618,
          "bathingSite": "RYDE",
          "eventStart": "2022-12-30T21:50:00",
          "eventStop": "2022-12-31T01:17:00",
          "duration": 207,
          "status": "Genuine",
          "associatedSiteId": 109778,
          "outfallName": "PRINCE CONSORT RYDE NEW",
          "isImpacting": true,
          "overFlowSiteId": 108043
        }
      ]
    },
    {
      "id": 343989468,
      "eventId": 709657,
      "siteUnitNumber": 12623,
      "bathingSite": "YAVERLAND",
      "eventStart": "2022-12-29T01:29:00",
      "eventStop": "2022-12-30T23:39:00",
      "duration": 2770,
      "status": "Genuine",
      "associatedSiteId": 110096,
      "outfallName": "SANDOWN NO1",
      "isImpacting": true,
      "overFlowSiteId": 0,
      "historicSpillsList": [
        {
          "id": 343989468,
          "eventId": 709657,
          "siteUnitNumber": 12623,
          "bathingSite": "YAVERLAND",
          "eventStart": "2022-12-29T01:29:00",
          "eventStop": "2022-12-30T23:39:00",
          "duration": 2770,
          "status": "Genuine",
          "associatedSiteId": 110096,
          "outfallName": "SANDOWN NO1",
          "isImpacting": true,
          "overFlowSiteId": 115453
        },
        {
          "id": 343989469,
          "eventId": 709657,
          "siteUnitNumber": 12624,
          "bathingSite": "SANDOWN",
          "eventStart": "2022-12-29T01:29:00",
          "eventStop": "2022-12-30T23:39:00",
          "duration": 2770,
          "status": "Genuine",
          "associatedSiteId": 110096,
          "outfallName": "SANDOWN NO1",
          "isImpacting": true,
          "overFlowSiteId": 115453,
          "historicSpillsList": []
        },
        {
          "id": 343989475,
          "eventId": 709657,
          "siteUnitNumber": 12622,
          "bathingSite": "WHITECLIFF BAY",
          "eventStart": "2022-12-29T01:29:00",
          "eventStop": "2022-12-30T23:39:00",
          "duration": 2770,
          "status": "Genuine",
          "associatedSiteId": 110096,
          "outfallName": "SANDOWN NO1",
          "isImpacting": true,
          "overFlowSiteId": 115453,
          "historicSpillsList": []
        }
      ]
    },
    {
      "id": 343984188,
      "eventId": 712675,
      "siteUnitNumber": 12595,
      "bathingSite": "BOGNOR REGIS (ALDWICK)",
      "eventStart": "2022-12-30T21:30:00",
      "eventStop": "2022-12-30T22:30:00",
      "duration": 60,
      "status": "Genuine",
      "associatedSiteId": 109959,
      "outfallName": "WEST PARK BOGNOR REGIS",
      "isImpacting": true,
      "overFlowSiteId": 0,
      "historicSpillsList": [
        {
          "id": 343984189,
          "eventId": 712675,
          "siteUnitNumber": 12596,
          "bathingSite": "PAGHAM",
          "eventStart": "2022-12-30T21:30:00",
          "eventStop": "2022-12-30T22:30:00",
          "duration": 60,
          "status": "Genuine",
          "associatedSiteId": 109959,
          "outfallName": "WEST PARK BOGNOR REGIS",
          "isImpacting": true,
          "overFlowSiteId": 108160,
          "historicSpillsList": []
        }
      ]
    },
    {
      "id": 343997151,
      "eventId": 711569,
      "siteUnitNumber": 12582,
      "bathingSite": "SEAFORD",
      "eventStart": "2022-12-30T08:37:56",
      "eventStop": "2022-12-30T22:04:29",
      "duration": 806,
      "status": "Genuine",
      "associatedSiteId": 110920,
      "outfallName": "NEWHAVEN",
      "isImpacting": false,
      "overFlowSiteId": 0,
      "historicSpillsList": []
    },
    {
      "id": 343972613,
      "eventId": 711723,
      "siteUnitNumber": 12548,
      "bathingSite": "TANKERTON",
      "eventStart": "2022-12-30T09:41:18",
      "eventStop": "2022-12-30T21:50:04",
      "duration": 728,
      "status": "Genuine",
      "associatedSiteId": 109830,
      "outfallName": "SWALECLIFFE NO1",
      "isImpacting": true,
      "overFlowSiteId": 0,
      "historicSpillsList": [
        {
          "id": 343972613,
          "eventId": 711723,
          "siteUnitNumber": 12548,
          "bathingSite": "TANKERTON",
          "eventStart": "2022-12-30T09:41:18",
          "eventStop": "2022-12-30T21:50:04",
          "duration": 728,
          "status": "Genuine",
          "associatedSiteId": 109830,
          "outfallName": "SWALECLIFFE NO1",
          "isImpacting": true,
          "overFlowSiteId": 115444
        }
      ]
    },
    {
      "id": 343974178,
      "eventId": 711582,
      "siteUnitNumber": 12662,
      "bathingSite": "CHICHESTER HARBOUR",
      "eventStart": "2022-12-30T08:49:33",
      "eventStop": "2022-12-30T21:49:00",
      "duration": 779,
      "status": "Genuine",
      "associatedSiteId": 109836,
      "outfallName": "CHICHESTER",
      "isImpacting": true,
      "overFlowSiteId": 0,
      "historicSpillsList": [
        {
          "id": 343974178,
          "eventId": 711582,
          "siteUnitNumber": 12662,
          "bathingSite": "CHICHESTER HARBOUR",
          "eventStart": "2022-12-30T08:49:33",
          "eventStop": "2022-12-30T21:49:00",
          "duration": 779,
          "status": "Genuine",
          "associatedSiteId": 109836,
          "outfallName": "CHICHESTER",
          "isImpacting": true,
          "overFlowSiteId": 115401
        }
      ]
    },
    {
      "id": 343984193,
      "eventId": 712639,
      "siteUnitNumber": 12594,
      "bathingSite": "BOGNOR REGIS EAST",
      "eventStart": "2022-12-30T20:29:16",
      "eventStop": "2022-12-30T21:15:00",
      "duration": 45,
      "status": "Genuine",
      "associatedSiteId": 109959,
      "outfallName": "WEST PARK BOGNOR REGIS",
      "isImpacting": false,
      "overFlowSiteId": 0,
      "historicSpillsList": []
    },
    {
      "id": 343984199,
      "eventId": 712335,
      "siteUnitNumber": 12594,
      "bathingSite": "BOGNOR REGIS EAST",
      "eventStart": "2022-12-30T15:27:29",
      "eventStop": "2022-12-30T20:15:00",
      "duration": 287,
      "status": "Genuine",
      "associatedSiteId": 109959,
      "outfallName": "WEST PARK BOGNOR REGIS",
      "isImpacting": true,
      "overFlowSiteId": 0,
      "historicSpillsList": [
        {
          "id": 343984199,
          "eventId": 712335,
          "siteUnitNumber": 12594,
          "bathingSite": "BOGNOR REGIS EAST",
          "eventStart": "2022-12-30T15:27:29",
          "eventStop": "2022-12-30T20:15:00",
          "duration": 287,
          "status": "Genuine",
          "associatedSiteId": 109959,
          "outfallName": "WEST PARK BOGNOR REGIS",
          "isImpacting": true,
          "overFlowSiteId": 108160
        }
      ]
    },
    {
      "id": 343961287,
      "eventId": 711629,
      "siteUnitNumber": 12616,
      "bathingSite": "GURNARD",
      "eventStart": "2022-12-30T09:10:46",
      "eventStop": "2022-12-30T19:21:00",
      "duration": 610,
      "status": "Genuine",
      "associatedSiteId": 109650,
      "outfallName": "MARSH ROAD GURNARD",
      "isImpacting": true,
      "overFlowSiteId": 0,
      "historicSpillsList": [
        {
          "id": 343961287,
          "eventId": 711629,
          "siteUnitNumber": 12616,
          "bathingSite": "GURNARD",
          "eventStart": "2022-12-30T09:10:46",
          "eventStop": "2022-12-30T19:21:00",
          "duration": 610,
          "status": "Genuine",
          "associatedSiteId": 109650,
          "outfallName": "MARSH ROAD GURNARD",
          "isImpacting": true,
          "overFlowSiteId": 107441
        }
      ]
    },
    {
      "id": 343970053,
      "eventId": 718022,
      "siteUnitNumber": 12618,
      "bathingSite": "RYDE",
      "eventStart": "2022-12-30T17:22:00",
      "eventStop": "2022-12-30T18:48:00",
      "duration": 86,
      "status": "Genuine",
      "associatedSiteId": 109778,
      "outfallName": "PRINCE CONSORT RYDE NEW",
      "isImpacting": true,
      "overFlowSiteId": 0,
      "historicSpillsList": [
        {
          "id": 343970053,
          "eventId": 718022,
          "siteUnitNumber": 12618,
          "bathingSite": "RYDE",
          "eventStart": "2022-12-30T17:22:00",
          "eventStop": "2022-12-30T18:48:00",
          "duration": 86,
          "status": "Genuine",
          "associatedSiteId": 109778,
          "outfallName": "PRINCE CONSORT RYDE NEW",
          "isImpacting": true,
          "overFlowSiteId": 108043
        }
      ]
    },
    {
      "id": 343965697,
      "eventId": 711451,
      "siteUnitNumber": 12616,
      "bathingSite": "GURNARD",
      "eventStart": "2022-12-30T07:30:00",
      "eventStop": "2022-12-30T18:33:00",
      "duration": 663,
      "status": "Genuine",
      "associatedSiteId": 109704,
      "outfallName": "EGYPT POINT COWES",
      "isImpacting": true,
      "overFlowSiteId": 0,
      "historicSpillsList": [
        {
          "id": 343965698,
          "eventId": 711451,
          "siteUnitNumber": 12617,
          "bathingSite": "COWES",
          "eventStart": "2022-12-30T07:30:00",
          "eventStop": "2022-12-30T18:33:00",
          "duration": 663,
          "status": "Genuine",
          "associatedSiteId": 109704,
          "outfallName": "EGYPT POINT COWES",
          "isImpacting": true,
          "overFlowSiteId": 116213,
          "historicSpillsList": []
        }
      ]
    },
    {
      "id": 343976662,
      "eventId": 712261,
      "siteUnitNumber": 12568,
      "bathingSite": "SANDGATE",
      "eventStart": "2022-12-30T13:30:00",
      "eventStop": "2022-12-30T17:17:00",
      "duration": 227,
      "status": "Genuine",
      "associatedSiteId": 109897,
      "outfallName": "RANGE ROAD HYTHE K LONG",
      "isImpacting": true,
      "overFlowSiteId": 0,
      "historicSpillsList": [
        {
          "id": 343976662,
          "eventId": 712261,
          "siteUnitNumber": 12568,
          "bathingSite": "SANDGATE",
          "eventStart": "2022-12-30T13:30:00",
          "eventStop": "2022-12-30T17:17:00",
          "duration": 227,
          "status": "Genuine",
          "associatedSiteId": 109897,
          "outfallName": "RANGE ROAD HYTHE K LONG",
          "isImpacting": true,
          "overFlowSiteId": 116048
        },
        {
          "id": 343976663,
          "eventId": 712261,
          "siteUnitNumber": 12569,
          "bathingSite": "HYTHE",
          "eventStart": "2022-12-30T13:30:00",
          "eventStop": "2022-12-30T17:17:00",
          "duration": 227,
          "status": "Genuine",
          "associatedSiteId": 109897,
          "outfallName": "RANGE ROAD HYTHE K LONG",
          "isImpacting": true,
          "overFlowSiteId": 116048,
          "historicSpillsList": []
        }
      ]
    },
    {
      "id": 343970055,
      "eventId": 718021,
      "siteUnitNumber": 12618,
      "bathingSite": "RYDE",
      "eventStart": "2022-12-30T09:11:00",
      "eventStop": "2022-12-30T17:08:00",
      "duration": 477,
      "status": "Genuine",
      "associatedSiteId": 109778,
      "outfallName": "PRINCE CONSORT RYDE NEW",
      "isImpacting": true,
      "overFlowSiteId": 0,
      "historicSpillsList": [
        {
          "id": 343970055,
          "eventId": 718021,
          "siteUnitNumber": 12618,
          "bathingSite": "RYDE",
          "eventStart": "2022-12-30T09:11:00",
          "eventStop": "2022-12-30T17:08:00",
          "duration": 477,
          "status": "Genuine",
          "associatedSiteId": 109778,
          "outfallName": "PRINCE CONSORT RYDE NEW",
          "isImpacting": true,
          "overFlowSiteId": 108043
        }
      ]
    },
    {
      "id": 343984202,
      "eventId": 711538,
      "siteUnitNumber": 12594,
      "bathingSite": "BOGNOR REGIS EAST",
      "eventStart": "2022-12-30T08:28:51",
      "eventStop": "2022-12-30T15:15:00",
      "duration": 406,
      "status": "Genuine",
      "associatedSiteId": 109959,
      "outfallName": "WEST PARK BOGNOR REGIS",
      "isImpacting": true,
      "overFlowSiteId": 0,
      "historicSpillsList": [
        {
          "id": 343984202,
          "eventId": 711538,
          "siteUnitNumber": 12594,
          "bathingSite": "BOGNOR REGIS EAST",
          "eventStart": "2022-12-30T08:28:51",
          "eventStop": "2022-12-30T15:15:00",
          "duration": 406,
          "status": "Genuine",
          "associatedSiteId": 109959,
          "outfallName": "WEST PARK BOGNOR REGIS",
          "isImpacting": true,
          "overFlowSiteId": 108160
        }
      ]
    },
    {
      "id": 343987809,
      "eventId": 712048,
      "siteUnitNumber": 12567,
      "bathingSite": "FOLKESTONE",
      "eventStart": "2022-12-30T11:09:04",
      "eventStop": "2022-12-30T15:06:00",
      "duration": 236,
      "status": "Genuine",
      "associatedSiteId": 110010,
      "outfallName": "THE STADE FOLKESTONE",
      "isImpacting": true,
      "overFlowSiteId": 0,
      "historicSpillsList": [
        {
          "id": 343987809,
          "eventId": 712048,
          "siteUnitNumber": 12567,
          "bathingSite": "FOLKESTONE",
          "eventStart": "2022-12-30T11:09:04",
          "eventStop": "2022-12-30T15:06:00",
          "duration": 236,
          "status": "Genuine",
          "associatedSiteId": 110010,
          "outfallName": "THE STADE FOLKESTONE",
          "isImpacting": true,
          "overFlowSiteId": 108909
        }
      ]
    },
    {
      "id": 343997788,
      "eventId": 716478,
      "siteUnitNumber": 12662,
      "bathingSite": "CHICHESTER HARBOUR",
      "eventStart": "2022-12-30T10:51:00",
      "eventStop": "2022-12-30T15:00:00",
      "duration": 249,
      "status": "Genuine",
      "associatedSiteId": 111600,
      "outfallName": "MILL LANE FISHBOURNE",
      "isImpacting": true,
      "overFlowSiteId": 0,
      "historicSpillsList": [
        {
          "id": 343997788,
          "eventId": 716478,
          "siteUnitNumber": 12662,
          "bathingSite": "CHICHESTER HARBOUR",
          "eventStart": "2022-12-30T10:51:00",
          "eventStop": "2022-12-30T15:00:00",
          "duration": 249,
          "status": "Genuine",
          "associatedSiteId": 111600,
          "outfallName": "MILL LANE FISHBOURNE",
          "isImpacting": true,
          "overFlowSiteId": 111371
        }
      ]
    },
    {
      "id": 343965187,
      "eventId": 712120,
      "siteUnitNumber": 12616,
      "bathingSite": "GURNARD",
      "eventStart": "2022-12-30T12:08:05",
      "eventStop": "2022-12-30T14:14:00",
      "duration": 125,
      "status": "Genuine",
      "associatedSiteId": 109702,
      "outfallName": "ALBANY ROAD EAST COWES",
      "isImpacting": false,
      "overFlowSiteId": 0,
      "historicSpillsList": []
    },
    {
      "id": 343986004,
      "eventId": 711523,
      "siteUnitNumber": 12591,
      "bathingSite": "LITTLEHAMPTON",
      "eventStart": "2022-12-30T08:13:20",
      "eventStop": "2022-12-30T13:44:00",
      "duration": 330,
      "status": "Genuine",
      "associatedSiteId": 109968,
      "outfallName": "FORD ROAD ARUNDEL",
      "isImpacting": true,
      "overFlowSiteId": 0,
      "historicSpillsList": [
        {
          "id": 343986004,
          "eventId": 711523,
          "siteUnitNumber": 12591,
          "bathingSite": "LITTLEHAMPTON",
          "eventStart": "2022-12-30T08:13:20",
          "eventStop": "2022-12-30T13:44:00",
          "duration": 330,
          "status": "Genuine",
          "associatedSiteId": 109968,
          "outfallName": "FORD ROAD ARUNDEL",
          "isImpacting": true,
          "overFlowSiteId": 108002
        }
      ]
    },
    {
      "id": 343996890,
      "eventId": 711502,
      "siteUnitNumber": 12620,
      "bathingSite": "ST HELENS",
      "eventStart": "2022-12-30T08:04:45",
      "eventStop": "2022-12-30T13:26:00",
      "duration": 321,
      "status": "Genuine",
      "associatedSiteId": 110761,
      "outfallName": "BRADING",
      "isImpacting": true,
      "overFlowSiteId": 0,
      "historicSpillsList": [
        {
          "id": 343996890,
          "eventId": 711502,
          "siteUnitNumber": 12620,
          "bathingSite": "ST HELENS",
          "eventStart": "2022-12-30T08:04:45",
          "eventStop": "2022-12-30T13:26:00",
          "duration": 321,
          "status": "Genuine",
          "associatedSiteId": 110761,
          "outfallName": "BRADING",
          "isImpacting": true,
          "overFlowSiteId": 113676
        }
      ]
    },
    {
      "id": 343981126,
      "eventId": 711527,
      "siteUnitNumber": 12620,
      "bathingSite": "ST HELENS",
      "eventStart": "2022-12-30T08:19:00",
      "eventStop": "2022-12-30T13:04:00",
      "duration": 285,
      "status": "Genuine",
      "associatedSiteId": 109938,
      "outfallName": "THE POINT BEMBRIDGE",
      "isImpacting": true,
      "overFlowSiteId": 0,
      "historicSpillsList": [
        {
          "id": 343981126,
          "eventId": 711527,
          "siteUnitNumber": 12620,
          "bathingSite": "ST HELENS",
          "eventStart": "2022-12-30T08:19:00",
          "eventStop": "2022-12-30T13:04:00",
          "duration": 285,
          "status": "Genuine",
          "associatedSiteId": 109938,
          "outfallName": "THE POINT BEMBRIDGE",
          "isImpacting": true,
          "overFlowSiteId": 110194
        }
      ]
    },
    {
      "id": 343963029,
      "eventId": 712366,
      "siteUnitNumber": 12614,
      "bathingSite": "TOTLAND BAY",
      "eventStart": "2022-12-30T08:52:00",
      "eventStop": "2022-12-30T12:44:00",
      "duration": 232,
      "status": "Genuine",
      "associatedSiteId": 109657,
      "outfallName": "THE PROMENADE TOTLAND PIER NO2",
      "isImpacting": false,
      "overFlowSiteId": 0,
      "historicSpillsList": []
    },
    {
      "id": 344002747,
      "eventId": 721704,
      "siteUnitNumber": 12577,
      "bathingSite": "BEXHILL",
      "eventStart": "2022-12-30T09:35:00",
      "eventStop": "2022-12-30T12:28:00",
      "duration": 173,
      "status": "Genuine",
      "associatedSiteId": 115504,
      "outfallName": "HARTFIELD ROAD BEXHILL",
      "isImpacting": false,
      "overFlowSiteId": 0,
      "historicSpillsList": []
    },
    {
      "id": 343970191,
      "eventId": 717893,
      "siteUnitNumber": 12618,
      "bathingSite": "RYDE",
      "eventStart": "2022-12-30T11:38:00",
      "eventStop": "2022-12-30T12:27:00",
      "duration": 49,
      "status": "Genuine",
      "associatedSiteId": 109780,
      "outfallName": "LADIES WALK BINSTEAD",
      "isImpacting": true,
      "overFlowSiteId": 0,
      "historicSpillsList": [
        {
          "id": 343970191,
          "eventId": 717893,
          "siteUnitNumber": 12618,
          "bathingSite": "RYDE",
          "eventStart": "2022-12-30T11:38:00",
          "eventStop": "2022-12-30T12:27:00",
          "duration": 49,
          "status": "Genuine",
          "associatedSiteId": 109780,
          "outfallName": "LADIES WALK BINSTEAD",
          "isImpacting": true,
          "overFlowSiteId": 107406
        }
      ]
    }
  ]
}