{
  "currentPage": 569,
  "totalItems": 21025,
  "totalPages": 841,
  "items": [
    {
      "id": 344815723,
      "eventId": 618902,
      "siteUnitNumber": 12549,
      "bathingSite": "HERNE BAY CENTRAL",
      "eventStart": "2022-07-31T19:45:00",
      "eventStop": "2022-07-31T21:30:00",
      "duration": 105,
      "status": "Not Genuine",
      "associatedSiteId": 109677,
      "outfallName": "EDDINGTON LANE HERNE BAY NO1",
      "isImpacting": true,
      "overFlowSiteId": 0,
      "historicSpillsList": []
    },
    {
      "id": 344825536,
      "eventId": 618900,
      "siteUnitNumber": 12547,
      "bathingSite": "WEST BEACH WHITSTABLE",
      "eventStart": "2022-07-31T19:37:32",
      "eventStop": "2022-07-31T20:46:09",
      "duration": 68,
      "status": "Genuine",
      "associatedSiteId": 109832,
      "outfallName": "GORREL NO1",
      "isImpacting": true,
      "overFlowSiteId": 0,
      "historicSpillsList": [
        {
          "id": 344825536,
          "eventId": 618900,
          "siteUnitNumber": 12547,
          "bathingSite": "WEST BEACH WHITSTABLE",
          "eventStart": "2022-07-31T19:37:32",
          "eventStop": "2022-07-31T20:46:09",
          "duration": 68,
          "status": "Genuine",
          "associatedSiteId": 109832,
          "outfallName": "GORREL NO1",
          "isImpacting": true,
          "overFlowSiteId": 103279
        },
        {
          "id": 344825537,
          "eventId": 618900,
          "siteUnitNumber": 12548,
          "bathingSite": "TANKERTON",
          "eventStart": "2022-07-31T19:37:32",
          "eventStop": "2022-07-31T20:46:09",
          "duration": 68,
          "status": "Genuine",
          "associatedSiteId": 109832,
          "outfallName": "GORREL NO1",
          "isImpacting": true,
          "overFlowSiteId": 103279,
          "historicSpillsList": []
        }
      ]
    },
    {
      "id": 344849716,
      "eventId": 618894,
      "siteUnitNumber": 12549,
      "bathingSite": "HERNE BAY CENTRAL",
      "eventStart": "2022-07-31T19:28:00",
      "eventStop": "2022-07-31T20:16:00",
      "duration": 48,
      "status": "Genuine",
      "associatedSiteId": 111724,
      "outfallName": "GAINSBOROUGH DRIVE HERNE BAY",
      "isImpacting": true,
      "overFlowSiteId": 0,
      "historicSpillsList": [
        {
          "id": 344849716,
          "eventId": 618894,
          "siteUnitNumber": 12549,
          "bathingSite": "HERNE BAY CENTRAL",
          "eventStart": "2022-07-31T19:28:00",
          "eventStop": "2022-07-31T20:16:00",
          "duration": 48,
          "status": "Genuine",
          "associatedSiteId": 111724,
          "outfallName": "GAINSBOROUGH DRIVE HERNE BAY",
          "isImpacting": true,
          "overFlowSiteId": 111725
        },
        {
          "id": 344849717,
          "eventId": 618894,
          "siteUnitNumber": 12551,
          "bathingSite": "HERNE BAY",
          "eventStart": "2022-07-31T19:28:00",
          "eventStop": "2022-07-31T20:16:00",
          "duration": 48,
          "status": "Genuine",
          "associatedSiteId": 111724,
          "outfallName": "GAINSBOROUGH DRIVE HERNE BAY",
          "isImpacting": true,
          "overFlowSiteId": 111725,
          "historicSpillsList": []
        }
      ]
    },
    {
      "id": 344833569,
      "eventId": 618667,
      "siteUnitNumber": 12584,
      "bathingSite": "BRIGHTON KEMPTOWN",
      "eventStart": "2022-07-31T03:18:29",
      "eventStop": "2022-07-31T05:46:57",
      "duration": 148,
      "status": "Not Genuine",
      "associatedSiteId": 109954,
      "outfallName": "BLACK ROCK MARINE DRIVE BRIGHTON",
      "isImpacting": true,
      "overFlowSiteId": 0,
      "historicSpillsList": []
    },
    {
      "id": 344816141,
      "eventId": 618102,
      "siteUnitNumber": 12564,
      "bathingSite": "RAMSGATE WESTERN UNDERCLIFFE",
      "eventStart": "2022-07-28T07:09:01",
      "eventStop": "2022-07-28T11:08:55",
      "duration": 239,
      "status": "Not Genuine",
      "associatedSiteId": 109688,
      "outfallName": "FOADS HILL CLIFFS END",
      "isImpacting": true,
      "overFlowSiteId": 0,
      "historicSpillsList": []
    },
    {
      "id": 344823642,
      "eventId": 618107,
      "siteUnitNumber": 12605,
      "bathingSite": "STOKES BAY",
      "eventStart": "2022-07-28T07:33:44",
      "eventStop": "2022-07-28T11:00:00",
      "duration": 206,
      "status": "Not Genuine",
      "associatedSiteId": 109822,
      "outfallName": "PIER ROAD SOUTHSEA",
      "isImpacting": true,
      "overFlowSiteId": 0,
      "historicSpillsList": []
    },
    {
      "id": 344812486,
      "eventId": 617820,
      "siteUnitNumber": 12618,
      "bathingSite": "RYDE",
      "eventStart": "2022-07-26T13:30:00",
      "eventStop": "2022-07-26T14:30:00",
      "duration": 60,
      "status": "Not Genuine",
      "associatedSiteId": 102971,
      "outfallName": "SPRING VALE",
      "isImpacting": true,
      "overFlowSiteId": 0,
      "historicSpillsList": []
    },
    {
      "id": 344812489,
      "eventId": 617464,
      "siteUnitNumber": 12618,
      "bathingSite": "RYDE",
      "eventStart": "2022-07-25T08:07:55",
      "eventStop": "2022-07-25T13:30:00",
      "duration": 322,
      "status": "Not Genuine",
      "associatedSiteId": 102971,
      "outfallName": "SPRING VALE",
      "isImpacting": true,
      "overFlowSiteId": 0,
      "historicSpillsList": []
    },
    {
      "id": 344816036,
      "eventId": 617194,
      "siteUnitNumber": 12562,
      "bathingSite": "BROADSTAIRS VIKING BAY",
      "eventStart": "2022-07-24T08:03:00",
      "eventStop": "2022-07-24T08:36:00",
      "duration": 33,
      "status": "Not Genuine",
      "associatedSiteId": 109685,
      "outfallName": "MILITARY ROAD RAMSGATE NO1",
      "isImpacting": true,
      "overFlowSiteId": 0,
      "historicSpillsList": []
    },
    {
      "id": 344837410,
      "eventId": 616772,
      "siteUnitNumber": 12591,
      "bathingSite": "LITTLEHAMPTON",
      "eventStart": "2022-07-22T12:03:52",
      "eventStop": "2022-07-22T14:00:00",
      "duration": 116,
      "status": "Not Genuine",
      "associatedSiteId": 109965,
      "outfallName": "SEA ROAD LITTLEHAMPTON",
      "isImpacting": true,
      "overFlowSiteId": 0,
      "historicSpillsList": []
    },
    {
      "id": 344836512,
      "eventId": 616776,
      "siteUnitNumber": 12594,
      "bathingSite": "BOGNOR REGIS EAST",
      "eventStart": "2022-07-22T12:39:00",
      "eventStop": "2022-07-22T13:06:00",
      "duration": 27,
      "status": "Genuine",
      "associatedSiteId": 109959,
      "outfallName": "WEST PARK BOGNOR REGIS",
      "isImpacting": true,
      "overFlowSiteId": 0,
      "historicSpillsList": [
        {
          "id": 344836512,
          "eventId": 616776,
          "siteUnitNumber": 12594,
          "bathingSite": "BOGNOR REGIS EAST",
          "eventStart": "2022-07-22T12:39:00",
          "eventStop": "2022-07-22T13:06:00",
          "duration": 27,
          "status": "Genuine",
          "associatedSiteId": 109959,
          "outfallName": "WEST PARK BOGNOR REGIS",
          "isImpacting": true,
          "overFlowSiteId": 108160
        },
        {
          "id": 344836513,
          "eventId": 616776,
          "siteUnitNumber": 12595,
          "bathingSite": "BOGNOR REGIS (ALDWICK)",
          "eventStart": "2022-07-22T12:39:00",
          "eventStop": "2022-07-22T13:06:00",
          "duration": 27,
          "status": "Genuine",
          "associatedSiteId": 109959,
          "outfallName": "WEST PARK BOGNOR REGIS",
          "isImpacting": true,
          "overFlowSiteId": 108160,
          "historicSpillsList": []
        },
        {
          "id": 344836514,
          "eventId": 616776,
          "siteUnitNumber": 12596,
          "bathingSite": "PAGHAM",
          "eventStart": "2022-07-22T12:39:00",
          "eventStop": "2022-07-22T13:06:00",
          "duration": 27,
          "status": "Genuine",
          "associatedSiteId": 109959,
          "outfallName": "WEST PARK BOGNOR REGIS",
          "isImpacting": true,
          "overFlowSiteId": 108160,
          "historicSpillsList": []
        }
      ]
    },
    {
      "id": 344837903,
      "eventId": 616775,
      "siteUnitNumber": 12591,
      "bathingSite": "LITTLEHAMPTON",
      "eventStart": "2022-07-22T12:00:00",
      "eventStop": "2022-07-22T12:23:00",
      "duration": 23,
      "status": "Genuine",
      "associatedSiteId": 109968,
      "outfallName": "FORD ROAD ARUNDEL",
      "isImpacting": true,
      "overFlowSiteId": 0,
      "historicSpillsList": [
        {
          "id": 344837903,
          "eventId": 616775,
          "siteUnitNumber": 12591,
          "bathingSite": "LITTLEHAMPTON",
          "eventStart": "2022-07-22T12:00:00",
          "eventStop": "2022-07-22T12:23:00",
          "duration": 23,
          "status": "Genuine",
          "associatedSiteId": 109968,
          "outfallName": "FORD ROAD ARUNDEL",
          "isImpacting": true,
          "overFlowSiteId": 108002
        }
      ]
    },
    {
      "id": 344821036,
      "eventId": 616760,
      "siteUnitNumber": 12617,
      "bathingSite": "COWES",
      "eventStart": "2022-07-22T11:07:51",
      "eventStop": "2022-07-22T11:29:00",
      "duration": 21,
      "status": "Genuine",
      "associatedSiteId": 109777,
      "outfallName": "APPLEY PARK RYDE TRANSFER",
      "isImpacting": true,
      "overFlowSiteId": 0,
      "historicSpillsList": [
        {
          "id": 344821036,
          "eventId": 616760,
          "siteUnitNumber": 12617,
          "bathingSite": "COWES",
          "eventStart": "2022-07-22T11:07:51",
          "eventStop": "2022-07-22T11:29:00",
          "duration": 21,
          "status": "Genuine",
          "associatedSiteId": 109777,
          "outfallName": "APPLEY PARK RYDE TRANSFER",
          "isImpacting": true,
          "overFlowSiteId": 108941
        },
        {
          "id": 344821037,
          "eventId": 616760,
          "siteUnitNumber": 12618,
          "bathingSite": "RYDE",
          "eventStart": "2022-07-22T11:07:51",
          "eventStop": "2022-07-22T11:29:00",
          "duration": 21,
          "status": "Genuine",
          "associatedSiteId": 109777,
          "outfallName": "APPLEY PARK RYDE TRANSFER",
          "isImpacting": true,
          "overFlowSiteId": 108941,
          "historicSpillsList": []
        }
      ]
    },
    {
      "id": 344826180,
      "eventId": 616597,
      "siteUnitNumber": 12662,
      "bathingSite": "CHICHESTER HARBOUR",
      "eventStart": "2022-07-21T15:42:34",
      "eventStop": "2022-07-21T16:03:24",
      "duration": 20,
      "status": "Not Genuine",
      "associatedSiteId": 109850,
      "outfallName": "THORNHAM",
      "isImpacting": true,
      "overFlowSiteId": 0,
      "historicSpillsList": []
    },
    {
      "id": 344826181,
      "eventId": 616482,
      "siteUnitNumber": 12662,
      "bathingSite": "CHICHESTER HARBOUR",
      "eventStart": "2022-07-21T09:53:52",
      "eventStop": "2022-07-21T15:40:25",
      "duration": 346,
      "status": "Not Genuine",
      "associatedSiteId": 109850,
      "outfallName": "THORNHAM",
      "isImpacting": true,
      "overFlowSiteId": 0,
      "historicSpillsList": []
    },
    {
      "id": 344826182,
      "eventId": 616478,
      "siteUnitNumber": 12662,
      "bathingSite": "CHICHESTER HARBOUR",
      "eventStart": "2022-07-21T09:34:44",
      "eventStop": "2022-07-21T09:52:37",
      "duration": 17,
      "status": "Not Genuine",
      "associatedSiteId": 109850,
      "outfallName": "THORNHAM",
      "isImpacting": true,
      "overFlowSiteId": 0,
      "historicSpillsList": []
    },
    {
      "id": 344812492,
      "eventId": 616471,
      "siteUnitNumber": 12618,
      "bathingSite": "RYDE",
      "eventStart": "2022-07-21T08:56:19",
      "eventStop": "2022-07-21T08:56:19",
      "duration": 0,
      "status": "Not Genuine",
      "associatedSiteId": 102971,
      "outfallName": "SPRING VALE",
      "isImpacting": true,
      "overFlowSiteId": 0,
      "historicSpillsList": []
    },
    {
      "id": 344824597,
      "eventId": 616336,
      "siteUnitNumber": 12548,
      "bathingSite": "TANKERTON",
      "eventStart": "2022-07-20T22:16:13",
      "eventStop": "2022-07-20T23:29:19",
      "duration": 73,
      "status": "Genuine",
      "associatedSiteId": 109830,
      "outfallName": "SWALECLIFFE NO1",
      "isImpacting": true,
      "overFlowSiteId": 0,
      "historicSpillsList": [
        {
          "id": 344824597,
          "eventId": 616336,
          "siteUnitNumber": 12548,
          "bathingSite": "TANKERTON",
          "eventStart": "2022-07-20T22:16:13",
          "eventStop": "2022-07-20T23:29:19",
          "duration": 73,
          "status": "Genuine",
          "associatedSiteId": 109830,
          "outfallName": "SWALECLIFFE NO1",
          "isImpacting": true,
          "overFlowSiteId": 115444
        },
        {
          "id": 344824598,
          "eventId": 616336,
          "siteUnitNumber": 12549,
          "bathingSite": "HERNE BAY CENTRAL",
          "eventStart": "2022-07-20T22:16:13",
          "eventStop": "2022-07-20T23:29:19",
          "duration": 73,
          "status": "Genuine",
          "associatedSiteId": 109830,
          "outfallName": "SWALECLIFFE NO1",
          "isImpacting": true,
          "overFlowSiteId": 115444,
          "historicSpillsList": []
        }
      ]
    },
    {
      "id": 344845882,
      "eventId": 615371,
      "siteUnitNumber": 12622,
      "bathingSite": "WHITECLIFF BAY",
      "eventStart": "2022-07-17T12:16:57",
      "eventStop": "2022-07-18T11:40:00",
      "duration": 1403,
      "status": "Genuine",
      "associatedSiteId": 110097,
      "outfallName": "SANDOWN NO2",
      "isImpacting": true,
      "overFlowSiteId": 0,
      "historicSpillsList": [
        {
          "id": 344845882,
          "eventId": 615371,
          "siteUnitNumber": 12622,
          "bathingSite": "WHITECLIFF BAY",
          "eventStart": "2022-07-17T12:16:57",
          "eventStop": "2022-07-18T11:40:00",
          "duration": 1403,
          "status": "Genuine",
          "associatedSiteId": 110097,
          "outfallName": "SANDOWN NO2",
          "isImpacting": true,
          "overFlowSiteId": 115454
        },
        {
          "id": 344845883,
          "eventId": 615371,
          "siteUnitNumber": 12623,
          "bathingSite": "YAVERLAND",
          "eventStart": "2022-07-17T12:16:57",
          "eventStop": "2022-07-18T11:40:00",
          "duration": 1403,
          "status": "Genuine",
          "associatedSiteId": 110097,
          "outfallName": "SANDOWN NO2",
          "isImpacting": true,
          "overFlowSiteId": 115454,
          "historicSpillsList": []
        },
        {
          "id": 344845884,
          "eventId": 615371,
          "siteUnitNumber": 12624,
          "bathingSite": "SANDOWN",
          "eventStart": "2022-07-17T12:16:57",
          "eventStop": "2022-07-18T11:40:00",
          "duration": 1403,
          "status": "Genuine",
          "associatedSiteId": 110097,
          "outfallName": "SANDOWN NO2",
          "isImpacting": true,
          "overFlowSiteId": 115454,
          "historicSpillsList": []
        },
        {
          "id": 344845885,
          "eventId": 615371,
          "siteUnitNumber": 12625,
          "bathingSite": "SHANKLIN",
          "eventStart": "2022-07-17T12:16:57",
          "eventStop": "2022-07-18T11:40:00",
          "duration": 1403,
          "status": "Genuine",
          "associatedSiteId": 110097,
          "outfallName": "SANDOWN NO2",
          "isImpacting": true,
          "overFlowSiteId": 115454,
          "historicSpillsList": []
        },
        {
          "id": 344845889,
          "eventId": 615371,
          "siteUnitNumber": 12619,
          "bathingSite": "SEAGROVE",
          "eventStart": "2022-07-17T12:16:57",
          "eventStop": "2022-07-18T11:40:00",
          "duration": 1403,
          "status": "Genuine",
          "associatedSiteId": 110097,
          "outfallName": "SANDOWN NO2",
          "isImpacting": true,
          "overFlowSiteId": 115454,
          "historicSpillsList": []
        },
        {
          "id": 344845890,
          "eventId": 615371,
          "siteUnitNumber": 12621,
          "bathingSite": "BEMBRIDGE",
          "eventStart": "2022-07-17T12:16:57",
          "eventStop": "2022-07-18T11:40:00",
          "duration": 1403,
          "status": "Genuine",
          "associatedSiteId": 110097,
          "outfallName": "SANDOWN NO2",
          "isImpacting": true,
          "overFlowSiteId": 115454,
          "historicSpillsList": []
        }
      ]
    },
    {
      "id": 344845891,
      "eventId": 615358,
      "siteUnitNumber": 12619,
      "bathingSite": "SEAGROVE",
      "eventStart": "2022-07-17T11:24:51",
      "eventStop": "2022-07-17T11:45:00",
      "duration": 20,
      "status": "Genuine",
      "associatedSiteId": 110097,
      "outfallName": "SANDOWN NO2",
      "isImpacting": true,
      "overFlowSiteId": 0,
      "historicSpillsList": [
        {
          "id": 344845891,
          "eventId": 615358,
          "siteUnitNumber": 12619,
          "bathingSite": "SEAGROVE",
          "eventStart": "2022-07-17T11:24:51",
          "eventStop": "2022-07-17T11:45:00",
          "duration": 20,
          "status": "Genuine",
          "associatedSiteId": 110097,
          "outfallName": "SANDOWN NO2",
          "isImpacting": true,
          "overFlowSiteId": 115454
        },
        {
          "id": 344845892,
          "eventId": 615358,
          "siteUnitNumber": 12621,
          "bathingSite": "BEMBRIDGE",
          "eventStart": "2022-07-17T11:24:51",
          "eventStop": "2022-07-17T11:45:00",
          "duration": 20,
          "status": "Genuine",
          "associatedSiteId": 110097,
          "outfallName": "SANDOWN NO2",
          "isImpacting": true,
          "overFlowSiteId": 115454,
          "historicSpillsList": []
        },
        {
          "id": 344845893,
          "eventId": 615358,
          "siteUnitNumber": 12622,
          "bathingSite": "WHITECLIFF BAY",
          "eventStart": "2022-07-17T11:24:51",
          "eventStop": "2022-07-17T11:45:00",
          "duration": 20,
          "status": "Genuine",
          "associatedSiteId": 110097,
          "outfallName": "SANDOWN NO2",
          "isImpacting": true,
          "overFlowSiteId": 115454,
          "historicSpillsList": []
        },
        {
          "id": 344845886,
          "eventId": 615358,
          "siteUnitNumber": 12623,
          "bathingSite": "YAVERLAND",
          "eventStart": "2022-07-17T11:24:51",
          "eventStop": "2022-07-17T11:45:00",
          "duration": 20,
          "status": "Genuine",
          "associatedSiteId": 110097,
          "outfallName": "SANDOWN NO2",
          "isImpacting": true,
          "overFlowSiteId": 115454,
          "historicSpillsList": []
        },
        {
          "id": 344845887,
          "eventId": 615358,
          "siteUnitNumber": 12624,
          "bathingSite": "SANDOWN",
          "eventStart": "2022-07-17T11:24:51",
          "eventStop": "2022-07-17T11:45:00",
          "duration": 20,
          "status": "Genuine",
          "associatedSiteId": 110097,
          "outfallName": "SANDOWN NO2",
          "isImpacting": true,
          "overFlowSiteId": 115454,
          "historicSpillsList": []
        },
        {
          "id": 344845888,
          "eventId": 615358,
          "siteUnitNumber": 12625,
          "bathingSite": "SHANKLIN",
          "eventStart": "2022-07-17T11:24:51",
          "eventStop": "2022-07-17T11:45:00",
          "duration": 20,
          "status": "Genuine",
          "associatedSiteId": 110097,
          "outfallName": "SANDOWN NO2",
          "isImpacting": true,
          "overFlowSiteId": 115454,
          "historicSpillsList": []
        }
      ]
    },
    {
      "id": 344831779,
      "eventId": 614588,
      "siteUnitNumber": 12587,
      "bathingSite": "SOUTHWICK",
      "eventStart": "2022-07-14T05:44:00",
      "eventStop": "2022-07-14T05:50:00",
      "duration": 6,
      "status": "Not Genuine",
      "associatedSiteId": 109924,
      "outfallName": "UPPER SHOREHAM ROAD SHOREHAM",
      "isImpacting": true,
      "overFlowSiteId": 0,
      "historicSpillsList": []
    },
    {
      "id": 344831783,
      "eventId": 614587,
      "siteUnitNumber": 12587,
      "bathingSite": "SOUTHWICK",
      "eventStart": "2022-07-14T05:38:00",
      "eventStop": "2022-07-14T05:40:00",
      "duration": 2,
      "status": "Not Genuine",
      "associatedSiteId": 109924,
      "outfallName": "UPPER SHOREHAM ROAD SHOREHAM",
      "isImpacting": true,
      "overFlowSiteId": 0,
      "historicSpillsList": []
    },
    {
      "id": 344837409,
      "eventId": 613224,
      "siteUnitNumber": 12591,
      "bathingSite": "LITTLEHAMPTON",
      "eventStart": "2022-07-08T19:29:00",
      "eventStop": "2022-07-08T19:29:00",
      "duration": 0,
      "status": "Not Genuine",
      "associatedSiteId": 109965,
      "outfallName": "SEA ROAD LITTLEHAMPTON",
      "isImpacting": true,
      "overFlowSiteId": 0,
      "historicSpillsList": []
    },
    {
      "id": 344815287,
      "eventId": 612762,
      "siteUnitNumber": 12553,
      "bathingSite": "WEST BAY WESTGATE",
      "eventStart": "2022-07-06T21:18:15",
      "eventStop": "2022-07-06T21:49:18",
      "duration": 31,
      "status": "Not Genuine",
      "associatedSiteId": 109672,
      "outfallName": "SEA VIEW TERRACE MARGATE",
      "isImpacting": true,
      "overFlowSiteId": 0,
      "historicSpillsList": []
    },
    {
      "id": 344815300,
      "eventId": 612760,
      "siteUnitNumber": 12553,
      "bathingSite": "WEST BAY WESTGATE",
      "eventStart": "2022-07-06T19:30:22",
      "eventStop": "2022-07-06T21:02:11",
      "duration": 91,
      "status": "Not Genuine",
      "associatedSiteId": 109672,
      "outfallName": "SEA VIEW TERRACE MARGATE",
      "isImpacting": true,
      "overFlowSiteId": 0,
      "historicSpillsList": []
    }
  ]
}