{
  "currentPage": 520,
  "totalItems": 21025,
  "totalPages": 841,
  "items": [
    {
      "id": 344849483,
      "eventId": 655556,
      "siteUnitNumber": 12577,
      "bathingSite": "BEXHILL",
      "eventStart": "2022-11-04T00:24:31",
      "eventStop": "2022-11-04T00:59:00",
      "duration": 34,
      "status": "Genuine",
      "associatedSiteId": 111338,
      "outfallName": "GALLEY HILL BEXHILL",
      "isImpacting": false,
      "overFlowSiteId": 0,
      "historicSpillsList": []
    },
    {
      "id": 344833612,
      "eventId": 655506,
      "siteUnitNumber": 12583,
      "bathingSite": "SALTDEAN",
      "eventStart": "2022-11-04T00:10:00",
      "eventStop": "2022-11-04T00:56:00",
      "duration": 46,
      "status": "Genuine",
      "associatedSiteId": 109955,
      "outfallName": "PORTOBELLO BRIGHTON NO1",
      "isImpacting": true,
      "overFlowSiteId": 0,
      "historicSpillsList": [
        {
          "id": 344833612,
          "eventId": 655506,
          "siteUnitNumber": 12583,
          "bathingSite": "SALTDEAN",
          "eventStart": "2022-11-04T00:10:00",
          "eventStop": "2022-11-04T00:56:00",
          "duration": 46,
          "status": "Genuine",
          "associatedSiteId": 109955,
          "outfallName": "PORTOBELLO BRIGHTON NO1",
          "isImpacting": true,
          "overFlowSiteId": 111606
        }
      ]
    },
    {
      "id": 344832982,
      "eventId": 655151,
      "siteUnitNumber": 12619,
      "bathingSite": "SEAGROVE",
      "eventStart": "2022-11-03T20:07:00",
      "eventStop": "2022-11-04T00:54:00",
      "duration": 287,
      "status": "Genuine",
      "associatedSiteId": 109938,
      "outfallName": "THE POINT BEMBRIDGE",
      "isImpacting": true,
      "overFlowSiteId": 0,
      "historicSpillsList": [
        {
          "id": 344832983,
          "eventId": 655151,
          "siteUnitNumber": 12620,
          "bathingSite": "ST HELENS",
          "eventStart": "2022-11-03T20:07:00",
          "eventStop": "2022-11-04T00:54:00",
          "duration": 287,
          "status": "Genuine",
          "associatedSiteId": 109938,
          "outfallName": "THE POINT BEMBRIDGE",
          "isImpacting": true,
          "overFlowSiteId": 110194,
          "historicSpillsList": []
        }
      ]
    },
    {
      "id": 344834278,
      "eventId": 655653,
      "siteUnitNumber": 12582,
      "bathingSite": "SEAFORD",
      "eventStart": "2022-11-04T00:06:29",
      "eventStop": "2022-11-04T00:46:24",
      "duration": 39,
      "status": "Genuine",
      "associatedSiteId": 109957,
      "outfallName": "PORTOBELLO BRIGHTON NO2",
      "isImpacting": false,
      "overFlowSiteId": 0,
      "historicSpillsList": []
    },
    {
      "id": 344826076,
      "eventId": 655510,
      "siteUnitNumber": 12662,
      "bathingSite": "CHICHESTER HARBOUR",
      "eventStart": "2022-11-04T00:24:01",
      "eventStop": "2022-11-04T00:45:00",
      "duration": 20,
      "status": "Not Genuine",
      "associatedSiteId": 109836,
      "outfallName": "CHICHESTER",
      "isImpacting": true,
      "overFlowSiteId": 0,
      "historicSpillsList": []
    },
    {
      "id": 344833611,
      "eventId": 655469,
      "siteUnitNumber": 12583,
      "bathingSite": "SALTDEAN",
      "eventStart": "2022-11-04T00:12:21",
      "eventStop": "2022-11-04T00:45:00",
      "duration": 32,
      "status": "Not Genuine",
      "associatedSiteId": 109955,
      "outfallName": "PORTOBELLO BRIGHTON NO1",
      "isImpacting": true,
      "overFlowSiteId": 0,
      "historicSpillsList": []
    },
    {
      "id": 344832634,
      "eventId": 655396,
      "siteUnitNumber": 12581,
      "bathingSite": "BIRLING GAP",
      "eventStart": "2022-11-03T23:15:00",
      "eventStop": "2022-11-04T00:45:00",
      "duration": 90,
      "status": "Genuine",
      "associatedSiteId": 109936,
      "outfallName": "EAST DEAN",
      "isImpacting": false,
      "overFlowSiteId": 0,
      "historicSpillsList": []
    },
    {
      "id": 344837872,
      "eventId": 654998,
      "siteUnitNumber": 12591,
      "bathingSite": "LITTLEHAMPTON",
      "eventStart": "2022-11-03T19:41:00",
      "eventStop": "2022-11-04T00:43:00",
      "duration": 302,
      "status": "Genuine",
      "associatedSiteId": 109968,
      "outfallName": "FORD ROAD ARUNDEL",
      "isImpacting": true,
      "overFlowSiteId": 0,
      "historicSpillsList": [
        {
          "id": 344837872,
          "eventId": 654998,
          "siteUnitNumber": 12591,
          "bathingSite": "LITTLEHAMPTON",
          "eventStart": "2022-11-03T19:41:00",
          "eventStop": "2022-11-04T00:43:00",
          "duration": 302,
          "status": "Genuine",
          "associatedSiteId": 109968,
          "outfallName": "FORD ROAD ARUNDEL",
          "isImpacting": true,
          "overFlowSiteId": 108002
        }
      ]
    },
    {
      "id": 344824119,
      "eventId": 655356,
      "siteUnitNumber": 12608,
      "bathingSite": "CALSHOT",
      "eventStart": "2022-11-03T22:51:00",
      "eventStop": "2022-11-04T00:39:00",
      "duration": 108,
      "status": "Genuine",
      "associatedSiteId": 109826,
      "outfallName": "ASHLETT CREEK FAWLEY",
      "isImpacting": true,
      "overFlowSiteId": 0,
      "historicSpillsList": [
        {
          "id": 344824119,
          "eventId": 655356,
          "siteUnitNumber": 12608,
          "bathingSite": "CALSHOT",
          "eventStart": "2022-11-03T22:51:00",
          "eventStop": "2022-11-04T00:39:00",
          "duration": 108,
          "status": "Genuine",
          "associatedSiteId": 109826,
          "outfallName": "ASHLETT CREEK FAWLEY",
          "isImpacting": true,
          "overFlowSiteId": 115372
        }
      ]
    },
    {
      "id": 344831624,
      "eventId": 655373,
      "siteUnitNumber": 12587,
      "bathingSite": "SOUTHWICK",
      "eventStart": "2022-11-03T22:36:49",
      "eventStop": "2022-11-04T00:37:12",
      "duration": 120,
      "status": "Genuine",
      "associatedSiteId": 109922,
      "outfallName": "ROPETACKLE STREET SHOREHAM",
      "isImpacting": false,
      "overFlowSiteId": 0,
      "historicSpillsList": []
    },
    {
      "id": 344824518,
      "eventId": 653111,
      "siteUnitNumber": 12548,
      "bathingSite": "TANKERTON",
      "eventStart": "2022-11-03T02:14:41",
      "eventStop": "2022-11-04T00:27:29",
      "duration": 1332,
      "status": "Genuine",
      "associatedSiteId": 109830,
      "outfallName": "SWALECLIFFE NO1",
      "isImpacting": true,
      "overFlowSiteId": 0,
      "historicSpillsList": [
        {
          "id": 344824518,
          "eventId": 653111,
          "siteUnitNumber": 12548,
          "bathingSite": "TANKERTON",
          "eventStart": "2022-11-03T02:14:41",
          "eventStop": "2022-11-04T00:27:29",
          "duration": 1332,
          "status": "Genuine",
          "associatedSiteId": 109830,
          "outfallName": "SWALECLIFFE NO1",
          "isImpacting": true,
          "overFlowSiteId": 115444
        },
        {
          "id": 344824519,
          "eventId": 653111,
          "siteUnitNumber": 12549,
          "bathingSite": "HERNE BAY CENTRAL",
          "eventStart": "2022-11-03T02:14:41",
          "eventStop": "2022-11-04T00:27:29",
          "duration": 1332,
          "status": "Genuine",
          "associatedSiteId": 109830,
          "outfallName": "SWALECLIFFE NO1",
          "isImpacting": true,
          "overFlowSiteId": 115444,
          "historicSpillsList": []
        }
      ]
    },
    {
      "id": 344822532,
      "eventId": 655201,
      "siteUnitNumber": 12618,
      "bathingSite": "RYDE",
      "eventStart": "2022-11-03T20:56:00",
      "eventStop": "2022-11-04T00:09:00",
      "duration": 193,
      "status": "Genuine",
      "associatedSiteId": 109790,
      "outfallName": "GREAT PRESTON ROAD RYDE",
      "isImpacting": true,
      "overFlowSiteId": 0,
      "historicSpillsList": [
        {
          "id": 344822532,
          "eventId": 655201,
          "siteUnitNumber": 12618,
          "bathingSite": "RYDE",
          "eventStart": "2022-11-03T20:56:00",
          "eventStop": "2022-11-04T00:09:00",
          "duration": 193,
          "status": "Genuine",
          "associatedSiteId": 109790,
          "outfallName": "GREAT PRESTON ROAD RYDE",
          "isImpacting": true,
          "overFlowSiteId": 109304
        },
        {
          "id": 344822533,
          "eventId": 655201,
          "siteUnitNumber": 12619,
          "bathingSite": "SEAGROVE",
          "eventStart": "2022-11-03T20:56:00",
          "eventStop": "2022-11-04T00:09:00",
          "duration": 193,
          "status": "Genuine",
          "associatedSiteId": 109790,
          "outfallName": "GREAT PRESTON ROAD RYDE",
          "isImpacting": true,
          "overFlowSiteId": 109304,
          "historicSpillsList": []
        }
      ]
    },
    {
      "id": 344826078,
      "eventId": 655116,
      "siteUnitNumber": 12662,
      "bathingSite": "CHICHESTER HARBOUR",
      "eventStart": "2022-11-03T19:56:00",
      "eventStop": "2022-11-04T00:08:00",
      "duration": 252,
      "status": "Genuine",
      "associatedSiteId": 109836,
      "outfallName": "CHICHESTER",
      "isImpacting": true,
      "overFlowSiteId": 0,
      "historicSpillsList": [
        {
          "id": 344826078,
          "eventId": 655116,
          "siteUnitNumber": 12662,
          "bathingSite": "CHICHESTER HARBOUR",
          "eventStart": "2022-11-03T19:56:00",
          "eventStop": "2022-11-04T00:08:00",
          "duration": 252,
          "status": "Genuine",
          "associatedSiteId": 109836,
          "outfallName": "CHICHESTER",
          "isImpacting": true,
          "overFlowSiteId": 115401
        }
      ]
    },
    {
      "id": 344840127,
      "eventId": 656353,
      "siteUnitNumber": 12623,
      "bathingSite": "YAVERLAND",
      "eventStart": "2022-11-03T19:00:00",
      "eventStop": "2022-11-03T23:41:00",
      "duration": 281,
      "status": "Genuine",
      "associatedSiteId": 110029,
      "outfallName": "HOPE BEACH SHANKLIN NEW",
      "isImpacting": true,
      "overFlowSiteId": 0,
      "historicSpillsList": [
        {
          "id": 344840129,
          "eventId": 656353,
          "siteUnitNumber": 12625,
          "bathingSite": "SHANKLIN",
          "eventStart": "2022-11-03T19:00:00",
          "eventStop": "2022-11-03T23:41:00",
          "duration": 281,
          "status": "Genuine",
          "associatedSiteId": 110029,
          "outfallName": "HOPE BEACH SHANKLIN NEW",
          "isImpacting": true,
          "overFlowSiteId": 109389,
          "historicSpillsList": []
        }
      ]
    },
    {
      "id": 344815182,
      "eventId": 655363,
      "siteUnitNumber": 12615,
      "bathingSite": "COLWELL BAY",
      "eventStart": "2022-11-03T22:52:00",
      "eventStop": "2022-11-03T23:35:00",
      "duration": 43,
      "status": "Genuine",
      "associatedSiteId": 109665,
      "outfallName": "THORLEY ROAD BOULDNOR",
      "isImpacting": false,
      "overFlowSiteId": 0,
      "historicSpillsList": []
    },
    {
      "id": 344815034,
      "eventId": 655353,
      "siteUnitNumber": 12615,
      "bathingSite": "COLWELL BAY",
      "eventStart": "2022-11-03T22:39:00",
      "eventStop": "2022-11-03T23:35:00",
      "duration": 56,
      "status": "Genuine",
      "associatedSiteId": 109663,
      "outfallName": "THE INSTITUTE YARMOUTH NO1",
      "isImpacting": false,
      "overFlowSiteId": 0,
      "historicSpillsList": []
    },
    {
      "id": 344822886,
      "eventId": 655343,
      "siteUnitNumber": 12661,
      "bathingSite": "LANGSTONE HARBOUR",
      "eventStart": "2022-11-03T22:14:33",
      "eventStop": "2022-11-03T23:34:00",
      "duration": 79,
      "status": "Genuine",
      "associatedSiteId": 109817,
      "outfallName": "MAINLAND DRAYTON",
      "isImpacting": true,
      "overFlowSiteId": 0,
      "historicSpillsList": [
        {
          "id": 344822886,
          "eventId": 655343,
          "siteUnitNumber": 12661,
          "bathingSite": "LANGSTONE HARBOUR",
          "eventStart": "2022-11-03T22:14:33",
          "eventStop": "2022-11-03T23:34:00",
          "duration": 79,
          "status": "Genuine",
          "associatedSiteId": 109817,
          "outfallName": "MAINLAND DRAYTON",
          "isImpacting": true,
          "overFlowSiteId": 115960
        }
      ]
    },
    {
      "id": 344840250,
      "eventId": 655551,
      "siteUnitNumber": 12625,
      "bathingSite": "SHANKLIN",
      "eventStart": "2022-11-03T23:00:00",
      "eventStop": "2022-11-03T23:30:00",
      "duration": 30,
      "status": "Genuine",
      "associatedSiteId": 110034,
      "outfallName": "LUCCOMBE",
      "isImpacting": false,
      "overFlowSiteId": 0,
      "historicSpillsList": []
    },
    {
      "id": 344823604,
      "eventId": 655111,
      "siteUnitNumber": 12604,
      "bathingSite": "SOUTHSEA EAST",
      "eventStart": "2022-11-03T20:05:00",
      "eventStop": "2022-11-03T23:28:00",
      "duration": 203,
      "status": "Genuine",
      "associatedSiteId": 109822,
      "outfallName": "PIER ROAD SOUTHSEA",
      "isImpacting": true,
      "overFlowSiteId": 0,
      "historicSpillsList": [
        {
          "id": 344823604,
          "eventId": 655111,
          "siteUnitNumber": 12604,
          "bathingSite": "SOUTHSEA EAST",
          "eventStart": "2022-11-03T20:05:00",
          "eventStop": "2022-11-03T23:28:00",
          "duration": 203,
          "status": "Genuine",
          "associatedSiteId": 109822,
          "outfallName": "PIER ROAD SOUTHSEA",
          "isImpacting": true,
          "overFlowSiteId": 108469
        },
        {
          "id": 344823605,
          "eventId": 655111,
          "siteUnitNumber": 12605,
          "bathingSite": "STOKES BAY",
          "eventStart": "2022-11-03T20:05:00",
          "eventStop": "2022-11-03T23:28:00",
          "duration": 203,
          "status": "Genuine",
          "associatedSiteId": 109822,
          "outfallName": "PIER ROAD SOUTHSEA",
          "isImpacting": true,
          "overFlowSiteId": 108469,
          "historicSpillsList": []
        }
      ]
    },
    {
      "id": 344831480,
      "eventId": 755779,
      "siteUnitNumber": 12590,
      "bathingSite": "WORTHING",
      "eventStart": "2022-11-03T23:08:53",
      "eventStop": "2022-11-03T23:26:00",
      "duration": 17,
      "status": "Genuine",
      "associatedSiteId": 109912,
      "outfallName": "SEA LANE GORING",
      "isImpacting": false,
      "overFlowSiteId": 0,
      "historicSpillsList": []
    },
    {
      "id": 344818847,
      "eventId": 655346,
      "siteUnitNumber": 12606,
      "bathingSite": "LEE-ON-SOLENT",
      "eventStart": "2022-11-03T22:26:34",
      "eventStop": "2022-11-03T23:22:16",
      "duration": 55,
      "status": "Genuine",
      "associatedSiteId": 109715,
      "outfallName": "SALTERNS ROAD HILL HEAD",
      "isImpacting": true,
      "overFlowSiteId": 0,
      "historicSpillsList": [
        {
          "id": 344818848,
          "eventId": 655346,
          "siteUnitNumber": 12607,
          "bathingSite": "HILLHEAD",
          "eventStart": "2022-11-03T22:26:34",
          "eventStop": "2022-11-03T23:22:16",
          "duration": 55,
          "status": "Genuine",
          "associatedSiteId": 109715,
          "outfallName": "SALTERNS ROAD HILL HEAD",
          "isImpacting": true,
          "overFlowSiteId": 108441,
          "historicSpillsList": []
        }
      ]
    },
    {
      "id": 344822721,
      "eventId": 655110,
      "siteUnitNumber": 12597,
      "bathingSite": "SELSEY",
      "eventStart": "2022-11-03T19:40:00",
      "eventStop": "2022-11-03T23:12:00",
      "duration": 212,
      "status": "Genuine",
      "associatedSiteId": 109792,
      "outfallName": "EAST BEACH ROAD SELSEY",
      "isImpacting": true,
      "overFlowSiteId": 0,
      "historicSpillsList": [
        {
          "id": 344822721,
          "eventId": 655110,
          "siteUnitNumber": 12597,
          "bathingSite": "SELSEY",
          "eventStart": "2022-11-03T19:40:00",
          "eventStop": "2022-11-03T23:12:00",
          "duration": 212,
          "status": "Genuine",
          "associatedSiteId": 109792,
          "outfallName": "EAST BEACH ROAD SELSEY",
          "isImpacting": true,
          "overFlowSiteId": 108220
        }
      ]
    },
    {
      "id": 344818487,
      "eventId": 655066,
      "siteUnitNumber": 12616,
      "bathingSite": "GURNARD",
      "eventStart": "2022-11-03T19:14:27",
      "eventStop": "2022-11-03T22:53:19",
      "duration": 218,
      "status": "Genuine",
      "associatedSiteId": 109706,
      "outfallName": "HIGH STREET COWES",
      "isImpacting": false,
      "overFlowSiteId": 0,
      "historicSpillsList": []
    },
    {
      "id": 344816647,
      "eventId": 656039,
      "siteUnitNumber": 12616,
      "bathingSite": "GURNARD",
      "eventStart": "2022-11-03T21:20:00",
      "eventStop": "2022-11-03T22:25:00",
      "duration": 65,
      "status": "Genuine",
      "associatedSiteId": 109700,
      "outfallName": "MARKET HILL COWES",
      "isImpacting": false,
      "overFlowSiteId": 0,
      "historicSpillsList": []
    },
    {
      "id": 344814081,
      "eventId": 656202,
      "siteUnitNumber": 12616,
      "bathingSite": "GURNARD",
      "eventStart": "2022-11-03T02:50:00",
      "eventStop": "2022-11-03T22:18:00",
      "duration": 1168,
      "status": "Genuine",
      "associatedSiteId": 109652,
      "outfallName": "WOODVALE TRANSFER NO1",
      "isImpacting": true,
      "overFlowSiteId": 0,
      "historicSpillsList": [
        {
          "id": 344814081,
          "eventId": 656202,
          "siteUnitNumber": 12616,
          "bathingSite": "GURNARD",
          "eventStart": "2022-11-03T02:50:00",
          "eventStop": "2022-11-03T22:18:00",
          "duration": 1168,
          "status": "Genuine",
          "associatedSiteId": 109652,
          "outfallName": "WOODVALE TRANSFER NO1",
          "isImpacting": true,
          "overFlowSiteId": 115966
        },
        {
          "id": 344814082,
          "eventId": 656202,
          "siteUnitNumber": 12617,
          "bathingSite": "COWES",
          "eventStart": "2022-11-03T02:50:00",
          "eventStop": "2022-11-03T22:18:00",
          "duration": 1168,
          "status": "Genuine",
          "associatedSiteId": 109652,
          "outfallName": "WOODVALE TRANSFER NO1",
          "isImpacting": true,
          "overFlowSiteId": 115966,
          "historicSpillsList": []
        }
      ]
    }
  ]
}