{
  "currentPage": 582,
  "totalItems": 21025,
  "totalPages": 841,
  "items": [
    {
      "id": 344854677,
      "eventId": 572536,
      "siteUnitNumber": 12591,
      "bathingSite": "LITTLEHAMPTON",
      "eventStart": "2022-03-22T06:36:00",
      "eventStop": "2022-03-22T06:40:00",
      "duration": 4,
      "status": "Not Genuine",
      "associatedSiteId": 115703,
      "outfallName": "STATION ROAD RUSTINGTON",
      "isImpacting": true,
      "overFlowSiteId": 0,
      "historicSpillsList": []
    },
    {
      "id": 344854676,
      "eventId": 572464,
      "siteUnitNumber": 12591,
      "bathingSite": "LITTLEHAMPTON",
      "eventStart": "2022-03-22T00:42:00",
      "eventStop": "2022-03-22T00:46:00",
      "duration": 4,
      "status": "Not Genuine",
      "associatedSiteId": 115703,
      "outfallName": "STATION ROAD RUSTINGTON",
      "isImpacting": true,
      "overFlowSiteId": 0,
      "historicSpillsList": []
    },
    {
      "id": 344854680,
      "eventId": 572456,
      "siteUnitNumber": 12591,
      "bathingSite": "LITTLEHAMPTON",
      "eventStart": "2022-03-21T23:30:00",
      "eventStop": "2022-03-21T23:34:00",
      "duration": 4,
      "status": "Not Genuine",
      "associatedSiteId": 115703,
      "outfallName": "STATION ROAD RUSTINGTON",
      "isImpacting": true,
      "overFlowSiteId": 0,
      "historicSpillsList": []
    },
    {
      "id": 344854679,
      "eventId": 572455,
      "siteUnitNumber": 12591,
      "bathingSite": "LITTLEHAMPTON",
      "eventStart": "2022-03-21T23:12:00",
      "eventStop": "2022-03-21T23:16:00",
      "duration": 4,
      "status": "Not Genuine",
      "associatedSiteId": 115703,
      "outfallName": "STATION ROAD RUSTINGTON",
      "isImpacting": true,
      "overFlowSiteId": 0,
      "historicSpillsList": []
    },
    {
      "id": 344854678,
      "eventId": 572454,
      "siteUnitNumber": 12591,
      "bathingSite": "LITTLEHAMPTON",
      "eventStart": "2022-03-21T23:02:00",
      "eventStop": "2022-03-21T23:06:00",
      "duration": 4,
      "status": "Not Genuine",
      "associatedSiteId": 115703,
      "outfallName": "STATION ROAD RUSTINGTON",
      "isImpacting": true,
      "overFlowSiteId": 0,
      "historicSpillsList": []
    },
    {
      "id": 344854683,
      "eventId": 572444,
      "siteUnitNumber": 12591,
      "bathingSite": "LITTLEHAMPTON",
      "eventStart": "2022-03-21T22:30:00",
      "eventStop": "2022-03-21T22:34:00",
      "duration": 4,
      "status": "Not Genuine",
      "associatedSiteId": 115703,
      "outfallName": "STATION ROAD RUSTINGTON",
      "isImpacting": true,
      "overFlowSiteId": 0,
      "historicSpillsList": []
    },
    {
      "id": 344854682,
      "eventId": 572433,
      "siteUnitNumber": 12591,
      "bathingSite": "LITTLEHAMPTON",
      "eventStart": "2022-03-21T21:54:00",
      "eventStop": "2022-03-21T21:58:00",
      "duration": 4,
      "status": "Not Genuine",
      "associatedSiteId": 115703,
      "outfallName": "STATION ROAD RUSTINGTON",
      "isImpacting": true,
      "overFlowSiteId": 0,
      "historicSpillsList": []
    },
    {
      "id": 344854681,
      "eventId": 572419,
      "siteUnitNumber": 12591,
      "bathingSite": "LITTLEHAMPTON",
      "eventStart": "2022-03-21T21:14:00",
      "eventStop": "2022-03-21T21:20:00",
      "duration": 6,
      "status": "Not Genuine",
      "associatedSiteId": 115703,
      "outfallName": "STATION ROAD RUSTINGTON",
      "isImpacting": true,
      "overFlowSiteId": 0,
      "historicSpillsList": []
    },
    {
      "id": 344854686,
      "eventId": 572415,
      "siteUnitNumber": 12591,
      "bathingSite": "LITTLEHAMPTON",
      "eventStart": "2022-03-21T21:02:00",
      "eventStop": "2022-03-21T21:04:00",
      "duration": 2,
      "status": "Not Genuine",
      "associatedSiteId": 115703,
      "outfallName": "STATION ROAD RUSTINGTON",
      "isImpacting": true,
      "overFlowSiteId": 0,
      "historicSpillsList": []
    },
    {
      "id": 344854685,
      "eventId": 572411,
      "siteUnitNumber": 12591,
      "bathingSite": "LITTLEHAMPTON",
      "eventStart": "2022-03-21T20:50:00",
      "eventStop": "2022-03-21T20:52:00",
      "duration": 2,
      "status": "Not Genuine",
      "associatedSiteId": 115703,
      "outfallName": "STATION ROAD RUSTINGTON",
      "isImpacting": true,
      "overFlowSiteId": 0,
      "historicSpillsList": []
    },
    {
      "id": 344854684,
      "eventId": 572409,
      "siteUnitNumber": 12591,
      "bathingSite": "LITTLEHAMPTON",
      "eventStart": "2022-03-21T20:36:00",
      "eventStop": "2022-03-21T20:42:00",
      "duration": 6,
      "status": "Not Genuine",
      "associatedSiteId": 115703,
      "outfallName": "STATION ROAD RUSTINGTON",
      "isImpacting": true,
      "overFlowSiteId": 0,
      "historicSpillsList": []
    },
    {
      "id": 344854689,
      "eventId": 572405,
      "siteUnitNumber": 12591,
      "bathingSite": "LITTLEHAMPTON",
      "eventStart": "2022-03-21T20:20:00",
      "eventStop": "2022-03-21T20:28:00",
      "duration": 8,
      "status": "Not Genuine",
      "associatedSiteId": 115703,
      "outfallName": "STATION ROAD RUSTINGTON",
      "isImpacting": true,
      "overFlowSiteId": 0,
      "historicSpillsList": []
    },
    {
      "id": 344854688,
      "eventId": 572393,
      "siteUnitNumber": 12591,
      "bathingSite": "LITTLEHAMPTON",
      "eventStart": "2022-03-21T19:56:00",
      "eventStop": "2022-03-21T20:02:00",
      "duration": 6,
      "status": "Not Genuine",
      "associatedSiteId": 115703,
      "outfallName": "STATION ROAD RUSTINGTON",
      "isImpacting": true,
      "overFlowSiteId": 0,
      "historicSpillsList": []
    },
    {
      "id": 344854687,
      "eventId": 572375,
      "siteUnitNumber": 12591,
      "bathingSite": "LITTLEHAMPTON",
      "eventStart": "2022-03-21T19:08:00",
      "eventStop": "2022-03-21T19:14:00",
      "duration": 6,
      "status": "Not Genuine",
      "associatedSiteId": 115703,
      "outfallName": "STATION ROAD RUSTINGTON",
      "isImpacting": true,
      "overFlowSiteId": 0,
      "historicSpillsList": []
    },
    {
      "id": 344854692,
      "eventId": 572348,
      "siteUnitNumber": 12591,
      "bathingSite": "LITTLEHAMPTON",
      "eventStart": "2022-03-21T18:30:00",
      "eventStop": "2022-03-21T18:36:00",
      "duration": 6,
      "status": "Not Genuine",
      "associatedSiteId": 115703,
      "outfallName": "STATION ROAD RUSTINGTON",
      "isImpacting": true,
      "overFlowSiteId": 0,
      "historicSpillsList": []
    },
    {
      "id": 344854691,
      "eventId": 572344,
      "siteUnitNumber": 12591,
      "bathingSite": "LITTLEHAMPTON",
      "eventStart": "2022-03-21T18:10:00",
      "eventStop": "2022-03-21T18:16:00",
      "duration": 6,
      "status": "Not Genuine",
      "associatedSiteId": 115703,
      "outfallName": "STATION ROAD RUSTINGTON",
      "isImpacting": true,
      "overFlowSiteId": 0,
      "historicSpillsList": []
    },
    {
      "id": 344854690,
      "eventId": 572333,
      "siteUnitNumber": 12591,
      "bathingSite": "LITTLEHAMPTON",
      "eventStart": "2022-03-21T17:56:00",
      "eventStop": "2022-03-21T18:00:00",
      "duration": 4,
      "status": "Not Genuine",
      "associatedSiteId": 115703,
      "outfallName": "STATION ROAD RUSTINGTON",
      "isImpacting": true,
      "overFlowSiteId": 0,
      "historicSpillsList": []
    },
    {
      "id": 344854695,
      "eventId": 572332,
      "siteUnitNumber": 12591,
      "bathingSite": "LITTLEHAMPTON",
      "eventStart": "2022-03-21T17:46:00",
      "eventStop": "2022-03-21T17:50:00",
      "duration": 4,
      "status": "Not Genuine",
      "associatedSiteId": 115703,
      "outfallName": "STATION ROAD RUSTINGTON",
      "isImpacting": true,
      "overFlowSiteId": 0,
      "historicSpillsList": []
    },
    {
      "id": 344854694,
      "eventId": 572330,
      "siteUnitNumber": 12591,
      "bathingSite": "LITTLEHAMPTON",
      "eventStart": "2022-03-21T17:30:00",
      "eventStop": "2022-03-21T17:34:00",
      "duration": 4,
      "status": "Not Genuine",
      "associatedSiteId": 115703,
      "outfallName": "STATION ROAD RUSTINGTON",
      "isImpacting": true,
      "overFlowSiteId": 0,
      "historicSpillsList": []
    },
    {
      "id": 344854693,
      "eventId": 572327,
      "siteUnitNumber": 12591,
      "bathingSite": "LITTLEHAMPTON",
      "eventStart": "2022-03-21T17:00:00",
      "eventStop": "2022-03-21T17:06:00",
      "duration": 6,
      "status": "Not Genuine",
      "associatedSiteId": 115703,
      "outfallName": "STATION ROAD RUSTINGTON",
      "isImpacting": true,
      "overFlowSiteId": 0,
      "historicSpillsList": []
    },
    {
      "id": 344854698,
      "eventId": 572316,
      "siteUnitNumber": 12591,
      "bathingSite": "LITTLEHAMPTON",
      "eventStart": "2022-03-21T16:48:00",
      "eventStop": "2022-03-21T16:50:00",
      "duration": 2,
      "status": "Not Genuine",
      "associatedSiteId": 115703,
      "outfallName": "STATION ROAD RUSTINGTON",
      "isImpacting": true,
      "overFlowSiteId": 0,
      "historicSpillsList": []
    },
    {
      "id": 344854697,
      "eventId": 572310,
      "siteUnitNumber": 12591,
      "bathingSite": "LITTLEHAMPTON",
      "eventStart": "2022-03-21T16:16:00",
      "eventStop": "2022-03-21T16:22:00",
      "duration": 6,
      "status": "Not Genuine",
      "associatedSiteId": 115703,
      "outfallName": "STATION ROAD RUSTINGTON",
      "isImpacting": true,
      "overFlowSiteId": 0,
      "historicSpillsList": []
    },
    {
      "id": 344854696,
      "eventId": 572303,
      "siteUnitNumber": 12591,
      "bathingSite": "LITTLEHAMPTON",
      "eventStart": "2022-03-21T16:06:00",
      "eventStop": "2022-03-21T16:10:00",
      "duration": 4,
      "status": "Not Genuine",
      "associatedSiteId": 115703,
      "outfallName": "STATION ROAD RUSTINGTON",
      "isImpacting": true,
      "overFlowSiteId": 0,
      "historicSpillsList": []
    },
    {
      "id": 344854701,
      "eventId": 572300,
      "siteUnitNumber": 12591,
      "bathingSite": "LITTLEHAMPTON",
      "eventStart": "2022-03-21T15:50:00",
      "eventStop": "2022-03-21T15:58:00",
      "duration": 8,
      "status": "Not Genuine",
      "associatedSiteId": 115703,
      "outfallName": "STATION ROAD RUSTINGTON",
      "isImpacting": true,
      "overFlowSiteId": 0,
      "historicSpillsList": []
    },
    {
      "id": 344854700,
      "eventId": 572297,
      "siteUnitNumber": 12591,
      "bathingSite": "LITTLEHAMPTON",
      "eventStart": "2022-03-21T15:32:00",
      "eventStop": "2022-03-21T15:34:00",
      "duration": 2,
      "status": "Not Genuine",
      "associatedSiteId": 115703,
      "outfallName": "STATION ROAD RUSTINGTON",
      "isImpacting": true,
      "overFlowSiteId": 0,
      "historicSpillsList": []
    }
  ]
}