{
  "currentPage": 94,
  "totalItems": 21025,
  "totalPages": 841,
  "items": [
    {
      "id": 344766412,
      "eventId": 897618,
      "siteUnitNumber": 12615,
      "bathingSite": "COLWELL BAY",
      "eventStart": "2023-11-06T04:38:00",
      "eventStop": "2023-11-06T04:54:00",
      "duration": 16,
      "status": "Genuine",
      "associatedSiteId": 115498,
      "outfallName": "NORTON TRANSFER IOW",
      "isImpacting": true,
      "overFlowSiteId": 0,
      "historicSpillsList": [
        {
          "id": 344766412,
          "eventId": 897618,
          "siteUnitNumber": 12615,
          "bathingSite": "COLWELL BAY",
          "eventStart": "2023-11-06T04:38:00",
          "eventStop": "2023-11-06T04:54:00",
          "duration": 16,
          "status": "Genuine",
          "associatedSiteId": 115498,
          "outfallName": "NORTON TRANSFER IOW",
          "isImpacting": true,
          "overFlowSiteId": 108544
        },
        {
          "id": 344766413,
          "eventId": 897618,
          "siteUnitNumber": 12614,
          "bathingSite": "TOTLAND BAY",
          "eventStart": "2023-11-06T04:38:00",
          "eventStop": "2023-11-06T04:54:00",
          "duration": 16,
          "status": "Genuine",
          "associatedSiteId": 115498,
          "outfallName": "NORTON TRANSFER IOW",
          "isImpacting": true,
          "overFlowSiteId": 108544,
          "historicSpillsList": []
        }
      ]
    },
    {
      "id": 344753404,
      "eventId": 897495,
      "siteUnitNumber": 12575,
      "bathingSite": "HASTINGS PELHAM BEACH",
      "eventStart": "2023-11-06T04:38:25",
      "eventStop": "2023-11-06T04:53:19",
      "duration": 14,
      "status": "Genuine",
      "associatedSiteId": 109982,
      "outfallName": "COOMBS HASTINGS",
      "isImpacting": true,
      "overFlowSiteId": 0,
      "historicSpillsList": [
        {
          "id": 344753405,
          "eventId": 897495,
          "siteUnitNumber": 12576,
          "bathingSite": "ST LEONARDS",
          "eventStart": "2023-11-06T04:38:25",
          "eventStop": "2023-11-06T04:53:19",
          "duration": 14,
          "status": "Genuine",
          "associatedSiteId": 109982,
          "outfallName": "COOMBS HASTINGS",
          "isImpacting": true,
          "overFlowSiteId": 110211,
          "historicSpillsList": []
        }
      ]
    },
    {
      "id": 344741704,
      "eventId": 897507,
      "siteUnitNumber": 12568,
      "bathingSite": "SANDGATE",
      "eventStart": "2023-11-06T04:46:04",
      "eventStop": "2023-11-06T04:48:17",
      "duration": 2,
      "status": "Genuine",
      "associatedSiteId": 109896,
      "outfallName": "RANGE ROAD HYTHE K SHORT",
      "isImpacting": true,
      "overFlowSiteId": 0,
      "historicSpillsList": [
        {
          "id": 344741705,
          "eventId": 897507,
          "siteUnitNumber": 12569,
          "bathingSite": "HYTHE",
          "eventStart": "2023-11-06T04:46:04",
          "eventStop": "2023-11-06T04:48:17",
          "duration": 2,
          "status": "Genuine",
          "associatedSiteId": 109896,
          "outfallName": "RANGE ROAD HYTHE K SHORT",
          "isImpacting": true,
          "overFlowSiteId": 116112,
          "historicSpillsList": []
        }
      ]
    },
    {
      "id": 344766430,
      "eventId": 897494,
      "siteUnitNumber": 12615,
      "bathingSite": "COLWELL BAY",
      "eventStart": "2023-11-06T04:37:17",
      "eventStop": "2023-11-06T04:42:00",
      "duration": 4,
      "status": "Genuine",
      "associatedSiteId": 115498,
      "outfallName": "NORTON TRANSFER IOW",
      "isImpacting": true,
      "overFlowSiteId": 0,
      "historicSpillsList": [
        {
          "id": 344766430,
          "eventId": 897494,
          "siteUnitNumber": 12615,
          "bathingSite": "COLWELL BAY",
          "eventStart": "2023-11-06T04:37:17",
          "eventStop": "2023-11-06T04:42:00",
          "duration": 4,
          "status": "Genuine",
          "associatedSiteId": 115498,
          "outfallName": "NORTON TRANSFER IOW",
          "isImpacting": true,
          "overFlowSiteId": 109524
        },
        {
          "id": 344766431,
          "eventId": 897494,
          "siteUnitNumber": 12614,
          "bathingSite": "TOTLAND BAY",
          "eventStart": "2023-11-06T04:37:17",
          "eventStop": "2023-11-06T04:42:00",
          "duration": 4,
          "status": "Genuine",
          "associatedSiteId": 115498,
          "outfallName": "NORTON TRANSFER IOW",
          "isImpacting": true,
          "overFlowSiteId": 109524,
          "historicSpillsList": []
        }
      ]
    },
    {
      "id": 344741702,
      "eventId": 897503,
      "siteUnitNumber": 12568,
      "bathingSite": "SANDGATE",
      "eventStart": "2023-11-06T04:38:06",
      "eventStop": "2023-11-06T04:40:10",
      "duration": 2,
      "status": "Genuine",
      "associatedSiteId": 109896,
      "outfallName": "RANGE ROAD HYTHE K SHORT",
      "isImpacting": true,
      "overFlowSiteId": 0,
      "historicSpillsList": [
        {
          "id": 344741703,
          "eventId": 897503,
          "siteUnitNumber": 12569,
          "bathingSite": "HYTHE",
          "eventStart": "2023-11-06T04:38:06",
          "eventStop": "2023-11-06T04:40:10",
          "duration": 2,
          "status": "Genuine",
          "associatedSiteId": 109896,
          "outfallName": "RANGE ROAD HYTHE K SHORT",
          "isImpacting": true,
          "overFlowSiteId": 116112,
          "historicSpillsList": []
        }
      ]
    },
    {
      "id": 344766410,
      "eventId": 897619,
      "siteUnitNumber": 12614,
      "bathingSite": "TOTLAND BAY",
      "eventStart": "2023-11-06T04:30:00",
      "eventStop": "2023-11-06T04:37:17",
      "duration": 7,
      "status": "Genuine",
      "associatedSiteId": 115498,
      "outfallName": "NORTON TRANSFER IOW",
      "isImpacting": true,
      "overFlowSiteId": 0,
      "historicSpillsList": [
        {
          "id": 344766410,
          "eventId": 897619,
          "siteUnitNumber": 12614,
          "bathingSite": "TOTLAND BAY",
          "eventStart": "2023-11-06T04:30:00",
          "eventStop": "2023-11-06T04:37:17",
          "duration": 7,
          "status": "Genuine",
          "associatedSiteId": 115498,
          "outfallName": "NORTON TRANSFER IOW",
          "isImpacting": true,
          "overFlowSiteId": 109524
        },
        {
          "id": 344766411,
          "eventId": 897619,
          "siteUnitNumber": 12615,
          "bathingSite": "COLWELL BAY",
          "eventStart": "2023-11-06T04:30:00",
          "eventStop": "2023-11-06T04:37:17",
          "duration": 7,
          "status": "Genuine",
          "associatedSiteId": 115498,
          "outfallName": "NORTON TRANSFER IOW",
          "isImpacting": true,
          "overFlowSiteId": 109524,
          "historicSpillsList": []
        }
      ]
    },
    {
      "id": 344766432,
      "eventId": 897468,
      "siteUnitNumber": 12614,
      "bathingSite": "TOTLAND BAY",
      "eventStart": "2023-11-06T04:06:24",
      "eventStop": "2023-11-06T04:28:38",
      "duration": 22,
      "status": "Genuine",
      "associatedSiteId": 115498,
      "outfallName": "NORTON TRANSFER IOW",
      "isImpacting": true,
      "overFlowSiteId": 0,
      "historicSpillsList": [
        {
          "id": 344766432,
          "eventId": 897468,
          "siteUnitNumber": 12614,
          "bathingSite": "TOTLAND BAY",
          "eventStart": "2023-11-06T04:06:24",
          "eventStop": "2023-11-06T04:28:38",
          "duration": 22,
          "status": "Genuine",
          "associatedSiteId": 115498,
          "outfallName": "NORTON TRANSFER IOW",
          "isImpacting": true,
          "overFlowSiteId": 109524
        },
        {
          "id": 344766433,
          "eventId": 897468,
          "siteUnitNumber": 12615,
          "bathingSite": "COLWELL BAY",
          "eventStart": "2023-11-06T04:06:24",
          "eventStop": "2023-11-06T04:28:38",
          "duration": 22,
          "status": "Genuine",
          "associatedSiteId": 115498,
          "outfallName": "NORTON TRANSFER IOW",
          "isImpacting": true,
          "overFlowSiteId": 109524,
          "historicSpillsList": []
        }
      ]
    },
    {
      "id": 344753402,
      "eventId": 897469,
      "siteUnitNumber": 12575,
      "bathingSite": "HASTINGS PELHAM BEACH",
      "eventStart": "2023-11-06T04:22:00",
      "eventStop": "2023-11-06T04:27:00",
      "duration": 5,
      "status": "Genuine",
      "associatedSiteId": 109982,
      "outfallName": "COOMBS HASTINGS",
      "isImpacting": true,
      "overFlowSiteId": 0,
      "historicSpillsList": [
        {
          "id": 344753403,
          "eventId": 897469,
          "siteUnitNumber": 12576,
          "bathingSite": "ST LEONARDS",
          "eventStart": "2023-11-06T04:22:00",
          "eventStop": "2023-11-06T04:27:00",
          "duration": 5,
          "status": "Genuine",
          "associatedSiteId": 109982,
          "outfallName": "COOMBS HASTINGS",
          "isImpacting": true,
          "overFlowSiteId": 110211,
          "historicSpillsList": []
        }
      ]
    },
    {
      "id": 344741706,
      "eventId": 897489,
      "siteUnitNumber": 12568,
      "bathingSite": "SANDGATE",
      "eventStart": "2023-11-06T04:23:06",
      "eventStop": "2023-11-06T04:25:11",
      "duration": 2,
      "status": "Genuine",
      "associatedSiteId": 109896,
      "outfallName": "RANGE ROAD HYTHE K SHORT",
      "isImpacting": true,
      "overFlowSiteId": 0,
      "historicSpillsList": [
        {
          "id": 344741707,
          "eventId": 897489,
          "siteUnitNumber": 12569,
          "bathingSite": "HYTHE",
          "eventStart": "2023-11-06T04:23:06",
          "eventStop": "2023-11-06T04:25:11",
          "duration": 2,
          "status": "Genuine",
          "associatedSiteId": 109896,
          "outfallName": "RANGE ROAD HYTHE K SHORT",
          "isImpacting": true,
          "overFlowSiteId": 116112,
          "historicSpillsList": []
        }
      ]
    },
    {
      "id": 344741710,
      "eventId": 897486,
      "siteUnitNumber": 12568,
      "bathingSite": "SANDGATE",
      "eventStart": "2023-11-06T04:14:56",
      "eventStop": "2023-11-06T04:17:11",
      "duration": 2,
      "status": "Genuine",
      "associatedSiteId": 109896,
      "outfallName": "RANGE ROAD HYTHE K SHORT",
      "isImpacting": true,
      "overFlowSiteId": 0,
      "historicSpillsList": [
        {
          "id": 344741711,
          "eventId": 897486,
          "siteUnitNumber": 12569,
          "bathingSite": "HYTHE",
          "eventStart": "2023-11-06T04:14:56",
          "eventStop": "2023-11-06T04:17:11",
          "duration": 2,
          "status": "Genuine",
          "associatedSiteId": 109896,
          "outfallName": "RANGE ROAD HYTHE K SHORT",
          "isImpacting": true,
          "overFlowSiteId": 116112,
          "historicSpillsList": []
        }
      ]
    },
    {
      "id": 344741708,
      "eventId": 897485,
      "siteUnitNumber": 12568,
      "bathingSite": "SANDGATE",
      "eventStart": "2023-11-06T04:07:33",
      "eventStop": "2023-11-06T04:09:38",
      "duration": 2,
      "status": "Genuine",
      "associatedSiteId": 109896,
      "outfallName": "RANGE ROAD HYTHE K SHORT",
      "isImpacting": true,
      "overFlowSiteId": 0,
      "historicSpillsList": [
        {
          "id": 344741709,
          "eventId": 897485,
          "siteUnitNumber": 12569,
          "bathingSite": "HYTHE",
          "eventStart": "2023-11-06T04:07:33",
          "eventStop": "2023-11-06T04:09:38",
          "duration": 2,
          "status": "Genuine",
          "associatedSiteId": 109896,
          "outfallName": "RANGE ROAD HYTHE K SHORT",
          "isImpacting": true,
          "overFlowSiteId": 116112,
          "historicSpillsList": []
        }
      ]
    },
    {
      "id": 344766382,
      "eventId": 897715,
      "siteUnitNumber": 12615,
      "bathingSite": "COLWELL BAY",
      "eventStart": "2023-11-06T01:47:00",
      "eventStop": "2023-11-06T04:07:00",
      "duration": 140,
      "status": "Genuine",
      "associatedSiteId": 115498,
      "outfallName": "NORTON TRANSFER IOW",
      "isImpacting": true,
      "overFlowSiteId": 0,
      "historicSpillsList": [
        {
          "id": 344766382,
          "eventId": 897715,
          "siteUnitNumber": 12615,
          "bathingSite": "COLWELL BAY",
          "eventStart": "2023-11-06T01:47:00",
          "eventStop": "2023-11-06T04:07:00",
          "duration": 140,
          "status": "Genuine",
          "associatedSiteId": 115498,
          "outfallName": "NORTON TRANSFER IOW",
          "isImpacting": true,
          "overFlowSiteId": 108544
        },
        {
          "id": 344766383,
          "eventId": 897715,
          "siteUnitNumber": 12614,
          "bathingSite": "TOTLAND BAY",
          "eventStart": "2023-11-06T01:47:00",
          "eventStop": "2023-11-06T04:07:00",
          "duration": 140,
          "status": "Genuine",
          "associatedSiteId": 115498,
          "outfallName": "NORTON TRANSFER IOW",
          "isImpacting": true,
          "overFlowSiteId": 108544,
          "historicSpillsList": []
        }
      ]
    },
    {
      "id": 344741712,
      "eventId": 897481,
      "siteUnitNumber": 12568,
      "bathingSite": "SANDGATE",
      "eventStart": "2023-11-06T04:00:11",
      "eventStop": "2023-11-06T04:02:17",
      "duration": 2,
      "status": "Genuine",
      "associatedSiteId": 109896,
      "outfallName": "RANGE ROAD HYTHE K SHORT",
      "isImpacting": true,
      "overFlowSiteId": 0,
      "historicSpillsList": [
        {
          "id": 344741713,
          "eventId": 897481,
          "siteUnitNumber": 12569,
          "bathingSite": "HYTHE",
          "eventStart": "2023-11-06T04:00:11",
          "eventStop": "2023-11-06T04:02:17",
          "duration": 2,
          "status": "Genuine",
          "associatedSiteId": 109896,
          "outfallName": "RANGE ROAD HYTHE K SHORT",
          "isImpacting": true,
          "overFlowSiteId": 116112,
          "historicSpillsList": []
        }
      ]
    },
    {
      "id": 344734932,
      "eventId": 899110,
      "siteUnitNumber": 12661,
      "bathingSite": "LANGSTONE HARBOUR",
      "eventStart": "2023-11-05T10:30:00",
      "eventStop": "2023-11-06T04:02:00",
      "duration": 1052,
      "status": "Genuine",
      "associatedSiteId": 109773,
      "outfallName": "BUDDS FARM HAVANT NO2",
      "isImpacting": true,
      "overFlowSiteId": 0,
      "historicSpillsList": [
        {
          "id": 344734932,
          "eventId": 899110,
          "siteUnitNumber": 12661,
          "bathingSite": "LANGSTONE HARBOUR",
          "eventStart": "2023-11-05T10:30:00",
          "eventStop": "2023-11-06T04:02:00",
          "duration": 1052,
          "status": "Genuine",
          "associatedSiteId": 109773,
          "outfallName": "BUDDS FARM HAVANT NO2",
          "isImpacting": true,
          "overFlowSiteId": 115936
        }
      ]
    },
    {
      "id": 344766434,
      "eventId": 897459,
      "siteUnitNumber": 12614,
      "bathingSite": "TOTLAND BAY",
      "eventStart": "2023-11-06T03:48:55",
      "eventStop": "2023-11-06T03:57:59",
      "duration": 9,
      "status": "Genuine",
      "associatedSiteId": 115498,
      "outfallName": "NORTON TRANSFER IOW",
      "isImpacting": true,
      "overFlowSiteId": 0,
      "historicSpillsList": [
        {
          "id": 344766434,
          "eventId": 897459,
          "siteUnitNumber": 12614,
          "bathingSite": "TOTLAND BAY",
          "eventStart": "2023-11-06T03:48:55",
          "eventStop": "2023-11-06T03:57:59",
          "duration": 9,
          "status": "Genuine",
          "associatedSiteId": 115498,
          "outfallName": "NORTON TRANSFER IOW",
          "isImpacting": true,
          "overFlowSiteId": 109524
        },
        {
          "id": 344766435,
          "eventId": 897459,
          "siteUnitNumber": 12615,
          "bathingSite": "COLWELL BAY",
          "eventStart": "2023-11-06T03:48:55",
          "eventStop": "2023-11-06T03:57:59",
          "duration": 9,
          "status": "Genuine",
          "associatedSiteId": 115498,
          "outfallName": "NORTON TRANSFER IOW",
          "isImpacting": true,
          "overFlowSiteId": 109524,
          "historicSpillsList": []
        }
      ]
    },
    {
      "id": 344741716,
      "eventId": 897477,
      "siteUnitNumber": 12568,
      "bathingSite": "SANDGATE",
      "eventStart": "2023-11-06T03:52:59",
      "eventStop": "2023-11-06T03:55:04",
      "duration": 2,
      "status": "Genuine",
      "associatedSiteId": 109896,
      "outfallName": "RANGE ROAD HYTHE K SHORT",
      "isImpacting": true,
      "overFlowSiteId": 0,
      "historicSpillsList": [
        {
          "id": 344741717,
          "eventId": 897477,
          "siteUnitNumber": 12569,
          "bathingSite": "HYTHE",
          "eventStart": "2023-11-06T03:52:59",
          "eventStop": "2023-11-06T03:55:04",
          "duration": 2,
          "status": "Genuine",
          "associatedSiteId": 109896,
          "outfallName": "RANGE ROAD HYTHE K SHORT",
          "isImpacting": true,
          "overFlowSiteId": 116112,
          "historicSpillsList": []
        }
      ]
    },
    {
      "id": 344753408,
      "eventId": 897462,
      "siteUnitNumber": 12575,
      "bathingSite": "HASTINGS PELHAM BEACH",
      "eventStart": "2023-11-06T03:48:00",
      "eventStop": "2023-11-06T03:55:00",
      "duration": 7,
      "status": "Genuine",
      "associatedSiteId": 109982,
      "outfallName": "COOMBS HASTINGS",
      "isImpacting": true,
      "overFlowSiteId": 0,
      "historicSpillsList": [
        {
          "id": 344753409,
          "eventId": 897462,
          "siteUnitNumber": 12576,
          "bathingSite": "ST LEONARDS",
          "eventStart": "2023-11-06T03:48:00",
          "eventStop": "2023-11-06T03:55:00",
          "duration": 7,
          "status": "Genuine",
          "associatedSiteId": 109982,
          "outfallName": "COOMBS HASTINGS",
          "isImpacting": true,
          "overFlowSiteId": 110211,
          "historicSpillsList": []
        }
      ]
    },
    {
      "id": 344741714,
      "eventId": 897476,
      "siteUnitNumber": 12568,
      "bathingSite": "SANDGATE",
      "eventStart": "2023-11-06T03:45:36",
      "eventStop": "2023-11-06T03:47:41",
      "duration": 2,
      "status": "Genuine",
      "associatedSiteId": 109896,
      "outfallName": "RANGE ROAD HYTHE K SHORT",
      "isImpacting": true,
      "overFlowSiteId": 0,
      "historicSpillsList": [
        {
          "id": 344741715,
          "eventId": 897476,
          "siteUnitNumber": 12569,
          "bathingSite": "HYTHE",
          "eventStart": "2023-11-06T03:45:36",
          "eventStop": "2023-11-06T03:47:41",
          "duration": 2,
          "status": "Genuine",
          "associatedSiteId": 109896,
          "outfallName": "RANGE ROAD HYTHE K SHORT",
          "isImpacting": true,
          "overFlowSiteId": 116112,
          "historicSpillsList": []
        }
      ]
    },
    {
      "id": 344741718,
      "eventId": 897475,
      "siteUnitNumber": 12568,
      "bathingSite": "SANDGATE",
      "eventStart": "2023-11-06T03:38:15",
      "eventStop": "2023-11-06T03:40:20",
      "duration": 2,
      "status": "Genuine",
      "associatedSiteId": 109896,
      "outfallName": "RANGE ROAD HYTHE K SHORT",
      "isImpacting": true,
      "overFlowSiteId": 0,
      "historicSpillsList": [
        {
          "id": 344741719,
          "eventId": 897475,
          "siteUnitNumber": 12569,
          "bathingSite": "HYTHE",
          "eventStart": "2023-11-06T03:38:15",
          "eventStop": "2023-11-06T03:40:20",
          "duration": 2,
          "status": "Genuine",
          "associatedSiteId": 109896,
          "outfallName": "RANGE ROAD HYTHE K SHORT",
          "isImpacting": true,
          "overFlowSiteId": 116112,
          "historicSpillsList": []
        }
      ]
    },
    {
      "id": 344766436,
      "eventId": 897433,
      "siteUnitNumber": 12615,
      "bathingSite": "COLWELL BAY",
      "eventStart": "2023-11-06T03:14:55",
      "eventStop": "2023-11-06T03:39:10",
      "duration": 24,
      "status": "Genuine",
      "associatedSiteId": 115498,
      "outfallName": "NORTON TRANSFER IOW",
      "isImpacting": true,
      "overFlowSiteId": 0,
      "historicSpillsList": [
        {
          "id": 344766436,
          "eventId": 897433,
          "siteUnitNumber": 12615,
          "bathingSite": "COLWELL BAY",
          "eventStart": "2023-11-06T03:14:55",
          "eventStop": "2023-11-06T03:39:10",
          "duration": 24,
          "status": "Genuine",
          "associatedSiteId": 115498,
          "outfallName": "NORTON TRANSFER IOW",
          "isImpacting": true,
          "overFlowSiteId": 109524
        },
        {
          "id": 344766437,
          "eventId": 897433,
          "siteUnitNumber": 12614,
          "bathingSite": "TOTLAND BAY",
          "eventStart": "2023-11-06T03:14:55",
          "eventStop": "2023-11-06T03:39:10",
          "duration": 24,
          "status": "Genuine",
          "associatedSiteId": 115498,
          "outfallName": "NORTON TRANSFER IOW",
          "isImpacting": true,
          "overFlowSiteId": 109524,
          "historicSpillsList": []
        }
      ]
    },
    {
      "id": 344741722,
      "eventId": 897474,
      "siteUnitNumber": 12568,
      "bathingSite": "SANDGATE",
      "eventStart": "2023-11-06T03:30:14",
      "eventStop": "2023-11-06T03:32:29",
      "duration": 2,
      "status": "Genuine",
      "associatedSiteId": 109896,
      "outfallName": "RANGE ROAD HYTHE K SHORT",
      "isImpacting": true,
      "overFlowSiteId": 0,
      "historicSpillsList": [
        {
          "id": 344741723,
          "eventId": 897474,
          "siteUnitNumber": 12569,
          "bathingSite": "HYTHE",
          "eventStart": "2023-11-06T03:30:14",
          "eventStop": "2023-11-06T03:32:29",
          "duration": 2,
          "status": "Genuine",
          "associatedSiteId": 109896,
          "outfallName": "RANGE ROAD HYTHE K SHORT",
          "isImpacting": true,
          "overFlowSiteId": 116112,
          "historicSpillsList": []
        }
      ]
    },
    {
      "id": 344741720,
      "eventId": 897473,
      "siteUnitNumber": 12568,
      "bathingSite": "SANDGATE",
      "eventStart": "2023-11-06T03:22:17",
      "eventStop": "2023-11-06T03:24:21",
      "duration": 2,
      "status": "Genuine",
      "associatedSiteId": 109896,
      "outfallName": "RANGE ROAD HYTHE K SHORT",
      "isImpacting": true,
      "overFlowSiteId": 0,
      "historicSpillsList": [
        {
          "id": 344741721,
          "eventId": 897473,
          "siteUnitNumber": 12569,
          "bathingSite": "HYTHE",
          "eventStart": "2023-11-06T03:22:17",
          "eventStop": "2023-11-06T03:24:21",
          "duration": 2,
          "status": "Genuine",
          "associatedSiteId": 109896,
          "outfallName": "RANGE ROAD HYTHE K SHORT",
          "isImpacting": true,
          "overFlowSiteId": 116112,
          "historicSpillsList": []
        }
      ]
    },
    {
      "id": 344741724,
      "eventId": 897442,
      "siteUnitNumber": 12568,
      "bathingSite": "SANDGATE",
      "eventStart": "2023-11-06T03:14:59",
      "eventStop": "2023-11-06T03:17:04",
      "duration": 2,
      "status": "Genuine",
      "associatedSiteId": 109896,
      "outfallName": "RANGE ROAD HYTHE K SHORT",
      "isImpacting": true,
      "overFlowSiteId": 0,
      "historicSpillsList": [
        {
          "id": 344741725,
          "eventId": 897442,
          "siteUnitNumber": 12569,
          "bathingSite": "HYTHE",
          "eventStart": "2023-11-06T03:14:59",
          "eventStop": "2023-11-06T03:17:04",
          "duration": 2,
          "status": "Genuine",
          "associatedSiteId": 109896,
          "outfallName": "RANGE ROAD HYTHE K SHORT",
          "isImpacting": true,
          "overFlowSiteId": 116112,
          "historicSpillsList": []
        }
      ]
    },
    {
      "id": 344766438,
      "eventId": 897357,
      "siteUnitNumber": 12614,
      "bathingSite": "TOTLAND BAY",
      "eventStart": "2023-11-06T02:23:06",
      "eventStop": "2023-11-06T03:12:55",
      "duration": 49,
      "status": "Genuine",
      "associatedSiteId": 115498,
      "outfallName": "NORTON TRANSFER IOW",
      "isImpacting": true,
      "overFlowSiteId": 0,
      "historicSpillsList": [
        {
          "id": 344766438,
          "eventId": 897357,
          "siteUnitNumber": 12614,
          "bathingSite": "TOTLAND BAY",
          "eventStart": "2023-11-06T02:23:06",
          "eventStop": "2023-11-06T03:12:55",
          "duration": 49,
          "status": "Genuine",
          "associatedSiteId": 115498,
          "outfallName": "NORTON TRANSFER IOW",
          "isImpacting": true,
          "overFlowSiteId": 109524
        },
        {
          "id": 344766439,
          "eventId": 897357,
          "siteUnitNumber": 12615,
          "bathingSite": "COLWELL BAY",
          "eventStart": "2023-11-06T02:23:06",
          "eventStop": "2023-11-06T03:12:55",
          "duration": 49,
          "status": "Genuine",
          "associatedSiteId": 115498,
          "outfallName": "NORTON TRANSFER IOW",
          "isImpacting": true,
          "overFlowSiteId": 109524,
          "historicSpillsList": []
        }
      ]
    },
    {
      "id": 344734940,
      "eventId": 893685,
      "siteUnitNumber": 12661,
      "bathingSite": "LANGSTONE HARBOUR",
      "eventStart": "2023-11-04T06:05:51",
      "eventStop": "2023-11-06T03:11:24",
      "duration": 2705,
      "status": "Genuine",
      "associatedSiteId": 109773,
      "outfallName": "BUDDS FARM HAVANT NO2",
      "isImpacting": true,
      "overFlowSiteId": 0,
      "historicSpillsList": [
        {
          "id": 344734940,
          "eventId": 893685,
          "siteUnitNumber": 12661,
          "bathingSite": "LANGSTONE HARBOUR",
          "eventStart": "2023-11-04T06:05:51",
          "eventStop": "2023-11-06T03:11:24",
          "duration": 2705,
          "status": "Genuine",
          "associatedSiteId": 109773,
          "outfallName": "BUDDS FARM HAVANT NO2",
          "isImpacting": true,
          "overFlowSiteId": 116279
        }
      ]
    }
  ]
}