{
  "currentPage": 681,
  "totalItems": 18701,
  "totalPages": 749,
  "items": [
    {
      "id": 344003632,
      "eventId": 402421,
      "siteUnitNumber": 12544,
      "bathingSite": "SHEERNESS",
      "eventStart": "2021-05-05T16:51:57",
      "eventStop": "2021-05-05T17:00:00",
      "duration": 8,
      "status": "Genuine",
      "associatedSiteId": 109616,
      "outfallName": "SOUTH STREET QUEENBOROUGH",
      "isImpacting": true,
      "overFlowSiteId": 0,
      "historicSpillsList": [
        {
          "id": 344003632,
          "eventId": 402421,
          "siteUnitNumber": 12544,
          "bathingSite": "SHEERNESS",
          "eventStart": "2021-05-05T16:51:57",
          "eventStop": "2021-05-05T17:00:00",
          "duration": 8,
          "status": "Genuine",
          "associatedSiteId": 109616,
          "outfallName": "SOUTH STREET QUEENBOROUGH",
          "isImpacting": true,
          "overFlowSiteId": 108732
        }
      ]
    },
    {
      "id": 344003633,
      "eventId": 402420,
      "siteUnitNumber": 12544,
      "bathingSite": "SHEERNESS",
      "eventStart": "2021-05-05T16:41:52",
      "eventStop": "2021-05-05T16:45:13",
      "duration": 3,
      "status": "Genuine",
      "associatedSiteId": 109616,
      "outfallName": "SOUTH STREET QUEENBOROUGH",
      "isImpacting": true,
      "overFlowSiteId": 0,
      "historicSpillsList": [
        {
          "id": 344003633,
          "eventId": 402420,
          "siteUnitNumber": 12544,
          "bathingSite": "SHEERNESS",
          "eventStart": "2021-05-05T16:41:52",
          "eventStop": "2021-05-05T16:45:13",
          "duration": 3,
          "status": "Genuine",
          "associatedSiteId": 109616,
          "outfallName": "SOUTH STREET QUEENBOROUGH",
          "isImpacting": true,
          "overFlowSiteId": 108732
        }
      ]
    },
    {
      "id": 344019788,
      "eventId": 402138,
      "siteUnitNumber": 12568,
      "bathingSite": "SANDGATE",
      "eventStart": "2021-05-05T16:37:42",
      "eventStop": "2021-05-05T16:42:14",
      "duration": 4,
      "status": "Genuine",
      "associatedSiteId": 109897,
      "outfallName": "RANGE ROAD HYTHE K LONG",
      "isImpacting": true,
      "overFlowSiteId": 0,
      "historicSpillsList": [
        {
          "id": 344019788,
          "eventId": 402138,
          "siteUnitNumber": 12568,
          "bathingSite": "SANDGATE",
          "eventStart": "2021-05-05T16:37:42",
          "eventStop": "2021-05-05T16:42:14",
          "duration": 4,
          "status": "Genuine",
          "associatedSiteId": 109897,
          "outfallName": "RANGE ROAD HYTHE K LONG",
          "isImpacting": true,
          "overFlowSiteId": 116048
        },
        {
          "id": 344019789,
          "eventId": 402138,
          "siteUnitNumber": 12569,
          "bathingSite": "HYTHE",
          "eventStart": "2021-05-05T16:37:42",
          "eventStop": "2021-05-05T16:42:14",
          "duration": 4,
          "status": "Genuine",
          "associatedSiteId": 109897,
          "outfallName": "RANGE ROAD HYTHE K LONG",
          "isImpacting": true,
          "overFlowSiteId": 116048,
          "historicSpillsList": []
        }
      ]
    },
    {
      "id": 344044660,
      "eventId": 402082,
      "siteUnitNumber": 12614,
      "bathingSite": "TOTLAND BAY",
      "eventStart": "2021-05-05T14:17:52",
      "eventStop": "2021-05-05T14:36:13",
      "duration": 18,
      "status": "Genuine",
      "associatedSiteId": 115498,
      "outfallName": "NORTON TRANSFER IOW",
      "isImpacting": true,
      "overFlowSiteId": 0,
      "historicSpillsList": [
        {
          "id": 344044660,
          "eventId": 402082,
          "siteUnitNumber": 12614,
          "bathingSite": "TOTLAND BAY",
          "eventStart": "2021-05-05T14:17:52",
          "eventStop": "2021-05-05T14:36:13",
          "duration": 18,
          "status": "Genuine",
          "associatedSiteId": 115498,
          "outfallName": "NORTON TRANSFER IOW",
          "isImpacting": true,
          "overFlowSiteId": 108544
        },
        {
          "id": 344044661,
          "eventId": 402082,
          "siteUnitNumber": 12615,
          "bathingSite": "COLWELL BAY",
          "eventStart": "2021-05-05T14:17:52",
          "eventStop": "2021-05-05T14:36:13",
          "duration": 18,
          "status": "Genuine",
          "associatedSiteId": 115498,
          "outfallName": "NORTON TRANSFER IOW",
          "isImpacting": true,
          "overFlowSiteId": 108544,
          "historicSpillsList": []
        }
      ]
    },
    {
      "id": 344044662,
      "eventId": 402074,
      "siteUnitNumber": 12614,
      "bathingSite": "TOTLAND BAY",
      "eventStart": "2021-05-05T13:03:24",
      "eventStop": "2021-05-05T13:49:28",
      "duration": 46,
      "status": "Genuine",
      "associatedSiteId": 115498,
      "outfallName": "NORTON TRANSFER IOW",
      "isImpacting": true,
      "overFlowSiteId": 0,
      "historicSpillsList": [
        {
          "id": 344044662,
          "eventId": 402074,
          "siteUnitNumber": 12614,
          "bathingSite": "TOTLAND BAY",
          "eventStart": "2021-05-05T13:03:24",
          "eventStop": "2021-05-05T13:49:28",
          "duration": 46,
          "status": "Genuine",
          "associatedSiteId": 115498,
          "outfallName": "NORTON TRANSFER IOW",
          "isImpacting": true,
          "overFlowSiteId": 108544
        },
        {
          "id": 344044663,
          "eventId": 402074,
          "siteUnitNumber": 12615,
          "bathingSite": "COLWELL BAY",
          "eventStart": "2021-05-05T13:03:24",
          "eventStop": "2021-05-05T13:49:28",
          "duration": 46,
          "status": "Genuine",
          "associatedSiteId": 115498,
          "outfallName": "NORTON TRANSFER IOW",
          "isImpacting": true,
          "overFlowSiteId": 108544,
          "historicSpillsList": []
        }
      ]
    },
    {
      "id": 344019786,
      "eventId": 401618,
      "siteUnitNumber": 12568,
      "bathingSite": "SANDGATE",
      "eventStart": "2021-05-04T00:45:00",
      "eventStop": "2021-05-04T01:45:00",
      "duration": 60,
      "status": "Genuine",
      "associatedSiteId": 109897,
      "outfallName": "RANGE ROAD HYTHE K LONG",
      "isImpacting": true,
      "overFlowSiteId": 0,
      "historicSpillsList": [
        {
          "id": 344019786,
          "eventId": 401618,
          "siteUnitNumber": 12568,
          "bathingSite": "SANDGATE",
          "eventStart": "2021-05-04T00:45:00",
          "eventStop": "2021-05-04T01:45:00",
          "duration": 60,
          "status": "Genuine",
          "associatedSiteId": 109897,
          "outfallName": "RANGE ROAD HYTHE K LONG",
          "isImpacting": true,
          "overFlowSiteId": 116048
        },
        {
          "id": 344019787,
          "eventId": 401618,
          "siteUnitNumber": 12569,
          "bathingSite": "HYTHE",
          "eventStart": "2021-05-04T00:45:00",
          "eventStop": "2021-05-04T01:45:00",
          "duration": 60,
          "status": "Genuine",
          "associatedSiteId": 109897,
          "outfallName": "RANGE ROAD HYTHE K LONG",
          "isImpacting": true,
          "overFlowSiteId": 116048,
          "historicSpillsList": []
        }
      ]
    },
    {
      "id": 344021684,
      "eventId": 401522,
      "siteUnitNumber": 12576,
      "bathingSite": "ST LEONARDS",
      "eventStart": "2021-05-04T00:15:00",
      "eventStop": "2021-05-04T01:38:00",
      "duration": 83,
      "status": "Genuine",
      "associatedSiteId": 109903,
      "outfallName": "BEXHILL & HASTINGS NO2",
      "isImpacting": true,
      "overFlowSiteId": 0,
      "historicSpillsList": [
        {
          "id": 344021684,
          "eventId": 401522,
          "siteUnitNumber": 12576,
          "bathingSite": "ST LEONARDS",
          "eventStart": "2021-05-04T00:15:00",
          "eventStop": "2021-05-04T01:38:00",
          "duration": 83,
          "status": "Genuine",
          "associatedSiteId": 109903,
          "outfallName": "BEXHILL & HASTINGS NO2",
          "isImpacting": true,
          "overFlowSiteId": 115398
        },
        {
          "id": 344021685,
          "eventId": 401522,
          "siteUnitNumber": 12577,
          "bathingSite": "BEXHILL",
          "eventStart": "2021-05-04T00:15:00",
          "eventStop": "2021-05-04T01:38:00",
          "duration": 83,
          "status": "Genuine",
          "associatedSiteId": 109903,
          "outfallName": "BEXHILL & HASTINGS NO2",
          "isImpacting": true,
          "overFlowSiteId": 115398,
          "historicSpillsList": []
        }
      ]
    },
    {
      "id": 344028285,
      "eventId": 401444,
      "siteUnitNumber": 12591,
      "bathingSite": "LITTLEHAMPTON",
      "eventStart": "2021-05-03T22:15:00",
      "eventStop": "2021-05-04T01:30:00",
      "duration": 195,
      "status": "Genuine",
      "associatedSiteId": 109965,
      "outfallName": "SEA ROAD LITTLEHAMPTON",
      "isImpacting": true,
      "overFlowSiteId": 0,
      "historicSpillsList": [
        {
          "id": 344028285,
          "eventId": 401444,
          "siteUnitNumber": 12591,
          "bathingSite": "LITTLEHAMPTON",
          "eventStart": "2021-05-03T22:15:00",
          "eventStop": "2021-05-04T01:30:00",
          "duration": 195,
          "status": "Genuine",
          "associatedSiteId": 109965,
          "outfallName": "SEA ROAD LITTLEHAMPTON",
          "isImpacting": true,
          "overFlowSiteId": 109368
        }
      ]
    },
    {
      "id": 344033640,
      "eventId": 401476,
      "siteUnitNumber": 12622,
      "bathingSite": "WHITECLIFF BAY",
      "eventStart": "2021-05-03T22:55:23",
      "eventStop": "2021-05-03T23:53:08",
      "duration": 57,
      "status": "Genuine",
      "associatedSiteId": 110096,
      "outfallName": "SANDOWN NO1",
      "isImpacting": true,
      "overFlowSiteId": 0,
      "historicSpillsList": [
        {
          "id": 344033640,
          "eventId": 401476,
          "siteUnitNumber": 12622,
          "bathingSite": "WHITECLIFF BAY",
          "eventStart": "2021-05-03T22:55:23",
          "eventStop": "2021-05-03T23:53:08",
          "duration": 57,
          "status": "Genuine",
          "associatedSiteId": 110096,
          "outfallName": "SANDOWN NO1",
          "isImpacting": true,
          "overFlowSiteId": 115453
        },
        {
          "id": 344033641,
          "eventId": 401476,
          "siteUnitNumber": 12623,
          "bathingSite": "YAVERLAND",
          "eventStart": "2021-05-03T22:55:23",
          "eventStop": "2021-05-03T23:53:08",
          "duration": 57,
          "status": "Genuine",
          "associatedSiteId": 110096,
          "outfallName": "SANDOWN NO1",
          "isImpacting": true,
          "overFlowSiteId": 115453,
          "historicSpillsList": []
        },
        {
          "id": 344033642,
          "eventId": 401476,
          "siteUnitNumber": 12624,
          "bathingSite": "SANDOWN",
          "eventStart": "2021-05-03T22:55:23",
          "eventStop": "2021-05-03T23:53:08",
          "duration": 57,
          "status": "Genuine",
          "associatedSiteId": 110096,
          "outfallName": "SANDOWN NO1",
          "isImpacting": true,
          "overFlowSiteId": 115453,
          "historicSpillsList": []
        }
      ]
    },
    {
      "id": 344012262,
      "eventId": 401407,
      "siteUnitNumber": 12617,
      "bathingSite": "COWES",
      "eventStart": "2021-05-03T20:48:45",
      "eventStop": "2021-05-03T22:45:00",
      "duration": 116,
      "status": "Genuine",
      "associatedSiteId": 109777,
      "outfallName": "APPLEY PARK RYDE TRANSFER",
      "isImpacting": true,
      "overFlowSiteId": 0,
      "historicSpillsList": [
        {
          "id": 344012262,
          "eventId": 401407,
          "siteUnitNumber": 12617,
          "bathingSite": "COWES",
          "eventStart": "2021-05-03T20:48:45",
          "eventStop": "2021-05-03T22:45:00",
          "duration": 116,
          "status": "Genuine",
          "associatedSiteId": 109777,
          "outfallName": "APPLEY PARK RYDE TRANSFER",
          "isImpacting": true,
          "overFlowSiteId": 108941
        },
        {
          "id": 344012263,
          "eventId": 401407,
          "siteUnitNumber": 12618,
          "bathingSite": "RYDE",
          "eventStart": "2021-05-03T20:48:45",
          "eventStop": "2021-05-03T22:45:00",
          "duration": 116,
          "status": "Genuine",
          "associatedSiteId": 109777,
          "outfallName": "APPLEY PARK RYDE TRANSFER",
          "isImpacting": true,
          "overFlowSiteId": 108941,
          "historicSpillsList": []
        }
      ]
    },
    {
      "id": 344015693,
      "eventId": 400676,
      "siteUnitNumber": 12548,
      "bathingSite": "TANKERTON",
      "eventStart": "2021-05-01T09:53:00",
      "eventStop": "2021-05-01T10:16:41",
      "duration": 23,
      "status": "Genuine",
      "associatedSiteId": 109830,
      "outfallName": "SWALECLIFFE NO1",
      "isImpacting": true,
      "overFlowSiteId": 0,
      "historicSpillsList": [
        {
          "id": 344015693,
          "eventId": 400676,
          "siteUnitNumber": 12548,
          "bathingSite": "TANKERTON",
          "eventStart": "2021-05-01T09:53:00",
          "eventStop": "2021-05-01T10:16:41",
          "duration": 23,
          "status": "Genuine",
          "associatedSiteId": 109830,
          "outfallName": "SWALECLIFFE NO1",
          "isImpacting": true,
          "overFlowSiteId": 115444
        },
        {
          "id": 344015690,
          "eventId": 400676,
          "siteUnitNumber": 12549,
          "bathingSite": "HERNE BAY CENTRAL",
          "eventStart": "2021-05-01T09:53:00",
          "eventStop": "2021-05-01T10:16:41",
          "duration": 23,
          "status": "Genuine",
          "associatedSiteId": 109830,
          "outfallName": "SWALECLIFFE NO1",
          "isImpacting": true,
          "overFlowSiteId": 115444,
          "historicSpillsList": []
        }
      ]
    },
    {
      "id": 344015694,
      "eventId": 399211,
      "siteUnitNumber": 12548,
      "bathingSite": "TANKERTON",
      "eventStart": "2021-04-27T09:39:27",
      "eventStop": "2021-04-27T10:19:02",
      "duration": 39,
      "status": "Genuine",
      "associatedSiteId": 109830,
      "outfallName": "SWALECLIFFE NO1",
      "isImpacting": true,
      "overFlowSiteId": 0,
      "historicSpillsList": [
        {
          "id": 344015694,
          "eventId": 399211,
          "siteUnitNumber": 12548,
          "bathingSite": "TANKERTON",
          "eventStart": "2021-04-27T09:39:27",
          "eventStop": "2021-04-27T10:19:02",
          "duration": 39,
          "status": "Genuine",
          "associatedSiteId": 109830,
          "outfallName": "SWALECLIFFE NO1",
          "isImpacting": true,
          "overFlowSiteId": 115444
        },
        {
          "id": 344015695,
          "eventId": 399211,
          "siteUnitNumber": 12549,
          "bathingSite": "HERNE BAY CENTRAL",
          "eventStart": "2021-04-27T09:39:27",
          "eventStop": "2021-04-27T10:19:02",
          "duration": 39,
          "status": "Genuine",
          "associatedSiteId": 109830,
          "outfallName": "SWALECLIFFE NO1",
          "isImpacting": true,
          "overFlowSiteId": 115444,
          "historicSpillsList": []
        }
      ]
    },
    {
      "id": 344013740,
      "eventId": 398260,
      "siteUnitNumber": 12661,
      "bathingSite": "LANGSTONE HARBOUR",
      "eventStart": "2021-04-25T09:51:02",
      "eventStop": "2021-04-25T09:59:47",
      "duration": 8,
      "status": "Genuine",
      "associatedSiteId": 109818,
      "outfallName": "KIRTLEY CLOSE DRAYTON",
      "isImpacting": true,
      "overFlowSiteId": 0,
      "historicSpillsList": [
        {
          "id": 344013740,
          "eventId": 398260,
          "siteUnitNumber": 12661,
          "bathingSite": "LANGSTONE HARBOUR",
          "eventStart": "2021-04-25T09:51:02",
          "eventStop": "2021-04-25T09:59:47",
          "duration": 8,
          "status": "Genuine",
          "associatedSiteId": 109818,
          "outfallName": "KIRTLEY CLOSE DRAYTON",
          "isImpacting": true,
          "overFlowSiteId": 108774
        }
      ]
    },
    {
      "id": 344013742,
      "eventId": 398259,
      "siteUnitNumber": 12661,
      "bathingSite": "LANGSTONE HARBOUR",
      "eventStart": "2021-04-25T09:46:53",
      "eventStop": "2021-04-25T09:49:49",
      "duration": 2,
      "status": "Genuine",
      "associatedSiteId": 109818,
      "outfallName": "KIRTLEY CLOSE DRAYTON",
      "isImpacting": true,
      "overFlowSiteId": 0,
      "historicSpillsList": [
        {
          "id": 344013742,
          "eventId": 398259,
          "siteUnitNumber": 12661,
          "bathingSite": "LANGSTONE HARBOUR",
          "eventStart": "2021-04-25T09:46:53",
          "eventStop": "2021-04-25T09:49:49",
          "duration": 2,
          "status": "Genuine",
          "associatedSiteId": 109818,
          "outfallName": "KIRTLEY CLOSE DRAYTON",
          "isImpacting": true,
          "overFlowSiteId": 108774
        }
      ]
    },
    {
      "id": 344013741,
      "eventId": 398253,
      "siteUnitNumber": 12661,
      "bathingSite": "LANGSTONE HARBOUR",
      "eventStart": "2021-04-25T09:38:00",
      "eventStop": "2021-04-25T09:44:23",
      "duration": 6,
      "status": "Genuine",
      "associatedSiteId": 109818,
      "outfallName": "KIRTLEY CLOSE DRAYTON",
      "isImpacting": true,
      "overFlowSiteId": 0,
      "historicSpillsList": [
        {
          "id": 344013741,
          "eventId": 398253,
          "siteUnitNumber": 12661,
          "bathingSite": "LANGSTONE HARBOUR",
          "eventStart": "2021-04-25T09:38:00",
          "eventStop": "2021-04-25T09:44:23",
          "duration": 6,
          "status": "Genuine",
          "associatedSiteId": 109818,
          "outfallName": "KIRTLEY CLOSE DRAYTON",
          "isImpacting": true,
          "overFlowSiteId": 108774
        }
      ]
    },
    {
      "id": 344013743,
      "eventId": 398250,
      "siteUnitNumber": 12661,
      "bathingSite": "LANGSTONE HARBOUR",
      "eventStart": "2021-04-25T09:28:04",
      "eventStop": "2021-04-25T09:36:59",
      "duration": 8,
      "status": "Genuine",
      "associatedSiteId": 109818,
      "outfallName": "KIRTLEY CLOSE DRAYTON",
      "isImpacting": true,
      "overFlowSiteId": 0,
      "historicSpillsList": [
        {
          "id": 344013743,
          "eventId": 398250,
          "siteUnitNumber": 12661,
          "bathingSite": "LANGSTONE HARBOUR",
          "eventStart": "2021-04-25T09:28:04",
          "eventStop": "2021-04-25T09:36:59",
          "duration": 8,
          "status": "Genuine",
          "associatedSiteId": 109818,
          "outfallName": "KIRTLEY CLOSE DRAYTON",
          "isImpacting": true,
          "overFlowSiteId": 108774
        }
      ]
    },
    {
      "id": 344013744,
      "eventId": 398249,
      "siteUnitNumber": 12661,
      "bathingSite": "LANGSTONE HARBOUR",
      "eventStart": "2021-04-25T09:23:42",
      "eventStop": "2021-04-25T09:26:36",
      "duration": 2,
      "status": "Genuine",
      "associatedSiteId": 109818,
      "outfallName": "KIRTLEY CLOSE DRAYTON",
      "isImpacting": true,
      "overFlowSiteId": 0,
      "historicSpillsList": [
        {
          "id": 344013744,
          "eventId": 398249,
          "siteUnitNumber": 12661,
          "bathingSite": "LANGSTONE HARBOUR",
          "eventStart": "2021-04-25T09:23:42",
          "eventStop": "2021-04-25T09:26:36",
          "duration": 2,
          "status": "Genuine",
          "associatedSiteId": 109818,
          "outfallName": "KIRTLEY CLOSE DRAYTON",
          "isImpacting": true,
          "overFlowSiteId": 108774
        }
      ]
    },
    {
      "id": 344013745,
      "eventId": 398247,
      "siteUnitNumber": 12661,
      "bathingSite": "LANGSTONE HARBOUR",
      "eventStart": "2021-04-25T09:18:00",
      "eventStop": "2021-04-25T09:20:00",
      "duration": 2,
      "status": "Genuine",
      "associatedSiteId": 109818,
      "outfallName": "KIRTLEY CLOSE DRAYTON",
      "isImpacting": true,
      "overFlowSiteId": 0,
      "historicSpillsList": [
        {
          "id": 344013745,
          "eventId": 398247,
          "siteUnitNumber": 12661,
          "bathingSite": "LANGSTONE HARBOUR",
          "eventStart": "2021-04-25T09:18:00",
          "eventStop": "2021-04-25T09:20:00",
          "duration": 2,
          "status": "Genuine",
          "associatedSiteId": 109818,
          "outfallName": "KIRTLEY CLOSE DRAYTON",
          "isImpacting": true,
          "overFlowSiteId": 108774
        }
      ]
    },
    {
      "id": 344013705,
      "eventId": 398202,
      "siteUnitNumber": 12661,
      "bathingSite": "LANGSTONE HARBOUR",
      "eventStart": "2021-04-25T04:59:33",
      "eventStop": "2021-04-25T08:23:32",
      "duration": 203,
      "status": "Genuine",
      "associatedSiteId": 109818,
      "outfallName": "KIRTLEY CLOSE DRAYTON",
      "isImpacting": true,
      "overFlowSiteId": 0,
      "historicSpillsList": [
        {
          "id": 344013705,
          "eventId": 398202,
          "siteUnitNumber": 12661,
          "bathingSite": "LANGSTONE HARBOUR",
          "eventStart": "2021-04-25T04:59:33",
          "eventStop": "2021-04-25T08:23:32",
          "duration": 203,
          "status": "Genuine",
          "associatedSiteId": 109818,
          "outfallName": "KIRTLEY CLOSE DRAYTON",
          "isImpacting": true,
          "overFlowSiteId": 108774
        }
      ]
    },
    {
      "id": 344028743,
      "eventId": 393659,
      "siteUnitNumber": 12591,
      "bathingSite": "LITTLEHAMPTON",
      "eventStart": "2021-04-20T14:28:00",
      "eventStop": "2021-04-20T15:43:00",
      "duration": 75,
      "status": "Genuine",
      "associatedSiteId": 109968,
      "outfallName": "FORD ROAD ARUNDEL",
      "isImpacting": true,
      "overFlowSiteId": 0,
      "historicSpillsList": [
        {
          "id": 344028743,
          "eventId": 393659,
          "siteUnitNumber": 12591,
          "bathingSite": "LITTLEHAMPTON",
          "eventStart": "2021-04-20T14:28:00",
          "eventStop": "2021-04-20T15:43:00",
          "duration": 75,
          "status": "Genuine",
          "associatedSiteId": 109968,
          "outfallName": "FORD ROAD ARUNDEL",
          "isImpacting": true,
          "overFlowSiteId": 108002
        }
      ]
    },
    {
      "id": 344019790,
      "eventId": 393650,
      "siteUnitNumber": 12568,
      "bathingSite": "SANDGATE",
      "eventStart": "2021-04-20T12:34:33",
      "eventStop": "2021-04-20T14:45:21",
      "duration": 130,
      "status": "Genuine",
      "associatedSiteId": 109897,
      "outfallName": "RANGE ROAD HYTHE K LONG",
      "isImpacting": true,
      "overFlowSiteId": 0,
      "historicSpillsList": [
        {
          "id": 344019790,
          "eventId": 393650,
          "siteUnitNumber": 12568,
          "bathingSite": "SANDGATE",
          "eventStart": "2021-04-20T12:34:33",
          "eventStop": "2021-04-20T14:45:21",
          "duration": 130,
          "status": "Genuine",
          "associatedSiteId": 109897,
          "outfallName": "RANGE ROAD HYTHE K LONG",
          "isImpacting": true,
          "overFlowSiteId": 116048
        },
        {
          "id": 344019791,
          "eventId": 393650,
          "siteUnitNumber": 12569,
          "bathingSite": "HYTHE",
          "eventStart": "2021-04-20T12:34:33",
          "eventStop": "2021-04-20T14:45:21",
          "duration": 130,
          "status": "Genuine",
          "associatedSiteId": 109897,
          "outfallName": "RANGE ROAD HYTHE K LONG",
          "isImpacting": true,
          "overFlowSiteId": 116048,
          "historicSpillsList": []
        }
      ]
    },
    {
      "id": 344028746,
      "eventId": 393644,
      "siteUnitNumber": 12591,
      "bathingSite": "LITTLEHAMPTON",
      "eventStart": "2021-04-20T13:34:00",
      "eventStop": "2021-04-20T13:46:00",
      "duration": 12,
      "status": "Genuine",
      "associatedSiteId": 109968,
      "outfallName": "FORD ROAD ARUNDEL",
      "isImpacting": true,
      "overFlowSiteId": 0,
      "historicSpillsList": [
        {
          "id": 344028746,
          "eventId": 393644,
          "siteUnitNumber": 12591,
          "bathingSite": "LITTLEHAMPTON",
          "eventStart": "2021-04-20T13:34:00",
          "eventStop": "2021-04-20T13:46:00",
          "duration": 12,
          "status": "Genuine",
          "associatedSiteId": 109968,
          "outfallName": "FORD ROAD ARUNDEL",
          "isImpacting": true,
          "overFlowSiteId": 108002
        }
      ]
    },
    {
      "id": 344019792,
      "eventId": 390150,
      "siteUnitNumber": 12568,
      "bathingSite": "SANDGATE",
      "eventStart": "2021-04-10T17:27:00",
      "eventStop": "2021-04-10T18:02:00",
      "duration": 35,
      "status": "Genuine",
      "associatedSiteId": 109897,
      "outfallName": "RANGE ROAD HYTHE K LONG",
      "isImpacting": true,
      "overFlowSiteId": 0,
      "historicSpillsList": [
        {
          "id": 344019792,
          "eventId": 390150,
          "siteUnitNumber": 12568,
          "bathingSite": "SANDGATE",
          "eventStart": "2021-04-10T17:27:00",
          "eventStop": "2021-04-10T18:02:00",
          "duration": 35,
          "status": "Genuine",
          "associatedSiteId": 109897,
          "outfallName": "RANGE ROAD HYTHE K LONG",
          "isImpacting": true,
          "overFlowSiteId": 116048
        },
        {
          "id": 344019793,
          "eventId": 390150,
          "siteUnitNumber": 12569,
          "bathingSite": "HYTHE",
          "eventStart": "2021-04-10T17:27:00",
          "eventStop": "2021-04-10T18:02:00",
          "duration": 35,
          "status": "Genuine",
          "associatedSiteId": 109897,
          "outfallName": "RANGE ROAD HYTHE K LONG",
          "isImpacting": true,
          "overFlowSiteId": 116048,
          "historicSpillsList": []
        }
      ]
    },
    {
      "id": 344015696,
      "eventId": 390076,
      "siteUnitNumber": 12548,
      "bathingSite": "TANKERTON",
      "eventStart": "2021-04-10T14:14:00",
      "eventStop": "2021-04-10T16:35:00",
      "duration": 141,
      "status": "Genuine",
      "associatedSiteId": 109830,
      "outfallName": "SWALECLIFFE NO1",
      "isImpacting": true,
      "overFlowSiteId": 0,
      "historicSpillsList": [
        {
          "id": 344015696,
          "eventId": 390076,
          "siteUnitNumber": 12548,
          "bathingSite": "TANKERTON",
          "eventStart": "2021-04-10T14:14:00",
          "eventStop": "2021-04-10T16:35:00",
          "duration": 141,
          "status": "Genuine",
          "associatedSiteId": 109830,
          "outfallName": "SWALECLIFFE NO1",
          "isImpacting": true,
          "overFlowSiteId": 115444
        },
        {
          "id": 344015697,
          "eventId": 390076,
          "siteUnitNumber": 12549,
          "bathingSite": "HERNE BAY CENTRAL",
          "eventStart": "2021-04-10T14:14:00",
          "eventStop": "2021-04-10T16:35:00",
          "duration": 141,
          "status": "Genuine",
          "associatedSiteId": 109830,
          "outfallName": "SWALECLIFFE NO1",
          "isImpacting": true,
          "overFlowSiteId": 115444,
          "historicSpillsList": []
        }
      ]
    },
    {
      "id": 344019794,
      "eventId": 388387,
      "siteUnitNumber": 12568,
      "bathingSite": "SANDGATE",
      "eventStart": "2021-04-06T17:31:45",
      "eventStop": "2021-04-06T19:51:00",
      "duration": 139,
      "status": "Genuine",
      "associatedSiteId": 109897,
      "outfallName": "RANGE ROAD HYTHE K LONG",
      "isImpacting": true,
      "overFlowSiteId": 0,
      "historicSpillsList": [
        {
          "id": 344019794,
          "eventId": 388387,
          "siteUnitNumber": 12568,
          "bathingSite": "SANDGATE",
          "eventStart": "2021-04-06T17:31:45",
          "eventStop": "2021-04-06T19:51:00",
          "duration": 139,
          "status": "Genuine",
          "associatedSiteId": 109897,
          "outfallName": "RANGE ROAD HYTHE K LONG",
          "isImpacting": true,
          "overFlowSiteId": 116048
        },
        {
          "id": 344019795,
          "eventId": 388387,
          "siteUnitNumber": 12569,
          "bathingSite": "HYTHE",
          "eventStart": "2021-04-06T17:31:45",
          "eventStop": "2021-04-06T19:51:00",
          "duration": 139,
          "status": "Genuine",
          "associatedSiteId": 109897,
          "outfallName": "RANGE ROAD HYTHE K LONG",
          "isImpacting": true,
          "overFlowSiteId": 116048,
          "historicSpillsList": []
        }
      ]
    }
  ]
}