{
  "currentPage": 156,
  "totalItems": 21025,
  "totalPages": 841,
  "items": [
    {
      "id": 344777317,
      "eventId": 884326,
      "siteUnitNumber": 12606,
      "bathingSite": "LEE-ON-SOLENT",
      "eventStart": "2023-10-28T21:18:00",
      "eventStop": "2023-10-28T23:08:00",
      "duration": 110,
      "status": "Genuine",
      "associatedSiteId": 109733,
      "outfallName": "QUEENS ROAD LEE ON THE SOLENT",
      "isImpacting": true,
      "overFlowSiteId": 0,
      "historicSpillsList": [
        {
          "id": 344777317,
          "eventId": 884326,
          "siteUnitNumber": 12606,
          "bathingSite": "LEE-ON-SOLENT",
          "eventStart": "2023-10-28T21:18:00",
          "eventStop": "2023-10-28T23:08:00",
          "duration": 110,
          "status": "Genuine",
          "associatedSiteId": 109733,
          "outfallName": "QUEENS ROAD LEE ON THE SOLENT",
          "isImpacting": true,
          "overFlowSiteId": 110196
        }
      ]
    },
    {
      "id": 344796540,
      "eventId": 884398,
      "siteUnitNumber": 12575,
      "bathingSite": "HASTINGS PELHAM BEACH",
      "eventStart": "2023-10-28T22:14:31",
      "eventStop": "2023-10-28T23:07:28",
      "duration": 52,
      "status": "Genuine",
      "associatedSiteId": 109982,
      "outfallName": "COOMBS HASTINGS",
      "isImpacting": true,
      "overFlowSiteId": 0,
      "historicSpillsList": [
        {
          "id": 344796541,
          "eventId": 884398,
          "siteUnitNumber": 12576,
          "bathingSite": "ST LEONARDS",
          "eventStart": "2023-10-28T22:14:31",
          "eventStop": "2023-10-28T23:07:28",
          "duration": 52,
          "status": "Genuine",
          "associatedSiteId": 109982,
          "outfallName": "COOMBS HASTINGS",
          "isImpacting": true,
          "overFlowSiteId": 110211,
          "historicSpillsList": []
        }
      ]
    },
    {
      "id": 344797267,
      "eventId": 889537,
      "siteUnitNumber": 12624,
      "bathingSite": "SANDOWN",
      "eventStart": "2023-10-28T22:49:00",
      "eventStop": "2023-10-28T22:54:00",
      "duration": 5,
      "status": "Genuine",
      "associatedSiteId": 110029,
      "outfallName": "HOPE BEACH SHANKLIN NEW",
      "isImpacting": true,
      "overFlowSiteId": 0,
      "historicSpillsList": [
        {
          "id": 344797268,
          "eventId": 889537,
          "siteUnitNumber": 12625,
          "bathingSite": "SHANKLIN",
          "eventStart": "2023-10-28T22:49:00",
          "eventStop": "2023-10-28T22:54:00",
          "duration": 5,
          "status": "Genuine",
          "associatedSiteId": 110029,
          "outfallName": "HOPE BEACH SHANKLIN NEW",
          "isImpacting": true,
          "overFlowSiteId": 109389,
          "historicSpillsList": []
        }
      ]
    },
    {
      "id": 344779873,
      "eventId": 884344,
      "siteUnitNumber": 12618,
      "bathingSite": "RYDE",
      "eventStart": "2023-10-28T21:23:32",
      "eventStop": "2023-10-28T22:50:00",
      "duration": 86,
      "status": "Genuine",
      "associatedSiteId": 109789,
      "outfallName": "SEAGROVE BAY",
      "isImpacting": true,
      "overFlowSiteId": 0,
      "historicSpillsList": [
        {
          "id": 344779873,
          "eventId": 884344,
          "siteUnitNumber": 12618,
          "bathingSite": "RYDE",
          "eventStart": "2023-10-28T21:23:32",
          "eventStop": "2023-10-28T22:50:00",
          "duration": 86,
          "status": "Genuine",
          "associatedSiteId": 109789,
          "outfallName": "SEAGROVE BAY",
          "isImpacting": true,
          "overFlowSiteId": 100244
        },
        {
          "id": 344779874,
          "eventId": 884344,
          "siteUnitNumber": 12619,
          "bathingSite": "SEAGROVE",
          "eventStart": "2023-10-28T21:23:32",
          "eventStop": "2023-10-28T22:50:00",
          "duration": 86,
          "status": "Genuine",
          "associatedSiteId": 109789,
          "outfallName": "SEAGROVE BAY",
          "isImpacting": true,
          "overFlowSiteId": 100244,
          "historicSpillsList": []
        },
        {
          "id": 344779875,
          "eventId": 884344,
          "siteUnitNumber": 12620,
          "bathingSite": "ST HELENS",
          "eventStart": "2023-10-28T21:23:32",
          "eventStop": "2023-10-28T22:50:00",
          "duration": 86,
          "status": "Genuine",
          "associatedSiteId": 109789,
          "outfallName": "SEAGROVE BAY",
          "isImpacting": true,
          "overFlowSiteId": 100244,
          "historicSpillsList": []
        }
      ]
    },
    {
      "id": 344797777,
      "eventId": 884342,
      "siteUnitNumber": 12626,
      "bathingSite": "VENTNOR",
      "eventStart": "2023-10-28T21:15:00",
      "eventStop": "2023-10-28T22:43:00",
      "duration": 88,
      "status": "Genuine",
      "associatedSiteId": 110064,
      "outfallName": "LION POINT VENTNOR",
      "isImpacting": true,
      "overFlowSiteId": 0,
      "historicSpillsList": [
        {
          "id": 344797777,
          "eventId": 884342,
          "siteUnitNumber": 12626,
          "bathingSite": "VENTNOR",
          "eventStart": "2023-10-28T21:15:00",
          "eventStop": "2023-10-28T22:43:00",
          "duration": 88,
          "status": "Genuine",
          "associatedSiteId": 110064,
          "outfallName": "LION POINT VENTNOR",
          "isImpacting": true,
          "overFlowSiteId": 108546
        }
      ]
    },
    {
      "id": 344788823,
      "eventId": 884915,
      "siteUnitNumber": 12590,
      "bathingSite": "WORTHING",
      "eventStart": "2023-10-28T22:15:00",
      "eventStop": "2023-10-28T22:30:00",
      "duration": 15,
      "status": "Genuine",
      "associatedSiteId": 109912,
      "outfallName": "SEA LANE GORING",
      "isImpacting": false,
      "overFlowSiteId": 0,
      "historicSpillsList": []
    },
    {
      "id": 344797272,
      "eventId": 889536,
      "siteUnitNumber": 12623,
      "bathingSite": "YAVERLAND",
      "eventStart": "2023-10-28T22:13:00",
      "eventStop": "2023-10-28T22:18:00",
      "duration": 5,
      "status": "Genuine",
      "associatedSiteId": 110029,
      "outfallName": "HOPE BEACH SHANKLIN NEW",
      "isImpacting": true,
      "overFlowSiteId": 0,
      "historicSpillsList": [
        {
          "id": 344797274,
          "eventId": 889536,
          "siteUnitNumber": 12625,
          "bathingSite": "SHANKLIN",
          "eventStart": "2023-10-28T22:13:00",
          "eventStop": "2023-10-28T22:18:00",
          "duration": 5,
          "status": "Genuine",
          "associatedSiteId": 110029,
          "outfallName": "HOPE BEACH SHANKLIN NEW",
          "isImpacting": true,
          "overFlowSiteId": 109389,
          "historicSpillsList": []
        }
      ]
    },
    {
      "id": 344780423,
      "eventId": 884312,
      "siteUnitNumber": 12661,
      "bathingSite": "LANGSTONE HARBOUR",
      "eventStart": "2023-10-28T21:13:00",
      "eventStop": "2023-10-28T22:16:00",
      "duration": 63,
      "status": "Genuine",
      "associatedSiteId": 109820,
      "outfallName": "ST ANDREWS ROAD PORTSMOUTH",
      "isImpacting": true,
      "overFlowSiteId": 0,
      "historicSpillsList": [
        {
          "id": 344780423,
          "eventId": 884312,
          "siteUnitNumber": 12661,
          "bathingSite": "LANGSTONE HARBOUR",
          "eventStart": "2023-10-28T21:13:00",
          "eventStop": "2023-10-28T22:16:00",
          "duration": 63,
          "status": "Genuine",
          "associatedSiteId": 109820,
          "outfallName": "ST ANDREWS ROAD PORTSMOUTH",
          "isImpacting": true,
          "overFlowSiteId": 108474
        }
      ]
    },
    {
      "id": 344795914,
      "eventId": 882526,
      "siteUnitNumber": 12575,
      "bathingSite": "HASTINGS PELHAM BEACH",
      "eventStart": "2023-10-28T00:18:22",
      "eventStop": "2023-10-28T22:15:00",
      "duration": 1316,
      "status": "Genuine",
      "associatedSiteId": 109981,
      "outfallName": "ROCK A NORE HASTINGS",
      "isImpacting": true,
      "overFlowSiteId": 0,
      "historicSpillsList": [
        {
          "id": 344795914,
          "eventId": 882526,
          "siteUnitNumber": 12575,
          "bathingSite": "HASTINGS PELHAM BEACH",
          "eventStart": "2023-10-28T00:18:22",
          "eventStop": "2023-10-28T22:15:00",
          "duration": 1316,
          "status": "Genuine",
          "associatedSiteId": 109981,
          "outfallName": "ROCK A NORE HASTINGS",
          "isImpacting": true,
          "overFlowSiteId": 110200
        }
      ]
    },
    {
      "id": 344796546,
      "eventId": 884379,
      "siteUnitNumber": 12575,
      "bathingSite": "HASTINGS PELHAM BEACH",
      "eventStart": "2023-10-28T21:56:31",
      "eventStop": "2023-10-28T22:05:36",
      "duration": 9,
      "status": "Genuine",
      "associatedSiteId": 109982,
      "outfallName": "COOMBS HASTINGS",
      "isImpacting": true,
      "overFlowSiteId": 0,
      "historicSpillsList": [
        {
          "id": 344796547,
          "eventId": 884379,
          "siteUnitNumber": 12576,
          "bathingSite": "ST LEONARDS",
          "eventStart": "2023-10-28T21:56:31",
          "eventStop": "2023-10-28T22:05:36",
          "duration": 9,
          "status": "Genuine",
          "associatedSiteId": 109982,
          "outfallName": "COOMBS HASTINGS",
          "isImpacting": true,
          "overFlowSiteId": 110211,
          "historicSpillsList": []
        }
      ]
    },
    {
      "id": 344797380,
      "eventId": 884387,
      "siteUnitNumber": 12623,
      "bathingSite": "YAVERLAND",
      "eventStart": "2023-10-28T21:57:49",
      "eventStop": "2023-10-28T22:04:00",
      "duration": 6,
      "status": "Genuine",
      "associatedSiteId": 110029,
      "outfallName": "HOPE BEACH SHANKLIN NEW",
      "isImpacting": true,
      "overFlowSiteId": 0,
      "historicSpillsList": [
        {
          "id": 344797382,
          "eventId": 884387,
          "siteUnitNumber": 12625,
          "bathingSite": "SHANKLIN",
          "eventStart": "2023-10-28T21:57:49",
          "eventStop": "2023-10-28T22:04:00",
          "duration": 6,
          "status": "Genuine",
          "associatedSiteId": 110029,
          "outfallName": "HOPE BEACH SHANKLIN NEW",
          "isImpacting": true,
          "overFlowSiteId": 109389,
          "historicSpillsList": []
        }
      ]
    },
    {
      "id": 344789293,
      "eventId": 884569,
      "siteUnitNumber": 12586,
      "bathingSite": "HOVE",
      "eventStart": "2023-10-28T21:46:31",
      "eventStop": "2023-10-28T21:56:00",
      "duration": 9,
      "status": "Genuine",
      "associatedSiteId": 109929,
      "outfallName": "SHOREHAM NO1",
      "isImpacting": true,
      "overFlowSiteId": 0,
      "historicSpillsList": [
        {
          "id": 344789293,
          "eventId": 884569,
          "siteUnitNumber": 12586,
          "bathingSite": "HOVE",
          "eventStart": "2023-10-28T21:46:31",
          "eventStop": "2023-10-28T21:56:00",
          "duration": 9,
          "status": "Genuine",
          "associatedSiteId": 109929,
          "outfallName": "SHOREHAM NO1",
          "isImpacting": true,
          "overFlowSiteId": 115434
        },
        {
          "id": 344789294,
          "eventId": 884569,
          "siteUnitNumber": 12587,
          "bathingSite": "SOUTHWICK",
          "eventStart": "2023-10-28T21:46:31",
          "eventStop": "2023-10-28T21:56:00",
          "duration": 9,
          "status": "Genuine",
          "associatedSiteId": 109929,
          "outfallName": "SHOREHAM NO1",
          "isImpacting": true,
          "overFlowSiteId": 115434,
          "historicSpillsList": []
        },
        {
          "id": 344789295,
          "eventId": 884569,
          "siteUnitNumber": 12588,
          "bathingSite": "SHOREHAM BEACH",
          "eventStart": "2023-10-28T21:46:31",
          "eventStop": "2023-10-28T21:56:00",
          "duration": 9,
          "status": "Genuine",
          "associatedSiteId": 109929,
          "outfallName": "SHOREHAM NO1",
          "isImpacting": true,
          "overFlowSiteId": 115434,
          "historicSpillsList": []
        }
      ]
    },
    {
      "id": 344772413,
      "eventId": 884345,
      "siteUnitNumber": 12615,
      "bathingSite": "COLWELL BAY",
      "eventStart": "2023-10-28T21:33:00",
      "eventStop": "2023-10-28T21:53:00",
      "duration": 20,
      "status": "Genuine",
      "associatedSiteId": 109663,
      "outfallName": "THE INSTITUTE YARMOUTH NO1",
      "isImpacting": false,
      "overFlowSiteId": 0,
      "historicSpillsList": []
    },
    {
      "id": 344775575,
      "eventId": 884380,
      "siteUnitNumber": 12616,
      "bathingSite": "GURNARD",
      "eventStart": "2023-10-28T21:41:52",
      "eventStop": "2023-10-28T21:51:00",
      "duration": 9,
      "status": "Genuine",
      "associatedSiteId": 109706,
      "outfallName": "HIGH STREET COWES",
      "isImpacting": false,
      "overFlowSiteId": 0,
      "historicSpillsList": []
    },
    {
      "id": 344779479,
      "eventId": 884331,
      "siteUnitNumber": 12618,
      "bathingSite": "RYDE",
      "eventStart": "2023-10-28T21:14:44",
      "eventStop": "2023-10-28T21:49:48",
      "duration": 35,
      "status": "Genuine",
      "associatedSiteId": 109782,
      "outfallName": "AUGUSTA ROAD RYDE",
      "isImpacting": true,
      "overFlowSiteId": 0,
      "historicSpillsList": [
        {
          "id": 344779479,
          "eventId": 884331,
          "siteUnitNumber": 12618,
          "bathingSite": "RYDE",
          "eventStart": "2023-10-28T21:14:44",
          "eventStop": "2023-10-28T21:49:48",
          "duration": 35,
          "status": "Genuine",
          "associatedSiteId": 109782,
          "outfallName": "AUGUSTA ROAD RYDE",
          "isImpacting": true,
          "overFlowSiteId": 102348
        }
      ]
    },
    {
      "id": 344796544,
      "eventId": 884355,
      "siteUnitNumber": 12575,
      "bathingSite": "HASTINGS PELHAM BEACH",
      "eventStart": "2023-10-28T21:34:01",
      "eventStop": "2023-10-28T21:49:20",
      "duration": 15,
      "status": "Genuine",
      "associatedSiteId": 109982,
      "outfallName": "COOMBS HASTINGS",
      "isImpacting": true,
      "overFlowSiteId": 0,
      "historicSpillsList": [
        {
          "id": 344796545,
          "eventId": 884355,
          "siteUnitNumber": 12576,
          "bathingSite": "ST LEONARDS",
          "eventStart": "2023-10-28T21:34:01",
          "eventStop": "2023-10-28T21:49:20",
          "duration": 15,
          "status": "Genuine",
          "associatedSiteId": 109982,
          "outfallName": "COOMBS HASTINGS",
          "isImpacting": true,
          "overFlowSiteId": 110211,
          "historicSpillsList": []
        }
      ]
    },
    {
      "id": 344789291,
      "eventId": 884566,
      "siteUnitNumber": 12587,
      "bathingSite": "SOUTHWICK",
      "eventStart": "2023-10-28T21:28:49",
      "eventStop": "2023-10-28T21:44:57",
      "duration": 16,
      "status": "Genuine",
      "associatedSiteId": 109929,
      "outfallName": "SHOREHAM NO1",
      "isImpacting": true,
      "overFlowSiteId": 0,
      "historicSpillsList": [
        {
          "id": 344789291,
          "eventId": 884566,
          "siteUnitNumber": 12587,
          "bathingSite": "SOUTHWICK",
          "eventStart": "2023-10-28T21:28:49",
          "eventStop": "2023-10-28T21:44:57",
          "duration": 16,
          "status": "Genuine",
          "associatedSiteId": 109929,
          "outfallName": "SHOREHAM NO1",
          "isImpacting": true,
          "overFlowSiteId": 115434
        },
        {
          "id": 344789292,
          "eventId": 884566,
          "siteUnitNumber": 12588,
          "bathingSite": "SHOREHAM BEACH",
          "eventStart": "2023-10-28T21:28:49",
          "eventStop": "2023-10-28T21:44:57",
          "duration": 16,
          "status": "Genuine",
          "associatedSiteId": 109929,
          "outfallName": "SHOREHAM NO1",
          "isImpacting": true,
          "overFlowSiteId": 115434,
          "historicSpillsList": []
        },
        {
          "id": 344789299,
          "eventId": 884566,
          "siteUnitNumber": 12586,
          "bathingSite": "HOVE",
          "eventStart": "2023-10-28T21:28:49",
          "eventStop": "2023-10-28T21:44:57",
          "duration": 16,
          "status": "Genuine",
          "associatedSiteId": 109929,
          "outfallName": "SHOREHAM NO1",
          "isImpacting": true,
          "overFlowSiteId": 115434,
          "historicSpillsList": []
        }
      ]
    },
    {
      "id": 344779451,
      "eventId": 886490,
      "siteUnitNumber": 12618,
      "bathingSite": "RYDE",
      "eventStart": "2023-10-28T21:08:00",
      "eventStop": "2023-10-28T21:43:00",
      "duration": 35,
      "status": "Genuine",
      "associatedSiteId": 109781,
      "outfallName": "SPENCER ROAD RYDE",
      "isImpacting": true,
      "overFlowSiteId": 0,
      "historicSpillsList": [
        {
          "id": 344779451,
          "eventId": 886490,
          "siteUnitNumber": 12618,
          "bathingSite": "RYDE",
          "eventStart": "2023-10-28T21:08:00",
          "eventStop": "2023-10-28T21:43:00",
          "duration": 35,
          "status": "Genuine",
          "associatedSiteId": 109781,
          "outfallName": "SPENCER ROAD RYDE",
          "isImpacting": true,
          "overFlowSiteId": 108566
        }
      ]
    },
    {
      "id": 344790510,
      "eventId": 900537,
      "siteUnitNumber": 12620,
      "bathingSite": "ST HELENS",
      "eventStart": "2023-10-28T15:44:00",
      "eventStop": "2023-10-28T21:42:00",
      "duration": 358,
      "status": "Genuine",
      "associatedSiteId": 109939,
      "outfallName": "LANE END ROAD BEMBRIDGE",
      "isImpacting": true,
      "overFlowSiteId": 0,
      "historicSpillsList": [
        {
          "id": 344790511,
          "eventId": 900537,
          "siteUnitNumber": 12621,
          "bathingSite": "BEMBRIDGE",
          "eventStart": "2023-10-28T15:44:00",
          "eventStop": "2023-10-28T21:42:00",
          "duration": 358,
          "status": "Genuine",
          "associatedSiteId": 109939,
          "outfallName": "LANE END ROAD BEMBRIDGE",
          "isImpacting": true,
          "overFlowSiteId": 108533,
          "historicSpillsList": []
        }
      ]
    },
    {
      "id": 344806220,
      "eventId": 881867,
      "siteUnitNumber": 12582,
      "bathingSite": "SEAFORD",
      "eventStart": "2023-10-27T18:30:01",
      "eventStop": "2023-10-28T21:36:39",
      "duration": 1626,
      "status": "Genuine",
      "associatedSiteId": 110920,
      "outfallName": "NEWHAVEN",
      "isImpacting": false,
      "overFlowSiteId": 0,
      "historicSpillsList": []
    },
    {
      "id": 344779319,
      "eventId": 884350,
      "siteUnitNumber": 12618,
      "bathingSite": "RYDE",
      "eventStart": "2023-10-28T21:15:00",
      "eventStop": "2023-10-28T21:35:00",
      "duration": 20,
      "status": "Genuine",
      "associatedSiteId": 109779,
      "outfallName": "ASHEY ROAD RYDE",
      "isImpacting": false,
      "overFlowSiteId": 0,
      "historicSpillsList": []
    },
    {
      "id": 344796550,
      "eventId": 884293,
      "siteUnitNumber": 12575,
      "bathingSite": "HASTINGS PELHAM BEACH",
      "eventStart": "2023-10-28T20:54:33",
      "eventStop": "2023-10-28T21:30:00",
      "duration": 35,
      "status": "Genuine",
      "associatedSiteId": 109982,
      "outfallName": "COOMBS HASTINGS",
      "isImpacting": false,
      "overFlowSiteId": 0,
      "historicSpillsList": []
    },
    {
      "id": 344772411,
      "eventId": 884651,
      "siteUnitNumber": 12615,
      "bathingSite": "COLWELL BAY",
      "eventStart": "2023-10-28T21:15:00",
      "eventStop": "2023-10-28T21:23:40",
      "duration": 8,
      "status": "Not Genuine",
      "associatedSiteId": 109663,
      "outfallName": "THE INSTITUTE YARMOUTH NO1",
      "isImpacting": false,
      "overFlowSiteId": 0,
      "historicSpillsList": []
    },
    {
      "id": 344775577,
      "eventId": 884286,
      "siteUnitNumber": 12616,
      "bathingSite": "GURNARD",
      "eventStart": "2023-10-28T20:27:44",
      "eventStop": "2023-10-28T21:16:11",
      "duration": 48,
      "status": "Genuine",
      "associatedSiteId": 109706,
      "outfallName": "HIGH STREET COWES",
      "isImpacting": false,
      "overFlowSiteId": 0,
      "historicSpillsList": []
    },
    {
      "id": 344789296,
      "eventId": 884560,
      "siteUnitNumber": 12586,
      "bathingSite": "HOVE",
      "eventStart": "2023-10-28T17:39:20",
      "eventStop": "2023-10-28T21:02:00",
      "duration": 202,
      "status": "Genuine",
      "associatedSiteId": 109929,
      "outfallName": "SHOREHAM NO1",
      "isImpacting": true,
      "overFlowSiteId": 0,
      "historicSpillsList": [
        {
          "id": 344789296,
          "eventId": 884560,
          "siteUnitNumber": 12586,
          "bathingSite": "HOVE",
          "eventStart": "2023-10-28T17:39:20",
          "eventStop": "2023-10-28T21:02:00",
          "duration": 202,
          "status": "Genuine",
          "associatedSiteId": 109929,
          "outfallName": "SHOREHAM NO1",
          "isImpacting": true,
          "overFlowSiteId": 115434
        },
        {
          "id": 344789297,
          "eventId": 884560,
          "siteUnitNumber": 12587,
          "bathingSite": "SOUTHWICK",
          "eventStart": "2023-10-28T17:39:20",
          "eventStop": "2023-10-28T21:02:00",
          "duration": 202,
          "status": "Genuine",
          "associatedSiteId": 109929,
          "outfallName": "SHOREHAM NO1",
          "isImpacting": true,
          "overFlowSiteId": 115434,
          "historicSpillsList": []
        },
        {
          "id": 344789298,
          "eventId": 884560,
          "siteUnitNumber": 12588,
          "bathingSite": "SHOREHAM BEACH",
          "eventStart": "2023-10-28T17:39:20",
          "eventStop": "2023-10-28T21:02:00",
          "duration": 202,
          "status": "Genuine",
          "associatedSiteId": 109929,
          "outfallName": "SHOREHAM NO1",
          "isImpacting": true,
          "overFlowSiteId": 115434,
          "historicSpillsList": []
        }
      ]
    }
  ]
}