{
  "currentPage": 198,
  "totalItems": 21025,
  "totalPages": 841,
  "items": [
    {
      "id": 344791436,
      "eventId": 873304,
      "siteUnitNumber": 12582,
      "bathingSite": "SEAFORD",
      "eventStart": "2023-10-18T23:45:39",
      "eventStop": "2023-10-18T23:54:08",
      "duration": 8,
      "status": "Genuine",
      "associatedSiteId": 109957,
      "outfallName": "PORTOBELLO BRIGHTON NO2",
      "isImpacting": true,
      "overFlowSiteId": 0,
      "historicSpillsList": [
        {
          "id": 344791437,
          "eventId": 873304,
          "siteUnitNumber": 12583,
          "bathingSite": "SALTDEAN",
          "eventStart": "2023-10-18T23:45:39",
          "eventStop": "2023-10-18T23:54:08",
          "duration": 8,
          "status": "Genuine",
          "associatedSiteId": 109957,
          "outfallName": "PORTOBELLO BRIGHTON NO2",
          "isImpacting": true,
          "overFlowSiteId": 116012,
          "historicSpillsList": []
        }
      ]
    },
    {
      "id": 344795794,
      "eventId": 872274,
      "siteUnitNumber": 12591,
      "bathingSite": "LITTLEHAMPTON",
      "eventStart": "2023-10-18T14:48:00",
      "eventStop": "2023-10-18T23:46:00",
      "duration": 538,
      "status": "Genuine",
      "associatedSiteId": 109977,
      "outfallName": "FORESHORE TANK LITTLEHAMPTON",
      "isImpacting": true,
      "overFlowSiteId": 0,
      "historicSpillsList": [
        {
          "id": 344795794,
          "eventId": 872274,
          "siteUnitNumber": 12591,
          "bathingSite": "LITTLEHAMPTON",
          "eventStart": "2023-10-18T14:48:00",
          "eventStop": "2023-10-18T23:46:00",
          "duration": 538,
          "status": "Genuine",
          "associatedSiteId": 109977,
          "outfallName": "FORESHORE TANK LITTLEHAMPTON",
          "isImpacting": true,
          "overFlowSiteId": 109390
        }
      ]
    },
    {
      "id": 344806231,
      "eventId": 872212,
      "siteUnitNumber": 12582,
      "bathingSite": "SEAFORD",
      "eventStart": "2023-10-18T13:45:06",
      "eventStop": "2023-10-18T23:41:24",
      "duration": 596,
      "status": "Genuine",
      "associatedSiteId": 110920,
      "outfallName": "NEWHAVEN",
      "isImpacting": false,
      "overFlowSiteId": 0,
      "historicSpillsList": []
    },
    {
      "id": 344783010,
      "eventId": 872940,
      "siteUnitNumber": 12549,
      "bathingSite": "HERNE BAY CENTRAL",
      "eventStart": "2023-10-18T20:46:00",
      "eventStop": "2023-10-18T23:41:00",
      "duration": 175,
      "status": "Genuine",
      "associatedSiteId": 109835,
      "outfallName": "SWALECLIFFE NO2",
      "isImpacting": true,
      "overFlowSiteId": 0,
      "historicSpillsList": [
        {
          "id": 344783015,
          "eventId": 872940,
          "siteUnitNumber": 12548,
          "bathingSite": "TANKERTON",
          "eventStart": "2023-10-18T20:46:00",
          "eventStop": "2023-10-18T23:41:00",
          "duration": 175,
          "status": "Genuine",
          "associatedSiteId": 109835,
          "outfallName": "SWALECLIFFE NO2",
          "isImpacting": true,
          "overFlowSiteId": 115445,
          "historicSpillsList": []
        }
      ]
    },
    {
      "id": 344791440,
      "eventId": 873301,
      "siteUnitNumber": 12582,
      "bathingSite": "SEAFORD",
      "eventStart": "2023-10-18T23:31:50",
      "eventStop": "2023-10-18T23:40:56",
      "duration": 9,
      "status": "Genuine",
      "associatedSiteId": 109957,
      "outfallName": "PORTOBELLO BRIGHTON NO2",
      "isImpacting": true,
      "overFlowSiteId": 0,
      "historicSpillsList": [
        {
          "id": 344791441,
          "eventId": 873301,
          "siteUnitNumber": 12583,
          "bathingSite": "SALTDEAN",
          "eventStart": "2023-10-18T23:31:50",
          "eventStop": "2023-10-18T23:40:56",
          "duration": 9,
          "status": "Genuine",
          "associatedSiteId": 109957,
          "outfallName": "PORTOBELLO BRIGHTON NO2",
          "isImpacting": true,
          "overFlowSiteId": 116012,
          "historicSpillsList": []
        }
      ]
    },
    {
      "id": 344780027,
      "eventId": 889039,
      "siteUnitNumber": 12596,
      "bathingSite": "PAGHAM",
      "eventStart": "2023-10-18T16:33:00",
      "eventStop": "2023-10-18T23:28:00",
      "duration": 415,
      "status": "Genuine",
      "associatedSiteId": 109791,
      "outfallName": "SIDLESHAM",
      "isImpacting": true,
      "overFlowSiteId": 0,
      "historicSpillsList": [
        {
          "id": 344780027,
          "eventId": 889039,
          "siteUnitNumber": 12596,
          "bathingSite": "PAGHAM",
          "eventStart": "2023-10-18T16:33:00",
          "eventStop": "2023-10-18T23:28:00",
          "duration": 415,
          "status": "Genuine",
          "associatedSiteId": 109791,
          "outfallName": "SIDLESHAM",
          "isImpacting": true,
          "overFlowSiteId": 115807
        }
      ]
    },
    {
      "id": 344791444,
      "eventId": 872725,
      "siteUnitNumber": 12582,
      "bathingSite": "SEAFORD",
      "eventStart": "2023-10-18T17:24:55",
      "eventStop": "2023-10-18T23:27:24",
      "duration": 362,
      "status": "Genuine",
      "associatedSiteId": 109957,
      "outfallName": "PORTOBELLO BRIGHTON NO2",
      "isImpacting": true,
      "overFlowSiteId": 0,
      "historicSpillsList": [
        {
          "id": 344791444,
          "eventId": 872725,
          "siteUnitNumber": 12582,
          "bathingSite": "SEAFORD",
          "eventStart": "2023-10-18T17:24:55",
          "eventStop": "2023-10-18T23:27:24",
          "duration": 362,
          "status": "Genuine",
          "associatedSiteId": 109957,
          "outfallName": "PORTOBELLO BRIGHTON NO2",
          "isImpacting": true,
          "overFlowSiteId": 116012
        },
        {
          "id": 344791445,
          "eventId": 872725,
          "siteUnitNumber": 12583,
          "bathingSite": "SALTDEAN",
          "eventStart": "2023-10-18T17:24:55",
          "eventStop": "2023-10-18T23:27:24",
          "duration": 362,
          "status": "Genuine",
          "associatedSiteId": 109957,
          "outfallName": "PORTOBELLO BRIGHTON NO2",
          "isImpacting": true,
          "overFlowSiteId": 116012,
          "historicSpillsList": []
        }
      ]
    },
    {
      "id": 344800747,
      "eventId": 876743,
      "siteUnitNumber": 12619,
      "bathingSite": "SEAGROVE",
      "eventStart": "2023-10-18T22:49:00",
      "eventStop": "2023-10-18T23:12:00",
      "duration": 23,
      "status": "Genuine",
      "associatedSiteId": 110097,
      "outfallName": "SANDOWN NO2",
      "isImpacting": true,
      "overFlowSiteId": 0,
      "historicSpillsList": [
        {
          "id": 344800750,
          "eventId": 876743,
          "siteUnitNumber": 12623,
          "bathingSite": "YAVERLAND",
          "eventStart": "2023-10-18T22:49:00",
          "eventStop": "2023-10-18T23:12:00",
          "duration": 23,
          "status": "Genuine",
          "associatedSiteId": 110097,
          "outfallName": "SANDOWN NO2",
          "isImpacting": true,
          "overFlowSiteId": 115454,
          "historicSpillsList": []
        }
      ]
    },
    {
      "id": 344772767,
      "eventId": 873190,
      "siteUnitNumber": 12559,
      "bathingSite": "BOTANY BAY BROADSTAIRS",
      "eventStart": "2023-10-18T22:32:45",
      "eventStop": "2023-10-18T23:01:01",
      "duration": 28,
      "status": "Not Genuine",
      "associatedSiteId": 109673,
      "outfallName": "MARGATE NO1",
      "isImpacting": true,
      "overFlowSiteId": 0,
      "historicSpillsList": []
    },
    {
      "id": 344783898,
      "eventId": 873058,
      "siteUnitNumber": 12579,
      "bathingSite": "PEVENSEY BAY",
      "eventStart": "2023-10-18T20:00:00",
      "eventStop": "2023-10-18T23:00:00",
      "duration": 180,
      "status": "Not Genuine",
      "associatedSiteId": 109891,
      "outfallName": "MONTAGUE WAY WESTHAM",
      "isImpacting": false,
      "overFlowSiteId": 0,
      "historicSpillsList": []
    },
    {
      "id": 344772898,
      "eventId": 872993,
      "siteUnitNumber": 12560,
      "bathingSite": "JOSS BAY BROADSTAIRS",
      "eventStart": "2023-10-18T18:10:00",
      "eventStop": "2023-10-18T22:38:00",
      "duration": 268,
      "status": "Genuine",
      "associatedSiteId": 109674,
      "outfallName": "MARGATE NO2",
      "isImpacting": true,
      "overFlowSiteId": 0,
      "historicSpillsList": [
        {
          "id": 344772898,
          "eventId": 872993,
          "siteUnitNumber": 12560,
          "bathingSite": "JOSS BAY BROADSTAIRS",
          "eventStart": "2023-10-18T18:10:00",
          "eventStop": "2023-10-18T22:38:00",
          "duration": 268,
          "status": "Genuine",
          "associatedSiteId": 109674,
          "outfallName": "MARGATE NO2",
          "isImpacting": true,
          "overFlowSiteId": 116100
        },
        {
          "id": 344772901,
          "eventId": 872993,
          "siteUnitNumber": 12557,
          "bathingSite": "MARGATE FULSAM ROCK",
          "eventStart": "2023-10-18T18:10:00",
          "eventStop": "2023-10-18T22:38:00",
          "duration": 268,
          "status": "Genuine",
          "associatedSiteId": 109674,
          "outfallName": "MARGATE NO2",
          "isImpacting": true,
          "overFlowSiteId": 116100,
          "historicSpillsList": []
        },
        {
          "id": 344772902,
          "eventId": 872993,
          "siteUnitNumber": 12558,
          "bathingSite": "WALPOLE BAY MARGATE",
          "eventStart": "2023-10-18T18:10:00",
          "eventStop": "2023-10-18T22:38:00",
          "duration": 268,
          "status": "Genuine",
          "associatedSiteId": 109674,
          "outfallName": "MARGATE NO2",
          "isImpacting": true,
          "overFlowSiteId": 116100,
          "historicSpillsList": []
        },
        {
          "id": 344772903,
          "eventId": 872993,
          "siteUnitNumber": 12559,
          "bathingSite": "BOTANY BAY BROADSTAIRS",
          "eventStart": "2023-10-18T18:10:00",
          "eventStop": "2023-10-18T22:38:00",
          "duration": 268,
          "status": "Genuine",
          "associatedSiteId": 109674,
          "outfallName": "MARGATE NO2",
          "isImpacting": true,
          "overFlowSiteId": 116100,
          "historicSpillsList": []
        }
      ]
    },
    {
      "id": 344809516,
      "eventId": 872253,
      "siteUnitNumber": 12615,
      "bathingSite": "COLWELL BAY",
      "eventStart": "2023-10-18T14:12:01",
      "eventStop": "2023-10-18T22:38:00",
      "duration": 505,
      "status": "Genuine",
      "associatedSiteId": 115498,
      "outfallName": "NORTON TRANSFER IOW",
      "isImpacting": true,
      "overFlowSiteId": 0,
      "historicSpillsList": [
        {
          "id": 344809516,
          "eventId": 872253,
          "siteUnitNumber": 12615,
          "bathingSite": "COLWELL BAY",
          "eventStart": "2023-10-18T14:12:01",
          "eventStop": "2023-10-18T22:38:00",
          "duration": 505,
          "status": "Genuine",
          "associatedSiteId": 115498,
          "outfallName": "NORTON TRANSFER IOW",
          "isImpacting": true,
          "overFlowSiteId": 109524
        },
        {
          "id": 344809517,
          "eventId": 872253,
          "siteUnitNumber": 12614,
          "bathingSite": "TOTLAND BAY",
          "eventStart": "2023-10-18T14:12:01",
          "eventStop": "2023-10-18T22:38:00",
          "duration": 505,
          "status": "Genuine",
          "associatedSiteId": 115498,
          "outfallName": "NORTON TRANSFER IOW",
          "isImpacting": true,
          "overFlowSiteId": 109524,
          "historicSpillsList": []
        }
      ]
    },
    {
      "id": 344792571,
      "eventId": 873175,
      "siteUnitNumber": 12594,
      "bathingSite": "BOGNOR REGIS EAST",
      "eventStart": "2023-10-18T22:00:00",
      "eventStop": "2023-10-18T22:31:00",
      "duration": 31,
      "status": "Genuine",
      "associatedSiteId": 109959,
      "outfallName": "WEST PARK BOGNOR REGIS",
      "isImpacting": false,
      "overFlowSiteId": 0,
      "historicSpillsList": []
    },
    {
      "id": 344782846,
      "eventId": 872608,
      "siteUnitNumber": 12547,
      "bathingSite": "WEST BEACH WHITSTABLE",
      "eventStart": "2023-10-18T16:38:07",
      "eventStop": "2023-10-18T22:27:00",
      "duration": 348,
      "status": "Genuine",
      "associatedSiteId": 109832,
      "outfallName": "GORREL NO1",
      "isImpacting": true,
      "overFlowSiteId": 0,
      "historicSpillsList": [
        {
          "id": 344782846,
          "eventId": 872608,
          "siteUnitNumber": 12547,
          "bathingSite": "WEST BEACH WHITSTABLE",
          "eventStart": "2023-10-18T16:38:07",
          "eventStop": "2023-10-18T22:27:00",
          "duration": 348,
          "status": "Genuine",
          "associatedSiteId": 109832,
          "outfallName": "GORREL NO1",
          "isImpacting": true,
          "overFlowSiteId": 103279
        },
        {
          "id": 344782847,
          "eventId": 872608,
          "siteUnitNumber": 12548,
          "bathingSite": "TANKERTON",
          "eventStart": "2023-10-18T16:38:07",
          "eventStop": "2023-10-18T22:27:00",
          "duration": 348,
          "status": "Genuine",
          "associatedSiteId": 109832,
          "outfallName": "GORREL NO1",
          "isImpacting": true,
          "overFlowSiteId": 103279,
          "historicSpillsList": []
        }
      ]
    },
    {
      "id": 344800772,
      "eventId": 872225,
      "siteUnitNumber": 12623,
      "bathingSite": "YAVERLAND",
      "eventStart": "2023-10-18T14:01:04",
      "eventStop": "2023-10-18T22:27:00",
      "duration": 505,
      "status": "Genuine",
      "associatedSiteId": 110097,
      "outfallName": "SANDOWN NO2",
      "isImpacting": true,
      "overFlowSiteId": 0,
      "historicSpillsList": [
        {
          "id": 344800772,
          "eventId": 872225,
          "siteUnitNumber": 12623,
          "bathingSite": "YAVERLAND",
          "eventStart": "2023-10-18T14:01:04",
          "eventStop": "2023-10-18T22:27:00",
          "duration": 505,
          "status": "Genuine",
          "associatedSiteId": 110097,
          "outfallName": "SANDOWN NO2",
          "isImpacting": true,
          "overFlowSiteId": 115454
        },
        {
          "id": 344800773,
          "eventId": 872225,
          "siteUnitNumber": 12624,
          "bathingSite": "SANDOWN",
          "eventStart": "2023-10-18T14:01:04",
          "eventStop": "2023-10-18T22:27:00",
          "duration": 505,
          "status": "Genuine",
          "associatedSiteId": 110097,
          "outfallName": "SANDOWN NO2",
          "isImpacting": true,
          "overFlowSiteId": 115454,
          "historicSpillsList": []
        },
        {
          "id": 344800774,
          "eventId": 872225,
          "siteUnitNumber": 12625,
          "bathingSite": "SHANKLIN",
          "eventStart": "2023-10-18T14:01:04",
          "eventStop": "2023-10-18T22:27:00",
          "duration": 505,
          "status": "Genuine",
          "associatedSiteId": 110097,
          "outfallName": "SANDOWN NO2",
          "isImpacting": true,
          "overFlowSiteId": 115454,
          "historicSpillsList": []
        }
      ]
    },
    {
      "id": 344772977,
      "eventId": 873803,
      "siteUnitNumber": 12549,
      "bathingSite": "HERNE BAY CENTRAL",
      "eventStart": "2023-10-18T20:43:00",
      "eventStop": "2023-10-18T22:26:00",
      "duration": 103,
      "status": "Genuine",
      "associatedSiteId": 109676,
      "outfallName": "KINGS HALL HERNE BAY A",
      "isImpacting": true,
      "overFlowSiteId": 0,
      "historicSpillsList": [
        {
          "id": 344772978,
          "eventId": 873803,
          "siteUnitNumber": 12551,
          "bathingSite": "HERNE BAY",
          "eventStart": "2023-10-18T20:43:00",
          "eventStop": "2023-10-18T22:26:00",
          "duration": 103,
          "status": "Genuine",
          "associatedSiteId": 109676,
          "outfallName": "KINGS HALL HERNE BAY A",
          "isImpacting": true,
          "overFlowSiteId": 108096,
          "historicSpillsList": []
        }
      ]
    },
    {
      "id": 344779215,
      "eventId": 872294,
      "siteUnitNumber": 12618,
      "bathingSite": "RYDE",
      "eventStart": "2023-10-18T14:36:00",
      "eventStop": "2023-10-18T22:20:00",
      "duration": 464,
      "status": "Genuine",
      "associatedSiteId": 109778,
      "outfallName": "PRINCE CONSORT RYDE NEW",
      "isImpacting": true,
      "overFlowSiteId": 0,
      "historicSpillsList": [
        {
          "id": 344779215,
          "eventId": 872294,
          "siteUnitNumber": 12618,
          "bathingSite": "RYDE",
          "eventStart": "2023-10-18T14:36:00",
          "eventStop": "2023-10-18T22:20:00",
          "duration": 464,
          "status": "Genuine",
          "associatedSiteId": 109778,
          "outfallName": "PRINCE CONSORT RYDE NEW",
          "isImpacting": true,
          "overFlowSiteId": 108043
        }
      ]
    },
    {
      "id": 344773073,
      "eventId": 872875,
      "siteUnitNumber": 12549,
      "bathingSite": "HERNE BAY CENTRAL",
      "eventStart": "2023-10-18T17:00:00",
      "eventStop": "2023-10-18T22:18:00",
      "duration": 318,
      "status": "Not Genuine",
      "associatedSiteId": 109677,
      "outfallName": "EDDINGTON LANE HERNE BAY NO1",
      "isImpacting": false,
      "overFlowSiteId": 0,
      "historicSpillsList": []
    },
    {
      "id": 344772773,
      "eventId": 872989,
      "siteUnitNumber": 12556,
      "bathingSite": "MARGATE THE BAY",
      "eventStart": "2023-10-18T20:36:00",
      "eventStop": "2023-10-18T22:09:00",
      "duration": 93,
      "status": "Genuine",
      "associatedSiteId": 109673,
      "outfallName": "MARGATE NO1",
      "isImpacting": true,
      "overFlowSiteId": 0,
      "historicSpillsList": [
        {
          "id": 344772774,
          "eventId": 872989,
          "siteUnitNumber": 12557,
          "bathingSite": "MARGATE FULSAM ROCK",
          "eventStart": "2023-10-18T20:36:00",
          "eventStop": "2023-10-18T22:09:00",
          "duration": 93,
          "status": "Genuine",
          "associatedSiteId": 109673,
          "outfallName": "MARGATE NO1",
          "isImpacting": true,
          "overFlowSiteId": 116101,
          "historicSpillsList": []
        },
        {
          "id": 344772775,
          "eventId": 872989,
          "siteUnitNumber": 12558,
          "bathingSite": "WALPOLE BAY MARGATE",
          "eventStart": "2023-10-18T20:36:00",
          "eventStop": "2023-10-18T22:09:00",
          "duration": 93,
          "status": "Genuine",
          "associatedSiteId": 109673,
          "outfallName": "MARGATE NO1",
          "isImpacting": true,
          "overFlowSiteId": 116101,
          "historicSpillsList": []
        },
        {
          "id": 344772776,
          "eventId": 872989,
          "siteUnitNumber": 12559,
          "bathingSite": "BOTANY BAY BROADSTAIRS",
          "eventStart": "2023-10-18T20:36:00",
          "eventStop": "2023-10-18T22:09:00",
          "duration": 93,
          "status": "Genuine",
          "associatedSiteId": 109673,
          "outfallName": "MARGATE NO1",
          "isImpacting": true,
          "overFlowSiteId": 116101,
          "historicSpillsList": []
        }
      ]
    },
    {
      "id": 344773236,
      "eventId": 873210,
      "siteUnitNumber": 12549,
      "bathingSite": "HERNE BAY CENTRAL",
      "eventStart": "2023-10-18T22:03:00",
      "eventStop": "2023-10-18T22:06:00",
      "duration": 3,
      "status": "Genuine",
      "associatedSiteId": 109678,
      "outfallName": "EDDINGTON LANE HERNE BAY NO2",
      "isImpacting": false,
      "overFlowSiteId": 0,
      "historicSpillsList": []
    },
    {
      "id": 344790095,
      "eventId": 872708,
      "siteUnitNumber": 12621,
      "bathingSite": "BEMBRIDGE",
      "eventStart": "2023-10-18T17:26:00",
      "eventStop": "2023-10-18T22:06:00",
      "duration": 280,
      "status": "Genuine",
      "associatedSiteId": 109937,
      "outfallName": "HILLWAY BEMBRIDGE",
      "isImpacting": false,
      "overFlowSiteId": 0,
      "historicSpillsList": []
    },
    {
      "id": 344792569,
      "eventId": 872237,
      "siteUnitNumber": 12595,
      "bathingSite": "BOGNOR REGIS (ALDWICK)",
      "eventStart": "2023-10-18T14:00:00",
      "eventStop": "2023-10-18T21:58:41",
      "duration": 478,
      "status": "Genuine",
      "associatedSiteId": 109959,
      "outfallName": "WEST PARK BOGNOR REGIS",
      "isImpacting": true,
      "overFlowSiteId": 0,
      "historicSpillsList": [
        {
          "id": 344792577,
          "eventId": 872237,
          "siteUnitNumber": 12594,
          "bathingSite": "BOGNOR REGIS EAST",
          "eventStart": "2023-10-18T14:00:00",
          "eventStop": "2023-10-18T21:58:41",
          "duration": 478,
          "status": "Genuine",
          "associatedSiteId": 109959,
          "outfallName": "WEST PARK BOGNOR REGIS",
          "isImpacting": true,
          "overFlowSiteId": 108160,
          "historicSpillsList": []
        }
      ]
    },
    {
      "id": 344773224,
      "eventId": 873783,
      "siteUnitNumber": 12549,
      "bathingSite": "HERNE BAY CENTRAL",
      "eventStart": "2023-10-18T21:33:00",
      "eventStop": "2023-10-18T21:36:00",
      "duration": 3,
      "status": "Genuine",
      "associatedSiteId": 109678,
      "outfallName": "EDDINGTON LANE HERNE BAY NO2",
      "isImpacting": false,
      "overFlowSiteId": 0,
      "historicSpillsList": []
    },
    {
      "id": 344783539,
      "eventId": 872769,
      "siteUnitNumber": 12662,
      "bathingSite": "CHICHESTER HARBOUR",
      "eventStart": "2023-10-18T17:40:55",
      "eventStop": "2023-10-18T21:32:00",
      "duration": 231,
      "status": "Genuine",
      "associatedSiteId": 109850,
      "outfallName": "THORNHAM",
      "isImpacting": true,
      "overFlowSiteId": 0,
      "historicSpillsList": [
        {
          "id": 344783539,
          "eventId": 872769,
          "siteUnitNumber": 12662,
          "bathingSite": "CHICHESTER HARBOUR",
          "eventStart": "2023-10-18T17:40:55",
          "eventStop": "2023-10-18T21:32:00",
          "duration": 231,
          "status": "Genuine",
          "associatedSiteId": 109850,
          "outfallName": "THORNHAM",
          "isImpacting": true,
          "overFlowSiteId": 115369
        }
      ]
    },
    {
      "id": 344806643,
      "eventId": 873333,
      "siteUnitNumber": 12573,
      "bathingSite": "CAMBER",
      "eventStart": "2023-10-18T19:11:00",
      "eventStop": "2023-10-18T21:28:00",
      "duration": 137,
      "status": "Genuine",
      "associatedSiteId": 110958,
      "outfallName": "RYE",
      "isImpacting": false,
      "overFlowSiteId": 0,
      "historicSpillsList": []
    }
  ]
}