{
  "currentPage": 759,
  "totalItems": 21025,
  "totalPages": 841,
  "items": [
    {
      "id": 344826311,
      "eventId": 416790,
      "siteUnitNumber": 12544,
      "bathingSite": "SHEERNESS",
      "eventStart": "2021-06-04T14:08:24",
      "eventStop": "2021-06-04T15:06:12",
      "duration": 57,
      "status": "Genuine",
      "associatedSiteId": 109869,
      "outfallName": "GRAIN NO2",
      "isImpacting": true,
      "overFlowSiteId": 0,
      "historicSpillsList": [
        {
          "id": 344826311,
          "eventId": 416790,
          "siteUnitNumber": 12544,
          "bathingSite": "SHEERNESS",
          "eventStart": "2021-06-04T14:08:24",
          "eventStop": "2021-06-04T15:06:12",
          "duration": 57,
          "status": "Genuine",
          "associatedSiteId": 109869,
          "outfallName": "GRAIN NO2",
          "isImpacting": true,
          "overFlowSiteId": 115411
        }
      ]
    },
    {
      "id": 344812839,
      "eventId": 417143,
      "siteUnitNumber": 12544,
      "bathingSite": "SHEERNESS",
      "eventStart": "2021-06-04T14:34:00",
      "eventStop": "2021-06-04T14:52:00",
      "duration": 18,
      "status": "Genuine",
      "associatedSiteId": 109616,
      "outfallName": "SOUTH STREET QUEENBOROUGH",
      "isImpacting": true,
      "overFlowSiteId": 0,
      "historicSpillsList": [
        {
          "id": 344812839,
          "eventId": 417143,
          "siteUnitNumber": 12544,
          "bathingSite": "SHEERNESS",
          "eventStart": "2021-06-04T14:34:00",
          "eventStop": "2021-06-04T14:52:00",
          "duration": 18,
          "status": "Genuine",
          "associatedSiteId": 109616,
          "outfallName": "SOUTH STREET QUEENBOROUGH",
          "isImpacting": true,
          "overFlowSiteId": 108732
        }
      ]
    },
    {
      "id": 344853810,
      "eventId": 416806,
      "siteUnitNumber": 12614,
      "bathingSite": "TOTLAND BAY",
      "eventStart": "2021-06-04T14:38:50",
      "eventStop": "2021-06-04T14:47:27",
      "duration": 8,
      "status": "Under Review",
      "associatedSiteId": 115498,
      "outfallName": "NORTON TRANSFER IOW",
      "isImpacting": true,
      "overFlowSiteId": 0,
      "historicSpillsList": [
        {
          "id": 344853810,
          "eventId": 416806,
          "siteUnitNumber": 12614,
          "bathingSite": "TOTLAND BAY",
          "eventStart": "2021-06-04T14:38:50",
          "eventStop": "2021-06-04T14:47:27",
          "duration": 8,
          "status": "Under Review",
          "associatedSiteId": 115498,
          "outfallName": "NORTON TRANSFER IOW",
          "isImpacting": true,
          "overFlowSiteId": 108544
        },
        {
          "id": 344853811,
          "eventId": 416806,
          "siteUnitNumber": 12615,
          "bathingSite": "COLWELL BAY",
          "eventStart": "2021-06-04T14:38:50",
          "eventStop": "2021-06-04T14:47:27",
          "duration": 8,
          "status": "Under Review",
          "associatedSiteId": 115498,
          "outfallName": "NORTON TRANSFER IOW",
          "isImpacting": true,
          "overFlowSiteId": 108544,
          "historicSpillsList": []
        }
      ]
    },
    {
      "id": 344849159,
      "eventId": 416538,
      "siteUnitNumber": 12582,
      "bathingSite": "SEAFORD",
      "eventStart": "2021-06-04T09:13:15",
      "eventStop": "2021-06-04T14:25:19",
      "duration": 312,
      "status": "Genuine",
      "associatedSiteId": 110920,
      "outfallName": "NEWHAVEN",
      "isImpacting": true,
      "overFlowSiteId": 0,
      "historicSpillsList": [
        {
          "id": 344849159,
          "eventId": 416538,
          "siteUnitNumber": 12582,
          "bathingSite": "SEAFORD",
          "eventStart": "2021-06-04T09:13:15",
          "eventStop": "2021-06-04T14:25:19",
          "duration": 312,
          "status": "Genuine",
          "associatedSiteId": 110920,
          "outfallName": "NEWHAVEN",
          "isImpacting": true,
          "overFlowSiteId": 116065
        }
      ]
    },
    {
      "id": 344812838,
      "eventId": 417142,
      "siteUnitNumber": 12544,
      "bathingSite": "SHEERNESS",
      "eventStart": "2021-06-04T14:22:00",
      "eventStop": "2021-06-04T14:24:00",
      "duration": 2,
      "status": "Genuine",
      "associatedSiteId": 109616,
      "outfallName": "SOUTH STREET QUEENBOROUGH",
      "isImpacting": true,
      "overFlowSiteId": 0,
      "historicSpillsList": [
        {
          "id": 344812838,
          "eventId": 417142,
          "siteUnitNumber": 12544,
          "bathingSite": "SHEERNESS",
          "eventStart": "2021-06-04T14:22:00",
          "eventStop": "2021-06-04T14:24:00",
          "duration": 2,
          "status": "Genuine",
          "associatedSiteId": 109616,
          "outfallName": "SOUTH STREET QUEENBOROUGH",
          "isImpacting": true,
          "overFlowSiteId": 108732
        }
      ]
    },
    {
      "id": 344825582,
      "eventId": 416593,
      "siteUnitNumber": 12547,
      "bathingSite": "WEST BEACH WHITSTABLE",
      "eventStart": "2021-06-04T10:20:52",
      "eventStop": "2021-06-04T14:24:00",
      "duration": 243,
      "status": "Genuine",
      "associatedSiteId": 109832,
      "outfallName": "GORREL NO1",
      "isImpacting": true,
      "overFlowSiteId": 0,
      "historicSpillsList": [
        {
          "id": 344825582,
          "eventId": 416593,
          "siteUnitNumber": 12547,
          "bathingSite": "WEST BEACH WHITSTABLE",
          "eventStart": "2021-06-04T10:20:52",
          "eventStop": "2021-06-04T14:24:00",
          "duration": 243,
          "status": "Genuine",
          "associatedSiteId": 109832,
          "outfallName": "GORREL NO1",
          "isImpacting": true,
          "overFlowSiteId": 103279
        },
        {
          "id": 344825583,
          "eventId": 416593,
          "siteUnitNumber": 12548,
          "bathingSite": "TANKERTON",
          "eventStart": "2021-06-04T10:20:52",
          "eventStop": "2021-06-04T14:24:00",
          "duration": 243,
          "status": "Genuine",
          "associatedSiteId": 109832,
          "outfallName": "GORREL NO1",
          "isImpacting": true,
          "overFlowSiteId": 103279,
          "historicSpillsList": []
        }
      ]
    },
    {
      "id": 344812842,
      "eventId": 416781,
      "siteUnitNumber": 12544,
      "bathingSite": "SHEERNESS",
      "eventStart": "2021-06-04T14:00:00",
      "eventStop": "2021-06-04T14:02:00",
      "duration": 2,
      "status": "Genuine",
      "associatedSiteId": 109616,
      "outfallName": "SOUTH STREET QUEENBOROUGH",
      "isImpacting": true,
      "overFlowSiteId": 0,
      "historicSpillsList": [
        {
          "id": 344812842,
          "eventId": 416781,
          "siteUnitNumber": 12544,
          "bathingSite": "SHEERNESS",
          "eventStart": "2021-06-04T14:00:00",
          "eventStop": "2021-06-04T14:02:00",
          "duration": 2,
          "status": "Genuine",
          "associatedSiteId": 109616,
          "outfallName": "SOUTH STREET QUEENBOROUGH",
          "isImpacting": true,
          "overFlowSiteId": 108732
        }
      ]
    },
    {
      "id": 344853812,
      "eventId": 416785,
      "siteUnitNumber": 12614,
      "bathingSite": "TOTLAND BAY",
      "eventStart": "2021-06-04T13:40:37",
      "eventStop": "2021-06-04T13:53:00",
      "duration": 12,
      "status": "Under Review",
      "associatedSiteId": 115498,
      "outfallName": "NORTON TRANSFER IOW",
      "isImpacting": true,
      "overFlowSiteId": 0,
      "historicSpillsList": [
        {
          "id": 344853812,
          "eventId": 416785,
          "siteUnitNumber": 12614,
          "bathingSite": "TOTLAND BAY",
          "eventStart": "2021-06-04T13:40:37",
          "eventStop": "2021-06-04T13:53:00",
          "duration": 12,
          "status": "Under Review",
          "associatedSiteId": 115498,
          "outfallName": "NORTON TRANSFER IOW",
          "isImpacting": true,
          "overFlowSiteId": 108544
        },
        {
          "id": 344853813,
          "eventId": 416785,
          "siteUnitNumber": 12615,
          "bathingSite": "COLWELL BAY",
          "eventStart": "2021-06-04T13:40:37",
          "eventStop": "2021-06-04T13:53:00",
          "duration": 12,
          "status": "Under Review",
          "associatedSiteId": 115498,
          "outfallName": "NORTON TRANSFER IOW",
          "isImpacting": true,
          "overFlowSiteId": 108544,
          "historicSpillsList": []
        }
      ]
    },
    {
      "id": 344834476,
      "eventId": 416700,
      "siteUnitNumber": 12582,
      "bathingSite": "SEAFORD",
      "eventStart": "2021-06-04T11:13:43",
      "eventStop": "2021-06-04T13:49:24",
      "duration": 155,
      "status": "Genuine",
      "associatedSiteId": 109957,
      "outfallName": "PORTOBELLO BRIGHTON NO2",
      "isImpacting": true,
      "overFlowSiteId": 0,
      "historicSpillsList": [
        {
          "id": 344834476,
          "eventId": 416700,
          "siteUnitNumber": 12582,
          "bathingSite": "SEAFORD",
          "eventStart": "2021-06-04T11:13:43",
          "eventStop": "2021-06-04T13:49:24",
          "duration": 155,
          "status": "Genuine",
          "associatedSiteId": 109957,
          "outfallName": "PORTOBELLO BRIGHTON NO2",
          "isImpacting": true,
          "overFlowSiteId": 116012
        },
        {
          "id": 344834477,
          "eventId": 416700,
          "siteUnitNumber": 12583,
          "bathingSite": "SALTDEAN",
          "eventStart": "2021-06-04T11:13:43",
          "eventStop": "2021-06-04T13:49:24",
          "duration": 155,
          "status": "Genuine",
          "associatedSiteId": 109957,
          "outfallName": "PORTOBELLO BRIGHTON NO2",
          "isImpacting": true,
          "overFlowSiteId": 116012,
          "historicSpillsList": []
        }
      ]
    },
    {
      "id": 344838498,
      "eventId": 416651,
      "siteUnitNumber": 12591,
      "bathingSite": "LITTLEHAMPTON",
      "eventStart": "2021-06-04T11:02:51",
      "eventStop": "2021-06-04T13:38:41",
      "duration": 155,
      "status": "Genuine",
      "associatedSiteId": 109977,
      "outfallName": "FORESHORE TANK LITTLEHAMPTON",
      "isImpacting": true,
      "overFlowSiteId": 0,
      "historicSpillsList": [
        {
          "id": 344838498,
          "eventId": 416651,
          "siteUnitNumber": 12591,
          "bathingSite": "LITTLEHAMPTON",
          "eventStart": "2021-06-04T11:02:51",
          "eventStop": "2021-06-04T13:38:41",
          "duration": 155,
          "status": "Genuine",
          "associatedSiteId": 109977,
          "outfallName": "FORESHORE TANK LITTLEHAMPTON",
          "isImpacting": true,
          "overFlowSiteId": 109390
        }
      ]
    },
    {
      "id": 344828946,
      "eventId": 416581,
      "siteUnitNumber": 12568,
      "bathingSite": "SANDGATE",
      "eventStart": "2021-06-04T10:04:00",
      "eventStop": "2021-06-04T13:37:00",
      "duration": 213,
      "status": "Genuine",
      "associatedSiteId": 109897,
      "outfallName": "RANGE ROAD HYTHE K LONG",
      "isImpacting": true,
      "overFlowSiteId": 0,
      "historicSpillsList": [
        {
          "id": 344828946,
          "eventId": 416581,
          "siteUnitNumber": 12568,
          "bathingSite": "SANDGATE",
          "eventStart": "2021-06-04T10:04:00",
          "eventStop": "2021-06-04T13:37:00",
          "duration": 213,
          "status": "Genuine",
          "associatedSiteId": 109897,
          "outfallName": "RANGE ROAD HYTHE K LONG",
          "isImpacting": true,
          "overFlowSiteId": 116048
        },
        {
          "id": 344828947,
          "eventId": 416581,
          "siteUnitNumber": 12569,
          "bathingSite": "HYTHE",
          "eventStart": "2021-06-04T10:04:00",
          "eventStop": "2021-06-04T13:37:00",
          "duration": 213,
          "status": "Genuine",
          "associatedSiteId": 109897,
          "outfallName": "RANGE ROAD HYTHE K LONG",
          "isImpacting": true,
          "overFlowSiteId": 116048,
          "historicSpillsList": []
        }
      ]
    },
    {
      "id": 344826312,
      "eventId": 416746,
      "siteUnitNumber": 12544,
      "bathingSite": "SHEERNESS",
      "eventStart": "2021-06-04T12:41:00",
      "eventStop": "2021-06-04T13:22:00",
      "duration": 41,
      "status": "Genuine",
      "associatedSiteId": 109869,
      "outfallName": "GRAIN NO2",
      "isImpacting": true,
      "overFlowSiteId": 0,
      "historicSpillsList": [
        {
          "id": 344826312,
          "eventId": 416746,
          "siteUnitNumber": 12544,
          "bathingSite": "SHEERNESS",
          "eventStart": "2021-06-04T12:41:00",
          "eventStop": "2021-06-04T13:22:00",
          "duration": 41,
          "status": "Genuine",
          "associatedSiteId": 109869,
          "outfallName": "GRAIN NO2",
          "isImpacting": true,
          "overFlowSiteId": 115411
        }
      ]
    },
    {
      "id": 344812841,
      "eventId": 416750,
      "siteUnitNumber": 12544,
      "bathingSite": "SHEERNESS",
      "eventStart": "2021-06-04T12:45:00",
      "eventStop": "2021-06-04T12:56:00",
      "duration": 11,
      "status": "Genuine",
      "associatedSiteId": 109616,
      "outfallName": "SOUTH STREET QUEENBOROUGH",
      "isImpacting": true,
      "overFlowSiteId": 0,
      "historicSpillsList": [
        {
          "id": 344812841,
          "eventId": 416750,
          "siteUnitNumber": 12544,
          "bathingSite": "SHEERNESS",
          "eventStart": "2021-06-04T12:45:00",
          "eventStop": "2021-06-04T12:56:00",
          "duration": 11,
          "status": "Genuine",
          "associatedSiteId": 109616,
          "outfallName": "SOUTH STREET QUEENBOROUGH",
          "isImpacting": true,
          "overFlowSiteId": 108732
        }
      ]
    },
    {
      "id": 344825381,
      "eventId": 416748,
      "siteUnitNumber": 12547,
      "bathingSite": "WEST BEACH WHITSTABLE",
      "eventStart": "2021-06-04T12:39:45",
      "eventStop": "2021-06-04T12:55:00",
      "duration": 15,
      "status": "Genuine",
      "associatedSiteId": 109831,
      "outfallName": "TANKERTON CIRCUS",
      "isImpacting": true,
      "overFlowSiteId": 0,
      "historicSpillsList": [
        {
          "id": 344825381,
          "eventId": 416748,
          "siteUnitNumber": 12547,
          "bathingSite": "WEST BEACH WHITSTABLE",
          "eventStart": "2021-06-04T12:39:45",
          "eventStop": "2021-06-04T12:55:00",
          "duration": 15,
          "status": "Genuine",
          "associatedSiteId": 109831,
          "outfallName": "TANKERTON CIRCUS",
          "isImpacting": true,
          "overFlowSiteId": 103281
        },
        {
          "id": 344825382,
          "eventId": 416748,
          "siteUnitNumber": 12548,
          "bathingSite": "TANKERTON",
          "eventStart": "2021-06-04T12:39:45",
          "eventStop": "2021-06-04T12:55:00",
          "duration": 15,
          "status": "Genuine",
          "associatedSiteId": 109831,
          "outfallName": "TANKERTON CIRCUS",
          "isImpacting": true,
          "overFlowSiteId": 103281,
          "historicSpillsList": []
        }
      ]
    },
    {
      "id": 344812843,
      "eventId": 416734,
      "siteUnitNumber": 12544,
      "bathingSite": "SHEERNESS",
      "eventStart": "2021-06-04T12:35:43",
      "eventStop": "2021-06-04T12:37:51",
      "duration": 2,
      "status": "Genuine",
      "associatedSiteId": 109616,
      "outfallName": "SOUTH STREET QUEENBOROUGH",
      "isImpacting": true,
      "overFlowSiteId": 0,
      "historicSpillsList": [
        {
          "id": 344812843,
          "eventId": 416734,
          "siteUnitNumber": 12544,
          "bathingSite": "SHEERNESS",
          "eventStart": "2021-06-04T12:35:43",
          "eventStop": "2021-06-04T12:37:51",
          "duration": 2,
          "status": "Genuine",
          "associatedSiteId": 109616,
          "outfallName": "SOUTH STREET QUEENBOROUGH",
          "isImpacting": true,
          "overFlowSiteId": 108732
        }
      ]
    },
    {
      "id": 344853814,
      "eventId": 416720,
      "siteUnitNumber": 12615,
      "bathingSite": "COLWELL BAY",
      "eventStart": "2021-06-04T12:18:00",
      "eventStop": "2021-06-04T12:26:03",
      "duration": 8,
      "status": "Under Review",
      "associatedSiteId": 115498,
      "outfallName": "NORTON TRANSFER IOW",
      "isImpacting": true,
      "overFlowSiteId": 0,
      "historicSpillsList": [
        {
          "id": 344853814,
          "eventId": 416720,
          "siteUnitNumber": 12615,
          "bathingSite": "COLWELL BAY",
          "eventStart": "2021-06-04T12:18:00",
          "eventStop": "2021-06-04T12:26:03",
          "duration": 8,
          "status": "Under Review",
          "associatedSiteId": 115498,
          "outfallName": "NORTON TRANSFER IOW",
          "isImpacting": true,
          "overFlowSiteId": 108544
        },
        {
          "id": 344853815,
          "eventId": 416720,
          "siteUnitNumber": 12614,
          "bathingSite": "TOTLAND BAY",
          "eventStart": "2021-06-04T12:18:00",
          "eventStop": "2021-06-04T12:26:03",
          "duration": 8,
          "status": "Under Review",
          "associatedSiteId": 115498,
          "outfallName": "NORTON TRANSFER IOW",
          "isImpacting": true,
          "overFlowSiteId": 108544,
          "historicSpillsList": []
        }
      ]
    },
    {
      "id": 344812840,
      "eventId": 417141,
      "siteUnitNumber": 12544,
      "bathingSite": "SHEERNESS",
      "eventStart": "2021-06-04T12:16:00",
      "eventStop": "2021-06-04T12:18:00",
      "duration": 2,
      "status": "Genuine",
      "associatedSiteId": 109616,
      "outfallName": "SOUTH STREET QUEENBOROUGH",
      "isImpacting": true,
      "overFlowSiteId": 0,
      "historicSpillsList": [
        {
          "id": 344812840,
          "eventId": 417141,
          "siteUnitNumber": 12544,
          "bathingSite": "SHEERNESS",
          "eventStart": "2021-06-04T12:16:00",
          "eventStop": "2021-06-04T12:18:00",
          "duration": 2,
          "status": "Genuine",
          "associatedSiteId": 109616,
          "outfallName": "SOUTH STREET QUEENBOROUGH",
          "isImpacting": true,
          "overFlowSiteId": 108732
        }
      ]
    },
    {
      "id": 344853816,
      "eventId": 416665,
      "siteUnitNumber": 12614,
      "bathingSite": "TOTLAND BAY",
      "eventStart": "2021-06-04T11:36:34",
      "eventStop": "2021-06-04T11:50:17",
      "duration": 13,
      "status": "Under Review",
      "associatedSiteId": 115498,
      "outfallName": "NORTON TRANSFER IOW",
      "isImpacting": true,
      "overFlowSiteId": 0,
      "historicSpillsList": [
        {
          "id": 344853816,
          "eventId": 416665,
          "siteUnitNumber": 12614,
          "bathingSite": "TOTLAND BAY",
          "eventStart": "2021-06-04T11:36:34",
          "eventStop": "2021-06-04T11:50:17",
          "duration": 13,
          "status": "Under Review",
          "associatedSiteId": 115498,
          "outfallName": "NORTON TRANSFER IOW",
          "isImpacting": true,
          "overFlowSiteId": 108544
        },
        {
          "id": 344853817,
          "eventId": 416665,
          "siteUnitNumber": 12615,
          "bathingSite": "COLWELL BAY",
          "eventStart": "2021-06-04T11:36:34",
          "eventStop": "2021-06-04T11:50:17",
          "duration": 13,
          "status": "Under Review",
          "associatedSiteId": 115498,
          "outfallName": "NORTON TRANSFER IOW",
          "isImpacting": true,
          "overFlowSiteId": 108544,
          "historicSpillsList": []
        }
      ]
    },
    {
      "id": 344812844,
      "eventId": 416633,
      "siteUnitNumber": 12544,
      "bathingSite": "SHEERNESS",
      "eventStart": "2021-06-04T11:44:00",
      "eventStop": "2021-06-04T11:46:00",
      "duration": 2,
      "status": "Genuine",
      "associatedSiteId": 109616,
      "outfallName": "SOUTH STREET QUEENBOROUGH",
      "isImpacting": true,
      "overFlowSiteId": 0,
      "historicSpillsList": [
        {
          "id": 344812844,
          "eventId": 416633,
          "siteUnitNumber": 12544,
          "bathingSite": "SHEERNESS",
          "eventStart": "2021-06-04T11:44:00",
          "eventStop": "2021-06-04T11:46:00",
          "duration": 2,
          "status": "Genuine",
          "associatedSiteId": 109616,
          "outfallName": "SOUTH STREET QUEENBOROUGH",
          "isImpacting": true,
          "overFlowSiteId": 108732
        }
      ]
    },
    {
      "id": 344832406,
      "eventId": 416618,
      "siteUnitNumber": 12586,
      "bathingSite": "HOVE",
      "eventStart": "2021-06-04T10:36:59",
      "eventStop": "2021-06-04T11:34:37",
      "duration": 57,
      "status": "Genuine",
      "associatedSiteId": 109929,
      "outfallName": "SHOREHAM NO1",
      "isImpacting": true,
      "overFlowSiteId": 0,
      "historicSpillsList": [
        {
          "id": 344832406,
          "eventId": 416618,
          "siteUnitNumber": 12586,
          "bathingSite": "HOVE",
          "eventStart": "2021-06-04T10:36:59",
          "eventStop": "2021-06-04T11:34:37",
          "duration": 57,
          "status": "Genuine",
          "associatedSiteId": 109929,
          "outfallName": "SHOREHAM NO1",
          "isImpacting": true,
          "overFlowSiteId": 115434
        },
        {
          "id": 344832401,
          "eventId": 416618,
          "siteUnitNumber": 12587,
          "bathingSite": "SOUTHWICK",
          "eventStart": "2021-06-04T10:36:59",
          "eventStop": "2021-06-04T11:34:37",
          "duration": 57,
          "status": "Genuine",
          "associatedSiteId": 109929,
          "outfallName": "SHOREHAM NO1",
          "isImpacting": true,
          "overFlowSiteId": 115434,
          "historicSpillsList": []
        },
        {
          "id": 344832402,
          "eventId": 416618,
          "siteUnitNumber": 12588,
          "bathingSite": "SHOREHAM BEACH",
          "eventStart": "2021-06-04T10:36:59",
          "eventStop": "2021-06-04T11:34:37",
          "duration": 57,
          "status": "Genuine",
          "associatedSiteId": 109929,
          "outfallName": "SHOREHAM NO1",
          "isImpacting": true,
          "overFlowSiteId": 115434,
          "historicSpillsList": []
        }
      ]
    },
    {
      "id": 344834472,
      "eventId": 416807,
      "siteUnitNumber": 12582,
      "bathingSite": "SEAFORD",
      "eventStart": "2021-06-04T09:27:00",
      "eventStop": "2021-06-04T10:58:00",
      "duration": 91,
      "status": "Genuine",
      "associatedSiteId": 109957,
      "outfallName": "PORTOBELLO BRIGHTON NO2",
      "isImpacting": true,
      "overFlowSiteId": 0,
      "historicSpillsList": [
        {
          "id": 344834472,
          "eventId": 416807,
          "siteUnitNumber": 12582,
          "bathingSite": "SEAFORD",
          "eventStart": "2021-06-04T09:27:00",
          "eventStop": "2021-06-04T10:58:00",
          "duration": 91,
          "status": "Genuine",
          "associatedSiteId": 109957,
          "outfallName": "PORTOBELLO BRIGHTON NO2",
          "isImpacting": true,
          "overFlowSiteId": 116036
        },
        {
          "id": 344834473,
          "eventId": 416807,
          "siteUnitNumber": 12583,
          "bathingSite": "SALTDEAN",
          "eventStart": "2021-06-04T09:27:00",
          "eventStop": "2021-06-04T10:58:00",
          "duration": 91,
          "status": "Genuine",
          "associatedSiteId": 109957,
          "outfallName": "PORTOBELLO BRIGHTON NO2",
          "isImpacting": true,
          "overFlowSiteId": 116036,
          "historicSpillsList": []
        }
      ]
    },
    {
      "id": 344821440,
      "eventId": 416570,
      "siteUnitNumber": 12617,
      "bathingSite": "COWES",
      "eventStart": "2021-06-04T10:14:23",
      "eventStop": "2021-06-04T10:45:00",
      "duration": 30,
      "status": "Genuine",
      "associatedSiteId": 109777,
      "outfallName": "APPLEY PARK RYDE TRANSFER",
      "isImpacting": true,
      "overFlowSiteId": 0,
      "historicSpillsList": [
        {
          "id": 344821440,
          "eventId": 416570,
          "siteUnitNumber": 12617,
          "bathingSite": "COWES",
          "eventStart": "2021-06-04T10:14:23",
          "eventStop": "2021-06-04T10:45:00",
          "duration": 30,
          "status": "Genuine",
          "associatedSiteId": 109777,
          "outfallName": "APPLEY PARK RYDE TRANSFER",
          "isImpacting": true,
          "overFlowSiteId": 108941
        },
        {
          "id": 344821441,
          "eventId": 416570,
          "siteUnitNumber": 12618,
          "bathingSite": "RYDE",
          "eventStart": "2021-06-04T10:14:23",
          "eventStop": "2021-06-04T10:45:00",
          "duration": 30,
          "status": "Genuine",
          "associatedSiteId": 109777,
          "outfallName": "APPLEY PARK RYDE TRANSFER",
          "isImpacting": true,
          "overFlowSiteId": 108941,
          "historicSpillsList": []
        }
      ]
    },
    {
      "id": 344825384,
      "eventId": 416565,
      "siteUnitNumber": 12547,
      "bathingSite": "WEST BEACH WHITSTABLE",
      "eventStart": "2021-06-04T09:37:19",
      "eventStop": "2021-06-04T10:10:24",
      "duration": 33,
      "status": "Genuine",
      "associatedSiteId": 109831,
      "outfallName": "TANKERTON CIRCUS",
      "isImpacting": true,
      "overFlowSiteId": 0,
      "historicSpillsList": [
        {
          "id": 344825384,
          "eventId": 416565,
          "siteUnitNumber": 12547,
          "bathingSite": "WEST BEACH WHITSTABLE",
          "eventStart": "2021-06-04T09:37:19",
          "eventStop": "2021-06-04T10:10:24",
          "duration": 33,
          "status": "Genuine",
          "associatedSiteId": 109831,
          "outfallName": "TANKERTON CIRCUS",
          "isImpacting": true,
          "overFlowSiteId": 103281
        },
        {
          "id": 344825385,
          "eventId": 416565,
          "siteUnitNumber": 12548,
          "bathingSite": "TANKERTON",
          "eventStart": "2021-06-04T09:37:19",
          "eventStop": "2021-06-04T10:10:24",
          "duration": 33,
          "status": "Genuine",
          "associatedSiteId": 109831,
          "outfallName": "TANKERTON CIRCUS",
          "isImpacting": true,
          "overFlowSiteId": 103281,
          "historicSpillsList": []
        }
      ]
    },
    {
      "id": 344821442,
      "eventId": 416480,
      "siteUnitNumber": 12617,
      "bathingSite": "COWES",
      "eventStart": "2021-06-04T08:22:27",
      "eventStop": "2021-06-04T10:08:11",
      "duration": 105,
      "status": "Genuine",
      "associatedSiteId": 109777,
      "outfallName": "APPLEY PARK RYDE TRANSFER",
      "isImpacting": true,
      "overFlowSiteId": 0,
      "historicSpillsList": [
        {
          "id": 344821442,
          "eventId": 416480,
          "siteUnitNumber": 12617,
          "bathingSite": "COWES",
          "eventStart": "2021-06-04T08:22:27",
          "eventStop": "2021-06-04T10:08:11",
          "duration": 105,
          "status": "Genuine",
          "associatedSiteId": 109777,
          "outfallName": "APPLEY PARK RYDE TRANSFER",
          "isImpacting": true,
          "overFlowSiteId": 108941
        },
        {
          "id": 344821443,
          "eventId": 416480,
          "siteUnitNumber": 12618,
          "bathingSite": "RYDE",
          "eventStart": "2021-06-04T08:22:27",
          "eventStop": "2021-06-04T10:08:11",
          "duration": 105,
          "status": "Genuine",
          "associatedSiteId": 109777,
          "outfallName": "APPLEY PARK RYDE TRANSFER",
          "isImpacting": true,
          "overFlowSiteId": 108941,
          "historicSpillsList": []
        }
      ]
    },
    {
      "id": 344853818,
      "eventId": 416552,
      "siteUnitNumber": 12614,
      "bathingSite": "TOTLAND BAY",
      "eventStart": "2021-06-04T09:51:06",
      "eventStop": "2021-06-04T10:03:34",
      "duration": 12,
      "status": "Under Review",
      "associatedSiteId": 115498,
      "outfallName": "NORTON TRANSFER IOW",
      "isImpacting": true,
      "overFlowSiteId": 0,
      "historicSpillsList": [
        {
          "id": 344853818,
          "eventId": 416552,
          "siteUnitNumber": 12614,
          "bathingSite": "TOTLAND BAY",
          "eventStart": "2021-06-04T09:51:06",
          "eventStop": "2021-06-04T10:03:34",
          "duration": 12,
          "status": "Under Review",
          "associatedSiteId": 115498,
          "outfallName": "NORTON TRANSFER IOW",
          "isImpacting": true,
          "overFlowSiteId": 108544
        },
        {
          "id": 344853819,
          "eventId": 416552,
          "siteUnitNumber": 12615,
          "bathingSite": "COLWELL BAY",
          "eventStart": "2021-06-04T09:51:06",
          "eventStop": "2021-06-04T10:03:34",
          "duration": 12,
          "status": "Under Review",
          "associatedSiteId": 115498,
          "outfallName": "NORTON TRANSFER IOW",
          "isImpacting": true,
          "overFlowSiteId": 108544,
          "historicSpillsList": []
        }
      ]
    }
  ]
}