{
  "currentPage": 227,
  "totalItems": 21025,
  "totalPages": 841,
  "items": [
    {
      "id": 344781616,
      "eventId": 851390,
      "siteUnitNumber": 12548,
      "bathingSite": "TANKERTON",
      "eventStart": "2023-08-24T16:37:06",
      "eventStop": "2023-08-24T19:30:00",
      "duration": 172,
      "status": "Genuine",
      "associatedSiteId": 109830,
      "outfallName": "SWALECLIFFE NO1",
      "isImpacting": false,
      "overFlowSiteId": 0,
      "historicSpillsList": []
    },
    {
      "id": 344794490,
      "eventId": 851276,
      "siteUnitNumber": 12591,
      "bathingSite": "LITTLEHAMPTON",
      "eventStart": "2023-08-24T14:19:25",
      "eventStop": "2023-08-24T19:15:00",
      "duration": 295,
      "status": "Not Genuine",
      "associatedSiteId": 109965,
      "outfallName": "SEA ROAD LITTLEHAMPTON",
      "isImpacting": false,
      "overFlowSiteId": 0,
      "historicSpillsList": []
    },
    {
      "id": 344777940,
      "eventId": 851696,
      "siteUnitNumber": 12617,
      "bathingSite": "COWES",
      "eventStart": "2023-08-24T18:58:00",
      "eventStop": "2023-08-24T19:03:00",
      "duration": 5,
      "status": "Genuine",
      "associatedSiteId": 109777,
      "outfallName": "APPLEY PARK RYDE TRANSFER",
      "isImpacting": false,
      "overFlowSiteId": 0,
      "historicSpillsList": []
    },
    {
      "id": 344790019,
      "eventId": 851394,
      "siteUnitNumber": 12581,
      "bathingSite": "BIRLING GAP",
      "eventStart": "2023-08-24T17:34:00",
      "eventStop": "2023-08-24T18:36:00",
      "duration": 62,
      "status": "Genuine",
      "associatedSiteId": 109936,
      "outfallName": "EAST DEAN",
      "isImpacting": true,
      "overFlowSiteId": 0,
      "historicSpillsList": [
        {
          "id": 344790019,
          "eventId": 851394,
          "siteUnitNumber": 12581,
          "bathingSite": "BIRLING GAP",
          "eventStart": "2023-08-24T17:34:00",
          "eventStop": "2023-08-24T18:36:00",
          "duration": 62,
          "status": "Genuine",
          "associatedSiteId": 109936,
          "outfallName": "EAST DEAN",
          "isImpacting": true,
          "overFlowSiteId": 115829
        }
      ]
    },
    {
      "id": 344783757,
      "eventId": 851492,
      "siteUnitNumber": 12579,
      "bathingSite": "PEVENSEY BAY",
      "eventStart": "2023-08-24T17:50:00",
      "eventStop": "2023-08-24T18:27:00",
      "duration": 37,
      "status": "Genuine",
      "associatedSiteId": 109888,
      "outfallName": "EASTBOURNE NO 2",
      "isImpacting": true,
      "overFlowSiteId": 0,
      "historicSpillsList": [
        {
          "id": 344783758,
          "eventId": 851492,
          "siteUnitNumber": 12580,
          "bathingSite": "EASTBOURNE",
          "eventStart": "2023-08-24T17:50:00",
          "eventStop": "2023-08-24T18:27:00",
          "duration": 37,
          "status": "Genuine",
          "associatedSiteId": 109888,
          "outfallName": "EASTBOURNE NO 2",
          "isImpacting": true,
          "overFlowSiteId": 115459,
          "historicSpillsList": []
        }
      ]
    },
    {
      "id": 344777942,
      "eventId": 851277,
      "siteUnitNumber": 12617,
      "bathingSite": "COWES",
      "eventStart": "2023-08-24T14:20:57",
      "eventStop": "2023-08-24T18:23:00",
      "duration": 242,
      "status": "Genuine",
      "associatedSiteId": 109777,
      "outfallName": "APPLEY PARK RYDE TRANSFER",
      "isImpacting": true,
      "overFlowSiteId": 0,
      "historicSpillsList": [
        {
          "id": 344777943,
          "eventId": 851277,
          "siteUnitNumber": 12618,
          "bathingSite": "RYDE",
          "eventStart": "2023-08-24T14:20:57",
          "eventStop": "2023-08-24T18:23:00",
          "duration": 242,
          "status": "Genuine",
          "associatedSiteId": 109777,
          "outfallName": "APPLEY PARK RYDE TRANSFER",
          "isImpacting": true,
          "overFlowSiteId": 108941,
          "historicSpillsList": []
        }
      ]
    },
    {
      "id": 344811919,
      "eventId": 851506,
      "siteUnitNumber": 12577,
      "bathingSite": "BEXHILL",
      "eventStart": "2023-08-24T17:07:58",
      "eventStop": "2023-08-24T18:13:00",
      "duration": 65,
      "status": "Genuine",
      "associatedSiteId": 115504,
      "outfallName": "HARTFIELD ROAD BEXHILL",
      "isImpacting": false,
      "overFlowSiteId": 0,
      "historicSpillsList": []
    },
    {
      "id": 344797759,
      "eventId": 851417,
      "siteUnitNumber": 12582,
      "bathingSite": "SEAFORD",
      "eventStart": "2023-08-24T16:54:40",
      "eventStop": "2023-08-24T17:39:22",
      "duration": 44,
      "status": "Genuine",
      "associatedSiteId": 110047,
      "outfallName": "CLIFF END SEAFORD",
      "isImpacting": true,
      "overFlowSiteId": 0,
      "historicSpillsList": [
        {
          "id": 344797759,
          "eventId": 851417,
          "siteUnitNumber": 12582,
          "bathingSite": "SEAFORD",
          "eventStart": "2023-08-24T16:54:40",
          "eventStop": "2023-08-24T17:39:22",
          "duration": 44,
          "status": "Genuine",
          "associatedSiteId": 110047,
          "outfallName": "CLIFF END SEAFORD",
          "isImpacting": true,
          "overFlowSiteId": 101257
        }
      ]
    },
    {
      "id": 344790841,
      "eventId": 879535,
      "siteUnitNumber": 12575,
      "bathingSite": "HASTINGS PELHAM BEACH",
      "eventStart": "2023-08-24T17:25:00",
      "eventStop": "2023-08-24T17:34:00",
      "duration": 9,
      "status": "Genuine",
      "associatedSiteId": 109950,
      "outfallName": "ST HELENS DOWN HASTINGS",
      "isImpacting": false,
      "overFlowSiteId": 0,
      "historicSpillsList": []
    },
    {
      "id": 344791478,
      "eventId": 851280,
      "siteUnitNumber": 12582,
      "bathingSite": "SEAFORD",
      "eventStart": "2023-08-24T14:42:00",
      "eventStop": "2023-08-24T17:34:00",
      "duration": 172,
      "status": "Genuine",
      "associatedSiteId": 109957,
      "outfallName": "PORTOBELLO BRIGHTON NO2",
      "isImpacting": false,
      "overFlowSiteId": 0,
      "historicSpillsList": []
    },
    {
      "id": 344790871,
      "eventId": 851441,
      "siteUnitNumber": 12575,
      "bathingSite": "HASTINGS PELHAM BEACH",
      "eventStart": "2023-08-24T17:17:45",
      "eventStop": "2023-08-24T17:25:00",
      "duration": 7,
      "status": "Genuine",
      "associatedSiteId": 109950,
      "outfallName": "ST HELENS DOWN HASTINGS",
      "isImpacting": false,
      "overFlowSiteId": 0,
      "historicSpillsList": []
    },
    {
      "id": 344783855,
      "eventId": 851419,
      "siteUnitNumber": 12579,
      "bathingSite": "PEVENSEY BAY",
      "eventStart": "2023-08-24T17:00:56",
      "eventStop": "2023-08-24T17:20:02",
      "duration": 19,
      "status": "Genuine",
      "associatedSiteId": 109889,
      "outfallName": "RATTLE ROAD WESTHAM",
      "isImpacting": false,
      "overFlowSiteId": 0,
      "historicSpillsList": []
    },
    {
      "id": 344809538,
      "eventId": 851278,
      "siteUnitNumber": 12614,
      "bathingSite": "TOTLAND BAY",
      "eventStart": "2023-08-24T14:30:00",
      "eventStop": "2023-08-24T16:13:00",
      "duration": 103,
      "status": "Genuine",
      "associatedSiteId": 115498,
      "outfallName": "NORTON TRANSFER IOW",
      "isImpacting": true,
      "overFlowSiteId": 0,
      "historicSpillsList": [
        {
          "id": 344809538,
          "eventId": 851278,
          "siteUnitNumber": 12614,
          "bathingSite": "TOTLAND BAY",
          "eventStart": "2023-08-24T14:30:00",
          "eventStop": "2023-08-24T16:13:00",
          "duration": 103,
          "status": "Genuine",
          "associatedSiteId": 115498,
          "outfallName": "NORTON TRANSFER IOW",
          "isImpacting": true,
          "overFlowSiteId": 109524
        },
        {
          "id": 344809539,
          "eventId": 851278,
          "siteUnitNumber": 12615,
          "bathingSite": "COLWELL BAY",
          "eventStart": "2023-08-24T14:30:00",
          "eventStop": "2023-08-24T16:13:00",
          "duration": 103,
          "status": "Genuine",
          "associatedSiteId": 115498,
          "outfallName": "NORTON TRANSFER IOW",
          "isImpacting": true,
          "overFlowSiteId": 109524,
          "historicSpillsList": []
        }
      ]
    },
    {
      "id": 344775169,
      "eventId": 851346,
      "siteUnitNumber": 12616,
      "bathingSite": "GURNARD",
      "eventStart": "2023-08-24T15:52:00",
      "eventStop": "2023-08-24T16:12:00",
      "duration": 20,
      "status": "Genuine",
      "associatedSiteId": 109705,
      "outfallName": "SPRINGHILL COWES TRANSFER",
      "isImpacting": true,
      "overFlowSiteId": 0,
      "historicSpillsList": [
        {
          "id": 344775170,
          "eventId": 851346,
          "siteUnitNumber": 12617,
          "bathingSite": "COWES",
          "eventStart": "2023-08-24T15:52:00",
          "eventStop": "2023-08-24T16:12:00",
          "duration": 20,
          "status": "Genuine",
          "associatedSiteId": 109705,
          "outfallName": "SPRINGHILL COWES TRANSFER",
          "isImpacting": true,
          "overFlowSiteId": 108943,
          "historicSpillsList": []
        }
      ]
    },
    {
      "id": 344797760,
      "eventId": 851320,
      "siteUnitNumber": 12582,
      "bathingSite": "SEAFORD",
      "eventStart": "2023-08-24T15:17:03",
      "eventStop": "2023-08-24T15:39:20",
      "duration": 22,
      "status": "Genuine",
      "associatedSiteId": 110047,
      "outfallName": "CLIFF END SEAFORD",
      "isImpacting": true,
      "overFlowSiteId": 0,
      "historicSpillsList": [
        {
          "id": 344797760,
          "eventId": 851320,
          "siteUnitNumber": 12582,
          "bathingSite": "SEAFORD",
          "eventStart": "2023-08-24T15:17:03",
          "eventStop": "2023-08-24T15:39:20",
          "duration": 22,
          "status": "Genuine",
          "associatedSiteId": 110047,
          "outfallName": "CLIFF END SEAFORD",
          "isImpacting": true,
          "overFlowSiteId": 101257
        }
      ]
    },
    {
      "id": 344773751,
      "eventId": 851234,
      "siteUnitNumber": 12616,
      "bathingSite": "GURNARD",
      "eventStart": "2023-08-24T13:18:56",
      "eventStop": "2023-08-24T14:28:41",
      "duration": 69,
      "status": "Genuine",
      "associatedSiteId": 109700,
      "outfallName": "MARKET HILL COWES",
      "isImpacting": false,
      "overFlowSiteId": 0,
      "historicSpillsList": []
    },
    {
      "id": 344804827,
      "eventId": 851231,
      "siteUnitNumber": 12616,
      "bathingSite": "GURNARD",
      "eventStart": "2023-08-24T13:04:00",
      "eventStop": "2023-08-24T14:14:00",
      "duration": 70,
      "status": "Genuine",
      "associatedSiteId": 110701,
      "outfallName": "TERMINUS ROAD COWES 2",
      "isImpacting": true,
      "overFlowSiteId": 0,
      "historicSpillsList": [
        {
          "id": 344804827,
          "eventId": 851231,
          "siteUnitNumber": 12616,
          "bathingSite": "GURNARD",
          "eventStart": "2023-08-24T13:04:00",
          "eventStop": "2023-08-24T14:14:00",
          "duration": 70,
          "status": "Genuine",
          "associatedSiteId": 110701,
          "outfallName": "TERMINUS ROAD COWES 2",
          "isImpacting": true,
          "overFlowSiteId": 108562
        },
        {
          "id": 344804828,
          "eventId": 851231,
          "siteUnitNumber": 12617,
          "bathingSite": "COWES",
          "eventStart": "2023-08-24T13:04:00",
          "eventStop": "2023-08-24T14:14:00",
          "duration": 70,
          "status": "Genuine",
          "associatedSiteId": 110701,
          "outfallName": "TERMINUS ROAD COWES 2",
          "isImpacting": true,
          "overFlowSiteId": 108562,
          "historicSpillsList": []
        }
      ]
    },
    {
      "id": 344804829,
      "eventId": 851226,
      "siteUnitNumber": 12616,
      "bathingSite": "GURNARD",
      "eventStart": "2023-08-24T13:18:00",
      "eventStop": "2023-08-24T14:11:00",
      "duration": 53,
      "status": "Genuine",
      "associatedSiteId": 110701,
      "outfallName": "TERMINUS ROAD COWES 2",
      "isImpacting": true,
      "overFlowSiteId": 0,
      "historicSpillsList": [
        {
          "id": 344804829,
          "eventId": 851226,
          "siteUnitNumber": 12616,
          "bathingSite": "GURNARD",
          "eventStart": "2023-08-24T13:18:00",
          "eventStop": "2023-08-24T14:11:00",
          "duration": 53,
          "status": "Genuine",
          "associatedSiteId": 110701,
          "outfallName": "TERMINUS ROAD COWES 2",
          "isImpacting": true,
          "overFlowSiteId": 108563
        },
        {
          "id": 344804830,
          "eventId": 851226,
          "siteUnitNumber": 12617,
          "bathingSite": "COWES",
          "eventStart": "2023-08-24T13:18:00",
          "eventStop": "2023-08-24T14:11:00",
          "duration": 53,
          "status": "Genuine",
          "associatedSiteId": 110701,
          "outfallName": "TERMINUS ROAD COWES 2",
          "isImpacting": true,
          "overFlowSiteId": 108563,
          "historicSpillsList": []
        }
      ]
    },
    {
      "id": 344774777,
      "eventId": 851279,
      "siteUnitNumber": 12616,
      "bathingSite": "GURNARD",
      "eventStart": "2023-08-24T13:59:00",
      "eventStop": "2023-08-24T14:03:00",
      "duration": 4,
      "status": "Genuine",
      "associatedSiteId": 109704,
      "outfallName": "EGYPT POINT COWES",
      "isImpacting": true,
      "overFlowSiteId": 0,
      "historicSpillsList": [
        {
          "id": 344774778,
          "eventId": 851279,
          "siteUnitNumber": 12617,
          "bathingSite": "COWES",
          "eventStart": "2023-08-24T13:59:00",
          "eventStop": "2023-08-24T14:03:00",
          "duration": 4,
          "status": "Genuine",
          "associatedSiteId": 109704,
          "outfallName": "EGYPT POINT COWES",
          "isImpacting": true,
          "overFlowSiteId": 116213,
          "historicSpillsList": []
        }
      ]
    },
    {
      "id": 344774341,
      "eventId": 851239,
      "siteUnitNumber": 12616,
      "bathingSite": "GURNARD",
      "eventStart": "2023-08-24T13:23:47",
      "eventStop": "2023-08-24T13:51:40",
      "duration": 27,
      "status": "Genuine",
      "associatedSiteId": 109702,
      "outfallName": "ALBANY ROAD EAST COWES",
      "isImpacting": false,
      "overFlowSiteId": 0,
      "historicSpillsList": []
    },
    {
      "id": 344774779,
      "eventId": 851247,
      "siteUnitNumber": 12616,
      "bathingSite": "GURNARD",
      "eventStart": "2023-08-24T13:40:00",
      "eventStop": "2023-08-24T13:45:00",
      "duration": 5,
      "status": "Genuine",
      "associatedSiteId": 109704,
      "outfallName": "EGYPT POINT COWES",
      "isImpacting": true,
      "overFlowSiteId": 0,
      "historicSpillsList": [
        {
          "id": 344774780,
          "eventId": 851247,
          "siteUnitNumber": 12617,
          "bathingSite": "COWES",
          "eventStart": "2023-08-24T13:40:00",
          "eventStop": "2023-08-24T13:45:00",
          "duration": 5,
          "status": "Genuine",
          "associatedSiteId": 109704,
          "outfallName": "EGYPT POINT COWES",
          "isImpacting": true,
          "overFlowSiteId": 116213,
          "historicSpillsList": []
        }
      ]
    },
    {
      "id": 344779484,
      "eventId": 851255,
      "siteUnitNumber": 12618,
      "bathingSite": "RYDE",
      "eventStart": "2023-08-24T13:39:21",
      "eventStop": "2023-08-24T13:43:35",
      "duration": 4,
      "status": "Not Genuine",
      "associatedSiteId": 109782,
      "outfallName": "AUGUSTA ROAD RYDE",
      "isImpacting": true,
      "overFlowSiteId": 0,
      "historicSpillsList": []
    },
    {
      "id": 344776019,
      "eventId": 851236,
      "siteUnitNumber": 12616,
      "bathingSite": "GURNARD",
      "eventStart": "2023-08-24T13:20:52",
      "eventStop": "2023-08-24T13:38:00",
      "duration": 17,
      "status": "Genuine",
      "associatedSiteId": 109707,
      "outfallName": "MEDINA ROAD COWES",
      "isImpacting": false,
      "overFlowSiteId": 0,
      "historicSpillsList": []
    },
    {
      "id": 344773749,
      "eventId": 851240,
      "siteUnitNumber": 12616,
      "bathingSite": "GURNARD",
      "eventStart": "2023-08-24T13:27:06",
      "eventStop": "2023-08-24T13:37:16",
      "duration": 10,
      "status": "Genuine",
      "associatedSiteId": 109700,
      "outfallName": "MARKET HILL COWES",
      "isImpacting": false,
      "overFlowSiteId": 0,
      "historicSpillsList": []
    },
    {
      "id": 344807067,
      "eventId": 851011,
      "siteUnitNumber": 12549,
      "bathingSite": "HERNE BAY CENTRAL",
      "eventStart": "2023-08-23T20:06:00",
      "eventStop": "2023-08-23T20:12:00",
      "duration": 6,
      "status": "Not Genuine",
      "associatedSiteId": 111724,
      "outfallName": "GAINSBOROUGH DRIVE HERNE BAY",
      "isImpacting": false,
      "overFlowSiteId": 0,
      "historicSpillsList": []
    }
  ]
}