{
  "currentPage": 529,
  "totalItems": 18701,
  "totalPages": 749,
  "items": [
    {
      "id": 343997269,
      "eventId": 553112,
      "siteUnitNumber": 12582,
      "bathingSite": "SEAFORD",
      "eventStart": "2022-02-06T10:52:20",
      "eventStop": "2022-02-06T11:39:21",
      "duration": 47,
      "status": "Genuine",
      "associatedSiteId": 110920,
      "outfallName": "NEWHAVEN",
      "isImpacting": true,
      "overFlowSiteId": 0,
      "historicSpillsList": [
        {
          "id": 343997269,
          "eventId": 553112,
          "siteUnitNumber": 12582,
          "bathingSite": "SEAFORD",
          "eventStart": "2022-02-06T10:52:20",
          "eventStop": "2022-02-06T11:39:21",
          "duration": 47,
          "status": "Genuine",
          "associatedSiteId": 110920,
          "outfallName": "NEWHAVEN",
          "isImpacting": true,
          "overFlowSiteId": 116065
        }
      ]
    },
    {
      "id": 343986101,
      "eventId": 553072,
      "siteUnitNumber": 12591,
      "bathingSite": "LITTLEHAMPTON",
      "eventStart": "2022-02-06T09:44:00",
      "eventStop": "2022-02-06T10:17:00",
      "duration": 33,
      "status": "Genuine",
      "associatedSiteId": 109968,
      "outfallName": "FORD ROAD ARUNDEL",
      "isImpacting": true,
      "overFlowSiteId": 0,
      "historicSpillsList": [
        {
          "id": 343986101,
          "eventId": 553072,
          "siteUnitNumber": 12591,
          "bathingSite": "LITTLEHAMPTON",
          "eventStart": "2022-02-06T09:44:00",
          "eventStop": "2022-02-06T10:17:00",
          "duration": 33,
          "status": "Genuine",
          "associatedSiteId": 109968,
          "outfallName": "FORD ROAD ARUNDEL",
          "isImpacting": true,
          "overFlowSiteId": 108002
        }
      ]
    },
    {
      "id": 343985051,
      "eventId": 553090,
      "siteUnitNumber": 12591,
      "bathingSite": "LITTLEHAMPTON",
      "eventStart": "2022-02-06T09:38:00",
      "eventStop": "2022-02-06T09:54:00",
      "duration": 16,
      "status": "Genuine",
      "associatedSiteId": 109961,
      "outfallName": "TOWN QUAY ARUNDEL",
      "isImpacting": true,
      "overFlowSiteId": 0,
      "historicSpillsList": [
        {
          "id": 343985051,
          "eventId": 553090,
          "siteUnitNumber": 12591,
          "bathingSite": "LITTLEHAMPTON",
          "eventStart": "2022-02-06T09:38:00",
          "eventStop": "2022-02-06T09:54:00",
          "duration": 16,
          "status": "Genuine",
          "associatedSiteId": 109961,
          "outfallName": "TOWN QUAY ARUNDEL",
          "isImpacting": true,
          "overFlowSiteId": 108012
        }
      ]
    },
    {
      "id": 343974601,
      "eventId": 553128,
      "siteUnitNumber": 12579,
      "bathingSite": "PEVENSEY BAY",
      "eventStart": "2022-02-05T20:30:00",
      "eventStop": "2022-02-05T21:59:00",
      "duration": 89,
      "status": "Genuine",
      "associatedSiteId": 109888,
      "outfallName": "EASTBOURNE NO 2",
      "isImpacting": true,
      "overFlowSiteId": 0,
      "historicSpillsList": [
        {
          "id": 343974601,
          "eventId": 553128,
          "siteUnitNumber": 12579,
          "bathingSite": "PEVENSEY BAY",
          "eventStart": "2022-02-05T20:30:00",
          "eventStop": "2022-02-05T21:59:00",
          "duration": 89,
          "status": "Genuine",
          "associatedSiteId": 109888,
          "outfallName": "EASTBOURNE NO 2",
          "isImpacting": true,
          "overFlowSiteId": 115459
        },
        {
          "id": 343974602,
          "eventId": 553128,
          "siteUnitNumber": 12580,
          "bathingSite": "EASTBOURNE",
          "eventStart": "2022-02-05T20:30:00",
          "eventStop": "2022-02-05T21:59:00",
          "duration": 89,
          "status": "Genuine",
          "associatedSiteId": 109888,
          "outfallName": "EASTBOURNE NO 2",
          "isImpacting": true,
          "overFlowSiteId": 115459,
          "historicSpillsList": []
        }
      ]
    },
    {
      "id": 343976984,
      "eventId": 552678,
      "siteUnitNumber": 12568,
      "bathingSite": "SANDGATE",
      "eventStart": "2022-02-04T13:57:00",
      "eventStop": "2022-02-04T14:25:00",
      "duration": 28,
      "status": "Genuine",
      "associatedSiteId": 109897,
      "outfallName": "RANGE ROAD HYTHE K LONG",
      "isImpacting": true,
      "overFlowSiteId": 0,
      "historicSpillsList": [
        {
          "id": 343976984,
          "eventId": 552678,
          "siteUnitNumber": 12568,
          "bathingSite": "SANDGATE",
          "eventStart": "2022-02-04T13:57:00",
          "eventStop": "2022-02-04T14:25:00",
          "duration": 28,
          "status": "Genuine",
          "associatedSiteId": 109897,
          "outfallName": "RANGE ROAD HYTHE K LONG",
          "isImpacting": true,
          "overFlowSiteId": 116048
        },
        {
          "id": 343976985,
          "eventId": 552678,
          "siteUnitNumber": 12569,
          "bathingSite": "HYTHE",
          "eventStart": "2022-02-04T13:57:00",
          "eventStop": "2022-02-04T14:25:00",
          "duration": 28,
          "status": "Genuine",
          "associatedSiteId": 109897,
          "outfallName": "RANGE ROAD HYTHE K LONG",
          "isImpacting": true,
          "overFlowSiteId": 116048,
          "historicSpillsList": []
        }
      ]
    },
    {
      "id": 343972873,
      "eventId": 552632,
      "siteUnitNumber": 12548,
      "bathingSite": "TANKERTON",
      "eventStart": "2022-02-04T10:48:41",
      "eventStop": "2022-02-04T13:12:45",
      "duration": 144,
      "status": "Genuine",
      "associatedSiteId": 109830,
      "outfallName": "SWALECLIFFE NO1",
      "isImpacting": true,
      "overFlowSiteId": 0,
      "historicSpillsList": [
        {
          "id": 343972873,
          "eventId": 552632,
          "siteUnitNumber": 12548,
          "bathingSite": "TANKERTON",
          "eventStart": "2022-02-04T10:48:41",
          "eventStop": "2022-02-04T13:12:45",
          "duration": 144,
          "status": "Genuine",
          "associatedSiteId": 109830,
          "outfallName": "SWALECLIFFE NO1",
          "isImpacting": true,
          "overFlowSiteId": 115444
        },
        {
          "id": 343972874,
          "eventId": 552632,
          "siteUnitNumber": 12549,
          "bathingSite": "HERNE BAY CENTRAL",
          "eventStart": "2022-02-04T10:48:41",
          "eventStop": "2022-02-04T13:12:45",
          "duration": 144,
          "status": "Genuine",
          "associatedSiteId": 109830,
          "outfallName": "SWALECLIFFE NO1",
          "isImpacting": true,
          "overFlowSiteId": 115444,
          "historicSpillsList": []
        }
      ]
    },
    {
      "id": 343976990,
      "eventId": 552677,
      "siteUnitNumber": 12568,
      "bathingSite": "SANDGATE",
      "eventStart": "2022-02-04T11:48:00",
      "eventStop": "2022-02-04T11:56:00",
      "duration": 8,
      "status": "Genuine",
      "associatedSiteId": 109897,
      "outfallName": "RANGE ROAD HYTHE K LONG",
      "isImpacting": true,
      "overFlowSiteId": 0,
      "historicSpillsList": [
        {
          "id": 343976990,
          "eventId": 552677,
          "siteUnitNumber": 12568,
          "bathingSite": "SANDGATE",
          "eventStart": "2022-02-04T11:48:00",
          "eventStop": "2022-02-04T11:56:00",
          "duration": 8,
          "status": "Genuine",
          "associatedSiteId": 109897,
          "outfallName": "RANGE ROAD HYTHE K LONG",
          "isImpacting": true,
          "overFlowSiteId": 116048
        },
        {
          "id": 343976991,
          "eventId": 552677,
          "siteUnitNumber": 12569,
          "bathingSite": "HYTHE",
          "eventStart": "2022-02-04T11:48:00",
          "eventStop": "2022-02-04T11:56:00",
          "duration": 8,
          "status": "Genuine",
          "associatedSiteId": 109897,
          "outfallName": "RANGE ROAD HYTHE K LONG",
          "isImpacting": true,
          "overFlowSiteId": 116048,
          "historicSpillsList": []
        }
      ]
    },
    {
      "id": 343997273,
      "eventId": 552633,
      "siteUnitNumber": 12582,
      "bathingSite": "SEAFORD",
      "eventStart": "2022-02-04T10:50:54",
      "eventStop": "2022-02-04T11:54:06",
      "duration": 63,
      "status": "Genuine",
      "associatedSiteId": 110920,
      "outfallName": "NEWHAVEN",
      "isImpacting": true,
      "overFlowSiteId": 0,
      "historicSpillsList": [
        {
          "id": 343997273,
          "eventId": 552633,
          "siteUnitNumber": 12582,
          "bathingSite": "SEAFORD",
          "eventStart": "2022-02-04T10:50:54",
          "eventStop": "2022-02-04T11:54:06",
          "duration": 63,
          "status": "Genuine",
          "associatedSiteId": 110920,
          "outfallName": "NEWHAVEN",
          "isImpacting": true,
          "overFlowSiteId": 116065
        }
      ]
    },
    {
      "id": 343976988,
      "eventId": 552647,
      "siteUnitNumber": 12568,
      "bathingSite": "SANDGATE",
      "eventStart": "2022-02-04T11:38:00",
      "eventStop": "2022-02-04T11:45:00",
      "duration": 7,
      "status": "Genuine",
      "associatedSiteId": 109897,
      "outfallName": "RANGE ROAD HYTHE K LONG",
      "isImpacting": true,
      "overFlowSiteId": 0,
      "historicSpillsList": [
        {
          "id": 343976988,
          "eventId": 552647,
          "siteUnitNumber": 12568,
          "bathingSite": "SANDGATE",
          "eventStart": "2022-02-04T11:38:00",
          "eventStop": "2022-02-04T11:45:00",
          "duration": 7,
          "status": "Genuine",
          "associatedSiteId": 109897,
          "outfallName": "RANGE ROAD HYTHE K LONG",
          "isImpacting": true,
          "overFlowSiteId": 116048
        },
        {
          "id": 343976989,
          "eventId": 552647,
          "siteUnitNumber": 12569,
          "bathingSite": "HYTHE",
          "eventStart": "2022-02-04T11:38:00",
          "eventStop": "2022-02-04T11:45:00",
          "duration": 7,
          "status": "Genuine",
          "associatedSiteId": 109897,
          "outfallName": "RANGE ROAD HYTHE K LONG",
          "isImpacting": true,
          "overFlowSiteId": 116048,
          "historicSpillsList": []
        }
      ]
    },
    {
      "id": 343978718,
      "eventId": 552643,
      "siteUnitNumber": 12576,
      "bathingSite": "ST LEONARDS",
      "eventStart": "2022-02-04T11:08:55",
      "eventStop": "2022-02-04T11:30:49",
      "duration": 21,
      "status": "Genuine",
      "associatedSiteId": 109903,
      "outfallName": "BEXHILL & HASTINGS NO2",
      "isImpacting": true,
      "overFlowSiteId": 0,
      "historicSpillsList": [
        {
          "id": 343978718,
          "eventId": 552643,
          "siteUnitNumber": 12576,
          "bathingSite": "ST LEONARDS",
          "eventStart": "2022-02-04T11:08:55",
          "eventStop": "2022-02-04T11:30:49",
          "duration": 21,
          "status": "Genuine",
          "associatedSiteId": 109903,
          "outfallName": "BEXHILL & HASTINGS NO2",
          "isImpacting": true,
          "overFlowSiteId": 115398
        },
        {
          "id": 343978719,
          "eventId": 552643,
          "siteUnitNumber": 12577,
          "bathingSite": "BEXHILL",
          "eventStart": "2022-02-04T11:08:55",
          "eventStop": "2022-02-04T11:30:49",
          "duration": 21,
          "status": "Genuine",
          "associatedSiteId": 109903,
          "outfallName": "BEXHILL & HASTINGS NO2",
          "isImpacting": true,
          "overFlowSiteId": 115398,
          "historicSpillsList": []
        }
      ]
    },
    {
      "id": 343969380,
      "eventId": 552596,
      "siteUnitNumber": 12617,
      "bathingSite": "COWES",
      "eventStart": "2022-02-04T10:07:00",
      "eventStop": "2022-02-04T10:30:00",
      "duration": 23,
      "status": "Genuine",
      "associatedSiteId": 109777,
      "outfallName": "APPLEY PARK RYDE TRANSFER",
      "isImpacting": true,
      "overFlowSiteId": 0,
      "historicSpillsList": [
        {
          "id": 343969380,
          "eventId": 552596,
          "siteUnitNumber": 12617,
          "bathingSite": "COWES",
          "eventStart": "2022-02-04T10:07:00",
          "eventStop": "2022-02-04T10:30:00",
          "duration": 23,
          "status": "Genuine",
          "associatedSiteId": 109777,
          "outfallName": "APPLEY PARK RYDE TRANSFER",
          "isImpacting": true,
          "overFlowSiteId": 108941
        },
        {
          "id": 343969381,
          "eventId": 552596,
          "siteUnitNumber": 12618,
          "bathingSite": "RYDE",
          "eventStart": "2022-02-04T10:07:00",
          "eventStop": "2022-02-04T10:30:00",
          "duration": 23,
          "status": "Genuine",
          "associatedSiteId": 109777,
          "outfallName": "APPLEY PARK RYDE TRANSFER",
          "isImpacting": true,
          "overFlowSiteId": 108941,
          "historicSpillsList": []
        }
      ]
    },
    {
      "id": 343996241,
      "eventId": 552558,
      "siteUnitNumber": 12617,
      "bathingSite": "COWES",
      "eventStart": "2022-02-04T08:38:02",
      "eventStop": "2022-02-04T08:40:49",
      "duration": 2,
      "status": "Genuine",
      "associatedSiteId": 110701,
      "outfallName": "TERMINUS ROAD COWES 2",
      "isImpacting": true,
      "overFlowSiteId": 0,
      "historicSpillsList": [
        {
          "id": 343996241,
          "eventId": 552558,
          "siteUnitNumber": 12617,
          "bathingSite": "COWES",
          "eventStart": "2022-02-04T08:38:02",
          "eventStop": "2022-02-04T08:40:49",
          "duration": 2,
          "status": "Genuine",
          "associatedSiteId": 110701,
          "outfallName": "TERMINUS ROAD COWES 2",
          "isImpacting": true,
          "overFlowSiteId": 108562
        },
        {
          "id": 343996242,
          "eventId": 552558,
          "siteUnitNumber": 12616,
          "bathingSite": "GURNARD",
          "eventStart": "2022-02-04T08:38:02",
          "eventStop": "2022-02-04T08:40:49",
          "duration": 2,
          "status": "Genuine",
          "associatedSiteId": 110701,
          "outfallName": "TERMINUS ROAD COWES 2",
          "isImpacting": true,
          "overFlowSiteId": 108562,
          "historicSpillsList": []
        }
      ]
    },
    {
      "id": 343965693,
      "eventId": 712667,
      "siteUnitNumber": 12616,
      "bathingSite": "GURNARD",
      "eventStart": "2022-01-30T21:57:00",
      "eventStop": "2022-01-30T23:05:00",
      "duration": 68,
      "status": "Genuine",
      "associatedSiteId": 109704,
      "outfallName": "EGYPT POINT COWES",
      "isImpacting": true,
      "overFlowSiteId": 0,
      "historicSpillsList": [
        {
          "id": 343965694,
          "eventId": 712667,
          "siteUnitNumber": 12617,
          "bathingSite": "COWES",
          "eventStart": "2022-01-30T21:57:00",
          "eventStop": "2022-01-30T23:05:00",
          "duration": 68,
          "status": "Genuine",
          "associatedSiteId": 109704,
          "outfallName": "EGYPT POINT COWES",
          "isImpacting": true,
          "overFlowSiteId": 116213,
          "historicSpillsList": []
        }
      ]
    },
    {
      "id": 343988745,
      "eventId": 548022,
      "siteUnitNumber": 12593,
      "bathingSite": "FELPHAM",
      "eventStart": "2022-01-16T21:06:00",
      "eventStop": "2022-01-16T22:19:00",
      "duration": 73,
      "status": "Genuine",
      "associatedSiteId": 110095,
      "outfallName": "LIDSEY",
      "isImpacting": true,
      "overFlowSiteId": 0,
      "historicSpillsList": [
        {
          "id": 343988745,
          "eventId": 548022,
          "siteUnitNumber": 12593,
          "bathingSite": "FELPHAM",
          "eventStart": "2022-01-16T21:06:00",
          "eventStop": "2022-01-16T22:19:00",
          "duration": 73,
          "status": "Genuine",
          "associatedSiteId": 110095,
          "outfallName": "LIDSEY",
          "isImpacting": true,
          "overFlowSiteId": 115776
        }
      ]
    },
    {
      "id": 343988750,
      "eventId": 548021,
      "siteUnitNumber": 12593,
      "bathingSite": "FELPHAM",
      "eventStart": "2022-01-16T19:36:00",
      "eventStop": "2022-01-16T20:54:00",
      "duration": 78,
      "status": "Genuine",
      "associatedSiteId": 110095,
      "outfallName": "LIDSEY",
      "isImpacting": true,
      "overFlowSiteId": 0,
      "historicSpillsList": [
        {
          "id": 343988750,
          "eventId": 548021,
          "siteUnitNumber": 12593,
          "bathingSite": "FELPHAM",
          "eventStart": "2022-01-16T19:36:00",
          "eventStop": "2022-01-16T20:54:00",
          "duration": 78,
          "status": "Genuine",
          "associatedSiteId": 110095,
          "outfallName": "LIDSEY",
          "isImpacting": true,
          "overFlowSiteId": 115776
        }
      ]
    },
    {
      "id": 343988749,
      "eventId": 548020,
      "siteUnitNumber": 12593,
      "bathingSite": "FELPHAM",
      "eventStart": "2022-01-16T15:28:00",
      "eventStop": "2022-01-16T15:51:00",
      "duration": 23,
      "status": "Genuine",
      "associatedSiteId": 110095,
      "outfallName": "LIDSEY",
      "isImpacting": true,
      "overFlowSiteId": 0,
      "historicSpillsList": [
        {
          "id": 343988749,
          "eventId": 548020,
          "siteUnitNumber": 12593,
          "bathingSite": "FELPHAM",
          "eventStart": "2022-01-16T15:28:00",
          "eventStop": "2022-01-16T15:51:00",
          "duration": 23,
          "status": "Genuine",
          "associatedSiteId": 110095,
          "outfallName": "LIDSEY",
          "isImpacting": true,
          "overFlowSiteId": 115776
        }
      ]
    },
    {
      "id": 343988748,
      "eventId": 548018,
      "siteUnitNumber": 12593,
      "bathingSite": "FELPHAM",
      "eventStart": "2022-01-16T13:07:00",
      "eventStop": "2022-01-16T14:24:00",
      "duration": 77,
      "status": "Genuine",
      "associatedSiteId": 110095,
      "outfallName": "LIDSEY",
      "isImpacting": true,
      "overFlowSiteId": 0,
      "historicSpillsList": [
        {
          "id": 343988748,
          "eventId": 548018,
          "siteUnitNumber": 12593,
          "bathingSite": "FELPHAM",
          "eventStart": "2022-01-16T13:07:00",
          "eventStop": "2022-01-16T14:24:00",
          "duration": 77,
          "status": "Genuine",
          "associatedSiteId": 110095,
          "outfallName": "LIDSEY",
          "isImpacting": true,
          "overFlowSiteId": 115776
        }
      ]
    },
    {
      "id": 343988753,
      "eventId": 548017,
      "siteUnitNumber": 12593,
      "bathingSite": "FELPHAM",
      "eventStart": "2022-01-16T12:34:00",
      "eventStop": "2022-01-16T12:55:00",
      "duration": 21,
      "status": "Genuine",
      "associatedSiteId": 110095,
      "outfallName": "LIDSEY",
      "isImpacting": true,
      "overFlowSiteId": 0,
      "historicSpillsList": [
        {
          "id": 343988753,
          "eventId": 548017,
          "siteUnitNumber": 12593,
          "bathingSite": "FELPHAM",
          "eventStart": "2022-01-16T12:34:00",
          "eventStop": "2022-01-16T12:55:00",
          "duration": 21,
          "status": "Genuine",
          "associatedSiteId": 110095,
          "outfallName": "LIDSEY",
          "isImpacting": true,
          "overFlowSiteId": 115776
        }
      ]
    },
    {
      "id": 343969382,
      "eventId": 548012,
      "siteUnitNumber": 12617,
      "bathingSite": "COWES",
      "eventStart": "2022-01-16T11:19:00",
      "eventStop": "2022-01-16T12:14:00",
      "duration": 55,
      "status": "Genuine",
      "associatedSiteId": 109777,
      "outfallName": "APPLEY PARK RYDE TRANSFER",
      "isImpacting": true,
      "overFlowSiteId": 0,
      "historicSpillsList": [
        {
          "id": 343969382,
          "eventId": 548012,
          "siteUnitNumber": 12617,
          "bathingSite": "COWES",
          "eventStart": "2022-01-16T11:19:00",
          "eventStop": "2022-01-16T12:14:00",
          "duration": 55,
          "status": "Genuine",
          "associatedSiteId": 109777,
          "outfallName": "APPLEY PARK RYDE TRANSFER",
          "isImpacting": true,
          "overFlowSiteId": 108941
        },
        {
          "id": 343969383,
          "eventId": 548012,
          "siteUnitNumber": 12618,
          "bathingSite": "RYDE",
          "eventStart": "2022-01-16T11:19:00",
          "eventStop": "2022-01-16T12:14:00",
          "duration": 55,
          "status": "Genuine",
          "associatedSiteId": 109777,
          "outfallName": "APPLEY PARK RYDE TRANSFER",
          "isImpacting": true,
          "overFlowSiteId": 108941,
          "historicSpillsList": []
        }
      ]
    },
    {
      "id": 343969384,
      "eventId": 547805,
      "siteUnitNumber": 12617,
      "bathingSite": "COWES",
      "eventStart": "2022-01-16T02:38:40",
      "eventStop": "2022-01-16T04:27:00",
      "duration": 108,
      "status": "Genuine",
      "associatedSiteId": 109777,
      "outfallName": "APPLEY PARK RYDE TRANSFER",
      "isImpacting": true,
      "overFlowSiteId": 0,
      "historicSpillsList": [
        {
          "id": 343969384,
          "eventId": 547805,
          "siteUnitNumber": 12617,
          "bathingSite": "COWES",
          "eventStart": "2022-01-16T02:38:40",
          "eventStop": "2022-01-16T04:27:00",
          "duration": 108,
          "status": "Genuine",
          "associatedSiteId": 109777,
          "outfallName": "APPLEY PARK RYDE TRANSFER",
          "isImpacting": true,
          "overFlowSiteId": 108941
        },
        {
          "id": 343969385,
          "eventId": 547805,
          "siteUnitNumber": 12618,
          "bathingSite": "RYDE",
          "eventStart": "2022-01-16T02:38:40",
          "eventStop": "2022-01-16T04:27:00",
          "duration": 108,
          "status": "Genuine",
          "associatedSiteId": 109777,
          "outfallName": "APPLEY PARK RYDE TRANSFER",
          "isImpacting": true,
          "overFlowSiteId": 108941,
          "historicSpillsList": []
        }
      ]
    },
    {
      "id": 344000776,
      "eventId": 547867,
      "siteUnitNumber": 12615,
      "bathingSite": "COLWELL BAY",
      "eventStart": "2022-01-16T02:41:00",
      "eventStop": "2022-01-16T04:25:00",
      "duration": 104,
      "status": "Genuine",
      "associatedSiteId": 115498,
      "outfallName": "NORTON TRANSFER IOW",
      "isImpacting": true,
      "overFlowSiteId": 0,
      "historicSpillsList": [
        {
          "id": 344000776,
          "eventId": 547867,
          "siteUnitNumber": 12615,
          "bathingSite": "COLWELL BAY",
          "eventStart": "2022-01-16T02:41:00",
          "eventStop": "2022-01-16T04:25:00",
          "duration": 104,
          "status": "Genuine",
          "associatedSiteId": 115498,
          "outfallName": "NORTON TRANSFER IOW",
          "isImpacting": true,
          "overFlowSiteId": 108544
        },
        {
          "id": 344000777,
          "eventId": 547867,
          "siteUnitNumber": 12614,
          "bathingSite": "TOTLAND BAY",
          "eventStart": "2022-01-16T02:41:00",
          "eventStop": "2022-01-16T04:25:00",
          "duration": 104,
          "status": "Genuine",
          "associatedSiteId": 115498,
          "outfallName": "NORTON TRANSFER IOW",
          "isImpacting": true,
          "overFlowSiteId": 108544,
          "historicSpillsList": []
        }
      ]
    },
    {
      "id": 344000778,
      "eventId": 547810,
      "siteUnitNumber": 12614,
      "bathingSite": "TOTLAND BAY",
      "eventStart": "2022-01-16T02:38:00",
      "eventStop": "2022-01-16T02:57:00",
      "duration": 19,
      "status": "Genuine",
      "associatedSiteId": 115498,
      "outfallName": "NORTON TRANSFER IOW",
      "isImpacting": true,
      "overFlowSiteId": 0,
      "historicSpillsList": [
        {
          "id": 344000778,
          "eventId": 547810,
          "siteUnitNumber": 12614,
          "bathingSite": "TOTLAND BAY",
          "eventStart": "2022-01-16T02:38:00",
          "eventStop": "2022-01-16T02:57:00",
          "duration": 19,
          "status": "Genuine",
          "associatedSiteId": 115498,
          "outfallName": "NORTON TRANSFER IOW",
          "isImpacting": true,
          "overFlowSiteId": 109524
        },
        {
          "id": 344000779,
          "eventId": 547810,
          "siteUnitNumber": 12615,
          "bathingSite": "COLWELL BAY",
          "eventStart": "2022-01-16T02:38:00",
          "eventStop": "2022-01-16T02:57:00",
          "duration": 19,
          "status": "Genuine",
          "associatedSiteId": 115498,
          "outfallName": "NORTON TRANSFER IOW",
          "isImpacting": true,
          "overFlowSiteId": 109524,
          "historicSpillsList": []
        }
      ]
    },
    {
      "id": 343988752,
      "eventId": 547725,
      "siteUnitNumber": 12593,
      "bathingSite": "FELPHAM",
      "eventStart": "2022-01-15T11:26:54",
      "eventStop": "2022-01-15T22:27:00",
      "duration": 660,
      "status": "Genuine",
      "associatedSiteId": 110095,
      "outfallName": "LIDSEY",
      "isImpacting": true,
      "overFlowSiteId": 0,
      "historicSpillsList": [
        {
          "id": 343988752,
          "eventId": 547725,
          "siteUnitNumber": 12593,
          "bathingSite": "FELPHAM",
          "eventStart": "2022-01-15T11:26:54",
          "eventStop": "2022-01-15T22:27:00",
          "duration": 660,
          "status": "Genuine",
          "associatedSiteId": 110095,
          "outfallName": "LIDSEY",
          "isImpacting": true,
          "overFlowSiteId": 115776
        }
      ]
    },
    {
      "id": 343988751,
      "eventId": 547458,
      "siteUnitNumber": 12593,
      "bathingSite": "FELPHAM",
      "eventStart": "2022-01-14T09:48:28",
      "eventStop": "2022-01-15T00:46:00",
      "duration": 897,
      "status": "Genuine",
      "associatedSiteId": 110095,
      "outfallName": "LIDSEY",
      "isImpacting": true,
      "overFlowSiteId": 0,
      "historicSpillsList": [
        {
          "id": 343988751,
          "eventId": 547458,
          "siteUnitNumber": 12593,
          "bathingSite": "FELPHAM",
          "eventStart": "2022-01-14T09:48:28",
          "eventStop": "2022-01-15T00:46:00",
          "duration": 897,
          "status": "Genuine",
          "associatedSiteId": 110095,
          "outfallName": "LIDSEY",
          "isImpacting": true,
          "overFlowSiteId": 115776
        }
      ]
    },
    {
      "id": 343988756,
      "eventId": 547454,
      "siteUnitNumber": 12593,
      "bathingSite": "FELPHAM",
      "eventStart": "2022-01-13T17:23:00",
      "eventStop": "2022-01-14T01:37:00",
      "duration": 494,
      "status": "Genuine",
      "associatedSiteId": 110095,
      "outfallName": "LIDSEY",
      "isImpacting": true,
      "overFlowSiteId": 0,
      "historicSpillsList": [
        {
          "id": 343988756,
          "eventId": 547454,
          "siteUnitNumber": 12593,
          "bathingSite": "FELPHAM",
          "eventStart": "2022-01-13T17:23:00",
          "eventStop": "2022-01-14T01:37:00",
          "duration": 494,
          "status": "Genuine",
          "associatedSiteId": 110095,
          "outfallName": "LIDSEY",
          "isImpacting": true,
          "overFlowSiteId": 115776
        }
      ]
    }
  ]
}