{
  "currentPage": 313,
  "totalItems": 18701,
  "totalPages": 749,
  "items": [
    {
      "id": 343985449,
      "eventId": 750476,
      "siteUnitNumber": 12591,
      "bathingSite": "LITTLEHAMPTON",
      "eventStart": "2023-01-26T02:10:00",
      "eventStop": "2023-01-26T02:35:00",
      "duration": 25,
      "status": "Genuine",
      "associatedSiteId": 109965,
      "outfallName": "SEA ROAD LITTLEHAMPTON",
      "isImpacting": true,
      "overFlowSiteId": 0,
      "historicSpillsList": [
        {
          "id": 343985449,
          "eventId": 750476,
          "siteUnitNumber": 12591,
          "bathingSite": "LITTLEHAMPTON",
          "eventStart": "2023-01-26T02:10:00",
          "eventStop": "2023-01-26T02:35:00",
          "duration": 25,
          "status": "Genuine",
          "associatedSiteId": 109965,
          "outfallName": "SEA ROAD LITTLEHAMPTON",
          "isImpacting": true,
          "overFlowSiteId": 109368
        }
      ]
    },
    {
      "id": 343976452,
      "eventId": 746459,
      "siteUnitNumber": 12568,
      "bathingSite": "SANDGATE",
      "eventStart": "2023-01-25T21:00:00",
      "eventStop": "2023-01-26T01:50:00",
      "duration": 290,
      "status": "Genuine",
      "associatedSiteId": 109897,
      "outfallName": "RANGE ROAD HYTHE K LONG",
      "isImpacting": true,
      "overFlowSiteId": 0,
      "historicSpillsList": [
        {
          "id": 343976452,
          "eventId": 746459,
          "siteUnitNumber": 12568,
          "bathingSite": "SANDGATE",
          "eventStart": "2023-01-25T21:00:00",
          "eventStop": "2023-01-26T01:50:00",
          "duration": 290,
          "status": "Genuine",
          "associatedSiteId": 109897,
          "outfallName": "RANGE ROAD HYTHE K LONG",
          "isImpacting": true,
          "overFlowSiteId": 116048
        },
        {
          "id": 343976453,
          "eventId": 746459,
          "siteUnitNumber": 12569,
          "bathingSite": "HYTHE",
          "eventStart": "2023-01-25T21:00:00",
          "eventStop": "2023-01-26T01:50:00",
          "duration": 290,
          "status": "Genuine",
          "associatedSiteId": 109897,
          "outfallName": "RANGE ROAD HYTHE K LONG",
          "isImpacting": true,
          "overFlowSiteId": 116048,
          "historicSpillsList": []
        }
      ]
    },
    {
      "id": 343964631,
      "eventId": 746880,
      "siteUnitNumber": 12616,
      "bathingSite": "GURNARD",
      "eventStart": "2023-01-26T00:49:00",
      "eventStop": "2023-01-26T01:05:00",
      "duration": 16,
      "status": "Genuine",
      "associatedSiteId": 109700,
      "outfallName": "MARKET HILL COWES",
      "isImpacting": false,
      "overFlowSiteId": 0,
      "historicSpillsList": []
    },
    {
      "id": 343964633,
      "eventId": 746613,
      "siteUnitNumber": 12616,
      "bathingSite": "GURNARD",
      "eventStart": "2023-01-26T00:13:00",
      "eventStop": "2023-01-26T00:31:00",
      "duration": 18,
      "status": "Genuine",
      "associatedSiteId": 109700,
      "outfallName": "MARKET HILL COWES",
      "isImpacting": false,
      "overFlowSiteId": 0,
      "historicSpillsList": []
    },
    {
      "id": 343960748,
      "eventId": 746532,
      "siteUnitNumber": 12546,
      "bathingSite": "LEYSDOWN",
      "eventStart": "2023-01-25T22:30:00",
      "eventStop": "2023-01-25T23:05:00",
      "duration": 35,
      "status": "Genuine",
      "associatedSiteId": 109613,
      "outfallName": "BARROWS BROOK EASTCHURCH",
      "isImpacting": true,
      "overFlowSiteId": 0,
      "historicSpillsList": [
        {
          "id": 343960748,
          "eventId": 746532,
          "siteUnitNumber": 12546,
          "bathingSite": "LEYSDOWN",
          "eventStart": "2023-01-25T22:30:00",
          "eventStop": "2023-01-25T23:05:00",
          "duration": 35,
          "status": "Genuine",
          "associatedSiteId": 109613,
          "outfallName": "BARROWS BROOK EASTCHURCH",
          "isImpacting": true,
          "overFlowSiteId": 108109
        }
      ]
    },
    {
      "id": 343997094,
      "eventId": 746458,
      "siteUnitNumber": 12582,
      "bathingSite": "SEAFORD",
      "eventStart": "2023-01-25T20:57:43",
      "eventStop": "2023-01-25T22:51:39",
      "duration": 113,
      "status": "Genuine",
      "associatedSiteId": 110920,
      "outfallName": "NEWHAVEN",
      "isImpacting": false,
      "overFlowSiteId": 0,
      "historicSpillsList": []
    },
    {
      "id": 343978320,
      "eventId": 746424,
      "siteUnitNumber": 12576,
      "bathingSite": "ST LEONARDS",
      "eventStart": "2023-01-25T20:17:49",
      "eventStop": "2023-01-25T21:05:23",
      "duration": 47,
      "status": "Genuine",
      "associatedSiteId": 109903,
      "outfallName": "BEXHILL & HASTINGS NO2",
      "isImpacting": true,
      "overFlowSiteId": 0,
      "historicSpillsList": [
        {
          "id": 343978320,
          "eventId": 746424,
          "siteUnitNumber": 12576,
          "bathingSite": "ST LEONARDS",
          "eventStart": "2023-01-25T20:17:49",
          "eventStop": "2023-01-25T21:05:23",
          "duration": 47,
          "status": "Genuine",
          "associatedSiteId": 109903,
          "outfallName": "BEXHILL & HASTINGS NO2",
          "isImpacting": true,
          "overFlowSiteId": 115398
        },
        {
          "id": 343978321,
          "eventId": 746424,
          "siteUnitNumber": 12577,
          "bathingSite": "BEXHILL",
          "eventStart": "2023-01-25T20:17:49",
          "eventStop": "2023-01-25T21:05:23",
          "duration": 47,
          "status": "Genuine",
          "associatedSiteId": 109903,
          "outfallName": "BEXHILL & HASTINGS NO2",
          "isImpacting": true,
          "overFlowSiteId": 115398,
          "historicSpillsList": []
        }
      ]
    },
    {
      "id": 343964635,
      "eventId": 746240,
      "siteUnitNumber": 12616,
      "bathingSite": "GURNARD",
      "eventStart": "2023-01-25T17:13:00",
      "eventStop": "2023-01-25T19:30:00",
      "duration": 137,
      "status": "Genuine",
      "associatedSiteId": 109700,
      "outfallName": "MARKET HILL COWES",
      "isImpacting": false,
      "overFlowSiteId": 0,
      "historicSpillsList": []
    },
    {
      "id": 343985448,
      "eventId": 750465,
      "siteUnitNumber": 12591,
      "bathingSite": "LITTLEHAMPTON",
      "eventStart": "2023-01-25T08:00:00",
      "eventStop": "2023-01-25T09:02:00",
      "duration": 62,
      "status": "Genuine",
      "associatedSiteId": 109965,
      "outfallName": "SEA ROAD LITTLEHAMPTON",
      "isImpacting": false,
      "overFlowSiteId": 0,
      "historicSpillsList": []
    },
    {
      "id": 343988728,
      "eventId": 751862,
      "siteUnitNumber": 12593,
      "bathingSite": "FELPHAM",
      "eventStart": "2023-01-24T02:33:00",
      "eventStop": "2023-01-25T04:57:00",
      "duration": 1584,
      "status": "Genuine",
      "associatedSiteId": 110095,
      "outfallName": "LIDSEY",
      "isImpacting": true,
      "overFlowSiteId": 0,
      "historicSpillsList": [
        {
          "id": 343988728,
          "eventId": 751862,
          "siteUnitNumber": 12593,
          "bathingSite": "FELPHAM",
          "eventStart": "2023-01-24T02:33:00",
          "eventStop": "2023-01-25T04:57:00",
          "duration": 1584,
          "status": "Genuine",
          "associatedSiteId": 110095,
          "outfallName": "LIDSEY",
          "isImpacting": true,
          "overFlowSiteId": 115776
        }
      ]
    },
    {
      "id": 343985453,
      "eventId": 750464,
      "siteUnitNumber": 12591,
      "bathingSite": "LITTLEHAMPTON",
      "eventStart": "2023-01-25T02:27:00",
      "eventStop": "2023-01-25T02:59:00",
      "duration": 32,
      "status": "Genuine",
      "associatedSiteId": 109965,
      "outfallName": "SEA ROAD LITTLEHAMPTON",
      "isImpacting": true,
      "overFlowSiteId": 0,
      "historicSpillsList": [
        {
          "id": 343985453,
          "eventId": 750464,
          "siteUnitNumber": 12591,
          "bathingSite": "LITTLEHAMPTON",
          "eventStart": "2023-01-25T02:27:00",
          "eventStop": "2023-01-25T02:59:00",
          "duration": 32,
          "status": "Genuine",
          "associatedSiteId": 109965,
          "outfallName": "SEA ROAD LITTLEHAMPTON",
          "isImpacting": true,
          "overFlowSiteId": 109368
        }
      ]
    },
    {
      "id": 343997099,
      "eventId": 745330,
      "siteUnitNumber": 12582,
      "bathingSite": "SEAFORD",
      "eventStart": "2023-01-24T14:54:28",
      "eventStop": "2023-01-24T16:44:08",
      "duration": 109,
      "status": "Genuine",
      "associatedSiteId": 110920,
      "outfallName": "NEWHAVEN",
      "isImpacting": false,
      "overFlowSiteId": 0,
      "historicSpillsList": []
    },
    {
      "id": 343964637,
      "eventId": 745408,
      "siteUnitNumber": 12616,
      "bathingSite": "GURNARD",
      "eventStart": "2023-01-24T15:00:00",
      "eventStop": "2023-01-24T15:13:00",
      "duration": 13,
      "status": "Genuine",
      "associatedSiteId": 109700,
      "outfallName": "MARKET HILL COWES",
      "isImpacting": false,
      "overFlowSiteId": 0,
      "historicSpillsList": []
    },
    {
      "id": 343964639,
      "eventId": 745406,
      "siteUnitNumber": 12616,
      "bathingSite": "GURNARD",
      "eventStart": "2023-01-24T13:42:00",
      "eventStop": "2023-01-24T14:27:00",
      "duration": 45,
      "status": "Genuine",
      "associatedSiteId": 109700,
      "outfallName": "MARKET HILL COWES",
      "isImpacting": false,
      "overFlowSiteId": 0,
      "historicSpillsList": []
    },
    {
      "id": 343964641,
      "eventId": 745396,
      "siteUnitNumber": 12616,
      "bathingSite": "GURNARD",
      "eventStart": "2023-01-24T12:53:00",
      "eventStop": "2023-01-24T13:04:00",
      "duration": 11,
      "status": "Genuine",
      "associatedSiteId": 109700,
      "outfallName": "MARKET HILL COWES",
      "isImpacting": false,
      "overFlowSiteId": 0,
      "historicSpillsList": []
    },
    {
      "id": 343964643,
      "eventId": 745389,
      "siteUnitNumber": 12616,
      "bathingSite": "GURNARD",
      "eventStart": "2023-01-24T11:40:35",
      "eventStop": "2023-01-24T11:46:00",
      "duration": 5,
      "status": "Genuine",
      "associatedSiteId": 109700,
      "outfallName": "MARKET HILL COWES",
      "isImpacting": false,
      "overFlowSiteId": 0,
      "historicSpillsList": []
    },
    {
      "id": 343964645,
      "eventId": 745060,
      "siteUnitNumber": 12616,
      "bathingSite": "GURNARD",
      "eventStart": "2023-01-24T08:27:00",
      "eventStop": "2023-01-24T08:36:00",
      "duration": 9,
      "status": "Genuine",
      "associatedSiteId": 109700,
      "outfallName": "MARKET HILL COWES",
      "isImpacting": false,
      "overFlowSiteId": 0,
      "historicSpillsList": []
    },
    {
      "id": 343985452,
      "eventId": 750463,
      "siteUnitNumber": 12591,
      "bathingSite": "LITTLEHAMPTON",
      "eventStart": "2023-01-24T07:55:00",
      "eventStop": "2023-01-24T08:17:00",
      "duration": 22,
      "status": "Genuine",
      "associatedSiteId": 109965,
      "outfallName": "SEA ROAD LITTLEHAMPTON",
      "isImpacting": false,
      "overFlowSiteId": 0,
      "historicSpillsList": []
    },
    {
      "id": 343988727,
      "eventId": 751861,
      "siteUnitNumber": 12593,
      "bathingSite": "FELPHAM",
      "eventStart": "2023-01-06T06:41:00",
      "eventStop": "2023-01-24T02:15:00",
      "duration": 25654,
      "status": "Genuine",
      "associatedSiteId": 110095,
      "outfallName": "LIDSEY",
      "isImpacting": true,
      "overFlowSiteId": 0,
      "historicSpillsList": [
        {
          "id": 343988727,
          "eventId": 751861,
          "siteUnitNumber": 12593,
          "bathingSite": "FELPHAM",
          "eventStart": "2023-01-06T06:41:00",
          "eventStop": "2023-01-24T02:15:00",
          "duration": 25654,
          "status": "Genuine",
          "associatedSiteId": 110095,
          "outfallName": "LIDSEY",
          "isImpacting": true,
          "overFlowSiteId": 115776
        }
      ]
    },
    {
      "id": 343997098,
      "eventId": 744448,
      "siteUnitNumber": 12582,
      "bathingSite": "SEAFORD",
      "eventStart": "2023-01-23T14:04:58",
      "eventStop": "2023-01-23T16:24:50",
      "duration": 139,
      "status": "Genuine",
      "associatedSiteId": 110920,
      "outfallName": "NEWHAVEN",
      "isImpacting": false,
      "overFlowSiteId": 0,
      "historicSpillsList": []
    },
    {
      "id": 343964647,
      "eventId": 744823,
      "siteUnitNumber": 12616,
      "bathingSite": "GURNARD",
      "eventStart": "2023-01-23T12:52:00",
      "eventStop": "2023-01-23T13:05:00",
      "duration": 13,
      "status": "Genuine",
      "associatedSiteId": 109700,
      "outfallName": "MARKET HILL COWES",
      "isImpacting": false,
      "overFlowSiteId": 0,
      "historicSpillsList": []
    },
    {
      "id": 343988563,
      "eventId": 743651,
      "siteUnitNumber": 12626,
      "bathingSite": "VENTNOR",
      "eventStart": "2023-01-22T23:38:00",
      "eventStop": "2023-01-23T02:10:00",
      "duration": 152,
      "status": "Genuine",
      "associatedSiteId": 110064,
      "outfallName": "LION POINT VENTNOR",
      "isImpacting": true,
      "overFlowSiteId": 0,
      "historicSpillsList": [
        {
          "id": 343988563,
          "eventId": 743651,
          "siteUnitNumber": 12626,
          "bathingSite": "VENTNOR",
          "eventStart": "2023-01-22T23:38:00",
          "eventStop": "2023-01-23T02:10:00",
          "duration": 152,
          "status": "Genuine",
          "associatedSiteId": 110064,
          "outfallName": "LION POINT VENTNOR",
          "isImpacting": true,
          "overFlowSiteId": 108546
        }
      ]
    },
    {
      "id": 343972301,
      "eventId": 743422,
      "siteUnitNumber": 12608,
      "bathingSite": "CALSHOT",
      "eventStart": "2023-01-22T19:45:00",
      "eventStop": "2023-01-22T22:24:00",
      "duration": 159,
      "status": "Genuine",
      "associatedSiteId": 109826,
      "outfallName": "ASHLETT CREEK FAWLEY",
      "isImpacting": true,
      "overFlowSiteId": 0,
      "historicSpillsList": [
        {
          "id": 343972301,
          "eventId": 743422,
          "siteUnitNumber": 12608,
          "bathingSite": "CALSHOT",
          "eventStart": "2023-01-22T19:45:00",
          "eventStop": "2023-01-22T22:24:00",
          "duration": 159,
          "status": "Genuine",
          "associatedSiteId": 109826,
          "outfallName": "ASHLETT CREEK FAWLEY",
          "isImpacting": true,
          "overFlowSiteId": 115372
        }
      ]
    },
    {
      "id": 343978324,
      "eventId": 743465,
      "siteUnitNumber": 12576,
      "bathingSite": "ST LEONARDS",
      "eventStart": "2023-01-22T19:03:58",
      "eventStop": "2023-01-22T20:12:07",
      "duration": 68,
      "status": "Genuine",
      "associatedSiteId": 109903,
      "outfallName": "BEXHILL & HASTINGS NO2",
      "isImpacting": true,
      "overFlowSiteId": 0,
      "historicSpillsList": [
        {
          "id": 343978324,
          "eventId": 743465,
          "siteUnitNumber": 12576,
          "bathingSite": "ST LEONARDS",
          "eventStart": "2023-01-22T19:03:58",
          "eventStop": "2023-01-22T20:12:07",
          "duration": 68,
          "status": "Genuine",
          "associatedSiteId": 109903,
          "outfallName": "BEXHILL & HASTINGS NO2",
          "isImpacting": true,
          "overFlowSiteId": 115398
        },
        {
          "id": 343978325,
          "eventId": 743465,
          "siteUnitNumber": 12577,
          "bathingSite": "BEXHILL",
          "eventStart": "2023-01-22T19:03:58",
          "eventStop": "2023-01-22T20:12:07",
          "duration": 68,
          "status": "Genuine",
          "associatedSiteId": 109903,
          "outfallName": "BEXHILL & HASTINGS NO2",
          "isImpacting": true,
          "overFlowSiteId": 115398,
          "historicSpillsList": []
        }
      ]
    },
    {
      "id": 343989248,
      "eventId": 744515,
      "siteUnitNumber": 12622,
      "bathingSite": "WHITECLIFF BAY",
      "eventStart": "2023-01-22T18:43:00",
      "eventStop": "2023-01-22T19:15:00",
      "duration": 32,
      "status": "Genuine",
      "associatedSiteId": 110096,
      "outfallName": "SANDOWN NO1",
      "isImpacting": false,
      "overFlowSiteId": 0,
      "historicSpillsList": []
    }
  ]
}