{
  "currentPage": 142,
  "totalItems": 18701,
  "totalPages": 749,
  "items": [
    {
      "id": 343943299,
      "eventId": 883895,
      "siteUnitNumber": 12591,
      "bathingSite": "LITTLEHAMPTON",
      "eventStart": "2023-10-28T16:45:00",
      "eventStop": "2023-10-29T04:08:00",
      "duration": 683,
      "status": "Genuine",
      "associatedSiteId": 109968,
      "outfallName": "FORD ROAD ARUNDEL",
      "isImpacting": true,
      "overFlowSiteId": 0,
      "historicSpillsList": [
        {
          "id": 343943299,
          "eventId": 883895,
          "siteUnitNumber": 12591,
          "bathingSite": "LITTLEHAMPTON",
          "eventStart": "2023-10-28T16:45:00",
          "eventStop": "2023-10-29T04:08:00",
          "duration": 683,
          "status": "Genuine",
          "associatedSiteId": 109968,
          "outfallName": "FORD ROAD ARUNDEL",
          "isImpacting": true,
          "overFlowSiteId": 108002
        }
      ]
    },
    {
      "id": 343932924,
      "eventId": 884937,
      "siteUnitNumber": 12568,
      "bathingSite": "SANDGATE",
      "eventStart": "2023-10-29T04:00:50",
      "eventStop": "2023-10-29T04:07:24",
      "duration": 6,
      "status": "Genuine",
      "associatedSiteId": 109896,
      "outfallName": "RANGE ROAD HYTHE K SHORT",
      "isImpacting": false,
      "overFlowSiteId": 0,
      "historicSpillsList": []
    },
    {
      "id": 343944725,
      "eventId": 884850,
      "siteUnitNumber": 12575,
      "bathingSite": "HASTINGS PELHAM BEACH",
      "eventStart": "2023-10-29T03:40:10",
      "eventStop": "2023-10-29T04:04:22",
      "duration": 24,
      "status": "Genuine",
      "associatedSiteId": 109982,
      "outfallName": "COOMBS HASTINGS",
      "isImpacting": false,
      "overFlowSiteId": 0,
      "historicSpillsList": []
    },
    {
      "id": 343925577,
      "eventId": 884385,
      "siteUnitNumber": 12607,
      "bathingSite": "HILLHEAD",
      "eventStart": "2023-10-28T21:53:54",
      "eventStop": "2023-10-29T04:00:00",
      "duration": 366,
      "status": "Genuine",
      "associatedSiteId": 109751,
      "outfallName": "HOOK PARK NO.1",
      "isImpacting": false,
      "overFlowSiteId": 0,
      "historicSpillsList": []
    },
    {
      "id": 343944727,
      "eventId": 884789,
      "siteUnitNumber": 12575,
      "bathingSite": "HASTINGS PELHAM BEACH",
      "eventStart": "2023-10-29T02:40:51",
      "eventStop": "2023-10-29T03:57:00",
      "duration": 76,
      "status": "Genuine",
      "associatedSiteId": 109982,
      "outfallName": "COOMBS HASTINGS",
      "isImpacting": true,
      "overFlowSiteId": 0,
      "historicSpillsList": [
        {
          "id": 343944728,
          "eventId": 884789,
          "siteUnitNumber": 12576,
          "bathingSite": "ST LEONARDS",
          "eventStart": "2023-10-29T02:40:51",
          "eventStop": "2023-10-29T03:57:00",
          "duration": 76,
          "status": "Genuine",
          "associatedSiteId": 109982,
          "outfallName": "COOMBS HASTINGS",
          "isImpacting": true,
          "overFlowSiteId": 110211,
          "historicSpillsList": []
        }
      ]
    },
    {
      "id": 343939516,
      "eventId": 887989,
      "siteUnitNumber": 12582,
      "bathingSite": "SEAFORD",
      "eventStart": "2023-10-29T02:05:00",
      "eventStop": "2023-10-29T03:47:00",
      "duration": 102,
      "status": "Genuine",
      "associatedSiteId": 109957,
      "outfallName": "PORTOBELLO BRIGHTON NO2",
      "isImpacting": true,
      "overFlowSiteId": 0,
      "historicSpillsList": [
        {
          "id": 343939517,
          "eventId": 887989,
          "siteUnitNumber": 12583,
          "bathingSite": "SALTDEAN",
          "eventStart": "2023-10-29T02:05:00",
          "eventStop": "2023-10-29T03:47:00",
          "duration": 102,
          "status": "Genuine",
          "associatedSiteId": 109957,
          "outfallName": "PORTOBELLO BRIGHTON NO2",
          "isImpacting": true,
          "overFlowSiteId": 116036,
          "historicSpillsList": []
        }
      ]
    },
    {
      "id": 343954276,
      "eventId": 884366,
      "siteUnitNumber": 12620,
      "bathingSite": "ST HELENS",
      "eventStart": "2023-10-28T21:38:00",
      "eventStop": "2023-10-29T03:45:00",
      "duration": 367,
      "status": "Genuine",
      "associatedSiteId": 110761,
      "outfallName": "BRADING",
      "isImpacting": true,
      "overFlowSiteId": 0,
      "historicSpillsList": [
        {
          "id": 343954276,
          "eventId": 884366,
          "siteUnitNumber": 12620,
          "bathingSite": "ST HELENS",
          "eventStart": "2023-10-28T21:38:00",
          "eventStop": "2023-10-29T03:45:00",
          "duration": 367,
          "status": "Genuine",
          "associatedSiteId": 110761,
          "outfallName": "BRADING",
          "isImpacting": true,
          "overFlowSiteId": 113676
        }
      ]
    },
    {
      "id": 343922923,
      "eventId": 898875,
      "siteUnitNumber": 12616,
      "bathingSite": "GURNARD",
      "eventStart": "2023-10-28T20:30:00",
      "eventStop": "2023-10-29T03:42:00",
      "duration": 432,
      "status": "Genuine",
      "associatedSiteId": 109704,
      "outfallName": "EGYPT POINT COWES",
      "isImpacting": true,
      "overFlowSiteId": 0,
      "historicSpillsList": [
        {
          "id": 343922924,
          "eventId": 898875,
          "siteUnitNumber": 12617,
          "bathingSite": "COWES",
          "eventStart": "2023-10-28T20:30:00",
          "eventStop": "2023-10-29T03:42:00",
          "duration": 432,
          "status": "Genuine",
          "associatedSiteId": 109704,
          "outfallName": "EGYPT POINT COWES",
          "isImpacting": true,
          "overFlowSiteId": 116213,
          "historicSpillsList": []
        }
      ]
    },
    {
      "id": 343921899,
      "eventId": 890274,
      "siteUnitNumber": 12616,
      "bathingSite": "GURNARD",
      "eventStart": "2023-10-28T20:05:00",
      "eventStop": "2023-10-29T03:36:00",
      "duration": 451,
      "status": "Genuine",
      "associatedSiteId": 109700,
      "outfallName": "MARKET HILL COWES",
      "isImpacting": false,
      "overFlowSiteId": 0,
      "historicSpillsList": []
    },
    {
      "id": 343944723,
      "eventId": 884827,
      "siteUnitNumber": 12575,
      "bathingSite": "HASTINGS PELHAM BEACH",
      "eventStart": "2023-10-29T03:22:41",
      "eventStop": "2023-10-29T03:32:41",
      "duration": 10,
      "status": "Genuine",
      "associatedSiteId": 109982,
      "outfallName": "COOMBS HASTINGS",
      "isImpacting": false,
      "overFlowSiteId": 0,
      "historicSpillsList": []
    },
    {
      "id": 343928459,
      "eventId": 884725,
      "siteUnitNumber": 12661,
      "bathingSite": "LANGSTONE HARBOUR",
      "eventStart": "2023-10-29T02:00:00",
      "eventStop": "2023-10-29T03:30:00",
      "duration": 90,
      "status": "Genuine",
      "associatedSiteId": 109817,
      "outfallName": "MAINLAND DRAYTON",
      "isImpacting": true,
      "overFlowSiteId": 0,
      "historicSpillsList": [
        {
          "id": 343928459,
          "eventId": 884725,
          "siteUnitNumber": 12661,
          "bathingSite": "LANGSTONE HARBOUR",
          "eventStart": "2023-10-29T02:00:00",
          "eventStop": "2023-10-29T03:30:00",
          "duration": 90,
          "status": "Genuine",
          "associatedSiteId": 109817,
          "outfallName": "MAINLAND DRAYTON",
          "isImpacting": true,
          "overFlowSiteId": 115960
        }
      ]
    },
    {
      "id": 343932928,
      "eventId": 884839,
      "siteUnitNumber": 12568,
      "bathingSite": "SANDGATE",
      "eventStart": "2023-10-29T03:20:37",
      "eventStop": "2023-10-29T03:27:04",
      "duration": 6,
      "status": "Genuine",
      "associatedSiteId": 109896,
      "outfallName": "RANGE ROAD HYTHE K SHORT",
      "isImpacting": false,
      "overFlowSiteId": 0,
      "historicSpillsList": []
    },
    {
      "id": 343928578,
      "eventId": 891305,
      "siteUnitNumber": 12661,
      "bathingSite": "LANGSTONE HARBOUR",
      "eventStart": "2023-10-29T02:11:00",
      "eventStop": "2023-10-29T03:27:00",
      "duration": 76,
      "status": "Genuine",
      "associatedSiteId": 109819,
      "outfallName": "COURT LANE COSHAM",
      "isImpacting": true,
      "overFlowSiteId": 0,
      "historicSpillsList": [
        {
          "id": 343928578,
          "eventId": 891305,
          "siteUnitNumber": 12661,
          "bathingSite": "LANGSTONE HARBOUR",
          "eventStart": "2023-10-29T02:11:00",
          "eventStop": "2023-10-29T03:27:00",
          "duration": 76,
          "status": "Genuine",
          "associatedSiteId": 109819,
          "outfallName": "COURT LANE COSHAM",
          "isImpacting": true,
          "overFlowSiteId": 115958
        }
      ]
    },
    {
      "id": 343921927,
      "eventId": 884164,
      "siteUnitNumber": 12616,
      "bathingSite": "GURNARD",
      "eventStart": "2023-10-28T20:04:47",
      "eventStop": "2023-10-29T03:25:00",
      "duration": 440,
      "status": "Genuine",
      "associatedSiteId": 109700,
      "outfallName": "MARKET HILL COWES",
      "isImpacting": false,
      "overFlowSiteId": 0,
      "historicSpillsList": []
    },
    {
      "id": 343937480,
      "eventId": 884892,
      "siteUnitNumber": 12586,
      "bathingSite": "HOVE",
      "eventStart": "2023-10-29T02:36:09",
      "eventStop": "2023-10-29T03:24:00",
      "duration": 47,
      "status": "Genuine",
      "associatedSiteId": 109929,
      "outfallName": "SHOREHAM NO1",
      "isImpacting": true,
      "overFlowSiteId": 0,
      "historicSpillsList": [
        {
          "id": 343937480,
          "eventId": 884892,
          "siteUnitNumber": 12586,
          "bathingSite": "HOVE",
          "eventStart": "2023-10-29T02:36:09",
          "eventStop": "2023-10-29T03:24:00",
          "duration": 47,
          "status": "Genuine",
          "associatedSiteId": 109929,
          "outfallName": "SHOREHAM NO1",
          "isImpacting": true,
          "overFlowSiteId": 115434
        },
        {
          "id": 343937481,
          "eventId": 884892,
          "siteUnitNumber": 12587,
          "bathingSite": "SOUTHWICK",
          "eventStart": "2023-10-29T02:36:09",
          "eventStop": "2023-10-29T03:24:00",
          "duration": 47,
          "status": "Genuine",
          "associatedSiteId": 109929,
          "outfallName": "SHOREHAM NO1",
          "isImpacting": true,
          "overFlowSiteId": 115434,
          "historicSpillsList": []
        },
        {
          "id": 343937482,
          "eventId": 884892,
          "siteUnitNumber": 12588,
          "bathingSite": "SHOREHAM BEACH",
          "eventStart": "2023-10-29T02:36:09",
          "eventStop": "2023-10-29T03:24:00",
          "duration": 47,
          "status": "Genuine",
          "associatedSiteId": 109929,
          "outfallName": "SHOREHAM NO1",
          "isImpacting": true,
          "overFlowSiteId": 115434,
          "historicSpillsList": []
        }
      ]
    },
    {
      "id": 343944729,
      "eventId": 884820,
      "siteUnitNumber": 12575,
      "bathingSite": "HASTINGS PELHAM BEACH",
      "eventStart": "2023-10-29T03:03:31",
      "eventStop": "2023-10-29T03:15:06",
      "duration": 11,
      "status": "Genuine",
      "associatedSiteId": 109982,
      "outfallName": "COOMBS HASTINGS",
      "isImpacting": false,
      "overFlowSiteId": 0,
      "historicSpillsList": []
    },
    {
      "id": 343920411,
      "eventId": 884301,
      "siteUnitNumber": 12614,
      "bathingSite": "TOTLAND BAY",
      "eventStart": "2023-10-28T21:01:00",
      "eventStop": "2023-10-29T03:09:00",
      "duration": 368,
      "status": "Genuine",
      "associatedSiteId": 109657,
      "outfallName": "THE PROMENADE TOTLAND PIER NO2",
      "isImpacting": false,
      "overFlowSiteId": 0,
      "historicSpillsList": []
    },
    {
      "id": 343932926,
      "eventId": 884834,
      "siteUnitNumber": 12568,
      "bathingSite": "SANDGATE",
      "eventStart": "2023-10-29T02:49:24",
      "eventStop": "2023-10-29T02:56:05",
      "duration": 6,
      "status": "Genuine",
      "associatedSiteId": 109896,
      "outfallName": "RANGE ROAD HYTHE K SHORT",
      "isImpacting": true,
      "overFlowSiteId": 0,
      "historicSpillsList": [
        {
          "id": 343932927,
          "eventId": 884834,
          "siteUnitNumber": 12569,
          "bathingSite": "HYTHE",
          "eventStart": "2023-10-29T02:49:24",
          "eventStop": "2023-10-29T02:56:05",
          "duration": 6,
          "status": "Genuine",
          "associatedSiteId": 109896,
          "outfallName": "RANGE ROAD HYTHE K SHORT",
          "isImpacting": true,
          "overFlowSiteId": 116112,
          "historicSpillsList": []
        }
      ]
    },
    {
      "id": 343922953,
      "eventId": 884352,
      "siteUnitNumber": 12616,
      "bathingSite": "GURNARD",
      "eventStart": "2023-10-28T21:30:00",
      "eventStop": "2023-10-29T02:45:00",
      "duration": 315,
      "status": "Genuine",
      "associatedSiteId": 109704,
      "outfallName": "EGYPT POINT COWES",
      "isImpacting": true,
      "overFlowSiteId": 0,
      "historicSpillsList": [
        {
          "id": 343922954,
          "eventId": 884352,
          "siteUnitNumber": 12617,
          "bathingSite": "COWES",
          "eventStart": "2023-10-28T21:30:00",
          "eventStop": "2023-10-29T02:45:00",
          "duration": 315,
          "status": "Genuine",
          "associatedSiteId": 109704,
          "outfallName": "EGYPT POINT COWES",
          "isImpacting": true,
          "overFlowSiteId": 108518,
          "historicSpillsList": []
        }
      ]
    },
    {
      "id": 343920742,
      "eventId": 884659,
      "siteUnitNumber": 12614,
      "bathingSite": "TOTLAND BAY",
      "eventStart": "2023-10-29T01:11:04",
      "eventStop": "2023-10-29T02:41:00",
      "duration": 89,
      "status": "Genuine",
      "associatedSiteId": 109665,
      "outfallName": "THORLEY ROAD BOULDNOR",
      "isImpacting": false,
      "overFlowSiteId": 0,
      "historicSpillsList": []
    },
    {
      "id": 343944733,
      "eventId": 884700,
      "siteUnitNumber": 12575,
      "bathingSite": "HASTINGS PELHAM BEACH",
      "eventStart": "2023-10-29T01:53:01",
      "eventStop": "2023-10-29T02:35:19",
      "duration": 42,
      "status": "Genuine",
      "associatedSiteId": 109982,
      "outfallName": "COOMBS HASTINGS",
      "isImpacting": true,
      "overFlowSiteId": 0,
      "historicSpillsList": [
        {
          "id": 343944734,
          "eventId": 884700,
          "siteUnitNumber": 12576,
          "bathingSite": "ST LEONARDS",
          "eventStart": "2023-10-29T01:53:01",
          "eventStop": "2023-10-29T02:35:19",
          "duration": 42,
          "status": "Genuine",
          "associatedSiteId": 109982,
          "outfallName": "COOMBS HASTINGS",
          "isImpacting": true,
          "overFlowSiteId": 110211,
          "historicSpillsList": []
        }
      ]
    },
    {
      "id": 343920583,
      "eventId": 884684,
      "siteUnitNumber": 12614,
      "bathingSite": "TOTLAND BAY",
      "eventStart": "2023-10-29T01:31:00",
      "eventStop": "2023-10-29T02:34:00",
      "duration": 63,
      "status": "Genuine",
      "associatedSiteId": 109658,
      "outfallName": "MONKS LANE LINSTONE CHINE",
      "isImpacting": true,
      "overFlowSiteId": 0,
      "historicSpillsList": [
        {
          "id": 343920584,
          "eventId": 884684,
          "siteUnitNumber": 12615,
          "bathingSite": "COLWELL BAY",
          "eventStart": "2023-10-29T01:31:00",
          "eventStop": "2023-10-29T02:34:00",
          "duration": 63,
          "status": "Genuine",
          "associatedSiteId": 109658,
          "outfallName": "MONKS LANE LINSTONE CHINE",
          "isImpacting": true,
          "overFlowSiteId": 101227,
          "historicSpillsList": []
        }
      ]
    },
    {
      "id": 343924209,
      "eventId": 884176,
      "siteUnitNumber": 12616,
      "bathingSite": "GURNARD",
      "eventStart": "2023-10-28T20:02:00",
      "eventStop": "2023-10-29T02:29:00",
      "duration": 387,
      "status": "Genuine",
      "associatedSiteId": 109707,
      "outfallName": "MEDINA ROAD COWES",
      "isImpacting": false,
      "overFlowSiteId": 0,
      "historicSpillsList": []
    },
    {
      "id": 343932930,
      "eventId": 884778,
      "siteUnitNumber": 12568,
      "bathingSite": "SANDGATE",
      "eventStart": "2023-10-29T02:15:18",
      "eventStop": "2023-10-29T02:21:55",
      "duration": 6,
      "status": "Genuine",
      "associatedSiteId": 109896,
      "outfallName": "RANGE ROAD HYTHE K SHORT",
      "isImpacting": true,
      "overFlowSiteId": 0,
      "historicSpillsList": [
        {
          "id": 343932931,
          "eventId": 884778,
          "siteUnitNumber": 12569,
          "bathingSite": "HYTHE",
          "eventStart": "2023-10-29T02:15:18",
          "eventStop": "2023-10-29T02:21:55",
          "duration": 6,
          "status": "Genuine",
          "associatedSiteId": 109896,
          "outfallName": "RANGE ROAD HYTHE K SHORT",
          "isImpacting": true,
          "overFlowSiteId": 116112,
          "historicSpillsList": []
        }
      ]
    },
    {
      "id": 343937478,
      "eventId": 884890,
      "siteUnitNumber": 12587,
      "bathingSite": "SOUTHWICK",
      "eventStart": "2023-10-29T02:04:16",
      "eventStop": "2023-10-29T02:16:00",
      "duration": 11,
      "status": "Genuine",
      "associatedSiteId": 109929,
      "outfallName": "SHOREHAM NO1",
      "isImpacting": true,
      "overFlowSiteId": 0,
      "historicSpillsList": [
        {
          "id": 343937478,
          "eventId": 884890,
          "siteUnitNumber": 12587,
          "bathingSite": "SOUTHWICK",
          "eventStart": "2023-10-29T02:04:16",
          "eventStop": "2023-10-29T02:16:00",
          "duration": 11,
          "status": "Genuine",
          "associatedSiteId": 109929,
          "outfallName": "SHOREHAM NO1",
          "isImpacting": true,
          "overFlowSiteId": 115434
        },
        {
          "id": 343937479,
          "eventId": 884890,
          "siteUnitNumber": 12588,
          "bathingSite": "SHOREHAM BEACH",
          "eventStart": "2023-10-29T02:04:16",
          "eventStop": "2023-10-29T02:16:00",
          "duration": 11,
          "status": "Genuine",
          "associatedSiteId": 109929,
          "outfallName": "SHOREHAM NO1",
          "isImpacting": true,
          "overFlowSiteId": 115434,
          "historicSpillsList": []
        },
        {
          "id": 343937486,
          "eventId": 884890,
          "siteUnitNumber": 12586,
          "bathingSite": "HOVE",
          "eventStart": "2023-10-29T02:04:16",
          "eventStop": "2023-10-29T02:16:00",
          "duration": 11,
          "status": "Genuine",
          "associatedSiteId": 109929,
          "outfallName": "SHOREHAM NO1",
          "isImpacting": true,
          "overFlowSiteId": 115434,
          "historicSpillsList": []
        }
      ]
    }
  ]
}