{
  "currentPage": 579,
  "totalItems": 21025,
  "totalPages": 841,
  "items": [
    {
      "id": 344824636,
      "eventId": 592617,
      "siteUnitNumber": 12548,
      "bathingSite": "TANKERTON",
      "eventStart": "2022-05-04T19:15:11",
      "eventStop": "2022-05-04T20:22:00",
      "duration": 66,
      "status": "Genuine",
      "associatedSiteId": 109830,
      "outfallName": "SWALECLIFFE NO1",
      "isImpacting": true,
      "overFlowSiteId": 0,
      "historicSpillsList": [
        {
          "id": 344824636,
          "eventId": 592617,
          "siteUnitNumber": 12548,
          "bathingSite": "TANKERTON",
          "eventStart": "2022-05-04T19:15:11",
          "eventStop": "2022-05-04T20:22:00",
          "duration": 66,
          "status": "Genuine",
          "associatedSiteId": 109830,
          "outfallName": "SWALECLIFFE NO1",
          "isImpacting": true,
          "overFlowSiteId": 115444
        },
        {
          "id": 344824637,
          "eventId": 592617,
          "siteUnitNumber": 12549,
          "bathingSite": "HERNE BAY CENTRAL",
          "eventStart": "2022-05-04T19:15:11",
          "eventStop": "2022-05-04T20:22:00",
          "duration": 66,
          "status": "Genuine",
          "associatedSiteId": 109830,
          "outfallName": "SWALECLIFFE NO1",
          "isImpacting": true,
          "overFlowSiteId": 115444,
          "historicSpillsList": []
        }
      ]
    },
    {
      "id": 344812761,
      "eventId": 592557,
      "siteUnitNumber": 12544,
      "bathingSite": "SHEERNESS",
      "eventStart": "2022-05-04T18:00:00",
      "eventStop": "2022-05-04T18:47:00",
      "duration": 47,
      "status": "Genuine",
      "associatedSiteId": 109616,
      "outfallName": "SOUTH STREET QUEENBOROUGH",
      "isImpacting": true,
      "overFlowSiteId": 0,
      "historicSpillsList": [
        {
          "id": 344812761,
          "eventId": 592557,
          "siteUnitNumber": 12544,
          "bathingSite": "SHEERNESS",
          "eventStart": "2022-05-04T18:00:00",
          "eventStop": "2022-05-04T18:47:00",
          "duration": 47,
          "status": "Genuine",
          "associatedSiteId": 109616,
          "outfallName": "SOUTH STREET QUEENBOROUGH",
          "isImpacting": true,
          "overFlowSiteId": 108732
        }
      ]
    },
    {
      "id": 344812763,
      "eventId": 592554,
      "siteUnitNumber": 12544,
      "bathingSite": "SHEERNESS",
      "eventStart": "2022-05-04T17:53:31",
      "eventStop": "2022-05-04T17:56:45",
      "duration": 3,
      "status": "Genuine",
      "associatedSiteId": 109616,
      "outfallName": "SOUTH STREET QUEENBOROUGH",
      "isImpacting": true,
      "overFlowSiteId": 0,
      "historicSpillsList": [
        {
          "id": 344812763,
          "eventId": 592554,
          "siteUnitNumber": 12544,
          "bathingSite": "SHEERNESS",
          "eventStart": "2022-05-04T17:53:31",
          "eventStop": "2022-05-04T17:56:45",
          "duration": 3,
          "status": "Genuine",
          "associatedSiteId": 109616,
          "outfallName": "SOUTH STREET QUEENBOROUGH",
          "isImpacting": true,
          "overFlowSiteId": 108732
        }
      ]
    },
    {
      "id": 344812764,
      "eventId": 592345,
      "siteUnitNumber": 12544,
      "bathingSite": "SHEERNESS",
      "eventStart": "2022-05-04T12:38:47",
      "eventStop": "2022-05-04T13:15:00",
      "duration": 36,
      "status": "Genuine",
      "associatedSiteId": 109616,
      "outfallName": "SOUTH STREET QUEENBOROUGH",
      "isImpacting": true,
      "overFlowSiteId": 0,
      "historicSpillsList": [
        {
          "id": 344812764,
          "eventId": 592345,
          "siteUnitNumber": 12544,
          "bathingSite": "SHEERNESS",
          "eventStart": "2022-05-04T12:38:47",
          "eventStop": "2022-05-04T13:15:00",
          "duration": 36,
          "status": "Genuine",
          "associatedSiteId": 109616,
          "outfallName": "SOUTH STREET QUEENBOROUGH",
          "isImpacting": true,
          "overFlowSiteId": 108732
        }
      ]
    },
    {
      "id": 344838046,
      "eventId": 592155,
      "siteUnitNumber": 12593,
      "bathingSite": "FELPHAM",
      "eventStart": "2022-05-03T19:13:44",
      "eventStop": "2022-05-03T19:16:31",
      "duration": 2,
      "status": "Not Genuine",
      "associatedSiteId": 109970,
      "outfallName": "CHICHESTER ROAD BOGNOR",
      "isImpacting": true,
      "overFlowSiteId": 0,
      "historicSpillsList": []
    },
    {
      "id": 344812862,
      "eventId": 590236,
      "siteUnitNumber": 12544,
      "bathingSite": "SHEERNESS",
      "eventStart": "2022-04-29T14:08:55",
      "eventStop": "2022-04-29T15:18:00",
      "duration": 69,
      "status": "Not Genuine",
      "associatedSiteId": 109617,
      "outfallName": "DROVE ROAD SHEERNESS",
      "isImpacting": true,
      "overFlowSiteId": 0,
      "historicSpillsList": []
    },
    {
      "id": 344812261,
      "eventId": 590016,
      "siteUnitNumber": 12626,
      "bathingSite": "VENTNOR",
      "eventStart": "2022-04-29T00:45:00",
      "eventStop": "2022-04-29T04:00:00",
      "duration": 195,
      "status": "Not Genuine",
      "associatedSiteId": 100481,
      "outfallName": "FLOWERS BROOK VENTNOR",
      "isImpacting": true,
      "overFlowSiteId": 0,
      "historicSpillsList": []
    },
    {
      "id": 344821058,
      "eventId": 585158,
      "siteUnitNumber": 12617,
      "bathingSite": "COWES",
      "eventStart": "2022-04-19T16:45:00",
      "eventStop": "2022-04-19T18:44:00",
      "duration": 119,
      "status": "Genuine",
      "associatedSiteId": 109777,
      "outfallName": "APPLEY PARK RYDE TRANSFER",
      "isImpacting": true,
      "overFlowSiteId": 0,
      "historicSpillsList": [
        {
          "id": 344821058,
          "eventId": 585158,
          "siteUnitNumber": 12617,
          "bathingSite": "COWES",
          "eventStart": "2022-04-19T16:45:00",
          "eventStop": "2022-04-19T18:44:00",
          "duration": 119,
          "status": "Genuine",
          "associatedSiteId": 109777,
          "outfallName": "APPLEY PARK RYDE TRANSFER",
          "isImpacting": true,
          "overFlowSiteId": 108941
        },
        {
          "id": 344821059,
          "eventId": 585158,
          "siteUnitNumber": 12618,
          "bathingSite": "RYDE",
          "eventStart": "2022-04-19T16:45:00",
          "eventStop": "2022-04-19T18:44:00",
          "duration": 119,
          "status": "Genuine",
          "associatedSiteId": 109777,
          "outfallName": "APPLEY PARK RYDE TRANSFER",
          "isImpacting": true,
          "overFlowSiteId": 108941,
          "historicSpillsList": []
        }
      ]
    },
    {
      "id": 344828760,
      "eventId": 585112,
      "siteUnitNumber": 12568,
      "bathingSite": "SANDGATE",
      "eventStart": "2022-04-19T12:30:00",
      "eventStop": "2022-04-19T13:00:00",
      "duration": 30,
      "status": "Genuine",
      "associatedSiteId": 109897,
      "outfallName": "RANGE ROAD HYTHE K LONG",
      "isImpacting": true,
      "overFlowSiteId": 0,
      "historicSpillsList": [
        {
          "id": 344828760,
          "eventId": 585112,
          "siteUnitNumber": 12568,
          "bathingSite": "SANDGATE",
          "eventStart": "2022-04-19T12:30:00",
          "eventStop": "2022-04-19T13:00:00",
          "duration": 30,
          "status": "Genuine",
          "associatedSiteId": 109897,
          "outfallName": "RANGE ROAD HYTHE K LONG",
          "isImpacting": true,
          "overFlowSiteId": 116048
        },
        {
          "id": 344828761,
          "eventId": 585112,
          "siteUnitNumber": 12569,
          "bathingSite": "HYTHE",
          "eventStart": "2022-04-19T12:30:00",
          "eventStop": "2022-04-19T13:00:00",
          "duration": 30,
          "status": "Genuine",
          "associatedSiteId": 109897,
          "outfallName": "RANGE ROAD HYTHE K LONG",
          "isImpacting": true,
          "overFlowSiteId": 116048,
          "historicSpillsList": []
        }
      ]
    },
    {
      "id": 344816126,
      "eventId": 581822,
      "siteUnitNumber": 12563,
      "bathingSite": "RAMSGATE SANDS",
      "eventStart": "2022-04-12T13:17:42",
      "eventStop": "2022-04-12T13:19:51",
      "duration": 2,
      "status": "Not Genuine",
      "associatedSiteId": 109688,
      "outfallName": "FOADS HILL CLIFFS END",
      "isImpacting": true,
      "overFlowSiteId": 0,
      "historicSpillsList": []
    },
    {
      "id": 344838528,
      "eventId": 580346,
      "siteUnitNumber": 12575,
      "bathingSite": "HASTINGS PELHAM BEACH",
      "eventStart": "2022-04-09T01:53:01",
      "eventStop": "2022-04-09T15:15:00",
      "duration": 801,
      "status": "Not Genuine",
      "associatedSiteId": 109981,
      "outfallName": "ROCK A NORE HASTINGS",
      "isImpacting": true,
      "overFlowSiteId": 0,
      "historicSpillsList": []
    },
    {
      "id": 344830484,
      "eventId": 579822,
      "siteUnitNumber": 12576,
      "bathingSite": "ST LEONARDS",
      "eventStart": "2022-04-07T23:16:37",
      "eventStop": "2022-04-07T23:56:23",
      "duration": 39,
      "status": "Genuine",
      "associatedSiteId": 109903,
      "outfallName": "BEXHILL & HASTINGS NO2",
      "isImpacting": true,
      "overFlowSiteId": 0,
      "historicSpillsList": [
        {
          "id": 344830484,
          "eventId": 579822,
          "siteUnitNumber": 12576,
          "bathingSite": "ST LEONARDS",
          "eventStart": "2022-04-07T23:16:37",
          "eventStop": "2022-04-07T23:56:23",
          "duration": 39,
          "status": "Genuine",
          "associatedSiteId": 109903,
          "outfallName": "BEXHILL & HASTINGS NO2",
          "isImpacting": true,
          "overFlowSiteId": 115398
        },
        {
          "id": 344830485,
          "eventId": 579822,
          "siteUnitNumber": 12577,
          "bathingSite": "BEXHILL",
          "eventStart": "2022-04-07T23:16:37",
          "eventStop": "2022-04-07T23:56:23",
          "duration": 39,
          "status": "Genuine",
          "associatedSiteId": 109903,
          "outfallName": "BEXHILL & HASTINGS NO2",
          "isImpacting": true,
          "overFlowSiteId": 115398,
          "historicSpillsList": []
        }
      ]
    },
    {
      "id": 344830490,
      "eventId": 579791,
      "siteUnitNumber": 12576,
      "bathingSite": "ST LEONARDS",
      "eventStart": "2022-04-07T21:41:25",
      "eventStop": "2022-04-07T22:01:26",
      "duration": 20,
      "status": "Genuine",
      "associatedSiteId": 109903,
      "outfallName": "BEXHILL & HASTINGS NO2",
      "isImpacting": true,
      "overFlowSiteId": 0,
      "historicSpillsList": [
        {
          "id": 344830490,
          "eventId": 579791,
          "siteUnitNumber": 12576,
          "bathingSite": "ST LEONARDS",
          "eventStart": "2022-04-07T21:41:25",
          "eventStop": "2022-04-07T22:01:26",
          "duration": 20,
          "status": "Genuine",
          "associatedSiteId": 109903,
          "outfallName": "BEXHILL & HASTINGS NO2",
          "isImpacting": true,
          "overFlowSiteId": 115398
        },
        {
          "id": 344830491,
          "eventId": 579791,
          "siteUnitNumber": 12577,
          "bathingSite": "BEXHILL",
          "eventStart": "2022-04-07T21:41:25",
          "eventStop": "2022-04-07T22:01:26",
          "duration": 20,
          "status": "Genuine",
          "associatedSiteId": 109903,
          "outfallName": "BEXHILL & HASTINGS NO2",
          "isImpacting": true,
          "overFlowSiteId": 115398,
          "historicSpillsList": []
        }
      ]
    },
    {
      "id": 344830488,
      "eventId": 579739,
      "siteUnitNumber": 12576,
      "bathingSite": "ST LEONARDS",
      "eventStart": "2022-04-07T20:41:14",
      "eventStop": "2022-04-07T21:06:10",
      "duration": 24,
      "status": "Genuine",
      "associatedSiteId": 109903,
      "outfallName": "BEXHILL & HASTINGS NO2",
      "isImpacting": true,
      "overFlowSiteId": 0,
      "historicSpillsList": [
        {
          "id": 344830488,
          "eventId": 579739,
          "siteUnitNumber": 12576,
          "bathingSite": "ST LEONARDS",
          "eventStart": "2022-04-07T20:41:14",
          "eventStop": "2022-04-07T21:06:10",
          "duration": 24,
          "status": "Genuine",
          "associatedSiteId": 109903,
          "outfallName": "BEXHILL & HASTINGS NO2",
          "isImpacting": true,
          "overFlowSiteId": 115398
        },
        {
          "id": 344830489,
          "eventId": 579739,
          "siteUnitNumber": 12577,
          "bathingSite": "BEXHILL",
          "eventStart": "2022-04-07T20:41:14",
          "eventStop": "2022-04-07T21:06:10",
          "duration": 24,
          "status": "Genuine",
          "associatedSiteId": 109903,
          "outfallName": "BEXHILL & HASTINGS NO2",
          "isImpacting": true,
          "overFlowSiteId": 115398,
          "historicSpillsList": []
        }
      ]
    },
    {
      "id": 344830494,
      "eventId": 579646,
      "siteUnitNumber": 12576,
      "bathingSite": "ST LEONARDS",
      "eventStart": "2022-04-07T16:56:56",
      "eventStop": "2022-04-07T19:19:47",
      "duration": 142,
      "status": "Genuine",
      "associatedSiteId": 109903,
      "outfallName": "BEXHILL & HASTINGS NO2",
      "isImpacting": true,
      "overFlowSiteId": 0,
      "historicSpillsList": [
        {
          "id": 344830494,
          "eventId": 579646,
          "siteUnitNumber": 12576,
          "bathingSite": "ST LEONARDS",
          "eventStart": "2022-04-07T16:56:56",
          "eventStop": "2022-04-07T19:19:47",
          "duration": 142,
          "status": "Genuine",
          "associatedSiteId": 109903,
          "outfallName": "BEXHILL & HASTINGS NO2",
          "isImpacting": true,
          "overFlowSiteId": 115398
        },
        {
          "id": 344830495,
          "eventId": 579646,
          "siteUnitNumber": 12577,
          "bathingSite": "BEXHILL",
          "eventStart": "2022-04-07T16:56:56",
          "eventStop": "2022-04-07T19:19:47",
          "duration": 142,
          "status": "Genuine",
          "associatedSiteId": 109903,
          "outfallName": "BEXHILL & HASTINGS NO2",
          "isImpacting": true,
          "overFlowSiteId": 115398,
          "historicSpillsList": []
        }
      ]
    },
    {
      "id": 344830492,
      "eventId": 579058,
      "siteUnitNumber": 12576,
      "bathingSite": "ST LEONARDS",
      "eventStart": "2022-04-07T03:41:35",
      "eventStop": "2022-04-07T16:51:46",
      "duration": 790,
      "status": "Genuine",
      "associatedSiteId": 109903,
      "outfallName": "BEXHILL & HASTINGS NO2",
      "isImpacting": true,
      "overFlowSiteId": 0,
      "historicSpillsList": [
        {
          "id": 344830492,
          "eventId": 579058,
          "siteUnitNumber": 12576,
          "bathingSite": "ST LEONARDS",
          "eventStart": "2022-04-07T03:41:35",
          "eventStop": "2022-04-07T16:51:46",
          "duration": 790,
          "status": "Genuine",
          "associatedSiteId": 109903,
          "outfallName": "BEXHILL & HASTINGS NO2",
          "isImpacting": true,
          "overFlowSiteId": 115398
        },
        {
          "id": 344830493,
          "eventId": 579058,
          "siteUnitNumber": 12577,
          "bathingSite": "BEXHILL",
          "eventStart": "2022-04-07T03:41:35",
          "eventStop": "2022-04-07T16:51:46",
          "duration": 790,
          "status": "Genuine",
          "associatedSiteId": 109903,
          "outfallName": "BEXHILL & HASTINGS NO2",
          "isImpacting": true,
          "overFlowSiteId": 115398,
          "historicSpillsList": []
        }
      ]
    },
    {
      "id": 344849487,
      "eventId": 579331,
      "siteUnitNumber": 12577,
      "bathingSite": "BEXHILL",
      "eventStart": "2022-04-07T07:46:00",
      "eventStop": "2022-04-07T15:21:00",
      "duration": 455,
      "status": "Genuine",
      "associatedSiteId": 111338,
      "outfallName": "GALLEY HILL BEXHILL",
      "isImpacting": true,
      "overFlowSiteId": 0,
      "historicSpillsList": [
        {
          "id": 344849487,
          "eventId": 579331,
          "siteUnitNumber": 12577,
          "bathingSite": "BEXHILL",
          "eventStart": "2022-04-07T07:46:00",
          "eventStop": "2022-04-07T15:21:00",
          "duration": 455,
          "status": "Genuine",
          "associatedSiteId": 111338,
          "outfallName": "GALLEY HILL BEXHILL",
          "isImpacting": true,
          "overFlowSiteId": 110665
        }
      ]
    },
    {
      "id": 344841786,
      "eventId": 579269,
      "siteUnitNumber": 12622,
      "bathingSite": "WHITECLIFF BAY",
      "eventStart": "2022-04-07T05:59:12",
      "eventStop": "2022-04-07T13:02:00",
      "duration": 422,
      "status": "Genuine",
      "associatedSiteId": 110096,
      "outfallName": "SANDOWN NO1",
      "isImpacting": true,
      "overFlowSiteId": 0,
      "historicSpillsList": [
        {
          "id": 344841786,
          "eventId": 579269,
          "siteUnitNumber": 12622,
          "bathingSite": "WHITECLIFF BAY",
          "eventStart": "2022-04-07T05:59:12",
          "eventStop": "2022-04-07T13:02:00",
          "duration": 422,
          "status": "Genuine",
          "associatedSiteId": 110096,
          "outfallName": "SANDOWN NO1",
          "isImpacting": true,
          "overFlowSiteId": 115453
        },
        {
          "id": 344841787,
          "eventId": 579269,
          "siteUnitNumber": 12623,
          "bathingSite": "YAVERLAND",
          "eventStart": "2022-04-07T05:59:12",
          "eventStop": "2022-04-07T13:02:00",
          "duration": 422,
          "status": "Genuine",
          "associatedSiteId": 110096,
          "outfallName": "SANDOWN NO1",
          "isImpacting": true,
          "overFlowSiteId": 115453,
          "historicSpillsList": []
        },
        {
          "id": 344841788,
          "eventId": 579269,
          "siteUnitNumber": 12624,
          "bathingSite": "SANDOWN",
          "eventStart": "2022-04-07T05:59:12",
          "eventStop": "2022-04-07T13:02:00",
          "duration": 422,
          "status": "Genuine",
          "associatedSiteId": 110096,
          "outfallName": "SANDOWN NO1",
          "isImpacting": true,
          "overFlowSiteId": 115453,
          "historicSpillsList": []
        }
      ]
    },
    {
      "id": 344821060,
      "eventId": 579098,
      "siteUnitNumber": 12617,
      "bathingSite": "COWES",
      "eventStart": "2022-04-07T04:04:27",
      "eventStop": "2022-04-07T10:21:00",
      "duration": 376,
      "status": "Genuine",
      "associatedSiteId": 109777,
      "outfallName": "APPLEY PARK RYDE TRANSFER",
      "isImpacting": true,
      "overFlowSiteId": 0,
      "historicSpillsList": [
        {
          "id": 344821060,
          "eventId": 579098,
          "siteUnitNumber": 12617,
          "bathingSite": "COWES",
          "eventStart": "2022-04-07T04:04:27",
          "eventStop": "2022-04-07T10:21:00",
          "duration": 376,
          "status": "Genuine",
          "associatedSiteId": 109777,
          "outfallName": "APPLEY PARK RYDE TRANSFER",
          "isImpacting": true,
          "overFlowSiteId": 108941
        },
        {
          "id": 344821061,
          "eventId": 579098,
          "siteUnitNumber": 12618,
          "bathingSite": "RYDE",
          "eventStart": "2022-04-07T04:04:27",
          "eventStop": "2022-04-07T10:21:00",
          "duration": 376,
          "status": "Genuine",
          "associatedSiteId": 109777,
          "outfallName": "APPLEY PARK RYDE TRANSFER",
          "isImpacting": true,
          "overFlowSiteId": 108941,
          "historicSpillsList": []
        }
      ]
    },
    {
      "id": 344852538,
      "eventId": 579128,
      "siteUnitNumber": 12614,
      "bathingSite": "TOTLAND BAY",
      "eventStart": "2022-04-07T04:37:57",
      "eventStop": "2022-04-07T08:03:00",
      "duration": 205,
      "status": "Genuine",
      "associatedSiteId": 115498,
      "outfallName": "NORTON TRANSFER IOW",
      "isImpacting": true,
      "overFlowSiteId": 0,
      "historicSpillsList": [
        {
          "id": 344852538,
          "eventId": 579128,
          "siteUnitNumber": 12614,
          "bathingSite": "TOTLAND BAY",
          "eventStart": "2022-04-07T04:37:57",
          "eventStop": "2022-04-07T08:03:00",
          "duration": 205,
          "status": "Genuine",
          "associatedSiteId": 115498,
          "outfallName": "NORTON TRANSFER IOW",
          "isImpacting": true,
          "overFlowSiteId": 108544
        },
        {
          "id": 344852539,
          "eventId": 579128,
          "siteUnitNumber": 12615,
          "bathingSite": "COLWELL BAY",
          "eventStart": "2022-04-07T04:37:57",
          "eventStop": "2022-04-07T08:03:00",
          "duration": 205,
          "status": "Genuine",
          "associatedSiteId": 115498,
          "outfallName": "NORTON TRANSFER IOW",
          "isImpacting": true,
          "overFlowSiteId": 108544,
          "historicSpillsList": []
        }
      ]
    },
    {
      "id": 344849078,
      "eventId": 579068,
      "siteUnitNumber": 12582,
      "bathingSite": "SEAFORD",
      "eventStart": "2022-04-07T03:49:28",
      "eventStop": "2022-04-07T07:50:18",
      "duration": 240,
      "status": "Genuine",
      "associatedSiteId": 110920,
      "outfallName": "NEWHAVEN",
      "isImpacting": true,
      "overFlowSiteId": 0,
      "historicSpillsList": [
        {
          "id": 344849078,
          "eventId": 579068,
          "siteUnitNumber": 12582,
          "bathingSite": "SEAFORD",
          "eventStart": "2022-04-07T03:49:28",
          "eventStop": "2022-04-07T07:50:18",
          "duration": 240,
          "status": "Genuine",
          "associatedSiteId": 110920,
          "outfallName": "NEWHAVEN",
          "isImpacting": true,
          "overFlowSiteId": 116065
        }
      ]
    },
    {
      "id": 344828764,
      "eventId": 579147,
      "siteUnitNumber": 12568,
      "bathingSite": "SANDGATE",
      "eventStart": "2022-04-07T04:52:00",
      "eventStop": "2022-04-07T07:22:00",
      "duration": 150,
      "status": "Genuine",
      "associatedSiteId": 109897,
      "outfallName": "RANGE ROAD HYTHE K LONG",
      "isImpacting": true,
      "overFlowSiteId": 0,
      "historicSpillsList": [
        {
          "id": 344828764,
          "eventId": 579147,
          "siteUnitNumber": 12568,
          "bathingSite": "SANDGATE",
          "eventStart": "2022-04-07T04:52:00",
          "eventStop": "2022-04-07T07:22:00",
          "duration": 150,
          "status": "Genuine",
          "associatedSiteId": 109897,
          "outfallName": "RANGE ROAD HYTHE K LONG",
          "isImpacting": true,
          "overFlowSiteId": 116048
        },
        {
          "id": 344828765,
          "eventId": 579147,
          "siteUnitNumber": 12569,
          "bathingSite": "HYTHE",
          "eventStart": "2022-04-07T04:52:00",
          "eventStop": "2022-04-07T07:22:00",
          "duration": 150,
          "status": "Genuine",
          "associatedSiteId": 109897,
          "outfallName": "RANGE ROAD HYTHE K LONG",
          "isImpacting": true,
          "overFlowSiteId": 116048,
          "historicSpillsList": []
        }
      ]
    },
    {
      "id": 344824639,
      "eventId": 579105,
      "siteUnitNumber": 12548,
      "bathingSite": "TANKERTON",
      "eventStart": "2022-04-07T04:06:00",
      "eventStop": "2022-04-07T06:48:05",
      "duration": 162,
      "status": "Genuine",
      "associatedSiteId": 109830,
      "outfallName": "SWALECLIFFE NO1",
      "isImpacting": true,
      "overFlowSiteId": 0,
      "historicSpillsList": [
        {
          "id": 344824639,
          "eventId": 579105,
          "siteUnitNumber": 12548,
          "bathingSite": "TANKERTON",
          "eventStart": "2022-04-07T04:06:00",
          "eventStop": "2022-04-07T06:48:05",
          "duration": 162,
          "status": "Genuine",
          "associatedSiteId": 109830,
          "outfallName": "SWALECLIFFE NO1",
          "isImpacting": true,
          "overFlowSiteId": 115444
        },
        {
          "id": 344824640,
          "eventId": 579105,
          "siteUnitNumber": 12549,
          "bathingSite": "HERNE BAY CENTRAL",
          "eventStart": "2022-04-07T04:06:00",
          "eventStop": "2022-04-07T06:48:05",
          "duration": 162,
          "status": "Genuine",
          "associatedSiteId": 109830,
          "outfallName": "SWALECLIFFE NO1",
          "isImpacting": true,
          "overFlowSiteId": 115444,
          "historicSpillsList": []
        }
      ]
    },
    {
      "id": 344852540,
      "eventId": 579127,
      "siteUnitNumber": 12615,
      "bathingSite": "COLWELL BAY",
      "eventStart": "2022-04-07T04:31:57",
      "eventStop": "2022-04-07T06:15:00",
      "duration": 103,
      "status": "Genuine",
      "associatedSiteId": 115498,
      "outfallName": "NORTON TRANSFER IOW",
      "isImpacting": true,
      "overFlowSiteId": 0,
      "historicSpillsList": [
        {
          "id": 344852540,
          "eventId": 579127,
          "siteUnitNumber": 12615,
          "bathingSite": "COLWELL BAY",
          "eventStart": "2022-04-07T04:31:57",
          "eventStop": "2022-04-07T06:15:00",
          "duration": 103,
          "status": "Genuine",
          "associatedSiteId": 115498,
          "outfallName": "NORTON TRANSFER IOW",
          "isImpacting": true,
          "overFlowSiteId": 109524
        },
        {
          "id": 344852541,
          "eventId": 579127,
          "siteUnitNumber": 12614,
          "bathingSite": "TOTLAND BAY",
          "eventStart": "2022-04-07T04:31:57",
          "eventStop": "2022-04-07T06:15:00",
          "duration": 103,
          "status": "Genuine",
          "associatedSiteId": 115498,
          "outfallName": "NORTON TRANSFER IOW",
          "isImpacting": true,
          "overFlowSiteId": 109524,
          "historicSpillsList": []
        }
      ]
    },
    {
      "id": 344834360,
      "eventId": 579121,
      "siteUnitNumber": 12582,
      "bathingSite": "SEAFORD",
      "eventStart": "2022-04-07T04:15:00",
      "eventStop": "2022-04-07T06:08:21",
      "duration": 113,
      "status": "Genuine",
      "associatedSiteId": 109957,
      "outfallName": "PORTOBELLO BRIGHTON NO2",
      "isImpacting": true,
      "overFlowSiteId": 0,
      "historicSpillsList": [
        {
          "id": 344834360,
          "eventId": 579121,
          "siteUnitNumber": 12582,
          "bathingSite": "SEAFORD",
          "eventStart": "2022-04-07T04:15:00",
          "eventStop": "2022-04-07T06:08:21",
          "duration": 113,
          "status": "Genuine",
          "associatedSiteId": 109957,
          "outfallName": "PORTOBELLO BRIGHTON NO2",
          "isImpacting": true,
          "overFlowSiteId": 116036
        },
        {
          "id": 344834361,
          "eventId": 579121,
          "siteUnitNumber": 12583,
          "bathingSite": "SALTDEAN",
          "eventStart": "2022-04-07T04:15:00",
          "eventStop": "2022-04-07T06:08:21",
          "duration": 113,
          "status": "Genuine",
          "associatedSiteId": 109957,
          "outfallName": "PORTOBELLO BRIGHTON NO2",
          "isImpacting": true,
          "overFlowSiteId": 116036,
          "historicSpillsList": []
        }
      ]
    }
  ]
}