{
  "currentPage": 189,
  "totalItems": 21025,
  "totalPages": 841,
  "items": [
    {
      "id": 344796636,
      "eventId": 875266,
      "siteUnitNumber": 12575,
      "bathingSite": "HASTINGS PELHAM BEACH",
      "eventStart": "2023-10-20T15:10:02",
      "eventStop": "2023-10-20T15:17:34",
      "duration": 7,
      "status": "Genuine",
      "associatedSiteId": 109982,
      "outfallName": "COOMBS HASTINGS",
      "isImpacting": true,
      "overFlowSiteId": 0,
      "historicSpillsList": [
        {
          "id": 344796637,
          "eventId": 875266,
          "siteUnitNumber": 12576,
          "bathingSite": "ST LEONARDS",
          "eventStart": "2023-10-20T15:10:02",
          "eventStop": "2023-10-20T15:17:34",
          "duration": 7,
          "status": "Genuine",
          "associatedSiteId": 109982,
          "outfallName": "COOMBS HASTINGS",
          "isImpacting": true,
          "overFlowSiteId": 110211,
          "historicSpillsList": []
        }
      ]
    },
    {
      "id": 344798092,
      "eventId": 876728,
      "siteUnitNumber": 12622,
      "bathingSite": "WHITECLIFF BAY",
      "eventStart": "2023-10-20T14:35:00",
      "eventStop": "2023-10-20T15:12:00",
      "duration": 37,
      "status": "Genuine",
      "associatedSiteId": 110096,
      "outfallName": "SANDOWN NO1",
      "isImpacting": false,
      "overFlowSiteId": 0,
      "historicSpillsList": []
    },
    {
      "id": 344796642,
      "eventId": 875260,
      "siteUnitNumber": 12575,
      "bathingSite": "HASTINGS PELHAM BEACH",
      "eventStart": "2023-10-20T14:45:00",
      "eventStop": "2023-10-20T15:00:00",
      "duration": 15,
      "status": "Genuine",
      "associatedSiteId": 109982,
      "outfallName": "COOMBS HASTINGS",
      "isImpacting": true,
      "overFlowSiteId": 0,
      "historicSpillsList": [
        {
          "id": 344796643,
          "eventId": 875260,
          "siteUnitNumber": 12576,
          "bathingSite": "ST LEONARDS",
          "eventStart": "2023-10-20T14:45:00",
          "eventStop": "2023-10-20T15:00:00",
          "duration": 15,
          "status": "Genuine",
          "associatedSiteId": 109982,
          "outfallName": "COOMBS HASTINGS",
          "isImpacting": true,
          "overFlowSiteId": 110211,
          "historicSpillsList": []
        }
      ]
    },
    {
      "id": 344796640,
      "eventId": 875229,
      "siteUnitNumber": 12575,
      "bathingSite": "HASTINGS PELHAM BEACH",
      "eventStart": "2023-10-20T14:21:52",
      "eventStop": "2023-10-20T14:29:56",
      "duration": 8,
      "status": "Genuine",
      "associatedSiteId": 109982,
      "outfallName": "COOMBS HASTINGS",
      "isImpacting": true,
      "overFlowSiteId": 0,
      "historicSpillsList": [
        {
          "id": 344796641,
          "eventId": 875229,
          "siteUnitNumber": 12576,
          "bathingSite": "ST LEONARDS",
          "eventStart": "2023-10-20T14:21:52",
          "eventStop": "2023-10-20T14:29:56",
          "duration": 8,
          "status": "Genuine",
          "associatedSiteId": 109982,
          "outfallName": "COOMBS HASTINGS",
          "isImpacting": true,
          "overFlowSiteId": 110211,
          "historicSpillsList": []
        }
      ]
    },
    {
      "id": 344796646,
      "eventId": 875224,
      "siteUnitNumber": 12575,
      "bathingSite": "HASTINGS PELHAM BEACH",
      "eventStart": "2023-10-20T13:57:52",
      "eventStop": "2023-10-20T14:15:00",
      "duration": 17,
      "status": "Genuine",
      "associatedSiteId": 109982,
      "outfallName": "COOMBS HASTINGS",
      "isImpacting": true,
      "overFlowSiteId": 0,
      "historicSpillsList": [
        {
          "id": 344796647,
          "eventId": 875224,
          "siteUnitNumber": 12576,
          "bathingSite": "ST LEONARDS",
          "eventStart": "2023-10-20T13:57:52",
          "eventStop": "2023-10-20T14:15:00",
          "duration": 17,
          "status": "Genuine",
          "associatedSiteId": 109982,
          "outfallName": "COOMBS HASTINGS",
          "isImpacting": true,
          "overFlowSiteId": 110211,
          "historicSpillsList": []
        }
      ]
    },
    {
      "id": 344772899,
      "eventId": 875164,
      "siteUnitNumber": 12557,
      "bathingSite": "MARGATE FULSAM ROCK",
      "eventStart": "2023-10-20T12:10:59",
      "eventStop": "2023-10-20T14:12:48",
      "duration": 121,
      "status": "Genuine",
      "associatedSiteId": 109674,
      "outfallName": "MARGATE NO2",
      "isImpacting": true,
      "overFlowSiteId": 0,
      "historicSpillsList": [
        {
          "id": 344772899,
          "eventId": 875164,
          "siteUnitNumber": 12557,
          "bathingSite": "MARGATE FULSAM ROCK",
          "eventStart": "2023-10-20T12:10:59",
          "eventStop": "2023-10-20T14:12:48",
          "duration": 121,
          "status": "Genuine",
          "associatedSiteId": 109674,
          "outfallName": "MARGATE NO2",
          "isImpacting": true,
          "overFlowSiteId": 116100
        },
        {
          "id": 344772900,
          "eventId": 875164,
          "siteUnitNumber": 12558,
          "bathingSite": "WALPOLE BAY MARGATE",
          "eventStart": "2023-10-20T12:10:59",
          "eventStop": "2023-10-20T14:12:48",
          "duration": 121,
          "status": "Genuine",
          "associatedSiteId": 109674,
          "outfallName": "MARGATE NO2",
          "isImpacting": true,
          "overFlowSiteId": 116100,
          "historicSpillsList": []
        },
        {
          "id": 344772895,
          "eventId": 875164,
          "siteUnitNumber": 12559,
          "bathingSite": "BOTANY BAY BROADSTAIRS",
          "eventStart": "2023-10-20T12:10:59",
          "eventStop": "2023-10-20T14:12:48",
          "duration": 121,
          "status": "Genuine",
          "associatedSiteId": 109674,
          "outfallName": "MARGATE NO2",
          "isImpacting": true,
          "overFlowSiteId": 116100,
          "historicSpillsList": []
        }
      ]
    },
    {
      "id": 344798095,
      "eventId": 876727,
      "siteUnitNumber": 12622,
      "bathingSite": "WHITECLIFF BAY",
      "eventStart": "2023-10-20T13:40:00",
      "eventStop": "2023-10-20T14:01:00",
      "duration": 21,
      "status": "Genuine",
      "associatedSiteId": 110096,
      "outfallName": "SANDOWN NO1",
      "isImpacting": false,
      "overFlowSiteId": 0,
      "historicSpillsList": []
    },
    {
      "id": 344796644,
      "eventId": 875207,
      "siteUnitNumber": 12575,
      "bathingSite": "HASTINGS PELHAM BEACH",
      "eventStart": "2023-10-20T13:30:00",
      "eventStop": "2023-10-20T13:45:00",
      "duration": 15,
      "status": "Genuine",
      "associatedSiteId": 109982,
      "outfallName": "COOMBS HASTINGS",
      "isImpacting": true,
      "overFlowSiteId": 0,
      "historicSpillsList": [
        {
          "id": 344796645,
          "eventId": 875207,
          "siteUnitNumber": 12576,
          "bathingSite": "ST LEONARDS",
          "eventStart": "2023-10-20T13:30:00",
          "eventStop": "2023-10-20T13:45:00",
          "duration": 15,
          "status": "Genuine",
          "associatedSiteId": 109982,
          "outfallName": "COOMBS HASTINGS",
          "isImpacting": true,
          "overFlowSiteId": 110211,
          "historicSpillsList": []
        }
      ]
    },
    {
      "id": 344772761,
      "eventId": 875165,
      "siteUnitNumber": 12556,
      "bathingSite": "MARGATE THE BAY",
      "eventStart": "2023-10-20T12:11:57",
      "eventStop": "2023-10-20T13:32:55",
      "duration": 80,
      "status": "Not Genuine",
      "associatedSiteId": 109673,
      "outfallName": "MARGATE NO1",
      "isImpacting": false,
      "overFlowSiteId": 0,
      "historicSpillsList": []
    },
    {
      "id": 344796650,
      "eventId": 875198,
      "siteUnitNumber": 12575,
      "bathingSite": "HASTINGS PELHAM BEACH",
      "eventStart": "2023-10-20T13:11:10",
      "eventStop": "2023-10-20T13:19:07",
      "duration": 7,
      "status": "Genuine",
      "associatedSiteId": 109982,
      "outfallName": "COOMBS HASTINGS",
      "isImpacting": true,
      "overFlowSiteId": 0,
      "historicSpillsList": [
        {
          "id": 344796651,
          "eventId": 875198,
          "siteUnitNumber": 12576,
          "bathingSite": "ST LEONARDS",
          "eventStart": "2023-10-20T13:11:10",
          "eventStop": "2023-10-20T13:19:07",
          "duration": 7,
          "status": "Genuine",
          "associatedSiteId": 109982,
          "outfallName": "COOMBS HASTINGS",
          "isImpacting": true,
          "overFlowSiteId": 110211,
          "historicSpillsList": []
        }
      ]
    },
    {
      "id": 344798099,
      "eventId": 876726,
      "siteUnitNumber": 12622,
      "bathingSite": "WHITECLIFF BAY",
      "eventStart": "2023-10-20T12:37:00",
      "eventStop": "2023-10-20T13:09:00",
      "duration": 32,
      "status": "Genuine",
      "associatedSiteId": 110096,
      "outfallName": "SANDOWN NO1",
      "isImpacting": false,
      "overFlowSiteId": 0,
      "historicSpillsList": []
    },
    {
      "id": 344796648,
      "eventId": 875189,
      "siteUnitNumber": 12575,
      "bathingSite": "HASTINGS PELHAM BEACH",
      "eventStart": "2023-10-20T12:49:47",
      "eventStop": "2023-10-20T12:57:04",
      "duration": 7,
      "status": "Genuine",
      "associatedSiteId": 109982,
      "outfallName": "COOMBS HASTINGS",
      "isImpacting": true,
      "overFlowSiteId": 0,
      "historicSpillsList": [
        {
          "id": 344796649,
          "eventId": 875189,
          "siteUnitNumber": 12576,
          "bathingSite": "ST LEONARDS",
          "eventStart": "2023-10-20T12:49:47",
          "eventStop": "2023-10-20T12:57:04",
          "duration": 7,
          "status": "Genuine",
          "associatedSiteId": 109982,
          "outfallName": "COOMBS HASTINGS",
          "isImpacting": true,
          "overFlowSiteId": 110211,
          "historicSpillsList": []
        }
      ]
    },
    {
      "id": 344777554,
      "eventId": 875937,
      "siteUnitNumber": 12661,
      "bathingSite": "LANGSTONE HARBOUR",
      "eventStart": "2023-10-19T21:30:00",
      "eventStop": "2023-10-20T12:47:00",
      "duration": 917,
      "status": "Genuine",
      "associatedSiteId": 109773,
      "outfallName": "BUDDS FARM HAVANT NO2",
      "isImpacting": true,
      "overFlowSiteId": 0,
      "historicSpillsList": [
        {
          "id": 344777554,
          "eventId": 875937,
          "siteUnitNumber": 12661,
          "bathingSite": "LANGSTONE HARBOUR",
          "eventStart": "2023-10-19T21:30:00",
          "eventStop": "2023-10-20T12:47:00",
          "duration": 917,
          "status": "Genuine",
          "associatedSiteId": 109773,
          "outfallName": "BUDDS FARM HAVANT NO2",
          "isImpacting": true,
          "overFlowSiteId": 115936
        }
      ]
    },
    {
      "id": 344796654,
      "eventId": 875158,
      "siteUnitNumber": 12575,
      "bathingSite": "HASTINGS PELHAM BEACH",
      "eventStart": "2023-10-20T12:14:10",
      "eventStop": "2023-10-20T12:45:00",
      "duration": 30,
      "status": "Genuine",
      "associatedSiteId": 109982,
      "outfallName": "COOMBS HASTINGS",
      "isImpacting": true,
      "overFlowSiteId": 0,
      "historicSpillsList": [
        {
          "id": 344796655,
          "eventId": 875158,
          "siteUnitNumber": 12576,
          "bathingSite": "ST LEONARDS",
          "eventStart": "2023-10-20T12:14:10",
          "eventStop": "2023-10-20T12:45:00",
          "duration": 30,
          "status": "Genuine",
          "associatedSiteId": 109982,
          "outfallName": "COOMBS HASTINGS",
          "isImpacting": true,
          "overFlowSiteId": 110211,
          "historicSpillsList": []
        }
      ]
    },
    {
      "id": 344806863,
      "eventId": 878940,
      "siteUnitNumber": 12577,
      "bathingSite": "BEXHILL",
      "eventStart": "2023-10-20T12:29:00",
      "eventStop": "2023-10-20T12:38:00",
      "duration": 9,
      "status": "Genuine",
      "associatedSiteId": 111338,
      "outfallName": "GALLEY HILL BEXHILL",
      "isImpacting": true,
      "overFlowSiteId": 0,
      "historicSpillsList": [
        {
          "id": 344806863,
          "eventId": 878940,
          "siteUnitNumber": 12577,
          "bathingSite": "BEXHILL",
          "eventStart": "2023-10-20T12:29:00",
          "eventStop": "2023-10-20T12:38:00",
          "duration": 9,
          "status": "Genuine",
          "associatedSiteId": 111338,
          "outfallName": "GALLEY HILL BEXHILL",
          "isImpacting": true,
          "overFlowSiteId": 116162
        }
      ]
    },
    {
      "id": 344798098,
      "eventId": 876725,
      "siteUnitNumber": 12624,
      "bathingSite": "SANDOWN",
      "eventStart": "2023-10-20T07:15:00",
      "eventStop": "2023-10-20T12:14:00",
      "duration": 299,
      "status": "Genuine",
      "associatedSiteId": 110096,
      "outfallName": "SANDOWN NO1",
      "isImpacting": true,
      "overFlowSiteId": 0,
      "historicSpillsList": [
        {
          "id": 344798098,
          "eventId": 876725,
          "siteUnitNumber": 12624,
          "bathingSite": "SANDOWN",
          "eventStart": "2023-10-20T07:15:00",
          "eventStop": "2023-10-20T12:14:00",
          "duration": 299,
          "status": "Genuine",
          "associatedSiteId": 110096,
          "outfallName": "SANDOWN NO1",
          "isImpacting": true,
          "overFlowSiteId": 115453
        },
        {
          "id": 344798104,
          "eventId": 876725,
          "siteUnitNumber": 12622,
          "bathingSite": "WHITECLIFF BAY",
          "eventStart": "2023-10-20T07:15:00",
          "eventStop": "2023-10-20T12:14:00",
          "duration": 299,
          "status": "Genuine",
          "associatedSiteId": 110096,
          "outfallName": "SANDOWN NO1",
          "isImpacting": true,
          "overFlowSiteId": 115453,
          "historicSpillsList": []
        },
        {
          "id": 344798105,
          "eventId": 876725,
          "siteUnitNumber": 12623,
          "bathingSite": "YAVERLAND",
          "eventStart": "2023-10-20T07:15:00",
          "eventStop": "2023-10-20T12:14:00",
          "duration": 299,
          "status": "Genuine",
          "associatedSiteId": 110096,
          "outfallName": "SANDOWN NO1",
          "isImpacting": true,
          "overFlowSiteId": 115453,
          "historicSpillsList": []
        }
      ]
    },
    {
      "id": 344796652,
      "eventId": 875155,
      "siteUnitNumber": 12575,
      "bathingSite": "HASTINGS PELHAM BEACH",
      "eventStart": "2023-10-20T11:52:10",
      "eventStop": "2023-10-20T12:00:57",
      "duration": 8,
      "status": "Genuine",
      "associatedSiteId": 109982,
      "outfallName": "COOMBS HASTINGS",
      "isImpacting": false,
      "overFlowSiteId": 0,
      "historicSpillsList": []
    },
    {
      "id": 344792553,
      "eventId": 874920,
      "siteUnitNumber": 12594,
      "bathingSite": "BOGNOR REGIS EAST",
      "eventStart": "2023-10-20T06:39:44",
      "eventStop": "2023-10-20T11:45:00",
      "duration": 305,
      "status": "Genuine",
      "associatedSiteId": 109959,
      "outfallName": "WEST PARK BOGNOR REGIS",
      "isImpacting": true,
      "overFlowSiteId": 0,
      "historicSpillsList": [
        {
          "id": 344792553,
          "eventId": 874920,
          "siteUnitNumber": 12594,
          "bathingSite": "BOGNOR REGIS EAST",
          "eventStart": "2023-10-20T06:39:44",
          "eventStop": "2023-10-20T11:45:00",
          "duration": 305,
          "status": "Genuine",
          "associatedSiteId": 109959,
          "outfallName": "WEST PARK BOGNOR REGIS",
          "isImpacting": true,
          "overFlowSiteId": 108160
        }
      ]
    },
    {
      "id": 344796658,
      "eventId": 875144,
      "siteUnitNumber": 12575,
      "bathingSite": "HASTINGS PELHAM BEACH",
      "eventStart": "2023-10-20T11:29:13",
      "eventStop": "2023-10-20T11:38:11",
      "duration": 8,
      "status": "Genuine",
      "associatedSiteId": 109982,
      "outfallName": "COOMBS HASTINGS",
      "isImpacting": false,
      "overFlowSiteId": 0,
      "historicSpillsList": []
    },
    {
      "id": 344806862,
      "eventId": 878939,
      "siteUnitNumber": 12577,
      "bathingSite": "BEXHILL",
      "eventStart": "2023-10-20T11:27:00",
      "eventStop": "2023-10-20T11:36:00",
      "duration": 9,
      "status": "Genuine",
      "associatedSiteId": 111338,
      "outfallName": "GALLEY HILL BEXHILL",
      "isImpacting": false,
      "overFlowSiteId": 0,
      "historicSpillsList": []
    },
    {
      "id": 344791932,
      "eventId": 877266,
      "siteUnitNumber": 12594,
      "bathingSite": "BOGNOR REGIS EAST",
      "eventStart": "2023-10-19T22:28:00",
      "eventStop": "2023-10-20T11:31:00",
      "duration": 783,
      "status": "Genuine",
      "associatedSiteId": 109958,
      "outfallName": "CARLTON AVENUE BOGNOR",
      "isImpacting": true,
      "overFlowSiteId": 0,
      "historicSpillsList": [
        {
          "id": 344791932,
          "eventId": 877266,
          "siteUnitNumber": 12594,
          "bathingSite": "BOGNOR REGIS EAST",
          "eventStart": "2023-10-19T22:28:00",
          "eventStop": "2023-10-20T11:31:00",
          "duration": 783,
          "status": "Genuine",
          "associatedSiteId": 109958,
          "outfallName": "CARLTON AVENUE BOGNOR",
          "isImpacting": true,
          "overFlowSiteId": 102492
        },
        {
          "id": 344791933,
          "eventId": 877266,
          "siteUnitNumber": 12595,
          "bathingSite": "BOGNOR REGIS (ALDWICK)",
          "eventStart": "2023-10-19T22:28:00",
          "eventStop": "2023-10-20T11:31:00",
          "duration": 783,
          "status": "Genuine",
          "associatedSiteId": 109958,
          "outfallName": "CARLTON AVENUE BOGNOR",
          "isImpacting": true,
          "overFlowSiteId": 102492,
          "historicSpillsList": []
        },
        {
          "id": 344791934,
          "eventId": 877266,
          "siteUnitNumber": 12596,
          "bathingSite": "PAGHAM",
          "eventStart": "2023-10-19T22:28:00",
          "eventStop": "2023-10-20T11:31:00",
          "duration": 783,
          "status": "Genuine",
          "associatedSiteId": 109958,
          "outfallName": "CARLTON AVENUE BOGNOR",
          "isImpacting": true,
          "overFlowSiteId": 102492,
          "historicSpillsList": []
        }
      ]
    },
    {
      "id": 344806861,
      "eventId": 874450,
      "siteUnitNumber": 12577,
      "bathingSite": "BEXHILL",
      "eventStart": "2023-10-20T00:34:00",
      "eventStop": "2023-10-20T11:21:00",
      "duration": 647,
      "status": "Genuine",
      "associatedSiteId": 111338,
      "outfallName": "GALLEY HILL BEXHILL",
      "isImpacting": true,
      "overFlowSiteId": 0,
      "historicSpillsList": [
        {
          "id": 344806861,
          "eventId": 874450,
          "siteUnitNumber": 12577,
          "bathingSite": "BEXHILL",
          "eventStart": "2023-10-20T00:34:00",
          "eventStop": "2023-10-20T11:21:00",
          "duration": 647,
          "status": "Genuine",
          "associatedSiteId": 111338,
          "outfallName": "GALLEY HILL BEXHILL",
          "isImpacting": true,
          "overFlowSiteId": 116162
        }
      ]
    },
    {
      "id": 344811525,
      "eventId": 874508,
      "siteUnitNumber": 12577,
      "bathingSite": "BEXHILL",
      "eventStart": "2023-10-20T01:13:00",
      "eventStop": "2023-10-20T11:16:00",
      "duration": 603,
      "status": "Genuine",
      "associatedSiteId": 115499,
      "outfallName": "BROCKLEY ROAD BEXHILL",
      "isImpacting": true,
      "overFlowSiteId": 0,
      "historicSpillsList": [
        {
          "id": 344811525,
          "eventId": 874508,
          "siteUnitNumber": 12577,
          "bathingSite": "BEXHILL",
          "eventStart": "2023-10-20T01:13:00",
          "eventStop": "2023-10-20T11:16:00",
          "duration": 603,
          "status": "Genuine",
          "associatedSiteId": 115499,
          "outfallName": "BROCKLEY ROAD BEXHILL",
          "isImpacting": true,
          "overFlowSiteId": 103297
        }
      ]
    },
    {
      "id": 344796656,
      "eventId": 875143,
      "siteUnitNumber": 12575,
      "bathingSite": "HASTINGS PELHAM BEACH",
      "eventStart": "2023-10-20T11:06:24",
      "eventStop": "2023-10-20T11:15:29",
      "duration": 9,
      "status": "Genuine",
      "associatedSiteId": 109982,
      "outfallName": "COOMBS HASTINGS",
      "isImpacting": false,
      "overFlowSiteId": 0,
      "historicSpillsList": []
    },
    {
      "id": 344783538,
      "eventId": 874356,
      "siteUnitNumber": 12662,
      "bathingSite": "CHICHESTER HARBOUR",
      "eventStart": "2023-10-19T23:00:00",
      "eventStop": "2023-10-20T11:15:00",
      "duration": 735,
      "status": "Genuine",
      "associatedSiteId": 109850,
      "outfallName": "THORNHAM",
      "isImpacting": true,
      "overFlowSiteId": 0,
      "historicSpillsList": [
        {
          "id": 344783538,
          "eventId": 874356,
          "siteUnitNumber": 12662,
          "bathingSite": "CHICHESTER HARBOUR",
          "eventStart": "2023-10-19T23:00:00",
          "eventStop": "2023-10-20T11:15:00",
          "duration": 735,
          "status": "Genuine",
          "associatedSiteId": 109850,
          "outfallName": "THORNHAM",
          "isImpacting": true,
          "overFlowSiteId": 115369
        }
      ]
    }
  ]
}