{
  "currentPage": 47,
  "totalItems": 18701,
  "totalPages": 749,
  "items": [
    {
      "id": 343931862,
      "eventId": 908205,
      "siteUnitNumber": 12544,
      "bathingSite": "SHEERNESS",
      "eventStart": "2023-11-14T12:27:27",
      "eventStop": "2023-11-14T14:45:00",
      "duration": 137,
      "status": "Genuine",
      "associatedSiteId": 109869,
      "outfallName": "GRAIN NO2",
      "isImpacting": true,
      "overFlowSiteId": 0,
      "historicSpillsList": [
        {
          "id": 343931862,
          "eventId": 908205,
          "siteUnitNumber": 12544,
          "bathingSite": "SHEERNESS",
          "eventStart": "2023-11-14T12:27:27",
          "eventStop": "2023-11-14T14:45:00",
          "duration": 137,
          "status": "Genuine",
          "associatedSiteId": 109869,
          "outfallName": "GRAIN NO2",
          "isImpacting": true,
          "overFlowSiteId": 115411
        }
      ]
    },
    {
      "id": 343954978,
      "eventId": 908144,
      "siteUnitNumber": 12616,
      "bathingSite": "GURNARD",
      "eventStart": "2023-11-14T12:04:58",
      "eventStop": "2023-11-14T14:40:24",
      "duration": 155,
      "status": "Genuine",
      "associatedSiteId": 111069,
      "outfallName": "MEDHAM FARM NORTHWOOD",
      "isImpacting": false,
      "overFlowSiteId": 0,
      "historicSpillsList": []
    },
    {
      "id": 343956526,
      "eventId": 908417,
      "siteUnitNumber": 12614,
      "bathingSite": "TOTLAND BAY",
      "eventStart": "2023-11-14T14:28:52",
      "eventStop": "2023-11-14T14:35:49",
      "duration": 6,
      "status": "Genuine",
      "associatedSiteId": 115498,
      "outfallName": "NORTON TRANSFER IOW",
      "isImpacting": true,
      "overFlowSiteId": 0,
      "historicSpillsList": [
        {
          "id": 343956526,
          "eventId": 908417,
          "siteUnitNumber": 12614,
          "bathingSite": "TOTLAND BAY",
          "eventStart": "2023-11-14T14:28:52",
          "eventStop": "2023-11-14T14:35:49",
          "duration": 6,
          "status": "Genuine",
          "associatedSiteId": 115498,
          "outfallName": "NORTON TRANSFER IOW",
          "isImpacting": true,
          "overFlowSiteId": 109524
        },
        {
          "id": 343956527,
          "eventId": 908417,
          "siteUnitNumber": 12615,
          "bathingSite": "COLWELL BAY",
          "eventStart": "2023-11-14T14:28:52",
          "eventStop": "2023-11-14T14:35:49",
          "duration": 6,
          "status": "Genuine",
          "associatedSiteId": 115498,
          "outfallName": "NORTON TRANSFER IOW",
          "isImpacting": true,
          "overFlowSiteId": 109524,
          "historicSpillsList": []
        }
      ]
    },
    {
      "id": 343944143,
      "eventId": 908398,
      "siteUnitNumber": 12575,
      "bathingSite": "HASTINGS PELHAM BEACH",
      "eventStart": "2023-11-14T14:24:46",
      "eventStop": "2023-11-14T14:32:16",
      "duration": 7,
      "status": "Genuine",
      "associatedSiteId": 109982,
      "outfallName": "COOMBS HASTINGS",
      "isImpacting": true,
      "overFlowSiteId": 0,
      "historicSpillsList": [
        {
          "id": 343944144,
          "eventId": 908398,
          "siteUnitNumber": 12576,
          "bathingSite": "ST LEONARDS",
          "eventStart": "2023-11-14T14:24:46",
          "eventStop": "2023-11-14T14:32:16",
          "duration": 7,
          "status": "Genuine",
          "associatedSiteId": 109982,
          "outfallName": "COOMBS HASTINGS",
          "isImpacting": true,
          "overFlowSiteId": 110211,
          "historicSpillsList": []
        }
      ]
    },
    {
      "id": 343956528,
      "eventId": 908416,
      "siteUnitNumber": 12614,
      "bathingSite": "TOTLAND BAY",
      "eventStart": "2023-11-14T14:21:52",
      "eventStop": "2023-11-14T14:27:40",
      "duration": 5,
      "status": "Genuine",
      "associatedSiteId": 115498,
      "outfallName": "NORTON TRANSFER IOW",
      "isImpacting": true,
      "overFlowSiteId": 0,
      "historicSpillsList": [
        {
          "id": 343956528,
          "eventId": 908416,
          "siteUnitNumber": 12614,
          "bathingSite": "TOTLAND BAY",
          "eventStart": "2023-11-14T14:21:52",
          "eventStop": "2023-11-14T14:27:40",
          "duration": 5,
          "status": "Genuine",
          "associatedSiteId": 115498,
          "outfallName": "NORTON TRANSFER IOW",
          "isImpacting": true,
          "overFlowSiteId": 109524
        },
        {
          "id": 343956529,
          "eventId": 908416,
          "siteUnitNumber": 12615,
          "bathingSite": "COLWELL BAY",
          "eventStart": "2023-11-14T14:21:52",
          "eventStop": "2023-11-14T14:27:40",
          "duration": 5,
          "status": "Genuine",
          "associatedSiteId": 115498,
          "outfallName": "NORTON TRANSFER IOW",
          "isImpacting": true,
          "overFlowSiteId": 109524,
          "historicSpillsList": []
        }
      ]
    },
    {
      "id": 343955237,
      "eventId": 908247,
      "siteUnitNumber": 12549,
      "bathingSite": "HERNE BAY CENTRAL",
      "eventStart": "2023-11-14T12:56:00",
      "eventStop": "2023-11-14T14:22:00",
      "duration": 86,
      "status": "Genuine",
      "associatedSiteId": 111724,
      "outfallName": "GAINSBOROUGH DRIVE HERNE BAY",
      "isImpacting": false,
      "overFlowSiteId": 0,
      "historicSpillsList": []
    },
    {
      "id": 343956530,
      "eventId": 908414,
      "siteUnitNumber": 12615,
      "bathingSite": "COLWELL BAY",
      "eventStart": "2023-11-14T14:10:54",
      "eventStop": "2023-11-14T14:19:52",
      "duration": 8,
      "status": "Genuine",
      "associatedSiteId": 115498,
      "outfallName": "NORTON TRANSFER IOW",
      "isImpacting": true,
      "overFlowSiteId": 0,
      "historicSpillsList": [
        {
          "id": 343956530,
          "eventId": 908414,
          "siteUnitNumber": 12615,
          "bathingSite": "COLWELL BAY",
          "eventStart": "2023-11-14T14:10:54",
          "eventStop": "2023-11-14T14:19:52",
          "duration": 8,
          "status": "Genuine",
          "associatedSiteId": 115498,
          "outfallName": "NORTON TRANSFER IOW",
          "isImpacting": true,
          "overFlowSiteId": 109524
        },
        {
          "id": 343956531,
          "eventId": 908414,
          "siteUnitNumber": 12614,
          "bathingSite": "TOTLAND BAY",
          "eventStart": "2023-11-14T14:10:54",
          "eventStop": "2023-11-14T14:19:52",
          "duration": 8,
          "status": "Genuine",
          "associatedSiteId": 115498,
          "outfallName": "NORTON TRANSFER IOW",
          "isImpacting": true,
          "overFlowSiteId": 109524,
          "historicSpillsList": []
        }
      ]
    },
    {
      "id": 343927559,
      "eventId": 908150,
      "siteUnitNumber": 12618,
      "bathingSite": "RYDE",
      "eventStart": "2023-11-14T12:13:00",
      "eventStop": "2023-11-14T14:18:00",
      "duration": 125,
      "status": "Genuine",
      "associatedSiteId": 109780,
      "outfallName": "LADIES WALK BINSTEAD",
      "isImpacting": true,
      "overFlowSiteId": 0,
      "historicSpillsList": [
        {
          "id": 343927559,
          "eventId": 908150,
          "siteUnitNumber": 12618,
          "bathingSite": "RYDE",
          "eventStart": "2023-11-14T12:13:00",
          "eventStop": "2023-11-14T14:18:00",
          "duration": 125,
          "status": "Genuine",
          "associatedSiteId": 109780,
          "outfallName": "LADIES WALK BINSTEAD",
          "isImpacting": true,
          "overFlowSiteId": 107406
        }
      ]
    },
    {
      "id": 343944141,
      "eventId": 908395,
      "siteUnitNumber": 12575,
      "bathingSite": "HASTINGS PELHAM BEACH",
      "eventStart": "2023-11-14T14:04:16",
      "eventStop": "2023-11-14T14:15:02",
      "duration": 10,
      "status": "Genuine",
      "associatedSiteId": 109982,
      "outfallName": "COOMBS HASTINGS",
      "isImpacting": true,
      "overFlowSiteId": 0,
      "historicSpillsList": [
        {
          "id": 343944142,
          "eventId": 908395,
          "siteUnitNumber": 12576,
          "bathingSite": "ST LEONARDS",
          "eventStart": "2023-11-14T14:04:16",
          "eventStop": "2023-11-14T14:15:02",
          "duration": 10,
          "status": "Genuine",
          "associatedSiteId": 109982,
          "outfallName": "COOMBS HASTINGS",
          "isImpacting": true,
          "overFlowSiteId": 110211,
          "historicSpillsList": []
        }
      ]
    },
    {
      "id": 343918307,
      "eventId": 908501,
      "siteUnitNumber": 12544,
      "bathingSite": "SHEERNESS",
      "eventStart": "2023-11-14T14:12:00",
      "eventStop": "2023-11-14T14:14:00",
      "duration": 2,
      "status": "Genuine",
      "associatedSiteId": 109616,
      "outfallName": "SOUTH STREET QUEENBOROUGH",
      "isImpacting": true,
      "overFlowSiteId": 0,
      "historicSpillsList": [
        {
          "id": 343918307,
          "eventId": 908501,
          "siteUnitNumber": 12544,
          "bathingSite": "SHEERNESS",
          "eventStart": "2023-11-14T14:12:00",
          "eventStop": "2023-11-14T14:14:00",
          "duration": 2,
          "status": "Genuine",
          "associatedSiteId": 109616,
          "outfallName": "SOUTH STREET QUEENBOROUGH",
          "isImpacting": true,
          "overFlowSiteId": 108732
        }
      ]
    },
    {
      "id": 343960065,
      "eventId": 917768,
      "siteUnitNumber": 12577,
      "bathingSite": "BEXHILL",
      "eventStart": "2023-11-14T13:56:00",
      "eventStop": "2023-11-14T14:13:00",
      "duration": 17,
      "status": "Genuine",
      "associatedSiteId": 115504,
      "outfallName": "HARTFIELD ROAD BEXHILL",
      "isImpacting": false,
      "overFlowSiteId": 0,
      "historicSpillsList": []
    },
    {
      "id": 343921362,
      "eventId": 908427,
      "siteUnitNumber": 12549,
      "bathingSite": "HERNE BAY CENTRAL",
      "eventStart": "2023-11-14T14:09:48",
      "eventStop": "2023-11-14T14:12:14",
      "duration": 2,
      "status": "Genuine",
      "associatedSiteId": 109678,
      "outfallName": "EDDINGTON LANE HERNE BAY NO2",
      "isImpacting": true,
      "overFlowSiteId": 0,
      "historicSpillsList": [
        {
          "id": 343921363,
          "eventId": 908427,
          "siteUnitNumber": 12551,
          "bathingSite": "HERNE BAY",
          "eventStart": "2023-11-14T14:09:48",
          "eventStop": "2023-11-14T14:12:14",
          "duration": 2,
          "status": "Genuine",
          "associatedSiteId": 109678,
          "outfallName": "EDDINGTON LANE HERNE BAY NO2",
          "isImpacting": true,
          "overFlowSiteId": 108093,
          "historicSpillsList": []
        }
      ]
    },
    {
      "id": 343937390,
      "eventId": 908165,
      "siteUnitNumber": 12586,
      "bathingSite": "HOVE",
      "eventStart": "2023-11-14T12:20:10",
      "eventStop": "2023-11-14T14:07:00",
      "duration": 106,
      "status": "Genuine",
      "associatedSiteId": 109929,
      "outfallName": "SHOREHAM NO1",
      "isImpacting": true,
      "overFlowSiteId": 0,
      "historicSpillsList": [
        {
          "id": 343937390,
          "eventId": 908165,
          "siteUnitNumber": 12586,
          "bathingSite": "HOVE",
          "eventStart": "2023-11-14T12:20:10",
          "eventStop": "2023-11-14T14:07:00",
          "duration": 106,
          "status": "Genuine",
          "associatedSiteId": 109929,
          "outfallName": "SHOREHAM NO1",
          "isImpacting": true,
          "overFlowSiteId": 115434
        },
        {
          "id": 343937391,
          "eventId": 908165,
          "siteUnitNumber": 12587,
          "bathingSite": "SOUTHWICK",
          "eventStart": "2023-11-14T12:20:10",
          "eventStop": "2023-11-14T14:07:00",
          "duration": 106,
          "status": "Genuine",
          "associatedSiteId": 109929,
          "outfallName": "SHOREHAM NO1",
          "isImpacting": true,
          "overFlowSiteId": 115434,
          "historicSpillsList": []
        },
        {
          "id": 343937392,
          "eventId": 908165,
          "siteUnitNumber": 12588,
          "bathingSite": "SHOREHAM BEACH",
          "eventStart": "2023-11-14T12:20:10",
          "eventStop": "2023-11-14T14:07:00",
          "duration": 106,
          "status": "Genuine",
          "associatedSiteId": 109929,
          "outfallName": "SHOREHAM NO1",
          "isImpacting": true,
          "overFlowSiteId": 115434,
          "historicSpillsList": []
        }
      ]
    },
    {
      "id": 343956532,
      "eventId": 908391,
      "siteUnitNumber": 12614,
      "bathingSite": "TOTLAND BAY",
      "eventStart": "2023-11-14T13:58:51",
      "eventStop": "2023-11-14T14:06:36",
      "duration": 7,
      "status": "Genuine",
      "associatedSiteId": 115498,
      "outfallName": "NORTON TRANSFER IOW",
      "isImpacting": true,
      "overFlowSiteId": 0,
      "historicSpillsList": [
        {
          "id": 343956532,
          "eventId": 908391,
          "siteUnitNumber": 12614,
          "bathingSite": "TOTLAND BAY",
          "eventStart": "2023-11-14T13:58:51",
          "eventStop": "2023-11-14T14:06:36",
          "duration": 7,
          "status": "Genuine",
          "associatedSiteId": 115498,
          "outfallName": "NORTON TRANSFER IOW",
          "isImpacting": true,
          "overFlowSiteId": 109524
        },
        {
          "id": 343956533,
          "eventId": 908391,
          "siteUnitNumber": 12615,
          "bathingSite": "COLWELL BAY",
          "eventStart": "2023-11-14T13:58:51",
          "eventStop": "2023-11-14T14:06:36",
          "duration": 7,
          "status": "Genuine",
          "associatedSiteId": 115498,
          "outfallName": "NORTON TRANSFER IOW",
          "isImpacting": true,
          "overFlowSiteId": 109524,
          "historicSpillsList": []
        }
      ]
    },
    {
      "id": 343932160,
      "eventId": 917823,
      "siteUnitNumber": 12568,
      "bathingSite": "SANDGATE",
      "eventStart": "2023-11-14T13:34:00",
      "eventStop": "2023-11-14T13:58:00",
      "duration": 24,
      "status": "Genuine",
      "associatedSiteId": 109896,
      "outfallName": "RANGE ROAD HYTHE K SHORT",
      "isImpacting": true,
      "overFlowSiteId": 0,
      "historicSpillsList": [
        {
          "id": 343932161,
          "eventId": 917823,
          "siteUnitNumber": 12569,
          "bathingSite": "HYTHE",
          "eventStart": "2023-11-14T13:34:00",
          "eventStop": "2023-11-14T13:58:00",
          "duration": 24,
          "status": "Genuine",
          "associatedSiteId": 109896,
          "outfallName": "RANGE ROAD HYTHE K SHORT",
          "isImpacting": true,
          "overFlowSiteId": 116112,
          "historicSpillsList": []
        }
      ]
    },
    {
      "id": 343944147,
      "eventId": 908352,
      "siteUnitNumber": 12575,
      "bathingSite": "HASTINGS PELHAM BEACH",
      "eventStart": "2023-11-14T13:43:02",
      "eventStop": "2023-11-14T13:57:00",
      "duration": 13,
      "status": "Genuine",
      "associatedSiteId": 109982,
      "outfallName": "COOMBS HASTINGS",
      "isImpacting": true,
      "overFlowSiteId": 0,
      "historicSpillsList": [
        {
          "id": 343944148,
          "eventId": 908352,
          "siteUnitNumber": 12576,
          "bathingSite": "ST LEONARDS",
          "eventStart": "2023-11-14T13:43:02",
          "eventStop": "2023-11-14T13:57:00",
          "duration": 13,
          "status": "Genuine",
          "associatedSiteId": 109982,
          "outfallName": "COOMBS HASTINGS",
          "isImpacting": true,
          "overFlowSiteId": 110211,
          "historicSpillsList": []
        }
      ]
    },
    {
      "id": 343956534,
      "eventId": 908286,
      "siteUnitNumber": 12614,
      "bathingSite": "TOTLAND BAY",
      "eventStart": "2023-11-14T13:21:32",
      "eventStop": "2023-11-14T13:55:24",
      "duration": 33,
      "status": "Genuine",
      "associatedSiteId": 115498,
      "outfallName": "NORTON TRANSFER IOW",
      "isImpacting": true,
      "overFlowSiteId": 0,
      "historicSpillsList": [
        {
          "id": 343956534,
          "eventId": 908286,
          "siteUnitNumber": 12614,
          "bathingSite": "TOTLAND BAY",
          "eventStart": "2023-11-14T13:21:32",
          "eventStop": "2023-11-14T13:55:24",
          "duration": 33,
          "status": "Genuine",
          "associatedSiteId": 115498,
          "outfallName": "NORTON TRANSFER IOW",
          "isImpacting": true,
          "overFlowSiteId": 109524
        },
        {
          "id": 343956535,
          "eventId": 908286,
          "siteUnitNumber": 12615,
          "bathingSite": "COLWELL BAY",
          "eventStart": "2023-11-14T13:21:32",
          "eventStop": "2023-11-14T13:55:24",
          "duration": 33,
          "status": "Genuine",
          "associatedSiteId": 115498,
          "outfallName": "NORTON TRANSFER IOW",
          "isImpacting": true,
          "overFlowSiteId": 109524,
          "historicSpillsList": []
        }
      ]
    },
    {
      "id": 343945390,
      "eventId": 908254,
      "siteUnitNumber": 12624,
      "bathingSite": "SANDOWN",
      "eventStart": "2023-11-14T12:49:00",
      "eventStop": "2023-11-14T13:55:00",
      "duration": 66,
      "status": "Genuine",
      "associatedSiteId": 110029,
      "outfallName": "HOPE BEACH SHANKLIN NEW",
      "isImpacting": true,
      "overFlowSiteId": 0,
      "historicSpillsList": [
        {
          "id": 343945391,
          "eventId": 908254,
          "siteUnitNumber": 12625,
          "bathingSite": "SHANKLIN",
          "eventStart": "2023-11-14T12:49:00",
          "eventStop": "2023-11-14T13:55:00",
          "duration": 66,
          "status": "Genuine",
          "associatedSiteId": 110029,
          "outfallName": "HOPE BEACH SHANKLIN NEW",
          "isImpacting": true,
          "overFlowSiteId": 109389,
          "historicSpillsList": []
        }
      ]
    },
    {
      "id": 343923681,
      "eventId": 908367,
      "siteUnitNumber": 12616,
      "bathingSite": "GURNARD",
      "eventStart": "2023-11-14T13:30:02",
      "eventStop": "2023-11-14T13:54:24",
      "duration": 24,
      "status": "Genuine",
      "associatedSiteId": 109706,
      "outfallName": "HIGH STREET COWES",
      "isImpacting": false,
      "overFlowSiteId": 0,
      "historicSpillsList": []
    },
    {
      "id": 343930656,
      "eventId": 908258,
      "siteUnitNumber": 12547,
      "bathingSite": "WEST BEACH WHITSTABLE",
      "eventStart": "2023-11-14T12:53:00",
      "eventStop": "2023-11-14T13:43:00",
      "duration": 50,
      "status": "Genuine",
      "associatedSiteId": 109831,
      "outfallName": "TANKERTON CIRCUS",
      "isImpacting": true,
      "overFlowSiteId": 0,
      "historicSpillsList": [
        {
          "id": 343930657,
          "eventId": 908258,
          "siteUnitNumber": 12548,
          "bathingSite": "TANKERTON",
          "eventStart": "2023-11-14T12:53:00",
          "eventStop": "2023-11-14T13:43:00",
          "duration": 50,
          "status": "Genuine",
          "associatedSiteId": 109831,
          "outfallName": "TANKERTON CIRCUS",
          "isImpacting": true,
          "overFlowSiteId": 103280,
          "historicSpillsList": []
        }
      ]
    },
    {
      "id": 343921364,
      "eventId": 908369,
      "siteUnitNumber": 12549,
      "bathingSite": "HERNE BAY CENTRAL",
      "eventStart": "2023-11-14T13:39:05",
      "eventStop": "2023-11-14T13:42:32",
      "duration": 3,
      "status": "Genuine",
      "associatedSiteId": 109678,
      "outfallName": "EDDINGTON LANE HERNE BAY NO2",
      "isImpacting": true,
      "overFlowSiteId": 0,
      "historicSpillsList": [
        {
          "id": 343921365,
          "eventId": 908369,
          "siteUnitNumber": 12551,
          "bathingSite": "HERNE BAY",
          "eventStart": "2023-11-14T13:39:05",
          "eventStop": "2023-11-14T13:42:32",
          "duration": 3,
          "status": "Genuine",
          "associatedSiteId": 109678,
          "outfallName": "EDDINGTON LANE HERNE BAY NO2",
          "isImpacting": true,
          "overFlowSiteId": 108093,
          "historicSpillsList": []
        }
      ]
    },
    {
      "id": 343938915,
      "eventId": 908061,
      "siteUnitNumber": 12619,
      "bathingSite": "SEAGROVE",
      "eventStart": "2023-11-14T11:38:00",
      "eventStop": "2023-11-14T13:41:00",
      "duration": 123,
      "status": "Genuine",
      "associatedSiteId": 109941,
      "outfallName": "LATIMER ROAD ST HELENS",
      "isImpacting": false,
      "overFlowSiteId": 0,
      "historicSpillsList": []
    },
    {
      "id": 343944145,
      "eventId": 908232,
      "siteUnitNumber": 12575,
      "bathingSite": "HASTINGS PELHAM BEACH",
      "eventStart": "2023-11-14T12:50:08",
      "eventStop": "2023-11-14T13:36:56",
      "duration": 46,
      "status": "Genuine",
      "associatedSiteId": 109982,
      "outfallName": "COOMBS HASTINGS",
      "isImpacting": true,
      "overFlowSiteId": 0,
      "historicSpillsList": [
        {
          "id": 343944146,
          "eventId": 908232,
          "siteUnitNumber": 12576,
          "bathingSite": "ST LEONARDS",
          "eventStart": "2023-11-14T12:50:08",
          "eventStop": "2023-11-14T13:36:56",
          "duration": 46,
          "status": "Genuine",
          "associatedSiteId": 109982,
          "outfallName": "COOMBS HASTINGS",
          "isImpacting": true,
          "overFlowSiteId": 110211,
          "historicSpillsList": []
        }
      ]
    },
    {
      "id": 343918306,
      "eventId": 908500,
      "siteUnitNumber": 12544,
      "bathingSite": "SHEERNESS",
      "eventStart": "2023-11-14T13:34:00",
      "eventStop": "2023-11-14T13:36:00",
      "duration": 2,
      "status": "Genuine",
      "associatedSiteId": 109616,
      "outfallName": "SOUTH STREET QUEENBOROUGH",
      "isImpacting": true,
      "overFlowSiteId": 0,
      "historicSpillsList": [
        {
          "id": 343918306,
          "eventId": 908500,
          "siteUnitNumber": 12544,
          "bathingSite": "SHEERNESS",
          "eventStart": "2023-11-14T13:34:00",
          "eventStop": "2023-11-14T13:36:00",
          "duration": 2,
          "status": "Genuine",
          "associatedSiteId": 109616,
          "outfallName": "SOUTH STREET QUEENBOROUGH",
          "isImpacting": true,
          "overFlowSiteId": 108732
        }
      ]
    },
    {
      "id": 343921881,
      "eventId": 908147,
      "siteUnitNumber": 12616,
      "bathingSite": "GURNARD",
      "eventStart": "2023-11-14T12:06:14",
      "eventStop": "2023-11-14T13:25:00",
      "duration": 78,
      "status": "Genuine",
      "associatedSiteId": 109700,
      "outfallName": "MARKET HILL COWES",
      "isImpacting": false,
      "overFlowSiteId": 0,
      "historicSpillsList": []
    }
  ]
}