{
  "currentPage": 316,
  "totalItems": 21025,
  "totalPages": 841,
  "items": [
    {
      "id": 344797911,
      "eventId": 787151,
      "siteUnitNumber": 12593,
      "bathingSite": "FELPHAM",
      "eventStart": "2023-03-25T10:33:00",
      "eventStop": "2023-03-25T13:35:00",
      "duration": 182,
      "status": "Genuine",
      "associatedSiteId": 110095,
      "outfallName": "LIDSEY",
      "isImpacting": true,
      "overFlowSiteId": 0,
      "historicSpillsList": [
        {
          "id": 344797911,
          "eventId": 787151,
          "siteUnitNumber": 12593,
          "bathingSite": "FELPHAM",
          "eventStart": "2023-03-25T10:33:00",
          "eventStop": "2023-03-25T13:35:00",
          "duration": 182,
          "status": "Genuine",
          "associatedSiteId": 110095,
          "outfallName": "LIDSEY",
          "isImpacting": true,
          "overFlowSiteId": 115776
        }
      ]
    },
    {
      "id": 344778122,
      "eventId": 784764,
      "siteUnitNumber": 12617,
      "bathingSite": "COWES",
      "eventStart": "2023-03-25T11:50:30",
      "eventStop": "2023-03-25T11:55:21",
      "duration": 4,
      "status": "Not Genuine",
      "associatedSiteId": 109777,
      "outfallName": "APPLEY PARK RYDE TRANSFER",
      "isImpacting": false,
      "overFlowSiteId": 0,
      "historicSpillsList": []
    },
    {
      "id": 344794611,
      "eventId": 784793,
      "siteUnitNumber": 12591,
      "bathingSite": "LITTLEHAMPTON",
      "eventStart": "2023-03-25T10:50:00",
      "eventStop": "2023-03-25T11:50:00",
      "duration": 60,
      "status": "Genuine",
      "associatedSiteId": 109965,
      "outfallName": "SEA ROAD LITTLEHAMPTON",
      "isImpacting": false,
      "overFlowSiteId": 0,
      "historicSpillsList": []
    },
    {
      "id": 344806864,
      "eventId": 784756,
      "siteUnitNumber": 12577,
      "bathingSite": "BEXHILL",
      "eventStart": "2023-03-24T13:46:00",
      "eventStop": "2023-03-25T01:42:00",
      "duration": 716,
      "status": "Genuine",
      "associatedSiteId": 111338,
      "outfallName": "GALLEY HILL BEXHILL",
      "isImpacting": true,
      "overFlowSiteId": 0,
      "historicSpillsList": [
        {
          "id": 344806864,
          "eventId": 784756,
          "siteUnitNumber": 12577,
          "bathingSite": "BEXHILL",
          "eventStart": "2023-03-24T13:46:00",
          "eventStop": "2023-03-25T01:42:00",
          "duration": 716,
          "status": "Genuine",
          "associatedSiteId": 111338,
          "outfallName": "GALLEY HILL BEXHILL",
          "isImpacting": true,
          "overFlowSiteId": 116162
        }
      ]
    },
    {
      "id": 344797910,
      "eventId": 787149,
      "siteUnitNumber": 12593,
      "bathingSite": "FELPHAM",
      "eventStart": "2023-03-24T08:20:00",
      "eventStop": "2023-03-25T00:51:00",
      "duration": 991,
      "status": "Genuine",
      "associatedSiteId": 110095,
      "outfallName": "LIDSEY",
      "isImpacting": true,
      "overFlowSiteId": 0,
      "historicSpillsList": [
        {
          "id": 344797910,
          "eventId": 787149,
          "siteUnitNumber": 12593,
          "bathingSite": "FELPHAM",
          "eventStart": "2023-03-24T08:20:00",
          "eventStop": "2023-03-25T00:51:00",
          "duration": 991,
          "status": "Genuine",
          "associatedSiteId": 110095,
          "outfallName": "LIDSEY",
          "isImpacting": true,
          "overFlowSiteId": 115776
        }
      ]
    },
    {
      "id": 344811529,
      "eventId": 783534,
      "siteUnitNumber": 12577,
      "bathingSite": "BEXHILL",
      "eventStart": "2023-03-23T20:18:59",
      "eventStop": "2023-03-25T00:28:00",
      "duration": 1689,
      "status": "Genuine",
      "associatedSiteId": 115499,
      "outfallName": "BROCKLEY ROAD BEXHILL",
      "isImpacting": true,
      "overFlowSiteId": 0,
      "historicSpillsList": [
        {
          "id": 344811529,
          "eventId": 783534,
          "siteUnitNumber": 12577,
          "bathingSite": "BEXHILL",
          "eventStart": "2023-03-23T20:18:59",
          "eventStop": "2023-03-25T00:28:00",
          "duration": 1689,
          "status": "Genuine",
          "associatedSiteId": 115499,
          "outfallName": "BROCKLEY ROAD BEXHILL",
          "isImpacting": true,
          "overFlowSiteId": 103297
        }
      ]
    },
    {
      "id": 344773779,
      "eventId": 784626,
      "siteUnitNumber": 12616,
      "bathingSite": "GURNARD",
      "eventStart": "2023-03-25T00:12:37",
      "eventStop": "2023-03-25T00:16:00",
      "duration": 3,
      "status": "Genuine",
      "associatedSiteId": 109700,
      "outfallName": "MARKET HILL COWES",
      "isImpacting": false,
      "overFlowSiteId": 0,
      "historicSpillsList": []
    },
    {
      "id": 344788645,
      "eventId": 784280,
      "siteUnitNumber": 12596,
      "bathingSite": "PAGHAM",
      "eventStart": "2023-03-24T14:00:00",
      "eventStop": "2023-03-25T00:00:00",
      "duration": 600,
      "status": "Genuine",
      "associatedSiteId": 109911,
      "outfallName": "SUMMER LANE PAGHAM",
      "isImpacting": true,
      "overFlowSiteId": 0,
      "historicSpillsList": [
        {
          "id": 344788645,
          "eventId": 784280,
          "siteUnitNumber": 12596,
          "bathingSite": "PAGHAM",
          "eventStart": "2023-03-24T14:00:00",
          "eventStop": "2023-03-25T00:00:00",
          "duration": 600,
          "status": "Genuine",
          "associatedSiteId": 109911,
          "outfallName": "SUMMER LANE PAGHAM",
          "isImpacting": true,
          "overFlowSiteId": 115443
        }
      ]
    },
    {
      "id": 344785614,
      "eventId": 784417,
      "siteUnitNumber": 12568,
      "bathingSite": "SANDGATE",
      "eventStart": "2023-03-24T18:15:00",
      "eventStop": "2023-03-24T21:00:00",
      "duration": 165,
      "status": "Not Genuine",
      "associatedSiteId": 109897,
      "outfallName": "RANGE ROAD HYTHE K LONG",
      "isImpacting": true,
      "overFlowSiteId": 0,
      "historicSpillsList": []
    },
    {
      "id": 344809654,
      "eventId": 784022,
      "siteUnitNumber": 12614,
      "bathingSite": "TOTLAND BAY",
      "eventStart": "2023-03-24T06:45:00",
      "eventStop": "2023-03-24T21:00:00",
      "duration": 855,
      "status": "Not Genuine",
      "associatedSiteId": 115498,
      "outfallName": "NORTON TRANSFER IOW",
      "isImpacting": true,
      "overFlowSiteId": 0,
      "historicSpillsList": []
    },
    {
      "id": 344798387,
      "eventId": 783856,
      "siteUnitNumber": 12623,
      "bathingSite": "YAVERLAND",
      "eventStart": "2023-03-24T04:16:00",
      "eventStop": "2023-03-24T21:00:00",
      "duration": 1004,
      "status": "Genuine",
      "associatedSiteId": 110096,
      "outfallName": "SANDOWN NO1",
      "isImpacting": true,
      "overFlowSiteId": 0,
      "historicSpillsList": [
        {
          "id": 344798387,
          "eventId": 783856,
          "siteUnitNumber": 12623,
          "bathingSite": "YAVERLAND",
          "eventStart": "2023-03-24T04:16:00",
          "eventStop": "2023-03-24T21:00:00",
          "duration": 1004,
          "status": "Genuine",
          "associatedSiteId": 110096,
          "outfallName": "SANDOWN NO1",
          "isImpacting": true,
          "overFlowSiteId": 115453
        },
        {
          "id": 344798388,
          "eventId": 783856,
          "siteUnitNumber": 12624,
          "bathingSite": "SANDOWN",
          "eventStart": "2023-03-24T04:16:00",
          "eventStop": "2023-03-24T21:00:00",
          "duration": 1004,
          "status": "Genuine",
          "associatedSiteId": 110096,
          "outfallName": "SANDOWN NO1",
          "isImpacting": true,
          "overFlowSiteId": 115453,
          "historicSpillsList": []
        },
        {
          "id": 344798394,
          "eventId": 783856,
          "siteUnitNumber": 12622,
          "bathingSite": "WHITECLIFF BAY",
          "eventStart": "2023-03-24T04:16:00",
          "eventStop": "2023-03-24T21:00:00",
          "duration": 1004,
          "status": "Genuine",
          "associatedSiteId": 110096,
          "outfallName": "SANDOWN NO1",
          "isImpacting": true,
          "overFlowSiteId": 115453,
          "historicSpillsList": []
        }
      ]
    },
    {
      "id": 344794610,
      "eventId": 784689,
      "siteUnitNumber": 12591,
      "bathingSite": "LITTLEHAMPTON",
      "eventStart": "2023-03-24T19:45:00",
      "eventStop": "2023-03-24T20:30:00",
      "duration": 45,
      "status": "Genuine",
      "associatedSiteId": 109965,
      "outfallName": "SEA ROAD LITTLEHAMPTON",
      "isImpacting": false,
      "overFlowSiteId": 0,
      "historicSpillsList": []
    },
    {
      "id": 344809646,
      "eventId": 784312,
      "siteUnitNumber": 12615,
      "bathingSite": "COLWELL BAY",
      "eventStart": "2023-03-24T15:05:03",
      "eventStop": "2023-03-24T18:48:28",
      "duration": 223,
      "status": "Genuine",
      "associatedSiteId": 115498,
      "outfallName": "NORTON TRANSFER IOW",
      "isImpacting": true,
      "overFlowSiteId": 0,
      "historicSpillsList": [
        {
          "id": 344809646,
          "eventId": 784312,
          "siteUnitNumber": 12615,
          "bathingSite": "COLWELL BAY",
          "eventStart": "2023-03-24T15:05:03",
          "eventStop": "2023-03-24T18:48:28",
          "duration": 223,
          "status": "Genuine",
          "associatedSiteId": 115498,
          "outfallName": "NORTON TRANSFER IOW",
          "isImpacting": true,
          "overFlowSiteId": 109524
        },
        {
          "id": 344809647,
          "eventId": 784312,
          "siteUnitNumber": 12614,
          "bathingSite": "TOTLAND BAY",
          "eventStart": "2023-03-24T15:05:03",
          "eventStop": "2023-03-24T18:48:28",
          "duration": 223,
          "status": "Genuine",
          "associatedSiteId": 115498,
          "outfallName": "NORTON TRANSFER IOW",
          "isImpacting": true,
          "overFlowSiteId": 109524,
          "historicSpillsList": []
        }
      ]
    },
    {
      "id": 344785618,
      "eventId": 783205,
      "siteUnitNumber": 12568,
      "bathingSite": "SANDGATE",
      "eventStart": "2023-03-23T17:15:00",
      "eventStop": "2023-03-24T18:00:00",
      "duration": 1485,
      "status": "Genuine",
      "associatedSiteId": 109897,
      "outfallName": "RANGE ROAD HYTHE K LONG",
      "isImpacting": true,
      "overFlowSiteId": 0,
      "historicSpillsList": [
        {
          "id": 344785618,
          "eventId": 783205,
          "siteUnitNumber": 12568,
          "bathingSite": "SANDGATE",
          "eventStart": "2023-03-23T17:15:00",
          "eventStop": "2023-03-24T18:00:00",
          "duration": 1485,
          "status": "Genuine",
          "associatedSiteId": 109897,
          "outfallName": "RANGE ROAD HYTHE K LONG",
          "isImpacting": true,
          "overFlowSiteId": 116048
        },
        {
          "id": 344785619,
          "eventId": 783205,
          "siteUnitNumber": 12569,
          "bathingSite": "HYTHE",
          "eventStart": "2023-03-23T17:15:00",
          "eventStop": "2023-03-24T18:00:00",
          "duration": 1485,
          "status": "Genuine",
          "associatedSiteId": 109897,
          "outfallName": "RANGE ROAD HYTHE K LONG",
          "isImpacting": true,
          "overFlowSiteId": 116048,
          "historicSpillsList": []
        }
      ]
    },
    {
      "id": 344794609,
      "eventId": 784688,
      "siteUnitNumber": 12591,
      "bathingSite": "LITTLEHAMPTON",
      "eventStart": "2023-03-24T14:45:00",
      "eventStop": "2023-03-24T15:45:00",
      "duration": 60,
      "status": "Genuine",
      "associatedSiteId": 109965,
      "outfallName": "SEA ROAD LITTLEHAMPTON",
      "isImpacting": true,
      "overFlowSiteId": 0,
      "historicSpillsList": [
        {
          "id": 344794609,
          "eventId": 784688,
          "siteUnitNumber": 12591,
          "bathingSite": "LITTLEHAMPTON",
          "eventStart": "2023-03-24T14:45:00",
          "eventStop": "2023-03-24T15:45:00",
          "duration": 60,
          "status": "Genuine",
          "associatedSiteId": 109965,
          "outfallName": "SEA ROAD LITTLEHAMPTON",
          "isImpacting": true,
          "overFlowSiteId": 109368
        }
      ]
    },
    {
      "id": 344795185,
      "eventId": 784301,
      "siteUnitNumber": 12591,
      "bathingSite": "LITTLEHAMPTON",
      "eventStart": "2023-03-24T14:29:12",
      "eventStop": "2023-03-24T15:45:00",
      "duration": 75,
      "status": "Genuine",
      "associatedSiteId": 109968,
      "outfallName": "FORD ROAD ARUNDEL",
      "isImpacting": true,
      "overFlowSiteId": 0,
      "historicSpillsList": [
        {
          "id": 344795185,
          "eventId": 784301,
          "siteUnitNumber": 12591,
          "bathingSite": "LITTLEHAMPTON",
          "eventStart": "2023-03-24T14:29:12",
          "eventStop": "2023-03-24T15:45:00",
          "duration": 75,
          "status": "Genuine",
          "associatedSiteId": 109968,
          "outfallName": "FORD ROAD ARUNDEL",
          "isImpacting": true,
          "overFlowSiteId": 108002
        }
      ]
    },
    {
      "id": 344805959,
      "eventId": 784260,
      "siteUnitNumber": 12662,
      "bathingSite": "CHICHESTER HARBOUR",
      "eventStart": "2023-03-24T13:05:00",
      "eventStop": "2023-03-24T15:18:00",
      "duration": 133,
      "status": "Genuine",
      "associatedSiteId": 110760,
      "outfallName": "BOSHAM",
      "isImpacting": true,
      "overFlowSiteId": 0,
      "historicSpillsList": [
        {
          "id": 344805959,
          "eventId": 784260,
          "siteUnitNumber": 12662,
          "bathingSite": "CHICHESTER HARBOUR",
          "eventStart": "2023-03-24T13:05:00",
          "eventStop": "2023-03-24T15:18:00",
          "duration": 133,
          "status": "Genuine",
          "associatedSiteId": 110760,
          "outfallName": "BOSHAM",
          "isImpacting": true,
          "overFlowSiteId": 115735
        }
      ]
    },
    {
      "id": 344809648,
      "eventId": 784231,
      "siteUnitNumber": 12614,
      "bathingSite": "TOTLAND BAY",
      "eventStart": "2023-03-24T12:34:09",
      "eventStop": "2023-03-24T14:37:49",
      "duration": 123,
      "status": "Not Genuine",
      "associatedSiteId": 115498,
      "outfallName": "NORTON TRANSFER IOW",
      "isImpacting": true,
      "overFlowSiteId": 0,
      "historicSpillsList": []
    },
    {
      "id": 344788644,
      "eventId": 784255,
      "siteUnitNumber": 12596,
      "bathingSite": "PAGHAM",
      "eventStart": "2023-03-24T13:15:00",
      "eventStop": "2023-03-24T13:45:00",
      "duration": 30,
      "status": "Genuine",
      "associatedSiteId": 109911,
      "outfallName": "SUMMER LANE PAGHAM",
      "isImpacting": true,
      "overFlowSiteId": 0,
      "historicSpillsList": [
        {
          "id": 344788644,
          "eventId": 784255,
          "siteUnitNumber": 12596,
          "bathingSite": "PAGHAM",
          "eventStart": "2023-03-24T13:15:00",
          "eventStop": "2023-03-24T13:45:00",
          "duration": 30,
          "status": "Genuine",
          "associatedSiteId": 109911,
          "outfallName": "SUMMER LANE PAGHAM",
          "isImpacting": true,
          "overFlowSiteId": 115443
        }
      ]
    },
    {
      "id": 344773781,
      "eventId": 784343,
      "siteUnitNumber": 12616,
      "bathingSite": "GURNARD",
      "eventStart": "2023-03-24T11:51:00",
      "eventStop": "2023-03-24T13:29:00",
      "duration": 98,
      "status": "Genuine",
      "associatedSiteId": 109700,
      "outfallName": "MARKET HILL COWES",
      "isImpacting": false,
      "overFlowSiteId": 0,
      "historicSpillsList": []
    },
    {
      "id": 344781734,
      "eventId": 784249,
      "siteUnitNumber": 12549,
      "bathingSite": "HERNE BAY CENTRAL",
      "eventStart": "2023-03-24T12:46:16",
      "eventStop": "2023-03-24T13:02:10",
      "duration": 15,
      "status": "Not Genuine",
      "associatedSiteId": 109830,
      "outfallName": "SWALECLIFFE NO1",
      "isImpacting": true,
      "overFlowSiteId": 0,
      "historicSpillsList": []
    },
    {
      "id": 344781737,
      "eventId": 784039,
      "siteUnitNumber": 12548,
      "bathingSite": "TANKERTON",
      "eventStart": "2023-03-24T07:51:26",
      "eventStop": "2023-03-24T12:42:04",
      "duration": 290,
      "status": "Genuine",
      "associatedSiteId": 109830,
      "outfallName": "SWALECLIFFE NO1",
      "isImpacting": true,
      "overFlowSiteId": 0,
      "historicSpillsList": [
        {
          "id": 344781737,
          "eventId": 784039,
          "siteUnitNumber": 12548,
          "bathingSite": "TANKERTON",
          "eventStart": "2023-03-24T07:51:26",
          "eventStop": "2023-03-24T12:42:04",
          "duration": 290,
          "status": "Genuine",
          "associatedSiteId": 109830,
          "outfallName": "SWALECLIFFE NO1",
          "isImpacting": true,
          "overFlowSiteId": 115444
        },
        {
          "id": 344781738,
          "eventId": 784039,
          "siteUnitNumber": 12549,
          "bathingSite": "HERNE BAY CENTRAL",
          "eventStart": "2023-03-24T07:51:26",
          "eventStop": "2023-03-24T12:42:04",
          "duration": 290,
          "status": "Genuine",
          "associatedSiteId": 109830,
          "outfallName": "SWALECLIFFE NO1",
          "isImpacting": true,
          "overFlowSiteId": 115444,
          "historicSpillsList": []
        }
      ]
    },
    {
      "id": 344809650,
      "eventId": 784037,
      "siteUnitNumber": 12614,
      "bathingSite": "TOTLAND BAY",
      "eventStart": "2023-03-24T11:00:00",
      "eventStop": "2023-03-24T12:18:00",
      "duration": 78,
      "status": "Genuine",
      "associatedSiteId": 115498,
      "outfallName": "NORTON TRANSFER IOW",
      "isImpacting": true,
      "overFlowSiteId": 0,
      "historicSpillsList": [
        {
          "id": 344809650,
          "eventId": 784037,
          "siteUnitNumber": 12614,
          "bathingSite": "TOTLAND BAY",
          "eventStart": "2023-03-24T11:00:00",
          "eventStop": "2023-03-24T12:18:00",
          "duration": 78,
          "status": "Genuine",
          "associatedSiteId": 115498,
          "outfallName": "NORTON TRANSFER IOW",
          "isImpacting": true,
          "overFlowSiteId": 109524
        },
        {
          "id": 344809651,
          "eventId": 784037,
          "siteUnitNumber": 12615,
          "bathingSite": "COLWELL BAY",
          "eventStart": "2023-03-24T11:00:00",
          "eventStop": "2023-03-24T12:18:00",
          "duration": 78,
          "status": "Genuine",
          "associatedSiteId": 115498,
          "outfallName": "NORTON TRANSFER IOW",
          "isImpacting": true,
          "overFlowSiteId": 109524,
          "historicSpillsList": []
        }
      ]
    },
    {
      "id": 344780050,
      "eventId": 784078,
      "siteUnitNumber": 12596,
      "bathingSite": "PAGHAM",
      "eventStart": "2023-03-24T08:45:39",
      "eventStop": "2023-03-24T12:02:46",
      "duration": 197,
      "status": "Genuine",
      "associatedSiteId": 109791,
      "outfallName": "SIDLESHAM",
      "isImpacting": true,
      "overFlowSiteId": 0,
      "historicSpillsList": [
        {
          "id": 344780050,
          "eventId": 784078,
          "siteUnitNumber": 12596,
          "bathingSite": "PAGHAM",
          "eventStart": "2023-03-24T08:45:39",
          "eventStop": "2023-03-24T12:02:46",
          "duration": 197,
          "status": "Genuine",
          "associatedSiteId": 109791,
          "outfallName": "SIDLESHAM",
          "isImpacting": true,
          "overFlowSiteId": 115807
        }
      ]
    },
    {
      "id": 344794612,
      "eventId": 784044,
      "siteUnitNumber": 12591,
      "bathingSite": "LITTLEHAMPTON",
      "eventStart": "2023-03-24T10:38:00",
      "eventStop": "2023-03-24T11:02:00",
      "duration": 24,
      "status": "Genuine",
      "associatedSiteId": 109965,
      "outfallName": "SEA ROAD LITTLEHAMPTON",
      "isImpacting": false,
      "overFlowSiteId": 0,
      "historicSpillsList": []
    }
  ]
}