{
  "currentPage": 216,
  "totalItems": 21025,
  "totalPages": 841,
  "items": [
    {
      "id": 344772558,
      "eventId": 861705,
      "siteUnitNumber": 12615,
      "bathingSite": "COLWELL BAY",
      "eventStart": "2023-09-20T19:27:00",
      "eventStop": "2023-09-20T19:47:00",
      "duration": 20,
      "status": "Genuine",
      "associatedSiteId": 109665,
      "outfallName": "THORLEY ROAD BOULDNOR",
      "isImpacting": false,
      "overFlowSiteId": 0,
      "historicSpillsList": []
    },
    {
      "id": 344806244,
      "eventId": 861641,
      "siteUnitNumber": 12582,
      "bathingSite": "SEAFORD",
      "eventStart": "2023-09-20T18:32:58",
      "eventStop": "2023-09-20T19:34:23",
      "duration": 61,
      "status": "Genuine",
      "associatedSiteId": 110920,
      "outfallName": "NEWHAVEN",
      "isImpacting": false,
      "overFlowSiteId": 0,
      "historicSpillsList": []
    },
    {
      "id": 344776011,
      "eventId": 861709,
      "siteUnitNumber": 12616,
      "bathingSite": "GURNARD",
      "eventStart": "2023-09-20T19:24:57",
      "eventStop": "2023-09-20T19:30:00",
      "duration": 5,
      "status": "Genuine",
      "associatedSiteId": 109707,
      "outfallName": "MEDINA ROAD COWES",
      "isImpacting": false,
      "overFlowSiteId": 0,
      "historicSpillsList": []
    },
    {
      "id": 344795795,
      "eventId": 861596,
      "siteUnitNumber": 12591,
      "bathingSite": "LITTLEHAMPTON",
      "eventStart": "2023-09-20T17:46:00",
      "eventStop": "2023-09-20T19:27:00",
      "duration": 101,
      "status": "Genuine",
      "associatedSiteId": 109977,
      "outfallName": "FORESHORE TANK LITTLEHAMPTON",
      "isImpacting": true,
      "overFlowSiteId": 0,
      "historicSpillsList": [
        {
          "id": 344795795,
          "eventId": 861596,
          "siteUnitNumber": 12591,
          "bathingSite": "LITTLEHAMPTON",
          "eventStart": "2023-09-20T17:46:00",
          "eventStop": "2023-09-20T19:27:00",
          "duration": 101,
          "status": "Genuine",
          "associatedSiteId": 109977,
          "outfallName": "FORESHORE TANK LITTLEHAMPTON",
          "isImpacting": true,
          "overFlowSiteId": 109390
        }
      ]
    },
    {
      "id": 344791474,
      "eventId": 861550,
      "siteUnitNumber": 12582,
      "bathingSite": "SEAFORD",
      "eventStart": "2023-09-20T18:15:00",
      "eventStop": "2023-09-20T19:16:00",
      "duration": 61,
      "status": "Genuine",
      "associatedSiteId": 109957,
      "outfallName": "PORTOBELLO BRIGHTON NO2",
      "isImpacting": true,
      "overFlowSiteId": 0,
      "historicSpillsList": [
        {
          "id": 344791475,
          "eventId": 861550,
          "siteUnitNumber": 12583,
          "bathingSite": "SALTDEAN",
          "eventStart": "2023-09-20T18:15:00",
          "eventStop": "2023-09-20T19:16:00",
          "duration": 61,
          "status": "Genuine",
          "associatedSiteId": 109957,
          "outfallName": "PORTOBELLO BRIGHTON NO2",
          "isImpacting": true,
          "overFlowSiteId": 116036,
          "historicSpillsList": []
        }
      ]
    },
    {
      "id": 344770357,
      "eventId": 861894,
      "siteUnitNumber": 12544,
      "bathingSite": "SHEERNESS",
      "eventStart": "2023-09-20T19:02:00",
      "eventStop": "2023-09-20T19:04:00",
      "duration": 2,
      "status": "Genuine",
      "associatedSiteId": 109621,
      "outfallName": "NOREEN AVENUE SHEERNESS",
      "isImpacting": true,
      "overFlowSiteId": 0,
      "historicSpillsList": [
        {
          "id": 344770357,
          "eventId": 861894,
          "siteUnitNumber": 12544,
          "bathingSite": "SHEERNESS",
          "eventStart": "2023-09-20T19:02:00",
          "eventStop": "2023-09-20T19:04:00",
          "duration": 2,
          "status": "Genuine",
          "associatedSiteId": 109621,
          "outfallName": "NOREEN AVENUE SHEERNESS",
          "isImpacting": true,
          "overFlowSiteId": 108809
        },
        {
          "id": 344770358,
          "eventId": 861894,
          "siteUnitNumber": 12550,
          "bathingSite": "MINSTER LEAS",
          "eventStart": "2023-09-20T19:02:00",
          "eventStop": "2023-09-20T19:04:00",
          "duration": 2,
          "status": "Genuine",
          "associatedSiteId": 109621,
          "outfallName": "NOREEN AVENUE SHEERNESS",
          "isImpacting": true,
          "overFlowSiteId": 108809,
          "historicSpillsList": []
        }
      ]
    },
    {
      "id": 344795129,
      "eventId": 861532,
      "siteUnitNumber": 12591,
      "bathingSite": "LITTLEHAMPTON",
      "eventStart": "2023-09-20T17:35:24",
      "eventStop": "2023-09-20T18:45:00",
      "duration": 69,
      "status": "Genuine",
      "associatedSiteId": 109968,
      "outfallName": "FORD ROAD ARUNDEL",
      "isImpacting": true,
      "overFlowSiteId": 0,
      "historicSpillsList": [
        {
          "id": 344795129,
          "eventId": 861532,
          "siteUnitNumber": 12591,
          "bathingSite": "LITTLEHAMPTON",
          "eventStart": "2023-09-20T17:35:24",
          "eventStop": "2023-09-20T18:45:00",
          "duration": 69,
          "status": "Genuine",
          "associatedSiteId": 109968,
          "outfallName": "FORD ROAD ARUNDEL",
          "isImpacting": true,
          "overFlowSiteId": 108002
        }
      ]
    },
    {
      "id": 344780454,
      "eventId": 861477,
      "siteUnitNumber": 12604,
      "bathingSite": "SOUTHSEA EAST",
      "eventStart": "2023-09-20T17:23:00",
      "eventStop": "2023-09-20T17:59:00",
      "duration": 36,
      "status": "Genuine",
      "associatedSiteId": 109822,
      "outfallName": "PIER ROAD SOUTHSEA",
      "isImpacting": true,
      "overFlowSiteId": 0,
      "historicSpillsList": [
        {
          "id": 344780454,
          "eventId": 861477,
          "siteUnitNumber": 12604,
          "bathingSite": "SOUTHSEA EAST",
          "eventStart": "2023-09-20T17:23:00",
          "eventStop": "2023-09-20T17:59:00",
          "duration": 36,
          "status": "Genuine",
          "associatedSiteId": 109822,
          "outfallName": "PIER ROAD SOUTHSEA",
          "isImpacting": true,
          "overFlowSiteId": 108469
        },
        {
          "id": 344780455,
          "eventId": 861477,
          "siteUnitNumber": 12605,
          "bathingSite": "STOKES BAY",
          "eventStart": "2023-09-20T17:23:00",
          "eventStop": "2023-09-20T17:59:00",
          "duration": 36,
          "status": "Genuine",
          "associatedSiteId": 109822,
          "outfallName": "PIER ROAD SOUTHSEA",
          "isImpacting": true,
          "overFlowSiteId": 108469,
          "historicSpillsList": []
        }
      ]
    },
    {
      "id": 344772418,
      "eventId": 861445,
      "siteUnitNumber": 12615,
      "bathingSite": "COLWELL BAY",
      "eventStart": "2023-09-20T16:24:00",
      "eventStop": "2023-09-20T16:39:00",
      "duration": 15,
      "status": "Genuine",
      "associatedSiteId": 109663,
      "outfallName": "THE INSTITUTE YARMOUTH NO1",
      "isImpacting": false,
      "overFlowSiteId": 0,
      "historicSpillsList": []
    },
    {
      "id": 344795128,
      "eventId": 861374,
      "siteUnitNumber": 12591,
      "bathingSite": "LITTLEHAMPTON",
      "eventStart": "2023-09-20T14:48:00",
      "eventStop": "2023-09-20T15:55:00",
      "duration": 67,
      "status": "Genuine",
      "associatedSiteId": 109968,
      "outfallName": "FORD ROAD ARUNDEL",
      "isImpacting": true,
      "overFlowSiteId": 0,
      "historicSpillsList": [
        {
          "id": 344795128,
          "eventId": 861374,
          "siteUnitNumber": 12591,
          "bathingSite": "LITTLEHAMPTON",
          "eventStart": "2023-09-20T14:48:00",
          "eventStop": "2023-09-20T15:55:00",
          "duration": 67,
          "status": "Genuine",
          "associatedSiteId": 109968,
          "outfallName": "FORD ROAD ARUNDEL",
          "isImpacting": true,
          "overFlowSiteId": 108002
        }
      ]
    },
    {
      "id": 344795131,
      "eventId": 861348,
      "siteUnitNumber": 12591,
      "bathingSite": "LITTLEHAMPTON",
      "eventStart": "2023-09-20T13:58:31",
      "eventStop": "2023-09-20T14:16:00",
      "duration": 17,
      "status": "Genuine",
      "associatedSiteId": 109968,
      "outfallName": "FORD ROAD ARUNDEL",
      "isImpacting": false,
      "overFlowSiteId": 0,
      "historicSpillsList": []
    },
    {
      "id": 344786944,
      "eventId": 861225,
      "siteUnitNumber": 12576,
      "bathingSite": "ST LEONARDS",
      "eventStart": "2023-09-20T07:15:31",
      "eventStop": "2023-09-20T08:30:00",
      "duration": 74,
      "status": "Genuine",
      "associatedSiteId": 109903,
      "outfallName": "BEXHILL & HASTINGS NO2",
      "isImpacting": true,
      "overFlowSiteId": 0,
      "historicSpillsList": [
        {
          "id": 344786944,
          "eventId": 861225,
          "siteUnitNumber": 12576,
          "bathingSite": "ST LEONARDS",
          "eventStart": "2023-09-20T07:15:31",
          "eventStop": "2023-09-20T08:30:00",
          "duration": 74,
          "status": "Genuine",
          "associatedSiteId": 109903,
          "outfallName": "BEXHILL & HASTINGS NO2",
          "isImpacting": true,
          "overFlowSiteId": 115398
        },
        {
          "id": 344786945,
          "eventId": 861225,
          "siteUnitNumber": 12577,
          "bathingSite": "BEXHILL",
          "eventStart": "2023-09-20T07:15:31",
          "eventStop": "2023-09-20T08:30:00",
          "duration": 74,
          "status": "Genuine",
          "associatedSiteId": 109903,
          "outfallName": "BEXHILL & HASTINGS NO2",
          "isImpacting": true,
          "overFlowSiteId": 115398,
          "historicSpillsList": []
        }
      ]
    },
    {
      "id": 344786942,
      "eventId": 861224,
      "siteUnitNumber": 12576,
      "bathingSite": "ST LEONARDS",
      "eventStart": "2023-09-20T06:58:54",
      "eventStop": "2023-09-20T07:04:33",
      "duration": 5,
      "status": "Genuine",
      "associatedSiteId": 109903,
      "outfallName": "BEXHILL & HASTINGS NO2",
      "isImpacting": true,
      "overFlowSiteId": 0,
      "historicSpillsList": [
        {
          "id": 344786942,
          "eventId": 861224,
          "siteUnitNumber": 12576,
          "bathingSite": "ST LEONARDS",
          "eventStart": "2023-09-20T06:58:54",
          "eventStop": "2023-09-20T07:04:33",
          "duration": 5,
          "status": "Genuine",
          "associatedSiteId": 109903,
          "outfallName": "BEXHILL & HASTINGS NO2",
          "isImpacting": true,
          "overFlowSiteId": 115398
        },
        {
          "id": 344786943,
          "eventId": 861224,
          "siteUnitNumber": 12577,
          "bathingSite": "BEXHILL",
          "eventStart": "2023-09-20T06:58:54",
          "eventStop": "2023-09-20T07:04:33",
          "duration": 5,
          "status": "Genuine",
          "associatedSiteId": 109903,
          "outfallName": "BEXHILL & HASTINGS NO2",
          "isImpacting": true,
          "overFlowSiteId": 115398,
          "historicSpillsList": []
        }
      ]
    },
    {
      "id": 344786948,
      "eventId": 861159,
      "siteUnitNumber": 12576,
      "bathingSite": "ST LEONARDS",
      "eventStart": "2023-09-20T01:04:08",
      "eventStop": "2023-09-20T01:13:34",
      "duration": 9,
      "status": "Genuine",
      "associatedSiteId": 109903,
      "outfallName": "BEXHILL & HASTINGS NO2",
      "isImpacting": true,
      "overFlowSiteId": 0,
      "historicSpillsList": [
        {
          "id": 344786948,
          "eventId": 861159,
          "siteUnitNumber": 12576,
          "bathingSite": "ST LEONARDS",
          "eventStart": "2023-09-20T01:04:08",
          "eventStop": "2023-09-20T01:13:34",
          "duration": 9,
          "status": "Genuine",
          "associatedSiteId": 109903,
          "outfallName": "BEXHILL & HASTINGS NO2",
          "isImpacting": true,
          "overFlowSiteId": 115398
        },
        {
          "id": 344786949,
          "eventId": 861159,
          "siteUnitNumber": 12577,
          "bathingSite": "BEXHILL",
          "eventStart": "2023-09-20T01:04:08",
          "eventStop": "2023-09-20T01:13:34",
          "duration": 9,
          "status": "Genuine",
          "associatedSiteId": 109903,
          "outfallName": "BEXHILL & HASTINGS NO2",
          "isImpacting": true,
          "overFlowSiteId": 115398,
          "historicSpillsList": []
        }
      ]
    },
    {
      "id": 344770359,
      "eventId": 861150,
      "siteUnitNumber": 12544,
      "bathingSite": "SHEERNESS",
      "eventStart": "2023-09-19T23:52:00",
      "eventStop": "2023-09-20T00:02:00",
      "duration": 10,
      "status": "Not Genuine",
      "associatedSiteId": 109621,
      "outfallName": "NOREEN AVENUE SHEERNESS",
      "isImpacting": true,
      "overFlowSiteId": 0,
      "historicSpillsList": []
    },
    {
      "id": 344798163,
      "eventId": 859503,
      "siteUnitNumber": 12622,
      "bathingSite": "WHITECLIFF BAY",
      "eventStart": "2023-09-17T11:15:24",
      "eventStop": "2023-09-19T11:45:00",
      "duration": 2909,
      "status": "Not Genuine",
      "associatedSiteId": 110096,
      "outfallName": "SANDOWN NO1",
      "isImpacting": true,
      "overFlowSiteId": 0,
      "historicSpillsList": []
    },
    {
      "id": 344792673,
      "eventId": 859843,
      "siteUnitNumber": 12594,
      "bathingSite": "BOGNOR REGIS EAST",
      "eventStart": "2023-09-17T22:44:06",
      "eventStop": "2023-09-19T10:38:42",
      "duration": 2154,
      "status": "Not Genuine",
      "associatedSiteId": 109959,
      "outfallName": "WEST PARK BOGNOR REGIS",
      "isImpacting": true,
      "overFlowSiteId": 0,
      "historicSpillsList": []
    },
    {
      "id": 344770290,
      "eventId": 860416,
      "siteUnitNumber": 12544,
      "bathingSite": "SHEERNESS",
      "eventStart": "2023-09-18T11:44:00",
      "eventStop": "2023-09-18T15:20:00",
      "duration": 216,
      "status": "Genuine",
      "associatedSiteId": 109619,
      "outfallName": "WARDS HILL ROAD MINSTER IOS",
      "isImpacting": false,
      "overFlowSiteId": 0,
      "historicSpillsList": []
    },
    {
      "id": 344770017,
      "eventId": 860427,
      "siteUnitNumber": 12544,
      "bathingSite": "SHEERNESS",
      "eventStart": "2023-09-18T11:27:00",
      "eventStop": "2023-09-18T14:24:00",
      "duration": 177,
      "status": "Genuine",
      "associatedSiteId": 109614,
      "outfallName": "BRIELLE WAY WESTMINSTER",
      "isImpacting": false,
      "overFlowSiteId": 0,
      "historicSpillsList": []
    },
    {
      "id": 344779505,
      "eventId": 863280,
      "siteUnitNumber": 12618,
      "bathingSite": "RYDE",
      "eventStart": "2023-09-18T13:01:22",
      "eventStop": "2023-09-18T13:12:36",
      "duration": 11,
      "status": "Not Genuine",
      "associatedSiteId": 109784,
      "outfallName": "PARK ROAD RYDE",
      "isImpacting": false,
      "overFlowSiteId": 0,
      "historicSpillsList": []
    },
    {
      "id": 344781611,
      "eventId": 860420,
      "siteUnitNumber": 12548,
      "bathingSite": "TANKERTON",
      "eventStart": "2023-09-18T11:16:16",
      "eventStop": "2023-09-18T13:05:13",
      "duration": 108,
      "status": "Genuine",
      "associatedSiteId": 109830,
      "outfallName": "SWALECLIFFE NO1",
      "isImpacting": false,
      "overFlowSiteId": 0,
      "historicSpillsList": []
    },
    {
      "id": 344769940,
      "eventId": 860426,
      "siteUnitNumber": 12546,
      "bathingSite": "LEYSDOWN",
      "eventStart": "2023-09-18T11:16:07",
      "eventStop": "2023-09-18T12:27:00",
      "duration": 70,
      "status": "Genuine",
      "associatedSiteId": 109613,
      "outfallName": "BARROWS BROOK EASTCHURCH",
      "isImpacting": true,
      "overFlowSiteId": 0,
      "historicSpillsList": [
        {
          "id": 344769940,
          "eventId": 860426,
          "siteUnitNumber": 12546,
          "bathingSite": "LEYSDOWN",
          "eventStart": "2023-09-18T11:16:07",
          "eventStop": "2023-09-18T12:27:00",
          "duration": 70,
          "status": "Genuine",
          "associatedSiteId": 109613,
          "outfallName": "BARROWS BROOK EASTCHURCH",
          "isImpacting": true,
          "overFlowSiteId": 108109
        }
      ]
    },
    {
      "id": 344794484,
      "eventId": 860211,
      "siteUnitNumber": 12591,
      "bathingSite": "LITTLEHAMPTON",
      "eventStart": "2023-09-18T09:12:36",
      "eventStop": "2023-09-18T12:15:00",
      "duration": 182,
      "status": "Not Genuine",
      "associatedSiteId": 109965,
      "outfallName": "SEA ROAD LITTLEHAMPTON",
      "isImpacting": true,
      "overFlowSiteId": 0,
      "historicSpillsList": []
    },
    {
      "id": 344798153,
      "eventId": 860589,
      "siteUnitNumber": 12622,
      "bathingSite": "WHITECLIFF BAY",
      "eventStart": "2023-09-18T09:48:00",
      "eventStop": "2023-09-18T12:06:00",
      "duration": 138,
      "status": "Genuine",
      "associatedSiteId": 110096,
      "outfallName": "SANDOWN NO1",
      "isImpacting": true,
      "overFlowSiteId": 0,
      "historicSpillsList": [
        {
          "id": 344798153,
          "eventId": 860589,
          "siteUnitNumber": 12622,
          "bathingSite": "WHITECLIFF BAY",
          "eventStart": "2023-09-18T09:48:00",
          "eventStop": "2023-09-18T12:06:00",
          "duration": 138,
          "status": "Genuine",
          "associatedSiteId": 110096,
          "outfallName": "SANDOWN NO1",
          "isImpacting": true,
          "overFlowSiteId": 115453
        },
        {
          "id": 344798154,
          "eventId": 860589,
          "siteUnitNumber": 12623,
          "bathingSite": "YAVERLAND",
          "eventStart": "2023-09-18T09:48:00",
          "eventStop": "2023-09-18T12:06:00",
          "duration": 138,
          "status": "Genuine",
          "associatedSiteId": 110096,
          "outfallName": "SANDOWN NO1",
          "isImpacting": true,
          "overFlowSiteId": 115453,
          "historicSpillsList": []
        },
        {
          "id": 344798155,
          "eventId": 860589,
          "siteUnitNumber": 12624,
          "bathingSite": "SANDOWN",
          "eventStart": "2023-09-18T09:48:00",
          "eventStop": "2023-09-18T12:06:00",
          "duration": 138,
          "status": "Genuine",
          "associatedSiteId": 110096,
          "outfallName": "SANDOWN NO1",
          "isImpacting": true,
          "overFlowSiteId": 115453,
          "historicSpillsList": []
        }
      ]
    },
    {
      "id": 344791472,
      "eventId": 860595,
      "siteUnitNumber": 12582,
      "bathingSite": "SEAFORD",
      "eventStart": "2023-09-18T11:44:59",
      "eventStop": "2023-09-18T12:00:04",
      "duration": 15,
      "status": "Not Genuine",
      "associatedSiteId": 109957,
      "outfallName": "PORTOBELLO BRIGHTON NO2",
      "isImpacting": false,
      "overFlowSiteId": 0,
      "historicSpillsList": []
    }
  ]
}