{
  "currentPage": 180,
  "totalItems": 21025,
  "totalPages": 841,
  "items": [
    {
      "id": 344776221,
      "eventId": 881583,
      "siteUnitNumber": 12607,
      "bathingSite": "HILLHEAD",
      "eventStart": "2023-10-24T21:37:00",
      "eventStop": "2023-10-24T22:27:00",
      "duration": 50,
      "status": "Genuine",
      "associatedSiteId": 109715,
      "outfallName": "SALTERNS ROAD HILL HEAD",
      "isImpacting": true,
      "overFlowSiteId": 0,
      "historicSpillsList": [
        {
          "id": 344776221,
          "eventId": 881583,
          "siteUnitNumber": 12607,
          "bathingSite": "HILLHEAD",
          "eventStart": "2023-10-24T21:37:00",
          "eventStop": "2023-10-24T22:27:00",
          "duration": 50,
          "status": "Genuine",
          "associatedSiteId": 109715,
          "outfallName": "SALTERNS ROAD HILL HEAD",
          "isImpacting": true,
          "overFlowSiteId": 108441
        }
      ]
    },
    {
      "id": 344806227,
      "eventId": 878307,
      "siteUnitNumber": 12582,
      "bathingSite": "SEAFORD",
      "eventStart": "2023-10-24T22:04:14",
      "eventStop": "2023-10-24T22:26:06",
      "duration": 21,
      "status": "Genuine",
      "associatedSiteId": 110920,
      "outfallName": "NEWHAVEN",
      "isImpacting": false,
      "overFlowSiteId": 0,
      "historicSpillsList": []
    },
    {
      "id": 344804753,
      "eventId": 878178,
      "siteUnitNumber": 12616,
      "bathingSite": "GURNARD",
      "eventStart": "2023-10-24T20:23:00",
      "eventStop": "2023-10-24T22:19:00",
      "duration": 116,
      "status": "Genuine",
      "associatedSiteId": 110701,
      "outfallName": "TERMINUS ROAD COWES 2",
      "isImpacting": true,
      "overFlowSiteId": 0,
      "historicSpillsList": [
        {
          "id": 344804753,
          "eventId": 878178,
          "siteUnitNumber": 12616,
          "bathingSite": "GURNARD",
          "eventStart": "2023-10-24T20:23:00",
          "eventStop": "2023-10-24T22:19:00",
          "duration": 116,
          "status": "Genuine",
          "associatedSiteId": 110701,
          "outfallName": "TERMINUS ROAD COWES 2",
          "isImpacting": true,
          "overFlowSiteId": 108563
        },
        {
          "id": 344804754,
          "eventId": 878178,
          "siteUnitNumber": 12617,
          "bathingSite": "COWES",
          "eventStart": "2023-10-24T20:23:00",
          "eventStop": "2023-10-24T22:19:00",
          "duration": 116,
          "status": "Genuine",
          "associatedSiteId": 110701,
          "outfallName": "TERMINUS ROAD COWES 2",
          "isImpacting": true,
          "overFlowSiteId": 108563,
          "historicSpillsList": []
        }
      ]
    },
    {
      "id": 344779381,
      "eventId": 878256,
      "siteUnitNumber": 12618,
      "bathingSite": "RYDE",
      "eventStart": "2023-10-24T20:55:00",
      "eventStop": "2023-10-24T22:12:00",
      "duration": 77,
      "status": "Genuine",
      "associatedSiteId": 109780,
      "outfallName": "LADIES WALK BINSTEAD",
      "isImpacting": true,
      "overFlowSiteId": 0,
      "historicSpillsList": [
        {
          "id": 344779381,
          "eventId": 878256,
          "siteUnitNumber": 12618,
          "bathingSite": "RYDE",
          "eventStart": "2023-10-24T20:55:00",
          "eventStop": "2023-10-24T22:12:00",
          "duration": 77,
          "status": "Genuine",
          "associatedSiteId": 109780,
          "outfallName": "LADIES WALK BINSTEAD",
          "isImpacting": true,
          "overFlowSiteId": 107406
        }
      ]
    },
    {
      "id": 344786782,
      "eventId": 878194,
      "siteUnitNumber": 12576,
      "bathingSite": "ST LEONARDS",
      "eventStart": "2023-10-24T20:28:41",
      "eventStop": "2023-10-24T22:01:55",
      "duration": 93,
      "status": "Genuine",
      "associatedSiteId": 109903,
      "outfallName": "BEXHILL & HASTINGS NO2",
      "isImpacting": true,
      "overFlowSiteId": 0,
      "historicSpillsList": [
        {
          "id": 344786782,
          "eventId": 878194,
          "siteUnitNumber": 12576,
          "bathingSite": "ST LEONARDS",
          "eventStart": "2023-10-24T20:28:41",
          "eventStop": "2023-10-24T22:01:55",
          "duration": 93,
          "status": "Genuine",
          "associatedSiteId": 109903,
          "outfallName": "BEXHILL & HASTINGS NO2",
          "isImpacting": true,
          "overFlowSiteId": 115398
        },
        {
          "id": 344786783,
          "eventId": 878194,
          "siteUnitNumber": 12577,
          "bathingSite": "BEXHILL",
          "eventStart": "2023-10-24T20:28:41",
          "eventStop": "2023-10-24T22:01:55",
          "duration": 93,
          "status": "Genuine",
          "associatedSiteId": 109903,
          "outfallName": "BEXHILL & HASTINGS NO2",
          "isImpacting": true,
          "overFlowSiteId": 115398,
          "historicSpillsList": []
        }
      ]
    },
    {
      "id": 344780425,
      "eventId": 878263,
      "siteUnitNumber": 12661,
      "bathingSite": "LANGSTONE HARBOUR",
      "eventStart": "2023-10-24T21:10:14",
      "eventStop": "2023-10-24T22:00:00",
      "duration": 49,
      "status": "Not Genuine",
      "associatedSiteId": 109820,
      "outfallName": "ST ANDREWS ROAD PORTSMOUTH",
      "isImpacting": true,
      "overFlowSiteId": 0,
      "historicSpillsList": []
    },
    {
      "id": 344795113,
      "eventId": 878274,
      "siteUnitNumber": 12591,
      "bathingSite": "LITTLEHAMPTON",
      "eventStart": "2023-10-24T21:16:56",
      "eventStop": "2023-10-24T21:50:00",
      "duration": 33,
      "status": "Genuine",
      "associatedSiteId": 109968,
      "outfallName": "FORD ROAD ARUNDEL",
      "isImpacting": false,
      "overFlowSiteId": 0,
      "historicSpillsList": []
    },
    {
      "id": 344775673,
      "eventId": 878272,
      "siteUnitNumber": 12616,
      "bathingSite": "GURNARD",
      "eventStart": "2023-10-24T21:30:58",
      "eventStop": "2023-10-24T21:36:06",
      "duration": 5,
      "status": "Genuine",
      "associatedSiteId": 109706,
      "outfallName": "HIGH STREET COWES",
      "isImpacting": false,
      "overFlowSiteId": 0,
      "historicSpillsList": []
    },
    {
      "id": 344806226,
      "eventId": 878267,
      "siteUnitNumber": 12582,
      "bathingSite": "SEAFORD",
      "eventStart": "2023-10-24T21:19:43",
      "eventStop": "2023-10-24T21:32:27",
      "duration": 12,
      "status": "Genuine",
      "associatedSiteId": 110920,
      "outfallName": "NEWHAVEN",
      "isImpacting": false,
      "overFlowSiteId": 0,
      "historicSpillsList": []
    },
    {
      "id": 344774331,
      "eventId": 878203,
      "siteUnitNumber": 12616,
      "bathingSite": "GURNARD",
      "eventStart": "2023-10-24T20:42:03",
      "eventStop": "2023-10-24T21:09:00",
      "duration": 26,
      "status": "Genuine",
      "associatedSiteId": 109702,
      "outfallName": "ALBANY ROAD EAST COWES",
      "isImpacting": false,
      "overFlowSiteId": 0,
      "historicSpillsList": []
    },
    {
      "id": 344776003,
      "eventId": 880505,
      "siteUnitNumber": 12616,
      "bathingSite": "GURNARD",
      "eventStart": "2023-10-24T20:24:00",
      "eventStop": "2023-10-24T21:06:00",
      "duration": 42,
      "status": "Genuine",
      "associatedSiteId": 109707,
      "outfallName": "MEDINA ROAD COWES",
      "isImpacting": false,
      "overFlowSiteId": 0,
      "historicSpillsList": []
    },
    {
      "id": 344773729,
      "eventId": 878208,
      "siteUnitNumber": 12616,
      "bathingSite": "GURNARD",
      "eventStart": "2023-10-24T20:45:03",
      "eventStop": "2023-10-24T21:05:53",
      "duration": 20,
      "status": "Genuine",
      "associatedSiteId": 109700,
      "outfallName": "MARKET HILL COWES",
      "isImpacting": false,
      "overFlowSiteId": 0,
      "historicSpillsList": []
    },
    {
      "id": 344775675,
      "eventId": 878210,
      "siteUnitNumber": 12616,
      "bathingSite": "GURNARD",
      "eventStart": "2023-10-24T20:50:47",
      "eventStop": "2023-10-24T21:05:12",
      "duration": 14,
      "status": "Genuine",
      "associatedSiteId": 109706,
      "outfallName": "HIGH STREET COWES",
      "isImpacting": false,
      "overFlowSiteId": 0,
      "historicSpillsList": []
    },
    {
      "id": 344790310,
      "eventId": 878396,
      "siteUnitNumber": 12621,
      "bathingSite": "BEMBRIDGE",
      "eventStart": "2023-10-24T20:35:18",
      "eventStop": "2023-10-24T21:04:43",
      "duration": 29,
      "status": "Genuine",
      "associatedSiteId": 109938,
      "outfallName": "THE POINT BEMBRIDGE",
      "isImpacting": false,
      "overFlowSiteId": 0,
      "historicSpillsList": []
    },
    {
      "id": 344774607,
      "eventId": 878209,
      "siteUnitNumber": 12616,
      "bathingSite": "GURNARD",
      "eventStart": "2023-10-24T20:49:43",
      "eventStop": "2023-10-24T20:58:52",
      "duration": 9,
      "status": "Genuine",
      "associatedSiteId": 109703,
      "outfallName": "CASTLE STREET COWES",
      "isImpacting": true,
      "overFlowSiteId": 0,
      "historicSpillsList": [
        {
          "id": 344774607,
          "eventId": 878209,
          "siteUnitNumber": 12616,
          "bathingSite": "GURNARD",
          "eventStart": "2023-10-24T20:49:43",
          "eventStop": "2023-10-24T20:58:52",
          "duration": 9,
          "status": "Genuine",
          "associatedSiteId": 109703,
          "outfallName": "CASTLE STREET COWES",
          "isImpacting": true,
          "overFlowSiteId": 108822
        },
        {
          "id": 344774608,
          "eventId": 878209,
          "siteUnitNumber": 12617,
          "bathingSite": "COWES",
          "eventStart": "2023-10-24T20:49:43",
          "eventStop": "2023-10-24T20:58:52",
          "duration": 9,
          "status": "Genuine",
          "associatedSiteId": 109703,
          "outfallName": "CASTLE STREET COWES",
          "isImpacting": true,
          "overFlowSiteId": 108822,
          "historicSpillsList": []
        }
      ]
    },
    {
      "id": 344779457,
      "eventId": 879011,
      "siteUnitNumber": 12618,
      "bathingSite": "RYDE",
      "eventStart": "2023-10-24T20:35:00",
      "eventStop": "2023-10-24T20:47:00",
      "duration": 12,
      "status": "Genuine",
      "associatedSiteId": 109781,
      "outfallName": "SPENCER ROAD RYDE",
      "isImpacting": true,
      "overFlowSiteId": 0,
      "historicSpillsList": [
        {
          "id": 344779457,
          "eventId": 879011,
          "siteUnitNumber": 12618,
          "bathingSite": "RYDE",
          "eventStart": "2023-10-24T20:35:00",
          "eventStop": "2023-10-24T20:47:00",
          "duration": 12,
          "status": "Genuine",
          "associatedSiteId": 109781,
          "outfallName": "SPENCER ROAD RYDE",
          "isImpacting": true,
          "overFlowSiteId": 108566
        }
      ]
    },
    {
      "id": 344775677,
      "eventId": 878200,
      "siteUnitNumber": 12616,
      "bathingSite": "GURNARD",
      "eventStart": "2023-10-24T20:37:08",
      "eventStop": "2023-10-24T20:43:51",
      "duration": 6,
      "status": "Genuine",
      "associatedSiteId": 109706,
      "outfallName": "HIGH STREET COWES",
      "isImpacting": false,
      "overFlowSiteId": 0,
      "historicSpillsList": []
    },
    {
      "id": 344794475,
      "eventId": 877406,
      "siteUnitNumber": 12591,
      "bathingSite": "LITTLEHAMPTON",
      "eventStart": "2023-10-23T19:33:04",
      "eventStop": "2023-10-24T20:39:21",
      "duration": 1506,
      "status": "Not Genuine",
      "associatedSiteId": 109965,
      "outfallName": "SEA ROAD LITTLEHAMPTON",
      "isImpacting": false,
      "overFlowSiteId": 0,
      "historicSpillsList": []
    },
    {
      "id": 344772554,
      "eventId": 878164,
      "siteUnitNumber": 12614,
      "bathingSite": "TOTLAND BAY",
      "eventStart": "2023-10-24T20:12:13",
      "eventStop": "2023-10-24T20:26:00",
      "duration": 13,
      "status": "Genuine",
      "associatedSiteId": 109665,
      "outfallName": "THORLEY ROAD BOULDNOR",
      "isImpacting": false,
      "overFlowSiteId": 0,
      "historicSpillsList": []
    },
    {
      "id": 344795791,
      "eventId": 877407,
      "siteUnitNumber": 12591,
      "bathingSite": "LITTLEHAMPTON",
      "eventStart": "2023-10-23T19:37:54",
      "eventStop": "2023-10-24T19:19:00",
      "duration": 1421,
      "status": "Genuine",
      "associatedSiteId": 109977,
      "outfallName": "FORESHORE TANK LITTLEHAMPTON",
      "isImpacting": true,
      "overFlowSiteId": 0,
      "historicSpillsList": [
        {
          "id": 344795791,
          "eventId": 877407,
          "siteUnitNumber": 12591,
          "bathingSite": "LITTLEHAMPTON",
          "eventStart": "2023-10-23T19:37:54",
          "eventStop": "2023-10-24T19:19:00",
          "duration": 1421,
          "status": "Genuine",
          "associatedSiteId": 109977,
          "outfallName": "FORESHORE TANK LITTLEHAMPTON",
          "isImpacting": true,
          "overFlowSiteId": 109390
        }
      ]
    },
    {
      "id": 344792451,
      "eventId": 878043,
      "siteUnitNumber": 12594,
      "bathingSite": "BOGNOR REGIS EAST",
      "eventStart": "2023-10-24T15:40:00",
      "eventStop": "2023-10-24T18:12:00",
      "duration": 152,
      "status": "Genuine",
      "associatedSiteId": 109959,
      "outfallName": "WEST PARK BOGNOR REGIS",
      "isImpacting": false,
      "overFlowSiteId": 0,
      "historicSpillsList": []
    },
    {
      "id": 344779458,
      "eventId": 878090,
      "siteUnitNumber": 12618,
      "bathingSite": "RYDE",
      "eventStart": "2023-10-24T16:22:00",
      "eventStop": "2023-10-24T16:28:00",
      "duration": 6,
      "status": "Genuine",
      "associatedSiteId": 109781,
      "outfallName": "SPENCER ROAD RYDE",
      "isImpacting": true,
      "overFlowSiteId": 0,
      "historicSpillsList": [
        {
          "id": 344779458,
          "eventId": 878090,
          "siteUnitNumber": 12618,
          "bathingSite": "RYDE",
          "eventStart": "2023-10-24T16:22:00",
          "eventStop": "2023-10-24T16:28:00",
          "duration": 6,
          "status": "Genuine",
          "associatedSiteId": 109781,
          "outfallName": "SPENCER ROAD RYDE",
          "isImpacting": true,
          "overFlowSiteId": 108566
        }
      ]
    },
    {
      "id": 344798070,
      "eventId": 924110,
      "siteUnitNumber": 12622,
      "bathingSite": "WHITECLIFF BAY",
      "eventStart": "2023-10-24T15:00:00",
      "eventStop": "2023-10-24T15:42:00",
      "duration": 42,
      "status": "Genuine",
      "associatedSiteId": 110096,
      "outfallName": "SANDOWN NO1",
      "isImpacting": false,
      "overFlowSiteId": 0,
      "historicSpillsList": []
    },
    {
      "id": 344792457,
      "eventId": 878019,
      "siteUnitNumber": 12594,
      "bathingSite": "BOGNOR REGIS EAST",
      "eventStart": "2023-10-24T14:23:00",
      "eventStop": "2023-10-24T15:27:00",
      "duration": 64,
      "status": "Genuine",
      "associatedSiteId": 109959,
      "outfallName": "WEST PARK BOGNOR REGIS",
      "isImpacting": false,
      "overFlowSiteId": 0,
      "historicSpillsList": []
    },
    {
      "id": 344798074,
      "eventId": 924099,
      "siteUnitNumber": 12622,
      "bathingSite": "WHITECLIFF BAY",
      "eventStart": "2023-10-24T13:31:00",
      "eventStop": "2023-10-24T14:43:00",
      "duration": 72,
      "status": "Genuine",
      "associatedSiteId": 110096,
      "outfallName": "SANDOWN NO1",
      "isImpacting": true,
      "overFlowSiteId": 0,
      "historicSpillsList": [
        {
          "id": 344798074,
          "eventId": 924099,
          "siteUnitNumber": 12622,
          "bathingSite": "WHITECLIFF BAY",
          "eventStart": "2023-10-24T13:31:00",
          "eventStop": "2023-10-24T14:43:00",
          "duration": 72,
          "status": "Genuine",
          "associatedSiteId": 110096,
          "outfallName": "SANDOWN NO1",
          "isImpacting": true,
          "overFlowSiteId": 115453
        },
        {
          "id": 344798075,
          "eventId": 924099,
          "siteUnitNumber": 12623,
          "bathingSite": "YAVERLAND",
          "eventStart": "2023-10-24T13:31:00",
          "eventStop": "2023-10-24T14:43:00",
          "duration": 72,
          "status": "Genuine",
          "associatedSiteId": 110096,
          "outfallName": "SANDOWN NO1",
          "isImpacting": true,
          "overFlowSiteId": 115453,
          "historicSpillsList": []
        },
        {
          "id": 344798076,
          "eventId": 924099,
          "siteUnitNumber": 12624,
          "bathingSite": "SANDOWN",
          "eventStart": "2023-10-24T13:31:00",
          "eventStop": "2023-10-24T14:43:00",
          "duration": 72,
          "status": "Genuine",
          "associatedSiteId": 110096,
          "outfallName": "SANDOWN NO1",
          "isImpacting": true,
          "overFlowSiteId": 115453,
          "historicSpillsList": []
        }
      ]
    }
  ]
}