{
  "currentPage": 731,
  "totalItems": 18701,
  "totalPages": 749,
  "items": [
    {
      "id": 344022109,
      "eventId": 319511,
      "siteUnitNumber": 12596,
      "bathingSite": "PAGHAM",
      "eventStart": "2021-01-21T13:08:03",
      "eventStop": "2021-01-21T13:29:50",
      "duration": 21,
      "status": "Genuine",
      "associatedSiteId": 109911,
      "outfallName": "SUMMER LANE PAGHAM",
      "isImpacting": true,
      "overFlowSiteId": 0,
      "historicSpillsList": [
        {
          "id": 344022109,
          "eventId": 319511,
          "siteUnitNumber": 12596,
          "bathingSite": "PAGHAM",
          "eventStart": "2021-01-21T13:08:03",
          "eventStop": "2021-01-21T13:29:50",
          "duration": 21,
          "status": "Genuine",
          "associatedSiteId": 109911,
          "outfallName": "SUMMER LANE PAGHAM",
          "isImpacting": true,
          "overFlowSiteId": 115443
        }
      ]
    },
    {
      "id": 344006803,
      "eventId": 323912,
      "siteUnitNumber": 12551,
      "bathingSite": "HERNE BAY",
      "eventStart": "2021-01-21T11:20:00",
      "eventStop": "2021-01-21T13:14:00",
      "duration": 114,
      "status": "Genuine",
      "associatedSiteId": 109682,
      "outfallName": "MAY STREET HERNE BAY NO3",
      "isImpacting": true,
      "overFlowSiteId": 0,
      "historicSpillsList": [
        {
          "id": 344006803,
          "eventId": 323912,
          "siteUnitNumber": 12551,
          "bathingSite": "HERNE BAY",
          "eventStart": "2021-01-21T11:20:00",
          "eventStop": "2021-01-21T13:14:00",
          "duration": 114,
          "status": "Genuine",
          "associatedSiteId": 109682,
          "outfallName": "MAY STREET HERNE BAY NO3",
          "isImpacting": true,
          "overFlowSiteId": 115418
        }
      ]
    },
    {
      "id": 344022114,
      "eventId": 319401,
      "siteUnitNumber": 12596,
      "bathingSite": "PAGHAM",
      "eventStart": "2021-01-21T10:34:53",
      "eventStop": "2021-01-21T12:56:24",
      "duration": 141,
      "status": "Genuine",
      "associatedSiteId": 109911,
      "outfallName": "SUMMER LANE PAGHAM",
      "isImpacting": true,
      "overFlowSiteId": 0,
      "historicSpillsList": [
        {
          "id": 344022114,
          "eventId": 319401,
          "siteUnitNumber": 12596,
          "bathingSite": "PAGHAM",
          "eventStart": "2021-01-21T10:34:53",
          "eventStop": "2021-01-21T12:56:24",
          "duration": 141,
          "status": "Genuine",
          "associatedSiteId": 109911,
          "outfallName": "SUMMER LANE PAGHAM",
          "isImpacting": true,
          "overFlowSiteId": 115443
        }
      ]
    },
    {
      "id": 344039424,
      "eventId": 319415,
      "siteUnitNumber": 12662,
      "bathingSite": "CHICHESTER HARBOUR",
      "eventStart": "2021-01-21T11:11:09",
      "eventStop": "2021-01-21T12:45:49",
      "duration": 94,
      "status": "Genuine",
      "associatedSiteId": 110760,
      "outfallName": "BOSHAM",
      "isImpacting": true,
      "overFlowSiteId": 0,
      "historicSpillsList": [
        {
          "id": 344039424,
          "eventId": 319415,
          "siteUnitNumber": 12662,
          "bathingSite": "CHICHESTER HARBOUR",
          "eventStart": "2021-01-21T11:11:09",
          "eventStop": "2021-01-21T12:45:49",
          "duration": 94,
          "status": "Genuine",
          "associatedSiteId": 110760,
          "outfallName": "BOSHAM",
          "isImpacting": true,
          "overFlowSiteId": 115735
        }
      ]
    },
    {
      "id": 344039273,
      "eventId": 318738,
      "siteUnitNumber": 12616,
      "bathingSite": "GURNARD",
      "eventStart": "2021-01-20T22:18:30",
      "eventStop": "2021-01-21T12:00:00",
      "duration": 821,
      "status": "Genuine",
      "associatedSiteId": 110701,
      "outfallName": "TERMINUS ROAD COWES 2",
      "isImpacting": true,
      "overFlowSiteId": 0,
      "historicSpillsList": [
        {
          "id": 344039273,
          "eventId": 318738,
          "siteUnitNumber": 12616,
          "bathingSite": "GURNARD",
          "eventStart": "2021-01-20T22:18:30",
          "eventStop": "2021-01-21T12:00:00",
          "duration": 821,
          "status": "Genuine",
          "associatedSiteId": 110701,
          "outfallName": "TERMINUS ROAD COWES 2",
          "isImpacting": true,
          "overFlowSiteId": 108563
        },
        {
          "id": 344039274,
          "eventId": 318738,
          "siteUnitNumber": 12617,
          "bathingSite": "COWES",
          "eventStart": "2021-01-20T22:18:30",
          "eventStop": "2021-01-21T12:00:00",
          "duration": 821,
          "status": "Genuine",
          "associatedSiteId": 110701,
          "outfallName": "TERMINUS ROAD COWES 2",
          "isImpacting": true,
          "overFlowSiteId": 108563,
          "historicSpillsList": []
        }
      ]
    },
    {
      "id": 344039425,
      "eventId": 319387,
      "siteUnitNumber": 12662,
      "bathingSite": "CHICHESTER HARBOUR",
      "eventStart": "2021-01-21T10:27:49",
      "eventStop": "2021-01-21T11:09:39",
      "duration": 41,
      "status": "Genuine",
      "associatedSiteId": 110760,
      "outfallName": "BOSHAM",
      "isImpacting": true,
      "overFlowSiteId": 0,
      "historicSpillsList": [
        {
          "id": 344039425,
          "eventId": 319387,
          "siteUnitNumber": 12662,
          "bathingSite": "CHICHESTER HARBOUR",
          "eventStart": "2021-01-21T10:27:49",
          "eventStop": "2021-01-21T11:09:39",
          "duration": 41,
          "status": "Genuine",
          "associatedSiteId": 110760,
          "outfallName": "BOSHAM",
          "isImpacting": true,
          "overFlowSiteId": 115735
        }
      ]
    },
    {
      "id": 344022113,
      "eventId": 319312,
      "siteUnitNumber": 12596,
      "bathingSite": "PAGHAM",
      "eventStart": "2021-01-21T08:51:53",
      "eventStop": "2021-01-21T10:33:25",
      "duration": 101,
      "status": "Genuine",
      "associatedSiteId": 109911,
      "outfallName": "SUMMER LANE PAGHAM",
      "isImpacting": true,
      "overFlowSiteId": 0,
      "historicSpillsList": [
        {
          "id": 344022113,
          "eventId": 319312,
          "siteUnitNumber": 12596,
          "bathingSite": "PAGHAM",
          "eventStart": "2021-01-21T08:51:53",
          "eventStop": "2021-01-21T10:33:25",
          "duration": 101,
          "status": "Genuine",
          "associatedSiteId": 109911,
          "outfallName": "SUMMER LANE PAGHAM",
          "isImpacting": true,
          "overFlowSiteId": 115443
        }
      ]
    },
    {
      "id": 344039426,
      "eventId": 319357,
      "siteUnitNumber": 12662,
      "bathingSite": "CHICHESTER HARBOUR",
      "eventStart": "2021-01-21T09:52:14",
      "eventStop": "2021-01-21T10:24:39",
      "duration": 32,
      "status": "Genuine",
      "associatedSiteId": 110760,
      "outfallName": "BOSHAM",
      "isImpacting": true,
      "overFlowSiteId": 0,
      "historicSpillsList": [
        {
          "id": 344039426,
          "eventId": 319357,
          "siteUnitNumber": 12662,
          "bathingSite": "CHICHESTER HARBOUR",
          "eventStart": "2021-01-21T09:52:14",
          "eventStop": "2021-01-21T10:24:39",
          "duration": 32,
          "status": "Genuine",
          "associatedSiteId": 110760,
          "outfallName": "BOSHAM",
          "isImpacting": true,
          "overFlowSiteId": 115735
        }
      ]
    },
    {
      "id": 344039427,
      "eventId": 319342,
      "siteUnitNumber": 12662,
      "bathingSite": "CHICHESTER HARBOUR",
      "eventStart": "2021-01-21T09:28:54",
      "eventStop": "2021-01-21T09:50:44",
      "duration": 21,
      "status": "Genuine",
      "associatedSiteId": 110760,
      "outfallName": "BOSHAM",
      "isImpacting": true,
      "overFlowSiteId": 0,
      "historicSpillsList": [
        {
          "id": 344039427,
          "eventId": 319342,
          "siteUnitNumber": 12662,
          "bathingSite": "CHICHESTER HARBOUR",
          "eventStart": "2021-01-21T09:28:54",
          "eventStop": "2021-01-21T09:50:44",
          "duration": 21,
          "status": "Genuine",
          "associatedSiteId": 110760,
          "outfallName": "BOSHAM",
          "isImpacting": true,
          "overFlowSiteId": 115735
        }
      ]
    },
    {
      "id": 344021816,
      "eventId": 319294,
      "siteUnitNumber": 12576,
      "bathingSite": "ST LEONARDS",
      "eventStart": "2021-01-21T08:26:17",
      "eventStop": "2021-01-21T09:24:07",
      "duration": 57,
      "status": "Genuine",
      "associatedSiteId": 109903,
      "outfallName": "BEXHILL & HASTINGS NO2",
      "isImpacting": true,
      "overFlowSiteId": 0,
      "historicSpillsList": [
        {
          "id": 344021816,
          "eventId": 319294,
          "siteUnitNumber": 12576,
          "bathingSite": "ST LEONARDS",
          "eventStart": "2021-01-21T08:26:17",
          "eventStop": "2021-01-21T09:24:07",
          "duration": 57,
          "status": "Genuine",
          "associatedSiteId": 109903,
          "outfallName": "BEXHILL & HASTINGS NO2",
          "isImpacting": true,
          "overFlowSiteId": 115398
        },
        {
          "id": 344021817,
          "eventId": 319294,
          "siteUnitNumber": 12577,
          "bathingSite": "BEXHILL",
          "eventStart": "2021-01-21T08:26:17",
          "eventStop": "2021-01-21T09:24:07",
          "duration": 57,
          "status": "Genuine",
          "associatedSiteId": 109903,
          "outfallName": "BEXHILL & HASTINGS NO2",
          "isImpacting": true,
          "overFlowSiteId": 115398,
          "historicSpillsList": []
        }
      ]
    },
    {
      "id": 344039428,
      "eventId": 319291,
      "siteUnitNumber": 12662,
      "bathingSite": "CHICHESTER HARBOUR",
      "eventStart": "2021-01-21T08:14:59",
      "eventStop": "2021-01-21T09:04:14",
      "duration": 49,
      "status": "Genuine",
      "associatedSiteId": 110760,
      "outfallName": "BOSHAM",
      "isImpacting": true,
      "overFlowSiteId": 0,
      "historicSpillsList": [
        {
          "id": 344039428,
          "eventId": 319291,
          "siteUnitNumber": 12662,
          "bathingSite": "CHICHESTER HARBOUR",
          "eventStart": "2021-01-21T08:14:59",
          "eventStop": "2021-01-21T09:04:14",
          "duration": 49,
          "status": "Genuine",
          "associatedSiteId": 110760,
          "outfallName": "BOSHAM",
          "isImpacting": true,
          "overFlowSiteId": 115735
        }
      ]
    },
    {
      "id": 344022112,
      "eventId": 319273,
      "siteUnitNumber": 12596,
      "bathingSite": "PAGHAM",
      "eventStart": "2021-01-21T07:25:00",
      "eventStop": "2021-01-21T08:40:00",
      "duration": 75,
      "status": "Genuine",
      "associatedSiteId": 109911,
      "outfallName": "SUMMER LANE PAGHAM",
      "isImpacting": true,
      "overFlowSiteId": 0,
      "historicSpillsList": [
        {
          "id": 344022112,
          "eventId": 319273,
          "siteUnitNumber": 12596,
          "bathingSite": "PAGHAM",
          "eventStart": "2021-01-21T07:25:00",
          "eventStop": "2021-01-21T08:40:00",
          "duration": 75,
          "status": "Genuine",
          "associatedSiteId": 109911,
          "outfallName": "SUMMER LANE PAGHAM",
          "isImpacting": true,
          "overFlowSiteId": 115443
        }
      ]
    },
    {
      "id": 344039429,
      "eventId": 319257,
      "siteUnitNumber": 12662,
      "bathingSite": "CHICHESTER HARBOUR",
      "eventStart": "2021-01-21T07:53:14",
      "eventStop": "2021-01-21T08:13:44",
      "duration": 20,
      "status": "Genuine",
      "associatedSiteId": 110760,
      "outfallName": "BOSHAM",
      "isImpacting": true,
      "overFlowSiteId": 0,
      "historicSpillsList": [
        {
          "id": 344039429,
          "eventId": 319257,
          "siteUnitNumber": 12662,
          "bathingSite": "CHICHESTER HARBOUR",
          "eventStart": "2021-01-21T07:53:14",
          "eventStop": "2021-01-21T08:13:44",
          "duration": 20,
          "status": "Genuine",
          "associatedSiteId": 110760,
          "outfallName": "BOSHAM",
          "isImpacting": true,
          "overFlowSiteId": 115735
        }
      ]
    },
    {
      "id": 344040146,
      "eventId": 317423,
      "siteUnitNumber": 12573,
      "bathingSite": "CAMBER",
      "eventStart": "2021-01-19T15:06:00",
      "eventStop": "2021-01-21T04:36:00",
      "duration": 2250,
      "status": "Genuine",
      "associatedSiteId": 110958,
      "outfallName": "RYE",
      "isImpacting": true,
      "overFlowSiteId": 0,
      "historicSpillsList": [
        {
          "id": 344040146,
          "eventId": 317423,
          "siteUnitNumber": 12573,
          "bathingSite": "CAMBER",
          "eventStart": "2021-01-19T15:06:00",
          "eventStop": "2021-01-21T04:36:00",
          "duration": 2250,
          "status": "Genuine",
          "associatedSiteId": 110958,
          "outfallName": "RYE",
          "isImpacting": true,
          "overFlowSiteId": 115433
        }
      ]
    },
    {
      "id": 344021822,
      "eventId": 319071,
      "siteUnitNumber": 12576,
      "bathingSite": "ST LEONARDS",
      "eventStart": "2021-01-21T04:00:06",
      "eventStop": "2021-01-21T04:18:38",
      "duration": 18,
      "status": "Genuine",
      "associatedSiteId": 109903,
      "outfallName": "BEXHILL & HASTINGS NO2",
      "isImpacting": true,
      "overFlowSiteId": 0,
      "historicSpillsList": [
        {
          "id": 344021822,
          "eventId": 319071,
          "siteUnitNumber": 12576,
          "bathingSite": "ST LEONARDS",
          "eventStart": "2021-01-21T04:00:06",
          "eventStop": "2021-01-21T04:18:38",
          "duration": 18,
          "status": "Genuine",
          "associatedSiteId": 109903,
          "outfallName": "BEXHILL & HASTINGS NO2",
          "isImpacting": true,
          "overFlowSiteId": 115398
        },
        {
          "id": 344021823,
          "eventId": 319071,
          "siteUnitNumber": 12577,
          "bathingSite": "BEXHILL",
          "eventStart": "2021-01-21T04:00:06",
          "eventStop": "2021-01-21T04:18:38",
          "duration": 18,
          "status": "Genuine",
          "associatedSiteId": 109903,
          "outfallName": "BEXHILL & HASTINGS NO2",
          "isImpacting": true,
          "overFlowSiteId": 115398,
          "historicSpillsList": []
        }
      ]
    },
    {
      "id": 344044874,
      "eventId": 319345,
      "siteUnitNumber": 12614,
      "bathingSite": "TOTLAND BAY",
      "eventStart": "2021-01-21T02:42:00",
      "eventStop": "2021-01-21T03:22:00",
      "duration": 40,
      "status": "Genuine",
      "associatedSiteId": 115498,
      "outfallName": "NORTON TRANSFER IOW",
      "isImpacting": true,
      "overFlowSiteId": 0,
      "historicSpillsList": [
        {
          "id": 344044874,
          "eventId": 319345,
          "siteUnitNumber": 12614,
          "bathingSite": "TOTLAND BAY",
          "eventStart": "2021-01-21T02:42:00",
          "eventStop": "2021-01-21T03:22:00",
          "duration": 40,
          "status": "Genuine",
          "associatedSiteId": 115498,
          "outfallName": "NORTON TRANSFER IOW",
          "isImpacting": true,
          "overFlowSiteId": 109524
        },
        {
          "id": 344044875,
          "eventId": 319345,
          "siteUnitNumber": 12615,
          "bathingSite": "COLWELL BAY",
          "eventStart": "2021-01-21T02:42:00",
          "eventStop": "2021-01-21T03:22:00",
          "duration": 40,
          "status": "Genuine",
          "associatedSiteId": 115498,
          "outfallName": "NORTON TRANSFER IOW",
          "isImpacting": true,
          "overFlowSiteId": 109524,
          "historicSpillsList": []
        }
      ]
    },
    {
      "id": 344003385,
      "eventId": 318922,
      "siteUnitNumber": 12546,
      "bathingSite": "LEYSDOWN",
      "eventStart": "2021-01-21T00:44:50",
      "eventStop": "2021-01-21T03:17:14",
      "duration": 152,
      "status": "Genuine",
      "associatedSiteId": 109613,
      "outfallName": "BARROWS BROOK EASTCHURCH",
      "isImpacting": true,
      "overFlowSiteId": 0,
      "historicSpillsList": [
        {
          "id": 344003385,
          "eventId": 318922,
          "siteUnitNumber": 12546,
          "bathingSite": "LEYSDOWN",
          "eventStart": "2021-01-21T00:44:50",
          "eventStop": "2021-01-21T03:17:14",
          "duration": 152,
          "status": "Genuine",
          "associatedSiteId": 109613,
          "outfallName": "BARROWS BROOK EASTCHURCH",
          "isImpacting": true,
          "overFlowSiteId": 108109
        }
      ]
    },
    {
      "id": 344008839,
      "eventId": 317929,
      "siteUnitNumber": 12616,
      "bathingSite": "GURNARD",
      "eventStart": "2021-01-20T08:15:00",
      "eventStop": "2021-01-21T03:00:00",
      "duration": 1125,
      "status": "Genuine",
      "associatedSiteId": 109705,
      "outfallName": "SPRINGHILL COWES TRANSFER",
      "isImpacting": true,
      "overFlowSiteId": 0,
      "historicSpillsList": [
        {
          "id": 344008839,
          "eventId": 317929,
          "siteUnitNumber": 12616,
          "bathingSite": "GURNARD",
          "eventStart": "2021-01-20T08:15:00",
          "eventStop": "2021-01-21T03:00:00",
          "duration": 1125,
          "status": "Genuine",
          "associatedSiteId": 109705,
          "outfallName": "SPRINGHILL COWES TRANSFER",
          "isImpacting": true,
          "overFlowSiteId": 108943
        },
        {
          "id": 344008840,
          "eventId": 317929,
          "siteUnitNumber": 12617,
          "bathingSite": "COWES",
          "eventStart": "2021-01-20T08:15:00",
          "eventStop": "2021-01-21T03:00:00",
          "duration": 1125,
          "status": "Genuine",
          "associatedSiteId": 109705,
          "outfallName": "SPRINGHILL COWES TRANSFER",
          "isImpacting": true,
          "overFlowSiteId": 108943,
          "historicSpillsList": []
        }
      ]
    },
    {
      "id": 344021820,
      "eventId": 318993,
      "siteUnitNumber": 12576,
      "bathingSite": "ST LEONARDS",
      "eventStart": "2021-01-21T02:21:56",
      "eventStop": "2021-01-21T02:49:10",
      "duration": 27,
      "status": "Genuine",
      "associatedSiteId": 109903,
      "outfallName": "BEXHILL & HASTINGS NO2",
      "isImpacting": true,
      "overFlowSiteId": 0,
      "historicSpillsList": [
        {
          "id": 344021820,
          "eventId": 318993,
          "siteUnitNumber": 12576,
          "bathingSite": "ST LEONARDS",
          "eventStart": "2021-01-21T02:21:56",
          "eventStop": "2021-01-21T02:49:10",
          "duration": 27,
          "status": "Genuine",
          "associatedSiteId": 109903,
          "outfallName": "BEXHILL & HASTINGS NO2",
          "isImpacting": true,
          "overFlowSiteId": 115398
        },
        {
          "id": 344021821,
          "eventId": 318993,
          "siteUnitNumber": 12577,
          "bathingSite": "BEXHILL",
          "eventStart": "2021-01-21T02:21:56",
          "eventStop": "2021-01-21T02:49:10",
          "duration": 27,
          "status": "Genuine",
          "associatedSiteId": 109903,
          "outfallName": "BEXHILL & HASTINGS NO2",
          "isImpacting": true,
          "overFlowSiteId": 115398,
          "historicSpillsList": []
        }
      ]
    },
    {
      "id": 344022117,
      "eventId": 318932,
      "siteUnitNumber": 12596,
      "bathingSite": "PAGHAM",
      "eventStart": "2021-01-21T01:33:07",
      "eventStop": "2021-01-21T02:08:10",
      "duration": 35,
      "status": "Genuine",
      "associatedSiteId": 109911,
      "outfallName": "SUMMER LANE PAGHAM",
      "isImpacting": true,
      "overFlowSiteId": 0,
      "historicSpillsList": [
        {
          "id": 344022117,
          "eventId": 318932,
          "siteUnitNumber": 12596,
          "bathingSite": "PAGHAM",
          "eventStart": "2021-01-21T01:33:07",
          "eventStop": "2021-01-21T02:08:10",
          "duration": 35,
          "status": "Genuine",
          "associatedSiteId": 109911,
          "outfallName": "SUMMER LANE PAGHAM",
          "isImpacting": true,
          "overFlowSiteId": 115443
        }
      ]
    },
    {
      "id": 344021826,
      "eventId": 318824,
      "siteUnitNumber": 12576,
      "bathingSite": "ST LEONARDS",
      "eventStart": "2021-01-20T23:48:21",
      "eventStop": "2021-01-21T02:06:46",
      "duration": 138,
      "status": "Genuine",
      "associatedSiteId": 109903,
      "outfallName": "BEXHILL & HASTINGS NO2",
      "isImpacting": true,
      "overFlowSiteId": 0,
      "historicSpillsList": [
        {
          "id": 344021826,
          "eventId": 318824,
          "siteUnitNumber": 12576,
          "bathingSite": "ST LEONARDS",
          "eventStart": "2021-01-20T23:48:21",
          "eventStop": "2021-01-21T02:06:46",
          "duration": 138,
          "status": "Genuine",
          "associatedSiteId": 109903,
          "outfallName": "BEXHILL & HASTINGS NO2",
          "isImpacting": true,
          "overFlowSiteId": 115398
        },
        {
          "id": 344021827,
          "eventId": 318824,
          "siteUnitNumber": 12577,
          "bathingSite": "BEXHILL",
          "eventStart": "2021-01-20T23:48:21",
          "eventStop": "2021-01-21T02:06:46",
          "duration": 138,
          "status": "Genuine",
          "associatedSiteId": 109903,
          "outfallName": "BEXHILL & HASTINGS NO2",
          "isImpacting": true,
          "overFlowSiteId": 115398,
          "historicSpillsList": []
        }
      ]
    },
    {
      "id": 344023609,
      "eventId": 318513,
      "siteUnitNumber": 12621,
      "bathingSite": "BEMBRIDGE",
      "eventStart": "2021-01-20T22:48:00",
      "eventStop": "2021-01-21T02:00:00",
      "duration": 192,
      "status": "Genuine",
      "associatedSiteId": 109937,
      "outfallName": "HILLWAY BEMBRIDGE",
      "isImpacting": true,
      "overFlowSiteId": 0,
      "historicSpillsList": [
        {
          "id": 344023609,
          "eventId": 318513,
          "siteUnitNumber": 12621,
          "bathingSite": "BEMBRIDGE",
          "eventStart": "2021-01-20T22:48:00",
          "eventStop": "2021-01-21T02:00:00",
          "duration": 192,
          "status": "Genuine",
          "associatedSiteId": 109937,
          "outfallName": "HILLWAY BEMBRIDGE",
          "isImpacting": true,
          "overFlowSiteId": 108529
        },
        {
          "id": 344023438,
          "eventId": 318513,
          "siteUnitNumber": 12620,
          "bathingSite": "ST HELENS",
          "eventStart": "2021-01-20T22:48:00",
          "eventStop": "2021-01-21T02:00:00",
          "duration": 192,
          "status": "Genuine",
          "associatedSiteId": 109937,
          "outfallName": "HILLWAY BEMBRIDGE",
          "isImpacting": true,
          "overFlowSiteId": 108529,
          "historicSpillsList": []
        }
      ]
    },
    {
      "id": 344044876,
      "eventId": 319344,
      "siteUnitNumber": 12614,
      "bathingSite": "TOTLAND BAY",
      "eventStart": "2021-01-20T04:21:00",
      "eventStop": "2021-01-21T01:58:00",
      "duration": 1297,
      "status": "Genuine",
      "associatedSiteId": 115498,
      "outfallName": "NORTON TRANSFER IOW",
      "isImpacting": true,
      "overFlowSiteId": 0,
      "historicSpillsList": [
        {
          "id": 344044876,
          "eventId": 319344,
          "siteUnitNumber": 12614,
          "bathingSite": "TOTLAND BAY",
          "eventStart": "2021-01-20T04:21:00",
          "eventStop": "2021-01-21T01:58:00",
          "duration": 1297,
          "status": "Genuine",
          "associatedSiteId": 115498,
          "outfallName": "NORTON TRANSFER IOW",
          "isImpacting": true,
          "overFlowSiteId": 109524
        },
        {
          "id": 344044877,
          "eventId": 319344,
          "siteUnitNumber": 12615,
          "bathingSite": "COLWELL BAY",
          "eventStart": "2021-01-20T04:21:00",
          "eventStop": "2021-01-21T01:58:00",
          "duration": 1297,
          "status": "Genuine",
          "associatedSiteId": 115498,
          "outfallName": "NORTON TRANSFER IOW",
          "isImpacting": true,
          "overFlowSiteId": 109524,
          "historicSpillsList": []
        }
      ]
    },
    {
      "id": 344010673,
      "eventId": 319262,
      "siteUnitNumber": 12606,
      "bathingSite": "LEE-ON-SOLENT",
      "eventStart": "2021-01-20T23:49:00",
      "eventStop": "2021-01-21T01:37:00",
      "duration": 108,
      "status": "Genuine",
      "associatedSiteId": 109732,
      "outfallName": "PEEL COMMON",
      "isImpacting": true,
      "overFlowSiteId": 0,
      "historicSpillsList": [
        {
          "id": 344010673,
          "eventId": 319262,
          "siteUnitNumber": 12606,
          "bathingSite": "LEE-ON-SOLENT",
          "eventStart": "2021-01-20T23:49:00",
          "eventStop": "2021-01-21T01:37:00",
          "duration": 108,
          "status": "Genuine",
          "associatedSiteId": 109732,
          "outfallName": "PEEL COMMON",
          "isImpacting": true,
          "overFlowSiteId": 115425
        },
        {
          "id": 344010674,
          "eventId": 319262,
          "siteUnitNumber": 12607,
          "bathingSite": "HILLHEAD",
          "eventStart": "2021-01-20T23:49:00",
          "eventStop": "2021-01-21T01:37:00",
          "duration": 108,
          "status": "Genuine",
          "associatedSiteId": 109732,
          "outfallName": "PEEL COMMON",
          "isImpacting": true,
          "overFlowSiteId": 115425,
          "historicSpillsList": []
        },
        {
          "id": 344010675,
          "eventId": 319262,
          "siteUnitNumber": 12603,
          "bathingSite": "EASTNEY",
          "eventStart": "2021-01-20T23:49:00",
          "eventStop": "2021-01-21T01:37:00",
          "duration": 108,
          "status": "Genuine",
          "associatedSiteId": 109732,
          "outfallName": "PEEL COMMON",
          "isImpacting": true,
          "overFlowSiteId": 115425,
          "historicSpillsList": []
        },
        {
          "id": 344010676,
          "eventId": 319262,
          "siteUnitNumber": 12604,
          "bathingSite": "SOUTHSEA EAST",
          "eventStart": "2021-01-20T23:49:00",
          "eventStop": "2021-01-21T01:37:00",
          "duration": 108,
          "status": "Genuine",
          "associatedSiteId": 109732,
          "outfallName": "PEEL COMMON",
          "isImpacting": true,
          "overFlowSiteId": 115425,
          "historicSpillsList": []
        },
        {
          "id": 344010677,
          "eventId": 319262,
          "siteUnitNumber": 12605,
          "bathingSite": "STOKES BAY",
          "eventStart": "2021-01-20T23:49:00",
          "eventStop": "2021-01-21T01:37:00",
          "duration": 108,
          "status": "Genuine",
          "associatedSiteId": 109732,
          "outfallName": "PEEL COMMON",
          "isImpacting": true,
          "overFlowSiteId": 115425,
          "historicSpillsList": []
        }
      ]
    },
    {
      "id": 344022116,
      "eventId": 318913,
      "siteUnitNumber": 12596,
      "bathingSite": "PAGHAM",
      "eventStart": "2021-01-21T01:01:13",
      "eventStop": "2021-01-21T01:23:02",
      "duration": 21,
      "status": "Genuine",
      "associatedSiteId": 109911,
      "outfallName": "SUMMER LANE PAGHAM",
      "isImpacting": true,
      "overFlowSiteId": 0,
      "historicSpillsList": [
        {
          "id": 344022116,
          "eventId": 318913,
          "siteUnitNumber": 12596,
          "bathingSite": "PAGHAM",
          "eventStart": "2021-01-21T01:01:13",
          "eventStop": "2021-01-21T01:23:02",
          "duration": 21,
          "status": "Genuine",
          "associatedSiteId": 109911,
          "outfallName": "SUMMER LANE PAGHAM",
          "isImpacting": true,
          "overFlowSiteId": 115443
        }
      ]
    }
  ]
}