{
  "currentPage": 767,
  "totalItems": 21025,
  "totalPages": 841,
  "items": [
    {
      "id": 344891767,
      "eventId": 406814,
      "siteUnitNumber": 12582,
      "bathingSite": "SEAFORD",
      "eventStart": "2021-05-16T10:03:52",
      "eventStop": "2021-05-16T12:26:06",
      "duration": 142,
      "status": "Genuine",
      "associatedSiteId": 110920,
      "outfallName": "NEWHAVEN",
      "isImpacting": true,
      "overFlowSiteId": 0,
      "historicSpillsList": [
        {
          "id": 344891767,
          "eventId": 406814,
          "siteUnitNumber": 12582,
          "bathingSite": "SEAFORD",
          "eventStart": "2021-05-16T10:03:52",
          "eventStop": "2021-05-16T12:26:06",
          "duration": 142,
          "status": "Genuine",
          "associatedSiteId": 110920,
          "outfallName": "NEWHAVEN",
          "isImpacting": true,
          "overFlowSiteId": 116065
        }
      ]
    },
    {
      "id": 344880112,
      "eventId": 406863,
      "siteUnitNumber": 12591,
      "bathingSite": "LITTLEHAMPTON",
      "eventStart": "2021-05-16T10:29:00",
      "eventStop": "2021-05-16T12:00:00",
      "duration": 91,
      "status": "Genuine",
      "associatedSiteId": 109965,
      "outfallName": "SEA ROAD LITTLEHAMPTON",
      "isImpacting": true,
      "overFlowSiteId": 0,
      "historicSpillsList": [
        {
          "id": 344880112,
          "eventId": 406863,
          "siteUnitNumber": 12591,
          "bathingSite": "LITTLEHAMPTON",
          "eventStart": "2021-05-16T10:29:00",
          "eventStop": "2021-05-16T12:00:00",
          "duration": 91,
          "status": "Genuine",
          "associatedSiteId": 109965,
          "outfallName": "SEA ROAD LITTLEHAMPTON",
          "isImpacting": true,
          "overFlowSiteId": 109368
        }
      ]
    },
    {
      "id": 344871584,
      "eventId": 406891,
      "siteUnitNumber": 12568,
      "bathingSite": "SANDGATE",
      "eventStart": "2021-05-16T11:12:00",
      "eventStop": "2021-05-16T11:38:00",
      "duration": 26,
      "status": "Genuine",
      "associatedSiteId": 109897,
      "outfallName": "RANGE ROAD HYTHE K LONG",
      "isImpacting": true,
      "overFlowSiteId": 0,
      "historicSpillsList": [
        {
          "id": 344871584,
          "eventId": 406891,
          "siteUnitNumber": 12568,
          "bathingSite": "SANDGATE",
          "eventStart": "2021-05-16T11:12:00",
          "eventStop": "2021-05-16T11:38:00",
          "duration": 26,
          "status": "Genuine",
          "associatedSiteId": 109897,
          "outfallName": "RANGE ROAD HYTHE K LONG",
          "isImpacting": true,
          "overFlowSiteId": 116048
        },
        {
          "id": 344871585,
          "eventId": 406891,
          "siteUnitNumber": 12569,
          "bathingSite": "HYTHE",
          "eventStart": "2021-05-16T11:12:00",
          "eventStop": "2021-05-16T11:38:00",
          "duration": 26,
          "status": "Genuine",
          "associatedSiteId": 109897,
          "outfallName": "RANGE ROAD HYTHE K LONG",
          "isImpacting": true,
          "overFlowSiteId": 116048,
          "historicSpillsList": []
        }
      ]
    },
    {
      "id": 344865621,
      "eventId": 406407,
      "siteUnitNumber": 12661,
      "bathingSite": "LANGSTONE HARBOUR",
      "eventStart": "2021-05-16T07:12:00",
      "eventStop": "2021-05-16T10:01:00",
      "duration": 169,
      "status": "Genuine",
      "associatedSiteId": 109819,
      "outfallName": "COURT LANE COSHAM",
      "isImpacting": true,
      "overFlowSiteId": 0,
      "historicSpillsList": [
        {
          "id": 344865621,
          "eventId": 406407,
          "siteUnitNumber": 12661,
          "bathingSite": "LANGSTONE HARBOUR",
          "eventStart": "2021-05-16T07:12:00",
          "eventStop": "2021-05-16T10:01:00",
          "duration": 169,
          "status": "Genuine",
          "associatedSiteId": 109819,
          "outfallName": "COURT LANE COSHAM",
          "isImpacting": true,
          "overFlowSiteId": 115958
        }
      ]
    },
    {
      "id": 344865518,
      "eventId": 406588,
      "siteUnitNumber": 12661,
      "bathingSite": "LANGSTONE HARBOUR",
      "eventStart": "2021-05-16T08:26:00",
      "eventStop": "2021-05-16T09:50:00",
      "duration": 84,
      "status": "Genuine",
      "associatedSiteId": 109817,
      "outfallName": "MAINLAND DRAYTON",
      "isImpacting": true,
      "overFlowSiteId": 0,
      "historicSpillsList": [
        {
          "id": 344865518,
          "eventId": 406588,
          "siteUnitNumber": 12661,
          "bathingSite": "LANGSTONE HARBOUR",
          "eventStart": "2021-05-16T08:26:00",
          "eventStop": "2021-05-16T09:50:00",
          "duration": 84,
          "status": "Genuine",
          "associatedSiteId": 109817,
          "outfallName": "MAINLAND DRAYTON",
          "isImpacting": true,
          "overFlowSiteId": 115960
        }
      ]
    },
    {
      "id": 344860625,
      "eventId": 406708,
      "siteUnitNumber": 12616,
      "bathingSite": "GURNARD",
      "eventStart": "2021-05-16T08:49:00",
      "eventStop": "2021-05-16T09:21:00",
      "duration": 32,
      "status": "Genuine",
      "associatedSiteId": 109705,
      "outfallName": "SPRINGHILL COWES TRANSFER",
      "isImpacting": true,
      "overFlowSiteId": 0,
      "historicSpillsList": [
        {
          "id": 344860625,
          "eventId": 406708,
          "siteUnitNumber": 12616,
          "bathingSite": "GURNARD",
          "eventStart": "2021-05-16T08:49:00",
          "eventStop": "2021-05-16T09:21:00",
          "duration": 32,
          "status": "Genuine",
          "associatedSiteId": 109705,
          "outfallName": "SPRINGHILL COWES TRANSFER",
          "isImpacting": true,
          "overFlowSiteId": 108943
        },
        {
          "id": 344860626,
          "eventId": 406708,
          "siteUnitNumber": 12617,
          "bathingSite": "COWES",
          "eventStart": "2021-05-16T08:49:00",
          "eventStop": "2021-05-16T09:21:00",
          "duration": 32,
          "status": "Genuine",
          "associatedSiteId": 109705,
          "outfallName": "SPRINGHILL COWES TRANSFER",
          "isImpacting": true,
          "overFlowSiteId": 108943,
          "historicSpillsList": []
        }
      ]
    },
    {
      "id": 344880111,
      "eventId": 406862,
      "siteUnitNumber": 12591,
      "bathingSite": "LITTLEHAMPTON",
      "eventStart": "2021-05-16T08:59:00",
      "eventStop": "2021-05-16T09:19:00",
      "duration": 20,
      "status": "Genuine",
      "associatedSiteId": 109965,
      "outfallName": "SEA ROAD LITTLEHAMPTON",
      "isImpacting": true,
      "overFlowSiteId": 0,
      "historicSpillsList": [
        {
          "id": 344880111,
          "eventId": 406862,
          "siteUnitNumber": 12591,
          "bathingSite": "LITTLEHAMPTON",
          "eventStart": "2021-05-16T08:59:00",
          "eventStop": "2021-05-16T09:19:00",
          "duration": 20,
          "status": "Genuine",
          "associatedSiteId": 109965,
          "outfallName": "SEA ROAD LITTLEHAMPTON",
          "isImpacting": true,
          "overFlowSiteId": 109368
        }
      ]
    },
    {
      "id": 344879361,
      "eventId": 406707,
      "siteUnitNumber": 12594,
      "bathingSite": "BOGNOR REGIS EAST",
      "eventStart": "2021-05-16T08:38:00",
      "eventStop": "2021-05-16T09:00:00",
      "duration": 22,
      "status": "Genuine",
      "associatedSiteId": 109959,
      "outfallName": "WEST PARK BOGNOR REGIS",
      "isImpacting": true,
      "overFlowSiteId": 0,
      "historicSpillsList": [
        {
          "id": 344879361,
          "eventId": 406707,
          "siteUnitNumber": 12594,
          "bathingSite": "BOGNOR REGIS EAST",
          "eventStart": "2021-05-16T08:38:00",
          "eventStop": "2021-05-16T09:00:00",
          "duration": 22,
          "status": "Genuine",
          "associatedSiteId": 109959,
          "outfallName": "WEST PARK BOGNOR REGIS",
          "isImpacting": true,
          "overFlowSiteId": 108160
        },
        {
          "id": 344879362,
          "eventId": 406707,
          "siteUnitNumber": 12595,
          "bathingSite": "BOGNOR REGIS (ALDWICK)",
          "eventStart": "2021-05-16T08:38:00",
          "eventStop": "2021-05-16T09:00:00",
          "duration": 22,
          "status": "Genuine",
          "associatedSiteId": 109959,
          "outfallName": "WEST PARK BOGNOR REGIS",
          "isImpacting": true,
          "overFlowSiteId": 108160,
          "historicSpillsList": []
        },
        {
          "id": 344879363,
          "eventId": 406707,
          "siteUnitNumber": 12596,
          "bathingSite": "PAGHAM",
          "eventStart": "2021-05-16T08:38:00",
          "eventStop": "2021-05-16T09:00:00",
          "duration": 22,
          "status": "Genuine",
          "associatedSiteId": 109959,
          "outfallName": "WEST PARK BOGNOR REGIS",
          "isImpacting": true,
          "overFlowSiteId": 108160,
          "historicSpillsList": []
        }
      ]
    },
    {
      "id": 344880115,
      "eventId": 406706,
      "siteUnitNumber": 12591,
      "bathingSite": "LITTLEHAMPTON",
      "eventStart": "2021-05-16T08:45:00",
      "eventStop": "2021-05-16T08:58:00",
      "duration": 13,
      "status": "Genuine",
      "associatedSiteId": 109965,
      "outfallName": "SEA ROAD LITTLEHAMPTON",
      "isImpacting": true,
      "overFlowSiteId": 0,
      "historicSpillsList": [
        {
          "id": 344880115,
          "eventId": 406706,
          "siteUnitNumber": 12591,
          "bathingSite": "LITTLEHAMPTON",
          "eventStart": "2021-05-16T08:45:00",
          "eventStop": "2021-05-16T08:58:00",
          "duration": 13,
          "status": "Genuine",
          "associatedSiteId": 109965,
          "outfallName": "SEA ROAD LITTLEHAMPTON",
          "isImpacting": true,
          "overFlowSiteId": 109368
        }
      ]
    },
    {
      "id": 344865519,
      "eventId": 406430,
      "siteUnitNumber": 12661,
      "bathingSite": "LANGSTONE HARBOUR",
      "eventStart": "2021-05-16T07:13:00",
      "eventStop": "2021-05-16T07:30:00",
      "duration": 17,
      "status": "Genuine",
      "associatedSiteId": 109817,
      "outfallName": "MAINLAND DRAYTON",
      "isImpacting": true,
      "overFlowSiteId": 0,
      "historicSpillsList": [
        {
          "id": 344865519,
          "eventId": 406430,
          "siteUnitNumber": 12661,
          "bathingSite": "LANGSTONE HARBOUR",
          "eventStart": "2021-05-16T07:13:00",
          "eventStop": "2021-05-16T07:30:00",
          "duration": 17,
          "status": "Genuine",
          "associatedSiteId": 109817,
          "outfallName": "MAINLAND DRAYTON",
          "isImpacting": true,
          "overFlowSiteId": 115960
        }
      ]
    },
    {
      "id": 344891005,
      "eventId": 406359,
      "siteUnitNumber": 12616,
      "bathingSite": "GURNARD",
      "eventStart": "2021-05-16T06:31:00",
      "eventStop": "2021-05-16T07:28:00",
      "duration": 57,
      "status": "Genuine",
      "associatedSiteId": 110701,
      "outfallName": "TERMINUS ROAD COWES 2",
      "isImpacting": true,
      "overFlowSiteId": 0,
      "historicSpillsList": [
        {
          "id": 344891005,
          "eventId": 406359,
          "siteUnitNumber": 12616,
          "bathingSite": "GURNARD",
          "eventStart": "2021-05-16T06:31:00",
          "eventStop": "2021-05-16T07:28:00",
          "duration": 57,
          "status": "Genuine",
          "associatedSiteId": 110701,
          "outfallName": "TERMINUS ROAD COWES 2",
          "isImpacting": true,
          "overFlowSiteId": 108563
        },
        {
          "id": 344891006,
          "eventId": 406359,
          "siteUnitNumber": 12617,
          "bathingSite": "COWES",
          "eventStart": "2021-05-16T06:31:00",
          "eventStop": "2021-05-16T07:28:00",
          "duration": 57,
          "status": "Genuine",
          "associatedSiteId": 110701,
          "outfallName": "TERMINUS ROAD COWES 2",
          "isImpacting": true,
          "overFlowSiteId": 108563,
          "historicSpillsList": []
        }
      ]
    },
    {
      "id": 344859469,
      "eventId": 406638,
      "siteUnitNumber": 12616,
      "bathingSite": "GURNARD",
      "eventStart": "2021-05-16T07:01:00",
      "eventStop": "2021-05-16T07:08:00",
      "duration": 7,
      "status": "Genuine",
      "associatedSiteId": 109700,
      "outfallName": "MARKET HILL COWES",
      "isImpacting": true,
      "overFlowSiteId": 0,
      "historicSpillsList": [
        {
          "id": 344859469,
          "eventId": 406638,
          "siteUnitNumber": 12616,
          "bathingSite": "GURNARD",
          "eventStart": "2021-05-16T07:01:00",
          "eventStop": "2021-05-16T07:08:00",
          "duration": 7,
          "status": "Genuine",
          "associatedSiteId": 109700,
          "outfallName": "MARKET HILL COWES",
          "isImpacting": true,
          "overFlowSiteId": 109299
        },
        {
          "id": 344859470,
          "eventId": 406638,
          "siteUnitNumber": 12617,
          "bathingSite": "COWES",
          "eventStart": "2021-05-16T07:01:00",
          "eventStop": "2021-05-16T07:08:00",
          "duration": 7,
          "status": "Genuine",
          "associatedSiteId": 109700,
          "outfallName": "MARKET HILL COWES",
          "isImpacting": true,
          "overFlowSiteId": 109299,
          "historicSpillsList": []
        }
      ]
    },
    {
      "id": 344891003,
      "eventId": 406384,
      "siteUnitNumber": 12616,
      "bathingSite": "GURNARD",
      "eventStart": "2021-05-16T06:53:00",
      "eventStop": "2021-05-16T07:06:00",
      "duration": 13,
      "status": "Genuine",
      "associatedSiteId": 110701,
      "outfallName": "TERMINUS ROAD COWES 2",
      "isImpacting": true,
      "overFlowSiteId": 0,
      "historicSpillsList": [
        {
          "id": 344891003,
          "eventId": 406384,
          "siteUnitNumber": 12616,
          "bathingSite": "GURNARD",
          "eventStart": "2021-05-16T06:53:00",
          "eventStop": "2021-05-16T07:06:00",
          "duration": 13,
          "status": "Genuine",
          "associatedSiteId": 110701,
          "outfallName": "TERMINUS ROAD COWES 2",
          "isImpacting": true,
          "overFlowSiteId": 108562
        },
        {
          "id": 344891004,
          "eventId": 406384,
          "siteUnitNumber": 12617,
          "bathingSite": "COWES",
          "eventStart": "2021-05-16T06:53:00",
          "eventStop": "2021-05-16T07:06:00",
          "duration": 13,
          "status": "Genuine",
          "associatedSiteId": 110701,
          "outfallName": "TERMINUS ROAD COWES 2",
          "isImpacting": true,
          "overFlowSiteId": 108562,
          "historicSpillsList": []
        }
      ]
    },
    {
      "id": 344859761,
      "eventId": 406361,
      "siteUnitNumber": 12616,
      "bathingSite": "GURNARD",
      "eventStart": "2021-05-16T06:42:00",
      "eventStop": "2021-05-16T07:01:00",
      "duration": 19,
      "status": "Genuine",
      "associatedSiteId": 109702,
      "outfallName": "ALBANY ROAD EAST COWES",
      "isImpacting": true,
      "overFlowSiteId": 0,
      "historicSpillsList": [
        {
          "id": 344859761,
          "eventId": 406361,
          "siteUnitNumber": 12616,
          "bathingSite": "GURNARD",
          "eventStart": "2021-05-16T06:42:00",
          "eventStop": "2021-05-16T07:01:00",
          "duration": 19,
          "status": "Genuine",
          "associatedSiteId": 109702,
          "outfallName": "ALBANY ROAD EAST COWES",
          "isImpacting": true,
          "overFlowSiteId": 116071
        },
        {
          "id": 344859762,
          "eventId": 406361,
          "siteUnitNumber": 12617,
          "bathingSite": "COWES",
          "eventStart": "2021-05-16T06:42:00",
          "eventStop": "2021-05-16T07:01:00",
          "duration": 19,
          "status": "Genuine",
          "associatedSiteId": 109702,
          "outfallName": "ALBANY ROAD EAST COWES",
          "isImpacting": true,
          "overFlowSiteId": 116071,
          "historicSpillsList": []
        }
      ]
    },
    {
      "id": 344858829,
      "eventId": 406319,
      "siteUnitNumber": 12616,
      "bathingSite": "GURNARD",
      "eventStart": "2021-05-16T06:23:38",
      "eventStop": "2021-05-16T06:39:35",
      "duration": 15,
      "status": "Genuine",
      "associatedSiteId": 109698,
      "outfallName": "WHITEGATES COWES",
      "isImpacting": true,
      "overFlowSiteId": 0,
      "historicSpillsList": [
        {
          "id": 344858829,
          "eventId": 406319,
          "siteUnitNumber": 12616,
          "bathingSite": "GURNARD",
          "eventStart": "2021-05-16T06:23:38",
          "eventStop": "2021-05-16T06:39:35",
          "duration": 15,
          "status": "Genuine",
          "associatedSiteId": 109698,
          "outfallName": "WHITEGATES COWES",
          "isImpacting": true,
          "overFlowSiteId": 111041
        },
        {
          "id": 344858830,
          "eventId": 406319,
          "siteUnitNumber": 12617,
          "bathingSite": "COWES",
          "eventStart": "2021-05-16T06:23:38",
          "eventStop": "2021-05-16T06:39:35",
          "duration": 15,
          "status": "Genuine",
          "associatedSiteId": 109698,
          "outfallName": "WHITEGATES COWES",
          "isImpacting": true,
          "overFlowSiteId": 111041,
          "historicSpillsList": []
        }
      ]
    },
    {
      "id": 344865622,
      "eventId": 406306,
      "siteUnitNumber": 12661,
      "bathingSite": "LANGSTONE HARBOUR",
      "eventStart": "2021-05-16T05:49:00",
      "eventStop": "2021-05-16T06:12:00",
      "duration": 23,
      "status": "Genuine",
      "associatedSiteId": 109819,
      "outfallName": "COURT LANE COSHAM",
      "isImpacting": true,
      "overFlowSiteId": 0,
      "historicSpillsList": [
        {
          "id": 344865622,
          "eventId": 406306,
          "siteUnitNumber": 12661,
          "bathingSite": "LANGSTONE HARBOUR",
          "eventStart": "2021-05-16T05:49:00",
          "eventStop": "2021-05-16T06:12:00",
          "duration": 23,
          "status": "Genuine",
          "associatedSiteId": 109819,
          "outfallName": "COURT LANE COSHAM",
          "isImpacting": true,
          "overFlowSiteId": 115958
        }
      ]
    },
    {
      "id": 344865520,
      "eventId": 406293,
      "siteUnitNumber": 12661,
      "bathingSite": "LANGSTONE HARBOUR",
      "eventStart": "2021-05-16T04:56:00",
      "eventStop": "2021-05-16T06:08:00",
      "duration": 72,
      "status": "Genuine",
      "associatedSiteId": 109817,
      "outfallName": "MAINLAND DRAYTON",
      "isImpacting": true,
      "overFlowSiteId": 0,
      "historicSpillsList": [
        {
          "id": 344865520,
          "eventId": 406293,
          "siteUnitNumber": 12661,
          "bathingSite": "LANGSTONE HARBOUR",
          "eventStart": "2021-05-16T04:56:00",
          "eventStop": "2021-05-16T06:08:00",
          "duration": 72,
          "status": "Genuine",
          "associatedSiteId": 109817,
          "outfallName": "MAINLAND DRAYTON",
          "isImpacting": true,
          "overFlowSiteId": 115960
        }
      ]
    },
    {
      "id": 344891001,
      "eventId": 406494,
      "siteUnitNumber": 12617,
      "bathingSite": "COWES",
      "eventStart": "2021-05-16T04:44:00",
      "eventStop": "2021-05-16T05:02:00",
      "duration": 18,
      "status": "Genuine",
      "associatedSiteId": 110701,
      "outfallName": "TERMINUS ROAD COWES 2",
      "isImpacting": true,
      "overFlowSiteId": 0,
      "historicSpillsList": [
        {
          "id": 344891001,
          "eventId": 406494,
          "siteUnitNumber": 12617,
          "bathingSite": "COWES",
          "eventStart": "2021-05-16T04:44:00",
          "eventStop": "2021-05-16T05:02:00",
          "duration": 18,
          "status": "Genuine",
          "associatedSiteId": 110701,
          "outfallName": "TERMINUS ROAD COWES 2",
          "isImpacting": true,
          "overFlowSiteId": 108562
        },
        {
          "id": 344891002,
          "eventId": 406494,
          "siteUnitNumber": 12616,
          "bathingSite": "GURNARD",
          "eventStart": "2021-05-16T04:44:00",
          "eventStop": "2021-05-16T05:02:00",
          "duration": 18,
          "status": "Genuine",
          "associatedSiteId": 110701,
          "outfallName": "TERMINUS ROAD COWES 2",
          "isImpacting": true,
          "overFlowSiteId": 108562,
          "historicSpillsList": []
        }
      ]
    },
    {
      "id": 344891007,
      "eventId": 406268,
      "siteUnitNumber": 12616,
      "bathingSite": "GURNARD",
      "eventStart": "2021-05-16T04:43:41",
      "eventStop": "2021-05-16T04:54:56",
      "duration": 11,
      "status": "Genuine",
      "associatedSiteId": 110701,
      "outfallName": "TERMINUS ROAD COWES 2",
      "isImpacting": true,
      "overFlowSiteId": 0,
      "historicSpillsList": [
        {
          "id": 344891007,
          "eventId": 406268,
          "siteUnitNumber": 12616,
          "bathingSite": "GURNARD",
          "eventStart": "2021-05-16T04:43:41",
          "eventStop": "2021-05-16T04:54:56",
          "duration": 11,
          "status": "Genuine",
          "associatedSiteId": 110701,
          "outfallName": "TERMINUS ROAD COWES 2",
          "isImpacting": true,
          "overFlowSiteId": 108563
        },
        {
          "id": 344891008,
          "eventId": 406268,
          "siteUnitNumber": 12617,
          "bathingSite": "COWES",
          "eventStart": "2021-05-16T04:43:41",
          "eventStop": "2021-05-16T04:54:56",
          "duration": 11,
          "status": "Genuine",
          "associatedSiteId": 110701,
          "outfallName": "TERMINUS ROAD COWES 2",
          "isImpacting": true,
          "overFlowSiteId": 108563,
          "historicSpillsList": []
        }
      ]
    },
    {
      "id": 344882279,
      "eventId": 406014,
      "siteUnitNumber": 12567,
      "bathingSite": "FOLKESTONE",
      "eventStart": "2021-05-15T19:25:09",
      "eventStop": "2021-05-15T20:22:35",
      "duration": 57,
      "status": "Genuine",
      "associatedSiteId": 110010,
      "outfallName": "THE STADE FOLKESTONE",
      "isImpacting": true,
      "overFlowSiteId": 0,
      "historicSpillsList": [
        {
          "id": 344882279,
          "eventId": 406014,
          "siteUnitNumber": 12567,
          "bathingSite": "FOLKESTONE",
          "eventStart": "2021-05-15T19:25:09",
          "eventStop": "2021-05-15T20:22:35",
          "duration": 57,
          "status": "Genuine",
          "associatedSiteId": 110010,
          "outfallName": "THE STADE FOLKESTONE",
          "isImpacting": true,
          "overFlowSiteId": 108909
        }
      ]
    },
    {
      "id": 344871588,
      "eventId": 405949,
      "siteUnitNumber": 12568,
      "bathingSite": "SANDGATE",
      "eventStart": "2021-05-15T15:53:00",
      "eventStop": "2021-05-15T19:50:00",
      "duration": 237,
      "status": "Genuine",
      "associatedSiteId": 109897,
      "outfallName": "RANGE ROAD HYTHE K LONG",
      "isImpacting": true,
      "overFlowSiteId": 0,
      "historicSpillsList": [
        {
          "id": 344871588,
          "eventId": 405949,
          "siteUnitNumber": 12568,
          "bathingSite": "SANDGATE",
          "eventStart": "2021-05-15T15:53:00",
          "eventStop": "2021-05-15T19:50:00",
          "duration": 237,
          "status": "Genuine",
          "associatedSiteId": 109897,
          "outfallName": "RANGE ROAD HYTHE K LONG",
          "isImpacting": true,
          "overFlowSiteId": 116048
        },
        {
          "id": 344871589,
          "eventId": 405949,
          "siteUnitNumber": 12569,
          "bathingSite": "HYTHE",
          "eventStart": "2021-05-15T15:53:00",
          "eventStop": "2021-05-15T19:50:00",
          "duration": 237,
          "status": "Genuine",
          "associatedSiteId": 109897,
          "outfallName": "RANGE ROAD HYTHE K LONG",
          "isImpacting": true,
          "overFlowSiteId": 116048,
          "historicSpillsList": []
        }
      ]
    },
    {
      "id": 344873484,
      "eventId": 405956,
      "siteUnitNumber": 12576,
      "bathingSite": "ST LEONARDS",
      "eventStart": "2021-05-15T16:32:14",
      "eventStop": "2021-05-15T16:51:07",
      "duration": 18,
      "status": "Genuine",
      "associatedSiteId": 109903,
      "outfallName": "BEXHILL & HASTINGS NO2",
      "isImpacting": true,
      "overFlowSiteId": 0,
      "historicSpillsList": [
        {
          "id": 344873484,
          "eventId": 405956,
          "siteUnitNumber": 12576,
          "bathingSite": "ST LEONARDS",
          "eventStart": "2021-05-15T16:32:14",
          "eventStop": "2021-05-15T16:51:07",
          "duration": 18,
          "status": "Genuine",
          "associatedSiteId": 109903,
          "outfallName": "BEXHILL & HASTINGS NO2",
          "isImpacting": true,
          "overFlowSiteId": 115398
        },
        {
          "id": 344873485,
          "eventId": 405956,
          "siteUnitNumber": 12577,
          "bathingSite": "BEXHILL",
          "eventStart": "2021-05-15T16:32:14",
          "eventStop": "2021-05-15T16:51:07",
          "duration": 18,
          "status": "Genuine",
          "associatedSiteId": 109903,
          "outfallName": "BEXHILL & HASTINGS NO2",
          "isImpacting": true,
          "overFlowSiteId": 115398,
          "historicSpillsList": []
        }
      ]
    },
    {
      "id": 344873482,
      "eventId": 405850,
      "siteUnitNumber": 12576,
      "bathingSite": "ST LEONARDS",
      "eventStart": "2021-05-15T10:06:35",
      "eventStop": "2021-05-15T16:20:21",
      "duration": 373,
      "status": "Genuine",
      "associatedSiteId": 109903,
      "outfallName": "BEXHILL & HASTINGS NO2",
      "isImpacting": true,
      "overFlowSiteId": 0,
      "historicSpillsList": [
        {
          "id": 344873482,
          "eventId": 405850,
          "siteUnitNumber": 12576,
          "bathingSite": "ST LEONARDS",
          "eventStart": "2021-05-15T10:06:35",
          "eventStop": "2021-05-15T16:20:21",
          "duration": 373,
          "status": "Genuine",
          "associatedSiteId": 109903,
          "outfallName": "BEXHILL & HASTINGS NO2",
          "isImpacting": true,
          "overFlowSiteId": 115398
        },
        {
          "id": 344873483,
          "eventId": 405850,
          "siteUnitNumber": 12577,
          "bathingSite": "BEXHILL",
          "eventStart": "2021-05-15T10:06:35",
          "eventStop": "2021-05-15T16:20:21",
          "duration": 373,
          "status": "Genuine",
          "associatedSiteId": 109903,
          "outfallName": "BEXHILL & HASTINGS NO2",
          "isImpacting": true,
          "overFlowSiteId": 115398,
          "historicSpillsList": []
        }
      ]
    },
    {
      "id": 344891009,
      "eventId": 405939,
      "siteUnitNumber": 12617,
      "bathingSite": "COWES",
      "eventStart": "2021-05-15T15:21:19",
      "eventStop": "2021-05-15T15:26:20",
      "duration": 5,
      "status": "Genuine",
      "associatedSiteId": 110701,
      "outfallName": "TERMINUS ROAD COWES 2",
      "isImpacting": true,
      "overFlowSiteId": 0,
      "historicSpillsList": [
        {
          "id": 344891009,
          "eventId": 405939,
          "siteUnitNumber": 12617,
          "bathingSite": "COWES",
          "eventStart": "2021-05-15T15:21:19",
          "eventStop": "2021-05-15T15:26:20",
          "duration": 5,
          "status": "Genuine",
          "associatedSiteId": 110701,
          "outfallName": "TERMINUS ROAD COWES 2",
          "isImpacting": true,
          "overFlowSiteId": 108562
        },
        {
          "id": 344891010,
          "eventId": 405939,
          "siteUnitNumber": 12616,
          "bathingSite": "GURNARD",
          "eventStart": "2021-05-15T15:21:19",
          "eventStop": "2021-05-15T15:26:20",
          "duration": 5,
          "status": "Genuine",
          "associatedSiteId": 110701,
          "outfallName": "TERMINUS ROAD COWES 2",
          "isImpacting": true,
          "overFlowSiteId": 108562,
          "historicSpillsList": []
        }
      ]
    },
    {
      "id": 344891766,
      "eventId": 405829,
      "siteUnitNumber": 12582,
      "bathingSite": "SEAFORD",
      "eventStart": "2021-05-15T09:35:50",
      "eventStop": "2021-05-15T12:17:00",
      "duration": 161,
      "status": "Genuine",
      "associatedSiteId": 110920,
      "outfallName": "NEWHAVEN",
      "isImpacting": true,
      "overFlowSiteId": 0,
      "historicSpillsList": [
        {
          "id": 344891766,
          "eventId": 405829,
          "siteUnitNumber": 12582,
          "bathingSite": "SEAFORD",
          "eventStart": "2021-05-15T09:35:50",
          "eventStop": "2021-05-15T12:17:00",
          "duration": 161,
          "status": "Genuine",
          "associatedSiteId": 110920,
          "outfallName": "NEWHAVEN",
          "isImpacting": true,
          "overFlowSiteId": 116065
        }
      ]
    }
  ]
}