{
  "currentPage": 183,
  "totalItems": 18701,
  "totalPages": 749,
  "items": [
    {
      "id": 343946326,
      "eventId": 872236,
      "siteUnitNumber": 12622,
      "bathingSite": "WHITECLIFF BAY",
      "eventStart": "2023-10-18T14:00:00",
      "eventStop": "2023-10-19T09:24:00",
      "duration": 1164,
      "status": "Genuine",
      "associatedSiteId": 110096,
      "outfallName": "SANDOWN NO1",
      "isImpacting": true,
      "overFlowSiteId": 0,
      "historicSpillsList": [
        {
          "id": 343946326,
          "eventId": 872236,
          "siteUnitNumber": 12622,
          "bathingSite": "WHITECLIFF BAY",
          "eventStart": "2023-10-18T14:00:00",
          "eventStop": "2023-10-19T09:24:00",
          "duration": 1164,
          "status": "Genuine",
          "associatedSiteId": 110096,
          "outfallName": "SANDOWN NO1",
          "isImpacting": true,
          "overFlowSiteId": 115453
        },
        {
          "id": 343946327,
          "eventId": 872236,
          "siteUnitNumber": 12623,
          "bathingSite": "YAVERLAND",
          "eventStart": "2023-10-18T14:00:00",
          "eventStop": "2023-10-19T09:24:00",
          "duration": 1164,
          "status": "Genuine",
          "associatedSiteId": 110096,
          "outfallName": "SANDOWN NO1",
          "isImpacting": true,
          "overFlowSiteId": 115453,
          "historicSpillsList": []
        },
        {
          "id": 343946328,
          "eventId": 872236,
          "siteUnitNumber": 12624,
          "bathingSite": "SANDOWN",
          "eventStart": "2023-10-18T14:00:00",
          "eventStop": "2023-10-19T09:24:00",
          "duration": 1164,
          "status": "Genuine",
          "associatedSiteId": 110096,
          "outfallName": "SANDOWN NO1",
          "isImpacting": true,
          "overFlowSiteId": 115453,
          "historicSpillsList": []
        }
      ]
    },
    {
      "id": 343944945,
      "eventId": 873638,
      "siteUnitNumber": 12575,
      "bathingSite": "HASTINGS PELHAM BEACH",
      "eventStart": "2023-10-19T09:04:50",
      "eventStop": "2023-10-19T09:11:30",
      "duration": 6,
      "status": "Genuine",
      "associatedSiteId": 109982,
      "outfallName": "COOMBS HASTINGS",
      "isImpacting": false,
      "overFlowSiteId": 0,
      "historicSpillsList": []
    },
    {
      "id": 343944943,
      "eventId": 873617,
      "siteUnitNumber": 12575,
      "bathingSite": "HASTINGS PELHAM BEACH",
      "eventStart": "2023-10-19T08:45:00",
      "eventStop": "2023-10-19T09:00:00",
      "duration": 15,
      "status": "Genuine",
      "associatedSiteId": 109982,
      "outfallName": "COOMBS HASTINGS",
      "isImpacting": false,
      "overFlowSiteId": 0,
      "historicSpillsList": []
    },
    {
      "id": 343944949,
      "eventId": 873609,
      "siteUnitNumber": 12575,
      "bathingSite": "HASTINGS PELHAM BEACH",
      "eventStart": "2023-10-19T08:26:54",
      "eventStop": "2023-10-19T08:35:18",
      "duration": 8,
      "status": "Genuine",
      "associatedSiteId": 109982,
      "outfallName": "COOMBS HASTINGS",
      "isImpacting": false,
      "overFlowSiteId": 0,
      "historicSpillsList": []
    },
    {
      "id": 343940756,
      "eventId": 873597,
      "siteUnitNumber": 12595,
      "bathingSite": "BOGNOR REGIS (ALDWICK)",
      "eventStart": "2023-10-19T07:53:00",
      "eventStop": "2023-10-19T08:30:00",
      "duration": 37,
      "status": "Genuine",
      "associatedSiteId": 109959,
      "outfallName": "WEST PARK BOGNOR REGIS",
      "isImpacting": false,
      "overFlowSiteId": 0,
      "historicSpillsList": []
    },
    {
      "id": 343944947,
      "eventId": 873582,
      "siteUnitNumber": 12575,
      "bathingSite": "HASTINGS PELHAM BEACH",
      "eventStart": "2023-10-19T07:41:18",
      "eventStop": "2023-10-19T08:15:00",
      "duration": 33,
      "status": "Genuine",
      "associatedSiteId": 109982,
      "outfallName": "COOMBS HASTINGS",
      "isImpacting": false,
      "overFlowSiteId": 0,
      "historicSpillsList": []
    },
    {
      "id": 343944953,
      "eventId": 873564,
      "siteUnitNumber": 12575,
      "bathingSite": "HASTINGS PELHAM BEACH",
      "eventStart": "2023-10-19T07:19:44",
      "eventStop": "2023-10-19T07:28:42",
      "duration": 8,
      "status": "Genuine",
      "associatedSiteId": 109982,
      "outfallName": "COOMBS HASTINGS",
      "isImpacting": false,
      "overFlowSiteId": 0,
      "historicSpillsList": []
    },
    {
      "id": 343944951,
      "eventId": 873560,
      "siteUnitNumber": 12575,
      "bathingSite": "HASTINGS PELHAM BEACH",
      "eventStart": "2023-10-19T06:58:32",
      "eventStop": "2023-10-19T07:15:00",
      "duration": 16,
      "status": "Genuine",
      "associatedSiteId": 109982,
      "outfallName": "COOMBS HASTINGS",
      "isImpacting": false,
      "overFlowSiteId": 0,
      "historicSpillsList": []
    },
    {
      "id": 343940761,
      "eventId": 873566,
      "siteUnitNumber": 12594,
      "bathingSite": "BOGNOR REGIS EAST",
      "eventStart": "2023-10-19T07:08:00",
      "eventStop": "2023-10-19T07:11:00",
      "duration": 3,
      "status": "Genuine",
      "associatedSiteId": 109959,
      "outfallName": "WEST PARK BOGNOR REGIS",
      "isImpacting": false,
      "overFlowSiteId": 0,
      "historicSpillsList": []
    },
    {
      "id": 343944957,
      "eventId": 873548,
      "siteUnitNumber": 12575,
      "bathingSite": "HASTINGS PELHAM BEACH",
      "eventStart": "2023-10-19T06:37:03",
      "eventStop": "2023-10-19T06:45:19",
      "duration": 8,
      "status": "Genuine",
      "associatedSiteId": 109982,
      "outfallName": "COOMBS HASTINGS",
      "isImpacting": false,
      "overFlowSiteId": 0,
      "historicSpillsList": []
    },
    {
      "id": 343944955,
      "eventId": 873540,
      "siteUnitNumber": 12575,
      "bathingSite": "HASTINGS PELHAM BEACH",
      "eventStart": "2023-10-19T06:15:00",
      "eventStop": "2023-10-19T06:30:00",
      "duration": 15,
      "status": "Genuine",
      "associatedSiteId": 109982,
      "outfallName": "COOMBS HASTINGS",
      "isImpacting": false,
      "overFlowSiteId": 0,
      "historicSpillsList": []
    },
    {
      "id": 343923369,
      "eventId": 872315,
      "siteUnitNumber": 12616,
      "bathingSite": "GURNARD",
      "eventStart": "2023-10-18T14:50:03",
      "eventStop": "2023-10-19T06:23:00",
      "duration": 932,
      "status": "Genuine",
      "associatedSiteId": 109705,
      "outfallName": "SPRINGHILL COWES TRANSFER",
      "isImpacting": true,
      "overFlowSiteId": 0,
      "historicSpillsList": [
        {
          "id": 343923370,
          "eventId": 872315,
          "siteUnitNumber": 12617,
          "bathingSite": "COWES",
          "eventStart": "2023-10-18T14:50:03",
          "eventStop": "2023-10-19T06:23:00",
          "duration": 932,
          "status": "Genuine",
          "associatedSiteId": 109705,
          "outfallName": "SPRINGHILL COWES TRANSFER",
          "isImpacting": true,
          "overFlowSiteId": 108943,
          "historicSpillsList": []
        }
      ]
    },
    {
      "id": 343948908,
      "eventId": 876760,
      "siteUnitNumber": 12625,
      "bathingSite": "SHANKLIN",
      "eventStart": "2023-10-19T06:05:00",
      "eventStop": "2023-10-19T06:21:00",
      "duration": 16,
      "status": "Genuine",
      "associatedSiteId": 110097,
      "outfallName": "SANDOWN NO2",
      "isImpacting": true,
      "overFlowSiteId": 0,
      "historicSpillsList": [
        {
          "id": 343948916,
          "eventId": 876760,
          "siteUnitNumber": 12623,
          "bathingSite": "YAVERLAND",
          "eventStart": "2023-10-19T06:05:00",
          "eventStop": "2023-10-19T06:21:00",
          "duration": 16,
          "status": "Genuine",
          "associatedSiteId": 110097,
          "outfallName": "SANDOWN NO2",
          "isImpacting": true,
          "overFlowSiteId": 115454,
          "historicSpillsList": []
        }
      ]
    },
    {
      "id": 343943739,
      "eventId": 874135,
      "siteUnitNumber": 12594,
      "bathingSite": "BOGNOR REGIS EAST",
      "eventStart": "2023-10-18T21:26:00",
      "eventStop": "2023-10-19T06:06:00",
      "duration": 520,
      "status": "Genuine",
      "associatedSiteId": 109972,
      "outfallName": "BOGNOR MAIN",
      "isImpacting": true,
      "overFlowSiteId": 0,
      "historicSpillsList": [
        {
          "id": 343943739,
          "eventId": 874135,
          "siteUnitNumber": 12594,
          "bathingSite": "BOGNOR REGIS EAST",
          "eventStart": "2023-10-18T21:26:00",
          "eventStop": "2023-10-19T06:06:00",
          "duration": 520,
          "status": "Genuine",
          "associatedSiteId": 109972,
          "outfallName": "BOGNOR MAIN",
          "isImpacting": true,
          "overFlowSiteId": 107412
        },
        {
          "id": 343943748,
          "eventId": 874135,
          "siteUnitNumber": 12593,
          "bathingSite": "FELPHAM",
          "eventStart": "2023-10-18T21:26:00",
          "eventStop": "2023-10-19T06:06:00",
          "duration": 520,
          "status": "Genuine",
          "associatedSiteId": 109972,
          "outfallName": "BOGNOR MAIN",
          "isImpacting": true,
          "overFlowSiteId": 107412,
          "historicSpillsList": []
        }
      ]
    },
    {
      "id": 343944961,
      "eventId": 873530,
      "siteUnitNumber": 12575,
      "bathingSite": "HASTINGS PELHAM BEACH",
      "eventStart": "2023-10-19T05:57:29",
      "eventStop": "2023-10-19T06:03:47",
      "duration": 6,
      "status": "Genuine",
      "associatedSiteId": 109982,
      "outfallName": "COOMBS HASTINGS",
      "isImpacting": false,
      "overFlowSiteId": 0,
      "historicSpillsList": []
    },
    {
      "id": 343944959,
      "eventId": 873520,
      "siteUnitNumber": 12575,
      "bathingSite": "HASTINGS PELHAM BEACH",
      "eventStart": "2023-10-19T05:39:08",
      "eventStop": "2023-10-19T05:45:32",
      "duration": 6,
      "status": "Genuine",
      "associatedSiteId": 109982,
      "outfallName": "COOMBS HASTINGS",
      "isImpacting": false,
      "overFlowSiteId": 0,
      "historicSpillsList": []
    },
    {
      "id": 343944965,
      "eventId": 873507,
      "siteUnitNumber": 12575,
      "bathingSite": "HASTINGS PELHAM BEACH",
      "eventStart": "2023-10-19T05:15:00",
      "eventStop": "2023-10-19T05:30:00",
      "duration": 15,
      "status": "Genuine",
      "associatedSiteId": 109982,
      "outfallName": "COOMBS HASTINGS",
      "isImpacting": false,
      "overFlowSiteId": 0,
      "historicSpillsList": []
    },
    {
      "id": 343944963,
      "eventId": 873492,
      "siteUnitNumber": 12575,
      "bathingSite": "HASTINGS PELHAM BEACH",
      "eventStart": "2023-10-19T04:45:00",
      "eventStop": "2023-10-19T05:00:00",
      "duration": 15,
      "status": "Genuine",
      "associatedSiteId": 109982,
      "outfallName": "COOMBS HASTINGS",
      "isImpacting": true,
      "overFlowSiteId": 0,
      "historicSpillsList": [
        {
          "id": 343944964,
          "eventId": 873492,
          "siteUnitNumber": 12576,
          "bathingSite": "ST LEONARDS",
          "eventStart": "2023-10-19T04:45:00",
          "eventStop": "2023-10-19T05:00:00",
          "duration": 15,
          "status": "Genuine",
          "associatedSiteId": 109982,
          "outfallName": "COOMBS HASTINGS",
          "isImpacting": true,
          "overFlowSiteId": 110211,
          "historicSpillsList": []
        }
      ]
    },
    {
      "id": 343944969,
      "eventId": 873475,
      "siteUnitNumber": 12575,
      "bathingSite": "HASTINGS PELHAM BEACH",
      "eventStart": "2023-10-19T04:24:00",
      "eventStop": "2023-10-19T04:31:39",
      "duration": 7,
      "status": "Genuine",
      "associatedSiteId": 109982,
      "outfallName": "COOMBS HASTINGS",
      "isImpacting": true,
      "overFlowSiteId": 0,
      "historicSpillsList": [
        {
          "id": 343944970,
          "eventId": 873475,
          "siteUnitNumber": 12576,
          "bathingSite": "ST LEONARDS",
          "eventStart": "2023-10-19T04:24:00",
          "eventStop": "2023-10-19T04:31:39",
          "duration": 7,
          "status": "Genuine",
          "associatedSiteId": 109982,
          "outfallName": "COOMBS HASTINGS",
          "isImpacting": true,
          "overFlowSiteId": 110211,
          "historicSpillsList": []
        }
      ]
    },
    {
      "id": 343944967,
      "eventId": 873460,
      "siteUnitNumber": 12575,
      "bathingSite": "HASTINGS PELHAM BEACH",
      "eventStart": "2023-10-19T03:59:06",
      "eventStop": "2023-10-19T04:15:00",
      "duration": 15,
      "status": "Genuine",
      "associatedSiteId": 109982,
      "outfallName": "COOMBS HASTINGS",
      "isImpacting": true,
      "overFlowSiteId": 0,
      "historicSpillsList": [
        {
          "id": 343944968,
          "eventId": 873460,
          "siteUnitNumber": 12576,
          "bathingSite": "ST LEONARDS",
          "eventStart": "2023-10-19T03:59:06",
          "eventStop": "2023-10-19T04:15:00",
          "duration": 15,
          "status": "Genuine",
          "associatedSiteId": 109982,
          "outfallName": "COOMBS HASTINGS",
          "isImpacting": true,
          "overFlowSiteId": 110211,
          "historicSpillsList": []
        }
      ]
    },
    {
      "id": 343948918,
      "eventId": 876747,
      "siteUnitNumber": 12619,
      "bathingSite": "SEAGROVE",
      "eventStart": "2023-10-19T03:39:00",
      "eventStop": "2023-10-19T04:09:00",
      "duration": 30,
      "status": "Genuine",
      "associatedSiteId": 110097,
      "outfallName": "SANDOWN NO2",
      "isImpacting": true,
      "overFlowSiteId": 0,
      "historicSpillsList": [
        {
          "id": 343948921,
          "eventId": 876747,
          "siteUnitNumber": 12623,
          "bathingSite": "YAVERLAND",
          "eventStart": "2023-10-19T03:39:00",
          "eventStop": "2023-10-19T04:09:00",
          "duration": 30,
          "status": "Genuine",
          "associatedSiteId": 110097,
          "outfallName": "SANDOWN NO2",
          "isImpacting": true,
          "overFlowSiteId": 115454,
          "historicSpillsList": []
        },
        {
          "id": 343948922,
          "eventId": 876747,
          "siteUnitNumber": 12624,
          "bathingSite": "SANDOWN",
          "eventStart": "2023-10-19T03:39:00",
          "eventStop": "2023-10-19T04:09:00",
          "duration": 30,
          "status": "Genuine",
          "associatedSiteId": 110097,
          "outfallName": "SANDOWN NO2",
          "isImpacting": true,
          "overFlowSiteId": 115454,
          "historicSpillsList": []
        },
        {
          "id": 343948923,
          "eventId": 876747,
          "siteUnitNumber": 12625,
          "bathingSite": "SHANKLIN",
          "eventStart": "2023-10-19T03:39:00",
          "eventStop": "2023-10-19T04:09:00",
          "duration": 30,
          "status": "Genuine",
          "associatedSiteId": 110097,
          "outfallName": "SANDOWN NO2",
          "isImpacting": true,
          "overFlowSiteId": 115454,
          "historicSpillsList": []
        }
      ]
    },
    {
      "id": 343944973,
      "eventId": 873436,
      "siteUnitNumber": 12575,
      "bathingSite": "HASTINGS PELHAM BEACH",
      "eventStart": "2023-10-19T03:12:17",
      "eventStop": "2023-10-19T03:45:00",
      "duration": 32,
      "status": "Genuine",
      "associatedSiteId": 109982,
      "outfallName": "COOMBS HASTINGS",
      "isImpacting": true,
      "overFlowSiteId": 0,
      "historicSpillsList": [
        {
          "id": 343944974,
          "eventId": 873436,
          "siteUnitNumber": 12576,
          "bathingSite": "ST LEONARDS",
          "eventStart": "2023-10-19T03:12:17",
          "eventStop": "2023-10-19T03:45:00",
          "duration": 32,
          "status": "Genuine",
          "associatedSiteId": 109982,
          "outfallName": "COOMBS HASTINGS",
          "isImpacting": true,
          "overFlowSiteId": 110211,
          "historicSpillsList": []
        }
      ]
    },
    {
      "id": 343948924,
      "eventId": 876746,
      "siteUnitNumber": 12621,
      "bathingSite": "BEMBRIDGE",
      "eventStart": "2023-10-19T02:41:00",
      "eventStop": "2023-10-19T03:01:00",
      "duration": 20,
      "status": "Genuine",
      "associatedSiteId": 110097,
      "outfallName": "SANDOWN NO2",
      "isImpacting": true,
      "overFlowSiteId": 0,
      "historicSpillsList": [
        {
          "id": 343948926,
          "eventId": 876746,
          "siteUnitNumber": 12623,
          "bathingSite": "YAVERLAND",
          "eventStart": "2023-10-19T02:41:00",
          "eventStop": "2023-10-19T03:01:00",
          "duration": 20,
          "status": "Genuine",
          "associatedSiteId": 110097,
          "outfallName": "SANDOWN NO2",
          "isImpacting": true,
          "overFlowSiteId": 115454,
          "historicSpillsList": []
        },
        {
          "id": 343948927,
          "eventId": 876746,
          "siteUnitNumber": 12624,
          "bathingSite": "SANDOWN",
          "eventStart": "2023-10-19T02:41:00",
          "eventStop": "2023-10-19T03:01:00",
          "duration": 20,
          "status": "Genuine",
          "associatedSiteId": 110097,
          "outfallName": "SANDOWN NO2",
          "isImpacting": true,
          "overFlowSiteId": 115454,
          "historicSpillsList": []
        },
        {
          "id": 343948928,
          "eventId": 876746,
          "siteUnitNumber": 12625,
          "bathingSite": "SHANKLIN",
          "eventStart": "2023-10-19T02:41:00",
          "eventStop": "2023-10-19T03:01:00",
          "duration": 20,
          "status": "Genuine",
          "associatedSiteId": 110097,
          "outfallName": "SANDOWN NO2",
          "isImpacting": true,
          "overFlowSiteId": 115454,
          "historicSpillsList": []
        }
      ]
    },
    {
      "id": 343944971,
      "eventId": 873411,
      "siteUnitNumber": 12575,
      "bathingSite": "HASTINGS PELHAM BEACH",
      "eventStart": "2023-10-19T02:50:35",
      "eventStop": "2023-10-19T02:59:06",
      "duration": 8,
      "status": "Genuine",
      "associatedSiteId": 109982,
      "outfallName": "COOMBS HASTINGS",
      "isImpacting": true,
      "overFlowSiteId": 0,
      "historicSpillsList": [
        {
          "id": 343944972,
          "eventId": 873411,
          "siteUnitNumber": 12576,
          "bathingSite": "ST LEONARDS",
          "eventStart": "2023-10-19T02:50:35",
          "eventStop": "2023-10-19T02:59:06",
          "duration": 8,
          "status": "Genuine",
          "associatedSiteId": 109982,
          "outfallName": "COOMBS HASTINGS",
          "isImpacting": true,
          "overFlowSiteId": 110211,
          "historicSpillsList": []
        }
      ]
    },
    {
      "id": 343923903,
      "eventId": 873429,
      "siteUnitNumber": 12616,
      "bathingSite": "GURNARD",
      "eventStart": "2023-10-19T02:48:33",
      "eventStop": "2023-10-19T02:53:18",
      "duration": 4,
      "status": "Genuine",
      "associatedSiteId": 109706,
      "outfallName": "HIGH STREET COWES",
      "isImpacting": false,
      "overFlowSiteId": 0,
      "historicSpillsList": []
    }
  ]
}