{
  "currentPage": 379,
  "totalItems": 21025,
  "totalPages": 841,
  "items": [
    {
      "id": 344805093,
      "eventId": 730194,
      "siteUnitNumber": 12616,
      "bathingSite": "GURNARD",
      "eventStart": "2023-01-11T17:15:00",
      "eventStop": "2023-01-11T17:18:00",
      "duration": 3,
      "status": "Genuine",
      "associatedSiteId": 110701,
      "outfallName": "TERMINUS ROAD COWES 2",
      "isImpacting": true,
      "overFlowSiteId": 0,
      "historicSpillsList": [
        {
          "id": 344805093,
          "eventId": 730194,
          "siteUnitNumber": 12616,
          "bathingSite": "GURNARD",
          "eventStart": "2023-01-11T17:15:00",
          "eventStop": "2023-01-11T17:18:00",
          "duration": 3,
          "status": "Genuine",
          "associatedSiteId": 110701,
          "outfallName": "TERMINUS ROAD COWES 2",
          "isImpacting": true,
          "overFlowSiteId": 108562
        },
        {
          "id": 344805094,
          "eventId": 730194,
          "siteUnitNumber": 12617,
          "bathingSite": "COWES",
          "eventStart": "2023-01-11T17:15:00",
          "eventStop": "2023-01-11T17:18:00",
          "duration": 3,
          "status": "Genuine",
          "associatedSiteId": 110701,
          "outfallName": "TERMINUS ROAD COWES 2",
          "isImpacting": true,
          "overFlowSiteId": 108562,
          "historicSpillsList": []
        }
      ]
    },
    {
      "id": 344805095,
      "eventId": 730185,
      "siteUnitNumber": 12616,
      "bathingSite": "GURNARD",
      "eventStart": "2023-01-11T16:25:00",
      "eventStop": "2023-01-11T17:07:00",
      "duration": 42,
      "status": "Genuine",
      "associatedSiteId": 110701,
      "outfallName": "TERMINUS ROAD COWES 2",
      "isImpacting": true,
      "overFlowSiteId": 0,
      "historicSpillsList": [
        {
          "id": 344805095,
          "eventId": 730185,
          "siteUnitNumber": 12616,
          "bathingSite": "GURNARD",
          "eventStart": "2023-01-11T16:25:00",
          "eventStop": "2023-01-11T17:07:00",
          "duration": 42,
          "status": "Genuine",
          "associatedSiteId": 110701,
          "outfallName": "TERMINUS ROAD COWES 2",
          "isImpacting": true,
          "overFlowSiteId": 108562
        },
        {
          "id": 344805096,
          "eventId": 730185,
          "siteUnitNumber": 12617,
          "bathingSite": "COWES",
          "eventStart": "2023-01-11T16:25:00",
          "eventStop": "2023-01-11T17:07:00",
          "duration": 42,
          "status": "Genuine",
          "associatedSiteId": 110701,
          "outfallName": "TERMINUS ROAD COWES 2",
          "isImpacting": true,
          "overFlowSiteId": 108562,
          "historicSpillsList": []
        }
      ]
    },
    {
      "id": 344780332,
      "eventId": 728062,
      "siteUnitNumber": 12661,
      "bathingSite": "LANGSTONE HARBOUR",
      "eventStart": "2023-01-11T16:47:48",
      "eventStop": "2023-01-11T17:05:10",
      "duration": 17,
      "status": "Genuine",
      "associatedSiteId": 109818,
      "outfallName": "KIRTLEY CLOSE DRAYTON",
      "isImpacting": true,
      "overFlowSiteId": 0,
      "historicSpillsList": [
        {
          "id": 344780332,
          "eventId": 728062,
          "siteUnitNumber": 12661,
          "bathingSite": "LANGSTONE HARBOUR",
          "eventStart": "2023-01-11T16:47:48",
          "eventStop": "2023-01-11T17:05:10",
          "duration": 17,
          "status": "Genuine",
          "associatedSiteId": 109818,
          "outfallName": "KIRTLEY CLOSE DRAYTON",
          "isImpacting": true,
          "overFlowSiteId": 108774
        }
      ]
    },
    {
      "id": 344775815,
      "eventId": 728179,
      "siteUnitNumber": 12616,
      "bathingSite": "GURNARD",
      "eventStart": "2023-01-11T16:45:29",
      "eventStop": "2023-01-11T16:55:12",
      "duration": 9,
      "status": "Genuine",
      "associatedSiteId": 109706,
      "outfallName": "HIGH STREET COWES",
      "isImpacting": false,
      "overFlowSiteId": 0,
      "historicSpillsList": []
    },
    {
      "id": 344776055,
      "eventId": 728049,
      "siteUnitNumber": 12616,
      "bathingSite": "GURNARD",
      "eventStart": "2023-01-11T16:37:00",
      "eventStop": "2023-01-11T16:53:00",
      "duration": 16,
      "status": "Genuine",
      "associatedSiteId": 109707,
      "outfallName": "MEDINA ROAD COWES",
      "isImpacting": false,
      "overFlowSiteId": 0,
      "historicSpillsList": []
    },
    {
      "id": 344774619,
      "eventId": 728031,
      "siteUnitNumber": 12616,
      "bathingSite": "GURNARD",
      "eventStart": "2023-01-11T16:40:06",
      "eventStop": "2023-01-11T16:46:27",
      "duration": 6,
      "status": "Genuine",
      "associatedSiteId": 109703,
      "outfallName": "CASTLE STREET COWES",
      "isImpacting": true,
      "overFlowSiteId": 0,
      "historicSpillsList": [
        {
          "id": 344774619,
          "eventId": 728031,
          "siteUnitNumber": 12616,
          "bathingSite": "GURNARD",
          "eventStart": "2023-01-11T16:40:06",
          "eventStop": "2023-01-11T16:46:27",
          "duration": 6,
          "status": "Genuine",
          "associatedSiteId": 109703,
          "outfallName": "CASTLE STREET COWES",
          "isImpacting": true,
          "overFlowSiteId": 108822
        },
        {
          "id": 344774620,
          "eventId": 728031,
          "siteUnitNumber": 12617,
          "bathingSite": "COWES",
          "eventStart": "2023-01-11T16:40:06",
          "eventStop": "2023-01-11T16:46:27",
          "duration": 6,
          "status": "Genuine",
          "associatedSiteId": 109703,
          "outfallName": "CASTLE STREET COWES",
          "isImpacting": true,
          "overFlowSiteId": 108822,
          "historicSpillsList": []
        }
      ]
    },
    {
      "id": 344776059,
      "eventId": 728030,
      "siteUnitNumber": 12616,
      "bathingSite": "GURNARD",
      "eventStart": "2023-01-11T16:40:00",
      "eventStop": "2023-01-11T16:45:00",
      "duration": 5,
      "status": "Genuine",
      "associatedSiteId": 109707,
      "outfallName": "MEDINA ROAD COWES",
      "isImpacting": false,
      "overFlowSiteId": 0,
      "historicSpillsList": []
    },
    {
      "id": 344801794,
      "eventId": 727391,
      "siteUnitNumber": 12619,
      "bathingSite": "SEAGROVE",
      "eventStart": "2023-01-11T06:23:00",
      "eventStop": "2023-01-11T16:29:00",
      "duration": 606,
      "status": "Genuine",
      "associatedSiteId": 110097,
      "outfallName": "SANDOWN NO2",
      "isImpacting": true,
      "overFlowSiteId": 0,
      "historicSpillsList": [
        {
          "id": 344801797,
          "eventId": 727391,
          "siteUnitNumber": 12623,
          "bathingSite": "YAVERLAND",
          "eventStart": "2023-01-11T06:23:00",
          "eventStop": "2023-01-11T16:29:00",
          "duration": 606,
          "status": "Genuine",
          "associatedSiteId": 110097,
          "outfallName": "SANDOWN NO2",
          "isImpacting": true,
          "overFlowSiteId": 115454,
          "historicSpillsList": []
        },
        {
          "id": 344801798,
          "eventId": 727391,
          "siteUnitNumber": 12624,
          "bathingSite": "SANDOWN",
          "eventStart": "2023-01-11T06:23:00",
          "eventStop": "2023-01-11T16:29:00",
          "duration": 606,
          "status": "Genuine",
          "associatedSiteId": 110097,
          "outfallName": "SANDOWN NO2",
          "isImpacting": true,
          "overFlowSiteId": 115454,
          "historicSpillsList": []
        },
        {
          "id": 344801799,
          "eventId": 727391,
          "siteUnitNumber": 12625,
          "bathingSite": "SHANKLIN",
          "eventStart": "2023-01-11T06:23:00",
          "eventStop": "2023-01-11T16:29:00",
          "duration": 606,
          "status": "Genuine",
          "associatedSiteId": 110097,
          "outfallName": "SANDOWN NO2",
          "isImpacting": true,
          "overFlowSiteId": 115454,
          "historicSpillsList": []
        }
      ]
    },
    {
      "id": 344805970,
      "eventId": 731769,
      "siteUnitNumber": 12662,
      "bathingSite": "CHICHESTER HARBOUR",
      "eventStart": "2023-01-10T06:55:00",
      "eventStop": "2023-01-11T16:28:00",
      "duration": 2013,
      "status": "Genuine",
      "associatedSiteId": 110760,
      "outfallName": "BOSHAM",
      "isImpacting": true,
      "overFlowSiteId": 0,
      "historicSpillsList": [
        {
          "id": 344805970,
          "eventId": 731769,
          "siteUnitNumber": 12662,
          "bathingSite": "CHICHESTER HARBOUR",
          "eventStart": "2023-01-10T06:55:00",
          "eventStop": "2023-01-11T16:28:00",
          "duration": 2013,
          "status": "Genuine",
          "associatedSiteId": 110760,
          "outfallName": "BOSHAM",
          "isImpacting": true,
          "overFlowSiteId": 115735
        }
      ]
    },
    {
      "id": 344805097,
      "eventId": 730184,
      "siteUnitNumber": 12616,
      "bathingSite": "GURNARD",
      "eventStart": "2023-01-11T16:15:00",
      "eventStop": "2023-01-11T16:24:00",
      "duration": 9,
      "status": "Genuine",
      "associatedSiteId": 110701,
      "outfallName": "TERMINUS ROAD COWES 2",
      "isImpacting": true,
      "overFlowSiteId": 0,
      "historicSpillsList": [
        {
          "id": 344805097,
          "eventId": 730184,
          "siteUnitNumber": 12616,
          "bathingSite": "GURNARD",
          "eventStart": "2023-01-11T16:15:00",
          "eventStop": "2023-01-11T16:24:00",
          "duration": 9,
          "status": "Genuine",
          "associatedSiteId": 110701,
          "outfallName": "TERMINUS ROAD COWES 2",
          "isImpacting": true,
          "overFlowSiteId": 108562
        },
        {
          "id": 344805098,
          "eventId": 730184,
          "siteUnitNumber": 12617,
          "bathingSite": "COWES",
          "eventStart": "2023-01-11T16:15:00",
          "eventStop": "2023-01-11T16:24:00",
          "duration": 9,
          "status": "Genuine",
          "associatedSiteId": 110701,
          "outfallName": "TERMINUS ROAD COWES 2",
          "isImpacting": true,
          "overFlowSiteId": 108562,
          "historicSpillsList": []
        }
      ]
    },
    {
      "id": 344770923,
      "eventId": 729481,
      "siteUnitNumber": 12616,
      "bathingSite": "GURNARD",
      "eventStart": "2023-01-11T16:05:00",
      "eventStop": "2023-01-11T16:11:00",
      "duration": 6,
      "status": "Genuine",
      "associatedSiteId": 109652,
      "outfallName": "WOODVALE TRANSFER NO1",
      "isImpacting": true,
      "overFlowSiteId": 0,
      "historicSpillsList": [
        {
          "id": 344770923,
          "eventId": 729481,
          "siteUnitNumber": 12616,
          "bathingSite": "GURNARD",
          "eventStart": "2023-01-11T16:05:00",
          "eventStop": "2023-01-11T16:11:00",
          "duration": 6,
          "status": "Genuine",
          "associatedSiteId": 109652,
          "outfallName": "WOODVALE TRANSFER NO1",
          "isImpacting": true,
          "overFlowSiteId": 115966
        }
      ]
    },
    {
      "id": 344805077,
      "eventId": 730334,
      "siteUnitNumber": 12616,
      "bathingSite": "GURNARD",
      "eventStart": "2023-01-11T15:41:00",
      "eventStop": "2023-01-11T16:01:00",
      "duration": 20,
      "status": "Genuine",
      "associatedSiteId": 110701,
      "outfallName": "TERMINUS ROAD COWES 2",
      "isImpacting": true,
      "overFlowSiteId": 0,
      "historicSpillsList": [
        {
          "id": 344805077,
          "eventId": 730334,
          "siteUnitNumber": 12616,
          "bathingSite": "GURNARD",
          "eventStart": "2023-01-11T15:41:00",
          "eventStop": "2023-01-11T16:01:00",
          "duration": 20,
          "status": "Genuine",
          "associatedSiteId": 110701,
          "outfallName": "TERMINUS ROAD COWES 2",
          "isImpacting": true,
          "overFlowSiteId": 108563
        },
        {
          "id": 344805078,
          "eventId": 730334,
          "siteUnitNumber": 12617,
          "bathingSite": "COWES",
          "eventStart": "2023-01-11T15:41:00",
          "eventStop": "2023-01-11T16:01:00",
          "duration": 20,
          "status": "Genuine",
          "associatedSiteId": 110701,
          "outfallName": "TERMINUS ROAD COWES 2",
          "isImpacting": true,
          "overFlowSiteId": 108563,
          "historicSpillsList": []
        }
      ]
    },
    {
      "id": 344773863,
      "eventId": 728883,
      "siteUnitNumber": 12616,
      "bathingSite": "GURNARD",
      "eventStart": "2023-01-11T15:40:00",
      "eventStop": "2023-01-11T15:49:00",
      "duration": 9,
      "status": "Genuine",
      "associatedSiteId": 109700,
      "outfallName": "MARKET HILL COWES",
      "isImpacting": false,
      "overFlowSiteId": 0,
      "historicSpillsList": []
    },
    {
      "id": 344770925,
      "eventId": 729479,
      "siteUnitNumber": 12616,
      "bathingSite": "GURNARD",
      "eventStart": "2023-01-11T15:35:00",
      "eventStop": "2023-01-11T15:41:00",
      "duration": 6,
      "status": "Genuine",
      "associatedSiteId": 109652,
      "outfallName": "WOODVALE TRANSFER NO1",
      "isImpacting": true,
      "overFlowSiteId": 0,
      "historicSpillsList": [
        {
          "id": 344770925,
          "eventId": 729479,
          "siteUnitNumber": 12616,
          "bathingSite": "GURNARD",
          "eventStart": "2023-01-11T15:35:00",
          "eventStop": "2023-01-11T15:41:00",
          "duration": 6,
          "status": "Genuine",
          "associatedSiteId": 109652,
          "outfallName": "WOODVALE TRANSFER NO1",
          "isImpacting": true,
          "overFlowSiteId": 115966
        }
      ]
    },
    {
      "id": 344783316,
      "eventId": 727764,
      "siteUnitNumber": 12662,
      "bathingSite": "CHICHESTER HARBOUR",
      "eventStart": "2023-01-11T14:01:14",
      "eventStop": "2023-01-11T15:15:00",
      "duration": 73,
      "status": "Genuine",
      "associatedSiteId": 109836,
      "outfallName": "CHICHESTER",
      "isImpacting": true,
      "overFlowSiteId": 0,
      "historicSpillsList": [
        {
          "id": 344783316,
          "eventId": 727764,
          "siteUnitNumber": 12662,
          "bathingSite": "CHICHESTER HARBOUR",
          "eventStart": "2023-01-11T14:01:14",
          "eventStop": "2023-01-11T15:15:00",
          "duration": 73,
          "status": "Genuine",
          "associatedSiteId": 109836,
          "outfallName": "CHICHESTER",
          "isImpacting": true,
          "overFlowSiteId": 115401
        }
      ]
    },
    {
      "id": 344793241,
      "eventId": 727756,
      "siteUnitNumber": 12595,
      "bathingSite": "BOGNOR REGIS (ALDWICK)",
      "eventStart": "2023-01-11T14:11:00",
      "eventStop": "2023-01-11T15:08:00",
      "duration": 57,
      "status": "Genuine",
      "associatedSiteId": 109959,
      "outfallName": "WEST PARK BOGNOR REGIS",
      "isImpacting": false,
      "overFlowSiteId": 0,
      "historicSpillsList": []
    },
    {
      "id": 344770927,
      "eventId": 729476,
      "siteUnitNumber": 12616,
      "bathingSite": "GURNARD",
      "eventStart": "2023-01-11T14:40:00",
      "eventStop": "2023-01-11T14:45:00",
      "duration": 5,
      "status": "Genuine",
      "associatedSiteId": 109652,
      "outfallName": "WOODVALE TRANSFER NO1",
      "isImpacting": true,
      "overFlowSiteId": 0,
      "historicSpillsList": [
        {
          "id": 344770927,
          "eventId": 729476,
          "siteUnitNumber": 12616,
          "bathingSite": "GURNARD",
          "eventStart": "2023-01-11T14:40:00",
          "eventStop": "2023-01-11T14:45:00",
          "duration": 5,
          "status": "Genuine",
          "associatedSiteId": 109652,
          "outfallName": "WOODVALE TRANSFER NO1",
          "isImpacting": true,
          "overFlowSiteId": 115966
        }
      ]
    },
    {
      "id": 344798590,
      "eventId": 726497,
      "siteUnitNumber": 12624,
      "bathingSite": "SANDOWN",
      "eventStart": "2023-01-10T11:11:10",
      "eventStop": "2023-01-11T14:28:42",
      "duration": 1637,
      "status": "Genuine",
      "associatedSiteId": 110096,
      "outfallName": "SANDOWN NO1",
      "isImpacting": true,
      "overFlowSiteId": 0,
      "historicSpillsList": [
        {
          "id": 344798590,
          "eventId": 726497,
          "siteUnitNumber": 12624,
          "bathingSite": "SANDOWN",
          "eventStart": "2023-01-10T11:11:10",
          "eventStop": "2023-01-11T14:28:42",
          "duration": 1637,
          "status": "Genuine",
          "associatedSiteId": 110096,
          "outfallName": "SANDOWN NO1",
          "isImpacting": true,
          "overFlowSiteId": 115453
        },
        {
          "id": 344798596,
          "eventId": 726497,
          "siteUnitNumber": 12622,
          "bathingSite": "WHITECLIFF BAY",
          "eventStart": "2023-01-10T11:11:10",
          "eventStop": "2023-01-11T14:28:42",
          "duration": 1637,
          "status": "Genuine",
          "associatedSiteId": 110096,
          "outfallName": "SANDOWN NO1",
          "isImpacting": true,
          "overFlowSiteId": 115453,
          "historicSpillsList": []
        },
        {
          "id": 344798597,
          "eventId": 726497,
          "siteUnitNumber": 12623,
          "bathingSite": "YAVERLAND",
          "eventStart": "2023-01-10T11:11:10",
          "eventStop": "2023-01-11T14:28:42",
          "duration": 1637,
          "status": "Genuine",
          "associatedSiteId": 110096,
          "outfallName": "SANDOWN NO1",
          "isImpacting": true,
          "overFlowSiteId": 115453,
          "historicSpillsList": []
        }
      ]
    },
    {
      "id": 344809708,
      "eventId": 727407,
      "siteUnitNumber": 12614,
      "bathingSite": "TOTLAND BAY",
      "eventStart": "2023-01-11T07:06:00",
      "eventStop": "2023-01-11T14:23:00",
      "duration": 437,
      "status": "Genuine",
      "associatedSiteId": 115498,
      "outfallName": "NORTON TRANSFER IOW",
      "isImpacting": true,
      "overFlowSiteId": 0,
      "historicSpillsList": [
        {
          "id": 344809708,
          "eventId": 727407,
          "siteUnitNumber": 12614,
          "bathingSite": "TOTLAND BAY",
          "eventStart": "2023-01-11T07:06:00",
          "eventStop": "2023-01-11T14:23:00",
          "duration": 437,
          "status": "Genuine",
          "associatedSiteId": 115498,
          "outfallName": "NORTON TRANSFER IOW",
          "isImpacting": true,
          "overFlowSiteId": 109524
        },
        {
          "id": 344809709,
          "eventId": 727407,
          "siteUnitNumber": 12615,
          "bathingSite": "COLWELL BAY",
          "eventStart": "2023-01-11T07:06:00",
          "eventStop": "2023-01-11T14:23:00",
          "duration": 437,
          "status": "Genuine",
          "associatedSiteId": 115498,
          "outfallName": "NORTON TRANSFER IOW",
          "isImpacting": true,
          "overFlowSiteId": 109524,
          "historicSpillsList": []
        }
      ]
    },
    {
      "id": 344770929,
      "eventId": 729475,
      "siteUnitNumber": 12616,
      "bathingSite": "GURNARD",
      "eventStart": "2023-01-11T12:50:00",
      "eventStop": "2023-01-11T13:53:00",
      "duration": 63,
      "status": "Genuine",
      "associatedSiteId": 109652,
      "outfallName": "WOODVALE TRANSFER NO1",
      "isImpacting": false,
      "overFlowSiteId": 0,
      "historicSpillsList": []
    },
    {
      "id": 344804825,
      "eventId": 853173,
      "siteUnitNumber": 12617,
      "bathingSite": "COWES",
      "eventStart": "2023-01-11T13:12:00",
      "eventStop": "2023-01-11T13:51:00",
      "duration": 39,
      "status": "Genuine",
      "associatedSiteId": 110701,
      "outfallName": "TERMINUS ROAD COWES 2",
      "isImpacting": true,
      "overFlowSiteId": 0,
      "historicSpillsList": [
        {
          "id": 344804825,
          "eventId": 853173,
          "siteUnitNumber": 12617,
          "bathingSite": "COWES",
          "eventStart": "2023-01-11T13:12:00",
          "eventStop": "2023-01-11T13:51:00",
          "duration": 39,
          "status": "Genuine",
          "associatedSiteId": 110701,
          "outfallName": "TERMINUS ROAD COWES 2",
          "isImpacting": true,
          "overFlowSiteId": 108563
        },
        {
          "id": 344804826,
          "eventId": 853173,
          "siteUnitNumber": 12616,
          "bathingSite": "GURNARD",
          "eventStart": "2023-01-11T13:12:00",
          "eventStop": "2023-01-11T13:51:00",
          "duration": 39,
          "status": "Genuine",
          "associatedSiteId": 110701,
          "outfallName": "TERMINUS ROAD COWES 2",
          "isImpacting": true,
          "overFlowSiteId": 108563,
          "historicSpillsList": []
        }
      ]
    },
    {
      "id": 344787572,
      "eventId": 727359,
      "siteUnitNumber": 12576,
      "bathingSite": "ST LEONARDS",
      "eventStart": "2023-01-11T05:54:45",
      "eventStop": "2023-01-11T13:30:00",
      "duration": 455,
      "status": "Genuine",
      "associatedSiteId": 109903,
      "outfallName": "BEXHILL & HASTINGS NO2",
      "isImpacting": true,
      "overFlowSiteId": 0,
      "historicSpillsList": [
        {
          "id": 344787572,
          "eventId": 727359,
          "siteUnitNumber": 12576,
          "bathingSite": "ST LEONARDS",
          "eventStart": "2023-01-11T05:54:45",
          "eventStop": "2023-01-11T13:30:00",
          "duration": 455,
          "status": "Genuine",
          "associatedSiteId": 109903,
          "outfallName": "BEXHILL & HASTINGS NO2",
          "isImpacting": true,
          "overFlowSiteId": 115398
        },
        {
          "id": 344787573,
          "eventId": 727359,
          "siteUnitNumber": 12577,
          "bathingSite": "BEXHILL",
          "eventStart": "2023-01-11T05:54:45",
          "eventStop": "2023-01-11T13:30:00",
          "duration": 455,
          "status": "Genuine",
          "associatedSiteId": 109903,
          "outfallName": "BEXHILL & HASTINGS NO2",
          "isImpacting": true,
          "overFlowSiteId": 115398,
          "historicSpillsList": []
        }
      ]
    },
    {
      "id": 344805099,
      "eventId": 730183,
      "siteUnitNumber": 12616,
      "bathingSite": "GURNARD",
      "eventStart": "2023-01-11T13:22:00",
      "eventStop": "2023-01-11T13:24:00",
      "duration": 2,
      "status": "Genuine",
      "associatedSiteId": 110701,
      "outfallName": "TERMINUS ROAD COWES 2",
      "isImpacting": true,
      "overFlowSiteId": 0,
      "historicSpillsList": [
        {
          "id": 344805099,
          "eventId": 730183,
          "siteUnitNumber": 12616,
          "bathingSite": "GURNARD",
          "eventStart": "2023-01-11T13:22:00",
          "eventStop": "2023-01-11T13:24:00",
          "duration": 2,
          "status": "Genuine",
          "associatedSiteId": 110701,
          "outfallName": "TERMINUS ROAD COWES 2",
          "isImpacting": true,
          "overFlowSiteId": 108562
        },
        {
          "id": 344805100,
          "eventId": 730183,
          "siteUnitNumber": 12617,
          "bathingSite": "COWES",
          "eventStart": "2023-01-11T13:22:00",
          "eventStop": "2023-01-11T13:24:00",
          "duration": 2,
          "status": "Genuine",
          "associatedSiteId": 110701,
          "outfallName": "TERMINUS ROAD COWES 2",
          "isImpacting": true,
          "overFlowSiteId": 108562,
          "historicSpillsList": []
        }
      ]
    },
    {
      "id": 344773865,
      "eventId": 728011,
      "siteUnitNumber": 12616,
      "bathingSite": "GURNARD",
      "eventStart": "2023-01-11T13:21:00",
      "eventStop": "2023-01-11T13:24:00",
      "duration": 3,
      "status": "Genuine",
      "associatedSiteId": 109700,
      "outfallName": "MARKET HILL COWES",
      "isImpacting": false,
      "overFlowSiteId": 0,
      "historicSpillsList": []
    },
    {
      "id": 344805103,
      "eventId": 727731,
      "siteUnitNumber": 12617,
      "bathingSite": "COWES",
      "eventStart": "2023-01-11T13:13:21",
      "eventStop": "2023-01-11T13:21:00",
      "duration": 7,
      "status": "Genuine",
      "associatedSiteId": 110701,
      "outfallName": "TERMINUS ROAD COWES 2",
      "isImpacting": true,
      "overFlowSiteId": 0,
      "historicSpillsList": [
        {
          "id": 344805103,
          "eventId": 727731,
          "siteUnitNumber": 12617,
          "bathingSite": "COWES",
          "eventStart": "2023-01-11T13:13:21",
          "eventStop": "2023-01-11T13:21:00",
          "duration": 7,
          "status": "Genuine",
          "associatedSiteId": 110701,
          "outfallName": "TERMINUS ROAD COWES 2",
          "isImpacting": true,
          "overFlowSiteId": 108562
        },
        {
          "id": 344805104,
          "eventId": 727731,
          "siteUnitNumber": 12616,
          "bathingSite": "GURNARD",
          "eventStart": "2023-01-11T13:13:21",
          "eventStop": "2023-01-11T13:21:00",
          "duration": 7,
          "status": "Genuine",
          "associatedSiteId": 110701,
          "outfallName": "TERMINUS ROAD COWES 2",
          "isImpacting": true,
          "overFlowSiteId": 108562,
          "historicSpillsList": []
        }
      ]
    }
  ]
}