{
  "currentPage": 339,
  "totalItems": 18701,
  "totalPages": 749,
  "items": [
    {
      "id": 343995867,
      "eventId": 730215,
      "siteUnitNumber": 12616,
      "bathingSite": "GURNARD",
      "eventStart": "2023-01-11T17:45:00",
      "eventStop": "2023-01-11T17:48:00",
      "duration": 3,
      "status": "Genuine",
      "associatedSiteId": 110701,
      "outfallName": "TERMINUS ROAD COWES 2",
      "isImpacting": true,
      "overFlowSiteId": 0,
      "historicSpillsList": [
        {
          "id": 343995867,
          "eventId": 730215,
          "siteUnitNumber": 12616,
          "bathingSite": "GURNARD",
          "eventStart": "2023-01-11T17:45:00",
          "eventStop": "2023-01-11T17:48:00",
          "duration": 3,
          "status": "Genuine",
          "associatedSiteId": 110701,
          "outfallName": "TERMINUS ROAD COWES 2",
          "isImpacting": true,
          "overFlowSiteId": 108562
        },
        {
          "id": 343995868,
          "eventId": 730215,
          "siteUnitNumber": 12617,
          "bathingSite": "COWES",
          "eventStart": "2023-01-11T17:45:00",
          "eventStop": "2023-01-11T17:48:00",
          "duration": 3,
          "status": "Genuine",
          "associatedSiteId": 110701,
          "outfallName": "TERMINUS ROAD COWES 2",
          "isImpacting": true,
          "overFlowSiteId": 108562,
          "historicSpillsList": []
        }
      ]
    },
    {
      "id": 343995869,
      "eventId": 730213,
      "siteUnitNumber": 12616,
      "bathingSite": "GURNARD",
      "eventStart": "2023-01-11T17:38:00",
      "eventStop": "2023-01-11T17:40:00",
      "duration": 2,
      "status": "Genuine",
      "associatedSiteId": 110701,
      "outfallName": "TERMINUS ROAD COWES 2",
      "isImpacting": true,
      "overFlowSiteId": 0,
      "historicSpillsList": [
        {
          "id": 343995869,
          "eventId": 730213,
          "siteUnitNumber": 12616,
          "bathingSite": "GURNARD",
          "eventStart": "2023-01-11T17:38:00",
          "eventStop": "2023-01-11T17:40:00",
          "duration": 2,
          "status": "Genuine",
          "associatedSiteId": 110701,
          "outfallName": "TERMINUS ROAD COWES 2",
          "isImpacting": true,
          "overFlowSiteId": 108562
        },
        {
          "id": 343995870,
          "eventId": 730213,
          "siteUnitNumber": 12617,
          "bathingSite": "COWES",
          "eventStart": "2023-01-11T17:38:00",
          "eventStop": "2023-01-11T17:40:00",
          "duration": 2,
          "status": "Genuine",
          "associatedSiteId": 110701,
          "outfallName": "TERMINUS ROAD COWES 2",
          "isImpacting": true,
          "overFlowSiteId": 108562,
          "historicSpillsList": []
        }
      ]
    },
    {
      "id": 343995871,
      "eventId": 730211,
      "siteUnitNumber": 12616,
      "bathingSite": "GURNARD",
      "eventStart": "2023-01-11T17:32:00",
      "eventStop": "2023-01-11T17:35:00",
      "duration": 3,
      "status": "Genuine",
      "associatedSiteId": 110701,
      "outfallName": "TERMINUS ROAD COWES 2",
      "isImpacting": true,
      "overFlowSiteId": 0,
      "historicSpillsList": [
        {
          "id": 343995871,
          "eventId": 730211,
          "siteUnitNumber": 12616,
          "bathingSite": "GURNARD",
          "eventStart": "2023-01-11T17:32:00",
          "eventStop": "2023-01-11T17:35:00",
          "duration": 3,
          "status": "Genuine",
          "associatedSiteId": 110701,
          "outfallName": "TERMINUS ROAD COWES 2",
          "isImpacting": true,
          "overFlowSiteId": 108562
        },
        {
          "id": 343995872,
          "eventId": 730211,
          "siteUnitNumber": 12617,
          "bathingSite": "COWES",
          "eventStart": "2023-01-11T17:32:00",
          "eventStop": "2023-01-11T17:35:00",
          "duration": 3,
          "status": "Genuine",
          "associatedSiteId": 110701,
          "outfallName": "TERMINUS ROAD COWES 2",
          "isImpacting": true,
          "overFlowSiteId": 108562,
          "historicSpillsList": []
        }
      ]
    },
    {
      "id": 343989317,
      "eventId": 729171,
      "siteUnitNumber": 12622,
      "bathingSite": "WHITECLIFF BAY",
      "eventStart": "2023-01-11T14:56:00",
      "eventStop": "2023-01-11T17:35:00",
      "duration": 159,
      "status": "Genuine",
      "associatedSiteId": 110096,
      "outfallName": "SANDOWN NO1",
      "isImpacting": false,
      "overFlowSiteId": 0,
      "historicSpillsList": []
    },
    {
      "id": 343995873,
      "eventId": 730197,
      "siteUnitNumber": 12616,
      "bathingSite": "GURNARD",
      "eventStart": "2023-01-11T17:26:00",
      "eventStop": "2023-01-11T17:29:00",
      "duration": 3,
      "status": "Genuine",
      "associatedSiteId": 110701,
      "outfallName": "TERMINUS ROAD COWES 2",
      "isImpacting": true,
      "overFlowSiteId": 0,
      "historicSpillsList": [
        {
          "id": 343995873,
          "eventId": 730197,
          "siteUnitNumber": 12616,
          "bathingSite": "GURNARD",
          "eventStart": "2023-01-11T17:26:00",
          "eventStop": "2023-01-11T17:29:00",
          "duration": 3,
          "status": "Genuine",
          "associatedSiteId": 110701,
          "outfallName": "TERMINUS ROAD COWES 2",
          "isImpacting": true,
          "overFlowSiteId": 108562
        },
        {
          "id": 343995874,
          "eventId": 730197,
          "siteUnitNumber": 12617,
          "bathingSite": "COWES",
          "eventStart": "2023-01-11T17:26:00",
          "eventStop": "2023-01-11T17:29:00",
          "duration": 3,
          "status": "Genuine",
          "associatedSiteId": 110701,
          "outfallName": "TERMINUS ROAD COWES 2",
          "isImpacting": true,
          "overFlowSiteId": 108562,
          "historicSpillsList": []
        }
      ]
    },
    {
      "id": 343995875,
      "eventId": 730195,
      "siteUnitNumber": 12617,
      "bathingSite": "COWES",
      "eventStart": "2023-01-11T17:22:00",
      "eventStop": "2023-01-11T17:25:00",
      "duration": 3,
      "status": "Genuine",
      "associatedSiteId": 110701,
      "outfallName": "TERMINUS ROAD COWES 2",
      "isImpacting": true,
      "overFlowSiteId": 0,
      "historicSpillsList": [
        {
          "id": 343995875,
          "eventId": 730195,
          "siteUnitNumber": 12617,
          "bathingSite": "COWES",
          "eventStart": "2023-01-11T17:22:00",
          "eventStop": "2023-01-11T17:25:00",
          "duration": 3,
          "status": "Genuine",
          "associatedSiteId": 110701,
          "outfallName": "TERMINUS ROAD COWES 2",
          "isImpacting": true,
          "overFlowSiteId": 108562
        },
        {
          "id": 343995876,
          "eventId": 730195,
          "siteUnitNumber": 12616,
          "bathingSite": "GURNARD",
          "eventStart": "2023-01-11T17:22:00",
          "eventStop": "2023-01-11T17:25:00",
          "duration": 3,
          "status": "Genuine",
          "associatedSiteId": 110701,
          "outfallName": "TERMINUS ROAD COWES 2",
          "isImpacting": true,
          "overFlowSiteId": 108562,
          "historicSpillsList": []
        }
      ]
    },
    {
      "id": 343995877,
      "eventId": 730194,
      "siteUnitNumber": 12616,
      "bathingSite": "GURNARD",
      "eventStart": "2023-01-11T17:15:00",
      "eventStop": "2023-01-11T17:18:00",
      "duration": 3,
      "status": "Genuine",
      "associatedSiteId": 110701,
      "outfallName": "TERMINUS ROAD COWES 2",
      "isImpacting": true,
      "overFlowSiteId": 0,
      "historicSpillsList": [
        {
          "id": 343995877,
          "eventId": 730194,
          "siteUnitNumber": 12616,
          "bathingSite": "GURNARD",
          "eventStart": "2023-01-11T17:15:00",
          "eventStop": "2023-01-11T17:18:00",
          "duration": 3,
          "status": "Genuine",
          "associatedSiteId": 110701,
          "outfallName": "TERMINUS ROAD COWES 2",
          "isImpacting": true,
          "overFlowSiteId": 108562
        },
        {
          "id": 343995878,
          "eventId": 730194,
          "siteUnitNumber": 12617,
          "bathingSite": "COWES",
          "eventStart": "2023-01-11T17:15:00",
          "eventStop": "2023-01-11T17:18:00",
          "duration": 3,
          "status": "Genuine",
          "associatedSiteId": 110701,
          "outfallName": "TERMINUS ROAD COWES 2",
          "isImpacting": true,
          "overFlowSiteId": 108562,
          "historicSpillsList": []
        }
      ]
    },
    {
      "id": 343995879,
      "eventId": 730185,
      "siteUnitNumber": 12616,
      "bathingSite": "GURNARD",
      "eventStart": "2023-01-11T16:25:00",
      "eventStop": "2023-01-11T17:07:00",
      "duration": 42,
      "status": "Genuine",
      "associatedSiteId": 110701,
      "outfallName": "TERMINUS ROAD COWES 2",
      "isImpacting": true,
      "overFlowSiteId": 0,
      "historicSpillsList": [
        {
          "id": 343995879,
          "eventId": 730185,
          "siteUnitNumber": 12616,
          "bathingSite": "GURNARD",
          "eventStart": "2023-01-11T16:25:00",
          "eventStop": "2023-01-11T17:07:00",
          "duration": 42,
          "status": "Genuine",
          "associatedSiteId": 110701,
          "outfallName": "TERMINUS ROAD COWES 2",
          "isImpacting": true,
          "overFlowSiteId": 108562
        },
        {
          "id": 343995880,
          "eventId": 730185,
          "siteUnitNumber": 12617,
          "bathingSite": "COWES",
          "eventStart": "2023-01-11T16:25:00",
          "eventStop": "2023-01-11T17:07:00",
          "duration": 42,
          "status": "Genuine",
          "associatedSiteId": 110701,
          "outfallName": "TERMINUS ROAD COWES 2",
          "isImpacting": true,
          "overFlowSiteId": 108562,
          "historicSpillsList": []
        }
      ]
    },
    {
      "id": 343971130,
      "eventId": 728062,
      "siteUnitNumber": 12661,
      "bathingSite": "LANGSTONE HARBOUR",
      "eventStart": "2023-01-11T16:47:48",
      "eventStop": "2023-01-11T17:05:10",
      "duration": 17,
      "status": "Genuine",
      "associatedSiteId": 109818,
      "outfallName": "KIRTLEY CLOSE DRAYTON",
      "isImpacting": true,
      "overFlowSiteId": 0,
      "historicSpillsList": [
        {
          "id": 343971130,
          "eventId": 728062,
          "siteUnitNumber": 12661,
          "bathingSite": "LANGSTONE HARBOUR",
          "eventStart": "2023-01-11T16:47:48",
          "eventStop": "2023-01-11T17:05:10",
          "duration": 17,
          "status": "Genuine",
          "associatedSiteId": 109818,
          "outfallName": "KIRTLEY CLOSE DRAYTON",
          "isImpacting": true,
          "overFlowSiteId": 108774
        }
      ]
    },
    {
      "id": 343966613,
      "eventId": 728179,
      "siteUnitNumber": 12616,
      "bathingSite": "GURNARD",
      "eventStart": "2023-01-11T16:45:29",
      "eventStop": "2023-01-11T16:55:12",
      "duration": 9,
      "status": "Genuine",
      "associatedSiteId": 109706,
      "outfallName": "HIGH STREET COWES",
      "isImpacting": false,
      "overFlowSiteId": 0,
      "historicSpillsList": []
    },
    {
      "id": 343966853,
      "eventId": 728049,
      "siteUnitNumber": 12616,
      "bathingSite": "GURNARD",
      "eventStart": "2023-01-11T16:37:00",
      "eventStop": "2023-01-11T16:53:00",
      "duration": 16,
      "status": "Genuine",
      "associatedSiteId": 109707,
      "outfallName": "MEDINA ROAD COWES",
      "isImpacting": false,
      "overFlowSiteId": 0,
      "historicSpillsList": []
    },
    {
      "id": 343965417,
      "eventId": 728031,
      "siteUnitNumber": 12616,
      "bathingSite": "GURNARD",
      "eventStart": "2023-01-11T16:40:06",
      "eventStop": "2023-01-11T16:46:27",
      "duration": 6,
      "status": "Genuine",
      "associatedSiteId": 109703,
      "outfallName": "CASTLE STREET COWES",
      "isImpacting": true,
      "overFlowSiteId": 0,
      "historicSpillsList": [
        {
          "id": 343965417,
          "eventId": 728031,
          "siteUnitNumber": 12616,
          "bathingSite": "GURNARD",
          "eventStart": "2023-01-11T16:40:06",
          "eventStop": "2023-01-11T16:46:27",
          "duration": 6,
          "status": "Genuine",
          "associatedSiteId": 109703,
          "outfallName": "CASTLE STREET COWES",
          "isImpacting": true,
          "overFlowSiteId": 108822
        },
        {
          "id": 343965418,
          "eventId": 728031,
          "siteUnitNumber": 12617,
          "bathingSite": "COWES",
          "eventStart": "2023-01-11T16:40:06",
          "eventStop": "2023-01-11T16:46:27",
          "duration": 6,
          "status": "Genuine",
          "associatedSiteId": 109703,
          "outfallName": "CASTLE STREET COWES",
          "isImpacting": true,
          "overFlowSiteId": 108822,
          "historicSpillsList": []
        }
      ]
    },
    {
      "id": 343966857,
      "eventId": 728030,
      "siteUnitNumber": 12616,
      "bathingSite": "GURNARD",
      "eventStart": "2023-01-11T16:40:00",
      "eventStop": "2023-01-11T16:45:00",
      "duration": 5,
      "status": "Genuine",
      "associatedSiteId": 109707,
      "outfallName": "MEDINA ROAD COWES",
      "isImpacting": false,
      "overFlowSiteId": 0,
      "historicSpillsList": []
    },
    {
      "id": 343992578,
      "eventId": 727391,
      "siteUnitNumber": 12619,
      "bathingSite": "SEAGROVE",
      "eventStart": "2023-01-11T06:23:00",
      "eventStop": "2023-01-11T16:29:00",
      "duration": 606,
      "status": "Genuine",
      "associatedSiteId": 110097,
      "outfallName": "SANDOWN NO2",
      "isImpacting": true,
      "overFlowSiteId": 0,
      "historicSpillsList": [
        {
          "id": 343992581,
          "eventId": 727391,
          "siteUnitNumber": 12623,
          "bathingSite": "YAVERLAND",
          "eventStart": "2023-01-11T06:23:00",
          "eventStop": "2023-01-11T16:29:00",
          "duration": 606,
          "status": "Genuine",
          "associatedSiteId": 110097,
          "outfallName": "SANDOWN NO2",
          "isImpacting": true,
          "overFlowSiteId": 115454,
          "historicSpillsList": []
        },
        {
          "id": 343992582,
          "eventId": 727391,
          "siteUnitNumber": 12624,
          "bathingSite": "SANDOWN",
          "eventStart": "2023-01-11T06:23:00",
          "eventStop": "2023-01-11T16:29:00",
          "duration": 606,
          "status": "Genuine",
          "associatedSiteId": 110097,
          "outfallName": "SANDOWN NO2",
          "isImpacting": true,
          "overFlowSiteId": 115454,
          "historicSpillsList": []
        },
        {
          "id": 343992583,
          "eventId": 727391,
          "siteUnitNumber": 12625,
          "bathingSite": "SHANKLIN",
          "eventStart": "2023-01-11T06:23:00",
          "eventStop": "2023-01-11T16:29:00",
          "duration": 606,
          "status": "Genuine",
          "associatedSiteId": 110097,
          "outfallName": "SANDOWN NO2",
          "isImpacting": true,
          "overFlowSiteId": 115454,
          "historicSpillsList": []
        }
      ]
    },
    {
      "id": 343996754,
      "eventId": 731769,
      "siteUnitNumber": 12662,
      "bathingSite": "CHICHESTER HARBOUR",
      "eventStart": "2023-01-10T06:55:00",
      "eventStop": "2023-01-11T16:28:00",
      "duration": 2013,
      "status": "Genuine",
      "associatedSiteId": 110760,
      "outfallName": "BOSHAM",
      "isImpacting": true,
      "overFlowSiteId": 0,
      "historicSpillsList": [
        {
          "id": 343996754,
          "eventId": 731769,
          "siteUnitNumber": 12662,
          "bathingSite": "CHICHESTER HARBOUR",
          "eventStart": "2023-01-10T06:55:00",
          "eventStop": "2023-01-11T16:28:00",
          "duration": 2013,
          "status": "Genuine",
          "associatedSiteId": 110760,
          "outfallName": "BOSHAM",
          "isImpacting": true,
          "overFlowSiteId": 115735
        }
      ]
    },
    {
      "id": 343995881,
      "eventId": 730184,
      "siteUnitNumber": 12616,
      "bathingSite": "GURNARD",
      "eventStart": "2023-01-11T16:15:00",
      "eventStop": "2023-01-11T16:24:00",
      "duration": 9,
      "status": "Genuine",
      "associatedSiteId": 110701,
      "outfallName": "TERMINUS ROAD COWES 2",
      "isImpacting": true,
      "overFlowSiteId": 0,
      "historicSpillsList": [
        {
          "id": 343995881,
          "eventId": 730184,
          "siteUnitNumber": 12616,
          "bathingSite": "GURNARD",
          "eventStart": "2023-01-11T16:15:00",
          "eventStop": "2023-01-11T16:24:00",
          "duration": 9,
          "status": "Genuine",
          "associatedSiteId": 110701,
          "outfallName": "TERMINUS ROAD COWES 2",
          "isImpacting": true,
          "overFlowSiteId": 108562
        },
        {
          "id": 343995882,
          "eventId": 730184,
          "siteUnitNumber": 12617,
          "bathingSite": "COWES",
          "eventStart": "2023-01-11T16:15:00",
          "eventStop": "2023-01-11T16:24:00",
          "duration": 9,
          "status": "Genuine",
          "associatedSiteId": 110701,
          "outfallName": "TERMINUS ROAD COWES 2",
          "isImpacting": true,
          "overFlowSiteId": 108562,
          "historicSpillsList": []
        }
      ]
    },
    {
      "id": 343961721,
      "eventId": 729481,
      "siteUnitNumber": 12616,
      "bathingSite": "GURNARD",
      "eventStart": "2023-01-11T16:05:00",
      "eventStop": "2023-01-11T16:11:00",
      "duration": 6,
      "status": "Genuine",
      "associatedSiteId": 109652,
      "outfallName": "WOODVALE TRANSFER NO1",
      "isImpacting": true,
      "overFlowSiteId": 0,
      "historicSpillsList": [
        {
          "id": 343961721,
          "eventId": 729481,
          "siteUnitNumber": 12616,
          "bathingSite": "GURNARD",
          "eventStart": "2023-01-11T16:05:00",
          "eventStop": "2023-01-11T16:11:00",
          "duration": 6,
          "status": "Genuine",
          "associatedSiteId": 109652,
          "outfallName": "WOODVALE TRANSFER NO1",
          "isImpacting": true,
          "overFlowSiteId": 115966
        }
      ]
    },
    {
      "id": 343995861,
      "eventId": 730334,
      "siteUnitNumber": 12616,
      "bathingSite": "GURNARD",
      "eventStart": "2023-01-11T15:41:00",
      "eventStop": "2023-01-11T16:01:00",
      "duration": 20,
      "status": "Genuine",
      "associatedSiteId": 110701,
      "outfallName": "TERMINUS ROAD COWES 2",
      "isImpacting": true,
      "overFlowSiteId": 0,
      "historicSpillsList": [
        {
          "id": 343995861,
          "eventId": 730334,
          "siteUnitNumber": 12616,
          "bathingSite": "GURNARD",
          "eventStart": "2023-01-11T15:41:00",
          "eventStop": "2023-01-11T16:01:00",
          "duration": 20,
          "status": "Genuine",
          "associatedSiteId": 110701,
          "outfallName": "TERMINUS ROAD COWES 2",
          "isImpacting": true,
          "overFlowSiteId": 108563
        },
        {
          "id": 343995862,
          "eventId": 730334,
          "siteUnitNumber": 12617,
          "bathingSite": "COWES",
          "eventStart": "2023-01-11T15:41:00",
          "eventStop": "2023-01-11T16:01:00",
          "duration": 20,
          "status": "Genuine",
          "associatedSiteId": 110701,
          "outfallName": "TERMINUS ROAD COWES 2",
          "isImpacting": true,
          "overFlowSiteId": 108563,
          "historicSpillsList": []
        }
      ]
    },
    {
      "id": 343964661,
      "eventId": 728883,
      "siteUnitNumber": 12616,
      "bathingSite": "GURNARD",
      "eventStart": "2023-01-11T15:40:00",
      "eventStop": "2023-01-11T15:49:00",
      "duration": 9,
      "status": "Genuine",
      "associatedSiteId": 109700,
      "outfallName": "MARKET HILL COWES",
      "isImpacting": false,
      "overFlowSiteId": 0,
      "historicSpillsList": []
    },
    {
      "id": 343961723,
      "eventId": 729479,
      "siteUnitNumber": 12616,
      "bathingSite": "GURNARD",
      "eventStart": "2023-01-11T15:35:00",
      "eventStop": "2023-01-11T15:41:00",
      "duration": 6,
      "status": "Genuine",
      "associatedSiteId": 109652,
      "outfallName": "WOODVALE TRANSFER NO1",
      "isImpacting": true,
      "overFlowSiteId": 0,
      "historicSpillsList": [
        {
          "id": 343961723,
          "eventId": 729479,
          "siteUnitNumber": 12616,
          "bathingSite": "GURNARD",
          "eventStart": "2023-01-11T15:35:00",
          "eventStop": "2023-01-11T15:41:00",
          "duration": 6,
          "status": "Genuine",
          "associatedSiteId": 109652,
          "outfallName": "WOODVALE TRANSFER NO1",
          "isImpacting": true,
          "overFlowSiteId": 115966
        }
      ]
    },
    {
      "id": 343974112,
      "eventId": 727764,
      "siteUnitNumber": 12662,
      "bathingSite": "CHICHESTER HARBOUR",
      "eventStart": "2023-01-11T14:01:14",
      "eventStop": "2023-01-11T15:15:00",
      "duration": 73,
      "status": "Genuine",
      "associatedSiteId": 109836,
      "outfallName": "CHICHESTER",
      "isImpacting": true,
      "overFlowSiteId": 0,
      "historicSpillsList": [
        {
          "id": 343974112,
          "eventId": 727764,
          "siteUnitNumber": 12662,
          "bathingSite": "CHICHESTER HARBOUR",
          "eventStart": "2023-01-11T14:01:14",
          "eventStop": "2023-01-11T15:15:00",
          "duration": 73,
          "status": "Genuine",
          "associatedSiteId": 109836,
          "outfallName": "CHICHESTER",
          "isImpacting": true,
          "overFlowSiteId": 115401
        }
      ]
    },
    {
      "id": 343984031,
      "eventId": 727756,
      "siteUnitNumber": 12594,
      "bathingSite": "BOGNOR REGIS EAST",
      "eventStart": "2023-01-11T14:11:00",
      "eventStop": "2023-01-11T15:08:00",
      "duration": 57,
      "status": "Genuine",
      "associatedSiteId": 109959,
      "outfallName": "WEST PARK BOGNOR REGIS",
      "isImpacting": false,
      "overFlowSiteId": 0,
      "historicSpillsList": []
    },
    {
      "id": 343961725,
      "eventId": 729476,
      "siteUnitNumber": 12616,
      "bathingSite": "GURNARD",
      "eventStart": "2023-01-11T14:40:00",
      "eventStop": "2023-01-11T14:45:00",
      "duration": 5,
      "status": "Genuine",
      "associatedSiteId": 109652,
      "outfallName": "WOODVALE TRANSFER NO1",
      "isImpacting": true,
      "overFlowSiteId": 0,
      "historicSpillsList": [
        {
          "id": 343961725,
          "eventId": 729476,
          "siteUnitNumber": 12616,
          "bathingSite": "GURNARD",
          "eventStart": "2023-01-11T14:40:00",
          "eventStop": "2023-01-11T14:45:00",
          "duration": 5,
          "status": "Genuine",
          "associatedSiteId": 109652,
          "outfallName": "WOODVALE TRANSFER NO1",
          "isImpacting": true,
          "overFlowSiteId": 115966
        }
      ]
    },
    {
      "id": 343989374,
      "eventId": 726497,
      "siteUnitNumber": 12624,
      "bathingSite": "SANDOWN",
      "eventStart": "2023-01-10T11:11:10",
      "eventStop": "2023-01-11T14:28:42",
      "duration": 1637,
      "status": "Genuine",
      "associatedSiteId": 110096,
      "outfallName": "SANDOWN NO1",
      "isImpacting": true,
      "overFlowSiteId": 0,
      "historicSpillsList": [
        {
          "id": 343989374,
          "eventId": 726497,
          "siteUnitNumber": 12624,
          "bathingSite": "SANDOWN",
          "eventStart": "2023-01-10T11:11:10",
          "eventStop": "2023-01-11T14:28:42",
          "duration": 1637,
          "status": "Genuine",
          "associatedSiteId": 110096,
          "outfallName": "SANDOWN NO1",
          "isImpacting": true,
          "overFlowSiteId": 115453
        },
        {
          "id": 343989380,
          "eventId": 726497,
          "siteUnitNumber": 12622,
          "bathingSite": "WHITECLIFF BAY",
          "eventStart": "2023-01-10T11:11:10",
          "eventStop": "2023-01-11T14:28:42",
          "duration": 1637,
          "status": "Genuine",
          "associatedSiteId": 110096,
          "outfallName": "SANDOWN NO1",
          "isImpacting": true,
          "overFlowSiteId": 115453,
          "historicSpillsList": []
        },
        {
          "id": 343989381,
          "eventId": 726497,
          "siteUnitNumber": 12623,
          "bathingSite": "YAVERLAND",
          "eventStart": "2023-01-10T11:11:10",
          "eventStop": "2023-01-11T14:28:42",
          "duration": 1637,
          "status": "Genuine",
          "associatedSiteId": 110096,
          "outfallName": "SANDOWN NO1",
          "isImpacting": true,
          "overFlowSiteId": 115453,
          "historicSpillsList": []
        }
      ]
    },
    {
      "id": 344000492,
      "eventId": 727407,
      "siteUnitNumber": 12614,
      "bathingSite": "TOTLAND BAY",
      "eventStart": "2023-01-11T07:06:00",
      "eventStop": "2023-01-11T14:23:00",
      "duration": 437,
      "status": "Genuine",
      "associatedSiteId": 115498,
      "outfallName": "NORTON TRANSFER IOW",
      "isImpacting": true,
      "overFlowSiteId": 0,
      "historicSpillsList": [
        {
          "id": 344000492,
          "eventId": 727407,
          "siteUnitNumber": 12614,
          "bathingSite": "TOTLAND BAY",
          "eventStart": "2023-01-11T07:06:00",
          "eventStop": "2023-01-11T14:23:00",
          "duration": 437,
          "status": "Genuine",
          "associatedSiteId": 115498,
          "outfallName": "NORTON TRANSFER IOW",
          "isImpacting": true,
          "overFlowSiteId": 109524
        },
        {
          "id": 344000493,
          "eventId": 727407,
          "siteUnitNumber": 12615,
          "bathingSite": "COLWELL BAY",
          "eventStart": "2023-01-11T07:06:00",
          "eventStop": "2023-01-11T14:23:00",
          "duration": 437,
          "status": "Genuine",
          "associatedSiteId": 115498,
          "outfallName": "NORTON TRANSFER IOW",
          "isImpacting": true,
          "overFlowSiteId": 109524,
          "historicSpillsList": []
        }
      ]
    }
  ]
}