{
  "currentPage": 418,
  "totalItems": 18701,
  "totalPages": 749,
  "items": [
    {
      "id": 343971780,
      "eventId": 677823,
      "siteUnitNumber": 12604,
      "bathingSite": "SOUTHSEA EAST",
      "eventStart": "2022-11-23T07:38:00",
      "eventStop": "2022-11-23T09:34:00",
      "duration": 116,
      "status": "Genuine",
      "associatedSiteId": 109822,
      "outfallName": "PIER ROAD SOUTHSEA",
      "isImpacting": true,
      "overFlowSiteId": 0,
      "historicSpillsList": [
        {
          "id": 343971780,
          "eventId": 677823,
          "siteUnitNumber": 12604,
          "bathingSite": "SOUTHSEA EAST",
          "eventStart": "2022-11-23T07:38:00",
          "eventStop": "2022-11-23T09:34:00",
          "duration": 116,
          "status": "Genuine",
          "associatedSiteId": 109822,
          "outfallName": "PIER ROAD SOUTHSEA",
          "isImpacting": true,
          "overFlowSiteId": 108469
        },
        {
          "id": 343971781,
          "eventId": 677823,
          "siteUnitNumber": 12605,
          "bathingSite": "STOKES BAY",
          "eventStart": "2022-11-23T07:38:00",
          "eventStop": "2022-11-23T09:34:00",
          "duration": 116,
          "status": "Genuine",
          "associatedSiteId": 109822,
          "outfallName": "PIER ROAD SOUTHSEA",
          "isImpacting": true,
          "overFlowSiteId": 108469,
          "historicSpillsList": []
        }
      ]
    },
    {
      "id": 343970062,
      "eventId": 675784,
      "siteUnitNumber": 12618,
      "bathingSite": "RYDE",
      "eventStart": "2022-11-21T11:04:00",
      "eventStop": "2022-11-23T09:24:00",
      "duration": 2780,
      "status": "Genuine",
      "associatedSiteId": 109778,
      "outfallName": "PRINCE CONSORT RYDE NEW",
      "isImpacting": true,
      "overFlowSiteId": 0,
      "historicSpillsList": [
        {
          "id": 343970062,
          "eventId": 675784,
          "siteUnitNumber": 12618,
          "bathingSite": "RYDE",
          "eventStart": "2022-11-21T11:04:00",
          "eventStop": "2022-11-23T09:24:00",
          "duration": 2780,
          "status": "Genuine",
          "associatedSiteId": 109778,
          "outfallName": "PRINCE CONSORT RYDE NEW",
          "isImpacting": true,
          "overFlowSiteId": 108043
        }
      ]
    },
    {
      "id": 343986036,
      "eventId": 677832,
      "siteUnitNumber": 12591,
      "bathingSite": "LITTLEHAMPTON",
      "eventStart": "2022-11-23T07:34:00",
      "eventStop": "2022-11-23T09:20:00",
      "duration": 106,
      "status": "Genuine",
      "associatedSiteId": 109968,
      "outfallName": "FORD ROAD ARUNDEL",
      "isImpacting": true,
      "overFlowSiteId": 0,
      "historicSpillsList": [
        {
          "id": 343986036,
          "eventId": 677832,
          "siteUnitNumber": 12591,
          "bathingSite": "LITTLEHAMPTON",
          "eventStart": "2022-11-23T07:34:00",
          "eventStop": "2022-11-23T09:20:00",
          "duration": 106,
          "status": "Genuine",
          "associatedSiteId": 109968,
          "outfallName": "FORD ROAD ARUNDEL",
          "isImpacting": true,
          "overFlowSiteId": 108002
        }
      ]
    },
    {
      "id": 343995999,
      "eventId": 677744,
      "siteUnitNumber": 12617,
      "bathingSite": "COWES",
      "eventStart": "2022-11-23T06:13:00",
      "eventStop": "2022-11-23T08:58:00",
      "duration": 165,
      "status": "Genuine",
      "associatedSiteId": 110701,
      "outfallName": "TERMINUS ROAD COWES 2",
      "isImpacting": true,
      "overFlowSiteId": 0,
      "historicSpillsList": [
        {
          "id": 343995999,
          "eventId": 677744,
          "siteUnitNumber": 12617,
          "bathingSite": "COWES",
          "eventStart": "2022-11-23T06:13:00",
          "eventStop": "2022-11-23T08:58:00",
          "duration": 165,
          "status": "Genuine",
          "associatedSiteId": 110701,
          "outfallName": "TERMINUS ROAD COWES 2",
          "isImpacting": true,
          "overFlowSiteId": 108563
        },
        {
          "id": 343996000,
          "eventId": 677744,
          "siteUnitNumber": 12616,
          "bathingSite": "GURNARD",
          "eventStart": "2022-11-23T06:13:00",
          "eventStop": "2022-11-23T08:58:00",
          "duration": 165,
          "status": "Genuine",
          "associatedSiteId": 110701,
          "outfallName": "TERMINUS ROAD COWES 2",
          "isImpacting": true,
          "overFlowSiteId": 108563,
          "historicSpillsList": []
        }
      ]
    },
    {
      "id": 343965739,
      "eventId": 677797,
      "siteUnitNumber": 12616,
      "bathingSite": "GURNARD",
      "eventStart": "2022-11-23T07:08:00",
      "eventStop": "2022-11-23T08:08:00",
      "duration": 60,
      "status": "Genuine",
      "associatedSiteId": 109704,
      "outfallName": "EGYPT POINT COWES",
      "isImpacting": true,
      "overFlowSiteId": 0,
      "historicSpillsList": [
        {
          "id": 343965740,
          "eventId": 677797,
          "siteUnitNumber": 12617,
          "bathingSite": "COWES",
          "eventStart": "2022-11-23T07:08:00",
          "eventStop": "2022-11-23T08:08:00",
          "duration": 60,
          "status": "Genuine",
          "associatedSiteId": 109704,
          "outfallName": "EGYPT POINT COWES",
          "isImpacting": true,
          "overFlowSiteId": 116213,
          "historicSpillsList": []
        }
      ]
    },
    {
      "id": 343964791,
      "eventId": 677868,
      "siteUnitNumber": 12616,
      "bathingSite": "GURNARD",
      "eventStart": "2022-11-23T07:37:00",
      "eventStop": "2022-11-23T07:53:00",
      "duration": 16,
      "status": "Genuine",
      "associatedSiteId": 109700,
      "outfallName": "MARKET HILL COWES",
      "isImpacting": false,
      "overFlowSiteId": 0,
      "historicSpillsList": []
    },
    {
      "id": 343995997,
      "eventId": 677795,
      "siteUnitNumber": 12616,
      "bathingSite": "GURNARD",
      "eventStart": "2022-11-23T06:15:00",
      "eventStop": "2022-11-23T07:53:00",
      "duration": 98,
      "status": "Genuine",
      "associatedSiteId": 110701,
      "outfallName": "TERMINUS ROAD COWES 2",
      "isImpacting": true,
      "overFlowSiteId": 0,
      "historicSpillsList": [
        {
          "id": 343995997,
          "eventId": 677795,
          "siteUnitNumber": 12616,
          "bathingSite": "GURNARD",
          "eventStart": "2022-11-23T06:15:00",
          "eventStop": "2022-11-23T07:53:00",
          "duration": 98,
          "status": "Genuine",
          "associatedSiteId": 110701,
          "outfallName": "TERMINUS ROAD COWES 2",
          "isImpacting": true,
          "overFlowSiteId": 108562
        },
        {
          "id": 343995998,
          "eventId": 677795,
          "siteUnitNumber": 12617,
          "bathingSite": "COWES",
          "eventStart": "2022-11-23T06:15:00",
          "eventStop": "2022-11-23T07:53:00",
          "duration": 98,
          "status": "Genuine",
          "associatedSiteId": 110701,
          "outfallName": "TERMINUS ROAD COWES 2",
          "isImpacting": true,
          "overFlowSiteId": 108562,
          "historicSpillsList": []
        }
      ]
    },
    {
      "id": 343989603,
      "eventId": 677936,
      "siteUnitNumber": 12622,
      "bathingSite": "WHITECLIFF BAY",
      "eventStart": "2022-11-23T06:27:00",
      "eventStop": "2022-11-23T07:47:00",
      "duration": 80,
      "status": "Genuine",
      "associatedSiteId": 110096,
      "outfallName": "SANDOWN NO1",
      "isImpacting": true,
      "overFlowSiteId": 0,
      "historicSpillsList": [
        {
          "id": 343989603,
          "eventId": 677936,
          "siteUnitNumber": 12622,
          "bathingSite": "WHITECLIFF BAY",
          "eventStart": "2022-11-23T06:27:00",
          "eventStop": "2022-11-23T07:47:00",
          "duration": 80,
          "status": "Genuine",
          "associatedSiteId": 110096,
          "outfallName": "SANDOWN NO1",
          "isImpacting": true,
          "overFlowSiteId": 115453
        },
        {
          "id": 343989604,
          "eventId": 677936,
          "siteUnitNumber": 12623,
          "bathingSite": "YAVERLAND",
          "eventStart": "2022-11-23T06:27:00",
          "eventStop": "2022-11-23T07:47:00",
          "duration": 80,
          "status": "Genuine",
          "associatedSiteId": 110096,
          "outfallName": "SANDOWN NO1",
          "isImpacting": true,
          "overFlowSiteId": 115453,
          "historicSpillsList": []
        },
        {
          "id": 343989605,
          "eventId": 677936,
          "siteUnitNumber": 12624,
          "bathingSite": "SANDOWN",
          "eventStart": "2022-11-23T06:27:00",
          "eventStop": "2022-11-23T07:47:00",
          "duration": 80,
          "status": "Genuine",
          "associatedSiteId": 110096,
          "outfallName": "SANDOWN NO1",
          "isImpacting": true,
          "overFlowSiteId": 115453,
          "historicSpillsList": []
        }
      ]
    },
    {
      "id": 343964789,
      "eventId": 678678,
      "siteUnitNumber": 12616,
      "bathingSite": "GURNARD",
      "eventStart": "2022-11-23T06:18:00",
      "eventStop": "2022-11-23T07:11:00",
      "duration": 53,
      "status": "Genuine",
      "associatedSiteId": 109700,
      "outfallName": "MARKET HILL COWES",
      "isImpacting": false,
      "overFlowSiteId": 0,
      "historicSpillsList": []
    },
    {
      "id": 343989602,
      "eventId": 677935,
      "siteUnitNumber": 12624,
      "bathingSite": "SANDOWN",
      "eventStart": "2022-11-22T21:31:00",
      "eventStop": "2022-11-23T05:56:00",
      "duration": 505,
      "status": "Genuine",
      "associatedSiteId": 110096,
      "outfallName": "SANDOWN NO1",
      "isImpacting": true,
      "overFlowSiteId": 0,
      "historicSpillsList": [
        {
          "id": 343989602,
          "eventId": 677935,
          "siteUnitNumber": 12624,
          "bathingSite": "SANDOWN",
          "eventStart": "2022-11-22T21:31:00",
          "eventStop": "2022-11-23T05:56:00",
          "duration": 505,
          "status": "Genuine",
          "associatedSiteId": 110096,
          "outfallName": "SANDOWN NO1",
          "isImpacting": true,
          "overFlowSiteId": 115453
        },
        {
          "id": 343989608,
          "eventId": 677935,
          "siteUnitNumber": 12622,
          "bathingSite": "WHITECLIFF BAY",
          "eventStart": "2022-11-22T21:31:00",
          "eventStop": "2022-11-23T05:56:00",
          "duration": 505,
          "status": "Genuine",
          "associatedSiteId": 110096,
          "outfallName": "SANDOWN NO1",
          "isImpacting": true,
          "overFlowSiteId": 115453,
          "historicSpillsList": []
        },
        {
          "id": 343989609,
          "eventId": 677935,
          "siteUnitNumber": 12623,
          "bathingSite": "YAVERLAND",
          "eventStart": "2022-11-22T21:31:00",
          "eventStop": "2022-11-23T05:56:00",
          "duration": 505,
          "status": "Genuine",
          "associatedSiteId": 110096,
          "outfallName": "SANDOWN NO1",
          "isImpacting": true,
          "overFlowSiteId": 115453,
          "historicSpillsList": []
        }
      ]
    },
    {
      "id": 343993499,
      "eventId": 677628,
      "siteUnitNumber": 12624,
      "bathingSite": "SANDOWN",
      "eventStart": "2022-11-22T21:34:00",
      "eventStop": "2022-11-23T05:35:00",
      "duration": 481,
      "status": "Genuine",
      "associatedSiteId": 110097,
      "outfallName": "SANDOWN NO2",
      "isImpacting": true,
      "overFlowSiteId": 0,
      "historicSpillsList": [
        {
          "id": 343993499,
          "eventId": 677628,
          "siteUnitNumber": 12624,
          "bathingSite": "SANDOWN",
          "eventStart": "2022-11-22T21:34:00",
          "eventStop": "2022-11-23T05:35:00",
          "duration": 481,
          "status": "Genuine",
          "associatedSiteId": 110097,
          "outfallName": "SANDOWN NO2",
          "isImpacting": true,
          "overFlowSiteId": 115454
        },
        {
          "id": 343993500,
          "eventId": 677628,
          "siteUnitNumber": 12625,
          "bathingSite": "SHANKLIN",
          "eventStart": "2022-11-22T21:34:00",
          "eventStop": "2022-11-23T05:35:00",
          "duration": 481,
          "status": "Genuine",
          "associatedSiteId": 110097,
          "outfallName": "SANDOWN NO2",
          "isImpacting": true,
          "overFlowSiteId": 115454,
          "historicSpillsList": []
        },
        {
          "id": 343993508,
          "eventId": 677628,
          "siteUnitNumber": 12623,
          "bathingSite": "YAVERLAND",
          "eventStart": "2022-11-22T21:34:00",
          "eventStop": "2022-11-23T05:35:00",
          "duration": 481,
          "status": "Genuine",
          "associatedSiteId": 110097,
          "outfallName": "SANDOWN NO2",
          "isImpacting": true,
          "overFlowSiteId": 115454,
          "historicSpillsList": []
        }
      ]
    },
    {
      "id": 343967602,
      "eventId": 675611,
      "siteUnitNumber": 12606,
      "bathingSite": "LEE-ON-SOLENT",
      "eventStart": "2022-11-21T10:30:00",
      "eventStop": "2022-11-23T05:01:00",
      "duration": 2551,
      "status": "Genuine",
      "associatedSiteId": 109732,
      "outfallName": "PEEL COMMON",
      "isImpacting": true,
      "overFlowSiteId": 0,
      "historicSpillsList": [
        {
          "id": 343967602,
          "eventId": 675611,
          "siteUnitNumber": 12606,
          "bathingSite": "LEE-ON-SOLENT",
          "eventStart": "2022-11-21T10:30:00",
          "eventStop": "2022-11-23T05:01:00",
          "duration": 2551,
          "status": "Genuine",
          "associatedSiteId": 109732,
          "outfallName": "PEEL COMMON",
          "isImpacting": true,
          "overFlowSiteId": 115425
        },
        {
          "id": 343967603,
          "eventId": 675611,
          "siteUnitNumber": 12607,
          "bathingSite": "HILLHEAD",
          "eventStart": "2022-11-21T10:30:00",
          "eventStop": "2022-11-23T05:01:00",
          "duration": 2551,
          "status": "Genuine",
          "associatedSiteId": 109732,
          "outfallName": "PEEL COMMON",
          "isImpacting": true,
          "overFlowSiteId": 115425,
          "historicSpillsList": []
        },
        {
          "id": 343967605,
          "eventId": 675611,
          "siteUnitNumber": 12604,
          "bathingSite": "SOUTHSEA EAST",
          "eventStart": "2022-11-21T10:30:00",
          "eventStop": "2022-11-23T05:01:00",
          "duration": 2551,
          "status": "Genuine",
          "associatedSiteId": 109732,
          "outfallName": "PEEL COMMON",
          "isImpacting": true,
          "overFlowSiteId": 115425,
          "historicSpillsList": []
        },
        {
          "id": 343967606,
          "eventId": 675611,
          "siteUnitNumber": 12605,
          "bathingSite": "STOKES BAY",
          "eventStart": "2022-11-21T10:30:00",
          "eventStop": "2022-11-23T05:01:00",
          "duration": 2551,
          "status": "Genuine",
          "associatedSiteId": 109732,
          "outfallName": "PEEL COMMON",
          "isImpacting": true,
          "overFlowSiteId": 115425,
          "historicSpillsList": []
        }
      ]
    },
    {
      "id": 343996773,
      "eventId": 681200,
      "siteUnitNumber": 12662,
      "bathingSite": "CHICHESTER HARBOUR",
      "eventStart": "2022-11-21T09:25:00",
      "eventStop": "2022-11-23T03:03:00",
      "duration": 2498,
      "status": "Genuine",
      "associatedSiteId": 110760,
      "outfallName": "BOSHAM",
      "isImpacting": true,
      "overFlowSiteId": 0,
      "historicSpillsList": [
        {
          "id": 343996773,
          "eventId": 681200,
          "siteUnitNumber": 12662,
          "bathingSite": "CHICHESTER HARBOUR",
          "eventStart": "2022-11-21T09:25:00",
          "eventStop": "2022-11-23T03:03:00",
          "duration": 2498,
          "status": "Genuine",
          "associatedSiteId": 110760,
          "outfallName": "BOSHAM",
          "isImpacting": true,
          "overFlowSiteId": 115735
        }
      ]
    },
    {
      "id": 343997189,
      "eventId": 677640,
      "siteUnitNumber": 12582,
      "bathingSite": "SEAFORD",
      "eventStart": "2022-11-23T01:54:49",
      "eventStop": "2022-11-23T02:37:53",
      "duration": 43,
      "status": "Genuine",
      "associatedSiteId": 110920,
      "outfallName": "NEWHAVEN",
      "isImpacting": false,
      "overFlowSiteId": 0,
      "historicSpillsList": []
    },
    {
      "id": 343966109,
      "eventId": 675599,
      "siteUnitNumber": 12616,
      "bathingSite": "GURNARD",
      "eventStart": "2022-11-21T10:27:01",
      "eventStop": "2022-11-23T01:32:16",
      "duration": 2345,
      "status": "Genuine",
      "associatedSiteId": 109705,
      "outfallName": "SPRINGHILL COWES TRANSFER",
      "isImpacting": true,
      "overFlowSiteId": 0,
      "historicSpillsList": [
        {
          "id": 343966110,
          "eventId": 675599,
          "siteUnitNumber": 12617,
          "bathingSite": "COWES",
          "eventStart": "2022-11-21T10:27:01",
          "eventStop": "2022-11-23T01:32:16",
          "duration": 2345,
          "status": "Genuine",
          "associatedSiteId": 109705,
          "outfallName": "SPRINGHILL COWES TRANSFER",
          "isImpacting": true,
          "overFlowSiteId": 108943,
          "historicSpillsList": []
        }
      ]
    },
    {
      "id": 343970875,
      "eventId": 675585,
      "siteUnitNumber": 12596,
      "bathingSite": "PAGHAM",
      "eventStart": "2022-11-21T10:12:17",
      "eventStop": "2022-11-23T01:12:00",
      "duration": 2339,
      "status": "Genuine",
      "associatedSiteId": 109791,
      "outfallName": "SIDLESHAM",
      "isImpacting": true,
      "overFlowSiteId": 0,
      "historicSpillsList": [
        {
          "id": 343970875,
          "eventId": 675585,
          "siteUnitNumber": 12596,
          "bathingSite": "PAGHAM",
          "eventStart": "2022-11-21T10:12:17",
          "eventStop": "2022-11-23T01:12:00",
          "duration": 2339,
          "status": "Genuine",
          "associatedSiteId": 109791,
          "outfallName": "SIDLESHAM",
          "isImpacting": true,
          "overFlowSiteId": 115807
        }
      ]
    },
    {
      "id": 343985531,
      "eventId": 677865,
      "siteUnitNumber": 12591,
      "bathingSite": "LITTLEHAMPTON",
      "eventStart": "2022-11-22T11:53:00",
      "eventStop": "2022-11-23T01:01:00",
      "duration": 788,
      "status": "Genuine",
      "associatedSiteId": 109965,
      "outfallName": "SEA ROAD LITTLEHAMPTON",
      "isImpacting": false,
      "overFlowSiteId": 0,
      "historicSpillsList": []
    },
    {
      "id": 343968513,
      "eventId": 678711,
      "siteUnitNumber": 12661,
      "bathingSite": "LANGSTONE HARBOUR",
      "eventStart": "2022-11-21T11:20:00",
      "eventStop": "2022-11-23T00:41:00",
      "duration": 2241,
      "status": "Genuine",
      "associatedSiteId": 109773,
      "outfallName": "BUDDS FARM HAVANT NO2",
      "isImpacting": true,
      "overFlowSiteId": 0,
      "historicSpillsList": [
        {
          "id": 343968513,
          "eventId": 678711,
          "siteUnitNumber": 12661,
          "bathingSite": "LANGSTONE HARBOUR",
          "eventStart": "2022-11-21T11:20:00",
          "eventStop": "2022-11-23T00:41:00",
          "duration": 2241,
          "status": "Genuine",
          "associatedSiteId": 109773,
          "outfallName": "BUDDS FARM HAVANT NO2",
          "isImpacting": true,
          "overFlowSiteId": 115936
        }
      ]
    },
    {
      "id": 343962175,
      "eventId": 677311,
      "siteUnitNumber": 12616,
      "bathingSite": "GURNARD",
      "eventStart": "2022-11-22T16:30:00",
      "eventStop": "2022-11-23T00:09:00",
      "duration": 459,
      "status": "Genuine",
      "associatedSiteId": 109652,
      "outfallName": "WOODVALE TRANSFER NO1",
      "isImpacting": true,
      "overFlowSiteId": 0,
      "historicSpillsList": [
        {
          "id": 343962175,
          "eventId": 677311,
          "siteUnitNumber": 12616,
          "bathingSite": "GURNARD",
          "eventStart": "2022-11-22T16:30:00",
          "eventStop": "2022-11-23T00:09:00",
          "duration": 459,
          "status": "Genuine",
          "associatedSiteId": 109652,
          "outfallName": "WOODVALE TRANSFER NO1",
          "isImpacting": true,
          "overFlowSiteId": 115966
        },
        {
          "id": 343962176,
          "eventId": 677311,
          "siteUnitNumber": 12617,
          "bathingSite": "COWES",
          "eventStart": "2022-11-22T16:30:00",
          "eventStop": "2022-11-23T00:09:00",
          "duration": 459,
          "status": "Genuine",
          "associatedSiteId": 109652,
          "outfallName": "WOODVALE TRANSFER NO1",
          "isImpacting": true,
          "overFlowSiteId": 115966,
          "historicSpillsList": []
        }
      ]
    },
    {
      "id": 343986035,
      "eventId": 677560,
      "siteUnitNumber": 12591,
      "bathingSite": "LITTLEHAMPTON",
      "eventStart": "2022-11-22T23:22:00",
      "eventStop": "2022-11-22T23:59:00",
      "duration": 37,
      "status": "Genuine",
      "associatedSiteId": 109968,
      "outfallName": "FORD ROAD ARUNDEL",
      "isImpacting": false,
      "overFlowSiteId": 0,
      "historicSpillsList": []
    },
    {
      "id": 344000590,
      "eventId": 675795,
      "siteUnitNumber": 12614,
      "bathingSite": "TOTLAND BAY",
      "eventStart": "2022-11-21T10:15:00",
      "eventStop": "2022-11-22T22:39:00",
      "duration": 2184,
      "status": "Genuine",
      "associatedSiteId": 115498,
      "outfallName": "NORTON TRANSFER IOW",
      "isImpacting": true,
      "overFlowSiteId": 0,
      "historicSpillsList": [
        {
          "id": 344000590,
          "eventId": 675795,
          "siteUnitNumber": 12614,
          "bathingSite": "TOTLAND BAY",
          "eventStart": "2022-11-21T10:15:00",
          "eventStop": "2022-11-22T22:39:00",
          "duration": 2184,
          "status": "Genuine",
          "associatedSiteId": 115498,
          "outfallName": "NORTON TRANSFER IOW",
          "isImpacting": true,
          "overFlowSiteId": 108544
        },
        {
          "id": 344000591,
          "eventId": 675795,
          "siteUnitNumber": 12615,
          "bathingSite": "COLWELL BAY",
          "eventStart": "2022-11-21T10:15:00",
          "eventStop": "2022-11-22T22:39:00",
          "duration": 2184,
          "status": "Genuine",
          "associatedSiteId": 115498,
          "outfallName": "NORTON TRANSFER IOW",
          "isImpacting": true,
          "overFlowSiteId": 108544,
          "historicSpillsList": []
        }
      ]
    },
    {
      "id": 343993509,
      "eventId": 677511,
      "siteUnitNumber": 12619,
      "bathingSite": "SEAGROVE",
      "eventStart": "2022-11-22T15:20:00",
      "eventStop": "2022-11-22T21:16:00",
      "duration": 356,
      "status": "Genuine",
      "associatedSiteId": 110097,
      "outfallName": "SANDOWN NO2",
      "isImpacting": true,
      "overFlowSiteId": 0,
      "historicSpillsList": [
        {
          "id": 343993512,
          "eventId": 677511,
          "siteUnitNumber": 12623,
          "bathingSite": "YAVERLAND",
          "eventStart": "2022-11-22T15:20:00",
          "eventStop": "2022-11-22T21:16:00",
          "duration": 356,
          "status": "Genuine",
          "associatedSiteId": 110097,
          "outfallName": "SANDOWN NO2",
          "isImpacting": true,
          "overFlowSiteId": 115454,
          "historicSpillsList": []
        },
        {
          "id": 343993513,
          "eventId": 677511,
          "siteUnitNumber": 12624,
          "bathingSite": "SANDOWN",
          "eventStart": "2022-11-22T15:20:00",
          "eventStop": "2022-11-22T21:16:00",
          "duration": 356,
          "status": "Genuine",
          "associatedSiteId": 110097,
          "outfallName": "SANDOWN NO2",
          "isImpacting": true,
          "overFlowSiteId": 115454,
          "historicSpillsList": []
        },
        {
          "id": 343993504,
          "eventId": 677511,
          "siteUnitNumber": 12625,
          "bathingSite": "SHANKLIN",
          "eventStart": "2022-11-22T15:20:00",
          "eventStop": "2022-11-22T21:16:00",
          "duration": 356,
          "status": "Genuine",
          "associatedSiteId": 110097,
          "outfallName": "SANDOWN NO2",
          "isImpacting": true,
          "overFlowSiteId": 115454,
          "historicSpillsList": []
        }
      ]
    },
    {
      "id": 343989613,
      "eventId": 677934,
      "siteUnitNumber": 12622,
      "bathingSite": "WHITECLIFF BAY",
      "eventStart": "2022-11-22T16:10:00",
      "eventStop": "2022-11-22T21:09:00",
      "duration": 299,
      "status": "Genuine",
      "associatedSiteId": 110096,
      "outfallName": "SANDOWN NO1",
      "isImpacting": true,
      "overFlowSiteId": 0,
      "historicSpillsList": [
        {
          "id": 343989613,
          "eventId": 677934,
          "siteUnitNumber": 12622,
          "bathingSite": "WHITECLIFF BAY",
          "eventStart": "2022-11-22T16:10:00",
          "eventStop": "2022-11-22T21:09:00",
          "duration": 299,
          "status": "Genuine",
          "associatedSiteId": 110096,
          "outfallName": "SANDOWN NO1",
          "isImpacting": true,
          "overFlowSiteId": 115453
        },
        {
          "id": 343989606,
          "eventId": 677934,
          "siteUnitNumber": 12623,
          "bathingSite": "YAVERLAND",
          "eventStart": "2022-11-22T16:10:00",
          "eventStop": "2022-11-22T21:09:00",
          "duration": 299,
          "status": "Genuine",
          "associatedSiteId": 110096,
          "outfallName": "SANDOWN NO1",
          "isImpacting": true,
          "overFlowSiteId": 115453,
          "historicSpillsList": []
        },
        {
          "id": 343989607,
          "eventId": 677934,
          "siteUnitNumber": 12624,
          "bathingSite": "SANDOWN",
          "eventStart": "2022-11-22T16:10:00",
          "eventStop": "2022-11-22T21:09:00",
          "duration": 299,
          "status": "Genuine",
          "associatedSiteId": 110096,
          "outfallName": "SANDOWN NO1",
          "isImpacting": true,
          "overFlowSiteId": 115453,
          "historicSpillsList": []
        }
      ]
    },
    {
      "id": 344000592,
      "eventId": 675581,
      "siteUnitNumber": 12615,
      "bathingSite": "COLWELL BAY",
      "eventStart": "2022-11-21T10:08:00",
      "eventStop": "2022-11-22T20:28:00",
      "duration": 2060,
      "status": "Genuine",
      "associatedSiteId": 115498,
      "outfallName": "NORTON TRANSFER IOW",
      "isImpacting": true,
      "overFlowSiteId": 0,
      "historicSpillsList": [
        {
          "id": 344000592,
          "eventId": 675581,
          "siteUnitNumber": 12615,
          "bathingSite": "COLWELL BAY",
          "eventStart": "2022-11-21T10:08:00",
          "eventStop": "2022-11-22T20:28:00",
          "duration": 2060,
          "status": "Genuine",
          "associatedSiteId": 115498,
          "outfallName": "NORTON TRANSFER IOW",
          "isImpacting": true,
          "overFlowSiteId": 109524
        },
        {
          "id": 344000593,
          "eventId": 675581,
          "siteUnitNumber": 12614,
          "bathingSite": "TOTLAND BAY",
          "eventStart": "2022-11-21T10:08:00",
          "eventStop": "2022-11-22T20:28:00",
          "duration": 2060,
          "status": "Genuine",
          "associatedSiteId": 115498,
          "outfallName": "NORTON TRANSFER IOW",
          "isImpacting": true,
          "overFlowSiteId": 109524,
          "historicSpillsList": []
        }
      ]
    },
    {
      "id": 343966869,
      "eventId": 677235,
      "siteUnitNumber": 12616,
      "bathingSite": "GURNARD",
      "eventStart": "2022-11-22T14:33:34",
      "eventStop": "2022-11-22T16:32:00",
      "duration": 118,
      "status": "Genuine",
      "associatedSiteId": 109707,
      "outfallName": "MEDINA ROAD COWES",
      "isImpacting": false,
      "overFlowSiteId": 0,
      "historicSpillsList": []
    }
  ]
}