{
  "currentPage": 420,
  "totalItems": 18701,
  "totalPages": 749,
  "items": [
    {
      "id": 343979386,
      "eventId": 677066,
      "siteUnitNumber": 12572,
      "bathingSite": "LITTLESTONE",
      "eventStart": "2022-11-21T13:40:00",
      "eventStop": "2022-11-21T23:14:00",
      "duration": 574,
      "status": "Genuine",
      "associatedSiteId": 109908,
      "outfallName": "NEW ROMNEY",
      "isImpacting": true,
      "overFlowSiteId": 0,
      "historicSpillsList": [
        {
          "id": 343979386,
          "eventId": 677066,
          "siteUnitNumber": 12572,
          "bathingSite": "LITTLESTONE",
          "eventStart": "2022-11-21T13:40:00",
          "eventStop": "2022-11-21T23:14:00",
          "duration": 574,
          "status": "Genuine",
          "associatedSiteId": 109908,
          "outfallName": "NEW ROMNEY",
          "isImpacting": true,
          "overFlowSiteId": 115759
        }
      ]
    },
    {
      "id": 343985241,
      "eventId": 688105,
      "siteUnitNumber": 12593,
      "bathingSite": "FELPHAM",
      "eventStart": "2022-11-21T10:38:00",
      "eventStop": "2022-11-21T23:13:00",
      "duration": 755,
      "status": "Genuine",
      "associatedSiteId": 109964,
      "outfallName": "SHRIPNEY ROAD SOUTH BERSTED",
      "isImpacting": true,
      "overFlowSiteId": 0,
      "historicSpillsList": [
        {
          "id": 343985241,
          "eventId": 688105,
          "siteUnitNumber": 12593,
          "bathingSite": "FELPHAM",
          "eventStart": "2022-11-21T10:38:00",
          "eventStop": "2022-11-21T23:13:00",
          "duration": 755,
          "status": "Genuine",
          "associatedSiteId": 109964,
          "outfallName": "SHRIPNEY ROAD SOUTH BERSTED",
          "isImpacting": true,
          "overFlowSiteId": 107408
        }
      ]
    },
    {
      "id": 343986039,
      "eventId": 676513,
      "siteUnitNumber": 12591,
      "bathingSite": "LITTLEHAMPTON",
      "eventStart": "2022-11-21T21:44:12",
      "eventStop": "2022-11-21T23:04:00",
      "duration": 79,
      "status": "Genuine",
      "associatedSiteId": 109968,
      "outfallName": "FORD ROAD ARUNDEL",
      "isImpacting": true,
      "overFlowSiteId": 0,
      "historicSpillsList": [
        {
          "id": 343986039,
          "eventId": 676513,
          "siteUnitNumber": 12591,
          "bathingSite": "LITTLEHAMPTON",
          "eventStart": "2022-11-21T21:44:12",
          "eventStop": "2022-11-21T23:04:00",
          "duration": 79,
          "status": "Genuine",
          "associatedSiteId": 109968,
          "outfallName": "FORD ROAD ARUNDEL",
          "isImpacting": true,
          "overFlowSiteId": 108002
        }
      ]
    },
    {
      "id": 343972668,
      "eventId": 676043,
      "siteUnitNumber": 12548,
      "bathingSite": "TANKERTON",
      "eventStart": "2022-11-21T14:15:45",
      "eventStop": "2022-11-21T23:02:19",
      "duration": 526,
      "status": "Genuine",
      "associatedSiteId": 109830,
      "outfallName": "SWALECLIFFE NO1",
      "isImpacting": true,
      "overFlowSiteId": 0,
      "historicSpillsList": [
        {
          "id": 343972668,
          "eventId": 676043,
          "siteUnitNumber": 12548,
          "bathingSite": "TANKERTON",
          "eventStart": "2022-11-21T14:15:45",
          "eventStop": "2022-11-21T23:02:19",
          "duration": 526,
          "status": "Genuine",
          "associatedSiteId": 109830,
          "outfallName": "SWALECLIFFE NO1",
          "isImpacting": true,
          "overFlowSiteId": 115444
        },
        {
          "id": 343972669,
          "eventId": 676043,
          "siteUnitNumber": 12549,
          "bathingSite": "HERNE BAY CENTRAL",
          "eventStart": "2022-11-21T14:15:45",
          "eventStop": "2022-11-21T23:02:19",
          "duration": 526,
          "status": "Genuine",
          "associatedSiteId": 109830,
          "outfallName": "SWALECLIFFE NO1",
          "isImpacting": true,
          "overFlowSiteId": 115444,
          "historicSpillsList": []
        }
      ]
    },
    {
      "id": 343980950,
      "eventId": 675871,
      "siteUnitNumber": 12620,
      "bathingSite": "ST HELENS",
      "eventStart": "2022-11-21T12:56:13",
      "eventStop": "2022-11-21T22:51:00",
      "duration": 594,
      "status": "Genuine",
      "associatedSiteId": 109937,
      "outfallName": "HILLWAY BEMBRIDGE",
      "isImpacting": false,
      "overFlowSiteId": 0,
      "historicSpillsList": []
    },
    {
      "id": 343961297,
      "eventId": 675715,
      "siteUnitNumber": 12616,
      "bathingSite": "GURNARD",
      "eventStart": "2022-11-21T11:23:00",
      "eventStop": "2022-11-21T22:33:00",
      "duration": 670,
      "status": "Genuine",
      "associatedSiteId": 109650,
      "outfallName": "MARSH ROAD GURNARD",
      "isImpacting": true,
      "overFlowSiteId": 0,
      "historicSpillsList": [
        {
          "id": 343961297,
          "eventId": 675715,
          "siteUnitNumber": 12616,
          "bathingSite": "GURNARD",
          "eventStart": "2022-11-21T11:23:00",
          "eventStop": "2022-11-21T22:33:00",
          "duration": 670,
          "status": "Genuine",
          "associatedSiteId": 109650,
          "outfallName": "MARSH ROAD GURNARD",
          "isImpacting": true,
          "overFlowSiteId": 107441
        }
      ]
    },
    {
      "id": 343974233,
      "eventId": 676543,
      "siteUnitNumber": 12662,
      "bathingSite": "CHICHESTER HARBOUR",
      "eventStart": "2022-11-21T22:13:08",
      "eventStop": "2022-11-21T22:30:00",
      "duration": 16,
      "status": "Genuine",
      "associatedSiteId": 109836,
      "outfallName": "CHICHESTER",
      "isImpacting": true,
      "overFlowSiteId": 0,
      "historicSpillsList": [
        {
          "id": 343974233,
          "eventId": 676543,
          "siteUnitNumber": 12662,
          "bathingSite": "CHICHESTER HARBOUR",
          "eventStart": "2022-11-21T22:13:08",
          "eventStop": "2022-11-21T22:30:00",
          "duration": 16,
          "status": "Genuine",
          "associatedSiteId": 109836,
          "outfallName": "CHICHESTER",
          "isImpacting": true,
          "overFlowSiteId": 115401
        }
      ]
    },
    {
      "id": 343997492,
      "eventId": 676511,
      "siteUnitNumber": 12573,
      "bathingSite": "CAMBER",
      "eventStart": "2022-11-21T21:15:00",
      "eventStop": "2022-11-21T22:15:00",
      "duration": 60,
      "status": "Genuine",
      "associatedSiteId": 110958,
      "outfallName": "RYE",
      "isImpacting": false,
      "overFlowSiteId": 0,
      "historicSpillsList": []
    },
    {
      "id": 343972313,
      "eventId": 675848,
      "siteUnitNumber": 12608,
      "bathingSite": "CALSHOT",
      "eventStart": "2022-11-21T13:07:00",
      "eventStop": "2022-11-21T21:28:00",
      "duration": 501,
      "status": "Genuine",
      "associatedSiteId": 109826,
      "outfallName": "ASHLETT CREEK FAWLEY",
      "isImpacting": true,
      "overFlowSiteId": 0,
      "historicSpillsList": [
        {
          "id": 343972313,
          "eventId": 675848,
          "siteUnitNumber": 12608,
          "bathingSite": "CALSHOT",
          "eventStart": "2022-11-21T13:07:00",
          "eventStop": "2022-11-21T21:28:00",
          "duration": 501,
          "status": "Genuine",
          "associatedSiteId": 109826,
          "outfallName": "ASHLETT CREEK FAWLEY",
          "isImpacting": true,
          "overFlowSiteId": 115372
        }
      ]
    },
    {
      "id": 343964795,
      "eventId": 676607,
      "siteUnitNumber": 12616,
      "bathingSite": "GURNARD",
      "eventStart": "2022-11-21T20:51:00",
      "eventStop": "2022-11-21T21:08:00",
      "duration": 17,
      "status": "Genuine",
      "associatedSiteId": 109700,
      "outfallName": "MARKET HILL COWES",
      "isImpacting": false,
      "overFlowSiteId": 0,
      "historicSpillsList": []
    },
    {
      "id": 343997491,
      "eventId": 676450,
      "siteUnitNumber": 12573,
      "bathingSite": "CAMBER",
      "eventStart": "2022-11-21T18:30:00",
      "eventStop": "2022-11-21T21:00:00",
      "duration": 150,
      "status": "Genuine",
      "associatedSiteId": 110958,
      "outfallName": "RYE",
      "isImpacting": false,
      "overFlowSiteId": 0,
      "historicSpillsList": []
    },
    {
      "id": 343997792,
      "eventId": 676826,
      "siteUnitNumber": 12662,
      "bathingSite": "CHICHESTER HARBOUR",
      "eventStart": "2022-11-21T18:31:00",
      "eventStop": "2022-11-21T19:06:00",
      "duration": 35,
      "status": "Genuine",
      "associatedSiteId": 111600,
      "outfallName": "MILL LANE FISHBOURNE",
      "isImpacting": true,
      "overFlowSiteId": 0,
      "historicSpillsList": [
        {
          "id": 343997792,
          "eventId": 676826,
          "siteUnitNumber": 12662,
          "bathingSite": "CHICHESTER HARBOUR",
          "eventStart": "2022-11-21T18:31:00",
          "eventStop": "2022-11-21T19:06:00",
          "duration": 35,
          "status": "Genuine",
          "associatedSiteId": 111600,
          "outfallName": "MILL LANE FISHBOURNE",
          "isImpacting": true,
          "overFlowSiteId": 111371
        }
      ]
    },
    {
      "id": 343970204,
      "eventId": 675722,
      "siteUnitNumber": 12618,
      "bathingSite": "RYDE",
      "eventStart": "2022-11-21T11:34:58",
      "eventStop": "2022-11-21T18:30:00",
      "duration": 415,
      "status": "Genuine",
      "associatedSiteId": 109780,
      "outfallName": "LADIES WALK BINSTEAD",
      "isImpacting": true,
      "overFlowSiteId": 0,
      "historicSpillsList": [
        {
          "id": 343970204,
          "eventId": 675722,
          "siteUnitNumber": 12618,
          "bathingSite": "RYDE",
          "eventStart": "2022-11-21T11:34:58",
          "eventStop": "2022-11-21T18:30:00",
          "duration": 415,
          "status": "Genuine",
          "associatedSiteId": 109780,
          "outfallName": "LADIES WALK BINSTEAD",
          "isImpacting": true,
          "overFlowSiteId": 107406
        }
      ]
    },
    {
      "id": 343976828,
      "eventId": 675994,
      "siteUnitNumber": 12568,
      "bathingSite": "SANDGATE",
      "eventStart": "2022-11-21T14:04:00",
      "eventStop": "2022-11-21T18:20:00",
      "duration": 256,
      "status": "Genuine",
      "associatedSiteId": 109897,
      "outfallName": "RANGE ROAD HYTHE K LONG",
      "isImpacting": true,
      "overFlowSiteId": 0,
      "historicSpillsList": [
        {
          "id": 343976828,
          "eventId": 675994,
          "siteUnitNumber": 12568,
          "bathingSite": "SANDGATE",
          "eventStart": "2022-11-21T14:04:00",
          "eventStop": "2022-11-21T18:20:00",
          "duration": 256,
          "status": "Genuine",
          "associatedSiteId": 109897,
          "outfallName": "RANGE ROAD HYTHE K LONG",
          "isImpacting": true,
          "overFlowSiteId": 116048
        },
        {
          "id": 343976829,
          "eventId": 675994,
          "siteUnitNumber": 12569,
          "bathingSite": "HYTHE",
          "eventStart": "2022-11-21T14:04:00",
          "eventStop": "2022-11-21T18:20:00",
          "duration": 256,
          "status": "Genuine",
          "associatedSiteId": 109897,
          "outfallName": "RANGE ROAD HYTHE K LONG",
          "isImpacting": true,
          "overFlowSiteId": 116048,
          "historicSpillsList": []
        }
      ]
    },
    {
      "id": 343997490,
      "eventId": 676361,
      "siteUnitNumber": 12573,
      "bathingSite": "CAMBER",
      "eventStart": "2022-11-21T18:00:00",
      "eventStop": "2022-11-21T18:15:00",
      "duration": 15,
      "status": "Genuine",
      "associatedSiteId": 110958,
      "outfallName": "RYE",
      "isImpacting": false,
      "overFlowSiteId": 0,
      "historicSpillsList": []
    },
    {
      "id": 343997794,
      "eventId": 676825,
      "siteUnitNumber": 12662,
      "bathingSite": "CHICHESTER HARBOUR",
      "eventStart": "2022-11-21T13:38:00",
      "eventStop": "2022-11-21T18:11:00",
      "duration": 273,
      "status": "Genuine",
      "associatedSiteId": 111600,
      "outfallName": "MILL LANE FISHBOURNE",
      "isImpacting": true,
      "overFlowSiteId": 0,
      "historicSpillsList": [
        {
          "id": 343997794,
          "eventId": 676825,
          "siteUnitNumber": 12662,
          "bathingSite": "CHICHESTER HARBOUR",
          "eventStart": "2022-11-21T13:38:00",
          "eventStop": "2022-11-21T18:11:00",
          "duration": 273,
          "status": "Genuine",
          "associatedSiteId": 111600,
          "outfallName": "MILL LANE FISHBOURNE",
          "isImpacting": true,
          "overFlowSiteId": 111371
        }
      ]
    },
    {
      "id": 343986038,
      "eventId": 675513,
      "siteUnitNumber": 12591,
      "bathingSite": "LITTLEHAMPTON",
      "eventStart": "2022-11-21T09:29:23",
      "eventStop": "2022-11-21T18:06:00",
      "duration": 516,
      "status": "Genuine",
      "associatedSiteId": 109968,
      "outfallName": "FORD ROAD ARUNDEL",
      "isImpacting": true,
      "overFlowSiteId": 0,
      "historicSpillsList": [
        {
          "id": 343986038,
          "eventId": 675513,
          "siteUnitNumber": 12591,
          "bathingSite": "LITTLEHAMPTON",
          "eventStart": "2022-11-21T09:29:23",
          "eventStop": "2022-11-21T18:06:00",
          "duration": 516,
          "status": "Genuine",
          "associatedSiteId": 109968,
          "outfallName": "FORD ROAD ARUNDEL",
          "isImpacting": true,
          "overFlowSiteId": 108002
        }
      ]
    },
    {
      "id": 343974237,
      "eventId": 676190,
      "siteUnitNumber": 12662,
      "bathingSite": "CHICHESTER HARBOUR",
      "eventStart": "2022-11-21T16:39:14",
      "eventStop": "2022-11-21T17:00:00",
      "duration": 20,
      "status": "Genuine",
      "associatedSiteId": 109836,
      "outfallName": "CHICHESTER",
      "isImpacting": true,
      "overFlowSiteId": 0,
      "historicSpillsList": [
        {
          "id": 343974237,
          "eventId": 676190,
          "siteUnitNumber": 12662,
          "bathingSite": "CHICHESTER HARBOUR",
          "eventStart": "2022-11-21T16:39:14",
          "eventStop": "2022-11-21T17:00:00",
          "duration": 20,
          "status": "Genuine",
          "associatedSiteId": 109836,
          "outfallName": "CHICHESTER",
          "isImpacting": true,
          "overFlowSiteId": 115401
        }
      ]
    },
    {
      "id": 343996899,
      "eventId": 675637,
      "siteUnitNumber": 12620,
      "bathingSite": "ST HELENS",
      "eventStart": "2022-11-21T10:45:29",
      "eventStop": "2022-11-21T16:58:52",
      "duration": 373,
      "status": "Genuine",
      "associatedSiteId": 110761,
      "outfallName": "BRADING",
      "isImpacting": true,
      "overFlowSiteId": 0,
      "historicSpillsList": [
        {
          "id": 343996899,
          "eventId": 675637,
          "siteUnitNumber": 12620,
          "bathingSite": "ST HELENS",
          "eventStart": "2022-11-21T10:45:29",
          "eventStop": "2022-11-21T16:58:52",
          "duration": 373,
          "status": "Genuine",
          "associatedSiteId": 110761,
          "outfallName": "BRADING",
          "isImpacting": true,
          "overFlowSiteId": 113676
        }
      ]
    },
    {
      "id": 343968121,
      "eventId": 675544,
      "siteUnitNumber": 12606,
      "bathingSite": "LEE-ON-SOLENT",
      "eventStart": "2022-11-21T10:17:00",
      "eventStop": "2022-11-21T16:55:00",
      "duration": 398,
      "status": "Genuine",
      "associatedSiteId": 109733,
      "outfallName": "QUEENS ROAD LEE ON THE SOLENT",
      "isImpacting": true,
      "overFlowSiteId": 0,
      "historicSpillsList": [
        {
          "id": 343968121,
          "eventId": 675544,
          "siteUnitNumber": 12606,
          "bathingSite": "LEE-ON-SOLENT",
          "eventStart": "2022-11-21T10:17:00",
          "eventStop": "2022-11-21T16:55:00",
          "duration": 398,
          "status": "Genuine",
          "associatedSiteId": 109733,
          "outfallName": "QUEENS ROAD LEE ON THE SOLENT",
          "isImpacting": true,
          "overFlowSiteId": 110196
        }
      ]
    },
    {
      "id": 343986392,
      "eventId": 675896,
      "siteUnitNumber": 12595,
      "bathingSite": "BOGNOR REGIS (ALDWICK)",
      "eventStart": "2022-11-21T12:15:00",
      "eventStop": "2022-11-21T16:52:00",
      "duration": 277,
      "status": "Genuine",
      "associatedSiteId": 109972,
      "outfallName": "BOGNOR MAIN",
      "isImpacting": true,
      "overFlowSiteId": 0,
      "historicSpillsList": [
        {
          "id": 343986396,
          "eventId": 675896,
          "siteUnitNumber": 12593,
          "bathingSite": "FELPHAM",
          "eventStart": "2022-11-21T12:15:00",
          "eventStop": "2022-11-21T16:52:00",
          "duration": 277,
          "status": "Genuine",
          "associatedSiteId": 109972,
          "outfallName": "BOGNOR MAIN",
          "isImpacting": true,
          "overFlowSiteId": 107412,
          "historicSpillsList": []
        }
      ]
    },
    {
      "id": 343974238,
      "eventId": 675724,
      "siteUnitNumber": 12662,
      "bathingSite": "CHICHESTER HARBOUR",
      "eventStart": "2022-11-21T11:39:46",
      "eventStop": "2022-11-21T16:30:00",
      "duration": 290,
      "status": "Genuine",
      "associatedSiteId": 109836,
      "outfallName": "CHICHESTER",
      "isImpacting": true,
      "overFlowSiteId": 0,
      "historicSpillsList": [
        {
          "id": 343974238,
          "eventId": 675724,
          "siteUnitNumber": 12662,
          "bathingSite": "CHICHESTER HARBOUR",
          "eventStart": "2022-11-21T11:39:46",
          "eventStop": "2022-11-21T16:30:00",
          "duration": 290,
          "status": "Genuine",
          "associatedSiteId": 109836,
          "outfallName": "CHICHESTER",
          "isImpacting": true,
          "overFlowSiteId": 115401
        }
      ]
    },
    {
      "id": 343997187,
      "eventId": 675862,
      "siteUnitNumber": 12582,
      "bathingSite": "SEAFORD",
      "eventStart": "2022-11-21T12:40:21",
      "eventStop": "2022-11-21T16:16:50",
      "duration": 216,
      "status": "Genuine",
      "associatedSiteId": 110920,
      "outfallName": "NEWHAVEN",
      "isImpacting": false,
      "overFlowSiteId": 0,
      "historicSpillsList": []
    },
    {
      "id": 343970365,
      "eventId": 675915,
      "siteUnitNumber": 12618,
      "bathingSite": "RYDE",
      "eventStart": "2022-11-21T13:27:00",
      "eventStop": "2022-11-21T16:06:00",
      "duration": 159,
      "status": "Genuine",
      "associatedSiteId": 109785,
      "outfallName": "SIMEON STREET RYDE",
      "isImpacting": false,
      "overFlowSiteId": 0,
      "historicSpillsList": []
    },
    {
      "id": 343971077,
      "eventId": 675706,
      "siteUnitNumber": 12661,
      "bathingSite": "LANGSTONE HARBOUR",
      "eventStart": "2022-11-21T11:15:00",
      "eventStop": "2022-11-21T16:00:00",
      "duration": 285,
      "status": "Genuine",
      "associatedSiteId": 109817,
      "outfallName": "MAINLAND DRAYTON",
      "isImpacting": true,
      "overFlowSiteId": 0,
      "historicSpillsList": [
        {
          "id": 343971077,
          "eventId": 675706,
          "siteUnitNumber": 12661,
          "bathingSite": "LANGSTONE HARBOUR",
          "eventStart": "2022-11-21T11:15:00",
          "eventStop": "2022-11-21T16:00:00",
          "duration": 285,
          "status": "Genuine",
          "associatedSiteId": 109817,
          "outfallName": "MAINLAND DRAYTON",
          "isImpacting": true,
          "overFlowSiteId": 115960
        }
      ]
    }
  ]
}