{
  "currentPage": 239,
  "totalItems": 18701,
  "totalPages": 749,
  "items": [
    {
      "id": 343975676,
      "eventId": 833753,
      "siteUnitNumber": 12568,
      "bathingSite": "SANDGATE",
      "eventStart": "2023-07-04T19:55:57",
      "eventStop": "2023-07-04T20:06:43",
      "duration": 10,
      "status": "Genuine",
      "associatedSiteId": 109896,
      "outfallName": "RANGE ROAD HYTHE K SHORT",
      "isImpacting": false,
      "overFlowSiteId": 0,
      "historicSpillsList": []
    },
    {
      "id": 343995695,
      "eventId": 833555,
      "siteUnitNumber": 12617,
      "bathingSite": "COWES",
      "eventStart": "2023-07-04T19:50:52",
      "eventStop": "2023-07-04T19:53:53",
      "duration": 3,
      "status": "Genuine",
      "associatedSiteId": 110701,
      "outfallName": "TERMINUS ROAD COWES 2",
      "isImpacting": true,
      "overFlowSiteId": 0,
      "historicSpillsList": [
        {
          "id": 343995695,
          "eventId": 833555,
          "siteUnitNumber": 12617,
          "bathingSite": "COWES",
          "eventStart": "2023-07-04T19:50:52",
          "eventStop": "2023-07-04T19:53:53",
          "duration": 3,
          "status": "Genuine",
          "associatedSiteId": 110701,
          "outfallName": "TERMINUS ROAD COWES 2",
          "isImpacting": true,
          "overFlowSiteId": 108563
        },
        {
          "id": 343995696,
          "eventId": 833555,
          "siteUnitNumber": 12616,
          "bathingSite": "GURNARD",
          "eventStart": "2023-07-04T19:50:52",
          "eventStop": "2023-07-04T19:53:53",
          "duration": 3,
          "status": "Genuine",
          "associatedSiteId": 110701,
          "outfallName": "TERMINUS ROAD COWES 2",
          "isImpacting": true,
          "overFlowSiteId": 108563,
          "historicSpillsList": []
        }
      ]
    },
    {
      "id": 343975674,
      "eventId": 833539,
      "siteUnitNumber": 12568,
      "bathingSite": "SANDGATE",
      "eventStart": "2023-07-04T19:33:49",
      "eventStop": "2023-07-04T19:48:39",
      "duration": 14,
      "status": "Genuine",
      "associatedSiteId": 109896,
      "outfallName": "RANGE ROAD HYTHE K SHORT",
      "isImpacting": false,
      "overFlowSiteId": 0,
      "historicSpillsList": []
    },
    {
      "id": 344000340,
      "eventId": 833475,
      "siteUnitNumber": 12614,
      "bathingSite": "TOTLAND BAY",
      "eventStart": "2023-07-04T17:50:27",
      "eventStop": "2023-07-04T19:31:00",
      "duration": 100,
      "status": "Genuine",
      "associatedSiteId": 115498,
      "outfallName": "NORTON TRANSFER IOW",
      "isImpacting": true,
      "overFlowSiteId": 0,
      "historicSpillsList": [
        {
          "id": 344000340,
          "eventId": 833475,
          "siteUnitNumber": 12614,
          "bathingSite": "TOTLAND BAY",
          "eventStart": "2023-07-04T17:50:27",
          "eventStop": "2023-07-04T19:31:00",
          "duration": 100,
          "status": "Genuine",
          "associatedSiteId": 115498,
          "outfallName": "NORTON TRANSFER IOW",
          "isImpacting": true,
          "overFlowSiteId": 109524
        },
        {
          "id": 344000341,
          "eventId": 833475,
          "siteUnitNumber": 12615,
          "bathingSite": "COLWELL BAY",
          "eventStart": "2023-07-04T17:50:27",
          "eventStop": "2023-07-04T19:31:00",
          "duration": 100,
          "status": "Genuine",
          "associatedSiteId": 115498,
          "outfallName": "NORTON TRANSFER IOW",
          "isImpacting": true,
          "overFlowSiteId": 109524,
          "historicSpillsList": []
        }
      ]
    },
    {
      "id": 343995699,
      "eventId": 833492,
      "siteUnitNumber": 12616,
      "bathingSite": "GURNARD",
      "eventStart": "2023-07-04T18:47:00",
      "eventStop": "2023-07-04T19:13:00",
      "duration": 26,
      "status": "Genuine",
      "associatedSiteId": 110701,
      "outfallName": "TERMINUS ROAD COWES 2",
      "isImpacting": true,
      "overFlowSiteId": 0,
      "historicSpillsList": [
        {
          "id": 343995699,
          "eventId": 833492,
          "siteUnitNumber": 12616,
          "bathingSite": "GURNARD",
          "eventStart": "2023-07-04T18:47:00",
          "eventStop": "2023-07-04T19:13:00",
          "duration": 26,
          "status": "Genuine",
          "associatedSiteId": 110701,
          "outfallName": "TERMINUS ROAD COWES 2",
          "isImpacting": true,
          "overFlowSiteId": 108562
        },
        {
          "id": 343995700,
          "eventId": 833492,
          "siteUnitNumber": 12617,
          "bathingSite": "COWES",
          "eventStart": "2023-07-04T18:47:00",
          "eventStop": "2023-07-04T19:13:00",
          "duration": 26,
          "status": "Genuine",
          "associatedSiteId": 110701,
          "outfallName": "TERMINUS ROAD COWES 2",
          "isImpacting": true,
          "overFlowSiteId": 108562,
          "historicSpillsList": []
        }
      ]
    },
    {
      "id": 343995697,
      "eventId": 833499,
      "siteUnitNumber": 12616,
      "bathingSite": "GURNARD",
      "eventStart": "2023-07-04T18:49:00",
      "eventStop": "2023-07-04T19:08:00",
      "duration": 19,
      "status": "Genuine",
      "associatedSiteId": 110701,
      "outfallName": "TERMINUS ROAD COWES 2",
      "isImpacting": true,
      "overFlowSiteId": 0,
      "historicSpillsList": [
        {
          "id": 343995697,
          "eventId": 833499,
          "siteUnitNumber": 12616,
          "bathingSite": "GURNARD",
          "eventStart": "2023-07-04T18:49:00",
          "eventStop": "2023-07-04T19:08:00",
          "duration": 19,
          "status": "Genuine",
          "associatedSiteId": 110701,
          "outfallName": "TERMINUS ROAD COWES 2",
          "isImpacting": true,
          "overFlowSiteId": 108563
        },
        {
          "id": 343995698,
          "eventId": 833499,
          "siteUnitNumber": 12617,
          "bathingSite": "COWES",
          "eventStart": "2023-07-04T18:49:00",
          "eventStop": "2023-07-04T19:08:00",
          "duration": 19,
          "status": "Genuine",
          "associatedSiteId": 110701,
          "outfallName": "TERMINUS ROAD COWES 2",
          "isImpacting": true,
          "overFlowSiteId": 108563,
          "historicSpillsList": []
        }
      ]
    },
    {
      "id": 343995701,
      "eventId": 833440,
      "siteUnitNumber": 12616,
      "bathingSite": "GURNARD",
      "eventStart": "2023-07-04T16:39:00",
      "eventStop": "2023-07-04T17:22:00",
      "duration": 43,
      "status": "Genuine",
      "associatedSiteId": 110701,
      "outfallName": "TERMINUS ROAD COWES 2",
      "isImpacting": true,
      "overFlowSiteId": 0,
      "historicSpillsList": [
        {
          "id": 343995701,
          "eventId": 833440,
          "siteUnitNumber": 12616,
          "bathingSite": "GURNARD",
          "eventStart": "2023-07-04T16:39:00",
          "eventStop": "2023-07-04T17:22:00",
          "duration": 43,
          "status": "Genuine",
          "associatedSiteId": 110701,
          "outfallName": "TERMINUS ROAD COWES 2",
          "isImpacting": true,
          "overFlowSiteId": 108562
        },
        {
          "id": 343995702,
          "eventId": 833440,
          "siteUnitNumber": 12617,
          "bathingSite": "COWES",
          "eventStart": "2023-07-04T16:39:00",
          "eventStop": "2023-07-04T17:22:00",
          "duration": 43,
          "status": "Genuine",
          "associatedSiteId": 110701,
          "outfallName": "TERMINUS ROAD COWES 2",
          "isImpacting": true,
          "overFlowSiteId": 108562,
          "historicSpillsList": []
        }
      ]
    },
    {
      "id": 343995703,
      "eventId": 833423,
      "siteUnitNumber": 12616,
      "bathingSite": "GURNARD",
      "eventStart": "2023-07-04T16:38:39",
      "eventStop": "2023-07-04T17:18:00",
      "duration": 39,
      "status": "Genuine",
      "associatedSiteId": 110701,
      "outfallName": "TERMINUS ROAD COWES 2",
      "isImpacting": true,
      "overFlowSiteId": 0,
      "historicSpillsList": [
        {
          "id": 343995703,
          "eventId": 833423,
          "siteUnitNumber": 12616,
          "bathingSite": "GURNARD",
          "eventStart": "2023-07-04T16:38:39",
          "eventStop": "2023-07-04T17:18:00",
          "duration": 39,
          "status": "Genuine",
          "associatedSiteId": 110701,
          "outfallName": "TERMINUS ROAD COWES 2",
          "isImpacting": true,
          "overFlowSiteId": 108563
        },
        {
          "id": 343995704,
          "eventId": 833423,
          "siteUnitNumber": 12617,
          "bathingSite": "COWES",
          "eventStart": "2023-07-04T16:38:39",
          "eventStop": "2023-07-04T17:18:00",
          "duration": 39,
          "status": "Genuine",
          "associatedSiteId": 110701,
          "outfallName": "TERMINUS ROAD COWES 2",
          "isImpacting": true,
          "overFlowSiteId": 108563,
          "historicSpillsList": []
        }
      ]
    },
    {
      "id": 343966827,
      "eventId": 833449,
      "siteUnitNumber": 12616,
      "bathingSite": "GURNARD",
      "eventStart": "2023-07-04T16:50:33",
      "eventStop": "2023-07-04T16:55:00",
      "duration": 4,
      "status": "Genuine",
      "associatedSiteId": 109707,
      "outfallName": "MEDINA ROAD COWES",
      "isImpacting": false,
      "overFlowSiteId": 0,
      "historicSpillsList": []
    },
    {
      "id": 343977860,
      "eventId": 831560,
      "siteUnitNumber": 12576,
      "bathingSite": "ST LEONARDS",
      "eventStart": "2023-06-29T09:40:35",
      "eventStop": "2023-06-29T12:45:00",
      "duration": 184,
      "status": "Genuine",
      "associatedSiteId": 109903,
      "outfallName": "BEXHILL & HASTINGS NO2",
      "isImpacting": true,
      "overFlowSiteId": 0,
      "historicSpillsList": [
        {
          "id": 343977860,
          "eventId": 831560,
          "siteUnitNumber": 12576,
          "bathingSite": "ST LEONARDS",
          "eventStart": "2023-06-29T09:40:35",
          "eventStop": "2023-06-29T12:45:00",
          "duration": 184,
          "status": "Genuine",
          "associatedSiteId": 109903,
          "outfallName": "BEXHILL & HASTINGS NO2",
          "isImpacting": true,
          "overFlowSiteId": 115398
        },
        {
          "id": 343977861,
          "eventId": 831560,
          "siteUnitNumber": 12577,
          "bathingSite": "BEXHILL",
          "eventStart": "2023-06-29T09:40:35",
          "eventStop": "2023-06-29T12:45:00",
          "duration": 184,
          "status": "Genuine",
          "associatedSiteId": 109903,
          "outfallName": "BEXHILL & HASTINGS NO2",
          "isImpacting": true,
          "overFlowSiteId": 115398,
          "historicSpillsList": []
        }
      ]
    },
    {
      "id": 343974409,
      "eventId": 831538,
      "siteUnitNumber": 12662,
      "bathingSite": "CHICHESTER HARBOUR",
      "eventStart": "2023-06-28T08:37:00",
      "eventStop": "2023-06-28T09:53:00",
      "duration": 76,
      "status": "Genuine",
      "associatedSiteId": 109852,
      "outfallName": "SCHOOL LANE NUTBOURNE",
      "isImpacting": true,
      "overFlowSiteId": 0,
      "historicSpillsList": [
        {
          "id": 343974409,
          "eventId": 831538,
          "siteUnitNumber": 12662,
          "bathingSite": "CHICHESTER HARBOUR",
          "eventStart": "2023-06-28T08:37:00",
          "eventStop": "2023-06-28T09:53:00",
          "duration": 76,
          "status": "Genuine",
          "associatedSiteId": 109852,
          "outfallName": "SCHOOL LANE NUTBOURNE",
          "isImpacting": true,
          "overFlowSiteId": 108299
        }
      ]
    },
    {
      "id": 343974410,
      "eventId": 831537,
      "siteUnitNumber": 12662,
      "bathingSite": "CHICHESTER HARBOUR",
      "eventStart": "2023-06-27T22:06:00",
      "eventStop": "2023-06-28T07:45:00",
      "duration": 579,
      "status": "Genuine",
      "associatedSiteId": 109852,
      "outfallName": "SCHOOL LANE NUTBOURNE",
      "isImpacting": true,
      "overFlowSiteId": 0,
      "historicSpillsList": [
        {
          "id": 343974410,
          "eventId": 831537,
          "siteUnitNumber": 12662,
          "bathingSite": "CHICHESTER HARBOUR",
          "eventStart": "2023-06-27T22:06:00",
          "eventStop": "2023-06-28T07:45:00",
          "duration": 579,
          "status": "Genuine",
          "associatedSiteId": 109852,
          "outfallName": "SCHOOL LANE NUTBOURNE",
          "isImpacting": true,
          "overFlowSiteId": 108299
        }
      ]
    },
    {
      "id": 343968818,
      "eventId": 829945,
      "siteUnitNumber": 12617,
      "bathingSite": "COWES",
      "eventStart": "2023-06-21T17:12:00",
      "eventStop": "2023-06-21T17:16:00",
      "duration": 4,
      "status": "Genuine",
      "associatedSiteId": 109777,
      "outfallName": "APPLEY PARK RYDE TRANSFER",
      "isImpacting": false,
      "overFlowSiteId": 0,
      "historicSpillsList": []
    },
    {
      "id": 343968820,
      "eventId": 829944,
      "siteUnitNumber": 12617,
      "bathingSite": "COWES",
      "eventStart": "2023-06-21T16:15:00",
      "eventStop": "2023-06-21T16:19:00",
      "duration": 4,
      "status": "Genuine",
      "associatedSiteId": 109777,
      "outfallName": "APPLEY PARK RYDE TRANSFER",
      "isImpacting": false,
      "overFlowSiteId": 0,
      "historicSpillsList": []
    },
    {
      "id": 343968822,
      "eventId": 829943,
      "siteUnitNumber": 12617,
      "bathingSite": "COWES",
      "eventStart": "2023-06-21T15:37:00",
      "eventStop": "2023-06-21T15:42:00",
      "duration": 5,
      "status": "Genuine",
      "associatedSiteId": 109777,
      "outfallName": "APPLEY PARK RYDE TRANSFER",
      "isImpacting": false,
      "overFlowSiteId": 0,
      "historicSpillsList": []
    },
    {
      "id": 343968824,
      "eventId": 829941,
      "siteUnitNumber": 12617,
      "bathingSite": "COWES",
      "eventStart": "2023-06-21T14:57:00",
      "eventStop": "2023-06-21T15:01:00",
      "duration": 4,
      "status": "Genuine",
      "associatedSiteId": 109777,
      "outfallName": "APPLEY PARK RYDE TRANSFER",
      "isImpacting": false,
      "overFlowSiteId": 0,
      "historicSpillsList": []
    },
    {
      "id": 343968826,
      "eventId": 829940,
      "siteUnitNumber": 12617,
      "bathingSite": "COWES",
      "eventStart": "2023-06-21T14:22:00",
      "eventStop": "2023-06-21T14:25:00",
      "duration": 3,
      "status": "Genuine",
      "associatedSiteId": 109777,
      "outfallName": "APPLEY PARK RYDE TRANSFER",
      "isImpacting": false,
      "overFlowSiteId": 0,
      "historicSpillsList": []
    },
    {
      "id": 343976364,
      "eventId": 829720,
      "siteUnitNumber": 12568,
      "bathingSite": "SANDGATE",
      "eventStart": "2023-06-21T08:45:00",
      "eventStop": "2023-06-21T09:00:00",
      "duration": 15,
      "status": "Genuine",
      "associatedSiteId": 109897,
      "outfallName": "RANGE ROAD HYTHE K LONG",
      "isImpacting": false,
      "overFlowSiteId": 0,
      "historicSpillsList": []
    },
    {
      "id": 343968804,
      "eventId": 829970,
      "siteUnitNumber": 12618,
      "bathingSite": "RYDE",
      "eventStart": "2023-06-21T03:46:00",
      "eventStop": "2023-06-21T03:50:00",
      "duration": 4,
      "status": "Genuine",
      "associatedSiteId": 109777,
      "outfallName": "APPLEY PARK RYDE TRANSFER",
      "isImpacting": false,
      "overFlowSiteId": 0,
      "historicSpillsList": []
    },
    {
      "id": 343968806,
      "eventId": 829961,
      "siteUnitNumber": 12617,
      "bathingSite": "COWES",
      "eventStart": "2023-06-21T02:51:00",
      "eventStop": "2023-06-21T02:58:00",
      "duration": 7,
      "status": "Genuine",
      "associatedSiteId": 109777,
      "outfallName": "APPLEY PARK RYDE TRANSFER",
      "isImpacting": false,
      "overFlowSiteId": 0,
      "historicSpillsList": []
    },
    {
      "id": 343968808,
      "eventId": 829960,
      "siteUnitNumber": 12617,
      "bathingSite": "COWES",
      "eventStart": "2023-06-21T02:08:00",
      "eventStop": "2023-06-21T02:12:00",
      "duration": 4,
      "status": "Genuine",
      "associatedSiteId": 109777,
      "outfallName": "APPLEY PARK RYDE TRANSFER",
      "isImpacting": false,
      "overFlowSiteId": 0,
      "historicSpillsList": []
    },
    {
      "id": 343968810,
      "eventId": 829959,
      "siteUnitNumber": 12617,
      "bathingSite": "COWES",
      "eventStart": "2023-06-21T01:18:00",
      "eventStop": "2023-06-21T01:22:00",
      "duration": 4,
      "status": "Genuine",
      "associatedSiteId": 109777,
      "outfallName": "APPLEY PARK RYDE TRANSFER",
      "isImpacting": false,
      "overFlowSiteId": 0,
      "historicSpillsList": []
    },
    {
      "id": 343968812,
      "eventId": 829956,
      "siteUnitNumber": 12617,
      "bathingSite": "COWES",
      "eventStart": "2023-06-21T00:24:00",
      "eventStop": "2023-06-21T00:27:00",
      "duration": 3,
      "status": "Genuine",
      "associatedSiteId": 109777,
      "outfallName": "APPLEY PARK RYDE TRANSFER",
      "isImpacting": false,
      "overFlowSiteId": 0,
      "historicSpillsList": []
    },
    {
      "id": 343968814,
      "eventId": 829955,
      "siteUnitNumber": 12617,
      "bathingSite": "COWES",
      "eventStart": "2023-06-20T23:43:00",
      "eventStop": "2023-06-20T23:46:00",
      "duration": 3,
      "status": "Genuine",
      "associatedSiteId": 109777,
      "outfallName": "APPLEY PARK RYDE TRANSFER",
      "isImpacting": false,
      "overFlowSiteId": 0,
      "historicSpillsList": []
    },
    {
      "id": 343968816,
      "eventId": 829951,
      "siteUnitNumber": 12618,
      "bathingSite": "RYDE",
      "eventStart": "2023-06-20T23:03:00",
      "eventStop": "2023-06-20T23:07:00",
      "duration": 4,
      "status": "Genuine",
      "associatedSiteId": 109777,
      "outfallName": "APPLEY PARK RYDE TRANSFER",
      "isImpacting": false,
      "overFlowSiteId": 0,
      "historicSpillsList": []
    }
  ]
}