{
  "currentPage": 278,
  "totalItems": 21025,
  "totalPages": 841,
  "items": [
    {
      "id": 344797465,
      "eventId": 810090,
      "siteUnitNumber": 12624,
      "bathingSite": "SANDOWN",
      "eventStart": "2023-04-27T21:00:00",
      "eventStop": "2023-04-27T21:03:00",
      "duration": 3,
      "status": "Genuine",
      "associatedSiteId": 110029,
      "outfallName": "HOPE BEACH SHANKLIN NEW",
      "isImpacting": false,
      "overFlowSiteId": 0,
      "historicSpillsList": []
    },
    {
      "id": 344775203,
      "eventId": 809141,
      "siteUnitNumber": 12616,
      "bathingSite": "GURNARD",
      "eventStart": "2023-04-27T17:58:00",
      "eventStop": "2023-04-27T20:56:00",
      "duration": 178,
      "status": "Genuine",
      "associatedSiteId": 109705,
      "outfallName": "SPRINGHILL COWES TRANSFER",
      "isImpacting": true,
      "overFlowSiteId": 0,
      "historicSpillsList": [
        {
          "id": 344775204,
          "eventId": 809141,
          "siteUnitNumber": 12617,
          "bathingSite": "COWES",
          "eventStart": "2023-04-27T17:58:00",
          "eventStop": "2023-04-27T20:56:00",
          "duration": 178,
          "status": "Genuine",
          "associatedSiteId": 109705,
          "outfallName": "SPRINGHILL COWES TRANSFER",
          "isImpacting": true,
          "overFlowSiteId": 108943,
          "historicSpillsList": []
        }
      ]
    },
    {
      "id": 344797467,
      "eventId": 810089,
      "siteUnitNumber": 12623,
      "bathingSite": "YAVERLAND",
      "eventStart": "2023-04-27T20:45:00",
      "eventStop": "2023-04-27T20:49:00",
      "duration": 4,
      "status": "Genuine",
      "associatedSiteId": 110029,
      "outfallName": "HOPE BEACH SHANKLIN NEW",
      "isImpacting": false,
      "overFlowSiteId": 0,
      "historicSpillsList": []
    },
    {
      "id": 344797771,
      "eventId": 809320,
      "siteUnitNumber": 12582,
      "bathingSite": "SEAFORD",
      "eventStart": "2023-04-27T19:33:47",
      "eventStop": "2023-04-27T20:48:53",
      "duration": 75,
      "status": "Genuine",
      "associatedSiteId": 110047,
      "outfallName": "CLIFF END SEAFORD",
      "isImpacting": true,
      "overFlowSiteId": 0,
      "historicSpillsList": [
        {
          "id": 344797771,
          "eventId": 809320,
          "siteUnitNumber": 12582,
          "bathingSite": "SEAFORD",
          "eventStart": "2023-04-27T19:33:47",
          "eventStop": "2023-04-27T20:48:53",
          "duration": 75,
          "status": "Genuine",
          "associatedSiteId": 110047,
          "outfallName": "CLIFF END SEAFORD",
          "isImpacting": true,
          "overFlowSiteId": 101257
        }
      ]
    },
    {
      "id": 344806094,
      "eventId": 809252,
      "siteUnitNumber": 12620,
      "bathingSite": "ST HELENS",
      "eventStart": "2023-04-27T19:08:27",
      "eventStop": "2023-04-27T20:39:10",
      "duration": 90,
      "status": "Genuine",
      "associatedSiteId": 110761,
      "outfallName": "BRADING",
      "isImpacting": true,
      "overFlowSiteId": 0,
      "historicSpillsList": [
        {
          "id": 344806094,
          "eventId": 809252,
          "siteUnitNumber": 12620,
          "bathingSite": "ST HELENS",
          "eventStart": "2023-04-27T19:08:27",
          "eventStop": "2023-04-27T20:39:10",
          "duration": 90,
          "status": "Genuine",
          "associatedSiteId": 110761,
          "outfallName": "BRADING",
          "isImpacting": true,
          "overFlowSiteId": 113676
        }
      ]
    },
    {
      "id": 344781691,
      "eventId": 809227,
      "siteUnitNumber": 12548,
      "bathingSite": "TANKERTON",
      "eventStart": "2023-04-27T18:58:00",
      "eventStop": "2023-04-27T20:37:00",
      "duration": 99,
      "status": "Genuine",
      "associatedSiteId": 109830,
      "outfallName": "SWALECLIFFE NO1",
      "isImpacting": false,
      "overFlowSiteId": 0,
      "historicSpillsList": []
    },
    {
      "id": 344804550,
      "eventId": 809324,
      "siteUnitNumber": 12584,
      "bathingSite": "BRIGHTON KEMPTOWN",
      "eventStart": "2023-04-27T19:45:00",
      "eventStop": "2023-04-27T20:30:00",
      "duration": 45,
      "status": "Not Genuine",
      "associatedSiteId": 110669,
      "outfallName": "ALBION GROYNE BRIGHTON",
      "isImpacting": true,
      "overFlowSiteId": 0,
      "historicSpillsList": []
    },
    {
      "id": 344779240,
      "eventId": 810101,
      "siteUnitNumber": 12618,
      "bathingSite": "RYDE",
      "eventStart": "2023-04-27T19:56:00",
      "eventStop": "2023-04-27T19:58:00",
      "duration": 2,
      "status": "Genuine",
      "associatedSiteId": 109778,
      "outfallName": "PRINCE CONSORT RYDE NEW",
      "isImpacting": true,
      "overFlowSiteId": 0,
      "historicSpillsList": [
        {
          "id": 344779240,
          "eventId": 810101,
          "siteUnitNumber": 12618,
          "bathingSite": "RYDE",
          "eventStart": "2023-04-27T19:56:00",
          "eventStop": "2023-04-27T19:58:00",
          "duration": 2,
          "status": "Genuine",
          "associatedSiteId": 109778,
          "outfallName": "PRINCE CONSORT RYDE NEW",
          "isImpacting": true,
          "overFlowSiteId": 108043
        }
      ]
    },
    {
      "id": 344779241,
      "eventId": 810100,
      "siteUnitNumber": 12618,
      "bathingSite": "RYDE",
      "eventStart": "2023-04-27T19:39:00",
      "eventStop": "2023-04-27T19:42:00",
      "duration": 3,
      "status": "Genuine",
      "associatedSiteId": 109778,
      "outfallName": "PRINCE CONSORT RYDE NEW",
      "isImpacting": true,
      "overFlowSiteId": 0,
      "historicSpillsList": [
        {
          "id": 344779241,
          "eventId": 810100,
          "siteUnitNumber": 12618,
          "bathingSite": "RYDE",
          "eventStart": "2023-04-27T19:39:00",
          "eventStop": "2023-04-27T19:42:00",
          "duration": 3,
          "status": "Genuine",
          "associatedSiteId": 109778,
          "outfallName": "PRINCE CONSORT RYDE NEW",
          "isImpacting": true,
          "overFlowSiteId": 108043
        }
      ]
    },
    {
      "id": 344779242,
      "eventId": 809285,
      "siteUnitNumber": 12618,
      "bathingSite": "RYDE",
      "eventStart": "2023-04-27T19:39:00",
      "eventStop": "2023-04-27T19:41:00",
      "duration": 2,
      "status": "Genuine",
      "associatedSiteId": 109778,
      "outfallName": "PRINCE CONSORT RYDE NEW",
      "isImpacting": true,
      "overFlowSiteId": 0,
      "historicSpillsList": [
        {
          "id": 344779242,
          "eventId": 809285,
          "siteUnitNumber": 12618,
          "bathingSite": "RYDE",
          "eventStart": "2023-04-27T19:39:00",
          "eventStop": "2023-04-27T19:41:00",
          "duration": 2,
          "status": "Genuine",
          "associatedSiteId": 109778,
          "outfallName": "PRINCE CONSORT RYDE NEW",
          "isImpacting": true,
          "overFlowSiteId": 108043
        }
      ]
    },
    {
      "id": 344770697,
      "eventId": 809233,
      "siteUnitNumber": 12616,
      "bathingSite": "GURNARD",
      "eventStart": "2023-04-27T19:16:00",
      "eventStop": "2023-04-27T19:23:00",
      "duration": 7,
      "status": "Genuine",
      "associatedSiteId": 109652,
      "outfallName": "WOODVALE TRANSFER NO1",
      "isImpacting": true,
      "overFlowSiteId": 0,
      "historicSpillsList": [
        {
          "id": 344770697,
          "eventId": 809233,
          "siteUnitNumber": 12616,
          "bathingSite": "GURNARD",
          "eventStart": "2023-04-27T19:16:00",
          "eventStop": "2023-04-27T19:23:00",
          "duration": 7,
          "status": "Genuine",
          "associatedSiteId": 109652,
          "outfallName": "WOODVALE TRANSFER NO1",
          "isImpacting": true,
          "overFlowSiteId": 115966
        }
      ]
    },
    {
      "id": 344797471,
      "eventId": 809254,
      "siteUnitNumber": 12624,
      "bathingSite": "SANDOWN",
      "eventStart": "2023-04-27T19:15:00",
      "eventStop": "2023-04-27T19:18:00",
      "duration": 3,
      "status": "Genuine",
      "associatedSiteId": 110029,
      "outfallName": "HOPE BEACH SHANKLIN NEW",
      "isImpacting": true,
      "overFlowSiteId": 0,
      "historicSpillsList": [
        {
          "id": 344797472,
          "eventId": 809254,
          "siteUnitNumber": 12625,
          "bathingSite": "SHANKLIN",
          "eventStart": "2023-04-27T19:15:00",
          "eventStop": "2023-04-27T19:18:00",
          "duration": 3,
          "status": "Genuine",
          "associatedSiteId": 110029,
          "outfallName": "HOPE BEACH SHANKLIN NEW",
          "isImpacting": true,
          "overFlowSiteId": 109389,
          "historicSpillsList": []
        }
      ]
    },
    {
      "id": 344795170,
      "eventId": 810002,
      "siteUnitNumber": 12591,
      "bathingSite": "LITTLEHAMPTON",
      "eventStart": "2023-04-27T19:12:00",
      "eventStop": "2023-04-27T19:15:00",
      "duration": 3,
      "status": "Genuine",
      "associatedSiteId": 109968,
      "outfallName": "FORD ROAD ARUNDEL",
      "isImpacting": false,
      "overFlowSiteId": 0,
      "historicSpillsList": []
    },
    {
      "id": 344795173,
      "eventId": 809229,
      "siteUnitNumber": 12591,
      "bathingSite": "LITTLEHAMPTON",
      "eventStart": "2023-04-27T18:56:31",
      "eventStop": "2023-04-27T18:59:06",
      "duration": 2,
      "status": "Genuine",
      "associatedSiteId": 109968,
      "outfallName": "FORD ROAD ARUNDEL",
      "isImpacting": false,
      "overFlowSiteId": 0,
      "historicSpillsList": []
    },
    {
      "id": 344770699,
      "eventId": 809226,
      "siteUnitNumber": 12616,
      "bathingSite": "GURNARD",
      "eventStart": "2023-04-27T18:50:58",
      "eventStop": "2023-04-27T18:57:55",
      "duration": 6,
      "status": "Genuine",
      "associatedSiteId": 109652,
      "outfallName": "WOODVALE TRANSFER NO1",
      "isImpacting": true,
      "overFlowSiteId": 0,
      "historicSpillsList": [
        {
          "id": 344770699,
          "eventId": 809226,
          "siteUnitNumber": 12616,
          "bathingSite": "GURNARD",
          "eventStart": "2023-04-27T18:50:58",
          "eventStop": "2023-04-27T18:57:55",
          "duration": 6,
          "status": "Genuine",
          "associatedSiteId": 109652,
          "outfallName": "WOODVALE TRANSFER NO1",
          "isImpacting": true,
          "overFlowSiteId": 115966
        }
      ]
    },
    {
      "id": 344797636,
      "eventId": 809185,
      "siteUnitNumber": 12625,
      "bathingSite": "SHANKLIN",
      "eventStart": "2023-04-27T18:32:26",
      "eventStop": "2023-04-27T18:49:39",
      "duration": 17,
      "status": "Genuine",
      "associatedSiteId": 110034,
      "outfallName": "LUCCOMBE",
      "isImpacting": false,
      "overFlowSiteId": 0,
      "historicSpillsList": []
    },
    {
      "id": 344804933,
      "eventId": 810042,
      "siteUnitNumber": 12616,
      "bathingSite": "GURNARD",
      "eventStart": "2023-04-27T18:28:00",
      "eventStop": "2023-04-27T18:31:00",
      "duration": 3,
      "status": "Genuine",
      "associatedSiteId": 110701,
      "outfallName": "TERMINUS ROAD COWES 2",
      "isImpacting": true,
      "overFlowSiteId": 0,
      "historicSpillsList": [
        {
          "id": 344804933,
          "eventId": 810042,
          "siteUnitNumber": 12616,
          "bathingSite": "GURNARD",
          "eventStart": "2023-04-27T18:28:00",
          "eventStop": "2023-04-27T18:31:00",
          "duration": 3,
          "status": "Genuine",
          "associatedSiteId": 110701,
          "outfallName": "TERMINUS ROAD COWES 2",
          "isImpacting": true,
          "overFlowSiteId": 108563
        },
        {
          "id": 344804934,
          "eventId": 810042,
          "siteUnitNumber": 12617,
          "bathingSite": "COWES",
          "eventStart": "2023-04-27T18:28:00",
          "eventStop": "2023-04-27T18:31:00",
          "duration": 3,
          "status": "Genuine",
          "associatedSiteId": 110701,
          "outfallName": "TERMINUS ROAD COWES 2",
          "isImpacting": true,
          "overFlowSiteId": 108563,
          "historicSpillsList": []
        }
      ]
    },
    {
      "id": 344804935,
      "eventId": 809079,
      "siteUnitNumber": 12617,
      "bathingSite": "COWES",
      "eventStart": "2023-04-27T17:55:00",
      "eventStop": "2023-04-27T18:11:00",
      "duration": 16,
      "status": "Genuine",
      "associatedSiteId": 110701,
      "outfallName": "TERMINUS ROAD COWES 2",
      "isImpacting": true,
      "overFlowSiteId": 0,
      "historicSpillsList": [
        {
          "id": 344804935,
          "eventId": 809079,
          "siteUnitNumber": 12617,
          "bathingSite": "COWES",
          "eventStart": "2023-04-27T17:55:00",
          "eventStop": "2023-04-27T18:11:00",
          "duration": 16,
          "status": "Genuine",
          "associatedSiteId": 110701,
          "outfallName": "TERMINUS ROAD COWES 2",
          "isImpacting": true,
          "overFlowSiteId": 108563
        },
        {
          "id": 344804936,
          "eventId": 809079,
          "siteUnitNumber": 12616,
          "bathingSite": "GURNARD",
          "eventStart": "2023-04-27T17:55:00",
          "eventStop": "2023-04-27T18:11:00",
          "duration": 16,
          "status": "Genuine",
          "associatedSiteId": 110701,
          "outfallName": "TERMINUS ROAD COWES 2",
          "isImpacting": true,
          "overFlowSiteId": 108563,
          "historicSpillsList": []
        }
      ]
    },
    {
      "id": 344792766,
      "eventId": 809072,
      "siteUnitNumber": 12594,
      "bathingSite": "BOGNOR REGIS EAST",
      "eventStart": "2023-04-27T16:59:47",
      "eventStop": "2023-04-27T17:45:00",
      "duration": 45,
      "status": "Not Genuine",
      "associatedSiteId": 109959,
      "outfallName": "WEST PARK BOGNOR REGIS",
      "isImpacting": false,
      "overFlowSiteId": 0,
      "historicSpillsList": []
    },
    {
      "id": 344787140,
      "eventId": 809071,
      "siteUnitNumber": 12576,
      "bathingSite": "ST LEONARDS",
      "eventStart": "2023-04-27T16:59:41",
      "eventStop": "2023-04-27T17:30:16",
      "duration": 30,
      "status": "Genuine",
      "associatedSiteId": 109903,
      "outfallName": "BEXHILL & HASTINGS NO2",
      "isImpacting": true,
      "overFlowSiteId": 0,
      "historicSpillsList": [
        {
          "id": 344787140,
          "eventId": 809071,
          "siteUnitNumber": 12576,
          "bathingSite": "ST LEONARDS",
          "eventStart": "2023-04-27T16:59:41",
          "eventStop": "2023-04-27T17:30:16",
          "duration": 30,
          "status": "Genuine",
          "associatedSiteId": 109903,
          "outfallName": "BEXHILL & HASTINGS NO2",
          "isImpacting": true,
          "overFlowSiteId": 115398
        },
        {
          "id": 344787141,
          "eventId": 809071,
          "siteUnitNumber": 12577,
          "bathingSite": "BEXHILL",
          "eventStart": "2023-04-27T16:59:41",
          "eventStop": "2023-04-27T17:30:16",
          "duration": 30,
          "status": "Genuine",
          "associatedSiteId": 109903,
          "outfallName": "BEXHILL & HASTINGS NO2",
          "isImpacting": true,
          "overFlowSiteId": 115398,
          "historicSpillsList": []
        }
      ]
    },
    {
      "id": 344792769,
      "eventId": 809031,
      "siteUnitNumber": 12594,
      "bathingSite": "BOGNOR REGIS EAST",
      "eventStart": "2023-04-27T16:42:00",
      "eventStop": "2023-04-27T17:15:00",
      "duration": 33,
      "status": "Genuine",
      "associatedSiteId": 109959,
      "outfallName": "WEST PARK BOGNOR REGIS",
      "isImpacting": false,
      "overFlowSiteId": 0,
      "historicSpillsList": []
    },
    {
      "id": 344795172,
      "eventId": 809025,
      "siteUnitNumber": 12591,
      "bathingSite": "LITTLEHAMPTON",
      "eventStart": "2023-04-27T15:47:00",
      "eventStop": "2023-04-27T16:22:00",
      "duration": 35,
      "status": "Genuine",
      "associatedSiteId": 109968,
      "outfallName": "FORD ROAD ARUNDEL",
      "isImpacting": false,
      "overFlowSiteId": 0,
      "historicSpillsList": []
    },
    {
      "id": 344804939,
      "eventId": 808981,
      "siteUnitNumber": 12616,
      "bathingSite": "GURNARD",
      "eventStart": "2023-04-27T14:38:00",
      "eventStop": "2023-04-27T15:40:00",
      "duration": 62,
      "status": "Genuine",
      "associatedSiteId": 110701,
      "outfallName": "TERMINUS ROAD COWES 2",
      "isImpacting": true,
      "overFlowSiteId": 0,
      "historicSpillsList": [
        {
          "id": 344804939,
          "eventId": 808981,
          "siteUnitNumber": 12616,
          "bathingSite": "GURNARD",
          "eventStart": "2023-04-27T14:38:00",
          "eventStop": "2023-04-27T15:40:00",
          "duration": 62,
          "status": "Genuine",
          "associatedSiteId": 110701,
          "outfallName": "TERMINUS ROAD COWES 2",
          "isImpacting": true,
          "overFlowSiteId": 108563
        },
        {
          "id": 344804940,
          "eventId": 808981,
          "siteUnitNumber": 12617,
          "bathingSite": "COWES",
          "eventStart": "2023-04-27T14:38:00",
          "eventStop": "2023-04-27T15:40:00",
          "duration": 62,
          "status": "Genuine",
          "associatedSiteId": 110701,
          "outfallName": "TERMINUS ROAD COWES 2",
          "isImpacting": true,
          "overFlowSiteId": 108563,
          "historicSpillsList": []
        }
      ]
    },
    {
      "id": 344804937,
      "eventId": 808983,
      "siteUnitNumber": 12616,
      "bathingSite": "GURNARD",
      "eventStart": "2023-04-27T14:40:00",
      "eventStop": "2023-04-27T15:29:00",
      "duration": 49,
      "status": "Genuine",
      "associatedSiteId": 110701,
      "outfallName": "TERMINUS ROAD COWES 2",
      "isImpacting": true,
      "overFlowSiteId": 0,
      "historicSpillsList": [
        {
          "id": 344804937,
          "eventId": 808983,
          "siteUnitNumber": 12616,
          "bathingSite": "GURNARD",
          "eventStart": "2023-04-27T14:40:00",
          "eventStop": "2023-04-27T15:29:00",
          "duration": 49,
          "status": "Genuine",
          "associatedSiteId": 110701,
          "outfallName": "TERMINUS ROAD COWES 2",
          "isImpacting": true,
          "overFlowSiteId": 108562
        },
        {
          "id": 344804938,
          "eventId": 808983,
          "siteUnitNumber": 12617,
          "bathingSite": "COWES",
          "eventStart": "2023-04-27T14:40:00",
          "eventStop": "2023-04-27T15:29:00",
          "duration": 49,
          "status": "Genuine",
          "associatedSiteId": 110701,
          "outfallName": "TERMINUS ROAD COWES 2",
          "isImpacting": true,
          "overFlowSiteId": 108562,
          "historicSpillsList": []
        }
      ]
    },
    {
      "id": 344797815,
      "eventId": 808836,
      "siteUnitNumber": 12593,
      "bathingSite": "FELPHAM",
      "eventStart": "2023-04-27T09:10:14",
      "eventStop": "2023-04-27T12:15:00",
      "duration": 184,
      "status": "Not Genuine",
      "associatedSiteId": 110095,
      "outfallName": "LIDSEY",
      "isImpacting": true,
      "overFlowSiteId": 0,
      "historicSpillsList": []
    }
  ]
}