{
  "currentPage": 684,
  "totalItems": 21025,
  "totalPages": 841,
  "items": [
    {
      "id": 344834420,
      "eventId": 496238,
      "siteUnitNumber": 12582,
      "bathingSite": "SEAFORD",
      "eventStart": "2021-09-24T08:40:38",
      "eventStop": "2021-09-24T08:45:00",
      "duration": 4,
      "status": "Not Genuine",
      "associatedSiteId": 109957,
      "outfallName": "PORTOBELLO BRIGHTON NO2",
      "isImpacting": true,
      "overFlowSiteId": 0,
      "historicSpillsList": []
    },
    {
      "id": 344812955,
      "eventId": 494574,
      "siteUnitNumber": 12550,
      "bathingSite": "MINSTER LEAS",
      "eventStart": "2021-09-19T17:10:33",
      "eventStop": "2021-09-19T18:13:28",
      "duration": 62,
      "status": "Genuine",
      "associatedSiteId": 109620,
      "outfallName": "WESTCLIFFE DRIVE MINSTER IOS",
      "isImpacting": true,
      "overFlowSiteId": 0,
      "historicSpillsList": [
        {
          "id": 344812955,
          "eventId": 494574,
          "siteUnitNumber": 12550,
          "bathingSite": "MINSTER LEAS",
          "eventStart": "2021-09-19T17:10:33",
          "eventStop": "2021-09-19T18:13:28",
          "duration": 62,
          "status": "Genuine",
          "associatedSiteId": 109620,
          "outfallName": "WESTCLIFFE DRIVE MINSTER IOS",
          "isImpacting": true,
          "overFlowSiteId": 108755
        }
      ]
    },
    {
      "id": 344826302,
      "eventId": 494559,
      "siteUnitNumber": 12544,
      "bathingSite": "SHEERNESS",
      "eventStart": "2021-09-19T17:47:00",
      "eventStop": "2021-09-19T18:06:00",
      "duration": 19,
      "status": "Genuine",
      "associatedSiteId": 109869,
      "outfallName": "GRAIN NO2",
      "isImpacting": true,
      "overFlowSiteId": 0,
      "historicSpillsList": [
        {
          "id": 344826302,
          "eventId": 494559,
          "siteUnitNumber": 12544,
          "bathingSite": "SHEERNESS",
          "eventStart": "2021-09-19T17:47:00",
          "eventStop": "2021-09-19T18:06:00",
          "duration": 19,
          "status": "Genuine",
          "associatedSiteId": 109869,
          "outfallName": "GRAIN NO2",
          "isImpacting": true,
          "overFlowSiteId": 115411
        }
      ]
    },
    {
      "id": 344838485,
      "eventId": 494789,
      "siteUnitNumber": 12591,
      "bathingSite": "LITTLEHAMPTON",
      "eventStart": "2021-09-19T12:21:00",
      "eventStop": "2021-09-19T13:24:00",
      "duration": 63,
      "status": "Genuine",
      "associatedSiteId": 109977,
      "outfallName": "FORESHORE TANK LITTLEHAMPTON",
      "isImpacting": true,
      "overFlowSiteId": 0,
      "historicSpillsList": [
        {
          "id": 344838485,
          "eventId": 494789,
          "siteUnitNumber": 12591,
          "bathingSite": "LITTLEHAMPTON",
          "eventStart": "2021-09-19T12:21:00",
          "eventStop": "2021-09-19T13:24:00",
          "duration": 63,
          "status": "Genuine",
          "associatedSiteId": 109977,
          "outfallName": "FORESHORE TANK LITTLEHAMPTON",
          "isImpacting": true,
          "overFlowSiteId": 109390
        }
      ]
    },
    {
      "id": 344837493,
      "eventId": 494420,
      "siteUnitNumber": 12591,
      "bathingSite": "LITTLEHAMPTON",
      "eventStart": "2021-09-19T11:00:00",
      "eventStop": "2021-09-19T12:16:00",
      "duration": 76,
      "status": "Genuine",
      "associatedSiteId": 109965,
      "outfallName": "SEA ROAD LITTLEHAMPTON",
      "isImpacting": true,
      "overFlowSiteId": 0,
      "historicSpillsList": [
        {
          "id": 344837493,
          "eventId": 494420,
          "siteUnitNumber": 12591,
          "bathingSite": "LITTLEHAMPTON",
          "eventStart": "2021-09-19T11:00:00",
          "eventStop": "2021-09-19T12:16:00",
          "duration": 76,
          "status": "Genuine",
          "associatedSiteId": 109965,
          "outfallName": "SEA ROAD LITTLEHAMPTON",
          "isImpacting": true,
          "overFlowSiteId": 109368
        }
      ]
    },
    {
      "id": 344836726,
      "eventId": 494436,
      "siteUnitNumber": 12594,
      "bathingSite": "BOGNOR REGIS EAST",
      "eventStart": "2021-09-19T09:30:00",
      "eventStop": "2021-09-19T11:52:00",
      "duration": 142,
      "status": "Genuine",
      "associatedSiteId": 109959,
      "outfallName": "WEST PARK BOGNOR REGIS",
      "isImpacting": true,
      "overFlowSiteId": 0,
      "historicSpillsList": [
        {
          "id": 344836726,
          "eventId": 494436,
          "siteUnitNumber": 12594,
          "bathingSite": "BOGNOR REGIS EAST",
          "eventStart": "2021-09-19T09:30:00",
          "eventStop": "2021-09-19T11:52:00",
          "duration": 142,
          "status": "Genuine",
          "associatedSiteId": 109959,
          "outfallName": "WEST PARK BOGNOR REGIS",
          "isImpacting": true,
          "overFlowSiteId": 108160
        },
        {
          "id": 344836727,
          "eventId": 494436,
          "siteUnitNumber": 12595,
          "bathingSite": "BOGNOR REGIS (ALDWICK)",
          "eventStart": "2021-09-19T09:30:00",
          "eventStop": "2021-09-19T11:52:00",
          "duration": 142,
          "status": "Genuine",
          "associatedSiteId": 109959,
          "outfallName": "WEST PARK BOGNOR REGIS",
          "isImpacting": true,
          "overFlowSiteId": 108160,
          "historicSpillsList": []
        },
        {
          "id": 344836728,
          "eventId": 494436,
          "siteUnitNumber": 12596,
          "bathingSite": "PAGHAM",
          "eventStart": "2021-09-19T09:30:00",
          "eventStop": "2021-09-19T11:52:00",
          "duration": 142,
          "status": "Genuine",
          "associatedSiteId": 109959,
          "outfallName": "WEST PARK BOGNOR REGIS",
          "isImpacting": true,
          "overFlowSiteId": 108160,
          "historicSpillsList": []
        }
      ]
    },
    {
      "id": 344838484,
      "eventId": 494463,
      "siteUnitNumber": 12591,
      "bathingSite": "LITTLEHAMPTON",
      "eventStart": "2021-09-19T10:45:00",
      "eventStop": "2021-09-19T11:26:00",
      "duration": 41,
      "status": "Genuine",
      "associatedSiteId": 109977,
      "outfallName": "FORESHORE TANK LITTLEHAMPTON",
      "isImpacting": true,
      "overFlowSiteId": 0,
      "historicSpillsList": [
        {
          "id": 344838484,
          "eventId": 494463,
          "siteUnitNumber": 12591,
          "bathingSite": "LITTLEHAMPTON",
          "eventStart": "2021-09-19T10:45:00",
          "eventStop": "2021-09-19T11:26:00",
          "duration": 41,
          "status": "Genuine",
          "associatedSiteId": 109977,
          "outfallName": "FORESHORE TANK LITTLEHAMPTON",
          "isImpacting": true,
          "overFlowSiteId": 109390
        }
      ]
    },
    {
      "id": 344837491,
      "eventId": 492900,
      "siteUnitNumber": 12591,
      "bathingSite": "LITTLEHAMPTON",
      "eventStart": "2021-09-14T09:44:00",
      "eventStop": "2021-09-14T10:30:00",
      "duration": 46,
      "status": "Genuine",
      "associatedSiteId": 109965,
      "outfallName": "SEA ROAD LITTLEHAMPTON",
      "isImpacting": true,
      "overFlowSiteId": 0,
      "historicSpillsList": [
        {
          "id": 344837491,
          "eventId": 492900,
          "siteUnitNumber": 12591,
          "bathingSite": "LITTLEHAMPTON",
          "eventStart": "2021-09-14T09:44:00",
          "eventStop": "2021-09-14T10:30:00",
          "duration": 46,
          "status": "Genuine",
          "associatedSiteId": 109965,
          "outfallName": "SEA ROAD LITTLEHAMPTON",
          "isImpacting": true,
          "overFlowSiteId": 109368
        }
      ]
    },
    {
      "id": 344849132,
      "eventId": 492912,
      "siteUnitNumber": 12582,
      "bathingSite": "SEAFORD",
      "eventStart": "2021-09-14T06:17:37",
      "eventStop": "2021-09-14T08:10:05",
      "duration": 112,
      "status": "Genuine",
      "associatedSiteId": 110920,
      "outfallName": "NEWHAVEN",
      "isImpacting": true,
      "overFlowSiteId": 0,
      "historicSpillsList": [
        {
          "id": 344849132,
          "eventId": 492912,
          "siteUnitNumber": 12582,
          "bathingSite": "SEAFORD",
          "eventStart": "2021-09-14T06:17:37",
          "eventStop": "2021-09-14T08:10:05",
          "duration": 112,
          "status": "Genuine",
          "associatedSiteId": 110920,
          "outfallName": "NEWHAVEN",
          "isImpacting": true,
          "overFlowSiteId": 116065
        }
      ]
    },
    {
      "id": 344832313,
      "eventId": 492911,
      "siteUnitNumber": 12586,
      "bathingSite": "HOVE",
      "eventStart": "2021-09-14T06:16:36",
      "eventStop": "2021-09-14T08:06:40",
      "duration": 110,
      "status": "Genuine",
      "associatedSiteId": 109929,
      "outfallName": "SHOREHAM NO1",
      "isImpacting": true,
      "overFlowSiteId": 0,
      "historicSpillsList": [
        {
          "id": 344832313,
          "eventId": 492911,
          "siteUnitNumber": 12586,
          "bathingSite": "HOVE",
          "eventStart": "2021-09-14T06:16:36",
          "eventStop": "2021-09-14T08:06:40",
          "duration": 110,
          "status": "Genuine",
          "associatedSiteId": 109929,
          "outfallName": "SHOREHAM NO1",
          "isImpacting": true,
          "overFlowSiteId": 115434
        },
        {
          "id": 344832314,
          "eventId": 492911,
          "siteUnitNumber": 12587,
          "bathingSite": "SOUTHWICK",
          "eventStart": "2021-09-14T06:16:36",
          "eventStop": "2021-09-14T08:06:40",
          "duration": 110,
          "status": "Genuine",
          "associatedSiteId": 109929,
          "outfallName": "SHOREHAM NO1",
          "isImpacting": true,
          "overFlowSiteId": 115434,
          "historicSpillsList": []
        },
        {
          "id": 344832315,
          "eventId": 492911,
          "siteUnitNumber": 12588,
          "bathingSite": "SHOREHAM BEACH",
          "eventStart": "2021-09-14T06:16:36",
          "eventStop": "2021-09-14T08:06:40",
          "duration": 110,
          "status": "Genuine",
          "associatedSiteId": 109929,
          "outfallName": "SHOREHAM NO1",
          "isImpacting": true,
          "overFlowSiteId": 115434,
          "historicSpillsList": []
        }
      ]
    },
    {
      "id": 344838483,
      "eventId": 492956,
      "siteUnitNumber": 12591,
      "bathingSite": "LITTLEHAMPTON",
      "eventStart": "2021-09-14T07:23:00",
      "eventStop": "2021-09-14T07:56:00",
      "duration": 33,
      "status": "Genuine",
      "associatedSiteId": 109977,
      "outfallName": "FORESHORE TANK LITTLEHAMPTON",
      "isImpacting": true,
      "overFlowSiteId": 0,
      "historicSpillsList": [
        {
          "id": 344838483,
          "eventId": 492956,
          "siteUnitNumber": 12591,
          "bathingSite": "LITTLEHAMPTON",
          "eventStart": "2021-09-14T07:23:00",
          "eventStop": "2021-09-14T07:56:00",
          "duration": 33,
          "status": "Genuine",
          "associatedSiteId": 109977,
          "outfallName": "FORESHORE TANK LITTLEHAMPTON",
          "isImpacting": true,
          "overFlowSiteId": 109390
        }
      ]
    },
    {
      "id": 344834422,
      "eventId": 492886,
      "siteUnitNumber": 12582,
      "bathingSite": "SEAFORD",
      "eventStart": "2021-09-14T05:56:00",
      "eventStop": "2021-09-14T07:32:00",
      "duration": 96,
      "status": "Genuine",
      "associatedSiteId": 109957,
      "outfallName": "PORTOBELLO BRIGHTON NO2",
      "isImpacting": true,
      "overFlowSiteId": 0,
      "historicSpillsList": [
        {
          "id": 344834422,
          "eventId": 492886,
          "siteUnitNumber": 12582,
          "bathingSite": "SEAFORD",
          "eventStart": "2021-09-14T05:56:00",
          "eventStop": "2021-09-14T07:32:00",
          "duration": 96,
          "status": "Genuine",
          "associatedSiteId": 109957,
          "outfallName": "PORTOBELLO BRIGHTON NO2",
          "isImpacting": true,
          "overFlowSiteId": 116036
        },
        {
          "id": 344834423,
          "eventId": 492886,
          "siteUnitNumber": 12583,
          "bathingSite": "SALTDEAN",
          "eventStart": "2021-09-14T05:56:00",
          "eventStop": "2021-09-14T07:32:00",
          "duration": 96,
          "status": "Genuine",
          "associatedSiteId": 109957,
          "outfallName": "PORTOBELLO BRIGHTON NO2",
          "isImpacting": true,
          "overFlowSiteId": 116036,
          "historicSpillsList": []
        }
      ]
    },
    {
      "id": 344836729,
      "eventId": 492894,
      "siteUnitNumber": 12594,
      "bathingSite": "BOGNOR REGIS EAST",
      "eventStart": "2021-09-14T05:53:00",
      "eventStop": "2021-09-14T07:01:00",
      "duration": 68,
      "status": "Genuine",
      "associatedSiteId": 109959,
      "outfallName": "WEST PARK BOGNOR REGIS",
      "isImpacting": true,
      "overFlowSiteId": 0,
      "historicSpillsList": [
        {
          "id": 344836729,
          "eventId": 492894,
          "siteUnitNumber": 12594,
          "bathingSite": "BOGNOR REGIS EAST",
          "eventStart": "2021-09-14T05:53:00",
          "eventStop": "2021-09-14T07:01:00",
          "duration": 68,
          "status": "Genuine",
          "associatedSiteId": 109959,
          "outfallName": "WEST PARK BOGNOR REGIS",
          "isImpacting": true,
          "overFlowSiteId": 108160
        },
        {
          "id": 344836730,
          "eventId": 492894,
          "siteUnitNumber": 12595,
          "bathingSite": "BOGNOR REGIS (ALDWICK)",
          "eventStart": "2021-09-14T05:53:00",
          "eventStop": "2021-09-14T07:01:00",
          "duration": 68,
          "status": "Genuine",
          "associatedSiteId": 109959,
          "outfallName": "WEST PARK BOGNOR REGIS",
          "isImpacting": true,
          "overFlowSiteId": 108160,
          "historicSpillsList": []
        },
        {
          "id": 344836731,
          "eventId": 492894,
          "siteUnitNumber": 12596,
          "bathingSite": "PAGHAM",
          "eventStart": "2021-09-14T05:53:00",
          "eventStop": "2021-09-14T07:01:00",
          "duration": 68,
          "status": "Genuine",
          "associatedSiteId": 109959,
          "outfallName": "WEST PARK BOGNOR REGIS",
          "isImpacting": true,
          "overFlowSiteId": 108160,
          "historicSpillsList": []
        }
      ]
    },
    {
      "id": 344837492,
      "eventId": 493086,
      "siteUnitNumber": 12591,
      "bathingSite": "LITTLEHAMPTON",
      "eventStart": "2021-09-14T06:08:00",
      "eventStop": "2021-09-14T06:33:00",
      "duration": 25,
      "status": "Genuine",
      "associatedSiteId": 109965,
      "outfallName": "SEA ROAD LITTLEHAMPTON",
      "isImpacting": true,
      "overFlowSiteId": 0,
      "historicSpillsList": [
        {
          "id": 344837492,
          "eventId": 493086,
          "siteUnitNumber": 12591,
          "bathingSite": "LITTLEHAMPTON",
          "eventStart": "2021-09-14T06:08:00",
          "eventStop": "2021-09-14T06:33:00",
          "duration": 25,
          "status": "Genuine",
          "associatedSiteId": 109965,
          "outfallName": "SEA ROAD LITTLEHAMPTON",
          "isImpacting": true,
          "overFlowSiteId": 109368
        }
      ]
    },
    {
      "id": 344837960,
      "eventId": 492888,
      "siteUnitNumber": 12591,
      "bathingSite": "LITTLEHAMPTON",
      "eventStart": "2021-09-14T05:41:57",
      "eventStop": "2021-09-14T06:09:00",
      "duration": 27,
      "status": "Genuine",
      "associatedSiteId": 109968,
      "outfallName": "FORD ROAD ARUNDEL",
      "isImpacting": true,
      "overFlowSiteId": 0,
      "historicSpillsList": [
        {
          "id": 344837960,
          "eventId": 492888,
          "siteUnitNumber": 12591,
          "bathingSite": "LITTLEHAMPTON",
          "eventStart": "2021-09-14T05:41:57",
          "eventStop": "2021-09-14T06:09:00",
          "duration": 27,
          "status": "Genuine",
          "associatedSiteId": 109968,
          "outfallName": "FORD ROAD ARUNDEL",
          "isImpacting": true,
          "overFlowSiteId": 108002
        }
      ]
    },
    {
      "id": 344819996,
      "eventId": 492295,
      "siteUnitNumber": 12607,
      "bathingSite": "HILLHEAD",
      "eventStart": "2021-09-11T21:51:00",
      "eventStop": "2021-09-11T23:48:00",
      "duration": 117,
      "status": "Genuine",
      "associatedSiteId": 109751,
      "outfallName": "HOOK PARK NO.1",
      "isImpacting": true,
      "overFlowSiteId": 0,
      "historicSpillsList": [
        {
          "id": 344819996,
          "eventId": 492295,
          "siteUnitNumber": 12607,
          "bathingSite": "HILLHEAD",
          "eventStart": "2021-09-11T21:51:00",
          "eventStop": "2021-09-11T23:48:00",
          "duration": 117,
          "status": "Genuine",
          "associatedSiteId": 109751,
          "outfallName": "HOOK PARK NO.1",
          "isImpacting": true,
          "overFlowSiteId": 111291
        }
      ]
    },
    {
      "id": 344854849,
      "eventId": 492296,
      "siteUnitNumber": 12607,
      "bathingSite": "HILLHEAD",
      "eventStart": "2021-09-11T21:51:00",
      "eventStop": "2021-09-11T23:46:00",
      "duration": 115,
      "status": "Genuine",
      "associatedSiteId": 116111,
      "outfallName": "HOOK PARK NO.2",
      "isImpacting": true,
      "overFlowSiteId": 0,
      "historicSpillsList": [
        {
          "id": 344854849,
          "eventId": 492296,
          "siteUnitNumber": 12607,
          "bathingSite": "HILLHEAD",
          "eventStart": "2021-09-11T21:51:00",
          "eventStop": "2021-09-11T23:46:00",
          "duration": 115,
          "status": "Genuine",
          "associatedSiteId": 116111,
          "outfallName": "HOOK PARK NO.2",
          "isImpacting": true,
          "overFlowSiteId": 108444
        }
      ]
    },
    {
      "id": 344816835,
      "eventId": 491650,
      "siteUnitNumber": 12616,
      "bathingSite": "GURNARD",
      "eventStart": "2021-09-09T12:07:00",
      "eventStop": "2021-09-09T12:36:00",
      "duration": 29,
      "status": "Genuine",
      "associatedSiteId": 109700,
      "outfallName": "MARKET HILL COWES",
      "isImpacting": true,
      "overFlowSiteId": 0,
      "historicSpillsList": [
        {
          "id": 344816835,
          "eventId": 491650,
          "siteUnitNumber": 12616,
          "bathingSite": "GURNARD",
          "eventStart": "2021-09-09T12:07:00",
          "eventStop": "2021-09-09T12:36:00",
          "duration": 29,
          "status": "Genuine",
          "associatedSiteId": 109700,
          "outfallName": "MARKET HILL COWES",
          "isImpacting": true,
          "overFlowSiteId": 109299
        },
        {
          "id": 344816836,
          "eventId": 491650,
          "siteUnitNumber": 12617,
          "bathingSite": "COWES",
          "eventStart": "2021-09-09T12:07:00",
          "eventStop": "2021-09-09T12:36:00",
          "duration": 29,
          "status": "Genuine",
          "associatedSiteId": 109700,
          "outfallName": "MARKET HILL COWES",
          "isImpacting": true,
          "overFlowSiteId": 109299,
          "historicSpillsList": []
        }
      ]
    },
    {
      "id": 344812384,
      "eventId": 491532,
      "siteUnitNumber": 12618,
      "bathingSite": "RYDE",
      "eventStart": "2021-09-09T07:16:13",
      "eventStop": "2021-09-09T08:36:03",
      "duration": 79,
      "status": "Genuine",
      "associatedSiteId": 102050,
      "outfallName": "ESPLANADE SEAVIEW",
      "isImpacting": true,
      "overFlowSiteId": 0,
      "historicSpillsList": [
        {
          "id": 344812384,
          "eventId": 491532,
          "siteUnitNumber": 12618,
          "bathingSite": "RYDE",
          "eventStart": "2021-09-09T07:16:13",
          "eventStop": "2021-09-09T08:36:03",
          "duration": 79,
          "status": "Genuine",
          "associatedSiteId": 102050,
          "outfallName": "ESPLANADE SEAVIEW",
          "isImpacting": true,
          "overFlowSiteId": 108555
        },
        {
          "id": 344812385,
          "eventId": 491532,
          "siteUnitNumber": 12619,
          "bathingSite": "SEAGROVE",
          "eventStart": "2021-09-09T07:16:13",
          "eventStop": "2021-09-09T08:36:03",
          "duration": 79,
          "status": "Genuine",
          "associatedSiteId": 102050,
          "outfallName": "ESPLANADE SEAVIEW",
          "isImpacting": true,
          "overFlowSiteId": 108555,
          "historicSpillsList": []
        },
        {
          "id": 344812386,
          "eventId": 491532,
          "siteUnitNumber": 12620,
          "bathingSite": "ST HELENS",
          "eventStart": "2021-09-09T07:16:13",
          "eventStop": "2021-09-09T08:36:03",
          "duration": 79,
          "status": "Genuine",
          "associatedSiteId": 102050,
          "outfallName": "ESPLANADE SEAVIEW",
          "isImpacting": true,
          "overFlowSiteId": 108555,
          "historicSpillsList": []
        }
      ]
    },
    {
      "id": 344830692,
      "eventId": 491347,
      "siteUnitNumber": 12576,
      "bathingSite": "ST LEONARDS",
      "eventStart": "2021-09-08T22:36:58",
      "eventStop": "2021-09-09T01:09:10",
      "duration": 152,
      "status": "Genuine",
      "associatedSiteId": 109903,
      "outfallName": "BEXHILL & HASTINGS NO2",
      "isImpacting": true,
      "overFlowSiteId": 0,
      "historicSpillsList": [
        {
          "id": 344830692,
          "eventId": 491347,
          "siteUnitNumber": 12576,
          "bathingSite": "ST LEONARDS",
          "eventStart": "2021-09-08T22:36:58",
          "eventStop": "2021-09-09T01:09:10",
          "duration": 152,
          "status": "Genuine",
          "associatedSiteId": 109903,
          "outfallName": "BEXHILL & HASTINGS NO2",
          "isImpacting": true,
          "overFlowSiteId": 115398
        },
        {
          "id": 344830693,
          "eventId": 491347,
          "siteUnitNumber": 12577,
          "bathingSite": "BEXHILL",
          "eventStart": "2021-09-08T22:36:58",
          "eventStop": "2021-09-09T01:09:10",
          "duration": 152,
          "status": "Genuine",
          "associatedSiteId": 109903,
          "outfallName": "BEXHILL & HASTINGS NO2",
          "isImpacting": true,
          "overFlowSiteId": 115398,
          "historicSpillsList": []
        }
      ]
    },
    {
      "id": 344849131,
      "eventId": 491287,
      "siteUnitNumber": 12582,
      "bathingSite": "SEAFORD",
      "eventStart": "2021-09-08T19:40:02",
      "eventStop": "2021-09-09T00:04:56",
      "duration": 264,
      "status": "Genuine",
      "associatedSiteId": 110920,
      "outfallName": "NEWHAVEN",
      "isImpacting": true,
      "overFlowSiteId": 0,
      "historicSpillsList": [
        {
          "id": 344849131,
          "eventId": 491287,
          "siteUnitNumber": 12582,
          "bathingSite": "SEAFORD",
          "eventStart": "2021-09-08T19:40:02",
          "eventStop": "2021-09-09T00:04:56",
          "duration": 264,
          "status": "Genuine",
          "associatedSiteId": 110920,
          "outfallName": "NEWHAVEN",
          "isImpacting": true,
          "overFlowSiteId": 116065
        }
      ]
    },
    {
      "id": 344826417,
      "eventId": 491321,
      "siteUnitNumber": 12579,
      "bathingSite": "PEVENSEY BAY",
      "eventStart": "2021-09-08T22:10:20",
      "eventStop": "2021-09-09T00:03:25",
      "duration": 113,
      "status": "Genuine",
      "associatedSiteId": 109888,
      "outfallName": "EASTBOURNE NO 2",
      "isImpacting": true,
      "overFlowSiteId": 0,
      "historicSpillsList": [
        {
          "id": 344826417,
          "eventId": 491321,
          "siteUnitNumber": 12579,
          "bathingSite": "PEVENSEY BAY",
          "eventStart": "2021-09-08T22:10:20",
          "eventStop": "2021-09-09T00:03:25",
          "duration": 113,
          "status": "Genuine",
          "associatedSiteId": 109888,
          "outfallName": "EASTBOURNE NO 2",
          "isImpacting": true,
          "overFlowSiteId": 115459
        },
        {
          "id": 344826418,
          "eventId": 491321,
          "siteUnitNumber": 12580,
          "bathingSite": "EASTBOURNE",
          "eventStart": "2021-09-08T22:10:20",
          "eventStop": "2021-09-09T00:03:25",
          "duration": 113,
          "status": "Genuine",
          "associatedSiteId": 109888,
          "outfallName": "EASTBOURNE NO 2",
          "isImpacting": true,
          "overFlowSiteId": 115459,
          "historicSpillsList": []
        }
      ]
    },
    {
      "id": 344854425,
      "eventId": 491385,
      "siteUnitNumber": 12577,
      "bathingSite": "BEXHILL",
      "eventStart": "2021-09-08T22:14:53",
      "eventStop": "2021-09-08T23:22:50",
      "duration": 67,
      "status": "Genuine",
      "associatedSiteId": 115503,
      "outfallName": "COODEN BEACH BEXHILL",
      "isImpacting": true,
      "overFlowSiteId": 0,
      "historicSpillsList": [
        {
          "id": 344854425,
          "eventId": 491385,
          "siteUnitNumber": 12577,
          "bathingSite": "BEXHILL",
          "eventStart": "2021-09-08T22:14:53",
          "eventStop": "2021-09-08T23:22:50",
          "duration": 67,
          "status": "Genuine",
          "associatedSiteId": 115503,
          "outfallName": "COODEN BEACH BEXHILL",
          "isImpacting": true,
          "overFlowSiteId": 108029
        },
        {
          "id": 344854426,
          "eventId": 491385,
          "siteUnitNumber": 12578,
          "bathingSite": "NORMANS BAY",
          "eventStart": "2021-09-08T22:14:53",
          "eventStop": "2021-09-08T23:22:50",
          "duration": 67,
          "status": "Genuine",
          "associatedSiteId": 115503,
          "outfallName": "COODEN BEACH BEXHILL",
          "isImpacting": true,
          "overFlowSiteId": 108029,
          "historicSpillsList": []
        }
      ]
    },
    {
      "id": 344854631,
      "eventId": 491473,
      "siteUnitNumber": 12577,
      "bathingSite": "BEXHILL",
      "eventStart": "2021-09-08T22:12:22",
      "eventStop": "2021-09-08T23:18:00",
      "duration": 65,
      "status": "Genuine",
      "associatedSiteId": 115504,
      "outfallName": "HARTFIELD ROAD BEXHILL",
      "isImpacting": true,
      "overFlowSiteId": 0,
      "historicSpillsList": [
        {
          "id": 344854631,
          "eventId": 491473,
          "siteUnitNumber": 12577,
          "bathingSite": "BEXHILL",
          "eventStart": "2021-09-08T22:12:22",
          "eventStop": "2021-09-08T23:18:00",
          "duration": 65,
          "status": "Genuine",
          "associatedSiteId": 115504,
          "outfallName": "HARTFIELD ROAD BEXHILL",
          "isImpacting": true,
          "overFlowSiteId": 107691
        },
        {
          "id": 344854632,
          "eventId": 491473,
          "siteUnitNumber": 12578,
          "bathingSite": "NORMANS BAY",
          "eventStart": "2021-09-08T22:12:22",
          "eventStop": "2021-09-08T23:18:00",
          "duration": 65,
          "status": "Genuine",
          "associatedSiteId": 115504,
          "outfallName": "HARTFIELD ROAD BEXHILL",
          "isImpacting": true,
          "overFlowSiteId": 107691,
          "historicSpillsList": []
        }
      ]
    },
    {
      "id": 344832661,
      "eventId": 491299,
      "siteUnitNumber": 12581,
      "bathingSite": "BIRLING GAP",
      "eventStart": "2021-09-08T21:26:00",
      "eventStop": "2021-09-08T22:49:00",
      "duration": 83,
      "status": "Genuine",
      "associatedSiteId": 109936,
      "outfallName": "EAST DEAN",
      "isImpacting": true,
      "overFlowSiteId": 0,
      "historicSpillsList": [
        {
          "id": 344832661,
          "eventId": 491299,
          "siteUnitNumber": 12581,
          "bathingSite": "BIRLING GAP",
          "eventStart": "2021-09-08T21:26:00",
          "eventStop": "2021-09-08T22:49:00",
          "duration": 83,
          "status": "Genuine",
          "associatedSiteId": 109936,
          "outfallName": "EAST DEAN",
          "isImpacting": true,
          "overFlowSiteId": 115829
        }
      ]
    }
  ]
}