{
  "currentPage": 716,
  "totalItems": 18701,
  "totalPages": 749,
  "items": [
    {
      "id": 344016878,
      "eventId": 330256,
      "siteUnitNumber": 12662,
      "bathingSite": "CHICHESTER HARBOUR",
      "eventStart": "2021-01-30T08:50:22",
      "eventStop": "2021-01-30T09:05:31",
      "duration": 15,
      "status": "Genuine",
      "associatedSiteId": 109836,
      "outfallName": "CHICHESTER",
      "isImpacting": true,
      "overFlowSiteId": 0,
      "historicSpillsList": [
        {
          "id": 344016878,
          "eventId": 330256,
          "siteUnitNumber": 12662,
          "bathingSite": "CHICHESTER HARBOUR",
          "eventStart": "2021-01-30T08:50:22",
          "eventStop": "2021-01-30T09:05:31",
          "duration": 15,
          "status": "Genuine",
          "associatedSiteId": 109836,
          "outfallName": "CHICHESTER",
          "isImpacting": true,
          "overFlowSiteId": 115401
        }
      ]
    },
    {
      "id": 344007685,
      "eventId": 331492,
      "siteUnitNumber": 12616,
      "bathingSite": "GURNARD",
      "eventStart": "2021-01-30T08:18:15",
      "eventStop": "2021-01-30T09:00:00",
      "duration": 41,
      "status": "Genuine",
      "associatedSiteId": 109700,
      "outfallName": "MARKET HILL COWES",
      "isImpacting": true,
      "overFlowSiteId": 0,
      "historicSpillsList": [
        {
          "id": 344007685,
          "eventId": 331492,
          "siteUnitNumber": 12616,
          "bathingSite": "GURNARD",
          "eventStart": "2021-01-30T08:18:15",
          "eventStop": "2021-01-30T09:00:00",
          "duration": 41,
          "status": "Genuine",
          "associatedSiteId": 109700,
          "outfallName": "MARKET HILL COWES",
          "isImpacting": true,
          "overFlowSiteId": 109299
        },
        {
          "id": 344007686,
          "eventId": 331492,
          "siteUnitNumber": 12617,
          "bathingSite": "COWES",
          "eventStart": "2021-01-30T08:18:15",
          "eventStop": "2021-01-30T09:00:00",
          "duration": 41,
          "status": "Genuine",
          "associatedSiteId": 109700,
          "outfallName": "MARKET HILL COWES",
          "isImpacting": true,
          "overFlowSiteId": 109299,
          "historicSpillsList": []
        }
      ]
    },
    {
      "id": 344005729,
      "eventId": 330200,
      "siteUnitNumber": 12615,
      "bathingSite": "COLWELL BAY",
      "eventStart": "2021-01-30T08:06:21",
      "eventStop": "2021-01-30T08:58:21",
      "duration": 52,
      "status": "Genuine",
      "associatedSiteId": 109657,
      "outfallName": "THE PROMENADE TOTLAND PIER NO2",
      "isImpacting": true,
      "overFlowSiteId": 0,
      "historicSpillsList": [
        {
          "id": 344005729,
          "eventId": 330200,
          "siteUnitNumber": 12615,
          "bathingSite": "COLWELL BAY",
          "eventStart": "2021-01-30T08:06:21",
          "eventStop": "2021-01-30T08:58:21",
          "duration": 52,
          "status": "Genuine",
          "associatedSiteId": 109657,
          "outfallName": "THE PROMENADE TOTLAND PIER NO2",
          "isImpacting": true,
          "overFlowSiteId": 109375
        },
        {
          "id": 344005734,
          "eventId": 330200,
          "siteUnitNumber": 12614,
          "bathingSite": "TOTLAND BAY",
          "eventStart": "2021-01-30T08:06:21",
          "eventStop": "2021-01-30T08:58:21",
          "duration": 52,
          "status": "Genuine",
          "associatedSiteId": 109657,
          "outfallName": "THE PROMENADE TOTLAND PIER NO2",
          "isImpacting": true,
          "overFlowSiteId": 109375,
          "historicSpillsList": []
        }
      ]
    },
    {
      "id": 344018554,
      "eventId": 330344,
      "siteUnitNumber": 12568,
      "bathingSite": "SANDGATE",
      "eventStart": "2021-01-30T08:43:33",
      "eventStop": "2021-01-30T08:48:17",
      "duration": 4,
      "status": "Genuine",
      "associatedSiteId": 109896,
      "outfallName": "RANGE ROAD HYTHE K SHORT",
      "isImpacting": true,
      "overFlowSiteId": 0,
      "historicSpillsList": [
        {
          "id": 344018554,
          "eventId": 330344,
          "siteUnitNumber": 12568,
          "bathingSite": "SANDGATE",
          "eventStart": "2021-01-30T08:43:33",
          "eventStop": "2021-01-30T08:48:17",
          "duration": 4,
          "status": "Genuine",
          "associatedSiteId": 109896,
          "outfallName": "RANGE ROAD HYTHE K SHORT",
          "isImpacting": true,
          "overFlowSiteId": 116112
        },
        {
          "id": 344018555,
          "eventId": 330344,
          "siteUnitNumber": 12569,
          "bathingSite": "HYTHE",
          "eventStart": "2021-01-30T08:43:33",
          "eventStop": "2021-01-30T08:48:17",
          "duration": 4,
          "status": "Genuine",
          "associatedSiteId": 109896,
          "outfallName": "RANGE ROAD HYTHE K SHORT",
          "isImpacting": true,
          "overFlowSiteId": 116112,
          "historicSpillsList": []
        }
      ]
    },
    {
      "id": 344030485,
      "eventId": 328924,
      "siteUnitNumber": 12624,
      "bathingSite": "SANDOWN",
      "eventStart": "2021-01-30T05:47:00",
      "eventStop": "2021-01-30T08:45:00",
      "duration": 178,
      "status": "Genuine",
      "associatedSiteId": 110022,
      "outfallName": "SHANKLIN CHINE",
      "isImpacting": true,
      "overFlowSiteId": 0,
      "historicSpillsList": [
        {
          "id": 344030485,
          "eventId": 328924,
          "siteUnitNumber": 12624,
          "bathingSite": "SANDOWN",
          "eventStart": "2021-01-30T05:47:00",
          "eventStop": "2021-01-30T08:45:00",
          "duration": 178,
          "status": "Genuine",
          "associatedSiteId": 110022,
          "outfallName": "SHANKLIN CHINE",
          "isImpacting": true,
          "overFlowSiteId": 108046
        },
        {
          "id": 344030486,
          "eventId": 328924,
          "siteUnitNumber": 12625,
          "bathingSite": "SHANKLIN",
          "eventStart": "2021-01-30T05:47:00",
          "eventStop": "2021-01-30T08:45:00",
          "duration": 178,
          "status": "Genuine",
          "associatedSiteId": 110022,
          "outfallName": "SHANKLIN CHINE",
          "isImpacting": true,
          "overFlowSiteId": 108046,
          "historicSpillsList": []
        }
      ]
    },
    {
      "id": 344008465,
      "eventId": 330167,
      "siteUnitNumber": 12616,
      "bathingSite": "GURNARD",
      "eventStart": "2021-01-30T08:06:29",
      "eventStop": "2021-01-30T08:43:16",
      "duration": 36,
      "status": "Genuine",
      "associatedSiteId": 109704,
      "outfallName": "EGYPT POINT COWES",
      "isImpacting": true,
      "overFlowSiteId": 0,
      "historicSpillsList": [
        {
          "id": 344008465,
          "eventId": 330167,
          "siteUnitNumber": 12616,
          "bathingSite": "GURNARD",
          "eventStart": "2021-01-30T08:06:29",
          "eventStop": "2021-01-30T08:43:16",
          "duration": 36,
          "status": "Genuine",
          "associatedSiteId": 109704,
          "outfallName": "EGYPT POINT COWES",
          "isImpacting": true,
          "overFlowSiteId": 116213
        },
        {
          "id": 344008466,
          "eventId": 330167,
          "siteUnitNumber": 12617,
          "bathingSite": "COWES",
          "eventStart": "2021-01-30T08:06:29",
          "eventStop": "2021-01-30T08:43:16",
          "duration": 36,
          "status": "Genuine",
          "associatedSiteId": 109704,
          "outfallName": "EGYPT POINT COWES",
          "isImpacting": true,
          "overFlowSiteId": 116213,
          "historicSpillsList": []
        }
      ]
    },
    {
      "id": 344016877,
      "eventId": 330212,
      "siteUnitNumber": 12662,
      "bathingSite": "CHICHESTER HARBOUR",
      "eventStart": "2021-01-30T08:17:30",
      "eventStop": "2021-01-30T08:36:07",
      "duration": 18,
      "status": "Genuine",
      "associatedSiteId": 109836,
      "outfallName": "CHICHESTER",
      "isImpacting": true,
      "overFlowSiteId": 0,
      "historicSpillsList": [
        {
          "id": 344016877,
          "eventId": 330212,
          "siteUnitNumber": 12662,
          "bathingSite": "CHICHESTER HARBOUR",
          "eventStart": "2021-01-30T08:17:30",
          "eventStop": "2021-01-30T08:36:07",
          "duration": 18,
          "status": "Genuine",
          "associatedSiteId": 109836,
          "outfallName": "CHICHESTER",
          "isImpacting": true,
          "overFlowSiteId": 115401
        }
      ]
    },
    {
      "id": 344018558,
      "eventId": 330240,
      "siteUnitNumber": 12568,
      "bathingSite": "SANDGATE",
      "eventStart": "2021-01-30T08:25:06",
      "eventStop": "2021-01-30T08:30:46",
      "duration": 5,
      "status": "Genuine",
      "associatedSiteId": 109896,
      "outfallName": "RANGE ROAD HYTHE K SHORT",
      "isImpacting": true,
      "overFlowSiteId": 0,
      "historicSpillsList": [
        {
          "id": 344018558,
          "eventId": 330240,
          "siteUnitNumber": 12568,
          "bathingSite": "SANDGATE",
          "eventStart": "2021-01-30T08:25:06",
          "eventStop": "2021-01-30T08:30:46",
          "duration": 5,
          "status": "Genuine",
          "associatedSiteId": 109896,
          "outfallName": "RANGE ROAD HYTHE K SHORT",
          "isImpacting": true,
          "overFlowSiteId": 116112
        },
        {
          "id": 344018559,
          "eventId": 330240,
          "siteUnitNumber": 12569,
          "bathingSite": "HYTHE",
          "eventStart": "2021-01-30T08:25:06",
          "eventStop": "2021-01-30T08:30:46",
          "duration": 5,
          "status": "Genuine",
          "associatedSiteId": 109896,
          "outfallName": "RANGE ROAD HYTHE K SHORT",
          "isImpacting": true,
          "overFlowSiteId": 116112,
          "historicSpillsList": []
        }
      ]
    },
    {
      "id": 344039964,
      "eventId": 329813,
      "siteUnitNumber": 12582,
      "bathingSite": "SEAFORD",
      "eventStart": "2021-01-30T05:03:09",
      "eventStop": "2021-01-30T08:28:29",
      "duration": 205,
      "status": "Genuine",
      "associatedSiteId": 110920,
      "outfallName": "NEWHAVEN",
      "isImpacting": true,
      "overFlowSiteId": 0,
      "historicSpillsList": [
        {
          "id": 344039964,
          "eventId": 329813,
          "siteUnitNumber": 12582,
          "bathingSite": "SEAFORD",
          "eventStart": "2021-01-30T05:03:09",
          "eventStop": "2021-01-30T08:28:29",
          "duration": 205,
          "status": "Genuine",
          "associatedSiteId": 110920,
          "outfallName": "NEWHAVEN",
          "isImpacting": true,
          "overFlowSiteId": 116065
        }
      ]
    },
    {
      "id": 344006785,
      "eventId": 333695,
      "siteUnitNumber": 12551,
      "bathingSite": "HERNE BAY",
      "eventStart": "2021-01-30T07:32:00",
      "eventStop": "2021-01-30T08:28:00",
      "duration": 56,
      "status": "Genuine",
      "associatedSiteId": 109682,
      "outfallName": "MAY STREET HERNE BAY NO3",
      "isImpacting": true,
      "overFlowSiteId": 0,
      "historicSpillsList": [
        {
          "id": 344006785,
          "eventId": 333695,
          "siteUnitNumber": 12551,
          "bathingSite": "HERNE BAY",
          "eventStart": "2021-01-30T07:32:00",
          "eventStop": "2021-01-30T08:28:00",
          "duration": 56,
          "status": "Genuine",
          "associatedSiteId": 109682,
          "outfallName": "MAY STREET HERNE BAY NO3",
          "isImpacting": true,
          "overFlowSiteId": 115418
        }
      ]
    },
    {
      "id": 344018556,
      "eventId": 330232,
      "siteUnitNumber": 12568,
      "bathingSite": "SANDGATE",
      "eventStart": "2021-01-30T08:05:40",
      "eventStop": "2021-01-30T08:11:33",
      "duration": 5,
      "status": "Genuine",
      "associatedSiteId": 109896,
      "outfallName": "RANGE ROAD HYTHE K SHORT",
      "isImpacting": true,
      "overFlowSiteId": 0,
      "historicSpillsList": [
        {
          "id": 344018556,
          "eventId": 330232,
          "siteUnitNumber": 12568,
          "bathingSite": "SANDGATE",
          "eventStart": "2021-01-30T08:05:40",
          "eventStop": "2021-01-30T08:11:33",
          "duration": 5,
          "status": "Genuine",
          "associatedSiteId": 109896,
          "outfallName": "RANGE ROAD HYTHE K SHORT",
          "isImpacting": true,
          "overFlowSiteId": 116112
        },
        {
          "id": 344018557,
          "eventId": 330232,
          "siteUnitNumber": 12569,
          "bathingSite": "HYTHE",
          "eventStart": "2021-01-30T08:05:40",
          "eventStop": "2021-01-30T08:11:33",
          "duration": 5,
          "status": "Genuine",
          "associatedSiteId": 109896,
          "outfallName": "RANGE ROAD HYTHE K SHORT",
          "isImpacting": true,
          "overFlowSiteId": 116112,
          "historicSpillsList": []
        }
      ]
    },
    {
      "id": 344016879,
      "eventId": 330138,
      "siteUnitNumber": 12662,
      "bathingSite": "CHICHESTER HARBOUR",
      "eventStart": "2021-01-30T07:46:28",
      "eventStop": "2021-01-30T08:08:40",
      "duration": 22,
      "status": "Genuine",
      "associatedSiteId": 109836,
      "outfallName": "CHICHESTER",
      "isImpacting": true,
      "overFlowSiteId": 0,
      "historicSpillsList": [
        {
          "id": 344016879,
          "eventId": 330138,
          "siteUnitNumber": 12662,
          "bathingSite": "CHICHESTER HARBOUR",
          "eventStart": "2021-01-30T07:46:28",
          "eventStop": "2021-01-30T08:08:40",
          "duration": 22,
          "status": "Genuine",
          "associatedSiteId": 109836,
          "outfallName": "CHICHESTER",
          "isImpacting": true,
          "overFlowSiteId": 115401
        }
      ]
    },
    {
      "id": 344028750,
      "eventId": 332425,
      "siteUnitNumber": 12591,
      "bathingSite": "LITTLEHAMPTON",
      "eventStart": "2021-01-30T04:57:00",
      "eventStop": "2021-01-30T07:55:00",
      "duration": 178,
      "status": "Genuine",
      "associatedSiteId": 109968,
      "outfallName": "FORD ROAD ARUNDEL",
      "isImpacting": true,
      "overFlowSiteId": 0,
      "historicSpillsList": [
        {
          "id": 344028750,
          "eventId": 332425,
          "siteUnitNumber": 12591,
          "bathingSite": "LITTLEHAMPTON",
          "eventStart": "2021-01-30T04:57:00",
          "eventStop": "2021-01-30T07:55:00",
          "duration": 178,
          "status": "Genuine",
          "associatedSiteId": 109968,
          "outfallName": "FORD ROAD ARUNDEL",
          "isImpacting": true,
          "overFlowSiteId": 108002
        }
      ]
    },
    {
      "id": 344008025,
      "eventId": 330105,
      "siteUnitNumber": 12616,
      "bathingSite": "GURNARD",
      "eventStart": "2021-01-30T07:28:18",
      "eventStop": "2021-01-30T07:52:33",
      "duration": 24,
      "status": "Genuine",
      "associatedSiteId": 109704,
      "outfallName": "EGYPT POINT COWES",
      "isImpacting": true,
      "overFlowSiteId": 0,
      "historicSpillsList": [
        {
          "id": 344008025,
          "eventId": 330105,
          "siteUnitNumber": 12616,
          "bathingSite": "GURNARD",
          "eventStart": "2021-01-30T07:28:18",
          "eventStop": "2021-01-30T07:52:33",
          "duration": 24,
          "status": "Genuine",
          "associatedSiteId": 109704,
          "outfallName": "EGYPT POINT COWES",
          "isImpacting": true,
          "overFlowSiteId": 116213
        },
        {
          "id": 344008026,
          "eventId": 330105,
          "siteUnitNumber": 12617,
          "bathingSite": "COWES",
          "eventStart": "2021-01-30T07:28:18",
          "eventStop": "2021-01-30T07:52:33",
          "duration": 24,
          "status": "Genuine",
          "associatedSiteId": 109704,
          "outfallName": "EGYPT POINT COWES",
          "isImpacting": true,
          "overFlowSiteId": 116213,
          "historicSpillsList": []
        }
      ]
    },
    {
      "id": 344018560,
      "eventId": 330229,
      "siteUnitNumber": 12568,
      "bathingSite": "SANDGATE",
      "eventStart": "2021-01-30T07:46:24",
      "eventStop": "2021-01-30T07:51:51",
      "duration": 5,
      "status": "Genuine",
      "associatedSiteId": 109896,
      "outfallName": "RANGE ROAD HYTHE K SHORT",
      "isImpacting": true,
      "overFlowSiteId": 0,
      "historicSpillsList": [
        {
          "id": 344018560,
          "eventId": 330229,
          "siteUnitNumber": 12568,
          "bathingSite": "SANDGATE",
          "eventStart": "2021-01-30T07:46:24",
          "eventStop": "2021-01-30T07:51:51",
          "duration": 5,
          "status": "Genuine",
          "associatedSiteId": 109896,
          "outfallName": "RANGE ROAD HYTHE K SHORT",
          "isImpacting": true,
          "overFlowSiteId": 116112
        },
        {
          "id": 344018561,
          "eventId": 330229,
          "siteUnitNumber": 12569,
          "bathingSite": "HYTHE",
          "eventStart": "2021-01-30T07:46:24",
          "eventStop": "2021-01-30T07:51:51",
          "duration": 5,
          "status": "Genuine",
          "associatedSiteId": 109896,
          "outfallName": "RANGE ROAD HYTHE K SHORT",
          "isImpacting": true,
          "overFlowSiteId": 116112,
          "historicSpillsList": []
        }
      ]
    },
    {
      "id": 344016880,
      "eventId": 330099,
      "siteUnitNumber": 12662,
      "bathingSite": "CHICHESTER HARBOUR",
      "eventStart": "2021-01-30T07:22:03",
      "eventStop": "2021-01-30T07:38:48",
      "duration": 16,
      "status": "Genuine",
      "associatedSiteId": 109836,
      "outfallName": "CHICHESTER",
      "isImpacting": true,
      "overFlowSiteId": 0,
      "historicSpillsList": [
        {
          "id": 344016880,
          "eventId": 330099,
          "siteUnitNumber": 12662,
          "bathingSite": "CHICHESTER HARBOUR",
          "eventStart": "2021-01-30T07:22:03",
          "eventStop": "2021-01-30T07:38:48",
          "duration": 16,
          "status": "Genuine",
          "associatedSiteId": 109836,
          "outfallName": "CHICHESTER",
          "isImpacting": true,
          "overFlowSiteId": 115401
        }
      ]
    },
    {
      "id": 344027592,
      "eventId": 329731,
      "siteUnitNumber": 12594,
      "bathingSite": "BOGNOR REGIS EAST",
      "eventStart": "2021-01-30T05:00:00",
      "eventStop": "2021-01-30T07:11:00",
      "duration": 131,
      "status": "Genuine",
      "associatedSiteId": 109959,
      "outfallName": "WEST PARK BOGNOR REGIS",
      "isImpacting": true,
      "overFlowSiteId": 0,
      "historicSpillsList": [
        {
          "id": 344027592,
          "eventId": 329731,
          "siteUnitNumber": 12594,
          "bathingSite": "BOGNOR REGIS EAST",
          "eventStart": "2021-01-30T05:00:00",
          "eventStop": "2021-01-30T07:11:00",
          "duration": 131,
          "status": "Genuine",
          "associatedSiteId": 109959,
          "outfallName": "WEST PARK BOGNOR REGIS",
          "isImpacting": true,
          "overFlowSiteId": 108160
        },
        {
          "id": 344027593,
          "eventId": 329731,
          "siteUnitNumber": 12595,
          "bathingSite": "BOGNOR REGIS (ALDWICK)",
          "eventStart": "2021-01-30T05:00:00",
          "eventStop": "2021-01-30T07:11:00",
          "duration": 131,
          "status": "Genuine",
          "associatedSiteId": 109959,
          "outfallName": "WEST PARK BOGNOR REGIS",
          "isImpacting": true,
          "overFlowSiteId": 108160,
          "historicSpillsList": []
        },
        {
          "id": 344027594,
          "eventId": 329731,
          "siteUnitNumber": 12596,
          "bathingSite": "PAGHAM",
          "eventStart": "2021-01-30T05:00:00",
          "eventStop": "2021-01-30T07:11:00",
          "duration": 131,
          "status": "Genuine",
          "associatedSiteId": 109959,
          "outfallName": "WEST PARK BOGNOR REGIS",
          "isImpacting": true,
          "overFlowSiteId": 108160,
          "historicSpillsList": []
        }
      ]
    },
    {
      "id": 344006787,
      "eventId": 333694,
      "siteUnitNumber": 12551,
      "bathingSite": "HERNE BAY",
      "eventStart": "2021-01-30T06:23:00",
      "eventStop": "2021-01-30T07:05:00",
      "duration": 42,
      "status": "Genuine",
      "associatedSiteId": 109682,
      "outfallName": "MAY STREET HERNE BAY NO3",
      "isImpacting": true,
      "overFlowSiteId": 0,
      "historicSpillsList": [
        {
          "id": 344006787,
          "eventId": 333694,
          "siteUnitNumber": 12551,
          "bathingSite": "HERNE BAY",
          "eventStart": "2021-01-30T06:23:00",
          "eventStop": "2021-01-30T07:05:00",
          "duration": 42,
          "status": "Genuine",
          "associatedSiteId": 109682,
          "outfallName": "MAY STREET HERNE BAY NO3",
          "isImpacting": true,
          "overFlowSiteId": 115418
        }
      ]
    },
    {
      "id": 344007027,
      "eventId": 329892,
      "siteUnitNumber": 12616,
      "bathingSite": "GURNARD",
      "eventStart": "2021-01-30T05:56:59",
      "eventStop": "2021-01-30T07:02:44",
      "duration": 65,
      "status": "Genuine",
      "associatedSiteId": 109698,
      "outfallName": "WHITEGATES COWES",
      "isImpacting": true,
      "overFlowSiteId": 0,
      "historicSpillsList": [
        {
          "id": 344007027,
          "eventId": 329892,
          "siteUnitNumber": 12616,
          "bathingSite": "GURNARD",
          "eventStart": "2021-01-30T05:56:59",
          "eventStop": "2021-01-30T07:02:44",
          "duration": 65,
          "status": "Genuine",
          "associatedSiteId": 109698,
          "outfallName": "WHITEGATES COWES",
          "isImpacting": true,
          "overFlowSiteId": 111041
        },
        {
          "id": 344007028,
          "eventId": 329892,
          "siteUnitNumber": 12617,
          "bathingSite": "COWES",
          "eventStart": "2021-01-30T05:56:59",
          "eventStop": "2021-01-30T07:02:44",
          "duration": 65,
          "status": "Genuine",
          "associatedSiteId": 109698,
          "outfallName": "WHITEGATES COWES",
          "isImpacting": true,
          "overFlowSiteId": 111041,
          "historicSpillsList": []
        }
      ]
    },
    {
      "id": 344003639,
      "eventId": 331832,
      "siteUnitNumber": 12544,
      "bathingSite": "SHEERNESS",
      "eventStart": "2021-01-30T06:37:00",
      "eventStop": "2021-01-30T06:59:00",
      "duration": 22,
      "status": "Genuine",
      "associatedSiteId": 109616,
      "outfallName": "SOUTH STREET QUEENBOROUGH",
      "isImpacting": true,
      "overFlowSiteId": 0,
      "historicSpillsList": [
        {
          "id": 344003639,
          "eventId": 331832,
          "siteUnitNumber": 12544,
          "bathingSite": "SHEERNESS",
          "eventStart": "2021-01-30T06:37:00",
          "eventStop": "2021-01-30T06:59:00",
          "duration": 22,
          "status": "Genuine",
          "associatedSiteId": 109616,
          "outfallName": "SOUTH STREET QUEENBOROUGH",
          "isImpacting": true,
          "overFlowSiteId": 108732
        }
      ]
    },
    {
      "id": 344007951,
      "eventId": 329608,
      "siteUnitNumber": 12616,
      "bathingSite": "GURNARD",
      "eventStart": "2021-01-30T04:55:00",
      "eventStop": "2021-01-30T06:51:00",
      "duration": 116,
      "status": "Genuine",
      "associatedSiteId": 109702,
      "outfallName": "ALBANY ROAD EAST COWES",
      "isImpacting": true,
      "overFlowSiteId": 0,
      "historicSpillsList": [
        {
          "id": 344007951,
          "eventId": 329608,
          "siteUnitNumber": 12616,
          "bathingSite": "GURNARD",
          "eventStart": "2021-01-30T04:55:00",
          "eventStop": "2021-01-30T06:51:00",
          "duration": 116,
          "status": "Genuine",
          "associatedSiteId": 109702,
          "outfallName": "ALBANY ROAD EAST COWES",
          "isImpacting": true,
          "overFlowSiteId": 116071
        },
        {
          "id": 344007952,
          "eventId": 329608,
          "siteUnitNumber": 12617,
          "bathingSite": "COWES",
          "eventStart": "2021-01-30T04:55:00",
          "eventStop": "2021-01-30T06:51:00",
          "duration": 116,
          "status": "Genuine",
          "associatedSiteId": 109702,
          "outfallName": "ALBANY ROAD EAST COWES",
          "isImpacting": true,
          "overFlowSiteId": 116071,
          "historicSpillsList": []
        }
      ]
    },
    {
      "id": 344006789,
      "eventId": 333693,
      "siteUnitNumber": 12551,
      "bathingSite": "HERNE BAY",
      "eventStart": "2021-01-30T04:10:00",
      "eventStop": "2021-01-30T06:10:00",
      "duration": 120,
      "status": "Genuine",
      "associatedSiteId": 109682,
      "outfallName": "MAY STREET HERNE BAY NO3",
      "isImpacting": true,
      "overFlowSiteId": 0,
      "historicSpillsList": [
        {
          "id": 344006789,
          "eventId": 333693,
          "siteUnitNumber": 12551,
          "bathingSite": "HERNE BAY",
          "eventStart": "2021-01-30T04:10:00",
          "eventStop": "2021-01-30T06:10:00",
          "duration": 120,
          "status": "Genuine",
          "associatedSiteId": 109682,
          "outfallName": "MAY STREET HERNE BAY NO3",
          "isImpacting": true,
          "overFlowSiteId": 115418
        }
      ]
    },
    {
      "id": 344033821,
      "eventId": 329761,
      "siteUnitNumber": 12623,
      "bathingSite": "YAVERLAND",
      "eventStart": "2021-01-30T04:22:34",
      "eventStop": "2021-01-30T05:54:07",
      "duration": 91,
      "status": "Genuine",
      "associatedSiteId": 110096,
      "outfallName": "SANDOWN NO1",
      "isImpacting": true,
      "overFlowSiteId": 0,
      "historicSpillsList": [
        {
          "id": 344033821,
          "eventId": 329761,
          "siteUnitNumber": 12623,
          "bathingSite": "YAVERLAND",
          "eventStart": "2021-01-30T04:22:34",
          "eventStop": "2021-01-30T05:54:07",
          "duration": 91,
          "status": "Genuine",
          "associatedSiteId": 110096,
          "outfallName": "SANDOWN NO1",
          "isImpacting": true,
          "overFlowSiteId": 115453
        },
        {
          "id": 344033822,
          "eventId": 329761,
          "siteUnitNumber": 12624,
          "bathingSite": "SANDOWN",
          "eventStart": "2021-01-30T04:22:34",
          "eventStop": "2021-01-30T05:54:07",
          "duration": 91,
          "status": "Genuine",
          "associatedSiteId": 110096,
          "outfallName": "SANDOWN NO1",
          "isImpacting": true,
          "overFlowSiteId": 115453,
          "historicSpillsList": []
        },
        {
          "id": 344033828,
          "eventId": 329761,
          "siteUnitNumber": 12622,
          "bathingSite": "WHITECLIFF BAY",
          "eventStart": "2021-01-30T04:22:34",
          "eventStop": "2021-01-30T05:54:07",
          "duration": 91,
          "status": "Genuine",
          "associatedSiteId": 110096,
          "outfallName": "SANDOWN NO1",
          "isImpacting": true,
          "overFlowSiteId": 115453,
          "historicSpillsList": []
        }
      ]
    },
    {
      "id": 344012701,
      "eventId": 329455,
      "siteUnitNumber": 12618,
      "bathingSite": "RYDE",
      "eventStart": "2021-01-30T04:30:00",
      "eventStop": "2021-01-30T05:44:00",
      "duration": 74,
      "status": "Genuine",
      "associatedSiteId": 109778,
      "outfallName": "PRINCE CONSORT RYDE NEW",
      "isImpacting": true,
      "overFlowSiteId": 0,
      "historicSpillsList": [
        {
          "id": 344012701,
          "eventId": 329455,
          "siteUnitNumber": 12618,
          "bathingSite": "RYDE",
          "eventStart": "2021-01-30T04:30:00",
          "eventStop": "2021-01-30T05:44:00",
          "duration": 74,
          "status": "Genuine",
          "associatedSiteId": 109778,
          "outfallName": "PRINCE CONSORT RYDE NEW",
          "isImpacting": true,
          "overFlowSiteId": 108043
        }
      ]
    },
    {
      "id": 344039417,
      "eventId": 330480,
      "siteUnitNumber": 12662,
      "bathingSite": "CHICHESTER HARBOUR",
      "eventStart": "2021-01-29T10:40:00",
      "eventStop": "2021-01-30T05:00:00",
      "duration": 1100,
      "status": "Genuine",
      "associatedSiteId": 110760,
      "outfallName": "BOSHAM",
      "isImpacting": true,
      "overFlowSiteId": 0,
      "historicSpillsList": [
        {
          "id": 344039417,
          "eventId": 330480,
          "siteUnitNumber": 12662,
          "bathingSite": "CHICHESTER HARBOUR",
          "eventStart": "2021-01-29T10:40:00",
          "eventStop": "2021-01-30T05:00:00",
          "duration": 1100,
          "status": "Genuine",
          "associatedSiteId": 110760,
          "outfallName": "BOSHAM",
          "isImpacting": true,
          "overFlowSiteId": 115735
        }
      ]
    }
  ]
}