{
  "currentPage": 201,
  "totalItems": 18701,
  "totalPages": 749,
  "items": [
    {
      "id": 343945333,
      "eventId": 861759,
      "siteUnitNumber": 12625,
      "bathingSite": "SHANKLIN",
      "eventStart": "2023-09-20T19:55:23",
      "eventStop": "2023-09-20T20:20:54",
      "duration": 25,
      "status": "Genuine",
      "associatedSiteId": 110024,
      "outfallName": "EASTERN GARDENS SANDOWN",
      "isImpacting": true,
      "overFlowSiteId": 0,
      "historicSpillsList": [
        {
          "id": 343945333,
          "eventId": 861759,
          "siteUnitNumber": 12625,
          "bathingSite": "SHANKLIN",
          "eventStart": "2023-09-20T19:55:23",
          "eventStop": "2023-09-20T20:20:54",
          "duration": 25,
          "status": "Genuine",
          "associatedSiteId": 110024,
          "outfallName": "EASTERN GARDENS SANDOWN",
          "isImpacting": true,
          "overFlowSiteId": 108039
        },
        {
          "id": 343945334,
          "eventId": 861759,
          "siteUnitNumber": 12623,
          "bathingSite": "YAVERLAND",
          "eventStart": "2023-09-20T19:55:23",
          "eventStop": "2023-09-20T20:20:54",
          "duration": 25,
          "status": "Genuine",
          "associatedSiteId": 110024,
          "outfallName": "EASTERN GARDENS SANDOWN",
          "isImpacting": true,
          "overFlowSiteId": 108039,
          "historicSpillsList": []
        },
        {
          "id": 343945335,
          "eventId": 861759,
          "siteUnitNumber": 12624,
          "bathingSite": "SANDOWN",
          "eventStart": "2023-09-20T19:55:23",
          "eventStop": "2023-09-20T20:20:54",
          "duration": 25,
          "status": "Genuine",
          "associatedSiteId": 110024,
          "outfallName": "EASTERN GARDENS SANDOWN",
          "isImpacting": true,
          "overFlowSiteId": 108039,
          "historicSpillsList": []
        }
      ]
    },
    {
      "id": 343920423,
      "eventId": 861689,
      "siteUnitNumber": 12614,
      "bathingSite": "TOTLAND BAY",
      "eventStart": "2023-09-20T19:07:00",
      "eventStop": "2023-09-20T20:16:00",
      "duration": 69,
      "status": "Genuine",
      "associatedSiteId": 109657,
      "outfallName": "THE PROMENADE TOTLAND PIER NO2",
      "isImpacting": false,
      "overFlowSiteId": 0,
      "historicSpillsList": []
    },
    {
      "id": 343917942,
      "eventId": 861808,
      "siteUnitNumber": 12618,
      "bathingSite": "RYDE",
      "eventStart": "2023-09-20T19:54:28",
      "eventStop": "2023-09-20T20:15:00",
      "duration": 20,
      "status": "Genuine",
      "associatedSiteId": 102050,
      "outfallName": "ESPLANADE SEAVIEW",
      "isImpacting": false,
      "overFlowSiteId": 0,
      "historicSpillsList": []
    },
    {
      "id": 343929818,
      "eventId": 861802,
      "siteUnitNumber": 12549,
      "bathingSite": "HERNE BAY CENTRAL",
      "eventStart": "2023-09-20T19:52:18",
      "eventStop": "2023-09-20T20:14:47",
      "duration": 22,
      "status": "Genuine",
      "associatedSiteId": 109830,
      "outfallName": "SWALECLIFFE NO1",
      "isImpacting": false,
      "overFlowSiteId": 0,
      "historicSpillsList": []
    },
    {
      "id": 343928640,
      "eventId": 861760,
      "siteUnitNumber": 12661,
      "bathingSite": "LANGSTONE HARBOUR",
      "eventStart": "2023-09-20T20:01:00",
      "eventStop": "2023-09-20T20:03:00",
      "duration": 2,
      "status": "Genuine",
      "associatedSiteId": 109820,
      "outfallName": "ST ANDREWS ROAD PORTSMOUTH",
      "isImpacting": true,
      "overFlowSiteId": 0,
      "historicSpillsList": [
        {
          "id": 343928640,
          "eventId": 861760,
          "siteUnitNumber": 12661,
          "bathingSite": "LANGSTONE HARBOUR",
          "eventStart": "2023-09-20T20:01:00",
          "eventStop": "2023-09-20T20:03:00",
          "duration": 2,
          "status": "Genuine",
          "associatedSiteId": 109820,
          "outfallName": "ST ANDREWS ROAD PORTSMOUTH",
          "isImpacting": true,
          "overFlowSiteId": 108474
        }
      ]
    },
    {
      "id": 343927687,
      "eventId": 861511,
      "siteUnitNumber": 12618,
      "bathingSite": "RYDE",
      "eventStart": "2023-09-20T19:38:00",
      "eventStop": "2023-09-20T20:03:00",
      "duration": 25,
      "status": "Genuine",
      "associatedSiteId": 109781,
      "outfallName": "SPENCER ROAD RYDE",
      "isImpacting": true,
      "overFlowSiteId": 0,
      "historicSpillsList": [
        {
          "id": 343927687,
          "eventId": 861511,
          "siteUnitNumber": 12618,
          "bathingSite": "RYDE",
          "eventStart": "2023-09-20T19:38:00",
          "eventStop": "2023-09-20T20:03:00",
          "duration": 25,
          "status": "Genuine",
          "associatedSiteId": 109781,
          "outfallName": "SPENCER ROAD RYDE",
          "isImpacting": true,
          "overFlowSiteId": 108566
        }
      ]
    },
    {
      "id": 343927694,
      "eventId": 861798,
      "siteUnitNumber": 12618,
      "bathingSite": "RYDE",
      "eventStart": "2023-09-20T19:46:33",
      "eventStop": "2023-09-20T20:00:46",
      "duration": 14,
      "status": "Genuine",
      "associatedSiteId": 109782,
      "outfallName": "AUGUSTA ROAD RYDE",
      "isImpacting": true,
      "overFlowSiteId": 0,
      "historicSpillsList": [
        {
          "id": 343927694,
          "eventId": 861798,
          "siteUnitNumber": 12618,
          "bathingSite": "RYDE",
          "eventStart": "2023-09-20T19:46:33",
          "eventStop": "2023-09-20T20:00:46",
          "duration": 14,
          "status": "Genuine",
          "associatedSiteId": 109782,
          "outfallName": "AUGUSTA ROAD RYDE",
          "isImpacting": true,
          "overFlowSiteId": 102348
        }
      ]
    },
    {
      "id": 343935134,
      "eventId": 861679,
      "siteUnitNumber": 12576,
      "bathingSite": "ST LEONARDS",
      "eventStart": "2023-09-20T18:35:22",
      "eventStop": "2023-09-20T20:00:00",
      "duration": 84,
      "status": "Genuine",
      "associatedSiteId": 109903,
      "outfallName": "BEXHILL & HASTINGS NO2",
      "isImpacting": true,
      "overFlowSiteId": 0,
      "historicSpillsList": [
        {
          "id": 343935134,
          "eventId": 861679,
          "siteUnitNumber": 12576,
          "bathingSite": "ST LEONARDS",
          "eventStart": "2023-09-20T18:35:22",
          "eventStop": "2023-09-20T20:00:00",
          "duration": 84,
          "status": "Genuine",
          "associatedSiteId": 109903,
          "outfallName": "BEXHILL & HASTINGS NO2",
          "isImpacting": true,
          "overFlowSiteId": 115398
        },
        {
          "id": 343935135,
          "eventId": 861679,
          "siteUnitNumber": 12577,
          "bathingSite": "BEXHILL",
          "eventStart": "2023-09-20T18:35:22",
          "eventStop": "2023-09-20T20:00:00",
          "duration": 84,
          "status": "Genuine",
          "associatedSiteId": 109903,
          "outfallName": "BEXHILL & HASTINGS NO2",
          "isImpacting": true,
          "overFlowSiteId": 115398,
          "historicSpillsList": []
        }
      ]
    },
    {
      "id": 343928413,
      "eventId": 861597,
      "siteUnitNumber": 12610,
      "bathingSite": "MILFORD-ON-SEA",
      "eventStart": "2023-09-20T19:27:00",
      "eventStop": "2023-09-20T19:55:00",
      "duration": 28,
      "status": "Genuine",
      "associatedSiteId": 109801,
      "outfallName": "BECTON LANE BARTON ON SEA",
      "isImpacting": false,
      "overFlowSiteId": 0,
      "historicSpillsList": []
    },
    {
      "id": 343920629,
      "eventId": 861728,
      "siteUnitNumber": 12615,
      "bathingSite": "COLWELL BAY",
      "eventStart": "2023-09-20T19:04:00",
      "eventStop": "2023-09-20T19:52:00",
      "duration": 48,
      "status": "Genuine",
      "associatedSiteId": 109663,
      "outfallName": "THE INSTITUTE YARMOUTH NO1",
      "isImpacting": false,
      "overFlowSiteId": 0,
      "historicSpillsList": []
    },
    {
      "id": 343921949,
      "eventId": 861775,
      "siteUnitNumber": 12616,
      "bathingSite": "GURNARD",
      "eventStart": "2023-09-20T19:32:17",
      "eventStop": "2023-09-20T19:47:06",
      "duration": 14,
      "status": "Genuine",
      "associatedSiteId": 109700,
      "outfallName": "MARKET HILL COWES",
      "isImpacting": false,
      "overFlowSiteId": 0,
      "historicSpillsList": []
    },
    {
      "id": 343920770,
      "eventId": 861705,
      "siteUnitNumber": 12615,
      "bathingSite": "COLWELL BAY",
      "eventStart": "2023-09-20T19:27:00",
      "eventStop": "2023-09-20T19:47:00",
      "duration": 20,
      "status": "Genuine",
      "associatedSiteId": 109665,
      "outfallName": "THORLEY ROAD BOULDNOR",
      "isImpacting": false,
      "overFlowSiteId": 0,
      "historicSpillsList": []
    },
    {
      "id": 343954442,
      "eventId": 861641,
      "siteUnitNumber": 12582,
      "bathingSite": "SEAFORD",
      "eventStart": "2023-09-20T18:32:58",
      "eventStop": "2023-09-20T19:34:23",
      "duration": 61,
      "status": "Genuine",
      "associatedSiteId": 110920,
      "outfallName": "NEWHAVEN",
      "isImpacting": false,
      "overFlowSiteId": 0,
      "historicSpillsList": []
    },
    {
      "id": 343924223,
      "eventId": 861709,
      "siteUnitNumber": 12616,
      "bathingSite": "GURNARD",
      "eventStart": "2023-09-20T19:24:57",
      "eventStop": "2023-09-20T19:30:00",
      "duration": 5,
      "status": "Genuine",
      "associatedSiteId": 109707,
      "outfallName": "MEDINA ROAD COWES",
      "isImpacting": false,
      "overFlowSiteId": 0,
      "historicSpillsList": []
    },
    {
      "id": 343943990,
      "eventId": 861596,
      "siteUnitNumber": 12591,
      "bathingSite": "LITTLEHAMPTON",
      "eventStart": "2023-09-20T17:46:00",
      "eventStop": "2023-09-20T19:27:00",
      "duration": 101,
      "status": "Genuine",
      "associatedSiteId": 109977,
      "outfallName": "FORESHORE TANK LITTLEHAMPTON",
      "isImpacting": true,
      "overFlowSiteId": 0,
      "historicSpillsList": [
        {
          "id": 343943990,
          "eventId": 861596,
          "siteUnitNumber": 12591,
          "bathingSite": "LITTLEHAMPTON",
          "eventStart": "2023-09-20T17:46:00",
          "eventStop": "2023-09-20T19:27:00",
          "duration": 101,
          "status": "Genuine",
          "associatedSiteId": 109977,
          "outfallName": "FORESHORE TANK LITTLEHAMPTON",
          "isImpacting": true,
          "overFlowSiteId": 109390
        }
      ]
    },
    {
      "id": 343939670,
      "eventId": 861550,
      "siteUnitNumber": 12582,
      "bathingSite": "SEAFORD",
      "eventStart": "2023-09-20T18:15:00",
      "eventStop": "2023-09-20T19:16:00",
      "duration": 61,
      "status": "Genuine",
      "associatedSiteId": 109957,
      "outfallName": "PORTOBELLO BRIGHTON NO2",
      "isImpacting": true,
      "overFlowSiteId": 0,
      "historicSpillsList": [
        {
          "id": 343939671,
          "eventId": 861550,
          "siteUnitNumber": 12583,
          "bathingSite": "SALTDEAN",
          "eventStart": "2023-09-20T18:15:00",
          "eventStop": "2023-09-20T19:16:00",
          "duration": 61,
          "status": "Genuine",
          "associatedSiteId": 109957,
          "outfallName": "PORTOBELLO BRIGHTON NO2",
          "isImpacting": true,
          "overFlowSiteId": 116036,
          "historicSpillsList": []
        }
      ]
    },
    {
      "id": 343918569,
      "eventId": 861894,
      "siteUnitNumber": 12544,
      "bathingSite": "SHEERNESS",
      "eventStart": "2023-09-20T19:02:00",
      "eventStop": "2023-09-20T19:04:00",
      "duration": 2,
      "status": "Genuine",
      "associatedSiteId": 109621,
      "outfallName": "NOREEN AVENUE SHEERNESS",
      "isImpacting": true,
      "overFlowSiteId": 0,
      "historicSpillsList": [
        {
          "id": 343918569,
          "eventId": 861894,
          "siteUnitNumber": 12544,
          "bathingSite": "SHEERNESS",
          "eventStart": "2023-09-20T19:02:00",
          "eventStop": "2023-09-20T19:04:00",
          "duration": 2,
          "status": "Genuine",
          "associatedSiteId": 109621,
          "outfallName": "NOREEN AVENUE SHEERNESS",
          "isImpacting": true,
          "overFlowSiteId": 108809
        },
        {
          "id": 343918570,
          "eventId": 861894,
          "siteUnitNumber": 12550,
          "bathingSite": "MINSTER LEAS",
          "eventStart": "2023-09-20T19:02:00",
          "eventStop": "2023-09-20T19:04:00",
          "duration": 2,
          "status": "Genuine",
          "associatedSiteId": 109621,
          "outfallName": "NOREEN AVENUE SHEERNESS",
          "isImpacting": true,
          "overFlowSiteId": 108809,
          "historicSpillsList": []
        }
      ]
    },
    {
      "id": 343943324,
      "eventId": 861532,
      "siteUnitNumber": 12591,
      "bathingSite": "LITTLEHAMPTON",
      "eventStart": "2023-09-20T17:35:24",
      "eventStop": "2023-09-20T18:45:00",
      "duration": 69,
      "status": "Genuine",
      "associatedSiteId": 109968,
      "outfallName": "FORD ROAD ARUNDEL",
      "isImpacting": true,
      "overFlowSiteId": 0,
      "historicSpillsList": [
        {
          "id": 343943324,
          "eventId": 861532,
          "siteUnitNumber": 12591,
          "bathingSite": "LITTLEHAMPTON",
          "eventStart": "2023-09-20T17:35:24",
          "eventStop": "2023-09-20T18:45:00",
          "duration": 69,
          "status": "Genuine",
          "associatedSiteId": 109968,
          "outfallName": "FORD ROAD ARUNDEL",
          "isImpacting": true,
          "overFlowSiteId": 108002
        }
      ]
    },
    {
      "id": 343928666,
      "eventId": 861477,
      "siteUnitNumber": 12604,
      "bathingSite": "SOUTHSEA EAST",
      "eventStart": "2023-09-20T17:23:00",
      "eventStop": "2023-09-20T17:59:00",
      "duration": 36,
      "status": "Genuine",
      "associatedSiteId": 109822,
      "outfallName": "PIER ROAD SOUTHSEA",
      "isImpacting": true,
      "overFlowSiteId": 0,
      "historicSpillsList": [
        {
          "id": 343928666,
          "eventId": 861477,
          "siteUnitNumber": 12604,
          "bathingSite": "SOUTHSEA EAST",
          "eventStart": "2023-09-20T17:23:00",
          "eventStop": "2023-09-20T17:59:00",
          "duration": 36,
          "status": "Genuine",
          "associatedSiteId": 109822,
          "outfallName": "PIER ROAD SOUTHSEA",
          "isImpacting": true,
          "overFlowSiteId": 108469
        },
        {
          "id": 343928667,
          "eventId": 861477,
          "siteUnitNumber": 12605,
          "bathingSite": "STOKES BAY",
          "eventStart": "2023-09-20T17:23:00",
          "eventStop": "2023-09-20T17:59:00",
          "duration": 36,
          "status": "Genuine",
          "associatedSiteId": 109822,
          "outfallName": "PIER ROAD SOUTHSEA",
          "isImpacting": true,
          "overFlowSiteId": 108469,
          "historicSpillsList": []
        }
      ]
    },
    {
      "id": 343920630,
      "eventId": 861445,
      "siteUnitNumber": 12615,
      "bathingSite": "COLWELL BAY",
      "eventStart": "2023-09-20T16:24:00",
      "eventStop": "2023-09-20T16:39:00",
      "duration": 15,
      "status": "Genuine",
      "associatedSiteId": 109663,
      "outfallName": "THE INSTITUTE YARMOUTH NO1",
      "isImpacting": false,
      "overFlowSiteId": 0,
      "historicSpillsList": []
    },
    {
      "id": 343943323,
      "eventId": 861374,
      "siteUnitNumber": 12591,
      "bathingSite": "LITTLEHAMPTON",
      "eventStart": "2023-09-20T14:48:00",
      "eventStop": "2023-09-20T15:55:00",
      "duration": 67,
      "status": "Genuine",
      "associatedSiteId": 109968,
      "outfallName": "FORD ROAD ARUNDEL",
      "isImpacting": true,
      "overFlowSiteId": 0,
      "historicSpillsList": [
        {
          "id": 343943323,
          "eventId": 861374,
          "siteUnitNumber": 12591,
          "bathingSite": "LITTLEHAMPTON",
          "eventStart": "2023-09-20T14:48:00",
          "eventStop": "2023-09-20T15:55:00",
          "duration": 67,
          "status": "Genuine",
          "associatedSiteId": 109968,
          "outfallName": "FORD ROAD ARUNDEL",
          "isImpacting": true,
          "overFlowSiteId": 108002
        }
      ]
    },
    {
      "id": 343943326,
      "eventId": 861348,
      "siteUnitNumber": 12591,
      "bathingSite": "LITTLEHAMPTON",
      "eventStart": "2023-09-20T13:58:31",
      "eventStop": "2023-09-20T14:16:00",
      "duration": 17,
      "status": "Genuine",
      "associatedSiteId": 109968,
      "outfallName": "FORD ROAD ARUNDEL",
      "isImpacting": false,
      "overFlowSiteId": 0,
      "historicSpillsList": []
    },
    {
      "id": 343935140,
      "eventId": 861225,
      "siteUnitNumber": 12576,
      "bathingSite": "ST LEONARDS",
      "eventStart": "2023-09-20T07:15:31",
      "eventStop": "2023-09-20T08:30:00",
      "duration": 74,
      "status": "Genuine",
      "associatedSiteId": 109903,
      "outfallName": "BEXHILL & HASTINGS NO2",
      "isImpacting": true,
      "overFlowSiteId": 0,
      "historicSpillsList": [
        {
          "id": 343935140,
          "eventId": 861225,
          "siteUnitNumber": 12576,
          "bathingSite": "ST LEONARDS",
          "eventStart": "2023-09-20T07:15:31",
          "eventStop": "2023-09-20T08:30:00",
          "duration": 74,
          "status": "Genuine",
          "associatedSiteId": 109903,
          "outfallName": "BEXHILL & HASTINGS NO2",
          "isImpacting": true,
          "overFlowSiteId": 115398
        },
        {
          "id": 343935141,
          "eventId": 861225,
          "siteUnitNumber": 12577,
          "bathingSite": "BEXHILL",
          "eventStart": "2023-09-20T07:15:31",
          "eventStop": "2023-09-20T08:30:00",
          "duration": 74,
          "status": "Genuine",
          "associatedSiteId": 109903,
          "outfallName": "BEXHILL & HASTINGS NO2",
          "isImpacting": true,
          "overFlowSiteId": 115398,
          "historicSpillsList": []
        }
      ]
    },
    {
      "id": 343935138,
      "eventId": 861224,
      "siteUnitNumber": 12576,
      "bathingSite": "ST LEONARDS",
      "eventStart": "2023-09-20T06:58:54",
      "eventStop": "2023-09-20T07:04:33",
      "duration": 5,
      "status": "Genuine",
      "associatedSiteId": 109903,
      "outfallName": "BEXHILL & HASTINGS NO2",
      "isImpacting": true,
      "overFlowSiteId": 0,
      "historicSpillsList": [
        {
          "id": 343935138,
          "eventId": 861224,
          "siteUnitNumber": 12576,
          "bathingSite": "ST LEONARDS",
          "eventStart": "2023-09-20T06:58:54",
          "eventStop": "2023-09-20T07:04:33",
          "duration": 5,
          "status": "Genuine",
          "associatedSiteId": 109903,
          "outfallName": "BEXHILL & HASTINGS NO2",
          "isImpacting": true,
          "overFlowSiteId": 115398
        },
        {
          "id": 343935139,
          "eventId": 861224,
          "siteUnitNumber": 12577,
          "bathingSite": "BEXHILL",
          "eventStart": "2023-09-20T06:58:54",
          "eventStop": "2023-09-20T07:04:33",
          "duration": 5,
          "status": "Genuine",
          "associatedSiteId": 109903,
          "outfallName": "BEXHILL & HASTINGS NO2",
          "isImpacting": true,
          "overFlowSiteId": 115398,
          "historicSpillsList": []
        }
      ]
    },
    {
      "id": 343935144,
      "eventId": 861159,
      "siteUnitNumber": 12576,
      "bathingSite": "ST LEONARDS",
      "eventStart": "2023-09-20T01:04:08",
      "eventStop": "2023-09-20T01:13:34",
      "duration": 9,
      "status": "Genuine",
      "associatedSiteId": 109903,
      "outfallName": "BEXHILL & HASTINGS NO2",
      "isImpacting": true,
      "overFlowSiteId": 0,
      "historicSpillsList": [
        {
          "id": 343935144,
          "eventId": 861159,
          "siteUnitNumber": 12576,
          "bathingSite": "ST LEONARDS",
          "eventStart": "2023-09-20T01:04:08",
          "eventStop": "2023-09-20T01:13:34",
          "duration": 9,
          "status": "Genuine",
          "associatedSiteId": 109903,
          "outfallName": "BEXHILL & HASTINGS NO2",
          "isImpacting": true,
          "overFlowSiteId": 115398
        },
        {
          "id": 343935145,
          "eventId": 861159,
          "siteUnitNumber": 12577,
          "bathingSite": "BEXHILL",
          "eventStart": "2023-09-20T01:04:08",
          "eventStop": "2023-09-20T01:13:34",
          "duration": 9,
          "status": "Genuine",
          "associatedSiteId": 109903,
          "outfallName": "BEXHILL & HASTINGS NO2",
          "isImpacting": true,
          "overFlowSiteId": 115398,
          "historicSpillsList": []
        }
      ]
    }
  ]
}