{
  "currentPage": 109,
  "totalItems": 18701,
  "totalPages": 749,
  "items": [
    {
      "id": 343942499,
      "eventId": 897834,
      "siteUnitNumber": 12593,
      "bathingSite": "FELPHAM",
      "eventStart": "2023-11-01T22:01:00",
      "eventStop": "2023-11-03T20:47:00",
      "duration": 2806,
      "status": "Genuine",
      "associatedSiteId": 109964,
      "outfallName": "SHRIPNEY ROAD SOUTH BERSTED",
      "isImpacting": true,
      "overFlowSiteId": 0,
      "historicSpillsList": [
        {
          "id": 343942499,
          "eventId": 897834,
          "siteUnitNumber": 12593,
          "bathingSite": "FELPHAM",
          "eventStart": "2023-11-01T22:01:00",
          "eventStop": "2023-11-03T20:47:00",
          "duration": 2806,
          "status": "Genuine",
          "associatedSiteId": 109964,
          "outfallName": "SHRIPNEY ROAD SOUTH BERSTED",
          "isImpacting": true,
          "overFlowSiteId": 107408
        },
        {
          "id": 343942500,
          "eventId": 897834,
          "siteUnitNumber": 12594,
          "bathingSite": "BOGNOR REGIS EAST",
          "eventStart": "2023-11-01T22:01:00",
          "eventStop": "2023-11-03T20:47:00",
          "duration": 2806,
          "status": "Genuine",
          "associatedSiteId": 109964,
          "outfallName": "SHRIPNEY ROAD SOUTH BERSTED",
          "isImpacting": true,
          "overFlowSiteId": 107408,
          "historicSpillsList": []
        }
      ]
    },
    {
      "id": 343922909,
      "eventId": 898977,
      "siteUnitNumber": 12616,
      "bathingSite": "GURNARD",
      "eventStart": "2023-11-02T06:43:00",
      "eventStop": "2023-11-03T20:27:00",
      "duration": 2264,
      "status": "Genuine",
      "associatedSiteId": 109704,
      "outfallName": "EGYPT POINT COWES",
      "isImpacting": true,
      "overFlowSiteId": 0,
      "historicSpillsList": [
        {
          "id": 343922910,
          "eventId": 898977,
          "siteUnitNumber": 12617,
          "bathingSite": "COWES",
          "eventStart": "2023-11-02T06:43:00",
          "eventStop": "2023-11-03T20:27:00",
          "duration": 2264,
          "status": "Genuine",
          "associatedSiteId": 109704,
          "outfallName": "EGYPT POINT COWES",
          "isImpacting": true,
          "overFlowSiteId": 116213,
          "historicSpillsList": []
        }
      ]
    },
    {
      "id": 343954403,
      "eventId": 893083,
      "siteUnitNumber": 12582,
      "bathingSite": "SEAFORD",
      "eventStart": "2023-11-03T14:03:02",
      "eventStop": "2023-11-03T19:58:03",
      "duration": 355,
      "status": "Genuine",
      "associatedSiteId": 110920,
      "outfallName": "NEWHAVEN",
      "isImpacting": false,
      "overFlowSiteId": 0,
      "historicSpillsList": []
    },
    {
      "id": 343943289,
      "eventId": 899093,
      "siteUnitNumber": 12591,
      "bathingSite": "LITTLEHAMPTON",
      "eventStart": "2023-10-30T23:45:00",
      "eventStop": "2023-11-03T19:09:00",
      "duration": 5484,
      "status": "Genuine",
      "associatedSiteId": 109968,
      "outfallName": "FORD ROAD ARUNDEL",
      "isImpacting": true,
      "overFlowSiteId": 0,
      "historicSpillsList": [
        {
          "id": 343943289,
          "eventId": 899093,
          "siteUnitNumber": 12591,
          "bathingSite": "LITTLEHAMPTON",
          "eventStart": "2023-10-30T23:45:00",
          "eventStop": "2023-11-03T19:09:00",
          "duration": 5484,
          "status": "Genuine",
          "associatedSiteId": 109968,
          "outfallName": "FORD ROAD ARUNDEL",
          "isImpacting": true,
          "overFlowSiteId": 108002
        }
      ]
    },
    {
      "id": 343957504,
      "eventId": 893007,
      "siteUnitNumber": 12615,
      "bathingSite": "COLWELL BAY",
      "eventStart": "2023-11-03T12:45:08",
      "eventStop": "2023-11-03T15:22:52",
      "duration": 157,
      "status": "Genuine",
      "associatedSiteId": 115498,
      "outfallName": "NORTON TRANSFER IOW",
      "isImpacting": true,
      "overFlowSiteId": 0,
      "historicSpillsList": [
        {
          "id": 343957504,
          "eventId": 893007,
          "siteUnitNumber": 12615,
          "bathingSite": "COLWELL BAY",
          "eventStart": "2023-11-03T12:45:08",
          "eventStop": "2023-11-03T15:22:52",
          "duration": 157,
          "status": "Genuine",
          "associatedSiteId": 115498,
          "outfallName": "NORTON TRANSFER IOW",
          "isImpacting": true,
          "overFlowSiteId": 109524
        },
        {
          "id": 343957505,
          "eventId": 893007,
          "siteUnitNumber": 12614,
          "bathingSite": "TOTLAND BAY",
          "eventStart": "2023-11-03T12:45:08",
          "eventStop": "2023-11-03T15:22:52",
          "duration": 157,
          "status": "Genuine",
          "associatedSiteId": 115498,
          "outfallName": "NORTON TRANSFER IOW",
          "isImpacting": true,
          "overFlowSiteId": 109524,
          "historicSpillsList": []
        }
      ]
    },
    {
      "id": 343921386,
      "eventId": 894388,
      "siteUnitNumber": 12549,
      "bathingSite": "HERNE BAY CENTRAL",
      "eventStart": "2023-11-03T15:18:00",
      "eventStop": "2023-11-03T15:21:00",
      "duration": 3,
      "status": "Genuine",
      "associatedSiteId": 109678,
      "outfallName": "EDDINGTON LANE HERNE BAY NO2",
      "isImpacting": true,
      "overFlowSiteId": 0,
      "historicSpillsList": [
        {
          "id": 343921387,
          "eventId": 894388,
          "siteUnitNumber": 12551,
          "bathingSite": "HERNE BAY",
          "eventStart": "2023-11-03T15:18:00",
          "eventStop": "2023-11-03T15:21:00",
          "duration": 3,
          "status": "Genuine",
          "associatedSiteId": 109678,
          "outfallName": "EDDINGTON LANE HERNE BAY NO2",
          "isImpacting": true,
          "overFlowSiteId": 108093,
          "historicSpillsList": []
        }
      ]
    },
    {
      "id": 343952933,
      "eventId": 882069,
      "siteUnitNumber": 12616,
      "bathingSite": "GURNARD",
      "eventStart": "2023-10-27T22:34:00",
      "eventStop": "2023-11-03T13:51:00",
      "duration": 9557,
      "status": "Genuine",
      "associatedSiteId": 110701,
      "outfallName": "TERMINUS ROAD COWES 2",
      "isImpacting": true,
      "overFlowSiteId": 0,
      "historicSpillsList": [
        {
          "id": 343952933,
          "eventId": 882069,
          "siteUnitNumber": 12616,
          "bathingSite": "GURNARD",
          "eventStart": "2023-10-27T22:34:00",
          "eventStop": "2023-11-03T13:51:00",
          "duration": 9557,
          "status": "Genuine",
          "associatedSiteId": 110701,
          "outfallName": "TERMINUS ROAD COWES 2",
          "isImpacting": true,
          "overFlowSiteId": 108563
        },
        {
          "id": 343952934,
          "eventId": 882069,
          "siteUnitNumber": 12617,
          "bathingSite": "COWES",
          "eventStart": "2023-10-27T22:34:00",
          "eventStop": "2023-11-03T13:51:00",
          "duration": 9557,
          "status": "Genuine",
          "associatedSiteId": 110701,
          "outfallName": "TERMINUS ROAD COWES 2",
          "isImpacting": true,
          "overFlowSiteId": 108563,
          "historicSpillsList": []
        }
      ]
    },
    {
      "id": 343937424,
      "eventId": 893068,
      "siteUnitNumber": 12587,
      "bathingSite": "SOUTHWICK",
      "eventStart": "2023-11-03T13:26:00",
      "eventStop": "2023-11-03T13:42:00",
      "duration": 16,
      "status": "Genuine",
      "associatedSiteId": 109929,
      "outfallName": "SHOREHAM NO1",
      "isImpacting": true,
      "overFlowSiteId": 0,
      "historicSpillsList": [
        {
          "id": 343937424,
          "eventId": 893068,
          "siteUnitNumber": 12587,
          "bathingSite": "SOUTHWICK",
          "eventStart": "2023-11-03T13:26:00",
          "eventStop": "2023-11-03T13:42:00",
          "duration": 16,
          "status": "Genuine",
          "associatedSiteId": 109929,
          "outfallName": "SHOREHAM NO1",
          "isImpacting": true,
          "overFlowSiteId": 115434
        },
        {
          "id": 343937425,
          "eventId": 893068,
          "siteUnitNumber": 12588,
          "bathingSite": "SHOREHAM BEACH",
          "eventStart": "2023-11-03T13:26:00",
          "eventStop": "2023-11-03T13:42:00",
          "duration": 16,
          "status": "Genuine",
          "associatedSiteId": 109929,
          "outfallName": "SHOREHAM NO1",
          "isImpacting": true,
          "overFlowSiteId": 115434,
          "historicSpillsList": []
        },
        {
          "id": 343937432,
          "eventId": 893068,
          "siteUnitNumber": 12586,
          "bathingSite": "HOVE",
          "eventStart": "2023-11-03T13:26:00",
          "eventStop": "2023-11-03T13:42:00",
          "duration": 16,
          "status": "Genuine",
          "associatedSiteId": 109929,
          "outfallName": "SHOREHAM NO1",
          "isImpacting": true,
          "overFlowSiteId": 115434,
          "historicSpillsList": []
        }
      ]
    },
    {
      "id": 343957502,
      "eventId": 893026,
      "siteUnitNumber": 12614,
      "bathingSite": "TOTLAND BAY",
      "eventStart": "2023-11-02T08:01:00",
      "eventStop": "2023-11-03T13:00:00",
      "duration": 1739,
      "status": "Genuine",
      "associatedSiteId": 115498,
      "outfallName": "NORTON TRANSFER IOW",
      "isImpacting": true,
      "overFlowSiteId": 0,
      "historicSpillsList": [
        {
          "id": 343957502,
          "eventId": 893026,
          "siteUnitNumber": 12614,
          "bathingSite": "TOTLAND BAY",
          "eventStart": "2023-11-02T08:01:00",
          "eventStop": "2023-11-03T13:00:00",
          "duration": 1739,
          "status": "Genuine",
          "associatedSiteId": 115498,
          "outfallName": "NORTON TRANSFER IOW",
          "isImpacting": true,
          "overFlowSiteId": 108544
        },
        {
          "id": 343957503,
          "eventId": 893026,
          "siteUnitNumber": 12615,
          "bathingSite": "COLWELL BAY",
          "eventStart": "2023-11-02T08:01:00",
          "eventStop": "2023-11-03T13:00:00",
          "duration": 1739,
          "status": "Genuine",
          "associatedSiteId": 115498,
          "outfallName": "NORTON TRANSFER IOW",
          "isImpacting": true,
          "overFlowSiteId": 108544,
          "historicSpillsList": []
        }
      ]
    },
    {
      "id": 343929785,
      "eventId": 889403,
      "siteUnitNumber": 12548,
      "bathingSite": "TANKERTON",
      "eventStart": "2023-11-01T09:16:19",
      "eventStop": "2023-11-03T12:45:00",
      "duration": 3088,
      "status": "Genuine",
      "associatedSiteId": 109830,
      "outfallName": "SWALECLIFFE NO1",
      "isImpacting": true,
      "overFlowSiteId": 0,
      "historicSpillsList": [
        {
          "id": 343929785,
          "eventId": 889403,
          "siteUnitNumber": 12548,
          "bathingSite": "TANKERTON",
          "eventStart": "2023-11-01T09:16:19",
          "eventStop": "2023-11-03T12:45:00",
          "duration": 3088,
          "status": "Genuine",
          "associatedSiteId": 109830,
          "outfallName": "SWALECLIFFE NO1",
          "isImpacting": true,
          "overFlowSiteId": 115444
        },
        {
          "id": 343929786,
          "eventId": 889403,
          "siteUnitNumber": 12549,
          "bathingSite": "HERNE BAY CENTRAL",
          "eventStart": "2023-11-01T09:16:19",
          "eventStop": "2023-11-03T12:45:00",
          "duration": 3088,
          "status": "Genuine",
          "associatedSiteId": 109830,
          "outfallName": "SWALECLIFFE NO1",
          "isImpacting": true,
          "overFlowSiteId": 115444,
          "historicSpillsList": []
        }
      ]
    },
    {
      "id": 343957506,
      "eventId": 892923,
      "siteUnitNumber": 12614,
      "bathingSite": "TOTLAND BAY",
      "eventStart": "2023-11-03T11:28:10",
      "eventStop": "2023-11-03T12:41:57",
      "duration": 73,
      "status": "Genuine",
      "associatedSiteId": 115498,
      "outfallName": "NORTON TRANSFER IOW",
      "isImpacting": true,
      "overFlowSiteId": 0,
      "historicSpillsList": [
        {
          "id": 343957506,
          "eventId": 892923,
          "siteUnitNumber": 12614,
          "bathingSite": "TOTLAND BAY",
          "eventStart": "2023-11-03T11:28:10",
          "eventStop": "2023-11-03T12:41:57",
          "duration": 73,
          "status": "Genuine",
          "associatedSiteId": 115498,
          "outfallName": "NORTON TRANSFER IOW",
          "isImpacting": true,
          "overFlowSiteId": 109524
        },
        {
          "id": 343957507,
          "eventId": 892923,
          "siteUnitNumber": 12615,
          "bathingSite": "COLWELL BAY",
          "eventStart": "2023-11-03T11:28:10",
          "eventStop": "2023-11-03T12:41:57",
          "duration": 73,
          "status": "Genuine",
          "associatedSiteId": 115498,
          "outfallName": "NORTON TRANSFER IOW",
          "isImpacting": true,
          "overFlowSiteId": 109524,
          "historicSpillsList": []
        }
      ]
    },
    {
      "id": 343925753,
      "eventId": 893012,
      "siteUnitNumber": 12661,
      "bathingSite": "LANGSTONE HARBOUR",
      "eventStart": "2023-11-03T12:08:00",
      "eventStop": "2023-11-03T12:28:00",
      "duration": 20,
      "status": "Genuine",
      "associatedSiteId": 109773,
      "outfallName": "BUDDS FARM HAVANT NO2",
      "isImpacting": true,
      "overFlowSiteId": 0,
      "historicSpillsList": [
        {
          "id": 343925753,
          "eventId": 893012,
          "siteUnitNumber": 12661,
          "bathingSite": "LANGSTONE HARBOUR",
          "eventStart": "2023-11-03T12:08:00",
          "eventStop": "2023-11-03T12:28:00",
          "duration": 20,
          "status": "Genuine",
          "associatedSiteId": 109773,
          "outfallName": "BUDDS FARM HAVANT NO2",
          "isImpacting": true,
          "overFlowSiteId": 115936
        }
      ]
    },
    {
      "id": 343925754,
      "eventId": 893010,
      "siteUnitNumber": 12661,
      "bathingSite": "LANGSTONE HARBOUR",
      "eventStart": "2023-11-03T11:29:00",
      "eventStop": "2023-11-03T12:00:00",
      "duration": 31,
      "status": "Genuine",
      "associatedSiteId": 109773,
      "outfallName": "BUDDS FARM HAVANT NO2",
      "isImpacting": true,
      "overFlowSiteId": 0,
      "historicSpillsList": [
        {
          "id": 343925754,
          "eventId": 893010,
          "siteUnitNumber": 12661,
          "bathingSite": "LANGSTONE HARBOUR",
          "eventStart": "2023-11-03T11:29:00",
          "eventStop": "2023-11-03T12:00:00",
          "duration": 31,
          "status": "Genuine",
          "associatedSiteId": 109773,
          "outfallName": "BUDDS FARM HAVANT NO2",
          "isImpacting": true,
          "overFlowSiteId": 115936
        }
      ]
    },
    {
      "id": 343955050,
      "eventId": 893156,
      "siteUnitNumber": 12577,
      "bathingSite": "BEXHILL",
      "eventStart": "2023-11-01T22:34:00",
      "eventStop": "2023-11-03T11:54:00",
      "duration": 2240,
      "status": "Genuine",
      "associatedSiteId": 111338,
      "outfallName": "GALLEY HILL BEXHILL",
      "isImpacting": true,
      "overFlowSiteId": 0,
      "historicSpillsList": [
        {
          "id": 343955050,
          "eventId": 893156,
          "siteUnitNumber": 12577,
          "bathingSite": "BEXHILL",
          "eventStart": "2023-11-01T22:34:00",
          "eventStop": "2023-11-03T11:54:00",
          "duration": 2240,
          "status": "Genuine",
          "associatedSiteId": 111338,
          "outfallName": "GALLEY HILL BEXHILL",
          "isImpacting": true,
          "overFlowSiteId": 116162
        }
      ]
    },
    {
      "id": 343957508,
      "eventId": 892905,
      "siteUnitNumber": 12614,
      "bathingSite": "TOTLAND BAY",
      "eventStart": "2023-11-03T10:50:49",
      "eventStop": "2023-11-03T11:24:58",
      "duration": 34,
      "status": "Genuine",
      "associatedSiteId": 115498,
      "outfallName": "NORTON TRANSFER IOW",
      "isImpacting": true,
      "overFlowSiteId": 0,
      "historicSpillsList": [
        {
          "id": 343957508,
          "eventId": 892905,
          "siteUnitNumber": 12614,
          "bathingSite": "TOTLAND BAY",
          "eventStart": "2023-11-03T10:50:49",
          "eventStop": "2023-11-03T11:24:58",
          "duration": 34,
          "status": "Genuine",
          "associatedSiteId": 115498,
          "outfallName": "NORTON TRANSFER IOW",
          "isImpacting": true,
          "overFlowSiteId": 109524
        },
        {
          "id": 343957509,
          "eventId": 892905,
          "siteUnitNumber": 12615,
          "bathingSite": "COLWELL BAY",
          "eventStart": "2023-11-03T10:50:49",
          "eventStop": "2023-11-03T11:24:58",
          "duration": 34,
          "status": "Genuine",
          "associatedSiteId": 115498,
          "outfallName": "NORTON TRANSFER IOW",
          "isImpacting": true,
          "overFlowSiteId": 109524,
          "historicSpillsList": []
        }
      ]
    },
    {
      "id": 343925755,
      "eventId": 893000,
      "siteUnitNumber": 12661,
      "bathingSite": "LANGSTONE HARBOUR",
      "eventStart": "2023-11-03T07:26:00",
      "eventStop": "2023-11-03T11:22:00",
      "duration": 236,
      "status": "Genuine",
      "associatedSiteId": 109773,
      "outfallName": "BUDDS FARM HAVANT NO2",
      "isImpacting": true,
      "overFlowSiteId": 0,
      "historicSpillsList": [
        {
          "id": 343925755,
          "eventId": 893000,
          "siteUnitNumber": 12661,
          "bathingSite": "LANGSTONE HARBOUR",
          "eventStart": "2023-11-03T07:26:00",
          "eventStop": "2023-11-03T11:22:00",
          "duration": 236,
          "status": "Genuine",
          "associatedSiteId": 109773,
          "outfallName": "BUDDS FARM HAVANT NO2",
          "isImpacting": true,
          "overFlowSiteId": 115936
        }
      ]
    },
    {
      "id": 343954402,
      "eventId": 892788,
      "siteUnitNumber": 12582,
      "bathingSite": "SEAFORD",
      "eventStart": "2023-11-03T08:38:37",
      "eventStop": "2023-11-03T11:07:06",
      "duration": 148,
      "status": "Genuine",
      "associatedSiteId": 110920,
      "outfallName": "NEWHAVEN",
      "isImpacting": false,
      "overFlowSiteId": 0,
      "historicSpillsList": []
    },
    {
      "id": 343957510,
      "eventId": 892866,
      "siteUnitNumber": 12615,
      "bathingSite": "COLWELL BAY",
      "eventStart": "2023-11-03T10:29:03",
      "eventStop": "2023-11-03T10:40:28",
      "duration": 11,
      "status": "Genuine",
      "associatedSiteId": 115498,
      "outfallName": "NORTON TRANSFER IOW",
      "isImpacting": true,
      "overFlowSiteId": 0,
      "historicSpillsList": [
        {
          "id": 343957510,
          "eventId": 892866,
          "siteUnitNumber": 12615,
          "bathingSite": "COLWELL BAY",
          "eventStart": "2023-11-03T10:29:03",
          "eventStop": "2023-11-03T10:40:28",
          "duration": 11,
          "status": "Genuine",
          "associatedSiteId": 115498,
          "outfallName": "NORTON TRANSFER IOW",
          "isImpacting": true,
          "overFlowSiteId": 109524
        },
        {
          "id": 343957511,
          "eventId": 892866,
          "siteUnitNumber": 12614,
          "bathingSite": "TOTLAND BAY",
          "eventStart": "2023-11-03T10:29:03",
          "eventStop": "2023-11-03T10:40:28",
          "duration": 11,
          "status": "Genuine",
          "associatedSiteId": 115498,
          "outfallName": "NORTON TRANSFER IOW",
          "isImpacting": true,
          "overFlowSiteId": 109524,
          "historicSpillsList": []
        }
      ]
    },
    {
      "id": 343957512,
      "eventId": 892826,
      "siteUnitNumber": 12614,
      "bathingSite": "TOTLAND BAY",
      "eventStart": "2023-11-03T09:37:12",
      "eventStop": "2023-11-03T10:16:18",
      "duration": 39,
      "status": "Genuine",
      "associatedSiteId": 115498,
      "outfallName": "NORTON TRANSFER IOW",
      "isImpacting": true,
      "overFlowSiteId": 0,
      "historicSpillsList": [
        {
          "id": 343957512,
          "eventId": 892826,
          "siteUnitNumber": 12614,
          "bathingSite": "TOTLAND BAY",
          "eventStart": "2023-11-03T09:37:12",
          "eventStop": "2023-11-03T10:16:18",
          "duration": 39,
          "status": "Genuine",
          "associatedSiteId": 115498,
          "outfallName": "NORTON TRANSFER IOW",
          "isImpacting": true,
          "overFlowSiteId": 109524
        },
        {
          "id": 343957513,
          "eventId": 892826,
          "siteUnitNumber": 12615,
          "bathingSite": "COLWELL BAY",
          "eventStart": "2023-11-03T09:37:12",
          "eventStop": "2023-11-03T10:16:18",
          "duration": 39,
          "status": "Genuine",
          "associatedSiteId": 115498,
          "outfallName": "NORTON TRANSFER IOW",
          "isImpacting": true,
          "overFlowSiteId": 109524,
          "historicSpillsList": []
        }
      ]
    },
    {
      "id": 343957514,
      "eventId": 892802,
      "siteUnitNumber": 12614,
      "bathingSite": "TOTLAND BAY",
      "eventStart": "2023-11-03T09:26:32",
      "eventStop": "2023-11-03T09:32:02",
      "duration": 5,
      "status": "Genuine",
      "associatedSiteId": 115498,
      "outfallName": "NORTON TRANSFER IOW",
      "isImpacting": true,
      "overFlowSiteId": 0,
      "historicSpillsList": [
        {
          "id": 343957514,
          "eventId": 892802,
          "siteUnitNumber": 12614,
          "bathingSite": "TOTLAND BAY",
          "eventStart": "2023-11-03T09:26:32",
          "eventStop": "2023-11-03T09:32:02",
          "duration": 5,
          "status": "Genuine",
          "associatedSiteId": 115498,
          "outfallName": "NORTON TRANSFER IOW",
          "isImpacting": true,
          "overFlowSiteId": 109524
        },
        {
          "id": 343957515,
          "eventId": 892802,
          "siteUnitNumber": 12615,
          "bathingSite": "COLWELL BAY",
          "eventStart": "2023-11-03T09:26:32",
          "eventStop": "2023-11-03T09:32:02",
          "duration": 5,
          "status": "Genuine",
          "associatedSiteId": 115498,
          "outfallName": "NORTON TRANSFER IOW",
          "isImpacting": true,
          "overFlowSiteId": 109524,
          "historicSpillsList": []
        }
      ]
    },
    {
      "id": 343957516,
      "eventId": 892791,
      "siteUnitNumber": 12615,
      "bathingSite": "COLWELL BAY",
      "eventStart": "2023-11-03T08:53:58",
      "eventStop": "2023-11-03T09:18:14",
      "duration": 24,
      "status": "Genuine",
      "associatedSiteId": 115498,
      "outfallName": "NORTON TRANSFER IOW",
      "isImpacting": true,
      "overFlowSiteId": 0,
      "historicSpillsList": [
        {
          "id": 343957516,
          "eventId": 892791,
          "siteUnitNumber": 12615,
          "bathingSite": "COLWELL BAY",
          "eventStart": "2023-11-03T08:53:58",
          "eventStop": "2023-11-03T09:18:14",
          "duration": 24,
          "status": "Genuine",
          "associatedSiteId": 115498,
          "outfallName": "NORTON TRANSFER IOW",
          "isImpacting": true,
          "overFlowSiteId": 109524
        },
        {
          "id": 343957517,
          "eventId": 892791,
          "siteUnitNumber": 12614,
          "bathingSite": "TOTLAND BAY",
          "eventStart": "2023-11-03T08:53:58",
          "eventStop": "2023-11-03T09:18:14",
          "duration": 24,
          "status": "Genuine",
          "associatedSiteId": 115498,
          "outfallName": "NORTON TRANSFER IOW",
          "isImpacting": true,
          "overFlowSiteId": 109524,
          "historicSpillsList": []
        }
      ]
    },
    {
      "id": 343957518,
      "eventId": 892767,
      "siteUnitNumber": 12614,
      "bathingSite": "TOTLAND BAY",
      "eventStart": "2023-11-03T08:36:28",
      "eventStop": "2023-11-03T08:46:50",
      "duration": 10,
      "status": "Genuine",
      "associatedSiteId": 115498,
      "outfallName": "NORTON TRANSFER IOW",
      "isImpacting": true,
      "overFlowSiteId": 0,
      "historicSpillsList": [
        {
          "id": 343957518,
          "eventId": 892767,
          "siteUnitNumber": 12614,
          "bathingSite": "TOTLAND BAY",
          "eventStart": "2023-11-03T08:36:28",
          "eventStop": "2023-11-03T08:46:50",
          "duration": 10,
          "status": "Genuine",
          "associatedSiteId": 115498,
          "outfallName": "NORTON TRANSFER IOW",
          "isImpacting": true,
          "overFlowSiteId": 109524
        },
        {
          "id": 343957519,
          "eventId": 892767,
          "siteUnitNumber": 12615,
          "bathingSite": "COLWELL BAY",
          "eventStart": "2023-11-03T08:36:28",
          "eventStop": "2023-11-03T08:46:50",
          "duration": 10,
          "status": "Genuine",
          "associatedSiteId": 115498,
          "outfallName": "NORTON TRANSFER IOW",
          "isImpacting": true,
          "overFlowSiteId": 109524,
          "historicSpillsList": []
        }
      ]
    },
    {
      "id": 343957520,
      "eventId": 892748,
      "siteUnitNumber": 12614,
      "bathingSite": "TOTLAND BAY",
      "eventStart": "2023-11-03T08:16:30",
      "eventStop": "2023-11-03T08:26:52",
      "duration": 10,
      "status": "Genuine",
      "associatedSiteId": 115498,
      "outfallName": "NORTON TRANSFER IOW",
      "isImpacting": true,
      "overFlowSiteId": 0,
      "historicSpillsList": [
        {
          "id": 343957520,
          "eventId": 892748,
          "siteUnitNumber": 12614,
          "bathingSite": "TOTLAND BAY",
          "eventStart": "2023-11-03T08:16:30",
          "eventStop": "2023-11-03T08:26:52",
          "duration": 10,
          "status": "Genuine",
          "associatedSiteId": 115498,
          "outfallName": "NORTON TRANSFER IOW",
          "isImpacting": true,
          "overFlowSiteId": 109524
        },
        {
          "id": 343957521,
          "eventId": 892748,
          "siteUnitNumber": 12615,
          "bathingSite": "COLWELL BAY",
          "eventStart": "2023-11-03T08:16:30",
          "eventStop": "2023-11-03T08:26:52",
          "duration": 10,
          "status": "Genuine",
          "associatedSiteId": 115498,
          "outfallName": "NORTON TRANSFER IOW",
          "isImpacting": true,
          "overFlowSiteId": 109524,
          "historicSpillsList": []
        }
      ]
    },
    {
      "id": 343957522,
      "eventId": 892730,
      "siteUnitNumber": 12615,
      "bathingSite": "COLWELL BAY",
      "eventStart": "2023-11-03T07:47:09",
      "eventStop": "2023-11-03T08:01:12",
      "duration": 14,
      "status": "Genuine",
      "associatedSiteId": 115498,
      "outfallName": "NORTON TRANSFER IOW",
      "isImpacting": true,
      "overFlowSiteId": 0,
      "historicSpillsList": [
        {
          "id": 343957522,
          "eventId": 892730,
          "siteUnitNumber": 12615,
          "bathingSite": "COLWELL BAY",
          "eventStart": "2023-11-03T07:47:09",
          "eventStop": "2023-11-03T08:01:12",
          "duration": 14,
          "status": "Genuine",
          "associatedSiteId": 115498,
          "outfallName": "NORTON TRANSFER IOW",
          "isImpacting": true,
          "overFlowSiteId": 109524
        },
        {
          "id": 343957523,
          "eventId": 892730,
          "siteUnitNumber": 12614,
          "bathingSite": "TOTLAND BAY",
          "eventStart": "2023-11-03T07:47:09",
          "eventStop": "2023-11-03T08:01:12",
          "duration": 14,
          "status": "Genuine",
          "associatedSiteId": 115498,
          "outfallName": "NORTON TRANSFER IOW",
          "isImpacting": true,
          "overFlowSiteId": 109524,
          "historicSpillsList": []
        }
      ]
    },
    {
      "id": 343957524,
      "eventId": 892721,
      "siteUnitNumber": 12614,
      "bathingSite": "TOTLAND BAY",
      "eventStart": "2023-11-03T07:32:51",
      "eventStop": "2023-11-03T07:44:48",
      "duration": 11,
      "status": "Genuine",
      "associatedSiteId": 115498,
      "outfallName": "NORTON TRANSFER IOW",
      "isImpacting": true,
      "overFlowSiteId": 0,
      "historicSpillsList": [
        {
          "id": 343957524,
          "eventId": 892721,
          "siteUnitNumber": 12614,
          "bathingSite": "TOTLAND BAY",
          "eventStart": "2023-11-03T07:32:51",
          "eventStop": "2023-11-03T07:44:48",
          "duration": 11,
          "status": "Genuine",
          "associatedSiteId": 115498,
          "outfallName": "NORTON TRANSFER IOW",
          "isImpacting": true,
          "overFlowSiteId": 109524
        },
        {
          "id": 343957525,
          "eventId": 892721,
          "siteUnitNumber": 12615,
          "bathingSite": "COLWELL BAY",
          "eventStart": "2023-11-03T07:32:51",
          "eventStop": "2023-11-03T07:44:48",
          "duration": 11,
          "status": "Genuine",
          "associatedSiteId": 115498,
          "outfallName": "NORTON TRANSFER IOW",
          "isImpacting": true,
          "overFlowSiteId": 109524,
          "historicSpillsList": []
        }
      ]
    }
  ]
}