{
  "currentPage": 46,
  "totalItems": 18701,
  "totalPages": 749,
  "items": [
    {
      "id": 343956510,
      "eventId": 908596,
      "siteUnitNumber": 12614,
      "bathingSite": "TOTLAND BAY",
      "eventStart": "2023-11-14T16:45:56",
      "eventStop": "2023-11-14T17:04:26",
      "duration": 18,
      "status": "Genuine",
      "associatedSiteId": 115498,
      "outfallName": "NORTON TRANSFER IOW",
      "isImpacting": true,
      "overFlowSiteId": 0,
      "historicSpillsList": [
        {
          "id": 343956510,
          "eventId": 908596,
          "siteUnitNumber": 12614,
          "bathingSite": "TOTLAND BAY",
          "eventStart": "2023-11-14T16:45:56",
          "eventStop": "2023-11-14T17:04:26",
          "duration": 18,
          "status": "Genuine",
          "associatedSiteId": 115498,
          "outfallName": "NORTON TRANSFER IOW",
          "isImpacting": true,
          "overFlowSiteId": 109524
        },
        {
          "id": 343956511,
          "eventId": 908596,
          "siteUnitNumber": 12615,
          "bathingSite": "COLWELL BAY",
          "eventStart": "2023-11-14T16:45:56",
          "eventStop": "2023-11-14T17:04:26",
          "duration": 18,
          "status": "Genuine",
          "associatedSiteId": 115498,
          "outfallName": "NORTON TRANSFER IOW",
          "isImpacting": true,
          "overFlowSiteId": 109524,
          "historicSpillsList": []
        }
      ]
    },
    {
      "id": 343956512,
      "eventId": 908570,
      "siteUnitNumber": 12615,
      "bathingSite": "COLWELL BAY",
      "eventStart": "2023-11-14T16:15:30",
      "eventStop": "2023-11-14T16:43:11",
      "duration": 27,
      "status": "Genuine",
      "associatedSiteId": 115498,
      "outfallName": "NORTON TRANSFER IOW",
      "isImpacting": true,
      "overFlowSiteId": 0,
      "historicSpillsList": [
        {
          "id": 343956512,
          "eventId": 908570,
          "siteUnitNumber": 12615,
          "bathingSite": "COLWELL BAY",
          "eventStart": "2023-11-14T16:15:30",
          "eventStop": "2023-11-14T16:43:11",
          "duration": 27,
          "status": "Genuine",
          "associatedSiteId": 115498,
          "outfallName": "NORTON TRANSFER IOW",
          "isImpacting": true,
          "overFlowSiteId": 109524
        },
        {
          "id": 343956513,
          "eventId": 908570,
          "siteUnitNumber": 12614,
          "bathingSite": "TOTLAND BAY",
          "eventStart": "2023-11-14T16:15:30",
          "eventStop": "2023-11-14T16:43:11",
          "duration": 27,
          "status": "Genuine",
          "associatedSiteId": 115498,
          "outfallName": "NORTON TRANSFER IOW",
          "isImpacting": true,
          "overFlowSiteId": 109524,
          "historicSpillsList": []
        }
      ]
    },
    {
      "id": 343944135,
      "eventId": 908588,
      "siteUnitNumber": 12575,
      "bathingSite": "HASTINGS PELHAM BEACH",
      "eventStart": "2023-11-14T16:38:00",
      "eventStop": "2023-11-14T16:43:00",
      "duration": 5,
      "status": "Genuine",
      "associatedSiteId": 109982,
      "outfallName": "COOMBS HASTINGS",
      "isImpacting": false,
      "overFlowSiteId": 0,
      "historicSpillsList": []
    },
    {
      "id": 343921181,
      "eventId": 908507,
      "siteUnitNumber": 12549,
      "bathingSite": "HERNE BAY CENTRAL",
      "eventStart": "2023-11-14T15:04:00",
      "eventStop": "2023-11-14T16:37:00",
      "duration": 93,
      "status": "Genuine",
      "associatedSiteId": 109676,
      "outfallName": "KINGS HALL HERNE BAY A",
      "isImpacting": true,
      "overFlowSiteId": 0,
      "historicSpillsList": [
        {
          "id": 343921178,
          "eventId": 908507,
          "siteUnitNumber": 12551,
          "bathingSite": "HERNE BAY",
          "eventStart": "2023-11-14T15:04:00",
          "eventStop": "2023-11-14T16:37:00",
          "duration": 93,
          "status": "Genuine",
          "associatedSiteId": 109676,
          "outfallName": "KINGS HALL HERNE BAY A",
          "isImpacting": true,
          "overFlowSiteId": 108096,
          "historicSpillsList": []
        }
      ]
    },
    {
      "id": 343943682,
      "eventId": 908219,
      "siteUnitNumber": 12595,
      "bathingSite": "BOGNOR REGIS (ALDWICK)",
      "eventStart": "2023-11-14T14:46:00",
      "eventStop": "2023-11-14T16:30:00",
      "duration": 104,
      "status": "Genuine",
      "associatedSiteId": 109972,
      "outfallName": "BOGNOR MAIN",
      "isImpacting": true,
      "overFlowSiteId": 0,
      "historicSpillsList": [
        {
          "id": 343943687,
          "eventId": 908219,
          "siteUnitNumber": 12594,
          "bathingSite": "BOGNOR REGIS EAST",
          "eventStart": "2023-11-14T14:46:00",
          "eventStop": "2023-11-14T16:30:00",
          "duration": 104,
          "status": "Genuine",
          "associatedSiteId": 109972,
          "outfallName": "BOGNOR MAIN",
          "isImpacting": true,
          "overFlowSiteId": 107412,
          "historicSpillsList": []
        }
      ]
    },
    {
      "id": 343956508,
      "eventId": 908600,
      "siteUnitNumber": 12614,
      "bathingSite": "TOTLAND BAY",
      "eventStart": "2023-11-14T08:24:00",
      "eventStop": "2023-11-14T16:26:00",
      "duration": 482,
      "status": "Genuine",
      "associatedSiteId": 115498,
      "outfallName": "NORTON TRANSFER IOW",
      "isImpacting": true,
      "overFlowSiteId": 0,
      "historicSpillsList": [
        {
          "id": 343956508,
          "eventId": 908600,
          "siteUnitNumber": 12614,
          "bathingSite": "TOTLAND BAY",
          "eventStart": "2023-11-14T08:24:00",
          "eventStop": "2023-11-14T16:26:00",
          "duration": 482,
          "status": "Genuine",
          "associatedSiteId": 115498,
          "outfallName": "NORTON TRANSFER IOW",
          "isImpacting": true,
          "overFlowSiteId": 108544
        },
        {
          "id": 343956509,
          "eventId": 908600,
          "siteUnitNumber": 12615,
          "bathingSite": "COLWELL BAY",
          "eventStart": "2023-11-14T08:24:00",
          "eventStop": "2023-11-14T16:26:00",
          "duration": 482,
          "status": "Genuine",
          "associatedSiteId": 115498,
          "outfallName": "NORTON TRANSFER IOW",
          "isImpacting": true,
          "overFlowSiteId": 108544,
          "historicSpillsList": []
        }
      ]
    },
    {
      "id": 343956514,
      "eventId": 908568,
      "siteUnitNumber": 12614,
      "bathingSite": "TOTLAND BAY",
      "eventStart": "2023-11-14T16:06:42",
      "eventStop": "2023-11-14T16:13:21",
      "duration": 6,
      "status": "Genuine",
      "associatedSiteId": 115498,
      "outfallName": "NORTON TRANSFER IOW",
      "isImpacting": true,
      "overFlowSiteId": 0,
      "historicSpillsList": [
        {
          "id": 343956514,
          "eventId": 908568,
          "siteUnitNumber": 12614,
          "bathingSite": "TOTLAND BAY",
          "eventStart": "2023-11-14T16:06:42",
          "eventStop": "2023-11-14T16:13:21",
          "duration": 6,
          "status": "Genuine",
          "associatedSiteId": 115498,
          "outfallName": "NORTON TRANSFER IOW",
          "isImpacting": true,
          "overFlowSiteId": 109524
        },
        {
          "id": 343956515,
          "eventId": 908568,
          "siteUnitNumber": 12615,
          "bathingSite": "COLWELL BAY",
          "eventStart": "2023-11-14T16:06:42",
          "eventStop": "2023-11-14T16:13:21",
          "duration": 6,
          "status": "Genuine",
          "associatedSiteId": 115498,
          "outfallName": "NORTON TRANSFER IOW",
          "isImpacting": true,
          "overFlowSiteId": 109524,
          "historicSpillsList": []
        }
      ]
    },
    {
      "id": 343956516,
      "eventId": 908541,
      "siteUnitNumber": 12614,
      "bathingSite": "TOTLAND BAY",
      "eventStart": "2023-11-14T15:59:03",
      "eventStop": "2023-11-14T16:03:15",
      "duration": 4,
      "status": "Genuine",
      "associatedSiteId": 115498,
      "outfallName": "NORTON TRANSFER IOW",
      "isImpacting": true,
      "overFlowSiteId": 0,
      "historicSpillsList": [
        {
          "id": 343956516,
          "eventId": 908541,
          "siteUnitNumber": 12614,
          "bathingSite": "TOTLAND BAY",
          "eventStart": "2023-11-14T15:59:03",
          "eventStop": "2023-11-14T16:03:15",
          "duration": 4,
          "status": "Genuine",
          "associatedSiteId": 115498,
          "outfallName": "NORTON TRANSFER IOW",
          "isImpacting": true,
          "overFlowSiteId": 109524
        },
        {
          "id": 343956517,
          "eventId": 908541,
          "siteUnitNumber": 12615,
          "bathingSite": "COLWELL BAY",
          "eventStart": "2023-11-14T15:59:03",
          "eventStop": "2023-11-14T16:03:15",
          "duration": 4,
          "status": "Genuine",
          "associatedSiteId": 115498,
          "outfallName": "NORTON TRANSFER IOW",
          "isImpacting": true,
          "overFlowSiteId": 109524,
          "historicSpillsList": []
        }
      ]
    },
    {
      "id": 343918801,
      "eventId": 911384,
      "siteUnitNumber": 12616,
      "bathingSite": "GURNARD",
      "eventStart": "2023-11-14T06:30:00",
      "eventStop": "2023-11-14T16:03:00",
      "duration": 573,
      "status": "Genuine",
      "associatedSiteId": 109652,
      "outfallName": "WOODVALE TRANSFER NO1",
      "isImpacting": true,
      "overFlowSiteId": 0,
      "historicSpillsList": [
        {
          "id": 343918801,
          "eventId": 911384,
          "siteUnitNumber": 12616,
          "bathingSite": "GURNARD",
          "eventStart": "2023-11-14T06:30:00",
          "eventStop": "2023-11-14T16:03:00",
          "duration": 573,
          "status": "Genuine",
          "associatedSiteId": 109652,
          "outfallName": "WOODVALE TRANSFER NO1",
          "isImpacting": true,
          "overFlowSiteId": 115966
        },
        {
          "id": 343918802,
          "eventId": 911384,
          "siteUnitNumber": 12617,
          "bathingSite": "COWES",
          "eventStart": "2023-11-14T06:30:00",
          "eventStop": "2023-11-14T16:03:00",
          "duration": 573,
          "status": "Genuine",
          "associatedSiteId": 109652,
          "outfallName": "WOODVALE TRANSFER NO1",
          "isImpacting": true,
          "overFlowSiteId": 115966,
          "historicSpillsList": []
        }
      ]
    },
    {
      "id": 343938446,
      "eventId": 908578,
      "siteUnitNumber": 12619,
      "bathingSite": "SEAGROVE",
      "eventStart": "2023-11-14T11:46:00",
      "eventStop": "2023-11-14T15:59:00",
      "duration": 253,
      "status": "Genuine",
      "associatedSiteId": 109938,
      "outfallName": "THE POINT BEMBRIDGE",
      "isImpacting": true,
      "overFlowSiteId": 0,
      "historicSpillsList": [
        {
          "id": 343938447,
          "eventId": 908578,
          "siteUnitNumber": 12620,
          "bathingSite": "ST HELENS",
          "eventStart": "2023-11-14T11:46:00",
          "eventStop": "2023-11-14T15:59:00",
          "duration": 253,
          "status": "Genuine",
          "associatedSiteId": 109938,
          "outfallName": "THE POINT BEMBRIDGE",
          "isImpacting": true,
          "overFlowSiteId": 110194,
          "historicSpillsList": []
        }
      ]
    },
    {
      "id": 343918149,
      "eventId": 908361,
      "siteUnitNumber": 12546,
      "bathingSite": "LEYSDOWN",
      "eventStart": "2023-11-14T13:28:00",
      "eventStop": "2023-11-14T15:58:00",
      "duration": 150,
      "status": "Genuine",
      "associatedSiteId": 109613,
      "outfallName": "BARROWS BROOK EASTCHURCH",
      "isImpacting": true,
      "overFlowSiteId": 0,
      "historicSpillsList": [
        {
          "id": 343918149,
          "eventId": 908361,
          "siteUnitNumber": 12546,
          "bathingSite": "LEYSDOWN",
          "eventStart": "2023-11-14T13:28:00",
          "eventStop": "2023-11-14T15:58:00",
          "duration": 150,
          "status": "Genuine",
          "associatedSiteId": 109613,
          "outfallName": "BARROWS BROOK EASTCHURCH",
          "isImpacting": true,
          "overFlowSiteId": 108109
        }
      ]
    },
    {
      "id": 343944133,
      "eventId": 908530,
      "siteUnitNumber": 12575,
      "bathingSite": "HASTINGS PELHAM BEACH",
      "eventStart": "2023-11-14T15:51:00",
      "eventStop": "2023-11-14T15:57:00",
      "duration": 6,
      "status": "Genuine",
      "associatedSiteId": 109982,
      "outfallName": "COOMBS HASTINGS",
      "isImpacting": true,
      "overFlowSiteId": 0,
      "historicSpillsList": [
        {
          "id": 343944134,
          "eventId": 908530,
          "siteUnitNumber": 12576,
          "bathingSite": "ST LEONARDS",
          "eventStart": "2023-11-14T15:51:00",
          "eventStop": "2023-11-14T15:57:00",
          "duration": 6,
          "status": "Genuine",
          "associatedSiteId": 109982,
          "outfallName": "COOMBS HASTINGS",
          "isImpacting": true,
          "overFlowSiteId": 110211,
          "historicSpillsList": []
        }
      ]
    },
    {
      "id": 343956518,
      "eventId": 908533,
      "siteUnitNumber": 12615,
      "bathingSite": "COLWELL BAY",
      "eventStart": "2023-11-14T15:46:32",
      "eventStop": "2023-11-14T15:55:54",
      "duration": 9,
      "status": "Genuine",
      "associatedSiteId": 115498,
      "outfallName": "NORTON TRANSFER IOW",
      "isImpacting": true,
      "overFlowSiteId": 0,
      "historicSpillsList": [
        {
          "id": 343956518,
          "eventId": 908533,
          "siteUnitNumber": 12615,
          "bathingSite": "COLWELL BAY",
          "eventStart": "2023-11-14T15:46:32",
          "eventStop": "2023-11-14T15:55:54",
          "duration": 9,
          "status": "Genuine",
          "associatedSiteId": 115498,
          "outfallName": "NORTON TRANSFER IOW",
          "isImpacting": true,
          "overFlowSiteId": 109524
        },
        {
          "id": 343956519,
          "eventId": 908533,
          "siteUnitNumber": 12614,
          "bathingSite": "TOTLAND BAY",
          "eventStart": "2023-11-14T15:46:32",
          "eventStop": "2023-11-14T15:55:54",
          "duration": 9,
          "status": "Genuine",
          "associatedSiteId": 115498,
          "outfallName": "NORTON TRANSFER IOW",
          "isImpacting": true,
          "overFlowSiteId": 109524,
          "historicSpillsList": []
        }
      ]
    },
    {
      "id": 343956520,
      "eventId": 908525,
      "siteUnitNumber": 12614,
      "bathingSite": "TOTLAND BAY",
      "eventStart": "2023-11-14T15:33:53",
      "eventStop": "2023-11-14T15:43:17",
      "duration": 9,
      "status": "Genuine",
      "associatedSiteId": 115498,
      "outfallName": "NORTON TRANSFER IOW",
      "isImpacting": true,
      "overFlowSiteId": 0,
      "historicSpillsList": [
        {
          "id": 343956520,
          "eventId": 908525,
          "siteUnitNumber": 12614,
          "bathingSite": "TOTLAND BAY",
          "eventStart": "2023-11-14T15:33:53",
          "eventStop": "2023-11-14T15:43:17",
          "duration": 9,
          "status": "Genuine",
          "associatedSiteId": 115498,
          "outfallName": "NORTON TRANSFER IOW",
          "isImpacting": true,
          "overFlowSiteId": 109524
        },
        {
          "id": 343956521,
          "eventId": 908525,
          "siteUnitNumber": 12615,
          "bathingSite": "COLWELL BAY",
          "eventStart": "2023-11-14T15:33:53",
          "eventStop": "2023-11-14T15:43:17",
          "duration": 9,
          "status": "Genuine",
          "associatedSiteId": 115498,
          "outfallName": "NORTON TRANSFER IOW",
          "isImpacting": true,
          "overFlowSiteId": 109524,
          "historicSpillsList": []
        }
      ]
    },
    {
      "id": 343921352,
      "eventId": 908766,
      "siteUnitNumber": 12549,
      "bathingSite": "HERNE BAY CENTRAL",
      "eventStart": "2023-11-14T15:31:00",
      "eventStop": "2023-11-14T15:33:00",
      "duration": 2,
      "status": "Genuine",
      "associatedSiteId": 109678,
      "outfallName": "EDDINGTON LANE HERNE BAY NO2",
      "isImpacting": true,
      "overFlowSiteId": 0,
      "historicSpillsList": [
        {
          "id": 343921353,
          "eventId": 908766,
          "siteUnitNumber": 12551,
          "bathingSite": "HERNE BAY",
          "eventStart": "2023-11-14T15:31:00",
          "eventStop": "2023-11-14T15:33:00",
          "duration": 2,
          "status": "Genuine",
          "associatedSiteId": 109678,
          "outfallName": "EDDINGTON LANE HERNE BAY NO2",
          "isImpacting": true,
          "overFlowSiteId": 108093,
          "historicSpillsList": []
        }
      ]
    },
    {
      "id": 343956522,
      "eventId": 908498,
      "siteUnitNumber": 12614,
      "bathingSite": "TOTLAND BAY",
      "eventStart": "2023-11-14T15:22:00",
      "eventStop": "2023-11-14T15:32:24",
      "duration": 10,
      "status": "Genuine",
      "associatedSiteId": 115498,
      "outfallName": "NORTON TRANSFER IOW",
      "isImpacting": true,
      "overFlowSiteId": 0,
      "historicSpillsList": [
        {
          "id": 343956522,
          "eventId": 908498,
          "siteUnitNumber": 12614,
          "bathingSite": "TOTLAND BAY",
          "eventStart": "2023-11-14T15:22:00",
          "eventStop": "2023-11-14T15:32:24",
          "duration": 10,
          "status": "Genuine",
          "associatedSiteId": 115498,
          "outfallName": "NORTON TRANSFER IOW",
          "isImpacting": true,
          "overFlowSiteId": 109524
        },
        {
          "id": 343956523,
          "eventId": 908498,
          "siteUnitNumber": 12615,
          "bathingSite": "COLWELL BAY",
          "eventStart": "2023-11-14T15:22:00",
          "eventStop": "2023-11-14T15:32:24",
          "duration": 10,
          "status": "Genuine",
          "associatedSiteId": 115498,
          "outfallName": "NORTON TRANSFER IOW",
          "isImpacting": true,
          "overFlowSiteId": 109524,
          "historicSpillsList": []
        }
      ]
    },
    {
      "id": 343931032,
      "eventId": 908204,
      "siteUnitNumber": 12547,
      "bathingSite": "WEST BEACH WHITSTABLE",
      "eventStart": "2023-11-14T12:26:13",
      "eventStop": "2023-11-14T15:32:00",
      "duration": 185,
      "status": "Genuine",
      "associatedSiteId": 109832,
      "outfallName": "GORREL NO1",
      "isImpacting": true,
      "overFlowSiteId": 0,
      "historicSpillsList": [
        {
          "id": 343931032,
          "eventId": 908204,
          "siteUnitNumber": 12547,
          "bathingSite": "WEST BEACH WHITSTABLE",
          "eventStart": "2023-11-14T12:26:13",
          "eventStop": "2023-11-14T15:32:00",
          "duration": 185,
          "status": "Genuine",
          "associatedSiteId": 109832,
          "outfallName": "GORREL NO1",
          "isImpacting": true,
          "overFlowSiteId": 103279
        },
        {
          "id": 343931033,
          "eventId": 908204,
          "siteUnitNumber": 12548,
          "bathingSite": "TANKERTON",
          "eventStart": "2023-11-14T12:26:13",
          "eventStop": "2023-11-14T15:32:00",
          "duration": 185,
          "status": "Genuine",
          "associatedSiteId": 109832,
          "outfallName": "GORREL NO1",
          "isImpacting": true,
          "overFlowSiteId": 103279,
          "historicSpillsList": []
        }
      ]
    },
    {
      "id": 343939302,
      "eventId": 908005,
      "siteUnitNumber": 12582,
      "bathingSite": "SEAFORD",
      "eventStart": "2023-11-14T11:27:11",
      "eventStop": "2023-11-14T15:25:37",
      "duration": 238,
      "status": "Genuine",
      "associatedSiteId": 109957,
      "outfallName": "PORTOBELLO BRIGHTON NO2",
      "isImpacting": true,
      "overFlowSiteId": 0,
      "historicSpillsList": [
        {
          "id": 343939303,
          "eventId": 908005,
          "siteUnitNumber": 12583,
          "bathingSite": "SALTDEAN",
          "eventStart": "2023-11-14T11:27:11",
          "eventStop": "2023-11-14T15:25:37",
          "duration": 238,
          "status": "Genuine",
          "associatedSiteId": 109957,
          "outfallName": "PORTOBELLO BRIGHTON NO2",
          "isImpacting": true,
          "overFlowSiteId": 116036,
          "historicSpillsList": []
        }
      ]
    },
    {
      "id": 343927552,
      "eventId": 910241,
      "siteUnitNumber": 12618,
      "bathingSite": "RYDE",
      "eventStart": "2023-11-14T14:19:00",
      "eventStop": "2023-11-14T15:21:00",
      "duration": 62,
      "status": "Genuine",
      "associatedSiteId": 109780,
      "outfallName": "LADIES WALK BINSTEAD",
      "isImpacting": true,
      "overFlowSiteId": 0,
      "historicSpillsList": [
        {
          "id": 343927552,
          "eventId": 910241,
          "siteUnitNumber": 12618,
          "bathingSite": "RYDE",
          "eventStart": "2023-11-14T14:19:00",
          "eventStop": "2023-11-14T15:21:00",
          "duration": 62,
          "status": "Genuine",
          "associatedSiteId": 109780,
          "outfallName": "LADIES WALK BINSTEAD",
          "isImpacting": true,
          "overFlowSiteId": 107406
        }
      ]
    },
    {
      "id": 343944139,
      "eventId": 908495,
      "siteUnitNumber": 12575,
      "bathingSite": "HASTINGS PELHAM BEACH",
      "eventStart": "2023-11-14T15:14:15",
      "eventStop": "2023-11-14T15:20:00",
      "duration": 5,
      "status": "Genuine",
      "associatedSiteId": 109982,
      "outfallName": "COOMBS HASTINGS",
      "isImpacting": true,
      "overFlowSiteId": 0,
      "historicSpillsList": [
        {
          "id": 343944140,
          "eventId": 908495,
          "siteUnitNumber": 12576,
          "bathingSite": "ST LEONARDS",
          "eventStart": "2023-11-14T15:14:15",
          "eventStop": "2023-11-14T15:20:00",
          "duration": 5,
          "status": "Genuine",
          "associatedSiteId": 109982,
          "outfallName": "COOMBS HASTINGS",
          "isImpacting": true,
          "overFlowSiteId": 110211,
          "historicSpillsList": []
        }
      ]
    },
    {
      "id": 343956524,
      "eventId": 908443,
      "siteUnitNumber": 12615,
      "bathingSite": "COLWELL BAY",
      "eventStart": "2023-11-14T14:39:37",
      "eventStop": "2023-11-14T15:15:29",
      "duration": 35,
      "status": "Genuine",
      "associatedSiteId": 115498,
      "outfallName": "NORTON TRANSFER IOW",
      "isImpacting": true,
      "overFlowSiteId": 0,
      "historicSpillsList": [
        {
          "id": 343956524,
          "eventId": 908443,
          "siteUnitNumber": 12615,
          "bathingSite": "COLWELL BAY",
          "eventStart": "2023-11-14T14:39:37",
          "eventStop": "2023-11-14T15:15:29",
          "duration": 35,
          "status": "Genuine",
          "associatedSiteId": 115498,
          "outfallName": "NORTON TRANSFER IOW",
          "isImpacting": true,
          "overFlowSiteId": 109524
        },
        {
          "id": 343956525,
          "eventId": 908443,
          "siteUnitNumber": 12614,
          "bathingSite": "TOTLAND BAY",
          "eventStart": "2023-11-14T14:39:37",
          "eventStop": "2023-11-14T15:15:29",
          "duration": 35,
          "status": "Genuine",
          "associatedSiteId": 115498,
          "outfallName": "NORTON TRANSFER IOW",
          "isImpacting": true,
          "overFlowSiteId": 109524,
          "historicSpillsList": []
        }
      ]
    },
    {
      "id": 343932091,
      "eventId": 908117,
      "siteUnitNumber": 12579,
      "bathingSite": "PEVENSEY BAY",
      "eventStart": "2023-11-14T12:49:00",
      "eventStop": "2023-11-14T14:57:00",
      "duration": 128,
      "status": "Genuine",
      "associatedSiteId": 109891,
      "outfallName": "MONTAGUE WAY WESTHAM",
      "isImpacting": true,
      "overFlowSiteId": 0,
      "historicSpillsList": [
        {
          "id": 343932091,
          "eventId": 908117,
          "siteUnitNumber": 12579,
          "bathingSite": "PEVENSEY BAY",
          "eventStart": "2023-11-14T12:49:00",
          "eventStop": "2023-11-14T14:57:00",
          "duration": 128,
          "status": "Genuine",
          "associatedSiteId": 109891,
          "outfallName": "MONTAGUE WAY WESTHAM",
          "isImpacting": true,
          "overFlowSiteId": 108314
        }
      ]
    },
    {
      "id": 343944137,
      "eventId": 908466,
      "siteUnitNumber": 12575,
      "bathingSite": "HASTINGS PELHAM BEACH",
      "eventStart": "2023-11-14T14:45:00",
      "eventStop": "2023-11-14T14:53:00",
      "duration": 8,
      "status": "Genuine",
      "associatedSiteId": 109982,
      "outfallName": "COOMBS HASTINGS",
      "isImpacting": true,
      "overFlowSiteId": 0,
      "historicSpillsList": [
        {
          "id": 343944138,
          "eventId": 908466,
          "siteUnitNumber": 12576,
          "bathingSite": "ST LEONARDS",
          "eventStart": "2023-11-14T14:45:00",
          "eventStop": "2023-11-14T14:53:00",
          "duration": 8,
          "status": "Genuine",
          "associatedSiteId": 109982,
          "outfallName": "COOMBS HASTINGS",
          "isImpacting": true,
          "overFlowSiteId": 110211,
          "historicSpillsList": []
        }
      ]
    },
    {
      "id": 343939175,
      "eventId": 908320,
      "siteUnitNumber": 12583,
      "bathingSite": "SALTDEAN",
      "eventStart": "2023-11-14T13:52:00",
      "eventStop": "2023-11-14T14:48:00",
      "duration": 56,
      "status": "Genuine",
      "associatedSiteId": 109955,
      "outfallName": "PORTOBELLO BRIGHTON NO1",
      "isImpacting": true,
      "overFlowSiteId": 0,
      "historicSpillsList": [
        {
          "id": 343939175,
          "eventId": 908320,
          "siteUnitNumber": 12583,
          "bathingSite": "SALTDEAN",
          "eventStart": "2023-11-14T13:52:00",
          "eventStop": "2023-11-14T14:48:00",
          "duration": 56,
          "status": "Genuine",
          "associatedSiteId": 109955,
          "outfallName": "PORTOBELLO BRIGHTON NO1",
          "isImpacting": true,
          "overFlowSiteId": 111606
        }
      ]
    },
    {
      "id": 343921360,
      "eventId": 908446,
      "siteUnitNumber": 12549,
      "bathingSite": "HERNE BAY CENTRAL",
      "eventStart": "2023-11-14T14:42:50",
      "eventStop": "2023-11-14T14:46:14",
      "duration": 3,
      "status": "Genuine",
      "associatedSiteId": 109678,
      "outfallName": "EDDINGTON LANE HERNE BAY NO2",
      "isImpacting": true,
      "overFlowSiteId": 0,
      "historicSpillsList": [
        {
          "id": 343921361,
          "eventId": 908446,
          "siteUnitNumber": 12551,
          "bathingSite": "HERNE BAY",
          "eventStart": "2023-11-14T14:42:50",
          "eventStop": "2023-11-14T14:46:14",
          "duration": 3,
          "status": "Genuine",
          "associatedSiteId": 109678,
          "outfallName": "EDDINGTON LANE HERNE BAY NO2",
          "isImpacting": true,
          "overFlowSiteId": 108093,
          "historicSpillsList": []
        }
      ]
    }
  ]
}