{
  "currentPage": 514,
  "totalItems": 21025,
  "totalPages": 841,
  "items": [
    {
      "id": 344818721,
      "eventId": 657681,
      "siteUnitNumber": 12616,
      "bathingSite": "GURNARD",
      "eventStart": "2022-11-06T12:17:00",
      "eventStop": "2022-11-06T13:00:00",
      "duration": 43,
      "status": "Genuine",
      "associatedSiteId": 109707,
      "outfallName": "MEDINA ROAD COWES",
      "isImpacting": false,
      "overFlowSiteId": 0,
      "historicSpillsList": []
    },
    {
      "id": 344816645,
      "eventId": 658093,
      "siteUnitNumber": 12616,
      "bathingSite": "GURNARD",
      "eventStart": "2022-11-06T06:44:00",
      "eventStop": "2022-11-06T12:23:00",
      "duration": 339,
      "status": "Genuine",
      "associatedSiteId": 109700,
      "outfallName": "MARKET HILL COWES",
      "isImpacting": false,
      "overFlowSiteId": 0,
      "historicSpillsList": []
    },
    {
      "id": 344822009,
      "eventId": 657994,
      "siteUnitNumber": 12618,
      "bathingSite": "RYDE",
      "eventStart": "2022-11-06T07:15:00",
      "eventStop": "2022-11-06T12:20:00",
      "duration": 305,
      "status": "Genuine",
      "associatedSiteId": 109780,
      "outfallName": "LADIES WALK BINSTEAD",
      "isImpacting": true,
      "overFlowSiteId": 0,
      "historicSpillsList": [
        {
          "id": 344822009,
          "eventId": 657994,
          "siteUnitNumber": 12618,
          "bathingSite": "RYDE",
          "eventStart": "2022-11-06T07:15:00",
          "eventStop": "2022-11-06T12:20:00",
          "duration": 305,
          "status": "Genuine",
          "associatedSiteId": 109780,
          "outfallName": "LADIES WALK BINSTEAD",
          "isImpacting": true,
          "overFlowSiteId": 107406
        }
      ]
    },
    {
      "id": 344825245,
      "eventId": 659227,
      "siteUnitNumber": 12547,
      "bathingSite": "WEST BEACH WHITSTABLE",
      "eventStart": "2022-11-06T11:57:00",
      "eventStop": "2022-11-06T12:06:00",
      "duration": 9,
      "status": "Genuine",
      "associatedSiteId": 109831,
      "outfallName": "TANKERTON CIRCUS",
      "isImpacting": true,
      "overFlowSiteId": 0,
      "historicSpillsList": [
        {
          "id": 344825246,
          "eventId": 659227,
          "siteUnitNumber": 12548,
          "bathingSite": "TANKERTON",
          "eventStart": "2022-11-06T11:57:00",
          "eventStop": "2022-11-06T12:06:00",
          "duration": 9,
          "status": "Genuine",
          "associatedSiteId": 109831,
          "outfallName": "TANKERTON CIRCUS",
          "isImpacting": true,
          "overFlowSiteId": 103281,
          "historicSpillsList": []
        }
      ]
    },
    {
      "id": 344818845,
      "eventId": 657956,
      "siteUnitNumber": 12607,
      "bathingSite": "HILLHEAD",
      "eventStart": "2022-11-06T07:28:43",
      "eventStop": "2022-11-06T12:02:31",
      "duration": 273,
      "status": "Genuine",
      "associatedSiteId": 109715,
      "outfallName": "SALTERNS ROAD HILL HEAD",
      "isImpacting": true,
      "overFlowSiteId": 0,
      "historicSpillsList": [
        {
          "id": 344818845,
          "eventId": 657956,
          "siteUnitNumber": 12607,
          "bathingSite": "HILLHEAD",
          "eventStart": "2022-11-06T07:28:43",
          "eventStop": "2022-11-06T12:02:31",
          "duration": 273,
          "status": "Genuine",
          "associatedSiteId": 109715,
          "outfallName": "SALTERNS ROAD HILL HEAD",
          "isImpacting": true,
          "overFlowSiteId": 108441
        }
      ]
    },
    {
      "id": 344818933,
      "eventId": 658231,
      "siteUnitNumber": 12606,
      "bathingSite": "LEE-ON-SOLENT",
      "eventStart": "2022-11-06T08:30:00",
      "eventStop": "2022-11-06T12:00:00",
      "duration": 210,
      "status": "Genuine",
      "associatedSiteId": 109717,
      "outfallName": "NEWGATE LANE PEEL COMMON",
      "isImpacting": false,
      "overFlowSiteId": 0,
      "historicSpillsList": []
    },
    {
      "id": 344838232,
      "eventId": 658333,
      "siteUnitNumber": 12592,
      "bathingSite": "MIDDLETON-ON-SEA",
      "eventStart": "2022-11-06T09:44:00",
      "eventStop": "2022-11-06T11:45:00",
      "duration": 121,
      "status": "Genuine",
      "associatedSiteId": 109972,
      "outfallName": "BOGNOR MAIN",
      "isImpacting": true,
      "overFlowSiteId": 0,
      "historicSpillsList": [
        {
          "id": 344838233,
          "eventId": 658333,
          "siteUnitNumber": 12593,
          "bathingSite": "FELPHAM",
          "eventStart": "2022-11-06T09:44:00",
          "eventStop": "2022-11-06T11:45:00",
          "duration": 121,
          "status": "Genuine",
          "associatedSiteId": 109972,
          "outfallName": "BOGNOR MAIN",
          "isImpacting": true,
          "overFlowSiteId": 107412,
          "historicSpillsList": []
        }
      ]
    },
    {
      "id": 344823960,
      "eventId": 658214,
      "siteUnitNumber": 12602,
      "bathingSite": "BEACHLANDS WEST",
      "eventStart": "2022-11-06T09:30:00",
      "eventStop": "2022-11-06T11:45:00",
      "duration": 135,
      "status": "Genuine",
      "associatedSiteId": 109823,
      "outfallName": "FORT CUMBERLAND NO1",
      "isImpacting": true,
      "overFlowSiteId": 0,
      "historicSpillsList": [
        {
          "id": 344823963,
          "eventId": 658214,
          "siteUnitNumber": 12661,
          "bathingSite": "LANGSTONE HARBOUR",
          "eventStart": "2022-11-06T09:30:00",
          "eventStop": "2022-11-06T11:45:00",
          "duration": 135,
          "status": "Genuine",
          "associatedSiteId": 109823,
          "outfallName": "FORT CUMBERLAND NO1",
          "isImpacting": true,
          "overFlowSiteId": 110658,
          "historicSpillsList": []
        }
      ]
    },
    {
      "id": 344834270,
      "eventId": 658241,
      "siteUnitNumber": 12582,
      "bathingSite": "SEAFORD",
      "eventStart": "2022-11-06T10:00:00",
      "eventStop": "2022-11-06T11:44:00",
      "duration": 104,
      "status": "Genuine",
      "associatedSiteId": 109957,
      "outfallName": "PORTOBELLO BRIGHTON NO2",
      "isImpacting": false,
      "overFlowSiteId": 0,
      "historicSpillsList": []
    },
    {
      "id": 344826075,
      "eventId": 658410,
      "siteUnitNumber": 12662,
      "bathingSite": "CHICHESTER HARBOUR",
      "eventStart": "2022-11-06T11:18:15",
      "eventStop": "2022-11-06T11:36:37",
      "duration": 18,
      "status": "Genuine",
      "associatedSiteId": 109836,
      "outfallName": "CHICHESTER",
      "isImpacting": true,
      "overFlowSiteId": 0,
      "historicSpillsList": [
        {
          "id": 344826075,
          "eventId": 658410,
          "siteUnitNumber": 12662,
          "bathingSite": "CHICHESTER HARBOUR",
          "eventStart": "2022-11-06T11:18:15",
          "eventStop": "2022-11-06T11:36:37",
          "duration": 18,
          "status": "Genuine",
          "associatedSiteId": 109836,
          "outfallName": "CHICHESTER",
          "isImpacting": true,
          "overFlowSiteId": 115401
        }
      ]
    },
    {
      "id": 344838442,
      "eventId": 664222,
      "siteUnitNumber": 12591,
      "bathingSite": "LITTLEHAMPTON",
      "eventStart": "2022-11-06T10:01:00",
      "eventStop": "2022-11-06T11:30:00",
      "duration": 89,
      "status": "Genuine",
      "associatedSiteId": 109977,
      "outfallName": "FORESHORE TANK LITTLEHAMPTON",
      "isImpacting": true,
      "overFlowSiteId": 0,
      "historicSpillsList": [
        {
          "id": 344838442,
          "eventId": 664222,
          "siteUnitNumber": 12591,
          "bathingSite": "LITTLEHAMPTON",
          "eventStart": "2022-11-06T10:01:00",
          "eventStop": "2022-11-06T11:30:00",
          "duration": 89,
          "status": "Genuine",
          "associatedSiteId": 109977,
          "outfallName": "FORESHORE TANK LITTLEHAMPTON",
          "isImpacting": true,
          "overFlowSiteId": 109390
        }
      ]
    },
    {
      "id": 344818951,
      "eventId": 658047,
      "siteUnitNumber": 12605,
      "bathingSite": "STOKES BAY",
      "eventStart": "2022-11-06T07:50:00",
      "eventStop": "2022-11-06T11:30:00",
      "duration": 220,
      "status": "Genuine",
      "associatedSiteId": 109718,
      "outfallName": "GREEN CRESCENT GOSPORT",
      "isImpacting": true,
      "overFlowSiteId": 0,
      "historicSpillsList": [
        {
          "id": 344818951,
          "eventId": 658047,
          "siteUnitNumber": 12605,
          "bathingSite": "STOKES BAY",
          "eventStart": "2022-11-06T07:50:00",
          "eventStop": "2022-11-06T11:30:00",
          "duration": 220,
          "status": "Genuine",
          "associatedSiteId": 109718,
          "outfallName": "GREEN CRESCENT GOSPORT",
          "isImpacting": true,
          "overFlowSiteId": 108436
        },
        {
          "id": 344818952,
          "eventId": 658047,
          "siteUnitNumber": 12606,
          "bathingSite": "LEE-ON-SOLENT",
          "eventStart": "2022-11-06T07:50:00",
          "eventStop": "2022-11-06T11:30:00",
          "duration": 220,
          "status": "Genuine",
          "associatedSiteId": 109718,
          "outfallName": "GREEN CRESCENT GOSPORT",
          "isImpacting": true,
          "overFlowSiteId": 108436,
          "historicSpillsList": []
        }
      ]
    },
    {
      "id": 344818475,
      "eventId": 657953,
      "siteUnitNumber": 12616,
      "bathingSite": "GURNARD",
      "eventStart": "2022-11-06T07:16:34",
      "eventStop": "2022-11-06T11:25:11",
      "duration": 248,
      "status": "Genuine",
      "associatedSiteId": 109706,
      "outfallName": "HIGH STREET COWES",
      "isImpacting": false,
      "overFlowSiteId": 0,
      "historicSpillsList": []
    },
    {
      "id": 344826077,
      "eventId": 658155,
      "siteUnitNumber": 12662,
      "bathingSite": "CHICHESTER HARBOUR",
      "eventStart": "2022-11-06T09:00:51",
      "eventStop": "2022-11-06T11:15:48",
      "duration": 134,
      "status": "Genuine",
      "associatedSiteId": 109836,
      "outfallName": "CHICHESTER",
      "isImpacting": true,
      "overFlowSiteId": 0,
      "historicSpillsList": [
        {
          "id": 344826077,
          "eventId": 658155,
          "siteUnitNumber": 12662,
          "bathingSite": "CHICHESTER HARBOUR",
          "eventStart": "2022-11-06T09:00:51",
          "eventStop": "2022-11-06T11:15:48",
          "duration": 134,
          "status": "Genuine",
          "associatedSiteId": 109836,
          "outfallName": "CHICHESTER",
          "isImpacting": true,
          "overFlowSiteId": 115401
        }
      ]
    },
    {
      "id": 344822177,
      "eventId": 658108,
      "siteUnitNumber": 12618,
      "bathingSite": "RYDE",
      "eventStart": "2022-11-06T08:34:00",
      "eventStop": "2022-11-06T11:05:00",
      "duration": 151,
      "status": "Genuine",
      "associatedSiteId": 109785,
      "outfallName": "SIMEON STREET RYDE",
      "isImpacting": false,
      "overFlowSiteId": 0,
      "historicSpillsList": []
    },
    {
      "id": 344831618,
      "eventId": 658302,
      "siteUnitNumber": 12587,
      "bathingSite": "SOUTHWICK",
      "eventStart": "2022-11-06T09:26:12",
      "eventStop": "2022-11-06T10:50:00",
      "duration": 83,
      "status": "Genuine",
      "associatedSiteId": 109922,
      "outfallName": "ROPETACKLE STREET SHOREHAM",
      "isImpacting": false,
      "overFlowSiteId": 0,
      "historicSpillsList": []
    },
    {
      "id": 344833382,
      "eventId": 658149,
      "siteUnitNumber": 12621,
      "bathingSite": "BEMBRIDGE",
      "eventStart": "2022-11-06T09:10:00",
      "eventStop": "2022-11-06T10:46:00",
      "duration": 96,
      "status": "Genuine",
      "associatedSiteId": 109941,
      "outfallName": "LATIMER ROAD ST HELENS",
      "isImpacting": false,
      "overFlowSiteId": 0,
      "historicSpillsList": []
    },
    {
      "id": 344820070,
      "eventId": 659032,
      "siteUnitNumber": 12661,
      "bathingSite": "LANGSTONE HARBOUR",
      "eventStart": "2022-11-06T09:01:00",
      "eventStop": "2022-11-06T10:46:00",
      "duration": 105,
      "status": "Genuine",
      "associatedSiteId": 109772,
      "outfallName": "BUDDS FARM HAVANT NO1",
      "isImpacting": true,
      "overFlowSiteId": 0,
      "historicSpillsList": [
        {
          "id": 344820070,
          "eventId": 659032,
          "siteUnitNumber": 12661,
          "bathingSite": "LANGSTONE HARBOUR",
          "eventStart": "2022-11-06T09:01:00",
          "eventStop": "2022-11-06T10:46:00",
          "duration": 105,
          "status": "Genuine",
          "associatedSiteId": 109772,
          "outfallName": "BUDDS FARM HAVANT NO1",
          "isImpacting": true,
          "overFlowSiteId": 110704
        }
      ]
    },
    {
      "id": 344849412,
      "eventId": 658100,
      "siteUnitNumber": 12616,
      "bathingSite": "GURNARD",
      "eventStart": "2022-11-06T08:21:33",
      "eventStop": "2022-11-06T10:17:39",
      "duration": 116,
      "status": "Genuine",
      "associatedSiteId": 111069,
      "outfallName": "MEDHAM FARM NORTHWOOD",
      "isImpacting": false,
      "overFlowSiteId": 0,
      "historicSpillsList": []
    },
    {
      "id": 344822885,
      "eventId": 658024,
      "siteUnitNumber": 12661,
      "bathingSite": "LANGSTONE HARBOUR",
      "eventStart": "2022-11-06T07:29:30",
      "eventStop": "2022-11-06T10:00:00",
      "duration": 150,
      "status": "Genuine",
      "associatedSiteId": 109817,
      "outfallName": "MAINLAND DRAYTON",
      "isImpacting": true,
      "overFlowSiteId": 0,
      "historicSpillsList": [
        {
          "id": 344822885,
          "eventId": 658024,
          "siteUnitNumber": 12661,
          "bathingSite": "LANGSTONE HARBOUR",
          "eventStart": "2022-11-06T07:29:30",
          "eventStop": "2022-11-06T10:00:00",
          "duration": 150,
          "status": "Genuine",
          "associatedSiteId": 109817,
          "outfallName": "MAINLAND DRAYTON",
          "isImpacting": true,
          "overFlowSiteId": 115960
        }
      ]
    },
    {
      "id": 344831719,
      "eventId": 658238,
      "siteUnitNumber": 12587,
      "bathingSite": "SOUTHWICK",
      "eventStart": "2022-11-06T09:22:00",
      "eventStop": "2022-11-06T09:48:00",
      "duration": 26,
      "status": "Genuine",
      "associatedSiteId": 109923,
      "outfallName": "THE GREEN SOUTHWICK",
      "isImpacting": false,
      "overFlowSiteId": 0,
      "historicSpillsList": []
    },
    {
      "id": 344831769,
      "eventId": 658267,
      "siteUnitNumber": 12587,
      "bathingSite": "SOUTHWICK",
      "eventStart": "2022-11-06T09:34:00",
      "eventStop": "2022-11-06T09:40:00",
      "duration": 6,
      "status": "Genuine",
      "associatedSiteId": 109924,
      "outfallName": "UPPER SHOREHAM ROAD SHOREHAM",
      "isImpacting": true,
      "overFlowSiteId": 0,
      "historicSpillsList": [
        {
          "id": 344831769,
          "eventId": 658267,
          "siteUnitNumber": 12587,
          "bathingSite": "SOUTHWICK",
          "eventStart": "2022-11-06T09:34:00",
          "eventStop": "2022-11-06T09:40:00",
          "duration": 6,
          "status": "Genuine",
          "associatedSiteId": 109924,
          "outfallName": "UPPER SHOREHAM ROAD SHOREHAM",
          "isImpacting": true,
          "overFlowSiteId": 108819
        },
        {
          "id": 344831770,
          "eventId": 658267,
          "siteUnitNumber": 12588,
          "bathingSite": "SHOREHAM BEACH",
          "eventStart": "2022-11-06T09:34:00",
          "eventStop": "2022-11-06T09:40:00",
          "duration": 6,
          "status": "Genuine",
          "associatedSiteId": 109924,
          "outfallName": "UPPER SHOREHAM ROAD SHOREHAM",
          "isImpacting": true,
          "overFlowSiteId": 108819,
          "historicSpillsList": []
        }
      ]
    },
    {
      "id": 344815180,
      "eventId": 658023,
      "siteUnitNumber": 12614,
      "bathingSite": "TOTLAND BAY",
      "eventStart": "2022-11-06T07:29:16",
      "eventStop": "2022-11-06T09:32:00",
      "duration": 122,
      "status": "Genuine",
      "associatedSiteId": 109665,
      "outfallName": "THORLEY ROAD BOULDNOR",
      "isImpacting": false,
      "overFlowSiteId": 0,
      "historicSpillsList": []
    },
    {
      "id": 344814860,
      "eventId": 658072,
      "siteUnitNumber": 12614,
      "bathingSite": "TOTLAND BAY",
      "eventStart": "2022-11-06T07:48:36",
      "eventStop": "2022-11-06T09:27:00",
      "duration": 98,
      "status": "Genuine",
      "associatedSiteId": 109657,
      "outfallName": "THE PROMENADE TOTLAND PIER NO2",
      "isImpacting": false,
      "overFlowSiteId": 0,
      "historicSpillsList": []
    },
    {
      "id": 344840384,
      "eventId": 658077,
      "siteUnitNumber": 12626,
      "bathingSite": "VENTNOR",
      "eventStart": "2022-11-06T08:07:30",
      "eventStop": "2022-11-06T09:19:00",
      "duration": 71,
      "status": "Genuine",
      "associatedSiteId": 110064,
      "outfallName": "LION POINT VENTNOR",
      "isImpacting": true,
      "overFlowSiteId": 0,
      "historicSpillsList": [
        {
          "id": 344840384,
          "eventId": 658077,
          "siteUnitNumber": 12626,
          "bathingSite": "VENTNOR",
          "eventStart": "2022-11-06T08:07:30",
          "eventStop": "2022-11-06T09:19:00",
          "duration": 71,
          "status": "Genuine",
          "associatedSiteId": 110064,
          "outfallName": "LION POINT VENTNOR",
          "isImpacting": true,
          "overFlowSiteId": 108546
        }
      ]
    }
  ]
}