{
  "currentPage": 702,
  "totalItems": 21025,
  "totalPages": 841,
  "items": [
    {
      "id": 344820394,
      "eventId": 478734,
      "siteUnitNumber": 12661,
      "bathingSite": "LANGSTONE HARBOUR",
      "eventStart": "2021-08-09T04:07:00",
      "eventStop": "2021-08-10T00:11:00",
      "duration": 1204,
      "status": "Genuine",
      "associatedSiteId": 109773,
      "outfallName": "BUDDS FARM HAVANT NO2",
      "isImpacting": true,
      "overFlowSiteId": 0,
      "historicSpillsList": [
        {
          "id": 344820394,
          "eventId": 478734,
          "siteUnitNumber": 12661,
          "bathingSite": "LANGSTONE HARBOUR",
          "eventStart": "2021-08-09T04:07:00",
          "eventStop": "2021-08-10T00:11:00",
          "duration": 1204,
          "status": "Genuine",
          "associatedSiteId": 109773,
          "outfallName": "BUDDS FARM HAVANT NO2",
          "isImpacting": true,
          "overFlowSiteId": 115936
        }
      ]
    },
    {
      "id": 344831310,
      "eventId": 478360,
      "siteUnitNumber": 12596,
      "bathingSite": "PAGHAM",
      "eventStart": "2021-08-09T18:38:39",
      "eventStop": "2021-08-09T23:49:49",
      "duration": 311,
      "status": "Genuine",
      "associatedSiteId": 109911,
      "outfallName": "SUMMER LANE PAGHAM",
      "isImpacting": true,
      "overFlowSiteId": 0,
      "historicSpillsList": [
        {
          "id": 344831310,
          "eventId": 478360,
          "siteUnitNumber": 12596,
          "bathingSite": "PAGHAM",
          "eventStart": "2021-08-09T18:38:39",
          "eventStop": "2021-08-09T23:49:49",
          "duration": 311,
          "status": "Genuine",
          "associatedSiteId": 109911,
          "outfallName": "SUMMER LANE PAGHAM",
          "isImpacting": true,
          "overFlowSiteId": 115443
        }
      ]
    },
    {
      "id": 344853460,
      "eventId": 476858,
      "siteUnitNumber": 12615,
      "bathingSite": "COLWELL BAY",
      "eventStart": "2021-08-09T08:52:00",
      "eventStop": "2021-08-09T23:38:00",
      "duration": 886,
      "status": "Genuine",
      "associatedSiteId": 115498,
      "outfallName": "NORTON TRANSFER IOW",
      "isImpacting": true,
      "overFlowSiteId": 0,
      "historicSpillsList": [
        {
          "id": 344853460,
          "eventId": 476858,
          "siteUnitNumber": 12615,
          "bathingSite": "COLWELL BAY",
          "eventStart": "2021-08-09T08:52:00",
          "eventStop": "2021-08-09T23:38:00",
          "duration": 886,
          "status": "Genuine",
          "associatedSiteId": 115498,
          "outfallName": "NORTON TRANSFER IOW",
          "isImpacting": true,
          "overFlowSiteId": 109524
        },
        {
          "id": 344853461,
          "eventId": 476858,
          "siteUnitNumber": 12614,
          "bathingSite": "TOTLAND BAY",
          "eventStart": "2021-08-09T08:52:00",
          "eventStop": "2021-08-09T23:38:00",
          "duration": 886,
          "status": "Genuine",
          "associatedSiteId": 115498,
          "outfallName": "NORTON TRANSFER IOW",
          "isImpacting": true,
          "overFlowSiteId": 109524,
          "historicSpillsList": []
        }
      ]
    },
    {
      "id": 344822707,
      "eventId": 477599,
      "siteUnitNumber": 12596,
      "bathingSite": "PAGHAM",
      "eventStart": "2021-08-09T07:39:11",
      "eventStop": "2021-08-09T23:02:00",
      "duration": 922,
      "status": "Genuine",
      "associatedSiteId": 109791,
      "outfallName": "SIDLESHAM",
      "isImpacting": true,
      "overFlowSiteId": 0,
      "historicSpillsList": [
        {
          "id": 344822707,
          "eventId": 477599,
          "siteUnitNumber": 12596,
          "bathingSite": "PAGHAM",
          "eventStart": "2021-08-09T07:39:11",
          "eventStop": "2021-08-09T23:02:00",
          "duration": 922,
          "status": "Genuine",
          "associatedSiteId": 109791,
          "outfallName": "SIDLESHAM",
          "isImpacting": true,
          "overFlowSiteId": 115807
        }
      ]
    },
    {
      "id": 344848251,
      "eventId": 476819,
      "siteUnitNumber": 12616,
      "bathingSite": "GURNARD",
      "eventStart": "2021-08-09T01:03:36",
      "eventStop": "2021-08-09T22:51:00",
      "duration": 1307,
      "status": "Genuine",
      "associatedSiteId": 110701,
      "outfallName": "TERMINUS ROAD COWES 2",
      "isImpacting": true,
      "overFlowSiteId": 0,
      "historicSpillsList": [
        {
          "id": 344848251,
          "eventId": 476819,
          "siteUnitNumber": 12616,
          "bathingSite": "GURNARD",
          "eventStart": "2021-08-09T01:03:36",
          "eventStop": "2021-08-09T22:51:00",
          "duration": 1307,
          "status": "Genuine",
          "associatedSiteId": 110701,
          "outfallName": "TERMINUS ROAD COWES 2",
          "isImpacting": true,
          "overFlowSiteId": 108563
        },
        {
          "id": 344848252,
          "eventId": 476819,
          "siteUnitNumber": 12617,
          "bathingSite": "COWES",
          "eventStart": "2021-08-09T01:03:36",
          "eventStop": "2021-08-09T22:51:00",
          "duration": 1307,
          "status": "Genuine",
          "associatedSiteId": 110701,
          "outfallName": "TERMINUS ROAD COWES 2",
          "isImpacting": true,
          "overFlowSiteId": 108563,
          "historicSpillsList": []
        }
      ]
    },
    {
      "id": 344819679,
      "eventId": 477294,
      "siteUnitNumber": 12604,
      "bathingSite": "SOUTHSEA EAST",
      "eventStart": "2021-08-09T05:04:05",
      "eventStop": "2021-08-09T22:09:00",
      "duration": 1024,
      "status": "Genuine",
      "associatedSiteId": 109732,
      "outfallName": "PEEL COMMON",
      "isImpacting": true,
      "overFlowSiteId": 0,
      "historicSpillsList": [
        {
          "id": 344819679,
          "eventId": 477294,
          "siteUnitNumber": 12604,
          "bathingSite": "SOUTHSEA EAST",
          "eventStart": "2021-08-09T05:04:05",
          "eventStop": "2021-08-09T22:09:00",
          "duration": 1024,
          "status": "Genuine",
          "associatedSiteId": 109732,
          "outfallName": "PEEL COMMON",
          "isImpacting": true,
          "overFlowSiteId": 115425
        },
        {
          "id": 344819680,
          "eventId": 477294,
          "siteUnitNumber": 12605,
          "bathingSite": "STOKES BAY",
          "eventStart": "2021-08-09T05:04:05",
          "eventStop": "2021-08-09T22:09:00",
          "duration": 1024,
          "status": "Genuine",
          "associatedSiteId": 109732,
          "outfallName": "PEEL COMMON",
          "isImpacting": true,
          "overFlowSiteId": 115425,
          "historicSpillsList": []
        },
        {
          "id": 344819681,
          "eventId": 477294,
          "siteUnitNumber": 12606,
          "bathingSite": "LEE-ON-SOLENT",
          "eventStart": "2021-08-09T05:04:05",
          "eventStop": "2021-08-09T22:09:00",
          "duration": 1024,
          "status": "Genuine",
          "associatedSiteId": 109732,
          "outfallName": "PEEL COMMON",
          "isImpacting": true,
          "overFlowSiteId": 115425,
          "historicSpillsList": []
        },
        {
          "id": 344819682,
          "eventId": 477294,
          "siteUnitNumber": 12607,
          "bathingSite": "HILLHEAD",
          "eventStart": "2021-08-09T05:04:05",
          "eventStop": "2021-08-09T22:09:00",
          "duration": 1024,
          "status": "Genuine",
          "associatedSiteId": 109732,
          "outfallName": "PEEL COMMON",
          "isImpacting": true,
          "overFlowSiteId": 115425,
          "historicSpillsList": []
        },
        {
          "id": 344819683,
          "eventId": 477294,
          "siteUnitNumber": 12603,
          "bathingSite": "EASTNEY",
          "eventStart": "2021-08-09T05:04:05",
          "eventStop": "2021-08-09T22:09:00",
          "duration": 1024,
          "status": "Genuine",
          "associatedSiteId": 109732,
          "outfallName": "PEEL COMMON",
          "isImpacting": true,
          "overFlowSiteId": 115425,
          "historicSpillsList": []
        }
      ]
    },
    {
      "id": 344821308,
      "eventId": 477639,
      "siteUnitNumber": 12617,
      "bathingSite": "COWES",
      "eventStart": "2021-08-09T10:39:00",
      "eventStop": "2021-08-09T21:57:00",
      "duration": 678,
      "status": "Genuine",
      "associatedSiteId": 109777,
      "outfallName": "APPLEY PARK RYDE TRANSFER",
      "isImpacting": true,
      "overFlowSiteId": 0,
      "historicSpillsList": [
        {
          "id": 344821308,
          "eventId": 477639,
          "siteUnitNumber": 12617,
          "bathingSite": "COWES",
          "eventStart": "2021-08-09T10:39:00",
          "eventStop": "2021-08-09T21:57:00",
          "duration": 678,
          "status": "Genuine",
          "associatedSiteId": 109777,
          "outfallName": "APPLEY PARK RYDE TRANSFER",
          "isImpacting": true,
          "overFlowSiteId": 108941
        },
        {
          "id": 344821309,
          "eventId": 477639,
          "siteUnitNumber": 12618,
          "bathingSite": "RYDE",
          "eventStart": "2021-08-09T10:39:00",
          "eventStop": "2021-08-09T21:57:00",
          "duration": 678,
          "status": "Genuine",
          "associatedSiteId": 109777,
          "outfallName": "APPLEY PARK RYDE TRANSFER",
          "isImpacting": true,
          "overFlowSiteId": 108941,
          "historicSpillsList": []
        }
      ]
    },
    {
      "id": 344853458,
      "eventId": 476859,
      "siteUnitNumber": 12614,
      "bathingSite": "TOTLAND BAY",
      "eventStart": "2021-08-09T00:52:00",
      "eventStop": "2021-08-09T19:13:00",
      "duration": 1101,
      "status": "Genuine",
      "associatedSiteId": 115498,
      "outfallName": "NORTON TRANSFER IOW",
      "isImpacting": true,
      "overFlowSiteId": 0,
      "historicSpillsList": [
        {
          "id": 344853458,
          "eventId": 476859,
          "siteUnitNumber": 12614,
          "bathingSite": "TOTLAND BAY",
          "eventStart": "2021-08-09T00:52:00",
          "eventStop": "2021-08-09T19:13:00",
          "duration": 1101,
          "status": "Genuine",
          "associatedSiteId": 115498,
          "outfallName": "NORTON TRANSFER IOW",
          "isImpacting": true,
          "overFlowSiteId": 108544
        },
        {
          "id": 344853459,
          "eventId": 476859,
          "siteUnitNumber": 12615,
          "bathingSite": "COLWELL BAY",
          "eventStart": "2021-08-09T00:52:00",
          "eventStop": "2021-08-09T19:13:00",
          "duration": 1101,
          "status": "Genuine",
          "associatedSiteId": 115498,
          "outfallName": "NORTON TRANSFER IOW",
          "isImpacting": true,
          "overFlowSiteId": 108544,
          "historicSpillsList": []
        }
      ]
    },
    {
      "id": 344831309,
      "eventId": 478345,
      "siteUnitNumber": 12596,
      "bathingSite": "PAGHAM",
      "eventStart": "2021-08-09T18:17:23",
      "eventStop": "2021-08-09T18:37:04",
      "duration": 19,
      "status": "Genuine",
      "associatedSiteId": 109911,
      "outfallName": "SUMMER LANE PAGHAM",
      "isImpacting": true,
      "overFlowSiteId": 0,
      "historicSpillsList": [
        {
          "id": 344831309,
          "eventId": 478345,
          "siteUnitNumber": 12596,
          "bathingSite": "PAGHAM",
          "eventStart": "2021-08-09T18:17:23",
          "eventStop": "2021-08-09T18:37:04",
          "duration": 19,
          "status": "Genuine",
          "associatedSiteId": 109911,
          "outfallName": "SUMMER LANE PAGHAM",
          "isImpacting": true,
          "overFlowSiteId": 115443
        }
      ]
    },
    {
      "id": 344831308,
      "eventId": 478290,
      "siteUnitNumber": 12596,
      "bathingSite": "PAGHAM",
      "eventStart": "2021-08-09T17:07:10",
      "eventStop": "2021-08-09T18:13:59",
      "duration": 66,
      "status": "Genuine",
      "associatedSiteId": 109911,
      "outfallName": "SUMMER LANE PAGHAM",
      "isImpacting": true,
      "overFlowSiteId": 0,
      "historicSpillsList": [
        {
          "id": 344831308,
          "eventId": 478290,
          "siteUnitNumber": 12596,
          "bathingSite": "PAGHAM",
          "eventStart": "2021-08-09T17:07:10",
          "eventStop": "2021-08-09T18:13:59",
          "duration": 66,
          "status": "Genuine",
          "associatedSiteId": 109911,
          "outfallName": "SUMMER LANE PAGHAM",
          "isImpacting": true,
          "overFlowSiteId": 115443
        }
      ]
    },
    {
      "id": 344831313,
      "eventId": 478286,
      "siteUnitNumber": 12596,
      "bathingSite": "PAGHAM",
      "eventStart": "2021-08-09T15:31:15",
      "eventStop": "2021-08-09T17:04:07",
      "duration": 92,
      "status": "Genuine",
      "associatedSiteId": 109911,
      "outfallName": "SUMMER LANE PAGHAM",
      "isImpacting": true,
      "overFlowSiteId": 0,
      "historicSpillsList": [
        {
          "id": 344831313,
          "eventId": 478286,
          "siteUnitNumber": 12596,
          "bathingSite": "PAGHAM",
          "eventStart": "2021-08-09T15:31:15",
          "eventStop": "2021-08-09T17:04:07",
          "duration": 92,
          "status": "Genuine",
          "associatedSiteId": 109911,
          "outfallName": "SUMMER LANE PAGHAM",
          "isImpacting": true,
          "overFlowSiteId": 115443
        }
      ]
    },
    {
      "id": 344813151,
      "eventId": 478839,
      "siteUnitNumber": 12616,
      "bathingSite": "GURNARD",
      "eventStart": "2021-08-09T03:02:00",
      "eventStop": "2021-08-09T16:14:00",
      "duration": 792,
      "status": "Genuine",
      "associatedSiteId": 109650,
      "outfallName": "MARSH ROAD GURNARD",
      "isImpacting": true,
      "overFlowSiteId": 0,
      "historicSpillsList": [
        {
          "id": 344813151,
          "eventId": 478839,
          "siteUnitNumber": 12616,
          "bathingSite": "GURNARD",
          "eventStart": "2021-08-09T03:02:00",
          "eventStop": "2021-08-09T16:14:00",
          "duration": 792,
          "status": "Genuine",
          "associatedSiteId": 109650,
          "outfallName": "MARSH ROAD GURNARD",
          "isImpacting": true,
          "overFlowSiteId": 107441
        },
        {
          "id": 344813152,
          "eventId": 478839,
          "siteUnitNumber": 12617,
          "bathingSite": "COWES",
          "eventStart": "2021-08-09T03:02:00",
          "eventStop": "2021-08-09T16:14:00",
          "duration": 792,
          "status": "Genuine",
          "associatedSiteId": 109650,
          "outfallName": "MARSH ROAD GURNARD",
          "isImpacting": true,
          "overFlowSiteId": 107441,
          "historicSpillsList": []
        }
      ]
    },
    {
      "id": 344831312,
      "eventId": 478282,
      "siteUnitNumber": 12596,
      "bathingSite": "PAGHAM",
      "eventStart": "2021-08-09T14:54:53",
      "eventStop": "2021-08-09T15:14:43",
      "duration": 19,
      "status": "Genuine",
      "associatedSiteId": 109911,
      "outfallName": "SUMMER LANE PAGHAM",
      "isImpacting": true,
      "overFlowSiteId": 0,
      "historicSpillsList": [
        {
          "id": 344831312,
          "eventId": 478282,
          "siteUnitNumber": 12596,
          "bathingSite": "PAGHAM",
          "eventStart": "2021-08-09T14:54:53",
          "eventStop": "2021-08-09T15:14:43",
          "duration": 19,
          "status": "Genuine",
          "associatedSiteId": 109911,
          "outfallName": "SUMMER LANE PAGHAM",
          "isImpacting": true,
          "overFlowSiteId": 115443
        }
      ]
    },
    {
      "id": 344831311,
      "eventId": 478141,
      "siteUnitNumber": 12596,
      "bathingSite": "PAGHAM",
      "eventStart": "2021-08-09T14:00:11",
      "eventStop": "2021-08-09T14:29:54",
      "duration": 29,
      "status": "Genuine",
      "associatedSiteId": 109911,
      "outfallName": "SUMMER LANE PAGHAM",
      "isImpacting": true,
      "overFlowSiteId": 0,
      "historicSpillsList": [
        {
          "id": 344831311,
          "eventId": 478141,
          "siteUnitNumber": 12596,
          "bathingSite": "PAGHAM",
          "eventStart": "2021-08-09T14:00:11",
          "eventStop": "2021-08-09T14:29:54",
          "duration": 29,
          "status": "Genuine",
          "associatedSiteId": 109911,
          "outfallName": "SUMMER LANE PAGHAM",
          "isImpacting": true,
          "overFlowSiteId": 115443
        }
      ]
    },
    {
      "id": 344838487,
      "eventId": 477374,
      "siteUnitNumber": 12591,
      "bathingSite": "LITTLEHAMPTON",
      "eventStart": "2021-08-09T05:45:40",
      "eventStop": "2021-08-09T14:24:54",
      "duration": 519,
      "status": "Genuine",
      "associatedSiteId": 109977,
      "outfallName": "FORESHORE TANK LITTLEHAMPTON",
      "isImpacting": true,
      "overFlowSiteId": 0,
      "historicSpillsList": [
        {
          "id": 344838487,
          "eventId": 477374,
          "siteUnitNumber": 12591,
          "bathingSite": "LITTLEHAMPTON",
          "eventStart": "2021-08-09T05:45:40",
          "eventStop": "2021-08-09T14:24:54",
          "duration": 519,
          "status": "Genuine",
          "associatedSiteId": 109977,
          "outfallName": "FORESHORE TANK LITTLEHAMPTON",
          "isImpacting": true,
          "overFlowSiteId": 109390
        }
      ]
    },
    {
      "id": 344826202,
      "eventId": 477159,
      "siteUnitNumber": 12662,
      "bathingSite": "CHICHESTER HARBOUR",
      "eventStart": "2021-08-09T04:00:35",
      "eventStop": "2021-08-09T14:18:00",
      "duration": 617,
      "status": "Genuine",
      "associatedSiteId": 109850,
      "outfallName": "THORNHAM",
      "isImpacting": true,
      "overFlowSiteId": 0,
      "historicSpillsList": [
        {
          "id": 344826202,
          "eventId": 477159,
          "siteUnitNumber": 12662,
          "bathingSite": "CHICHESTER HARBOUR",
          "eventStart": "2021-08-09T04:00:35",
          "eventStop": "2021-08-09T14:18:00",
          "duration": 617,
          "status": "Genuine",
          "associatedSiteId": 109850,
          "outfallName": "THORNHAM",
          "isImpacting": true,
          "overFlowSiteId": 115370
        }
      ]
    },
    {
      "id": 344826250,
      "eventId": 477198,
      "siteUnitNumber": 12662,
      "bathingSite": "CHICHESTER HARBOUR",
      "eventStart": "2021-08-09T04:25:16",
      "eventStop": "2021-08-09T13:59:15",
      "duration": 573,
      "status": "Genuine",
      "associatedSiteId": 109854,
      "outfallName": "KINGS ROAD EMSWORTH",
      "isImpacting": true,
      "overFlowSiteId": 0,
      "historicSpillsList": [
        {
          "id": 344826250,
          "eventId": 477198,
          "siteUnitNumber": 12662,
          "bathingSite": "CHICHESTER HARBOUR",
          "eventStart": "2021-08-09T04:25:16",
          "eventStop": "2021-08-09T13:59:15",
          "duration": 573,
          "status": "Genuine",
          "associatedSiteId": 109854,
          "outfallName": "KINGS ROAD EMSWORTH",
          "isImpacting": true,
          "overFlowSiteId": 109298
        }
      ]
    },
    {
      "id": 344824793,
      "eventId": 478131,
      "siteUnitNumber": 12548,
      "bathingSite": "TANKERTON",
      "eventStart": "2021-08-09T13:23:44",
      "eventStop": "2021-08-09T13:59:02",
      "duration": 35,
      "status": "Genuine",
      "associatedSiteId": 109830,
      "outfallName": "SWALECLIFFE NO1",
      "isImpacting": true,
      "overFlowSiteId": 0,
      "historicSpillsList": [
        {
          "id": 344824793,
          "eventId": 478131,
          "siteUnitNumber": 12548,
          "bathingSite": "TANKERTON",
          "eventStart": "2021-08-09T13:23:44",
          "eventStop": "2021-08-09T13:59:02",
          "duration": 35,
          "status": "Genuine",
          "associatedSiteId": 109830,
          "outfallName": "SWALECLIFFE NO1",
          "isImpacting": true,
          "overFlowSiteId": 115444
        },
        {
          "id": 344824794,
          "eventId": 478131,
          "siteUnitNumber": 12549,
          "bathingSite": "HERNE BAY CENTRAL",
          "eventStart": "2021-08-09T13:23:44",
          "eventStop": "2021-08-09T13:59:02",
          "duration": 35,
          "status": "Genuine",
          "associatedSiteId": 109830,
          "outfallName": "SWALECLIFFE NO1",
          "isImpacting": true,
          "overFlowSiteId": 115444,
          "historicSpillsList": []
        }
      ]
    },
    {
      "id": 344831316,
      "eventId": 478112,
      "siteUnitNumber": 12596,
      "bathingSite": "PAGHAM",
      "eventStart": "2021-08-09T13:26:44",
      "eventStop": "2021-08-09T13:58:37",
      "duration": 31,
      "status": "Genuine",
      "associatedSiteId": 109911,
      "outfallName": "SUMMER LANE PAGHAM",
      "isImpacting": true,
      "overFlowSiteId": 0,
      "historicSpillsList": [
        {
          "id": 344831316,
          "eventId": 478112,
          "siteUnitNumber": 12596,
          "bathingSite": "PAGHAM",
          "eventStart": "2021-08-09T13:26:44",
          "eventStop": "2021-08-09T13:58:37",
          "duration": 31,
          "status": "Genuine",
          "associatedSiteId": 109911,
          "outfallName": "SUMMER LANE PAGHAM",
          "isImpacting": true,
          "overFlowSiteId": 115443
        }
      ]
    },
    {
      "id": 344849632,
      "eventId": 478706,
      "siteUnitNumber": 12662,
      "bathingSite": "CHICHESTER HARBOUR",
      "eventStart": "2021-08-09T13:19:00",
      "eventStop": "2021-08-09T13:50:00",
      "duration": 31,
      "status": "Genuine",
      "associatedSiteId": 111600,
      "outfallName": "MILL LANE FISHBOURNE",
      "isImpacting": true,
      "overFlowSiteId": 0,
      "historicSpillsList": [
        {
          "id": 344849632,
          "eventId": 478706,
          "siteUnitNumber": 12662,
          "bathingSite": "CHICHESTER HARBOUR",
          "eventStart": "2021-08-09T13:19:00",
          "eventStop": "2021-08-09T13:50:00",
          "duration": 31,
          "status": "Genuine",
          "associatedSiteId": 111600,
          "outfallName": "MILL LANE FISHBOURNE",
          "isImpacting": true,
          "overFlowSiteId": 111371
        }
      ]
    },
    {
      "id": 344833282,
      "eventId": 477148,
      "siteUnitNumber": 12620,
      "bathingSite": "ST HELENS",
      "eventStart": "2021-08-09T03:45:00",
      "eventStop": "2021-08-09T13:31:00",
      "duration": 586,
      "status": "Genuine",
      "associatedSiteId": 109939,
      "outfallName": "LANE END ROAD BEMBRIDGE",
      "isImpacting": true,
      "overFlowSiteId": 0,
      "historicSpillsList": [
        {
          "id": 344833282,
          "eventId": 477148,
          "siteUnitNumber": 12620,
          "bathingSite": "ST HELENS",
          "eventStart": "2021-08-09T03:45:00",
          "eventStop": "2021-08-09T13:31:00",
          "duration": 586,
          "status": "Genuine",
          "associatedSiteId": 109939,
          "outfallName": "LANE END ROAD BEMBRIDGE",
          "isImpacting": true,
          "overFlowSiteId": 108533
        },
        {
          "id": 344833283,
          "eventId": 477148,
          "siteUnitNumber": 12621,
          "bathingSite": "BEMBRIDGE",
          "eventStart": "2021-08-09T03:45:00",
          "eventStop": "2021-08-09T13:31:00",
          "duration": 586,
          "status": "Genuine",
          "associatedSiteId": 109939,
          "outfallName": "LANE END ROAD BEMBRIDGE",
          "isImpacting": true,
          "overFlowSiteId": 108533,
          "historicSpillsList": []
        }
      ]
    },
    {
      "id": 344822022,
      "eventId": 476929,
      "siteUnitNumber": 12618,
      "bathingSite": "RYDE",
      "eventStart": "2021-08-09T02:25:08",
      "eventStop": "2021-08-09T13:25:45",
      "duration": 660,
      "status": "Genuine",
      "associatedSiteId": 109780,
      "outfallName": "LADIES WALK BINSTEAD",
      "isImpacting": true,
      "overFlowSiteId": 0,
      "historicSpillsList": [
        {
          "id": 344822022,
          "eventId": 476929,
          "siteUnitNumber": 12618,
          "bathingSite": "RYDE",
          "eventStart": "2021-08-09T02:25:08",
          "eventStop": "2021-08-09T13:25:45",
          "duration": 660,
          "status": "Genuine",
          "associatedSiteId": 109780,
          "outfallName": "LADIES WALK BINSTEAD",
          "isImpacting": true,
          "overFlowSiteId": 107406
        }
      ]
    },
    {
      "id": 344831315,
      "eventId": 478023,
      "siteUnitNumber": 12596,
      "bathingSite": "PAGHAM",
      "eventStart": "2021-08-09T12:03:44",
      "eventStop": "2021-08-09T13:15:32",
      "duration": 71,
      "status": "Genuine",
      "associatedSiteId": 109911,
      "outfallName": "SUMMER LANE PAGHAM",
      "isImpacting": true,
      "overFlowSiteId": 0,
      "historicSpillsList": [
        {
          "id": 344831315,
          "eventId": 478023,
          "siteUnitNumber": 12596,
          "bathingSite": "PAGHAM",
          "eventStart": "2021-08-09T12:03:44",
          "eventStop": "2021-08-09T13:15:32",
          "duration": 71,
          "status": "Genuine",
          "associatedSiteId": 109911,
          "outfallName": "SUMMER LANE PAGHAM",
          "isImpacting": true,
          "overFlowSiteId": 115443
        }
      ]
    },
    {
      "id": 344849631,
      "eventId": 478692,
      "siteUnitNumber": 12662,
      "bathingSite": "CHICHESTER HARBOUR",
      "eventStart": "2021-08-09T06:12:00",
      "eventStop": "2021-08-09T12:59:00",
      "duration": 407,
      "status": "Genuine",
      "associatedSiteId": 111600,
      "outfallName": "MILL LANE FISHBOURNE",
      "isImpacting": true,
      "overFlowSiteId": 0,
      "historicSpillsList": [
        {
          "id": 344849631,
          "eventId": 478692,
          "siteUnitNumber": 12662,
          "bathingSite": "CHICHESTER HARBOUR",
          "eventStart": "2021-08-09T06:12:00",
          "eventStop": "2021-08-09T12:59:00",
          "duration": 407,
          "status": "Genuine",
          "associatedSiteId": 111600,
          "outfallName": "MILL LANE FISHBOURNE",
          "isImpacting": true,
          "overFlowSiteId": 111371
        }
      ]
    },
    {
      "id": 344826235,
      "eventId": 477657,
      "siteUnitNumber": 12662,
      "bathingSite": "CHICHESTER HARBOUR",
      "eventStart": "2021-08-09T07:58:33",
      "eventStop": "2021-08-09T12:52:52",
      "duration": 294,
      "status": "Genuine",
      "associatedSiteId": 109853,
      "outfallName": "CHIDHAM",
      "isImpacting": true,
      "overFlowSiteId": 0,
      "historicSpillsList": [
        {
          "id": 344826235,
          "eventId": 477657,
          "siteUnitNumber": 12662,
          "bathingSite": "CHICHESTER HARBOUR",
          "eventStart": "2021-08-09T07:58:33",
          "eventStop": "2021-08-09T12:52:52",
          "duration": 294,
          "status": "Genuine",
          "associatedSiteId": 109853,
          "outfallName": "CHIDHAM",
          "isImpacting": true,
          "overFlowSiteId": 108205
        }
      ]
    }
  ]
}