{
  "currentPage": 338,
  "totalItems": 21025,
  "totalPages": 841,
  "items": [
    {
      "id": 344806302,
      "eventId": 774477,
      "siteUnitNumber": 12582,
      "bathingSite": "SEAFORD",
      "eventStart": "2023-03-09T20:33:49",
      "eventStop": "2023-03-09T21:23:13",
      "duration": 49,
      "status": "Genuine",
      "associatedSiteId": 110920,
      "outfallName": "NEWHAVEN",
      "isImpacting": false,
      "overFlowSiteId": 0,
      "historicSpillsList": []
    },
    {
      "id": 344773098,
      "eventId": 774518,
      "siteUnitNumber": 12551,
      "bathingSite": "HERNE BAY",
      "eventStart": "2023-03-09T21:00:00",
      "eventStop": "2023-03-09T21:15:00",
      "duration": 15,
      "status": "Not Genuine",
      "associatedSiteId": 109677,
      "outfallName": "EDDINGTON LANE HERNE BAY NO1",
      "isImpacting": false,
      "overFlowSiteId": 0,
      "historicSpillsList": []
    },
    {
      "id": 344787520,
      "eventId": 773729,
      "siteUnitNumber": 12576,
      "bathingSite": "ST LEONARDS",
      "eventStart": "2023-03-09T08:24:30",
      "eventStop": "2023-03-09T20:45:00",
      "duration": 740,
      "status": "Genuine",
      "associatedSiteId": 109903,
      "outfallName": "BEXHILL & HASTINGS NO2",
      "isImpacting": true,
      "overFlowSiteId": 0,
      "historicSpillsList": [
        {
          "id": 344787520,
          "eventId": 773729,
          "siteUnitNumber": 12576,
          "bathingSite": "ST LEONARDS",
          "eventStart": "2023-03-09T08:24:30",
          "eventStop": "2023-03-09T20:45:00",
          "duration": 740,
          "status": "Genuine",
          "associatedSiteId": 109903,
          "outfallName": "BEXHILL & HASTINGS NO2",
          "isImpacting": true,
          "overFlowSiteId": 115398
        },
        {
          "id": 344787521,
          "eventId": 773729,
          "siteUnitNumber": 12577,
          "bathingSite": "BEXHILL",
          "eventStart": "2023-03-09T08:24:30",
          "eventStop": "2023-03-09T20:45:00",
          "duration": 740,
          "status": "Genuine",
          "associatedSiteId": 109903,
          "outfallName": "BEXHILL & HASTINGS NO2",
          "isImpacting": true,
          "overFlowSiteId": 115398,
          "historicSpillsList": []
        }
      ]
    },
    {
      "id": 344791560,
      "eventId": 774349,
      "siteUnitNumber": 12582,
      "bathingSite": "SEAFORD",
      "eventStart": "2023-03-09T19:58:00",
      "eventStop": "2023-03-09T20:35:00",
      "duration": 37,
      "status": "Genuine",
      "associatedSiteId": 109957,
      "outfallName": "PORTOBELLO BRIGHTON NO2",
      "isImpacting": false,
      "overFlowSiteId": 0,
      "historicSpillsList": []
    },
    {
      "id": 344806301,
      "eventId": 774330,
      "siteUnitNumber": 12582,
      "bathingSite": "SEAFORD",
      "eventStart": "2023-03-09T17:45:52",
      "eventStop": "2023-03-09T19:52:52",
      "duration": 127,
      "status": "Genuine",
      "associatedSiteId": 110920,
      "outfallName": "NEWHAVEN",
      "isImpacting": false,
      "overFlowSiteId": 0,
      "historicSpillsList": []
    },
    {
      "id": 344795192,
      "eventId": 774386,
      "siteUnitNumber": 12591,
      "bathingSite": "LITTLEHAMPTON",
      "eventStart": "2023-03-09T18:51:29",
      "eventStop": "2023-03-09T19:41:00",
      "duration": 49,
      "status": "Genuine",
      "associatedSiteId": 109968,
      "outfallName": "FORD ROAD ARUNDEL",
      "isImpacting": true,
      "overFlowSiteId": 0,
      "historicSpillsList": [
        {
          "id": 344795192,
          "eventId": 774386,
          "siteUnitNumber": 12591,
          "bathingSite": "LITTLEHAMPTON",
          "eventStart": "2023-03-09T18:51:29",
          "eventStop": "2023-03-09T19:41:00",
          "duration": 49,
          "status": "Genuine",
          "associatedSiteId": 109968,
          "outfallName": "FORD ROAD ARUNDEL",
          "isImpacting": true,
          "overFlowSiteId": 108002
        }
      ]
    },
    {
      "id": 344794636,
      "eventId": 776150,
      "siteUnitNumber": 12591,
      "bathingSite": "LITTLEHAMPTON",
      "eventStart": "2023-03-09T18:39:00",
      "eventStop": "2023-03-09T19:02:00",
      "duration": 23,
      "status": "Genuine",
      "associatedSiteId": 109965,
      "outfallName": "SEA ROAD LITTLEHAMPTON",
      "isImpacting": true,
      "overFlowSiteId": 0,
      "historicSpillsList": [
        {
          "id": 344794636,
          "eventId": 776150,
          "siteUnitNumber": 12591,
          "bathingSite": "LITTLEHAMPTON",
          "eventStart": "2023-03-09T18:39:00",
          "eventStop": "2023-03-09T19:02:00",
          "duration": 23,
          "status": "Genuine",
          "associatedSiteId": 109965,
          "outfallName": "SEA ROAD LITTLEHAMPTON",
          "isImpacting": true,
          "overFlowSiteId": 109368
        }
      ]
    },
    {
      "id": 344805047,
      "eventId": 774339,
      "siteUnitNumber": 12616,
      "bathingSite": "GURNARD",
      "eventStart": "2023-03-09T18:09:07",
      "eventStop": "2023-03-09T18:45:00",
      "duration": 35,
      "status": "Not Genuine",
      "associatedSiteId": 110701,
      "outfallName": "TERMINUS ROAD COWES 2",
      "isImpacting": true,
      "overFlowSiteId": 0,
      "historicSpillsList": []
    },
    {
      "id": 344795818,
      "eventId": 774157,
      "siteUnitNumber": 12591,
      "bathingSite": "LITTLEHAMPTON",
      "eventStart": "2023-03-09T13:58:52",
      "eventStop": "2023-03-09T18:12:33",
      "duration": 253,
      "status": "Genuine",
      "associatedSiteId": 109977,
      "outfallName": "FORESHORE TANK LITTLEHAMPTON",
      "isImpacting": true,
      "overFlowSiteId": 0,
      "historicSpillsList": [
        {
          "id": 344795818,
          "eventId": 774157,
          "siteUnitNumber": 12591,
          "bathingSite": "LITTLEHAMPTON",
          "eventStart": "2023-03-09T13:58:52",
          "eventStop": "2023-03-09T18:12:33",
          "duration": 253,
          "status": "Genuine",
          "associatedSiteId": 109977,
          "outfallName": "FORESHORE TANK LITTLEHAMPTON",
          "isImpacting": true,
          "overFlowSiteId": 109390
        }
      ]
    },
    {
      "id": 344769949,
      "eventId": 773945,
      "siteUnitNumber": 12546,
      "bathingSite": "LEYSDOWN",
      "eventStart": "2023-03-09T11:14:00",
      "eventStop": "2023-03-09T18:12:00",
      "duration": 418,
      "status": "Genuine",
      "associatedSiteId": 109613,
      "outfallName": "BARROWS BROOK EASTCHURCH",
      "isImpacting": true,
      "overFlowSiteId": 0,
      "historicSpillsList": [
        {
          "id": 344769949,
          "eventId": 773945,
          "siteUnitNumber": 12546,
          "bathingSite": "LEYSDOWN",
          "eventStart": "2023-03-09T11:14:00",
          "eventStop": "2023-03-09T18:12:00",
          "duration": 418,
          "status": "Genuine",
          "associatedSiteId": 109613,
          "outfallName": "BARROWS BROOK EASTCHURCH",
          "isImpacting": true,
          "overFlowSiteId": 108109
        }
      ]
    },
    {
      "id": 344795193,
      "eventId": 774328,
      "siteUnitNumber": 12591,
      "bathingSite": "LITTLEHAMPTON",
      "eventStart": "2023-03-09T17:45:00",
      "eventStop": "2023-03-09T18:00:00",
      "duration": 15,
      "status": "Not Genuine",
      "associatedSiteId": 109968,
      "outfallName": "FORD ROAD ARUNDEL",
      "isImpacting": true,
      "overFlowSiteId": 0,
      "historicSpillsList": []
    },
    {
      "id": 344785644,
      "eventId": 774311,
      "siteUnitNumber": 12568,
      "bathingSite": "SANDGATE",
      "eventStart": "2023-03-09T16:45:00",
      "eventStop": "2023-03-09T17:57:00",
      "duration": 72,
      "status": "Genuine",
      "associatedSiteId": 109897,
      "outfallName": "RANGE ROAD HYTHE K LONG",
      "isImpacting": true,
      "overFlowSiteId": 0,
      "historicSpillsList": [
        {
          "id": 344785644,
          "eventId": 774311,
          "siteUnitNumber": 12568,
          "bathingSite": "SANDGATE",
          "eventStart": "2023-03-09T16:45:00",
          "eventStop": "2023-03-09T17:57:00",
          "duration": 72,
          "status": "Genuine",
          "associatedSiteId": 109897,
          "outfallName": "RANGE ROAD HYTHE K LONG",
          "isImpacting": true,
          "overFlowSiteId": 116048
        },
        {
          "id": 344785645,
          "eventId": 774311,
          "siteUnitNumber": 12569,
          "bathingSite": "HYTHE",
          "eventStart": "2023-03-09T16:45:00",
          "eventStop": "2023-03-09T17:57:00",
          "duration": 72,
          "status": "Genuine",
          "associatedSiteId": 109897,
          "outfallName": "RANGE ROAD HYTHE K LONG",
          "isImpacting": true,
          "overFlowSiteId": 116048,
          "historicSpillsList": []
        }
      ]
    },
    {
      "id": 344777623,
      "eventId": 773783,
      "siteUnitNumber": 12661,
      "bathingSite": "LANGSTONE HARBOUR",
      "eventStart": "2023-03-09T09:07:42",
      "eventStop": "2023-03-09T17:17:43",
      "duration": 490,
      "status": "Genuine",
      "associatedSiteId": 109773,
      "outfallName": "BUDDS FARM HAVANT NO2",
      "isImpacting": true,
      "overFlowSiteId": 0,
      "historicSpillsList": [
        {
          "id": 344777623,
          "eventId": 773783,
          "siteUnitNumber": 12661,
          "bathingSite": "LANGSTONE HARBOUR",
          "eventStart": "2023-03-09T09:07:42",
          "eventStop": "2023-03-09T17:17:43",
          "duration": 490,
          "status": "Genuine",
          "associatedSiteId": 109773,
          "outfallName": "BUDDS FARM HAVANT NO2",
          "isImpacting": true,
          "overFlowSiteId": 116279
        }
      ]
    },
    {
      "id": 344806306,
      "eventId": 774167,
      "siteUnitNumber": 12582,
      "bathingSite": "SEAFORD",
      "eventStart": "2023-03-09T14:35:36",
      "eventStop": "2023-03-09T17:11:58",
      "duration": 156,
      "status": "Genuine",
      "associatedSiteId": 110920,
      "outfallName": "NEWHAVEN",
      "isImpacting": false,
      "overFlowSiteId": 0,
      "historicSpillsList": []
    },
    {
      "id": 344776549,
      "eventId": 775242,
      "siteUnitNumber": 12606,
      "bathingSite": "LEE-ON-SOLENT",
      "eventStart": "2023-03-09T14:52:00",
      "eventStop": "2023-03-09T16:31:00",
      "duration": 99,
      "status": "Genuine",
      "associatedSiteId": 109732,
      "outfallName": "PEEL COMMON",
      "isImpacting": true,
      "overFlowSiteId": 0,
      "historicSpillsList": [
        {
          "id": 344776549,
          "eventId": 775242,
          "siteUnitNumber": 12606,
          "bathingSite": "LEE-ON-SOLENT",
          "eventStart": "2023-03-09T14:52:00",
          "eventStop": "2023-03-09T16:31:00",
          "duration": 99,
          "status": "Genuine",
          "associatedSiteId": 109732,
          "outfallName": "PEEL COMMON",
          "isImpacting": true,
          "overFlowSiteId": 115425
        },
        {
          "id": 344776550,
          "eventId": 775242,
          "siteUnitNumber": 12607,
          "bathingSite": "HILLHEAD",
          "eventStart": "2023-03-09T14:52:00",
          "eventStop": "2023-03-09T16:31:00",
          "duration": 99,
          "status": "Genuine",
          "associatedSiteId": 109732,
          "outfallName": "PEEL COMMON",
          "isImpacting": true,
          "overFlowSiteId": 115425,
          "historicSpillsList": []
        }
      ]
    },
    {
      "id": 344794641,
      "eventId": 776149,
      "siteUnitNumber": 12591,
      "bathingSite": "LITTLEHAMPTON",
      "eventStart": "2023-03-09T14:30:00",
      "eventStop": "2023-03-09T16:31:00",
      "duration": 121,
      "status": "Genuine",
      "associatedSiteId": 109965,
      "outfallName": "SEA ROAD LITTLEHAMPTON",
      "isImpacting": true,
      "overFlowSiteId": 0,
      "historicSpillsList": [
        {
          "id": 344794641,
          "eventId": 776149,
          "siteUnitNumber": 12591,
          "bathingSite": "LITTLEHAMPTON",
          "eventStart": "2023-03-09T14:30:00",
          "eventStop": "2023-03-09T16:31:00",
          "duration": 121,
          "status": "Genuine",
          "associatedSiteId": 109965,
          "outfallName": "SEA ROAD LITTLEHAMPTON",
          "isImpacting": true,
          "overFlowSiteId": 109368
        }
      ]
    },
    {
      "id": 344793096,
      "eventId": 774237,
      "siteUnitNumber": 12594,
      "bathingSite": "BOGNOR REGIS EAST",
      "eventStart": "2023-03-09T15:15:00",
      "eventStop": "2023-03-09T16:30:00",
      "duration": 75,
      "status": "Genuine",
      "associatedSiteId": 109959,
      "outfallName": "WEST PARK BOGNOR REGIS",
      "isImpacting": false,
      "overFlowSiteId": 0,
      "historicSpillsList": []
    },
    {
      "id": 344795194,
      "eventId": 774049,
      "siteUnitNumber": 12591,
      "bathingSite": "LITTLEHAMPTON",
      "eventStart": "2023-03-09T12:27:00",
      "eventStop": "2023-03-09T15:42:00",
      "duration": 195,
      "status": "Genuine",
      "associatedSiteId": 109968,
      "outfallName": "FORD ROAD ARUNDEL",
      "isImpacting": true,
      "overFlowSiteId": 0,
      "historicSpillsList": [
        {
          "id": 344795194,
          "eventId": 774049,
          "siteUnitNumber": 12591,
          "bathingSite": "LITTLEHAMPTON",
          "eventStart": "2023-03-09T12:27:00",
          "eventStop": "2023-03-09T15:42:00",
          "duration": 195,
          "status": "Genuine",
          "associatedSiteId": 109968,
          "outfallName": "FORD ROAD ARUNDEL",
          "isImpacting": true,
          "overFlowSiteId": 108002
        }
      ]
    },
    {
      "id": 344793099,
      "eventId": 774159,
      "siteUnitNumber": 12594,
      "bathingSite": "BOGNOR REGIS EAST",
      "eventStart": "2023-03-09T14:09:20",
      "eventStop": "2023-03-09T15:00:00",
      "duration": 50,
      "status": "Genuine",
      "associatedSiteId": 109959,
      "outfallName": "WEST PARK BOGNOR REGIS",
      "isImpacting": false,
      "overFlowSiteId": 0,
      "historicSpillsList": []
    },
    {
      "id": 344785648,
      "eventId": 773920,
      "siteUnitNumber": 12568,
      "bathingSite": "SANDGATE",
      "eventStart": "2023-03-09T10:00:00",
      "eventStop": "2023-03-09T14:45:00",
      "duration": 285,
      "status": "Genuine",
      "associatedSiteId": 109897,
      "outfallName": "RANGE ROAD HYTHE K LONG",
      "isImpacting": true,
      "overFlowSiteId": 0,
      "historicSpillsList": [
        {
          "id": 344785648,
          "eventId": 773920,
          "siteUnitNumber": 12568,
          "bathingSite": "SANDGATE",
          "eventStart": "2023-03-09T10:00:00",
          "eventStop": "2023-03-09T14:45:00",
          "duration": 285,
          "status": "Genuine",
          "associatedSiteId": 109897,
          "outfallName": "RANGE ROAD HYTHE K LONG",
          "isImpacting": true,
          "overFlowSiteId": 116048
        },
        {
          "id": 344785649,
          "eventId": 773920,
          "siteUnitNumber": 12569,
          "bathingSite": "HYTHE",
          "eventStart": "2023-03-09T10:00:00",
          "eventStop": "2023-03-09T14:45:00",
          "duration": 285,
          "status": "Genuine",
          "associatedSiteId": 109897,
          "outfallName": "RANGE ROAD HYTHE K LONG",
          "isImpacting": true,
          "overFlowSiteId": 116048,
          "historicSpillsList": []
        }
      ]
    },
    {
      "id": 344793102,
      "eventId": 774170,
      "siteUnitNumber": 12594,
      "bathingSite": "BOGNOR REGIS EAST",
      "eventStart": "2023-03-09T14:00:00",
      "eventStop": "2023-03-09T14:09:20",
      "duration": 9,
      "status": "Genuine",
      "associatedSiteId": 109959,
      "outfallName": "WEST PARK BOGNOR REGIS",
      "isImpacting": false,
      "overFlowSiteId": 0,
      "historicSpillsList": []
    },
    {
      "id": 344806305,
      "eventId": 774114,
      "siteUnitNumber": 12582,
      "bathingSite": "SEAFORD",
      "eventStart": "2023-03-09T13:28:02",
      "eventStop": "2023-03-09T13:33:41",
      "duration": 5,
      "status": "Genuine",
      "associatedSiteId": 110920,
      "outfallName": "NEWHAVEN",
      "isImpacting": false,
      "overFlowSiteId": 0,
      "historicSpillsList": []
    },
    {
      "id": 344794640,
      "eventId": 776148,
      "siteUnitNumber": 12591,
      "bathingSite": "LITTLEHAMPTON",
      "eventStart": "2023-03-09T12:34:00",
      "eventStop": "2023-03-09T13:33:00",
      "duration": 59,
      "status": "Genuine",
      "associatedSiteId": 109965,
      "outfallName": "SEA ROAD LITTLEHAMPTON",
      "isImpacting": true,
      "overFlowSiteId": 0,
      "historicSpillsList": [
        {
          "id": 344794640,
          "eventId": 776148,
          "siteUnitNumber": 12591,
          "bathingSite": "LITTLEHAMPTON",
          "eventStart": "2023-03-09T12:34:00",
          "eventStop": "2023-03-09T13:33:00",
          "duration": 59,
          "status": "Genuine",
          "associatedSiteId": 109965,
          "outfallName": "SEA ROAD LITTLEHAMPTON",
          "isImpacting": true,
          "overFlowSiteId": 109368
        }
      ]
    },
    {
      "id": 344773805,
      "eventId": 774257,
      "siteUnitNumber": 12616,
      "bathingSite": "GURNARD",
      "eventStart": "2023-03-09T11:33:11",
      "eventStop": "2023-03-09T13:00:00",
      "duration": 86,
      "status": "Not Genuine",
      "associatedSiteId": 109700,
      "outfallName": "MARKET HILL COWES",
      "isImpacting": false,
      "overFlowSiteId": 0,
      "historicSpillsList": []
    },
    {
      "id": 344805051,
      "eventId": 773186,
      "siteUnitNumber": 12617,
      "bathingSite": "COWES",
      "eventStart": "2023-03-08T18:00:00",
      "eventStop": "2023-03-09T12:45:00",
      "duration": 1125,
      "status": "Genuine",
      "associatedSiteId": 110701,
      "outfallName": "TERMINUS ROAD COWES 2",
      "isImpacting": true,
      "overFlowSiteId": 0,
      "historicSpillsList": [
        {
          "id": 344805051,
          "eventId": 773186,
          "siteUnitNumber": 12617,
          "bathingSite": "COWES",
          "eventStart": "2023-03-08T18:00:00",
          "eventStop": "2023-03-09T12:45:00",
          "duration": 1125,
          "status": "Genuine",
          "associatedSiteId": 110701,
          "outfallName": "TERMINUS ROAD COWES 2",
          "isImpacting": true,
          "overFlowSiteId": 108562
        },
        {
          "id": 344805052,
          "eventId": 773186,
          "siteUnitNumber": 12616,
          "bathingSite": "GURNARD",
          "eventStart": "2023-03-08T18:00:00",
          "eventStop": "2023-03-09T12:45:00",
          "duration": 1125,
          "status": "Genuine",
          "associatedSiteId": 110701,
          "outfallName": "TERMINUS ROAD COWES 2",
          "isImpacting": true,
          "overFlowSiteId": 108562,
          "historicSpillsList": []
        }
      ]
    }
  ]
}