{
  "currentPage": 197,
  "totalItems": 18701,
  "totalPages": 749,
  "items": [
    {
      "id": 343935096,
      "eventId": 862804,
      "siteUnitNumber": 12576,
      "bathingSite": "ST LEONARDS",
      "eventStart": "2023-09-21T19:33:09",
      "eventStop": "2023-09-22T04:17:00",
      "duration": 523,
      "status": "Genuine",
      "associatedSiteId": 109903,
      "outfallName": "BEXHILL & HASTINGS NO2",
      "isImpacting": true,
      "overFlowSiteId": 0,
      "historicSpillsList": [
        {
          "id": 343935096,
          "eventId": 862804,
          "siteUnitNumber": 12576,
          "bathingSite": "ST LEONARDS",
          "eventStart": "2023-09-21T19:33:09",
          "eventStop": "2023-09-22T04:17:00",
          "duration": 523,
          "status": "Genuine",
          "associatedSiteId": 109903,
          "outfallName": "BEXHILL & HASTINGS NO2",
          "isImpacting": true,
          "overFlowSiteId": 115398
        },
        {
          "id": 343935097,
          "eventId": 862804,
          "siteUnitNumber": 12577,
          "bathingSite": "BEXHILL",
          "eventStart": "2023-09-21T19:33:09",
          "eventStop": "2023-09-22T04:17:00",
          "duration": 523,
          "status": "Genuine",
          "associatedSiteId": 109903,
          "outfallName": "BEXHILL & HASTINGS NO2",
          "isImpacting": true,
          "overFlowSiteId": 115398,
          "historicSpillsList": []
        }
      ]
    },
    {
      "id": 343954434,
      "eventId": 863115,
      "siteUnitNumber": 12582,
      "bathingSite": "SEAFORD",
      "eventStart": "2023-09-22T00:59:44",
      "eventStop": "2023-09-22T04:16:44",
      "duration": 197,
      "status": "Genuine",
      "associatedSiteId": 110920,
      "outfallName": "NEWHAVEN",
      "isImpacting": false,
      "overFlowSiteId": 0,
      "historicSpillsList": []
    },
    {
      "id": 343945997,
      "eventId": 863111,
      "siteUnitNumber": 12593,
      "bathingSite": "FELPHAM",
      "eventStart": "2023-09-22T02:00:00",
      "eventStop": "2023-09-22T03:45:00",
      "duration": 105,
      "status": "Genuine",
      "associatedSiteId": 110095,
      "outfallName": "LIDSEY",
      "isImpacting": true,
      "overFlowSiteId": 0,
      "historicSpillsList": [
        {
          "id": 343945997,
          "eventId": 863111,
          "siteUnitNumber": 12593,
          "bathingSite": "FELPHAM",
          "eventStart": "2023-09-22T02:00:00",
          "eventStop": "2023-09-22T03:45:00",
          "duration": 105,
          "status": "Genuine",
          "associatedSiteId": 110095,
          "outfallName": "LIDSEY",
          "isImpacting": true,
          "overFlowSiteId": 115776
        }
      ]
    },
    {
      "id": 343943749,
      "eventId": 862957,
      "siteUnitNumber": 12592,
      "bathingSite": "MIDDLETON-ON-SEA",
      "eventStart": "2023-09-21T22:26:23",
      "eventStop": "2023-09-22T02:42:00",
      "duration": 255,
      "status": "Genuine",
      "associatedSiteId": 109972,
      "outfallName": "BOGNOR MAIN",
      "isImpacting": true,
      "overFlowSiteId": 0,
      "historicSpillsList": [
        {
          "id": 343943750,
          "eventId": 862957,
          "siteUnitNumber": 12593,
          "bathingSite": "FELPHAM",
          "eventStart": "2023-09-21T22:26:23",
          "eventStop": "2023-09-22T02:42:00",
          "duration": 255,
          "status": "Genuine",
          "associatedSiteId": 109972,
          "outfallName": "BOGNOR MAIN",
          "isImpacting": true,
          "overFlowSiteId": 107412,
          "historicSpillsList": []
        }
      ]
    },
    {
      "id": 343926110,
      "eventId": 863264,
      "siteUnitNumber": 12618,
      "bathingSite": "RYDE",
      "eventStart": "2023-09-22T02:30:00",
      "eventStop": "2023-09-22T02:35:00",
      "duration": 5,
      "status": "Genuine",
      "associatedSiteId": 109777,
      "outfallName": "APPLEY PARK RYDE TRANSFER",
      "isImpacting": false,
      "overFlowSiteId": 0,
      "historicSpillsList": []
    },
    {
      "id": 343929816,
      "eventId": 863108,
      "siteUnitNumber": 12548,
      "bathingSite": "TANKERTON",
      "eventStart": "2023-09-21T23:48:05",
      "eventStop": "2023-09-22T02:28:03",
      "duration": 159,
      "status": "Genuine",
      "associatedSiteId": 109830,
      "outfallName": "SWALECLIFFE NO1",
      "isImpacting": false,
      "overFlowSiteId": 0,
      "historicSpillsList": []
    },
    {
      "id": 343926112,
      "eventId": 863263,
      "siteUnitNumber": 12617,
      "bathingSite": "COWES",
      "eventStart": "2023-09-22T01:40:00",
      "eventStop": "2023-09-22T01:44:00",
      "duration": 4,
      "status": "Genuine",
      "associatedSiteId": 109777,
      "outfallName": "APPLEY PARK RYDE TRANSFER",
      "isImpacting": false,
      "overFlowSiteId": 0,
      "historicSpillsList": []
    },
    {
      "id": 343945947,
      "eventId": 863122,
      "siteUnitNumber": 12582,
      "bathingSite": "SEAFORD",
      "eventStart": "2023-09-22T01:11:48",
      "eventStop": "2023-09-22T01:41:20",
      "duration": 29,
      "status": "Genuine",
      "associatedSiteId": 110047,
      "outfallName": "CLIFF END SEAFORD",
      "isImpacting": true,
      "overFlowSiteId": 0,
      "historicSpillsList": [
        {
          "id": 343945947,
          "eventId": 863122,
          "siteUnitNumber": 12582,
          "bathingSite": "SEAFORD",
          "eventStart": "2023-09-22T01:11:48",
          "eventStop": "2023-09-22T01:41:20",
          "duration": 29,
          "status": "Genuine",
          "associatedSiteId": 110047,
          "outfallName": "CLIFF END SEAFORD",
          "isImpacting": true,
          "overFlowSiteId": 101257
        }
      ]
    },
    {
      "id": 343943992,
      "eventId": 863022,
      "siteUnitNumber": 12591,
      "bathingSite": "LITTLEHAMPTON",
      "eventStart": "2023-09-21T23:01:04",
      "eventStop": "2023-09-22T00:31:00",
      "duration": 89,
      "status": "Genuine",
      "associatedSiteId": 109977,
      "outfallName": "FORESHORE TANK LITTLEHAMPTON",
      "isImpacting": true,
      "overFlowSiteId": 0,
      "historicSpillsList": [
        {
          "id": 343943992,
          "eventId": 863022,
          "siteUnitNumber": 12591,
          "bathingSite": "LITTLEHAMPTON",
          "eventStart": "2023-09-21T23:01:04",
          "eventStop": "2023-09-22T00:31:00",
          "duration": 89,
          "status": "Genuine",
          "associatedSiteId": 109977,
          "outfallName": "FORESHORE TANK LITTLEHAMPTON",
          "isImpacting": true,
          "overFlowSiteId": 109390
        }
      ]
    },
    {
      "id": 343954439,
      "eventId": 862964,
      "siteUnitNumber": 12582,
      "bathingSite": "SEAFORD",
      "eventStart": "2023-09-21T22:23:17",
      "eventStop": "2023-09-22T00:06:14",
      "duration": 102,
      "status": "Genuine",
      "associatedSiteId": 110920,
      "outfallName": "NEWHAVEN",
      "isImpacting": false,
      "overFlowSiteId": 0,
      "historicSpillsList": []
    },
    {
      "id": 343933740,
      "eventId": 862919,
      "siteUnitNumber": 12568,
      "bathingSite": "SANDGATE",
      "eventStart": "2023-09-21T21:45:00",
      "eventStop": "2023-09-22T00:05:00",
      "duration": 140,
      "status": "Genuine",
      "associatedSiteId": 109897,
      "outfallName": "RANGE ROAD HYTHE K LONG",
      "isImpacting": true,
      "overFlowSiteId": 0,
      "historicSpillsList": [
        {
          "id": 343933740,
          "eventId": 862919,
          "siteUnitNumber": 12568,
          "bathingSite": "SANDGATE",
          "eventStart": "2023-09-21T21:45:00",
          "eventStop": "2023-09-22T00:05:00",
          "duration": 140,
          "status": "Genuine",
          "associatedSiteId": 109897,
          "outfallName": "RANGE ROAD HYTHE K LONG",
          "isImpacting": true,
          "overFlowSiteId": 116048
        },
        {
          "id": 343933741,
          "eventId": 862919,
          "siteUnitNumber": 12569,
          "bathingSite": "HYTHE",
          "eventStart": "2023-09-21T21:45:00",
          "eventStop": "2023-09-22T00:05:00",
          "duration": 140,
          "status": "Genuine",
          "associatedSiteId": 109897,
          "outfallName": "RANGE ROAD HYTHE K LONG",
          "isImpacting": true,
          "overFlowSiteId": 116048,
          "historicSpillsList": []
        }
      ]
    },
    {
      "id": 343938214,
      "eventId": 862996,
      "siteUnitNumber": 12581,
      "bathingSite": "BIRLING GAP",
      "eventStart": "2023-09-21T23:14:00",
      "eventStop": "2023-09-21T23:44:00",
      "duration": 30,
      "status": "Genuine",
      "associatedSiteId": 109936,
      "outfallName": "EAST DEAN",
      "isImpacting": false,
      "overFlowSiteId": 0,
      "historicSpillsList": []
    },
    {
      "id": 343939057,
      "eventId": 862980,
      "siteUnitNumber": 12575,
      "bathingSite": "HASTINGS PELHAM BEACH",
      "eventStart": "2023-09-21T22:47:11",
      "eventStop": "2023-09-21T23:39:00",
      "duration": 51,
      "status": "Genuine",
      "associatedSiteId": 109950,
      "outfallName": "ST HELENS DOWN HASTINGS",
      "isImpacting": true,
      "overFlowSiteId": 0,
      "historicSpillsList": [
        {
          "id": 343939057,
          "eventId": 862980,
          "siteUnitNumber": 12575,
          "bathingSite": "HASTINGS PELHAM BEACH",
          "eventStart": "2023-09-21T22:47:11",
          "eventStop": "2023-09-21T23:39:00",
          "duration": 51,
          "status": "Genuine",
          "associatedSiteId": 109950,
          "outfallName": "ST HELENS DOWN HASTINGS",
          "isImpacting": true,
          "overFlowSiteId": 109050
        }
      ]
    },
    {
      "id": 343943623,
      "eventId": 863164,
      "siteUnitNumber": 12593,
      "bathingSite": "FELPHAM",
      "eventStart": "2023-09-21T22:14:59",
      "eventStop": "2023-09-21T23:35:00",
      "duration": 80,
      "status": "Genuine",
      "associatedSiteId": 109970,
      "outfallName": "CHICHESTER ROAD BOGNOR",
      "isImpacting": true,
      "overFlowSiteId": 0,
      "historicSpillsList": [
        {
          "id": 343943623,
          "eventId": 863164,
          "siteUnitNumber": 12593,
          "bathingSite": "FELPHAM",
          "eventStart": "2023-09-21T22:14:59",
          "eventStop": "2023-09-21T23:35:00",
          "duration": 80,
          "status": "Genuine",
          "associatedSiteId": 109970,
          "outfallName": "CHICHESTER ROAD BOGNOR",
          "isImpacting": true,
          "overFlowSiteId": 103301
        },
        {
          "id": 343943624,
          "eventId": 863164,
          "siteUnitNumber": 12594,
          "bathingSite": "BOGNOR REGIS EAST",
          "eventStart": "2023-09-21T22:14:59",
          "eventStop": "2023-09-21T23:35:00",
          "duration": 80,
          "status": "Genuine",
          "associatedSiteId": 109970,
          "outfallName": "CHICHESTER ROAD BOGNOR",
          "isImpacting": true,
          "overFlowSiteId": 103301,
          "historicSpillsList": []
        },
        {
          "id": 343943625,
          "eventId": 863164,
          "siteUnitNumber": 12595,
          "bathingSite": "BOGNOR REGIS (ALDWICK)",
          "eventStart": "2023-09-21T22:14:59",
          "eventStop": "2023-09-21T23:35:00",
          "duration": 80,
          "status": "Genuine",
          "associatedSiteId": 109970,
          "outfallName": "CHICHESTER ROAD BOGNOR",
          "isImpacting": true,
          "overFlowSiteId": 103301,
          "historicSpillsList": []
        }
      ]
    },
    {
      "id": 343943212,
      "eventId": 862937,
      "siteUnitNumber": 12592,
      "bathingSite": "MIDDLETON-ON-SEA",
      "eventStart": "2023-09-21T22:05:07",
      "eventStop": "2023-09-21T23:24:00",
      "duration": 78,
      "status": "Genuine",
      "associatedSiteId": 109967,
      "outfallName": "GLOUCESTER ROAD BOGNOR",
      "isImpacting": true,
      "overFlowSiteId": 0,
      "historicSpillsList": [
        {
          "id": 343943213,
          "eventId": 862937,
          "siteUnitNumber": 12593,
          "bathingSite": "FELPHAM",
          "eventStart": "2023-09-21T22:05:07",
          "eventStop": "2023-09-21T23:24:00",
          "duration": 78,
          "status": "Genuine",
          "associatedSiteId": 109967,
          "outfallName": "GLOUCESTER ROAD BOGNOR",
          "isImpacting": true,
          "overFlowSiteId": 103299,
          "historicSpillsList": []
        }
      ]
    },
    {
      "id": 343943320,
      "eventId": 862935,
      "siteUnitNumber": 12591,
      "bathingSite": "LITTLEHAMPTON",
      "eventStart": "2023-09-21T22:01:21",
      "eventStop": "2023-09-21T23:14:00",
      "duration": 72,
      "status": "Genuine",
      "associatedSiteId": 109968,
      "outfallName": "FORD ROAD ARUNDEL",
      "isImpacting": true,
      "overFlowSiteId": 0,
      "historicSpillsList": [
        {
          "id": 343943320,
          "eventId": 862935,
          "siteUnitNumber": 12591,
          "bathingSite": "LITTLEHAMPTON",
          "eventStart": "2023-09-21T22:01:21",
          "eventStop": "2023-09-21T23:14:00",
          "duration": 72,
          "status": "Genuine",
          "associatedSiteId": 109968,
          "outfallName": "FORD ROAD ARUNDEL",
          "isImpacting": true,
          "overFlowSiteId": 108002
        }
      ]
    },
    {
      "id": 343926114,
      "eventId": 863262,
      "siteUnitNumber": 12617,
      "bathingSite": "COWES",
      "eventStart": "2023-09-21T23:03:00",
      "eventStop": "2023-09-21T23:08:00",
      "duration": 5,
      "status": "Genuine",
      "associatedSiteId": 109777,
      "outfallName": "APPLEY PARK RYDE TRANSFER",
      "isImpacting": false,
      "overFlowSiteId": 0,
      "historicSpillsList": []
    },
    {
      "id": 343939662,
      "eventId": 862905,
      "siteUnitNumber": 12582,
      "bathingSite": "SEAFORD",
      "eventStart": "2023-09-21T22:15:00",
      "eventStop": "2023-09-21T23:00:00",
      "duration": 45,
      "status": "Genuine",
      "associatedSiteId": 109957,
      "outfallName": "PORTOBELLO BRIGHTON NO2",
      "isImpacting": false,
      "overFlowSiteId": 0,
      "historicSpillsList": []
    },
    {
      "id": 343926116,
      "eventId": 863261,
      "siteUnitNumber": 12617,
      "bathingSite": "COWES",
      "eventStart": "2023-09-21T20:45:00",
      "eventStop": "2023-09-21T22:27:00",
      "duration": 102,
      "status": "Genuine",
      "associatedSiteId": 109777,
      "outfallName": "APPLEY PARK RYDE TRANSFER",
      "isImpacting": false,
      "overFlowSiteId": 0,
      "historicSpillsList": []
    },
    {
      "id": 343943906,
      "eventId": 862908,
      "siteUnitNumber": 12593,
      "bathingSite": "FELPHAM",
      "eventStart": "2023-09-21T21:54:28",
      "eventStop": "2023-09-21T22:13:00",
      "duration": 18,
      "status": "Genuine",
      "associatedSiteId": 109973,
      "outfallName": "ALDWICK AVENUE BOGNOR",
      "isImpacting": true,
      "overFlowSiteId": 0,
      "historicSpillsList": [
        {
          "id": 343943906,
          "eventId": 862908,
          "siteUnitNumber": 12593,
          "bathingSite": "FELPHAM",
          "eventStart": "2023-09-21T21:54:28",
          "eventStop": "2023-09-21T22:13:00",
          "duration": 18,
          "status": "Genuine",
          "associatedSiteId": 109973,
          "outfallName": "ALDWICK AVENUE BOGNOR",
          "isImpacting": true,
          "overFlowSiteId": 103303
        },
        {
          "id": 343943907,
          "eventId": 862908,
          "siteUnitNumber": 12594,
          "bathingSite": "BOGNOR REGIS EAST",
          "eventStart": "2023-09-21T21:54:28",
          "eventStop": "2023-09-21T22:13:00",
          "duration": 18,
          "status": "Genuine",
          "associatedSiteId": 109973,
          "outfallName": "ALDWICK AVENUE BOGNOR",
          "isImpacting": true,
          "overFlowSiteId": 103303,
          "historicSpillsList": []
        },
        {
          "id": 343943908,
          "eventId": 862908,
          "siteUnitNumber": 12595,
          "bathingSite": "BOGNOR REGIS (ALDWICK)",
          "eventStart": "2023-09-21T21:54:28",
          "eventStop": "2023-09-21T22:13:00",
          "duration": 18,
          "status": "Genuine",
          "associatedSiteId": 109973,
          "outfallName": "ALDWICK AVENUE BOGNOR",
          "isImpacting": true,
          "overFlowSiteId": 103303,
          "historicSpillsList": []
        },
        {
          "id": 343943909,
          "eventId": 862908,
          "siteUnitNumber": 12596,
          "bathingSite": "PAGHAM",
          "eventStart": "2023-09-21T21:54:28",
          "eventStop": "2023-09-21T22:13:00",
          "duration": 18,
          "status": "Genuine",
          "associatedSiteId": 109973,
          "outfallName": "ALDWICK AVENUE BOGNOR",
          "isImpacting": true,
          "overFlowSiteId": 103303,
          "historicSpillsList": []
        }
      ]
    },
    {
      "id": 343937085,
      "eventId": 862851,
      "siteUnitNumber": 12589,
      "bathingSite": "LANCING BEACH GREEN",
      "eventStart": "2023-09-21T20:22:00",
      "eventStop": "2023-09-21T21:04:00",
      "duration": 42,
      "status": "Genuine",
      "associatedSiteId": 109919,
      "outfallName": "SOMPTING ROAD WORTHING",
      "isImpacting": true,
      "overFlowSiteId": 0,
      "historicSpillsList": [
        {
          "id": 343937085,
          "eventId": 862851,
          "siteUnitNumber": 12589,
          "bathingSite": "LANCING BEACH GREEN",
          "eventStart": "2023-09-21T20:22:00",
          "eventStop": "2023-09-21T21:04:00",
          "duration": 42,
          "status": "Genuine",
          "associatedSiteId": 109919,
          "outfallName": "SOMPTING ROAD WORTHING",
          "isImpacting": true,
          "overFlowSiteId": 108336
        },
        {
          "id": 343937086,
          "eventId": 862851,
          "siteUnitNumber": 12590,
          "bathingSite": "WORTHING",
          "eventStart": "2023-09-21T20:22:00",
          "eventStop": "2023-09-21T21:04:00",
          "duration": 42,
          "status": "Genuine",
          "associatedSiteId": 109919,
          "outfallName": "SOMPTING ROAD WORTHING",
          "isImpacting": true,
          "overFlowSiteId": 108336,
          "historicSpillsList": []
        }
      ]
    },
    {
      "id": 343937087,
      "eventId": 863136,
      "siteUnitNumber": 12589,
      "bathingSite": "LANCING BEACH GREEN",
      "eventStart": "2023-09-21T20:28:00",
      "eventStop": "2023-09-21T20:33:00",
      "duration": 5,
      "status": "Genuine",
      "associatedSiteId": 109919,
      "outfallName": "SOMPTING ROAD WORTHING",
      "isImpacting": true,
      "overFlowSiteId": 0,
      "historicSpillsList": [
        {
          "id": 343937087,
          "eventId": 863136,
          "siteUnitNumber": 12589,
          "bathingSite": "LANCING BEACH GREEN",
          "eventStart": "2023-09-21T20:28:00",
          "eventStop": "2023-09-21T20:33:00",
          "duration": 5,
          "status": "Genuine",
          "associatedSiteId": 109919,
          "outfallName": "SOMPTING ROAD WORTHING",
          "isImpacting": true,
          "overFlowSiteId": 109116
        },
        {
          "id": 343937088,
          "eventId": 863136,
          "siteUnitNumber": 12590,
          "bathingSite": "WORTHING",
          "eventStart": "2023-09-21T20:28:00",
          "eventStop": "2023-09-21T20:33:00",
          "duration": 5,
          "status": "Genuine",
          "associatedSiteId": 109919,
          "outfallName": "SOMPTING ROAD WORTHING",
          "isImpacting": true,
          "overFlowSiteId": 109116,
          "historicSpillsList": []
        }
      ]
    },
    {
      "id": 343926118,
      "eventId": 863260,
      "siteUnitNumber": 12617,
      "bathingSite": "COWES",
      "eventStart": "2023-09-21T19:32:00",
      "eventStop": "2023-09-21T20:25:00",
      "duration": 53,
      "status": "Genuine",
      "associatedSiteId": 109777,
      "outfallName": "APPLEY PARK RYDE TRANSFER",
      "isImpacting": false,
      "overFlowSiteId": 0,
      "historicSpillsList": []
    },
    {
      "id": 343954438,
      "eventId": 862803,
      "siteUnitNumber": 12582,
      "bathingSite": "SEAFORD",
      "eventStart": "2023-09-21T19:33:07",
      "eventStop": "2023-09-21T20:16:53",
      "duration": 43,
      "status": "Genuine",
      "associatedSiteId": 110920,
      "outfallName": "NEWHAVEN",
      "isImpacting": false,
      "overFlowSiteId": 0,
      "historicSpillsList": []
    },
    {
      "id": 343926120,
      "eventId": 863259,
      "siteUnitNumber": 12617,
      "bathingSite": "COWES",
      "eventStart": "2023-09-21T18:34:00",
      "eventStop": "2023-09-21T19:16:00",
      "duration": 42,
      "status": "Genuine",
      "associatedSiteId": 109777,
      "outfallName": "APPLEY PARK RYDE TRANSFER",
      "isImpacting": false,
      "overFlowSiteId": 0,
      "historicSpillsList": []
    }
  ]
}