{
  "currentPage": 565,
  "totalItems": 21025,
  "totalPages": 841,
  "items": [
    {
      "id": 344840555,
      "eventId": 625854,
      "siteUnitNumber": 12593,
      "bathingSite": "FELPHAM",
      "eventStart": "2022-08-25T08:16:00",
      "eventStop": "2022-08-25T08:16:00",
      "duration": 0,
      "status": "Not Genuine",
      "associatedSiteId": 110095,
      "outfallName": "LIDSEY",
      "isImpacting": true,
      "overFlowSiteId": 0,
      "historicSpillsList": []
    },
    {
      "id": 344817115,
      "eventId": 624814,
      "siteUnitNumber": 12616,
      "bathingSite": "GURNARD",
      "eventStart": "2022-08-25T06:18:20",
      "eventStop": "2022-08-25T08:09:00",
      "duration": 110,
      "status": "Genuine",
      "associatedSiteId": 109702,
      "outfallName": "ALBANY ROAD EAST COWES",
      "isImpacting": false,
      "overFlowSiteId": 0,
      "historicSpillsList": []
    },
    {
      "id": 344817603,
      "eventId": 624835,
      "siteUnitNumber": 12616,
      "bathingSite": "GURNARD",
      "eventStart": "2022-08-25T06:15:00",
      "eventStop": "2022-08-25T08:05:00",
      "duration": 110,
      "status": "Genuine",
      "associatedSiteId": 109704,
      "outfallName": "EGYPT POINT COWES",
      "isImpacting": true,
      "overFlowSiteId": 0,
      "historicSpillsList": [
        {
          "id": 344817604,
          "eventId": 624835,
          "siteUnitNumber": 12617,
          "bathingSite": "COWES",
          "eventStart": "2022-08-25T06:15:00",
          "eventStop": "2022-08-25T08:05:00",
          "duration": 110,
          "status": "Genuine",
          "associatedSiteId": 109704,
          "outfallName": "EGYPT POINT COWES",
          "isImpacting": true,
          "overFlowSiteId": 116213,
          "historicSpillsList": []
        }
      ]
    },
    {
      "id": 344822562,
      "eventId": 624811,
      "siteUnitNumber": 12618,
      "bathingSite": "RYDE",
      "eventStart": "2022-08-25T06:16:00",
      "eventStop": "2022-08-25T08:02:00",
      "duration": 106,
      "status": "Genuine",
      "associatedSiteId": 109790,
      "outfallName": "GREAT PRESTON ROAD RYDE",
      "isImpacting": true,
      "overFlowSiteId": 0,
      "historicSpillsList": [
        {
          "id": 344822562,
          "eventId": 624811,
          "siteUnitNumber": 12618,
          "bathingSite": "RYDE",
          "eventStart": "2022-08-25T06:16:00",
          "eventStop": "2022-08-25T08:02:00",
          "duration": 106,
          "status": "Genuine",
          "associatedSiteId": 109790,
          "outfallName": "GREAT PRESTON ROAD RYDE",
          "isImpacting": true,
          "overFlowSiteId": 109304
        },
        {
          "id": 344822563,
          "eventId": 624811,
          "siteUnitNumber": 12619,
          "bathingSite": "SEAGROVE",
          "eventStart": "2022-08-25T06:16:00",
          "eventStop": "2022-08-25T08:02:00",
          "duration": 106,
          "status": "Genuine",
          "associatedSiteId": 109790,
          "outfallName": "GREAT PRESTON ROAD RYDE",
          "isImpacting": true,
          "overFlowSiteId": 109304,
          "historicSpillsList": []
        }
      ]
    },
    {
      "id": 344831729,
      "eventId": 624981,
      "siteUnitNumber": 12587,
      "bathingSite": "SOUTHWICK",
      "eventStart": "2022-08-25T07:56:00",
      "eventStop": "2022-08-25T07:58:00",
      "duration": 2,
      "status": "Genuine",
      "associatedSiteId": 109923,
      "outfallName": "THE GREEN SOUTHWICK",
      "isImpacting": false,
      "overFlowSiteId": 0,
      "historicSpillsList": []
    },
    {
      "id": 344823005,
      "eventId": 624823,
      "siteUnitNumber": 12661,
      "bathingSite": "LANGSTONE HARBOUR",
      "eventStart": "2022-08-25T06:33:02",
      "eventStop": "2022-08-25T07:56:00",
      "duration": 82,
      "status": "Genuine",
      "associatedSiteId": 109819,
      "outfallName": "COURT LANE COSHAM",
      "isImpacting": true,
      "overFlowSiteId": 0,
      "historicSpillsList": [
        {
          "id": 344823005,
          "eventId": 624823,
          "siteUnitNumber": 12661,
          "bathingSite": "LANGSTONE HARBOUR",
          "eventStart": "2022-08-25T06:33:02",
          "eventStop": "2022-08-25T07:56:00",
          "duration": 82,
          "status": "Genuine",
          "associatedSiteId": 109819,
          "outfallName": "COURT LANE COSHAM",
          "isImpacting": true,
          "overFlowSiteId": 115958
        }
      ]
    },
    {
      "id": 344852516,
      "eventId": 624793,
      "siteUnitNumber": 12614,
      "bathingSite": "TOTLAND BAY",
      "eventStart": "2022-08-25T06:08:18",
      "eventStop": "2022-08-25T07:51:00",
      "duration": 102,
      "status": "Genuine",
      "associatedSiteId": 115498,
      "outfallName": "NORTON TRANSFER IOW",
      "isImpacting": true,
      "overFlowSiteId": 0,
      "historicSpillsList": [
        {
          "id": 344852516,
          "eventId": 624793,
          "siteUnitNumber": 12614,
          "bathingSite": "TOTLAND BAY",
          "eventStart": "2022-08-25T06:08:18",
          "eventStop": "2022-08-25T07:51:00",
          "duration": 102,
          "status": "Genuine",
          "associatedSiteId": 115498,
          "outfallName": "NORTON TRANSFER IOW",
          "isImpacting": true,
          "overFlowSiteId": 109524
        },
        {
          "id": 344852517,
          "eventId": 624793,
          "siteUnitNumber": 12615,
          "bathingSite": "COLWELL BAY",
          "eventStart": "2022-08-25T06:08:18",
          "eventStop": "2022-08-25T07:51:00",
          "duration": 102,
          "status": "Genuine",
          "associatedSiteId": 115498,
          "outfallName": "NORTON TRANSFER IOW",
          "isImpacting": true,
          "overFlowSiteId": 109524,
          "historicSpillsList": []
        }
      ]
    },
    {
      "id": 344831735,
      "eventId": 624978,
      "siteUnitNumber": 12587,
      "bathingSite": "SOUTHWICK",
      "eventStart": "2022-08-25T07:46:00",
      "eventStop": "2022-08-25T07:50:00",
      "duration": 4,
      "status": "Genuine",
      "associatedSiteId": 109923,
      "outfallName": "THE GREEN SOUTHWICK",
      "isImpacting": false,
      "overFlowSiteId": 0,
      "historicSpillsList": []
    },
    {
      "id": 344816713,
      "eventId": 629224,
      "siteUnitNumber": 12616,
      "bathingSite": "GURNARD",
      "eventStart": "2022-08-25T07:41:00",
      "eventStop": "2022-08-25T07:48:00",
      "duration": 7,
      "status": "Genuine",
      "associatedSiteId": 109700,
      "outfallName": "MARKET HILL COWES",
      "isImpacting": false,
      "overFlowSiteId": 0,
      "historicSpillsList": []
    },
    {
      "id": 344836509,
      "eventId": 624653,
      "siteUnitNumber": 12594,
      "bathingSite": "BOGNOR REGIS EAST",
      "eventStart": "2022-08-25T04:30:00",
      "eventStop": "2022-08-25T07:45:00",
      "duration": 195,
      "status": "Genuine",
      "associatedSiteId": 109959,
      "outfallName": "WEST PARK BOGNOR REGIS",
      "isImpacting": true,
      "overFlowSiteId": 0,
      "historicSpillsList": [
        {
          "id": 344836509,
          "eventId": 624653,
          "siteUnitNumber": 12594,
          "bathingSite": "BOGNOR REGIS EAST",
          "eventStart": "2022-08-25T04:30:00",
          "eventStop": "2022-08-25T07:45:00",
          "duration": 195,
          "status": "Genuine",
          "associatedSiteId": 109959,
          "outfallName": "WEST PARK BOGNOR REGIS",
          "isImpacting": true,
          "overFlowSiteId": 108160
        }
      ]
    },
    {
      "id": 344831733,
      "eventId": 624913,
      "siteUnitNumber": 12587,
      "bathingSite": "SOUTHWICK",
      "eventStart": "2022-08-25T07:26:00",
      "eventStop": "2022-08-25T07:32:00",
      "duration": 6,
      "status": "Genuine",
      "associatedSiteId": 109923,
      "outfallName": "THE GREEN SOUTHWICK",
      "isImpacting": false,
      "overFlowSiteId": 0,
      "historicSpillsList": []
    },
    {
      "id": 344822896,
      "eventId": 624837,
      "siteUnitNumber": 12661,
      "bathingSite": "LANGSTONE HARBOUR",
      "eventStart": "2022-08-25T06:38:00",
      "eventStop": "2022-08-25T07:30:00",
      "duration": 52,
      "status": "Genuine",
      "associatedSiteId": 109817,
      "outfallName": "MAINLAND DRAYTON",
      "isImpacting": true,
      "overFlowSiteId": 0,
      "historicSpillsList": [
        {
          "id": 344822896,
          "eventId": 624837,
          "siteUnitNumber": 12661,
          "bathingSite": "LANGSTONE HARBOUR",
          "eventStart": "2022-08-25T06:38:00",
          "eventStop": "2022-08-25T07:30:00",
          "duration": 52,
          "status": "Genuine",
          "associatedSiteId": 109817,
          "outfallName": "MAINLAND DRAYTON",
          "isImpacting": true,
          "overFlowSiteId": 115960
        }
      ]
    },
    {
      "id": 344815040,
      "eventId": 624885,
      "siteUnitNumber": 12615,
      "bathingSite": "COLWELL BAY",
      "eventStart": "2022-08-25T06:48:00",
      "eventStop": "2022-08-25T07:25:00",
      "duration": 37,
      "status": "Genuine",
      "associatedSiteId": 109663,
      "outfallName": "THE INSTITUTE YARMOUTH NO1",
      "isImpacting": false,
      "overFlowSiteId": 0,
      "historicSpillsList": []
    },
    {
      "id": 344831739,
      "eventId": 624903,
      "siteUnitNumber": 12587,
      "bathingSite": "SOUTHWICK",
      "eventStart": "2022-08-25T07:18:00",
      "eventStop": "2022-08-25T07:20:00",
      "duration": 2,
      "status": "Genuine",
      "associatedSiteId": 109923,
      "outfallName": "THE GREEN SOUTHWICK",
      "isImpacting": false,
      "overFlowSiteId": 0,
      "historicSpillsList": []
    },
    {
      "id": 344818537,
      "eventId": 624847,
      "siteUnitNumber": 12616,
      "bathingSite": "GURNARD",
      "eventStart": "2022-08-25T06:40:00",
      "eventStop": "2022-08-25T07:15:00",
      "duration": 35,
      "status": "Genuine",
      "associatedSiteId": 109706,
      "outfallName": "HIGH STREET COWES",
      "isImpacting": false,
      "overFlowSiteId": 0,
      "historicSpillsList": []
    },
    {
      "id": 344831737,
      "eventId": 624860,
      "siteUnitNumber": 12587,
      "bathingSite": "SOUTHWICK",
      "eventStart": "2022-08-25T07:08:00",
      "eventStop": "2022-08-25T07:12:00",
      "duration": 4,
      "status": "Genuine",
      "associatedSiteId": 109923,
      "outfallName": "THE GREEN SOUTHWICK",
      "isImpacting": false,
      "overFlowSiteId": 0,
      "historicSpillsList": []
    },
    {
      "id": 344831743,
      "eventId": 624852,
      "siteUnitNumber": 12587,
      "bathingSite": "SOUTHWICK",
      "eventStart": "2022-08-25T06:50:00",
      "eventStop": "2022-08-25T06:58:00",
      "duration": 8,
      "status": "Genuine",
      "associatedSiteId": 109923,
      "outfallName": "THE GREEN SOUTHWICK",
      "isImpacting": false,
      "overFlowSiteId": 0,
      "historicSpillsList": []
    },
    {
      "id": 344833010,
      "eventId": 624779,
      "siteUnitNumber": 12619,
      "bathingSite": "SEAGROVE",
      "eventStart": "2022-08-25T06:17:00",
      "eventStop": "2022-08-25T06:56:00",
      "duration": 39,
      "status": "Genuine",
      "associatedSiteId": 109938,
      "outfallName": "THE POINT BEMBRIDGE",
      "isImpacting": true,
      "overFlowSiteId": 0,
      "historicSpillsList": [
        {
          "id": 344833011,
          "eventId": 624779,
          "siteUnitNumber": 12620,
          "bathingSite": "ST HELENS",
          "eventStart": "2022-08-25T06:17:00",
          "eventStop": "2022-08-25T06:56:00",
          "duration": 39,
          "status": "Genuine",
          "associatedSiteId": 109938,
          "outfallName": "THE POINT BEMBRIDGE",
          "isImpacting": true,
          "overFlowSiteId": 110194,
          "historicSpillsList": []
        }
      ]
    },
    {
      "id": 344831741,
      "eventId": 624822,
      "siteUnitNumber": 12587,
      "bathingSite": "SOUTHWICK",
      "eventStart": "2022-08-25T06:30:00",
      "eventStop": "2022-08-25T06:36:00",
      "duration": 6,
      "status": "Genuine",
      "associatedSiteId": 109923,
      "outfallName": "THE GREEN SOUTHWICK",
      "isImpacting": false,
      "overFlowSiteId": 0,
      "historicSpillsList": []
    },
    {
      "id": 344831747,
      "eventId": 624802,
      "siteUnitNumber": 12587,
      "bathingSite": "SOUTHWICK",
      "eventStart": "2022-08-25T06:18:00",
      "eventStop": "2022-08-25T06:22:00",
      "duration": 4,
      "status": "Genuine",
      "associatedSiteId": 109923,
      "outfallName": "THE GREEN SOUTHWICK",
      "isImpacting": false,
      "overFlowSiteId": 0,
      "historicSpillsList": []
    },
    {
      "id": 344831745,
      "eventId": 624790,
      "siteUnitNumber": 12587,
      "bathingSite": "SOUTHWICK",
      "eventStart": "2022-08-25T06:06:00",
      "eventStop": "2022-08-25T06:12:00",
      "duration": 6,
      "status": "Genuine",
      "associatedSiteId": 109923,
      "outfallName": "THE GREEN SOUTHWICK",
      "isImpacting": false,
      "overFlowSiteId": 0,
      "historicSpillsList": []
    },
    {
      "id": 344831751,
      "eventId": 624781,
      "siteUnitNumber": 12587,
      "bathingSite": "SOUTHWICK",
      "eventStart": "2022-08-25T05:56:00",
      "eventStop": "2022-08-25T05:58:00",
      "duration": 2,
      "status": "Genuine",
      "associatedSiteId": 109923,
      "outfallName": "THE GREEN SOUTHWICK",
      "isImpacting": false,
      "overFlowSiteId": 0,
      "historicSpillsList": []
    },
    {
      "id": 344831749,
      "eventId": 624775,
      "siteUnitNumber": 12587,
      "bathingSite": "SOUTHWICK",
      "eventStart": "2022-08-25T05:48:00",
      "eventStop": "2022-08-25T05:54:00",
      "duration": 6,
      "status": "Genuine",
      "associatedSiteId": 109923,
      "outfallName": "THE GREEN SOUTHWICK",
      "isImpacting": false,
      "overFlowSiteId": 0,
      "historicSpillsList": []
    },
    {
      "id": 344831633,
      "eventId": 624804,
      "siteUnitNumber": 12587,
      "bathingSite": "SOUTHWICK",
      "eventStart": "2022-08-25T04:15:54",
      "eventStop": "2022-08-25T05:06:00",
      "duration": 50,
      "status": "Genuine",
      "associatedSiteId": 109922,
      "outfallName": "ROPETACKLE STREET SHOREHAM",
      "isImpacting": false,
      "overFlowSiteId": 0,
      "historicSpillsList": []
    },
    {
      "id": 344831755,
      "eventId": 624638,
      "siteUnitNumber": 12587,
      "bathingSite": "SOUTHWICK",
      "eventStart": "2022-08-25T04:02:00",
      "eventStop": "2022-08-25T04:26:00",
      "duration": 24,
      "status": "Genuine",
      "associatedSiteId": 109923,
      "outfallName": "THE GREEN SOUTHWICK",
      "isImpacting": false,
      "overFlowSiteId": 0,
      "historicSpillsList": []
    }
  ]
}