{
  "currentPage": 432,
  "totalItems": 18701,
  "totalPages": 749,
  "items": [
    {
      "id": 343980944,
      "eventId": 677046,
      "siteUnitNumber": 12620,
      "bathingSite": "ST HELENS",
      "eventStart": "2022-11-16T20:46:00",
      "eventStop": "2022-11-17T00:15:00",
      "duration": 209,
      "status": "Genuine",
      "associatedSiteId": 109937,
      "outfallName": "HILLWAY BEMBRIDGE",
      "isImpacting": false,
      "overFlowSiteId": 0,
      "historicSpillsList": []
    },
    {
      "id": 343972138,
      "eventId": 670044,
      "siteUnitNumber": 12601,
      "bathingSite": "BEACHLANDS CENTRAL",
      "eventStart": "2022-11-16T18:15:00",
      "eventStop": "2022-11-17T00:15:00",
      "duration": 360,
      "status": "Genuine",
      "associatedSiteId": 109823,
      "outfallName": "FORT CUMBERLAND NO1",
      "isImpacting": true,
      "overFlowSiteId": 0,
      "historicSpillsList": [
        {
          "id": 343972142,
          "eventId": 670044,
          "siteUnitNumber": 12661,
          "bathingSite": "LANGSTONE HARBOUR",
          "eventStart": "2022-11-16T18:15:00",
          "eventStop": "2022-11-17T00:15:00",
          "duration": 360,
          "status": "Genuine",
          "associatedSiteId": 109823,
          "outfallName": "FORT CUMBERLAND NO1",
          "isImpacting": true,
          "overFlowSiteId": 110658,
          "historicSpillsList": []
        }
      ]
    },
    {
      "id": 343964086,
      "eventId": 670893,
      "siteUnitNumber": 12549,
      "bathingSite": "HERNE BAY CENTRAL",
      "eventStart": "2022-11-16T22:57:56",
      "eventStop": "2022-11-17T00:00:00",
      "duration": 62,
      "status": "Genuine",
      "associatedSiteId": 109678,
      "outfallName": "EDDINGTON LANE HERNE BAY NO2",
      "isImpacting": true,
      "overFlowSiteId": 0,
      "historicSpillsList": [
        {
          "id": 343964086,
          "eventId": 670893,
          "siteUnitNumber": 12549,
          "bathingSite": "HERNE BAY CENTRAL",
          "eventStart": "2022-11-16T22:57:56",
          "eventStop": "2022-11-17T00:00:00",
          "duration": 62,
          "status": "Genuine",
          "associatedSiteId": 109678,
          "outfallName": "EDDINGTON LANE HERNE BAY NO2",
          "isImpacting": true,
          "overFlowSiteId": 108093
        },
        {
          "id": 343964087,
          "eventId": 670893,
          "siteUnitNumber": 12551,
          "bathingSite": "HERNE BAY",
          "eventStart": "2022-11-16T22:57:56",
          "eventStop": "2022-11-17T00:00:00",
          "duration": 62,
          "status": "Genuine",
          "associatedSiteId": 109678,
          "outfallName": "EDDINGTON LANE HERNE BAY NO2",
          "isImpacting": true,
          "overFlowSiteId": 108093,
          "historicSpillsList": []
        }
      ]
    },
    {
      "id": 344002769,
      "eventId": 688142,
      "siteUnitNumber": 12577,
      "bathingSite": "BEXHILL",
      "eventStart": "2022-11-16T17:35:00",
      "eventStop": "2022-11-16T23:59:00",
      "duration": 384,
      "status": "Genuine",
      "associatedSiteId": 115504,
      "outfallName": "HARTFIELD ROAD BEXHILL",
      "isImpacting": false,
      "overFlowSiteId": 0,
      "historicSpillsList": []
    },
    {
      "id": 343971784,
      "eventId": 669740,
      "siteUnitNumber": 12605,
      "bathingSite": "STOKES BAY",
      "eventStart": "2022-11-16T16:23:00",
      "eventStop": "2022-11-16T23:59:00",
      "duration": 456,
      "status": "Genuine",
      "associatedSiteId": 109822,
      "outfallName": "PIER ROAD SOUTHSEA",
      "isImpacting": true,
      "overFlowSiteId": 0,
      "historicSpillsList": [
        {
          "id": 343971784,
          "eventId": 669740,
          "siteUnitNumber": 12605,
          "bathingSite": "STOKES BAY",
          "eventStart": "2022-11-16T16:23:00",
          "eventStop": "2022-11-16T23:59:00",
          "duration": 456,
          "status": "Genuine",
          "associatedSiteId": 109822,
          "outfallName": "PIER ROAD SOUTHSEA",
          "isImpacting": true,
          "overFlowSiteId": 108469
        },
        {
          "id": 343971785,
          "eventId": 669740,
          "siteUnitNumber": 12604,
          "bathingSite": "SOUTHSEA EAST",
          "eventStart": "2022-11-16T16:23:00",
          "eventStop": "2022-11-16T23:59:00",
          "duration": 456,
          "status": "Genuine",
          "associatedSiteId": 109822,
          "outfallName": "PIER ROAD SOUTHSEA",
          "isImpacting": true,
          "overFlowSiteId": 108469,
          "historicSpillsList": []
        }
      ]
    },
    {
      "id": 343975776,
      "eventId": 671067,
      "siteUnitNumber": 12568,
      "bathingSite": "SANDGATE",
      "eventStart": "2022-11-16T23:46:35",
      "eventStop": "2022-11-16T23:54:23",
      "duration": 7,
      "status": "Genuine",
      "associatedSiteId": 109896,
      "outfallName": "RANGE ROAD HYTHE K SHORT",
      "isImpacting": false,
      "overFlowSiteId": 0,
      "historicSpillsList": []
    },
    {
      "id": 343963613,
      "eventId": 670824,
      "siteUnitNumber": 12559,
      "bathingSite": "BOTANY BAY BROADSTAIRS",
      "eventStart": "2022-11-16T22:04:51",
      "eventStop": "2022-11-16T23:48:06",
      "duration": 103,
      "status": "Genuine",
      "associatedSiteId": 109673,
      "outfallName": "MARGATE NO1",
      "isImpacting": true,
      "overFlowSiteId": 0,
      "historicSpillsList": [
        {
          "id": 343963613,
          "eventId": 670824,
          "siteUnitNumber": 12559,
          "bathingSite": "BOTANY BAY BROADSTAIRS",
          "eventStart": "2022-11-16T22:04:51",
          "eventStop": "2022-11-16T23:48:06",
          "duration": 103,
          "status": "Genuine",
          "associatedSiteId": 109673,
          "outfallName": "MARGATE NO1",
          "isImpacting": true,
          "overFlowSiteId": 116101
        },
        {
          "id": 343963614,
          "eventId": 670824,
          "siteUnitNumber": 12560,
          "bathingSite": "JOSS BAY BROADSTAIRS",
          "eventStart": "2022-11-16T22:04:51",
          "eventStop": "2022-11-16T23:48:06",
          "duration": 103,
          "status": "Genuine",
          "associatedSiteId": 109673,
          "outfallName": "MARGATE NO1",
          "isImpacting": true,
          "overFlowSiteId": 116101,
          "historicSpillsList": []
        },
        {
          "id": 343963615,
          "eventId": 670824,
          "siteUnitNumber": 12561,
          "bathingSite": "BROADSTAIRS STONE BAY",
          "eventStart": "2022-11-16T22:04:51",
          "eventStop": "2022-11-16T23:48:06",
          "duration": 103,
          "status": "Genuine",
          "associatedSiteId": 109673,
          "outfallName": "MARGATE NO1",
          "isImpacting": true,
          "overFlowSiteId": 116101,
          "historicSpillsList": []
        },
        {
          "id": 343963616,
          "eventId": 670824,
          "siteUnitNumber": 12556,
          "bathingSite": "MARGATE THE BAY",
          "eventStart": "2022-11-16T22:04:51",
          "eventStop": "2022-11-16T23:48:06",
          "duration": 103,
          "status": "Genuine",
          "associatedSiteId": 109673,
          "outfallName": "MARGATE NO1",
          "isImpacting": true,
          "overFlowSiteId": 116101,
          "historicSpillsList": []
        },
        {
          "id": 343963617,
          "eventId": 670824,
          "siteUnitNumber": 12557,
          "bathingSite": "MARGATE FULSAM ROCK",
          "eventStart": "2022-11-16T22:04:51",
          "eventStop": "2022-11-16T23:48:06",
          "duration": 103,
          "status": "Genuine",
          "associatedSiteId": 109673,
          "outfallName": "MARGATE NO1",
          "isImpacting": true,
          "overFlowSiteId": 116101,
          "historicSpillsList": []
        },
        {
          "id": 343963618,
          "eventId": 670824,
          "siteUnitNumber": 12558,
          "bathingSite": "WALPOLE BAY MARGATE",
          "eventStart": "2022-11-16T22:04:51",
          "eventStop": "2022-11-16T23:48:06",
          "duration": 103,
          "status": "Genuine",
          "associatedSiteId": 109673,
          "outfallName": "MARGATE NO1",
          "isImpacting": true,
          "overFlowSiteId": 116101,
          "historicSpillsList": []
        }
      ]
    },
    {
      "id": 343970722,
      "eventId": 669815,
      "siteUnitNumber": 12618,
      "bathingSite": "RYDE",
      "eventStart": "2022-11-16T16:40:26",
      "eventStop": "2022-11-16T23:48:00",
      "duration": 427,
      "status": "Genuine",
      "associatedSiteId": 109790,
      "outfallName": "GREAT PRESTON ROAD RYDE",
      "isImpacting": true,
      "overFlowSiteId": 0,
      "historicSpillsList": [
        {
          "id": 343970722,
          "eventId": 669815,
          "siteUnitNumber": 12618,
          "bathingSite": "RYDE",
          "eventStart": "2022-11-16T16:40:26",
          "eventStop": "2022-11-16T23:48:00",
          "duration": 427,
          "status": "Genuine",
          "associatedSiteId": 109790,
          "outfallName": "GREAT PRESTON ROAD RYDE",
          "isImpacting": true,
          "overFlowSiteId": 109304
        },
        {
          "id": 343970723,
          "eventId": 669815,
          "siteUnitNumber": 12619,
          "bathingSite": "SEAGROVE",
          "eventStart": "2022-11-16T16:40:26",
          "eventStop": "2022-11-16T23:48:00",
          "duration": 427,
          "status": "Genuine",
          "associatedSiteId": 109790,
          "outfallName": "GREAT PRESTON ROAD RYDE",
          "isImpacting": true,
          "overFlowSiteId": 109304,
          "historicSpillsList": []
        }
      ]
    },
    {
      "id": 343971180,
      "eventId": 673294,
      "siteUnitNumber": 12661,
      "bathingSite": "LANGSTONE HARBOUR",
      "eventStart": "2022-11-16T18:03:00",
      "eventStop": "2022-11-16T23:44:00",
      "duration": 341,
      "status": "Genuine",
      "associatedSiteId": 109819,
      "outfallName": "COURT LANE COSHAM",
      "isImpacting": true,
      "overFlowSiteId": 0,
      "historicSpillsList": [
        {
          "id": 343971180,
          "eventId": 673294,
          "siteUnitNumber": 12661,
          "bathingSite": "LANGSTONE HARBOUR",
          "eventStart": "2022-11-16T18:03:00",
          "eventStop": "2022-11-16T23:44:00",
          "duration": 341,
          "status": "Genuine",
          "associatedSiteId": 109819,
          "outfallName": "COURT LANE COSHAM",
          "isImpacting": true,
          "overFlowSiteId": 115958
        }
      ]
    },
    {
      "id": 343981687,
      "eventId": 670876,
      "siteUnitNumber": 12575,
      "bathingSite": "HASTINGS PELHAM BEACH",
      "eventStart": "2022-11-16T22:43:19",
      "eventStop": "2022-11-16T23:32:00",
      "duration": 48,
      "status": "Genuine",
      "associatedSiteId": 109950,
      "outfallName": "ST HELENS DOWN HASTINGS",
      "isImpacting": true,
      "overFlowSiteId": 0,
      "historicSpillsList": [
        {
          "id": 343981687,
          "eventId": 670876,
          "siteUnitNumber": 12575,
          "bathingSite": "HASTINGS PELHAM BEACH",
          "eventStart": "2022-11-16T22:43:19",
          "eventStop": "2022-11-16T23:32:00",
          "duration": 48,
          "status": "Genuine",
          "associatedSiteId": 109950,
          "outfallName": "ST HELENS DOWN HASTINGS",
          "isImpacting": true,
          "overFlowSiteId": 109050
        }
      ]
    },
    {
      "id": 343971078,
      "eventId": 670007,
      "siteUnitNumber": 12661,
      "bathingSite": "LANGSTONE HARBOUR",
      "eventStart": "2022-11-16T17:11:08",
      "eventStop": "2022-11-16T23:30:00",
      "duration": 378,
      "status": "Genuine",
      "associatedSiteId": 109817,
      "outfallName": "MAINLAND DRAYTON",
      "isImpacting": true,
      "overFlowSiteId": 0,
      "historicSpillsList": [
        {
          "id": 343971078,
          "eventId": 670007,
          "siteUnitNumber": 12661,
          "bathingSite": "LANGSTONE HARBOUR",
          "eventStart": "2022-11-16T17:11:08",
          "eventStop": "2022-11-16T23:30:00",
          "duration": 378,
          "status": "Genuine",
          "associatedSiteId": 109817,
          "outfallName": "MAINLAND DRAYTON",
          "isImpacting": true,
          "overFlowSiteId": 115960
        }
      ]
    },
    {
      "id": 343967123,
      "eventId": 674789,
      "siteUnitNumber": 12606,
      "bathingSite": "LEE-ON-SOLENT",
      "eventStart": "2022-11-16T22:06:00",
      "eventStop": "2022-11-16T23:29:00",
      "duration": 83,
      "status": "Genuine",
      "associatedSiteId": 109717,
      "outfallName": "NEWGATE LANE PEEL COMMON",
      "isImpacting": false,
      "overFlowSiteId": 0,
      "historicSpillsList": []
    },
    {
      "id": 343979791,
      "eventId": 670912,
      "siteUnitNumber": 12587,
      "bathingSite": "SOUTHWICK",
      "eventStart": "2022-11-16T22:58:00",
      "eventStop": "2022-11-16T23:20:00",
      "duration": 22,
      "status": "Genuine",
      "associatedSiteId": 109922,
      "outfallName": "ROPETACKLE STREET SHOREHAM",
      "isImpacting": false,
      "overFlowSiteId": 0,
      "historicSpillsList": []
    },
    {
      "id": 343981789,
      "eventId": 670861,
      "siteUnitNumber": 12583,
      "bathingSite": "SALTDEAN",
      "eventStart": "2022-11-16T22:33:00",
      "eventStop": "2022-11-16T23:15:00",
      "duration": 42,
      "status": "Genuine",
      "associatedSiteId": 109955,
      "outfallName": "PORTOBELLO BRIGHTON NO1",
      "isImpacting": true,
      "overFlowSiteId": 0,
      "historicSpillsList": [
        {
          "id": 343981789,
          "eventId": 670861,
          "siteUnitNumber": 12583,
          "bathingSite": "SALTDEAN",
          "eventStart": "2022-11-16T22:33:00",
          "eventStop": "2022-11-16T23:15:00",
          "duration": 42,
          "status": "Genuine",
          "associatedSiteId": 109955,
          "outfallName": "PORTOBELLO BRIGHTON NO1",
          "isImpacting": true,
          "overFlowSiteId": 116035
        }
      ]
    },
    {
      "id": 343988293,
      "eventId": 669733,
      "siteUnitNumber": 12623,
      "bathingSite": "YAVERLAND",
      "eventStart": "2022-11-16T16:16:00",
      "eventStop": "2022-11-16T23:15:00",
      "duration": 419,
      "status": "Genuine",
      "associatedSiteId": 110029,
      "outfallName": "HOPE BEACH SHANKLIN NEW",
      "isImpacting": true,
      "overFlowSiteId": 0,
      "historicSpillsList": [
        {
          "id": 343988295,
          "eventId": 669733,
          "siteUnitNumber": 12625,
          "bathingSite": "SHANKLIN",
          "eventStart": "2022-11-16T16:16:00",
          "eventStop": "2022-11-16T23:15:00",
          "duration": 419,
          "status": "Genuine",
          "associatedSiteId": 110029,
          "outfallName": "HOPE BEACH SHANKLIN NEW",
          "isImpacting": true,
          "overFlowSiteId": 109389,
          "historicSpillsList": []
        }
      ]
    },
    {
      "id": 343997888,
      "eventId": 670501,
      "siteUnitNumber": 12549,
      "bathingSite": "HERNE BAY CENTRAL",
      "eventStart": "2022-11-16T20:26:00",
      "eventStop": "2022-11-16T23:10:00",
      "duration": 164,
      "status": "Genuine",
      "associatedSiteId": 111724,
      "outfallName": "GAINSBOROUGH DRIVE HERNE BAY",
      "isImpacting": true,
      "overFlowSiteId": 0,
      "historicSpillsList": [
        {
          "id": 343997888,
          "eventId": 670501,
          "siteUnitNumber": 12549,
          "bathingSite": "HERNE BAY CENTRAL",
          "eventStart": "2022-11-16T20:26:00",
          "eventStop": "2022-11-16T23:10:00",
          "duration": 164,
          "status": "Genuine",
          "associatedSiteId": 111724,
          "outfallName": "GAINSBOROUGH DRIVE HERNE BAY",
          "isImpacting": true,
          "overFlowSiteId": 111725
        },
        {
          "id": 343997889,
          "eventId": 670501,
          "siteUnitNumber": 12551,
          "bathingSite": "HERNE BAY",
          "eventStart": "2022-11-16T20:26:00",
          "eventStop": "2022-11-16T23:10:00",
          "duration": 164,
          "status": "Genuine",
          "associatedSiteId": 111724,
          "outfallName": "GAINSBOROUGH DRIVE HERNE BAY",
          "isImpacting": true,
          "overFlowSiteId": 111725,
          "historicSpillsList": []
        }
      ]
    },
    {
      "id": 343960757,
      "eventId": 670825,
      "siteUnitNumber": 12546,
      "bathingSite": "LEYSDOWN",
      "eventStart": "2022-11-16T22:09:00",
      "eventStop": "2022-11-16T23:01:00",
      "duration": 52,
      "status": "Genuine",
      "associatedSiteId": 109613,
      "outfallName": "BARROWS BROOK EASTCHURCH",
      "isImpacting": true,
      "overFlowSiteId": 0,
      "historicSpillsList": [
        {
          "id": 343960757,
          "eventId": 670825,
          "siteUnitNumber": 12546,
          "bathingSite": "LEYSDOWN",
          "eventStart": "2022-11-16T22:09:00",
          "eventStop": "2022-11-16T23:01:00",
          "duration": 52,
          "status": "Genuine",
          "associatedSiteId": 109613,
          "outfallName": "BARROWS BROOK EASTCHURCH",
          "isImpacting": true,
          "overFlowSiteId": 108109
        }
      ]
    },
    {
      "id": 343981792,
      "eventId": 670484,
      "siteUnitNumber": 12583,
      "bathingSite": "SALTDEAN",
      "eventStart": "2022-11-16T19:38:00",
      "eventStop": "2022-11-16T22:53:00",
      "duration": 195,
      "status": "Genuine",
      "associatedSiteId": 109955,
      "outfallName": "PORTOBELLO BRIGHTON NO1",
      "isImpacting": true,
      "overFlowSiteId": 0,
      "historicSpillsList": [
        {
          "id": 343981792,
          "eventId": 670484,
          "siteUnitNumber": 12583,
          "bathingSite": "SALTDEAN",
          "eventStart": "2022-11-16T19:38:00",
          "eventStop": "2022-11-16T22:53:00",
          "duration": 195,
          "status": "Genuine",
          "associatedSiteId": 109955,
          "outfallName": "PORTOBELLO BRIGHTON NO1",
          "isImpacting": true,
          "overFlowSiteId": 111606
        }
      ]
    },
    {
      "id": 343979689,
      "eventId": 671211,
      "siteUnitNumber": 12589,
      "bathingSite": "LANCING BEACH GREEN",
      "eventStart": "2022-11-16T22:37:00",
      "eventStop": "2022-11-16T22:52:00",
      "duration": 15,
      "status": "Genuine",
      "associatedSiteId": 109919,
      "outfallName": "SOMPTING ROAD WORTHING",
      "isImpacting": true,
      "overFlowSiteId": 0,
      "historicSpillsList": [
        {
          "id": 343979689,
          "eventId": 671211,
          "siteUnitNumber": 12589,
          "bathingSite": "LANCING BEACH GREEN",
          "eventStart": "2022-11-16T22:37:00",
          "eventStop": "2022-11-16T22:52:00",
          "duration": 15,
          "status": "Genuine",
          "associatedSiteId": 109919,
          "outfallName": "SOMPTING ROAD WORTHING",
          "isImpacting": true,
          "overFlowSiteId": 108336
        },
        {
          "id": 343979690,
          "eventId": 671211,
          "siteUnitNumber": 12590,
          "bathingSite": "WORTHING",
          "eventStart": "2022-11-16T22:37:00",
          "eventStop": "2022-11-16T22:52:00",
          "duration": 15,
          "status": "Genuine",
          "associatedSiteId": 109919,
          "outfallName": "SOMPTING ROAD WORTHING",
          "isImpacting": true,
          "overFlowSiteId": 108336,
          "historicSpillsList": []
        }
      ]
    },
    {
      "id": 343972128,
      "eventId": 670610,
      "siteUnitNumber": 12602,
      "bathingSite": "BEACHLANDS WEST",
      "eventStart": "2022-11-16T21:51:00",
      "eventStop": "2022-11-16T22:51:00",
      "duration": 60,
      "status": "Genuine",
      "associatedSiteId": 109823,
      "outfallName": "FORT CUMBERLAND NO1",
      "isImpacting": true,
      "overFlowSiteId": 0,
      "historicSpillsList": [
        {
          "id": 343972131,
          "eventId": 670610,
          "siteUnitNumber": 12661,
          "bathingSite": "LANGSTONE HARBOUR",
          "eventStart": "2022-11-16T21:51:00",
          "eventStop": "2022-11-16T22:51:00",
          "duration": 60,
          "status": "Genuine",
          "associatedSiteId": 109823,
          "outfallName": "FORT CUMBERLAND NO1",
          "isImpacting": true,
          "overFlowSiteId": 116221,
          "historicSpillsList": []
        }
      ]
    },
    {
      "id": 343970313,
      "eventId": 670476,
      "siteUnitNumber": 12618,
      "bathingSite": "RYDE",
      "eventStart": "2022-11-16T20:23:00",
      "eventStop": "2022-11-16T22:45:01",
      "duration": 142,
      "status": "Genuine",
      "associatedSiteId": 109784,
      "outfallName": "PARK ROAD RYDE",
      "isImpacting": false,
      "overFlowSiteId": 0,
      "historicSpillsList": []
    },
    {
      "id": 343964088,
      "eventId": 670639,
      "siteUnitNumber": 12549,
      "bathingSite": "HERNE BAY CENTRAL",
      "eventStart": "2022-11-16T21:00:00",
      "eventStop": "2022-11-16T22:30:48",
      "duration": 90,
      "status": "Genuine",
      "associatedSiteId": 109678,
      "outfallName": "EDDINGTON LANE HERNE BAY NO2",
      "isImpacting": true,
      "overFlowSiteId": 0,
      "historicSpillsList": [
        {
          "id": 343964088,
          "eventId": 670639,
          "siteUnitNumber": 12549,
          "bathingSite": "HERNE BAY CENTRAL",
          "eventStart": "2022-11-16T21:00:00",
          "eventStop": "2022-11-16T22:30:48",
          "duration": 90,
          "status": "Genuine",
          "associatedSiteId": 109678,
          "outfallName": "EDDINGTON LANE HERNE BAY NO2",
          "isImpacting": true,
          "overFlowSiteId": 108093
        },
        {
          "id": 343964089,
          "eventId": 670639,
          "siteUnitNumber": 12551,
          "bathingSite": "HERNE BAY",
          "eventStart": "2022-11-16T21:00:00",
          "eventStop": "2022-11-16T22:30:48",
          "duration": 90,
          "status": "Genuine",
          "associatedSiteId": 109678,
          "outfallName": "EDDINGTON LANE HERNE BAY NO2",
          "isImpacting": true,
          "overFlowSiteId": 108093,
          "historicSpillsList": []
        }
      ]
    },
    {
      "id": 343986703,
      "eventId": 670436,
      "siteUnitNumber": 12575,
      "bathingSite": "HASTINGS PELHAM BEACH",
      "eventStart": "2022-11-16T20:12:59",
      "eventStop": "2022-11-16T22:30:00",
      "duration": 137,
      "status": "Genuine",
      "associatedSiteId": 109981,
      "outfallName": "ROCK A NORE HASTINGS",
      "isImpacting": false,
      "overFlowSiteId": 0,
      "historicSpillsList": []
    },
    {
      "id": 343971134,
      "eventId": 670615,
      "siteUnitNumber": 12661,
      "bathingSite": "LANGSTONE HARBOUR",
      "eventStart": "2022-11-16T21:19:53",
      "eventStop": "2022-11-16T22:26:47",
      "duration": 66,
      "status": "Genuine",
      "associatedSiteId": 109818,
      "outfallName": "KIRTLEY CLOSE DRAYTON",
      "isImpacting": true,
      "overFlowSiteId": 0,
      "historicSpillsList": [
        {
          "id": 343971134,
          "eventId": 670615,
          "siteUnitNumber": 12661,
          "bathingSite": "LANGSTONE HARBOUR",
          "eventStart": "2022-11-16T21:19:53",
          "eventStop": "2022-11-16T22:26:47",
          "duration": 66,
          "status": "Genuine",
          "associatedSiteId": 109818,
          "outfallName": "KIRTLEY CLOSE DRAYTON",
          "isImpacting": true,
          "overFlowSiteId": 108774
        }
      ]
    },
    {
      "id": 343965753,
      "eventId": 670730,
      "siteUnitNumber": 12616,
      "bathingSite": "GURNARD",
      "eventStart": "2022-11-16T21:42:25",
      "eventStop": "2022-11-16T22:26:00",
      "duration": 43,
      "status": "Genuine",
      "associatedSiteId": 109704,
      "outfallName": "EGYPT POINT COWES",
      "isImpacting": true,
      "overFlowSiteId": 0,
      "historicSpillsList": [
        {
          "id": 343965754,
          "eventId": 670730,
          "siteUnitNumber": 12617,
          "bathingSite": "COWES",
          "eventStart": "2022-11-16T21:42:25",
          "eventStop": "2022-11-16T22:26:00",
          "duration": 43,
          "status": "Genuine",
          "associatedSiteId": 109704,
          "outfallName": "EGYPT POINT COWES",
          "isImpacting": true,
          "overFlowSiteId": 108518,
          "historicSpillsList": []
        }
      ]
    }
  ]
}