{
  "currentPage": 648,
  "totalItems": 21025,
  "totalPages": 841,
  "items": [
    {
      "id": 344849113,
      "eventId": 515543,
      "siteUnitNumber": 12582,
      "bathingSite": "SEAFORD",
      "eventStart": "2021-10-29T07:59:33",
      "eventStop": "2021-10-29T08:20:38",
      "duration": 21,
      "status": "Genuine",
      "associatedSiteId": 110920,
      "outfallName": "NEWHAVEN",
      "isImpacting": true,
      "overFlowSiteId": 0,
      "historicSpillsList": [
        {
          "id": 344849113,
          "eventId": 515543,
          "siteUnitNumber": 12582,
          "bathingSite": "SEAFORD",
          "eventStart": "2021-10-29T07:59:33",
          "eventStop": "2021-10-29T08:20:38",
          "duration": 21,
          "status": "Genuine",
          "associatedSiteId": 110920,
          "outfallName": "NEWHAVEN",
          "isImpacting": true,
          "overFlowSiteId": 116065
        }
      ]
    },
    {
      "id": 344834390,
      "eventId": 515531,
      "siteUnitNumber": 12582,
      "bathingSite": "SEAFORD",
      "eventStart": "2021-10-29T07:59:00",
      "eventStop": "2021-10-29T08:15:00",
      "duration": 16,
      "status": "Genuine",
      "associatedSiteId": 109957,
      "outfallName": "PORTOBELLO BRIGHTON NO2",
      "isImpacting": true,
      "overFlowSiteId": 0,
      "historicSpillsList": [
        {
          "id": 344834390,
          "eventId": 515531,
          "siteUnitNumber": 12582,
          "bathingSite": "SEAFORD",
          "eventStart": "2021-10-29T07:59:00",
          "eventStop": "2021-10-29T08:15:00",
          "duration": 16,
          "status": "Genuine",
          "associatedSiteId": 109957,
          "outfallName": "PORTOBELLO BRIGHTON NO2",
          "isImpacting": true,
          "overFlowSiteId": 116036
        },
        {
          "id": 344834391,
          "eventId": 515531,
          "siteUnitNumber": 12583,
          "bathingSite": "SALTDEAN",
          "eventStart": "2021-10-29T07:59:00",
          "eventStop": "2021-10-29T08:15:00",
          "duration": 16,
          "status": "Genuine",
          "associatedSiteId": 109957,
          "outfallName": "PORTOBELLO BRIGHTON NO2",
          "isImpacting": true,
          "overFlowSiteId": 116036,
          "historicSpillsList": []
        }
      ]
    },
    {
      "id": 344832263,
      "eventId": 515523,
      "siteUnitNumber": 12587,
      "bathingSite": "SOUTHWICK",
      "eventStart": "2021-10-29T06:59:53",
      "eventStop": "2021-10-29T08:00:25",
      "duration": 60,
      "status": "Genuine",
      "associatedSiteId": 109929,
      "outfallName": "SHOREHAM NO1",
      "isImpacting": true,
      "overFlowSiteId": 0,
      "historicSpillsList": [
        {
          "id": 344832263,
          "eventId": 515523,
          "siteUnitNumber": 12587,
          "bathingSite": "SOUTHWICK",
          "eventStart": "2021-10-29T06:59:53",
          "eventStop": "2021-10-29T08:00:25",
          "duration": 60,
          "status": "Genuine",
          "associatedSiteId": 109929,
          "outfallName": "SHOREHAM NO1",
          "isImpacting": true,
          "overFlowSiteId": 115434
        },
        {
          "id": 344832264,
          "eventId": 515523,
          "siteUnitNumber": 12588,
          "bathingSite": "SHOREHAM BEACH",
          "eventStart": "2021-10-29T06:59:53",
          "eventStop": "2021-10-29T08:00:25",
          "duration": 60,
          "status": "Genuine",
          "associatedSiteId": 109929,
          "outfallName": "SHOREHAM NO1",
          "isImpacting": true,
          "overFlowSiteId": 115434,
          "historicSpillsList": []
        },
        {
          "id": 344832271,
          "eventId": 515523,
          "siteUnitNumber": 12586,
          "bathingSite": "HOVE",
          "eventStart": "2021-10-29T06:59:53",
          "eventStop": "2021-10-29T08:00:25",
          "duration": 60,
          "status": "Genuine",
          "associatedSiteId": 109929,
          "outfallName": "SHOREHAM NO1",
          "isImpacting": true,
          "overFlowSiteId": 115434,
          "historicSpillsList": []
        }
      ]
    },
    {
      "id": 344814883,
      "eventId": 515356,
      "siteUnitNumber": 12614,
      "bathingSite": "TOTLAND BAY",
      "eventStart": "2021-10-28T12:07:28",
      "eventStop": "2021-10-28T12:13:19",
      "duration": 5,
      "status": "Under Review",
      "associatedSiteId": 109657,
      "outfallName": "THE PROMENADE TOTLAND PIER NO2",
      "isImpacting": true,
      "overFlowSiteId": 0,
      "historicSpillsList": [
        {
          "id": 344814883,
          "eventId": 515356,
          "siteUnitNumber": 12614,
          "bathingSite": "TOTLAND BAY",
          "eventStart": "2021-10-28T12:07:28",
          "eventStop": "2021-10-28T12:13:19",
          "duration": 5,
          "status": "Under Review",
          "associatedSiteId": 109657,
          "outfallName": "THE PROMENADE TOTLAND PIER NO2",
          "isImpacting": true,
          "overFlowSiteId": 109375
        },
        {
          "id": 344814884,
          "eventId": 515356,
          "siteUnitNumber": 12615,
          "bathingSite": "COLWELL BAY",
          "eventStart": "2021-10-28T12:07:28",
          "eventStop": "2021-10-28T12:13:19",
          "duration": 5,
          "status": "Under Review",
          "associatedSiteId": 109657,
          "outfallName": "THE PROMENADE TOTLAND PIER NO2",
          "isImpacting": true,
          "overFlowSiteId": 109375,
          "historicSpillsList": []
        }
      ]
    },
    {
      "id": 344824761,
      "eventId": 514673,
      "siteUnitNumber": 12548,
      "bathingSite": "TANKERTON",
      "eventStart": "2021-10-25T14:22:52",
      "eventStop": "2021-10-25T16:49:43",
      "duration": 146,
      "status": "Genuine",
      "associatedSiteId": 109830,
      "outfallName": "SWALECLIFFE NO1",
      "isImpacting": true,
      "overFlowSiteId": 0,
      "historicSpillsList": [
        {
          "id": 344824761,
          "eventId": 514673,
          "siteUnitNumber": 12548,
          "bathingSite": "TANKERTON",
          "eventStart": "2021-10-25T14:22:52",
          "eventStop": "2021-10-25T16:49:43",
          "duration": 146,
          "status": "Genuine",
          "associatedSiteId": 109830,
          "outfallName": "SWALECLIFFE NO1",
          "isImpacting": true,
          "overFlowSiteId": 115444
        },
        {
          "id": 344824762,
          "eventId": 514673,
          "siteUnitNumber": 12549,
          "bathingSite": "HERNE BAY CENTRAL",
          "eventStart": "2021-10-25T14:22:52",
          "eventStop": "2021-10-25T16:49:43",
          "duration": 146,
          "status": "Genuine",
          "associatedSiteId": 109830,
          "outfallName": "SWALECLIFFE NO1",
          "isImpacting": true,
          "overFlowSiteId": 115444,
          "historicSpillsList": []
        }
      ]
    },
    {
      "id": 344849112,
      "eventId": 514661,
      "siteUnitNumber": 12582,
      "bathingSite": "SEAFORD",
      "eventStart": "2021-10-25T14:23:43",
      "eventStop": "2021-10-25T14:56:50",
      "duration": 33,
      "status": "Genuine",
      "associatedSiteId": 110920,
      "outfallName": "NEWHAVEN",
      "isImpacting": true,
      "overFlowSiteId": 0,
      "historicSpillsList": [
        {
          "id": 344849112,
          "eventId": 514661,
          "siteUnitNumber": 12582,
          "bathingSite": "SEAFORD",
          "eventStart": "2021-10-25T14:23:43",
          "eventStop": "2021-10-25T14:56:50",
          "duration": 33,
          "status": "Genuine",
          "associatedSiteId": 110920,
          "outfallName": "NEWHAVEN",
          "isImpacting": true,
          "overFlowSiteId": 116065
        }
      ]
    },
    {
      "id": 344849111,
      "eventId": 514645,
      "siteUnitNumber": 12582,
      "bathingSite": "SEAFORD",
      "eventStart": "2021-10-25T13:41:26",
      "eventStop": "2021-10-25T14:06:07",
      "duration": 24,
      "status": "Genuine",
      "associatedSiteId": 110920,
      "outfallName": "NEWHAVEN",
      "isImpacting": true,
      "overFlowSiteId": 0,
      "historicSpillsList": [
        {
          "id": 344849111,
          "eventId": 514645,
          "siteUnitNumber": 12582,
          "bathingSite": "SEAFORD",
          "eventStart": "2021-10-25T13:41:26",
          "eventStop": "2021-10-25T14:06:07",
          "duration": 24,
          "status": "Genuine",
          "associatedSiteId": 110920,
          "outfallName": "NEWHAVEN",
          "isImpacting": true,
          "overFlowSiteId": 116065
        }
      ]
    },
    {
      "id": 344848175,
      "eventId": 514618,
      "siteUnitNumber": 12616,
      "bathingSite": "GURNARD",
      "eventStart": "2021-10-25T12:26:00",
      "eventStop": "2021-10-25T12:37:00",
      "duration": 11,
      "status": "Genuine",
      "associatedSiteId": 110701,
      "outfallName": "TERMINUS ROAD COWES 2",
      "isImpacting": true,
      "overFlowSiteId": 0,
      "historicSpillsList": [
        {
          "id": 344848175,
          "eventId": 514618,
          "siteUnitNumber": 12616,
          "bathingSite": "GURNARD",
          "eventStart": "2021-10-25T12:26:00",
          "eventStop": "2021-10-25T12:37:00",
          "duration": 11,
          "status": "Genuine",
          "associatedSiteId": 110701,
          "outfallName": "TERMINUS ROAD COWES 2",
          "isImpacting": true,
          "overFlowSiteId": 108563
        },
        {
          "id": 344848176,
          "eventId": 514618,
          "siteUnitNumber": 12617,
          "bathingSite": "COWES",
          "eventStart": "2021-10-25T12:26:00",
          "eventStop": "2021-10-25T12:37:00",
          "duration": 11,
          "status": "Genuine",
          "associatedSiteId": 110701,
          "outfallName": "TERMINUS ROAD COWES 2",
          "isImpacting": true,
          "overFlowSiteId": 108563,
          "historicSpillsList": []
        }
      ]
    },
    {
      "id": 344848171,
      "eventId": 514631,
      "siteUnitNumber": 12616,
      "bathingSite": "GURNARD",
      "eventStart": "2021-10-25T12:21:00",
      "eventStop": "2021-10-25T12:30:00",
      "duration": 9,
      "status": "Genuine",
      "associatedSiteId": 110701,
      "outfallName": "TERMINUS ROAD COWES 2",
      "isImpacting": true,
      "overFlowSiteId": 0,
      "historicSpillsList": [
        {
          "id": 344848171,
          "eventId": 514631,
          "siteUnitNumber": 12616,
          "bathingSite": "GURNARD",
          "eventStart": "2021-10-25T12:21:00",
          "eventStop": "2021-10-25T12:30:00",
          "duration": 9,
          "status": "Genuine",
          "associatedSiteId": 110701,
          "outfallName": "TERMINUS ROAD COWES 2",
          "isImpacting": true,
          "overFlowSiteId": 108562
        },
        {
          "id": 344848172,
          "eventId": 514631,
          "siteUnitNumber": 12617,
          "bathingSite": "COWES",
          "eventStart": "2021-10-25T12:21:00",
          "eventStop": "2021-10-25T12:30:00",
          "duration": 9,
          "status": "Genuine",
          "associatedSiteId": 110701,
          "outfallName": "TERMINUS ROAD COWES 2",
          "isImpacting": true,
          "overFlowSiteId": 108562,
          "historicSpillsList": []
        }
      ]
    },
    {
      "id": 344849116,
      "eventId": 514589,
      "siteUnitNumber": 12582,
      "bathingSite": "SEAFORD",
      "eventStart": "2021-10-25T11:12:46",
      "eventStop": "2021-10-25T12:20:23",
      "duration": 67,
      "status": "Genuine",
      "associatedSiteId": 110920,
      "outfallName": "NEWHAVEN",
      "isImpacting": true,
      "overFlowSiteId": 0,
      "historicSpillsList": [
        {
          "id": 344849116,
          "eventId": 514589,
          "siteUnitNumber": 12582,
          "bathingSite": "SEAFORD",
          "eventStart": "2021-10-25T11:12:46",
          "eventStop": "2021-10-25T12:20:23",
          "duration": 67,
          "status": "Genuine",
          "associatedSiteId": 110920,
          "outfallName": "NEWHAVEN",
          "isImpacting": true,
          "overFlowSiteId": 116065
        }
      ]
    },
    {
      "id": 344832268,
      "eventId": 514594,
      "siteUnitNumber": 12586,
      "bathingSite": "HOVE",
      "eventStart": "2021-10-25T11:21:17",
      "eventStop": "2021-10-25T12:10:41",
      "duration": 49,
      "status": "Genuine",
      "associatedSiteId": 109929,
      "outfallName": "SHOREHAM NO1",
      "isImpacting": true,
      "overFlowSiteId": 0,
      "historicSpillsList": [
        {
          "id": 344832268,
          "eventId": 514594,
          "siteUnitNumber": 12586,
          "bathingSite": "HOVE",
          "eventStart": "2021-10-25T11:21:17",
          "eventStop": "2021-10-25T12:10:41",
          "duration": 49,
          "status": "Genuine",
          "associatedSiteId": 109929,
          "outfallName": "SHOREHAM NO1",
          "isImpacting": true,
          "overFlowSiteId": 115434
        },
        {
          "id": 344832269,
          "eventId": 514594,
          "siteUnitNumber": 12587,
          "bathingSite": "SOUTHWICK",
          "eventStart": "2021-10-25T11:21:17",
          "eventStop": "2021-10-25T12:10:41",
          "duration": 49,
          "status": "Genuine",
          "associatedSiteId": 109929,
          "outfallName": "SHOREHAM NO1",
          "isImpacting": true,
          "overFlowSiteId": 115434,
          "historicSpillsList": []
        },
        {
          "id": 344832270,
          "eventId": 514594,
          "siteUnitNumber": 12588,
          "bathingSite": "SHOREHAM BEACH",
          "eventStart": "2021-10-25T11:21:17",
          "eventStop": "2021-10-25T12:10:41",
          "duration": 49,
          "status": "Genuine",
          "associatedSiteId": 109929,
          "outfallName": "SHOREHAM NO1",
          "isImpacting": true,
          "overFlowSiteId": 115434,
          "historicSpillsList": []
        }
      ]
    },
    {
      "id": 344848177,
      "eventId": 514593,
      "siteUnitNumber": 12616,
      "bathingSite": "GURNARD",
      "eventStart": "2021-10-25T11:20:47",
      "eventStop": "2021-10-25T11:36:27",
      "duration": 15,
      "status": "Genuine",
      "associatedSiteId": 110701,
      "outfallName": "TERMINUS ROAD COWES 2",
      "isImpacting": true,
      "overFlowSiteId": 0,
      "historicSpillsList": [
        {
          "id": 344848177,
          "eventId": 514593,
          "siteUnitNumber": 12616,
          "bathingSite": "GURNARD",
          "eventStart": "2021-10-25T11:20:47",
          "eventStop": "2021-10-25T11:36:27",
          "duration": 15,
          "status": "Genuine",
          "associatedSiteId": 110701,
          "outfallName": "TERMINUS ROAD COWES 2",
          "isImpacting": true,
          "overFlowSiteId": 108563
        },
        {
          "id": 344848178,
          "eventId": 514593,
          "siteUnitNumber": 12617,
          "bathingSite": "COWES",
          "eventStart": "2021-10-25T11:20:47",
          "eventStop": "2021-10-25T11:36:27",
          "duration": 15,
          "status": "Genuine",
          "associatedSiteId": 110701,
          "outfallName": "TERMINUS ROAD COWES 2",
          "isImpacting": true,
          "overFlowSiteId": 108563,
          "historicSpillsList": []
        }
      ]
    },
    {
      "id": 344848173,
      "eventId": 514629,
      "siteUnitNumber": 12617,
      "bathingSite": "COWES",
      "eventStart": "2021-10-25T11:25:10",
      "eventStop": "2021-10-25T11:28:16",
      "duration": 3,
      "status": "Genuine",
      "associatedSiteId": 110701,
      "outfallName": "TERMINUS ROAD COWES 2",
      "isImpacting": true,
      "overFlowSiteId": 0,
      "historicSpillsList": [
        {
          "id": 344848173,
          "eventId": 514629,
          "siteUnitNumber": 12617,
          "bathingSite": "COWES",
          "eventStart": "2021-10-25T11:25:10",
          "eventStop": "2021-10-25T11:28:16",
          "duration": 3,
          "status": "Genuine",
          "associatedSiteId": 110701,
          "outfallName": "TERMINUS ROAD COWES 2",
          "isImpacting": true,
          "overFlowSiteId": 108562
        },
        {
          "id": 344848174,
          "eventId": 514629,
          "siteUnitNumber": 12616,
          "bathingSite": "GURNARD",
          "eventStart": "2021-10-25T11:25:10",
          "eventStop": "2021-10-25T11:28:16",
          "duration": 3,
          "status": "Genuine",
          "associatedSiteId": 110701,
          "outfallName": "TERMINUS ROAD COWES 2",
          "isImpacting": true,
          "overFlowSiteId": 108562,
          "historicSpillsList": []
        }
      ]
    },
    {
      "id": 344830634,
      "eventId": 514564,
      "siteUnitNumber": 12576,
      "bathingSite": "ST LEONARDS",
      "eventStart": "2021-10-25T10:40:00",
      "eventStop": "2021-10-25T10:55:00",
      "duration": 15,
      "status": "Genuine",
      "associatedSiteId": 109903,
      "outfallName": "BEXHILL & HASTINGS NO2",
      "isImpacting": true,
      "overFlowSiteId": 0,
      "historicSpillsList": [
        {
          "id": 344830634,
          "eventId": 514564,
          "siteUnitNumber": 12576,
          "bathingSite": "ST LEONARDS",
          "eventStart": "2021-10-25T10:40:00",
          "eventStop": "2021-10-25T10:55:00",
          "duration": 15,
          "status": "Genuine",
          "associatedSiteId": 109903,
          "outfallName": "BEXHILL & HASTINGS NO2",
          "isImpacting": true,
          "overFlowSiteId": 115398
        },
        {
          "id": 344830635,
          "eventId": 514564,
          "siteUnitNumber": 12577,
          "bathingSite": "BEXHILL",
          "eventStart": "2021-10-25T10:40:00",
          "eventStop": "2021-10-25T10:55:00",
          "duration": 15,
          "status": "Genuine",
          "associatedSiteId": 109903,
          "outfallName": "BEXHILL & HASTINGS NO2",
          "isImpacting": true,
          "overFlowSiteId": 115398,
          "historicSpillsList": []
        }
      ]
    },
    {
      "id": 344837472,
      "eventId": 514506,
      "siteUnitNumber": 12591,
      "bathingSite": "LITTLEHAMPTON",
      "eventStart": "2021-10-25T08:12:00",
      "eventStop": "2021-10-25T10:18:00",
      "duration": 126,
      "status": "Genuine",
      "associatedSiteId": 109965,
      "outfallName": "SEA ROAD LITTLEHAMPTON",
      "isImpacting": true,
      "overFlowSiteId": 0,
      "historicSpillsList": [
        {
          "id": 344837472,
          "eventId": 514506,
          "siteUnitNumber": 12591,
          "bathingSite": "LITTLEHAMPTON",
          "eventStart": "2021-10-25T08:12:00",
          "eventStop": "2021-10-25T10:18:00",
          "duration": 126,
          "status": "Genuine",
          "associatedSiteId": 109965,
          "outfallName": "SEA ROAD LITTLEHAMPTON",
          "isImpacting": true,
          "overFlowSiteId": 109368
        }
      ]
    },
    {
      "id": 344830636,
      "eventId": 514442,
      "siteUnitNumber": 12576,
      "bathingSite": "ST LEONARDS",
      "eventStart": "2021-10-25T03:27:53",
      "eventStop": "2021-10-25T06:08:00",
      "duration": 160,
      "status": "Genuine",
      "associatedSiteId": 109903,
      "outfallName": "BEXHILL & HASTINGS NO2",
      "isImpacting": true,
      "overFlowSiteId": 0,
      "historicSpillsList": [
        {
          "id": 344830636,
          "eventId": 514442,
          "siteUnitNumber": 12576,
          "bathingSite": "ST LEONARDS",
          "eventStart": "2021-10-25T03:27:53",
          "eventStop": "2021-10-25T06:08:00",
          "duration": 160,
          "status": "Genuine",
          "associatedSiteId": 109903,
          "outfallName": "BEXHILL & HASTINGS NO2",
          "isImpacting": true,
          "overFlowSiteId": 115398
        },
        {
          "id": 344830637,
          "eventId": 514442,
          "siteUnitNumber": 12577,
          "bathingSite": "BEXHILL",
          "eventStart": "2021-10-25T03:27:53",
          "eventStop": "2021-10-25T06:08:00",
          "duration": 160,
          "status": "Genuine",
          "associatedSiteId": 109903,
          "outfallName": "BEXHILL & HASTINGS NO2",
          "isImpacting": true,
          "overFlowSiteId": 115398,
          "historicSpillsList": []
        }
      ]
    },
    {
      "id": 344840600,
      "eventId": 514333,
      "siteUnitNumber": 12593,
      "bathingSite": "FELPHAM",
      "eventStart": "2021-10-24T17:03:41",
      "eventStop": "2021-10-24T20:24:00",
      "duration": 200,
      "status": "Genuine",
      "associatedSiteId": 110095,
      "outfallName": "LIDSEY",
      "isImpacting": true,
      "overFlowSiteId": 0,
      "historicSpillsList": [
        {
          "id": 344840600,
          "eventId": 514333,
          "siteUnitNumber": 12593,
          "bathingSite": "FELPHAM",
          "eventStart": "2021-10-24T17:03:41",
          "eventStop": "2021-10-24T20:24:00",
          "duration": 200,
          "status": "Genuine",
          "associatedSiteId": 110095,
          "outfallName": "LIDSEY",
          "isImpacting": true,
          "overFlowSiteId": 115776
        }
      ]
    },
    {
      "id": 344840599,
      "eventId": 514312,
      "siteUnitNumber": 12593,
      "bathingSite": "FELPHAM",
      "eventStart": "2021-10-24T15:11:13",
      "eventStop": "2021-10-24T16:29:00",
      "duration": 77,
      "status": "Genuine",
      "associatedSiteId": 110095,
      "outfallName": "LIDSEY",
      "isImpacting": true,
      "overFlowSiteId": 0,
      "historicSpillsList": [
        {
          "id": 344840599,
          "eventId": 514312,
          "siteUnitNumber": 12593,
          "bathingSite": "FELPHAM",
          "eventStart": "2021-10-24T15:11:13",
          "eventStop": "2021-10-24T16:29:00",
          "duration": 77,
          "status": "Genuine",
          "associatedSiteId": 110095,
          "outfallName": "LIDSEY",
          "isImpacting": true,
          "overFlowSiteId": 115776
        }
      ]
    },
    {
      "id": 344837475,
      "eventId": 514251,
      "siteUnitNumber": 12591,
      "bathingSite": "LITTLEHAMPTON",
      "eventStart": "2021-10-24T08:54:00",
      "eventStop": "2021-10-24T15:36:00",
      "duration": 402,
      "status": "Genuine",
      "associatedSiteId": 109965,
      "outfallName": "SEA ROAD LITTLEHAMPTON",
      "isImpacting": true,
      "overFlowSiteId": 0,
      "historicSpillsList": [
        {
          "id": 344837475,
          "eventId": 514251,
          "siteUnitNumber": 12591,
          "bathingSite": "LITTLEHAMPTON",
          "eventStart": "2021-10-24T08:54:00",
          "eventStop": "2021-10-24T15:36:00",
          "duration": 402,
          "status": "Genuine",
          "associatedSiteId": 109965,
          "outfallName": "SEA ROAD LITTLEHAMPTON",
          "isImpacting": true,
          "overFlowSiteId": 109368
        }
      ]
    },
    {
      "id": 344840602,
      "eventId": 514280,
      "siteUnitNumber": 12593,
      "bathingSite": "FELPHAM",
      "eventStart": "2021-10-24T13:39:00",
      "eventStop": "2021-10-24T14:00:00",
      "duration": 21,
      "status": "Genuine",
      "associatedSiteId": 110095,
      "outfallName": "LIDSEY",
      "isImpacting": true,
      "overFlowSiteId": 0,
      "historicSpillsList": [
        {
          "id": 344840602,
          "eventId": 514280,
          "siteUnitNumber": 12593,
          "bathingSite": "FELPHAM",
          "eventStart": "2021-10-24T13:39:00",
          "eventStop": "2021-10-24T14:00:00",
          "duration": 21,
          "status": "Genuine",
          "associatedSiteId": 110095,
          "outfallName": "LIDSEY",
          "isImpacting": true,
          "overFlowSiteId": 115776
        }
      ]
    },
    {
      "id": 344840603,
      "eventId": 514281,
      "siteUnitNumber": 12593,
      "bathingSite": "FELPHAM",
      "eventStart": "2021-10-24T10:25:00",
      "eventStop": "2021-10-24T13:12:00",
      "duration": 167,
      "status": "Genuine",
      "associatedSiteId": 110095,
      "outfallName": "LIDSEY",
      "isImpacting": true,
      "overFlowSiteId": 0,
      "historicSpillsList": [
        {
          "id": 344840603,
          "eventId": 514281,
          "siteUnitNumber": 12593,
          "bathingSite": "FELPHAM",
          "eventStart": "2021-10-24T10:25:00",
          "eventStop": "2021-10-24T13:12:00",
          "duration": 167,
          "status": "Genuine",
          "associatedSiteId": 110095,
          "outfallName": "LIDSEY",
          "isImpacting": true,
          "overFlowSiteId": 115776
        }
      ]
    },
    {
      "id": 344840601,
      "eventId": 513797,
      "siteUnitNumber": 12593,
      "bathingSite": "FELPHAM",
      "eventStart": "2021-10-23T03:08:00",
      "eventStop": "2021-10-23T20:02:00",
      "duration": 1014,
      "status": "Genuine",
      "associatedSiteId": 110095,
      "outfallName": "LIDSEY",
      "isImpacting": true,
      "overFlowSiteId": 0,
      "historicSpillsList": [
        {
          "id": 344840601,
          "eventId": 513797,
          "siteUnitNumber": 12593,
          "bathingSite": "FELPHAM",
          "eventStart": "2021-10-23T03:08:00",
          "eventStop": "2021-10-23T20:02:00",
          "duration": 1014,
          "status": "Genuine",
          "associatedSiteId": 110095,
          "outfallName": "LIDSEY",
          "isImpacting": true,
          "overFlowSiteId": 115776
        }
      ]
    },
    {
      "id": 344837474,
      "eventId": 514114,
      "siteUnitNumber": 12591,
      "bathingSite": "LITTLEHAMPTON",
      "eventStart": "2021-10-23T09:26:00",
      "eventStop": "2021-10-23T17:54:00",
      "duration": 508,
      "status": "Genuine",
      "associatedSiteId": 109965,
      "outfallName": "SEA ROAD LITTLEHAMPTON",
      "isImpacting": true,
      "overFlowSiteId": 0,
      "historicSpillsList": [
        {
          "id": 344837474,
          "eventId": 514114,
          "siteUnitNumber": 12591,
          "bathingSite": "LITTLEHAMPTON",
          "eventStart": "2021-10-23T09:26:00",
          "eventStop": "2021-10-23T17:54:00",
          "duration": 508,
          "status": "Genuine",
          "associatedSiteId": 109965,
          "outfallName": "SEA ROAD LITTLEHAMPTON",
          "isImpacting": true,
          "overFlowSiteId": 109368
        }
      ]
    },
    {
      "id": 344830640,
      "eventId": 513422,
      "siteUnitNumber": 12576,
      "bathingSite": "ST LEONARDS",
      "eventStart": "2021-10-22T07:38:39",
      "eventStop": "2021-10-23T03:15:00",
      "duration": 1176,
      "status": "Genuine",
      "associatedSiteId": 109903,
      "outfallName": "BEXHILL & HASTINGS NO2",
      "isImpacting": true,
      "overFlowSiteId": 0,
      "historicSpillsList": [
        {
          "id": 344830640,
          "eventId": 513422,
          "siteUnitNumber": 12576,
          "bathingSite": "ST LEONARDS",
          "eventStart": "2021-10-22T07:38:39",
          "eventStop": "2021-10-23T03:15:00",
          "duration": 1176,
          "status": "Genuine",
          "associatedSiteId": 109903,
          "outfallName": "BEXHILL & HASTINGS NO2",
          "isImpacting": true,
          "overFlowSiteId": 115398
        },
        {
          "id": 344830641,
          "eventId": 513422,
          "siteUnitNumber": 12577,
          "bathingSite": "BEXHILL",
          "eventStart": "2021-10-22T07:38:39",
          "eventStop": "2021-10-23T03:15:00",
          "duration": 1176,
          "status": "Genuine",
          "associatedSiteId": 109903,
          "outfallName": "BEXHILL & HASTINGS NO2",
          "isImpacting": true,
          "overFlowSiteId": 115398,
          "historicSpillsList": []
        }
      ]
    },
    {
      "id": 344840606,
      "eventId": 509444,
      "siteUnitNumber": 12593,
      "bathingSite": "FELPHAM",
      "eventStart": "2021-10-20T05:35:38",
      "eventStop": "2021-10-23T03:00:00",
      "duration": 4164,
      "status": "Genuine",
      "associatedSiteId": 110095,
      "outfallName": "LIDSEY",
      "isImpacting": true,
      "overFlowSiteId": 0,
      "historicSpillsList": [
        {
          "id": 344840606,
          "eventId": 509444,
          "siteUnitNumber": 12593,
          "bathingSite": "FELPHAM",
          "eventStart": "2021-10-20T05:35:38",
          "eventStop": "2021-10-23T03:00:00",
          "duration": 4164,
          "status": "Genuine",
          "associatedSiteId": 110095,
          "outfallName": "LIDSEY",
          "isImpacting": true,
          "overFlowSiteId": 115776
        }
      ]
    }
  ]
}