{
  "currentPage": 161,
  "totalItems": 21025,
  "totalPages": 841,
  "items": [
    {
      "id": 344781225,
      "eventId": 883245,
      "siteUnitNumber": 12601,
      "bathingSite": "BEACHLANDS CENTRAL",
      "eventStart": "2023-10-28T03:56:00",
      "eventStop": "2023-10-28T10:20:00",
      "duration": 384,
      "status": "Genuine",
      "associatedSiteId": 109823,
      "outfallName": "FORT CUMBERLAND NO1",
      "isImpacting": true,
      "overFlowSiteId": 0,
      "historicSpillsList": [
        {
          "id": 344781225,
          "eventId": 883245,
          "siteUnitNumber": 12601,
          "bathingSite": "BEACHLANDS CENTRAL",
          "eventStart": "2023-10-28T03:56:00",
          "eventStop": "2023-10-28T10:20:00",
          "duration": 384,
          "status": "Genuine",
          "associatedSiteId": 109823,
          "outfallName": "FORT CUMBERLAND NO1",
          "isImpacting": true,
          "overFlowSiteId": 110658
        },
        {
          "id": 344781226,
          "eventId": 883245,
          "siteUnitNumber": 12602,
          "bathingSite": "BEACHLANDS WEST",
          "eventStart": "2023-10-28T03:56:00",
          "eventStop": "2023-10-28T10:20:00",
          "duration": 384,
          "status": "Genuine",
          "associatedSiteId": 109823,
          "outfallName": "FORT CUMBERLAND NO1",
          "isImpacting": true,
          "overFlowSiteId": 110658,
          "historicSpillsList": []
        },
        {
          "id": 344781227,
          "eventId": 883245,
          "siteUnitNumber": 12603,
          "bathingSite": "EASTNEY",
          "eventStart": "2023-10-28T03:56:00",
          "eventStop": "2023-10-28T10:20:00",
          "duration": 384,
          "status": "Genuine",
          "associatedSiteId": 109823,
          "outfallName": "FORT CUMBERLAND NO1",
          "isImpacting": true,
          "overFlowSiteId": 110658,
          "historicSpillsList": []
        },
        {
          "id": 344781229,
          "eventId": 883245,
          "siteUnitNumber": 12661,
          "bathingSite": "LANGSTONE HARBOUR",
          "eventStart": "2023-10-28T03:56:00",
          "eventStop": "2023-10-28T10:20:00",
          "duration": 384,
          "status": "Genuine",
          "associatedSiteId": 109823,
          "outfallName": "FORT CUMBERLAND NO1",
          "isImpacting": true,
          "overFlowSiteId": 110658,
          "historicSpillsList": []
        }
      ]
    },
    {
      "id": 344790286,
      "eventId": 889538,
      "siteUnitNumber": 12619,
      "bathingSite": "SEAGROVE",
      "eventStart": "2023-10-28T09:25:00",
      "eventStop": "2023-10-28T10:16:00",
      "duration": 51,
      "status": "Genuine",
      "associatedSiteId": 109938,
      "outfallName": "THE POINT BEMBRIDGE",
      "isImpacting": false,
      "overFlowSiteId": 0,
      "historicSpillsList": []
    },
    {
      "id": 344774717,
      "eventId": 898857,
      "siteUnitNumber": 12616,
      "bathingSite": "GURNARD",
      "eventStart": "2023-10-28T05:51:00",
      "eventStop": "2023-10-28T10:12:00",
      "duration": 261,
      "status": "Genuine",
      "associatedSiteId": 109704,
      "outfallName": "EGYPT POINT COWES",
      "isImpacting": true,
      "overFlowSiteId": 0,
      "historicSpillsList": [
        {
          "id": 344774718,
          "eventId": 898857,
          "siteUnitNumber": 12617,
          "bathingSite": "COWES",
          "eventStart": "2023-10-28T05:51:00",
          "eventStop": "2023-10-28T10:12:00",
          "duration": 261,
          "status": "Genuine",
          "associatedSiteId": 109704,
          "outfallName": "EGYPT POINT COWES",
          "isImpacting": true,
          "overFlowSiteId": 116213,
          "historicSpillsList": []
        }
      ]
    },
    {
      "id": 344788566,
      "eventId": 883396,
      "siteUnitNumber": 12571,
      "bathingSite": "ST MARYS BAY (KENT)",
      "eventStart": "2023-10-28T08:18:00",
      "eventStop": "2023-10-28T09:58:00",
      "duration": 100,
      "status": "Genuine",
      "associatedSiteId": 109907,
      "outfallName": "QUEENS ROAD NEW ROMNEY",
      "isImpacting": false,
      "overFlowSiteId": 0,
      "historicSpillsList": []
    },
    {
      "id": 344784772,
      "eventId": 883497,
      "siteUnitNumber": 12568,
      "bathingSite": "SANDGATE",
      "eventStart": "2023-10-28T09:44:51",
      "eventStop": "2023-10-28T09:57:51",
      "duration": 13,
      "status": "Genuine",
      "associatedSiteId": 109896,
      "outfallName": "RANGE ROAD HYTHE K SHORT",
      "isImpacting": true,
      "overFlowSiteId": 0,
      "historicSpillsList": [
        {
          "id": 344784773,
          "eventId": 883497,
          "siteUnitNumber": 12569,
          "bathingSite": "HYTHE",
          "eventStart": "2023-10-28T09:44:51",
          "eventStop": "2023-10-28T09:57:51",
          "duration": 13,
          "status": "Genuine",
          "associatedSiteId": 109896,
          "outfallName": "RANGE ROAD HYTHE K SHORT",
          "isImpacting": true,
          "overFlowSiteId": 116112,
          "historicSpillsList": []
        }
      ]
    },
    {
      "id": 344783745,
      "eventId": 883422,
      "siteUnitNumber": 12579,
      "bathingSite": "PEVENSEY BAY",
      "eventStart": "2023-10-28T08:59:37",
      "eventStop": "2023-10-28T09:45:34",
      "duration": 45,
      "status": "Genuine",
      "associatedSiteId": 109888,
      "outfallName": "EASTBOURNE NO 2",
      "isImpacting": true,
      "overFlowSiteId": 0,
      "historicSpillsList": [
        {
          "id": 344783746,
          "eventId": 883422,
          "siteUnitNumber": 12580,
          "bathingSite": "EASTBOURNE",
          "eventStart": "2023-10-28T08:59:37",
          "eventStop": "2023-10-28T09:45:34",
          "duration": 45,
          "status": "Genuine",
          "associatedSiteId": 109888,
          "outfallName": "EASTBOURNE NO 2",
          "isImpacting": true,
          "overFlowSiteId": 115459,
          "historicSpillsList": []
        }
      ]
    },
    {
      "id": 344784770,
      "eventId": 883494,
      "siteUnitNumber": 12568,
      "bathingSite": "SANDGATE",
      "eventStart": "2023-10-28T09:18:58",
      "eventStop": "2023-10-28T09:36:40",
      "duration": 17,
      "status": "Genuine",
      "associatedSiteId": 109896,
      "outfallName": "RANGE ROAD HYTHE K SHORT",
      "isImpacting": true,
      "overFlowSiteId": 0,
      "historicSpillsList": [
        {
          "id": 344784771,
          "eventId": 883494,
          "siteUnitNumber": 12569,
          "bathingSite": "HYTHE",
          "eventStart": "2023-10-28T09:18:58",
          "eventStop": "2023-10-28T09:36:40",
          "duration": 17,
          "status": "Genuine",
          "associatedSiteId": 109896,
          "outfallName": "RANGE ROAD HYTHE K SHORT",
          "isImpacting": true,
          "overFlowSiteId": 116112,
          "historicSpillsList": []
        }
      ]
    },
    {
      "id": 344806859,
      "eventId": 883327,
      "siteUnitNumber": 12577,
      "bathingSite": "BEXHILL",
      "eventStart": "2023-10-28T07:44:40",
      "eventStop": "2023-10-28T09:36:00",
      "duration": 111,
      "status": "Genuine",
      "associatedSiteId": 111338,
      "outfallName": "GALLEY HILL BEXHILL",
      "isImpacting": true,
      "overFlowSiteId": 0,
      "historicSpillsList": [
        {
          "id": 344806859,
          "eventId": 883327,
          "siteUnitNumber": 12577,
          "bathingSite": "BEXHILL",
          "eventStart": "2023-10-28T07:44:40",
          "eventStop": "2023-10-28T09:36:00",
          "duration": 111,
          "status": "Genuine",
          "associatedSiteId": 111338,
          "outfallName": "GALLEY HILL BEXHILL",
          "isImpacting": true,
          "overFlowSiteId": 110665
        }
      ]
    },
    {
      "id": 344784774,
      "eventId": 883493,
      "siteUnitNumber": 12568,
      "bathingSite": "SANDGATE",
      "eventStart": "2023-10-28T08:50:18",
      "eventStop": "2023-10-28T09:12:13",
      "duration": 21,
      "status": "Genuine",
      "associatedSiteId": 109896,
      "outfallName": "RANGE ROAD HYTHE K SHORT",
      "isImpacting": true,
      "overFlowSiteId": 0,
      "historicSpillsList": [
        {
          "id": 344784775,
          "eventId": 883493,
          "siteUnitNumber": 12569,
          "bathingSite": "HYTHE",
          "eventStart": "2023-10-28T08:50:18",
          "eventStop": "2023-10-28T09:12:13",
          "duration": 21,
          "status": "Genuine",
          "associatedSiteId": 109896,
          "outfallName": "RANGE ROAD HYTHE K SHORT",
          "isImpacting": true,
          "overFlowSiteId": 116112,
          "historicSpillsList": []
        }
      ]
    },
    {
      "id": 344775585,
      "eventId": 883421,
      "siteUnitNumber": 12616,
      "bathingSite": "GURNARD",
      "eventStart": "2023-10-28T08:53:30",
      "eventStop": "2023-10-28T09:11:38",
      "duration": 18,
      "status": "Genuine",
      "associatedSiteId": 109706,
      "outfallName": "HIGH STREET COWES",
      "isImpacting": false,
      "overFlowSiteId": 0,
      "historicSpillsList": []
    },
    {
      "id": 344779368,
      "eventId": 888124,
      "siteUnitNumber": 12618,
      "bathingSite": "RYDE",
      "eventStart": "2023-10-28T01:07:00",
      "eventStop": "2023-10-28T08:59:00",
      "duration": 472,
      "status": "Genuine",
      "associatedSiteId": 109780,
      "outfallName": "LADIES WALK BINSTEAD",
      "isImpacting": true,
      "overFlowSiteId": 0,
      "historicSpillsList": [
        {
          "id": 344779368,
          "eventId": 888124,
          "siteUnitNumber": 12618,
          "bathingSite": "RYDE",
          "eventStart": "2023-10-28T01:07:00",
          "eventStop": "2023-10-28T08:59:00",
          "duration": 472,
          "status": "Genuine",
          "associatedSiteId": 109780,
          "outfallName": "LADIES WALK BINSTEAD",
          "isImpacting": true,
          "overFlowSiteId": 107406
        }
      ]
    },
    {
      "id": 344797738,
      "eventId": 883390,
      "siteUnitNumber": 12582,
      "bathingSite": "SEAFORD",
      "eventStart": "2023-10-28T08:41:20",
      "eventStop": "2023-10-28T08:46:47",
      "duration": 5,
      "status": "Genuine",
      "associatedSiteId": 110047,
      "outfallName": "CLIFF END SEAFORD",
      "isImpacting": true,
      "overFlowSiteId": 0,
      "historicSpillsList": [
        {
          "id": 344797738,
          "eventId": 883390,
          "siteUnitNumber": 12582,
          "bathingSite": "SEAFORD",
          "eventStart": "2023-10-28T08:41:20",
          "eventStop": "2023-10-28T08:46:47",
          "duration": 5,
          "status": "Genuine",
          "associatedSiteId": 110047,
          "outfallName": "CLIFF END SEAFORD",
          "isImpacting": true,
          "overFlowSiteId": 101257
        }
      ]
    },
    {
      "id": 344784778,
      "eventId": 883491,
      "siteUnitNumber": 12568,
      "bathingSite": "SANDGATE",
      "eventStart": "2023-10-28T08:00:53",
      "eventStop": "2023-10-28T08:45:20",
      "duration": 44,
      "status": "Genuine",
      "associatedSiteId": 109896,
      "outfallName": "RANGE ROAD HYTHE K SHORT",
      "isImpacting": true,
      "overFlowSiteId": 0,
      "historicSpillsList": [
        {
          "id": 344784779,
          "eventId": 883491,
          "siteUnitNumber": 12569,
          "bathingSite": "HYTHE",
          "eventStart": "2023-10-28T08:00:53",
          "eventStop": "2023-10-28T08:45:20",
          "duration": 44,
          "status": "Genuine",
          "associatedSiteId": 109896,
          "outfallName": "RANGE ROAD HYTHE K SHORT",
          "isImpacting": true,
          "overFlowSiteId": 116112,
          "historicSpillsList": []
        }
      ]
    },
    {
      "id": 344779549,
      "eventId": 883060,
      "siteUnitNumber": 12618,
      "bathingSite": "RYDE",
      "eventStart": "2023-10-28T06:08:00",
      "eventStop": "2023-10-28T08:42:00",
      "duration": 154,
      "status": "Genuine",
      "associatedSiteId": 109785,
      "outfallName": "SIMEON STREET RYDE",
      "isImpacting": true,
      "overFlowSiteId": 0,
      "historicSpillsList": [
        {
          "id": 344779549,
          "eventId": 883060,
          "siteUnitNumber": 12618,
          "bathingSite": "RYDE",
          "eventStart": "2023-10-28T06:08:00",
          "eventStop": "2023-10-28T08:42:00",
          "duration": 154,
          "status": "Genuine",
          "associatedSiteId": 109785,
          "outfallName": "SIMEON STREET RYDE",
          "isImpacting": true,
          "overFlowSiteId": 100129
        }
      ]
    },
    {
      "id": 344788812,
      "eventId": 886612,
      "siteUnitNumber": 12590,
      "bathingSite": "WORTHING",
      "eventStart": "2023-10-28T08:27:00",
      "eventStop": "2023-10-28T08:33:00",
      "duration": 6,
      "status": "Genuine",
      "associatedSiteId": 109912,
      "outfallName": "SEA LANE GORING",
      "isImpacting": false,
      "overFlowSiteId": 0,
      "historicSpillsList": []
    },
    {
      "id": 344797739,
      "eventId": 883308,
      "siteUnitNumber": 12582,
      "bathingSite": "SEAFORD",
      "eventStart": "2023-10-28T07:53:38",
      "eventStop": "2023-10-28T08:32:40",
      "duration": 39,
      "status": "Genuine",
      "associatedSiteId": 110047,
      "outfallName": "CLIFF END SEAFORD",
      "isImpacting": true,
      "overFlowSiteId": 0,
      "historicSpillsList": [
        {
          "id": 344797739,
          "eventId": 883308,
          "siteUnitNumber": 12582,
          "bathingSite": "SEAFORD",
          "eventStart": "2023-10-28T07:53:38",
          "eventStop": "2023-10-28T08:32:40",
          "duration": 39,
          "status": "Genuine",
          "associatedSiteId": 110047,
          "outfallName": "CLIFF END SEAFORD",
          "isImpacting": true,
          "overFlowSiteId": 101257
        }
      ]
    },
    {
      "id": 344783533,
      "eventId": 882434,
      "siteUnitNumber": 12662,
      "bathingSite": "CHICHESTER HARBOUR",
      "eventStart": "2023-10-28T05:53:00",
      "eventStop": "2023-10-28T08:16:00",
      "duration": 143,
      "status": "Genuine",
      "associatedSiteId": 109850,
      "outfallName": "THORNHAM",
      "isImpacting": true,
      "overFlowSiteId": 0,
      "historicSpillsList": [
        {
          "id": 344783533,
          "eventId": 882434,
          "siteUnitNumber": 12662,
          "bathingSite": "CHICHESTER HARBOUR",
          "eventStart": "2023-10-28T05:53:00",
          "eventStop": "2023-10-28T08:16:00",
          "duration": 143,
          "status": "Genuine",
          "associatedSiteId": 109850,
          "outfallName": "THORNHAM",
          "isImpacting": true,
          "overFlowSiteId": 115370
        }
      ]
    },
    {
      "id": 344806788,
      "eventId": 883065,
      "siteUnitNumber": 12616,
      "bathingSite": "GURNARD",
      "eventStart": "2023-10-28T05:00:32",
      "eventStop": "2023-10-28T08:04:47",
      "duration": 184,
      "status": "Genuine",
      "associatedSiteId": 111069,
      "outfallName": "MEDHAM FARM NORTHWOOD",
      "isImpacting": false,
      "overFlowSiteId": 0,
      "historicSpillsList": []
    },
    {
      "id": 344788811,
      "eventId": 886598,
      "siteUnitNumber": 12590,
      "bathingSite": "WORTHING",
      "eventStart": "2023-10-28T05:26:00",
      "eventStop": "2023-10-28T08:03:00",
      "duration": 157,
      "status": "Genuine",
      "associatedSiteId": 109912,
      "outfallName": "SEA LANE GORING",
      "isImpacting": false,
      "overFlowSiteId": 0,
      "historicSpillsList": []
    },
    {
      "id": 344789341,
      "eventId": 882390,
      "siteUnitNumber": 12586,
      "bathingSite": "HOVE",
      "eventStart": "2023-10-27T23:59:10",
      "eventStop": "2023-10-28T08:00:00",
      "duration": 480,
      "status": "Genuine",
      "associatedSiteId": 109929,
      "outfallName": "SHOREHAM NO1",
      "isImpacting": true,
      "overFlowSiteId": 0,
      "historicSpillsList": [
        {
          "id": 344789341,
          "eventId": 882390,
          "siteUnitNumber": 12586,
          "bathingSite": "HOVE",
          "eventStart": "2023-10-27T23:59:10",
          "eventStop": "2023-10-28T08:00:00",
          "duration": 480,
          "status": "Genuine",
          "associatedSiteId": 109929,
          "outfallName": "SHOREHAM NO1",
          "isImpacting": true,
          "overFlowSiteId": 115434
        },
        {
          "id": 344789342,
          "eventId": 882390,
          "siteUnitNumber": 12587,
          "bathingSite": "SOUTHWICK",
          "eventStart": "2023-10-27T23:59:10",
          "eventStop": "2023-10-28T08:00:00",
          "duration": 480,
          "status": "Genuine",
          "associatedSiteId": 109929,
          "outfallName": "SHOREHAM NO1",
          "isImpacting": true,
          "overFlowSiteId": 115434,
          "historicSpillsList": []
        },
        {
          "id": 344789343,
          "eventId": 882390,
          "siteUnitNumber": 12588,
          "bathingSite": "SHOREHAM BEACH",
          "eventStart": "2023-10-27T23:59:10",
          "eventStop": "2023-10-28T08:00:00",
          "duration": 480,
          "status": "Genuine",
          "associatedSiteId": 109929,
          "outfallName": "SHOREHAM NO1",
          "isImpacting": true,
          "overFlowSiteId": 115434,
          "historicSpillsList": []
        }
      ]
    },
    {
      "id": 344796362,
      "eventId": 887833,
      "siteUnitNumber": 12575,
      "bathingSite": "HASTINGS PELHAM BEACH",
      "eventStart": "2023-10-28T06:07:00",
      "eventStop": "2023-10-28T07:55:00",
      "duration": 108,
      "status": "Genuine",
      "associatedSiteId": 109982,
      "outfallName": "COOMBS HASTINGS",
      "isImpacting": true,
      "overFlowSiteId": 0,
      "historicSpillsList": [
        {
          "id": 344796363,
          "eventId": 887833,
          "siteUnitNumber": 12576,
          "bathingSite": "ST LEONARDS",
          "eventStart": "2023-10-28T06:07:00",
          "eventStop": "2023-10-28T07:55:00",
          "duration": 108,
          "status": "Genuine",
          "associatedSiteId": 109982,
          "outfallName": "COOMBS HASTINGS",
          "isImpacting": true,
          "overFlowSiteId": 110211,
          "historicSpillsList": []
        }
      ]
    },
    {
      "id": 344789320,
      "eventId": 883854,
      "siteUnitNumber": 12586,
      "bathingSite": "HOVE",
      "eventStart": "2023-10-28T02:38:00",
      "eventStop": "2023-10-28T07:54:00",
      "duration": 316,
      "status": "Genuine",
      "associatedSiteId": 109929,
      "outfallName": "SHOREHAM NO1",
      "isImpacting": true,
      "overFlowSiteId": 0,
      "historicSpillsList": [
        {
          "id": 344789320,
          "eventId": 883854,
          "siteUnitNumber": 12586,
          "bathingSite": "HOVE",
          "eventStart": "2023-10-28T02:38:00",
          "eventStop": "2023-10-28T07:54:00",
          "duration": 316,
          "status": "Genuine",
          "associatedSiteId": 109929,
          "outfallName": "SHOREHAM NO1",
          "isImpacting": true,
          "overFlowSiteId": 115434
        },
        {
          "id": 344789321,
          "eventId": 883854,
          "siteUnitNumber": 12587,
          "bathingSite": "SOUTHWICK",
          "eventStart": "2023-10-28T02:38:00",
          "eventStop": "2023-10-28T07:54:00",
          "duration": 316,
          "status": "Genuine",
          "associatedSiteId": 109929,
          "outfallName": "SHOREHAM NO1",
          "isImpacting": true,
          "overFlowSiteId": 115434,
          "historicSpillsList": []
        },
        {
          "id": 344789322,
          "eventId": 883854,
          "siteUnitNumber": 12588,
          "bathingSite": "SHOREHAM BEACH",
          "eventStart": "2023-10-28T02:38:00",
          "eventStop": "2023-10-28T07:54:00",
          "duration": 316,
          "status": "Genuine",
          "associatedSiteId": 109929,
          "outfallName": "SHOREHAM NO1",
          "isImpacting": true,
          "overFlowSiteId": 115434,
          "historicSpillsList": []
        }
      ]
    },
    {
      "id": 344792427,
      "eventId": 882131,
      "siteUnitNumber": 12594,
      "bathingSite": "BOGNOR REGIS EAST",
      "eventStart": "2023-10-27T16:58:00",
      "eventStop": "2023-10-28T07:44:00",
      "duration": 886,
      "status": "Genuine",
      "associatedSiteId": 109959,
      "outfallName": "WEST PARK BOGNOR REGIS",
      "isImpacting": true,
      "overFlowSiteId": 0,
      "historicSpillsList": [
        {
          "id": 344792427,
          "eventId": 882131,
          "siteUnitNumber": 12594,
          "bathingSite": "BOGNOR REGIS EAST",
          "eventStart": "2023-10-27T16:58:00",
          "eventStop": "2023-10-28T07:44:00",
          "duration": 886,
          "status": "Genuine",
          "associatedSiteId": 109959,
          "outfallName": "WEST PARK BOGNOR REGIS",
          "isImpacting": true,
          "overFlowSiteId": 108160
        }
      ]
    },
    {
      "id": 344784776,
      "eventId": 883293,
      "siteUnitNumber": 12568,
      "bathingSite": "SANDGATE",
      "eventStart": "2023-10-28T07:34:01",
      "eventStop": "2023-10-28T07:40:42",
      "duration": 6,
      "status": "Genuine",
      "associatedSiteId": 109896,
      "outfallName": "RANGE ROAD HYTHE K SHORT",
      "isImpacting": false,
      "overFlowSiteId": 0,
      "historicSpillsList": []
    },
    {
      "id": 344790289,
      "eventId": 889534,
      "siteUnitNumber": 12619,
      "bathingSite": "SEAGROVE",
      "eventStart": "2023-10-28T07:04:00",
      "eventStop": "2023-10-28T07:39:00",
      "duration": 35,
      "status": "Genuine",
      "associatedSiteId": 109938,
      "outfallName": "THE POINT BEMBRIDGE",
      "isImpacting": true,
      "overFlowSiteId": 0,
      "historicSpillsList": [
        {
          "id": 344790290,
          "eventId": 889534,
          "siteUnitNumber": 12620,
          "bathingSite": "ST HELENS",
          "eventStart": "2023-10-28T07:04:00",
          "eventStop": "2023-10-28T07:39:00",
          "duration": 35,
          "status": "Genuine",
          "associatedSiteId": 109938,
          "outfallName": "THE POINT BEMBRIDGE",
          "isImpacting": true,
          "overFlowSiteId": 110194,
          "historicSpillsList": []
        }
      ]
    }
  ]
}