{
  "currentPage": 221,
  "totalItems": 21025,
  "totalPages": 841,
  "items": [
    {
      "id": 344776017,
      "eventId": 859382,
      "siteUnitNumber": 12616,
      "bathingSite": "GURNARD",
      "eventStart": "2023-09-17T10:41:03",
      "eventStop": "2023-09-17T10:49:00",
      "duration": 7,
      "status": "Genuine",
      "associatedSiteId": 109707,
      "outfallName": "MEDINA ROAD COWES",
      "isImpacting": false,
      "overFlowSiteId": 0,
      "historicSpillsList": []
    },
    {
      "id": 344779441,
      "eventId": 859374,
      "siteUnitNumber": 12618,
      "bathingSite": "RYDE",
      "eventStart": "2023-09-17T10:30:00",
      "eventStop": "2023-09-17T10:49:00",
      "duration": 19,
      "status": "Genuine",
      "associatedSiteId": 109781,
      "outfallName": "SPENCER ROAD RYDE",
      "isImpacting": true,
      "overFlowSiteId": 0,
      "historicSpillsList": [
        {
          "id": 344779441,
          "eventId": 859374,
          "siteUnitNumber": 12618,
          "bathingSite": "RYDE",
          "eventStart": "2023-09-17T10:30:00",
          "eventStop": "2023-09-17T10:49:00",
          "duration": 19,
          "status": "Genuine",
          "associatedSiteId": 109781,
          "outfallName": "SPENCER ROAD RYDE",
          "isImpacting": true,
          "overFlowSiteId": 108566
        }
      ]
    },
    {
      "id": 344797142,
      "eventId": 859368,
      "siteUnitNumber": 12623,
      "bathingSite": "YAVERLAND",
      "eventStart": "2023-09-17T10:39:15",
      "eventStop": "2023-09-17T10:48:12",
      "duration": 8,
      "status": "Genuine",
      "associatedSiteId": 110024,
      "outfallName": "EASTERN GARDENS SANDOWN",
      "isImpacting": true,
      "overFlowSiteId": 0,
      "historicSpillsList": [
        {
          "id": 344797142,
          "eventId": 859368,
          "siteUnitNumber": 12623,
          "bathingSite": "YAVERLAND",
          "eventStart": "2023-09-17T10:39:15",
          "eventStop": "2023-09-17T10:48:12",
          "duration": 8,
          "status": "Genuine",
          "associatedSiteId": 110024,
          "outfallName": "EASTERN GARDENS SANDOWN",
          "isImpacting": true,
          "overFlowSiteId": 108039
        },
        {
          "id": 344797143,
          "eventId": 859368,
          "siteUnitNumber": 12624,
          "bathingSite": "SANDOWN",
          "eventStart": "2023-09-17T10:39:15",
          "eventStop": "2023-09-17T10:48:12",
          "duration": 8,
          "status": "Genuine",
          "associatedSiteId": 110024,
          "outfallName": "EASTERN GARDENS SANDOWN",
          "isImpacting": true,
          "overFlowSiteId": 108039,
          "historicSpillsList": []
        },
        {
          "id": 344797150,
          "eventId": 859368,
          "siteUnitNumber": 12625,
          "bathingSite": "SHANKLIN",
          "eventStart": "2023-09-17T10:39:15",
          "eventStop": "2023-09-17T10:48:12",
          "duration": 8,
          "status": "Genuine",
          "associatedSiteId": 110024,
          "outfallName": "EASTERN GARDENS SANDOWN",
          "isImpacting": true,
          "overFlowSiteId": 108039,
          "historicSpillsList": []
        }
      ]
    },
    {
      "id": 344779483,
      "eventId": 859381,
      "siteUnitNumber": 12618,
      "bathingSite": "RYDE",
      "eventStart": "2023-09-17T10:38:19",
      "eventStop": "2023-09-17T10:47:09",
      "duration": 8,
      "status": "Not Genuine",
      "associatedSiteId": 109782,
      "outfallName": "AUGUSTA ROAD RYDE",
      "isImpacting": true,
      "overFlowSiteId": 0,
      "historicSpillsList": []
    },
    {
      "id": 344772169,
      "eventId": 857854,
      "siteUnitNumber": 12616,
      "bathingSite": "GURNARD",
      "eventStart": "2023-09-12T18:38:44",
      "eventStop": "2023-09-12T19:28:42",
      "duration": 49,
      "status": "Not Genuine",
      "associatedSiteId": 109654,
      "outfallName": "WHITFORD BRIDGE NORTHWOOD",
      "isImpacting": true,
      "overFlowSiteId": 0,
      "historicSpillsList": []
    },
    {
      "id": 344781614,
      "eventId": 857819,
      "siteUnitNumber": 12548,
      "bathingSite": "TANKERTON",
      "eventStart": "2023-09-12T17:00:04",
      "eventStop": "2023-09-12T17:43:19",
      "duration": 43,
      "status": "Genuine",
      "associatedSiteId": 109830,
      "outfallName": "SWALECLIFFE NO1",
      "isImpacting": false,
      "overFlowSiteId": 0,
      "historicSpillsList": []
    },
    {
      "id": 344782486,
      "eventId": 857814,
      "siteUnitNumber": 12547,
      "bathingSite": "WEST BEACH WHITSTABLE",
      "eventStart": "2023-09-12T16:23:36",
      "eventStop": "2023-09-12T16:37:43",
      "duration": 14,
      "status": "Genuine",
      "associatedSiteId": 109831,
      "outfallName": "TANKERTON CIRCUS",
      "isImpacting": false,
      "overFlowSiteId": 0,
      "historicSpillsList": []
    },
    {
      "id": 344782484,
      "eventId": 857815,
      "siteUnitNumber": 12547,
      "bathingSite": "WEST BEACH WHITSTABLE",
      "eventStart": "2023-09-12T16:25:45",
      "eventStop": "2023-09-12T16:32:00",
      "duration": 6,
      "status": "Genuine",
      "associatedSiteId": 109831,
      "outfallName": "TANKERTON CIRCUS",
      "isImpacting": false,
      "overFlowSiteId": 0,
      "historicSpillsList": []
    },
    {
      "id": 344807063,
      "eventId": 857669,
      "siteUnitNumber": 12549,
      "bathingSite": "HERNE BAY CENTRAL",
      "eventStart": "2023-09-12T01:52:00",
      "eventStop": "2023-09-12T01:54:00",
      "duration": 2,
      "status": "Not Genuine",
      "associatedSiteId": 111724,
      "outfallName": "GAINSBOROUGH DRIVE HERNE BAY",
      "isImpacting": false,
      "overFlowSiteId": 0,
      "historicSpillsList": []
    },
    {
      "id": 344788948,
      "eventId": 879299,
      "siteUnitNumber": 12588,
      "bathingSite": "SHOREHAM BEACH",
      "eventStart": "2023-09-11T12:03:00",
      "eventStop": "2023-09-11T12:22:00",
      "duration": 19,
      "status": "Genuine",
      "associatedSiteId": 109922,
      "outfallName": "ROPETACKLE STREET SHOREHAM",
      "isImpacting": false,
      "overFlowSiteId": 0,
      "historicSpillsList": []
    },
    {
      "id": 344794487,
      "eventId": 857197,
      "siteUnitNumber": 12591,
      "bathingSite": "LITTLEHAMPTON",
      "eventStart": "2023-09-10T05:32:51",
      "eventStop": "2023-09-10T06:30:00",
      "duration": 57,
      "status": "Not Genuine",
      "associatedSiteId": 109965,
      "outfallName": "SEA ROAD LITTLEHAMPTON",
      "isImpacting": false,
      "overFlowSiteId": 0,
      "historicSpillsList": []
    },
    {
      "id": 344770361,
      "eventId": 857169,
      "siteUnitNumber": 12544,
      "bathingSite": "SHEERNESS",
      "eventStart": "2023-09-10T02:26:00",
      "eventStop": "2023-09-10T02:32:00",
      "duration": 6,
      "status": "Not Genuine",
      "associatedSiteId": 109621,
      "outfallName": "NOREEN AVENUE SHEERNESS",
      "isImpacting": true,
      "overFlowSiteId": 0,
      "historicSpillsList": []
    },
    {
      "id": 344769736,
      "eventId": 856550,
      "siteUnitNumber": 12618,
      "bathingSite": "RYDE",
      "eventStart": "2023-09-08T05:34:16",
      "eventStop": "2023-09-08T06:59:32",
      "duration": 85,
      "status": "Not Genuine",
      "associatedSiteId": 102050,
      "outfallName": "ESPLANADE SEAVIEW",
      "isImpacting": false,
      "overFlowSiteId": 0,
      "historicSpillsList": []
    },
    {
      "id": 344782852,
      "eventId": 856525,
      "siteUnitNumber": 12547,
      "bathingSite": "WEST BEACH WHITSTABLE",
      "eventStart": "2023-09-07T22:26:00",
      "eventStop": "2023-09-07T22:31:00",
      "duration": 5,
      "status": "Not Genuine",
      "associatedSiteId": 109832,
      "outfallName": "GORREL NO1",
      "isImpacting": false,
      "overFlowSiteId": 0,
      "historicSpillsList": []
    },
    {
      "id": 344770363,
      "eventId": 855932,
      "siteUnitNumber": 12544,
      "bathingSite": "SHEERNESS",
      "eventStart": "2023-09-06T15:38:00",
      "eventStop": "2023-09-06T15:50:00",
      "duration": 12,
      "status": "Not Genuine",
      "associatedSiteId": 109621,
      "outfallName": "NOREEN AVENUE SHEERNESS",
      "isImpacting": true,
      "overFlowSiteId": 0,
      "historicSpillsList": []
    },
    {
      "id": 344789069,
      "eventId": 855511,
      "siteUnitNumber": 12587,
      "bathingSite": "SOUTHWICK",
      "eventStart": "2023-09-05T17:00:00",
      "eventStop": "2023-09-05T17:06:00",
      "duration": 6,
      "status": "Not Genuine",
      "associatedSiteId": 109923,
      "outfallName": "THE GREEN SOUTHWICK",
      "isImpacting": false,
      "overFlowSiteId": 0,
      "historicSpillsList": []
    },
    {
      "id": 344773739,
      "eventId": 854306,
      "siteUnitNumber": 12616,
      "bathingSite": "GURNARD",
      "eventStart": "2023-09-01T23:10:22",
      "eventStop": "2023-09-02T01:00:00",
      "duration": 109,
      "status": "Not Genuine",
      "associatedSiteId": 109700,
      "outfallName": "MARKET HILL COWES",
      "isImpacting": false,
      "overFlowSiteId": 0,
      "historicSpillsList": []
    },
    {
      "id": 344796969,
      "eventId": 854113,
      "siteUnitNumber": 12546,
      "bathingSite": "LEYSDOWN",
      "eventStart": "2023-09-01T16:51:49",
      "eventStop": "2023-09-01T17:20:00",
      "duration": 28,
      "status": "Genuine",
      "associatedSiteId": 109998,
      "outfallName": "MUSTARDS ROAD LEYSDOWN ON SEA",
      "isImpacting": true,
      "overFlowSiteId": 0,
      "historicSpillsList": [
        {
          "id": 344796969,
          "eventId": 854113,
          "siteUnitNumber": 12546,
          "bathingSite": "LEYSDOWN",
          "eventStart": "2023-09-01T16:51:49",
          "eventStop": "2023-09-01T17:20:00",
          "duration": 28,
          "status": "Genuine",
          "associatedSiteId": 109998,
          "outfallName": "MUSTARDS ROAD LEYSDOWN ON SEA",
          "isImpacting": true,
          "overFlowSiteId": 108113
        }
      ]
    },
    {
      "id": 344775719,
      "eventId": 854035,
      "siteUnitNumber": 12616,
      "bathingSite": "GURNARD",
      "eventStart": "2023-09-01T14:12:59",
      "eventStop": "2023-09-01T14:20:44",
      "duration": 7,
      "status": "Genuine",
      "associatedSiteId": 109706,
      "outfallName": "HIGH STREET COWES",
      "isImpacting": false,
      "overFlowSiteId": 0,
      "historicSpillsList": []
    },
    {
      "id": 344773741,
      "eventId": 853970,
      "siteUnitNumber": 12616,
      "bathingSite": "GURNARD",
      "eventStart": "2023-09-01T10:59:35",
      "eventStop": "2023-09-01T14:15:00",
      "duration": 195,
      "status": "Not Genuine",
      "associatedSiteId": 109700,
      "outfallName": "MARKET HILL COWES",
      "isImpacting": false,
      "overFlowSiteId": 0,
      "historicSpillsList": []
    },
    {
      "id": 344790761,
      "eventId": 854008,
      "siteUnitNumber": 12619,
      "bathingSite": "SEAGROVE",
      "eventStart": "2023-09-01T12:27:00",
      "eventStop": "2023-09-01T13:44:00",
      "duration": 77,
      "status": "Genuine",
      "associatedSiteId": 109941,
      "outfallName": "LATIMER ROAD ST HELENS",
      "isImpacting": false,
      "overFlowSiteId": 0,
      "historicSpillsList": []
    },
    {
      "id": 344786950,
      "eventId": 853923,
      "siteUnitNumber": 12576,
      "bathingSite": "ST LEONARDS",
      "eventStart": "2023-09-01T08:42:02",
      "eventStop": "2023-09-01T12:37:38",
      "duration": 235,
      "status": "Genuine",
      "associatedSiteId": 109903,
      "outfallName": "BEXHILL & HASTINGS NO2",
      "isImpacting": true,
      "overFlowSiteId": 0,
      "historicSpillsList": [
        {
          "id": 344786950,
          "eventId": 853923,
          "siteUnitNumber": 12576,
          "bathingSite": "ST LEONARDS",
          "eventStart": "2023-09-01T08:42:02",
          "eventStop": "2023-09-01T12:37:38",
          "duration": 235,
          "status": "Genuine",
          "associatedSiteId": 109903,
          "outfallName": "BEXHILL & HASTINGS NO2",
          "isImpacting": true,
          "overFlowSiteId": 115398
        },
        {
          "id": 344786951,
          "eventId": 853923,
          "siteUnitNumber": 12577,
          "bathingSite": "BEXHILL",
          "eventStart": "2023-09-01T08:42:02",
          "eventStop": "2023-09-01T12:37:38",
          "duration": 235,
          "status": "Genuine",
          "associatedSiteId": 109903,
          "outfallName": "BEXHILL & HASTINGS NO2",
          "isImpacting": true,
          "overFlowSiteId": 115398,
          "historicSpillsList": []
        }
      ]
    },
    {
      "id": 344794486,
      "eventId": 853891,
      "siteUnitNumber": 12591,
      "bathingSite": "LITTLEHAMPTON",
      "eventStart": "2023-09-01T07:09:04",
      "eventStop": "2023-09-01T12:31:36",
      "duration": 322,
      "status": "Not Genuine",
      "associatedSiteId": 109965,
      "outfallName": "SEA ROAD LITTLEHAMPTON",
      "isImpacting": true,
      "overFlowSiteId": 0,
      "historicSpillsList": []
    },
    {
      "id": 344777916,
      "eventId": 854395,
      "siteUnitNumber": 12617,
      "bathingSite": "COWES",
      "eventStart": "2023-09-01T03:58:00",
      "eventStop": "2023-09-01T11:23:00",
      "duration": 445,
      "status": "Genuine",
      "associatedSiteId": 109777,
      "outfallName": "APPLEY PARK RYDE TRANSFER",
      "isImpacting": true,
      "overFlowSiteId": 0,
      "historicSpillsList": [
        {
          "id": 344777917,
          "eventId": 854395,
          "siteUnitNumber": 12618,
          "bathingSite": "RYDE",
          "eventStart": "2023-09-01T03:58:00",
          "eventStop": "2023-09-01T11:23:00",
          "duration": 445,
          "status": "Genuine",
          "associatedSiteId": 109777,
          "outfallName": "APPLEY PARK RYDE TRANSFER",
          "isImpacting": true,
          "overFlowSiteId": 108941,
          "historicSpillsList": []
        }
      ]
    },
    {
      "id": 344798160,
      "eventId": 854402,
      "siteUnitNumber": 12622,
      "bathingSite": "WHITECLIFF BAY",
      "eventStart": "2023-09-01T10:13:00",
      "eventStop": "2023-09-01T10:28:00",
      "duration": 15,
      "status": "Genuine",
      "associatedSiteId": 110096,
      "outfallName": "SANDOWN NO1",
      "isImpacting": false,
      "overFlowSiteId": 0,
      "historicSpillsList": []
    }
  ]
}