{
  "currentPage": 575,
  "totalItems": 21025,
  "totalPages": 841,
  "items": [
    {
      "id": 344849346,
      "eventId": 600959,
      "siteUnitNumber": 12573,
      "bathingSite": "CAMBER",
      "eventStart": "2022-05-20T16:52:00",
      "eventStop": "2022-05-20T17:22:00",
      "duration": 30,
      "status": "Genuine",
      "associatedSiteId": 110958,
      "outfallName": "RYE",
      "isImpacting": true,
      "overFlowSiteId": 0,
      "historicSpillsList": [
        {
          "id": 344849346,
          "eventId": 600959,
          "siteUnitNumber": 12573,
          "bathingSite": "CAMBER",
          "eventStart": "2022-05-20T16:52:00",
          "eventStop": "2022-05-20T17:22:00",
          "duration": 30,
          "status": "Genuine",
          "associatedSiteId": 110958,
          "outfallName": "RYE",
          "isImpacting": true,
          "overFlowSiteId": 115433
        }
      ]
    },
    {
      "id": 344849345,
      "eventId": 600813,
      "siteUnitNumber": 12573,
      "bathingSite": "CAMBER",
      "eventStart": "2022-05-20T14:15:00",
      "eventStop": "2022-05-20T16:12:00",
      "duration": 117,
      "status": "Genuine",
      "associatedSiteId": 110958,
      "outfallName": "RYE",
      "isImpacting": true,
      "overFlowSiteId": 0,
      "historicSpillsList": [
        {
          "id": 344849345,
          "eventId": 600813,
          "siteUnitNumber": 12573,
          "bathingSite": "CAMBER",
          "eventStart": "2022-05-20T14:15:00",
          "eventStop": "2022-05-20T16:12:00",
          "duration": 117,
          "status": "Genuine",
          "associatedSiteId": 110958,
          "outfallName": "RYE",
          "isImpacting": true,
          "overFlowSiteId": 115433
        }
      ]
    },
    {
      "id": 344849075,
      "eventId": 600304,
      "siteUnitNumber": 12582,
      "bathingSite": "SEAFORD",
      "eventStart": "2022-05-20T09:12:56",
      "eventStop": "2022-05-20T14:20:04",
      "duration": 307,
      "status": "Genuine",
      "associatedSiteId": 110920,
      "outfallName": "NEWHAVEN",
      "isImpacting": true,
      "overFlowSiteId": 0,
      "historicSpillsList": [
        {
          "id": 344849075,
          "eventId": 600304,
          "siteUnitNumber": 12582,
          "bathingSite": "SEAFORD",
          "eventStart": "2022-05-20T09:12:56",
          "eventStop": "2022-05-20T14:20:04",
          "duration": 307,
          "status": "Genuine",
          "associatedSiteId": 110920,
          "outfallName": "NEWHAVEN",
          "isImpacting": true,
          "overFlowSiteId": 116065
        }
      ]
    },
    {
      "id": 344812760,
      "eventId": 600450,
      "siteUnitNumber": 12544,
      "bathingSite": "SHEERNESS",
      "eventStart": "2022-05-20T10:36:00",
      "eventStop": "2022-05-20T14:10:00",
      "duration": 214,
      "status": "Genuine",
      "associatedSiteId": 109616,
      "outfallName": "SOUTH STREET QUEENBOROUGH",
      "isImpacting": true,
      "overFlowSiteId": 0,
      "historicSpillsList": [
        {
          "id": 344812760,
          "eventId": 600450,
          "siteUnitNumber": 12544,
          "bathingSite": "SHEERNESS",
          "eventStart": "2022-05-20T10:36:00",
          "eventStop": "2022-05-20T14:10:00",
          "duration": 214,
          "status": "Genuine",
          "associatedSiteId": 109616,
          "outfallName": "SOUTH STREET QUEENBOROUGH",
          "isImpacting": true,
          "overFlowSiteId": 108732
        }
      ]
    },
    {
      "id": 344825540,
      "eventId": 600541,
      "siteUnitNumber": 12547,
      "bathingSite": "WEST BEACH WHITSTABLE",
      "eventStart": "2022-05-20T11:00:59",
      "eventStop": "2022-05-20T13:26:57",
      "duration": 145,
      "status": "Genuine",
      "associatedSiteId": 109832,
      "outfallName": "GORREL NO1",
      "isImpacting": true,
      "overFlowSiteId": 0,
      "historicSpillsList": [
        {
          "id": 344825540,
          "eventId": 600541,
          "siteUnitNumber": 12547,
          "bathingSite": "WEST BEACH WHITSTABLE",
          "eventStart": "2022-05-20T11:00:59",
          "eventStop": "2022-05-20T13:26:57",
          "duration": 145,
          "status": "Genuine",
          "associatedSiteId": 109832,
          "outfallName": "GORREL NO1",
          "isImpacting": true,
          "overFlowSiteId": 103279
        },
        {
          "id": 344825541,
          "eventId": 600541,
          "siteUnitNumber": 12548,
          "bathingSite": "TANKERTON",
          "eventStart": "2022-05-20T11:00:59",
          "eventStop": "2022-05-20T13:26:57",
          "duration": 145,
          "status": "Genuine",
          "associatedSiteId": 109832,
          "outfallName": "GORREL NO1",
          "isImpacting": true,
          "overFlowSiteId": 103279,
          "historicSpillsList": []
        }
      ]
    },
    {
      "id": 344822769,
      "eventId": 600537,
      "siteUnitNumber": 12567,
      "bathingSite": "FOLKESTONE",
      "eventStart": "2022-05-20T10:59:43",
      "eventStop": "2022-05-20T13:12:47",
      "duration": 133,
      "status": "Not Genuine",
      "associatedSiteId": 109794,
      "outfallName": "GRANVILLE PARADE SANDGATE",
      "isImpacting": true,
      "overFlowSiteId": 0,
      "historicSpillsList": []
    },
    {
      "id": 344812668,
      "eventId": 600472,
      "siteUnitNumber": 12544,
      "bathingSite": "SHEERNESS",
      "eventStart": "2022-05-20T10:44:11",
      "eventStop": "2022-05-20T13:11:00",
      "duration": 146,
      "status": "Genuine",
      "associatedSiteId": 109614,
      "outfallName": "BRIELLE WAY WESTMINSTER",
      "isImpacting": true,
      "overFlowSiteId": 0,
      "historicSpillsList": [
        {
          "id": 344812668,
          "eventId": 600472,
          "siteUnitNumber": 12544,
          "bathingSite": "SHEERNESS",
          "eventStart": "2022-05-20T10:44:11",
          "eventStop": "2022-05-20T13:11:00",
          "duration": 146,
          "status": "Genuine",
          "associatedSiteId": 109614,
          "outfallName": "BRIELLE WAY WESTMINSTER",
          "isImpacting": true,
          "overFlowSiteId": 108810
        }
      ]
    },
    {
      "id": 344849566,
      "eventId": 600497,
      "siteUnitNumber": 12576,
      "bathingSite": "ST LEONARDS",
      "eventStart": "2022-05-20T10:50:26",
      "eventStop": "2022-05-20T13:03:27",
      "duration": 133,
      "status": "Genuine",
      "associatedSiteId": 111370,
      "outfallName": "YORK ROAD BEXHILL",
      "isImpacting": true,
      "overFlowSiteId": 0,
      "historicSpillsList": [
        {
          "id": 344849566,
          "eventId": 600497,
          "siteUnitNumber": 12576,
          "bathingSite": "ST LEONARDS",
          "eventStart": "2022-05-20T10:50:26",
          "eventStop": "2022-05-20T13:03:27",
          "duration": 133,
          "status": "Genuine",
          "associatedSiteId": 111370,
          "outfallName": "YORK ROAD BEXHILL",
          "isImpacting": true,
          "overFlowSiteId": 111906
        },
        {
          "id": 344849567,
          "eventId": 600497,
          "siteUnitNumber": 12577,
          "bathingSite": "BEXHILL",
          "eventStart": "2022-05-20T10:50:26",
          "eventStop": "2022-05-20T13:03:27",
          "duration": 133,
          "status": "Genuine",
          "associatedSiteId": 111370,
          "outfallName": "YORK ROAD BEXHILL",
          "isImpacting": true,
          "overFlowSiteId": 111906,
          "historicSpillsList": []
        }
      ]
    },
    {
      "id": 344826397,
      "eventId": 600889,
      "siteUnitNumber": 12579,
      "bathingSite": "PEVENSEY BAY",
      "eventStart": "2022-05-20T12:45:00",
      "eventStop": "2022-05-20T13:00:00",
      "duration": 15,
      "status": "Not Genuine",
      "associatedSiteId": 109888,
      "outfallName": "EASTBOURNE NO 2",
      "isImpacting": true,
      "overFlowSiteId": 0,
      "historicSpillsList": []
    },
    {
      "id": 344839652,
      "eventId": 600628,
      "siteUnitNumber": 12567,
      "bathingSite": "FOLKESTONE",
      "eventStart": "2022-05-20T11:18:38",
      "eventStop": "2022-05-20T12:49:00",
      "duration": 90,
      "status": "Genuine",
      "associatedSiteId": 110010,
      "outfallName": "THE STADE FOLKESTONE",
      "isImpacting": true,
      "overFlowSiteId": 0,
      "historicSpillsList": [
        {
          "id": 344839652,
          "eventId": 600628,
          "siteUnitNumber": 12567,
          "bathingSite": "FOLKESTONE",
          "eventStart": "2022-05-20T11:18:38",
          "eventStop": "2022-05-20T12:49:00",
          "duration": 90,
          "status": "Genuine",
          "associatedSiteId": 110010,
          "outfallName": "THE STADE FOLKESTONE",
          "isImpacting": true,
          "overFlowSiteId": 108909
        }
      ]
    },
    {
      "id": 344836524,
      "eventId": 600729,
      "siteUnitNumber": 12594,
      "bathingSite": "BOGNOR REGIS EAST",
      "eventStart": "2022-05-20T12:43:23",
      "eventStop": "2022-05-20T12:47:00",
      "duration": 3,
      "status": "Genuine",
      "associatedSiteId": 109959,
      "outfallName": "WEST PARK BOGNOR REGIS",
      "isImpacting": true,
      "overFlowSiteId": 0,
      "historicSpillsList": [
        {
          "id": 344836524,
          "eventId": 600729,
          "siteUnitNumber": 12594,
          "bathingSite": "BOGNOR REGIS EAST",
          "eventStart": "2022-05-20T12:43:23",
          "eventStop": "2022-05-20T12:47:00",
          "duration": 3,
          "status": "Genuine",
          "associatedSiteId": 109959,
          "outfallName": "WEST PARK BOGNOR REGIS",
          "isImpacting": true,
          "overFlowSiteId": 108160
        },
        {
          "id": 344836525,
          "eventId": 600729,
          "siteUnitNumber": 12595,
          "bathingSite": "BOGNOR REGIS (ALDWICK)",
          "eventStart": "2022-05-20T12:43:23",
          "eventStop": "2022-05-20T12:47:00",
          "duration": 3,
          "status": "Genuine",
          "associatedSiteId": 109959,
          "outfallName": "WEST PARK BOGNOR REGIS",
          "isImpacting": true,
          "overFlowSiteId": 108160,
          "historicSpillsList": []
        },
        {
          "id": 344836526,
          "eventId": 600729,
          "siteUnitNumber": 12596,
          "bathingSite": "PAGHAM",
          "eventStart": "2022-05-20T12:43:23",
          "eventStop": "2022-05-20T12:47:00",
          "duration": 3,
          "status": "Genuine",
          "associatedSiteId": 109959,
          "outfallName": "WEST PARK BOGNOR REGIS",
          "isImpacting": true,
          "overFlowSiteId": 108160,
          "historicSpillsList": []
        }
      ]
    },
    {
      "id": 344836530,
      "eventId": 600273,
      "siteUnitNumber": 12594,
      "bathingSite": "BOGNOR REGIS EAST",
      "eventStart": "2022-05-20T08:15:00",
      "eventStop": "2022-05-20T12:06:00",
      "duration": 231,
      "status": "Genuine",
      "associatedSiteId": 109959,
      "outfallName": "WEST PARK BOGNOR REGIS",
      "isImpacting": true,
      "overFlowSiteId": 0,
      "historicSpillsList": [
        {
          "id": 344836530,
          "eventId": 600273,
          "siteUnitNumber": 12594,
          "bathingSite": "BOGNOR REGIS EAST",
          "eventStart": "2022-05-20T08:15:00",
          "eventStop": "2022-05-20T12:06:00",
          "duration": 231,
          "status": "Genuine",
          "associatedSiteId": 109959,
          "outfallName": "WEST PARK BOGNOR REGIS",
          "isImpacting": true,
          "overFlowSiteId": 108160
        },
        {
          "id": 344836522,
          "eventId": 600273,
          "siteUnitNumber": 12595,
          "bathingSite": "BOGNOR REGIS (ALDWICK)",
          "eventStart": "2022-05-20T08:15:00",
          "eventStop": "2022-05-20T12:06:00",
          "duration": 231,
          "status": "Genuine",
          "associatedSiteId": 109959,
          "outfallName": "WEST PARK BOGNOR REGIS",
          "isImpacting": true,
          "overFlowSiteId": 108160,
          "historicSpillsList": []
        },
        {
          "id": 344836523,
          "eventId": 600273,
          "siteUnitNumber": 12596,
          "bathingSite": "PAGHAM",
          "eventStart": "2022-05-20T08:15:00",
          "eventStop": "2022-05-20T12:06:00",
          "duration": 231,
          "status": "Genuine",
          "associatedSiteId": 109959,
          "outfallName": "WEST PARK BOGNOR REGIS",
          "isImpacting": true,
          "overFlowSiteId": 108160,
          "historicSpillsList": []
        }
      ]
    },
    {
      "id": 344832212,
      "eventId": 600341,
      "siteUnitNumber": 12587,
      "bathingSite": "SOUTHWICK",
      "eventStart": "2022-05-20T09:27:47",
      "eventStop": "2022-05-20T12:04:05",
      "duration": 156,
      "status": "Genuine",
      "associatedSiteId": 109929,
      "outfallName": "SHOREHAM NO1",
      "isImpacting": true,
      "overFlowSiteId": 0,
      "historicSpillsList": [
        {
          "id": 344832212,
          "eventId": 600341,
          "siteUnitNumber": 12587,
          "bathingSite": "SOUTHWICK",
          "eventStart": "2022-05-20T09:27:47",
          "eventStop": "2022-05-20T12:04:05",
          "duration": 156,
          "status": "Genuine",
          "associatedSiteId": 109929,
          "outfallName": "SHOREHAM NO1",
          "isImpacting": true,
          "overFlowSiteId": 115434
        },
        {
          "id": 344832213,
          "eventId": 600341,
          "siteUnitNumber": 12588,
          "bathingSite": "SHOREHAM BEACH",
          "eventStart": "2022-05-20T09:27:47",
          "eventStop": "2022-05-20T12:04:05",
          "duration": 156,
          "status": "Genuine",
          "associatedSiteId": 109929,
          "outfallName": "SHOREHAM NO1",
          "isImpacting": true,
          "overFlowSiteId": 115434,
          "historicSpillsList": []
        },
        {
          "id": 344832217,
          "eventId": 600341,
          "siteUnitNumber": 12586,
          "bathingSite": "HOVE",
          "eventStart": "2022-05-20T09:27:47",
          "eventStop": "2022-05-20T12:04:05",
          "duration": 156,
          "status": "Genuine",
          "associatedSiteId": 109929,
          "outfallName": "SHOREHAM NO1",
          "isImpacting": true,
          "overFlowSiteId": 115434,
          "historicSpillsList": []
        }
      ]
    },
    {
      "id": 344826399,
      "eventId": 600548,
      "siteUnitNumber": 12579,
      "bathingSite": "PEVENSEY BAY",
      "eventStart": "2022-05-20T11:11:56",
      "eventStop": "2022-05-20T11:52:15",
      "duration": 40,
      "status": "Genuine",
      "associatedSiteId": 109888,
      "outfallName": "EASTBOURNE NO 2",
      "isImpacting": true,
      "overFlowSiteId": 0,
      "historicSpillsList": [
        {
          "id": 344826399,
          "eventId": 600548,
          "siteUnitNumber": 12579,
          "bathingSite": "PEVENSEY BAY",
          "eventStart": "2022-05-20T11:11:56",
          "eventStop": "2022-05-20T11:52:15",
          "duration": 40,
          "status": "Genuine",
          "associatedSiteId": 109888,
          "outfallName": "EASTBOURNE NO 2",
          "isImpacting": true,
          "overFlowSiteId": 115459
        },
        {
          "id": 344826400,
          "eventId": 600548,
          "siteUnitNumber": 12580,
          "bathingSite": "EASTBOURNE",
          "eventStart": "2022-05-20T11:11:56",
          "eventStop": "2022-05-20T11:52:15",
          "duration": 40,
          "status": "Genuine",
          "associatedSiteId": 109888,
          "outfallName": "EASTBOURNE NO 2",
          "isImpacting": true,
          "overFlowSiteId": 115459,
          "historicSpillsList": []
        }
      ]
    },
    {
      "id": 344849718,
      "eventId": 600592,
      "siteUnitNumber": 12549,
      "bathingSite": "HERNE BAY CENTRAL",
      "eventStart": "2022-05-20T11:28:00",
      "eventStop": "2022-05-20T11:48:00",
      "duration": 20,
      "status": "Genuine",
      "associatedSiteId": 111724,
      "outfallName": "GAINSBOROUGH DRIVE HERNE BAY",
      "isImpacting": true,
      "overFlowSiteId": 0,
      "historicSpillsList": [
        {
          "id": 344849718,
          "eventId": 600592,
          "siteUnitNumber": 12549,
          "bathingSite": "HERNE BAY CENTRAL",
          "eventStart": "2022-05-20T11:28:00",
          "eventStop": "2022-05-20T11:48:00",
          "duration": 20,
          "status": "Genuine",
          "associatedSiteId": 111724,
          "outfallName": "GAINSBOROUGH DRIVE HERNE BAY",
          "isImpacting": true,
          "overFlowSiteId": 111725
        },
        {
          "id": 344849719,
          "eventId": 600592,
          "siteUnitNumber": 12551,
          "bathingSite": "HERNE BAY",
          "eventStart": "2022-05-20T11:28:00",
          "eventStop": "2022-05-20T11:48:00",
          "duration": 20,
          "status": "Genuine",
          "associatedSiteId": 111724,
          "outfallName": "GAINSBOROUGH DRIVE HERNE BAY",
          "isImpacting": true,
          "overFlowSiteId": 111725,
          "historicSpillsList": []
        }
      ]
    },
    {
      "id": 344825282,
      "eventId": 600677,
      "siteUnitNumber": 12548,
      "bathingSite": "TANKERTON",
      "eventStart": "2022-05-20T11:00:00",
      "eventStop": "2022-05-20T11:46:30",
      "duration": 46,
      "status": "Genuine",
      "associatedSiteId": 109831,
      "outfallName": "TANKERTON CIRCUS",
      "isImpacting": true,
      "overFlowSiteId": 0,
      "historicSpillsList": [
        {
          "id": 344825282,
          "eventId": 600677,
          "siteUnitNumber": 12548,
          "bathingSite": "TANKERTON",
          "eventStart": "2022-05-20T11:00:00",
          "eventStop": "2022-05-20T11:46:30",
          "duration": 46,
          "status": "Genuine",
          "associatedSiteId": 109831,
          "outfallName": "TANKERTON CIRCUS",
          "isImpacting": true,
          "overFlowSiteId": 103280
        },
        {
          "id": 344825285,
          "eventId": 600677,
          "siteUnitNumber": 12547,
          "bathingSite": "WEST BEACH WHITSTABLE",
          "eventStart": "2022-05-20T11:00:00",
          "eventStop": "2022-05-20T11:46:30",
          "duration": 46,
          "status": "Genuine",
          "associatedSiteId": 109831,
          "outfallName": "TANKERTON CIRCUS",
          "isImpacting": true,
          "overFlowSiteId": 103280,
          "historicSpillsList": []
        }
      ]
    },
    {
      "id": 344834354,
      "eventId": 600402,
      "siteUnitNumber": 12582,
      "bathingSite": "SEAFORD",
      "eventStart": "2022-05-20T09:29:00",
      "eventStop": "2022-05-20T11:45:00",
      "duration": 136,
      "status": "Genuine",
      "associatedSiteId": 109957,
      "outfallName": "PORTOBELLO BRIGHTON NO2",
      "isImpacting": true,
      "overFlowSiteId": 0,
      "historicSpillsList": [
        {
          "id": 344834354,
          "eventId": 600402,
          "siteUnitNumber": 12582,
          "bathingSite": "SEAFORD",
          "eventStart": "2022-05-20T09:29:00",
          "eventStop": "2022-05-20T11:45:00",
          "duration": 136,
          "status": "Genuine",
          "associatedSiteId": 109957,
          "outfallName": "PORTOBELLO BRIGHTON NO2",
          "isImpacting": true,
          "overFlowSiteId": 116036
        },
        {
          "id": 344834355,
          "eventId": 600402,
          "siteUnitNumber": 12583,
          "bathingSite": "SALTDEAN",
          "eventStart": "2022-05-20T09:29:00",
          "eventStop": "2022-05-20T11:45:00",
          "duration": 136,
          "status": "Genuine",
          "associatedSiteId": 109957,
          "outfallName": "PORTOBELLO BRIGHTON NO2",
          "isImpacting": true,
          "overFlowSiteId": 116036,
          "historicSpillsList": []
        }
      ]
    },
    {
      "id": 344821048,
      "eventId": 600298,
      "siteUnitNumber": 12618,
      "bathingSite": "RYDE",
      "eventStart": "2022-05-20T09:00:00",
      "eventStop": "2022-05-20T11:38:00",
      "duration": 158,
      "status": "Genuine",
      "associatedSiteId": 109777,
      "outfallName": "APPLEY PARK RYDE TRANSFER",
      "isImpacting": true,
      "overFlowSiteId": 0,
      "historicSpillsList": [
        {
          "id": 344821048,
          "eventId": 600298,
          "siteUnitNumber": 12618,
          "bathingSite": "RYDE",
          "eventStart": "2022-05-20T09:00:00",
          "eventStop": "2022-05-20T11:38:00",
          "duration": 158,
          "status": "Genuine",
          "associatedSiteId": 109777,
          "outfallName": "APPLEY PARK RYDE TRANSFER",
          "isImpacting": true,
          "overFlowSiteId": 108941
        },
        {
          "id": 344821049,
          "eventId": 600298,
          "siteUnitNumber": 12617,
          "bathingSite": "COWES",
          "eventStart": "2022-05-20T09:00:00",
          "eventStop": "2022-05-20T11:38:00",
          "duration": 158,
          "status": "Genuine",
          "associatedSiteId": 109777,
          "outfallName": "APPLEY PARK RYDE TRANSFER",
          "isImpacting": true,
          "overFlowSiteId": 108941,
          "historicSpillsList": []
        }
      ]
    },
    {
      "id": 344825283,
      "eventId": 600743,
      "siteUnitNumber": 12547,
      "bathingSite": "WEST BEACH WHITSTABLE",
      "eventStart": "2022-05-20T10:54:32",
      "eventStop": "2022-05-20T11:27:32",
      "duration": 33,
      "status": "Genuine",
      "associatedSiteId": 109831,
      "outfallName": "TANKERTON CIRCUS",
      "isImpacting": true,
      "overFlowSiteId": 0,
      "historicSpillsList": [
        {
          "id": 344825283,
          "eventId": 600743,
          "siteUnitNumber": 12547,
          "bathingSite": "WEST BEACH WHITSTABLE",
          "eventStart": "2022-05-20T10:54:32",
          "eventStop": "2022-05-20T11:27:32",
          "duration": 33,
          "status": "Genuine",
          "associatedSiteId": 109831,
          "outfallName": "TANKERTON CIRCUS",
          "isImpacting": true,
          "overFlowSiteId": 103281
        },
        {
          "id": 344825284,
          "eventId": 600743,
          "siteUnitNumber": 12548,
          "bathingSite": "TANKERTON",
          "eventStart": "2022-05-20T10:54:32",
          "eventStop": "2022-05-20T11:27:32",
          "duration": 33,
          "status": "Genuine",
          "associatedSiteId": 109831,
          "outfallName": "TANKERTON CIRCUS",
          "isImpacting": true,
          "overFlowSiteId": 103281,
          "historicSpillsList": []
        }
      ]
    },
    {
      "id": 344832649,
      "eventId": 600675,
      "siteUnitNumber": 12581,
      "bathingSite": "BIRLING GAP",
      "eventStart": "2022-05-20T10:45:00",
      "eventStop": "2022-05-20T11:04:00",
      "duration": 19,
      "status": "Genuine",
      "associatedSiteId": 109936,
      "outfallName": "EAST DEAN",
      "isImpacting": true,
      "overFlowSiteId": 0,
      "historicSpillsList": [
        {
          "id": 344832649,
          "eventId": 600675,
          "siteUnitNumber": 12581,
          "bathingSite": "BIRLING GAP",
          "eventStart": "2022-05-20T10:45:00",
          "eventStop": "2022-05-20T11:04:00",
          "duration": 19,
          "status": "Genuine",
          "associatedSiteId": 109936,
          "outfallName": "EAST DEAN",
          "isImpacting": true,
          "overFlowSiteId": 115829
        }
      ]
    },
    {
      "id": 344826289,
      "eventId": 600410,
      "siteUnitNumber": 12544,
      "bathingSite": "SHEERNESS",
      "eventStart": "2022-05-20T10:13:27",
      "eventStop": "2022-05-20T10:48:00",
      "duration": 34,
      "status": "Genuine",
      "associatedSiteId": 109869,
      "outfallName": "GRAIN NO2",
      "isImpacting": true,
      "overFlowSiteId": 0,
      "historicSpillsList": [
        {
          "id": 344826289,
          "eventId": 600410,
          "siteUnitNumber": 12544,
          "bathingSite": "SHEERNESS",
          "eventStart": "2022-05-20T10:13:27",
          "eventStop": "2022-05-20T10:48:00",
          "duration": 34,
          "status": "Genuine",
          "associatedSiteId": 109869,
          "outfallName": "GRAIN NO2",
          "isImpacting": true,
          "overFlowSiteId": 115411
        }
      ]
    },
    {
      "id": 344838261,
      "eventId": 600403,
      "siteUnitNumber": 12592,
      "bathingSite": "MIDDLETON-ON-SEA",
      "eventStart": "2022-05-20T09:06:15",
      "eventStop": "2022-05-20T10:40:00",
      "duration": 93,
      "status": "Genuine",
      "associatedSiteId": 109972,
      "outfallName": "BOGNOR MAIN",
      "isImpacting": true,
      "overFlowSiteId": 0,
      "historicSpillsList": [
        {
          "id": 344838261,
          "eventId": 600403,
          "siteUnitNumber": 12592,
          "bathingSite": "MIDDLETON-ON-SEA",
          "eventStart": "2022-05-20T09:06:15",
          "eventStop": "2022-05-20T10:40:00",
          "duration": 93,
          "status": "Genuine",
          "associatedSiteId": 109972,
          "outfallName": "BOGNOR MAIN",
          "isImpacting": true,
          "overFlowSiteId": 107412
        },
        {
          "id": 344838262,
          "eventId": 600403,
          "siteUnitNumber": 12593,
          "bathingSite": "FELPHAM",
          "eventStart": "2022-05-20T09:06:15",
          "eventStop": "2022-05-20T10:40:00",
          "duration": 93,
          "status": "Genuine",
          "associatedSiteId": 109972,
          "outfallName": "BOGNOR MAIN",
          "isImpacting": true,
          "overFlowSiteId": 107412,
          "historicSpillsList": []
        },
        {
          "id": 344838256,
          "eventId": 600403,
          "siteUnitNumber": 12594,
          "bathingSite": "BOGNOR REGIS EAST",
          "eventStart": "2022-05-20T09:06:15",
          "eventStop": "2022-05-20T10:40:00",
          "duration": 93,
          "status": "Genuine",
          "associatedSiteId": 109972,
          "outfallName": "BOGNOR MAIN",
          "isImpacting": true,
          "overFlowSiteId": 107412,
          "historicSpillsList": []
        },
        {
          "id": 344838257,
          "eventId": 600403,
          "siteUnitNumber": 12595,
          "bathingSite": "BOGNOR REGIS (ALDWICK)",
          "eventStart": "2022-05-20T09:06:15",
          "eventStop": "2022-05-20T10:40:00",
          "duration": 93,
          "status": "Genuine",
          "associatedSiteId": 109972,
          "outfallName": "BOGNOR MAIN",
          "isImpacting": true,
          "overFlowSiteId": 107412,
          "historicSpillsList": []
        }
      ]
    },
    {
      "id": 344837905,
      "eventId": 600272,
      "siteUnitNumber": 12591,
      "bathingSite": "LITTLEHAMPTON",
      "eventStart": "2022-05-20T08:07:52",
      "eventStop": "2022-05-20T10:33:00",
      "duration": 145,
      "status": "Genuine",
      "associatedSiteId": 109968,
      "outfallName": "FORD ROAD ARUNDEL",
      "isImpacting": true,
      "overFlowSiteId": 0,
      "historicSpillsList": [
        {
          "id": 344837905,
          "eventId": 600272,
          "siteUnitNumber": 12591,
          "bathingSite": "LITTLEHAMPTON",
          "eventStart": "2022-05-20T08:07:52",
          "eventStop": "2022-05-20T10:33:00",
          "duration": 145,
          "status": "Genuine",
          "associatedSiteId": 109968,
          "outfallName": "FORD ROAD ARUNDEL",
          "isImpacting": true,
          "overFlowSiteId": 108002
        }
      ]
    },
    {
      "id": 344849348,
      "eventId": 600046,
      "siteUnitNumber": 12573,
      "bathingSite": "CAMBER",
      "eventStart": "2022-05-19T15:30:00",
      "eventStop": "2022-05-19T17:32:00",
      "duration": 122,
      "status": "Genuine",
      "associatedSiteId": 110958,
      "outfallName": "RYE",
      "isImpacting": true,
      "overFlowSiteId": 0,
      "historicSpillsList": [
        {
          "id": 344849348,
          "eventId": 600046,
          "siteUnitNumber": 12573,
          "bathingSite": "CAMBER",
          "eventStart": "2022-05-19T15:30:00",
          "eventStop": "2022-05-19T17:32:00",
          "duration": 122,
          "status": "Genuine",
          "associatedSiteId": 110958,
          "outfallName": "RYE",
          "isImpacting": true,
          "overFlowSiteId": 115433
        }
      ]
    },
    {
      "id": 344828756,
      "eventId": 599917,
      "siteUnitNumber": 12568,
      "bathingSite": "SANDGATE",
      "eventStart": "2022-05-19T09:00:00",
      "eventStop": "2022-05-19T11:15:00",
      "duration": 135,
      "status": "Genuine",
      "associatedSiteId": 109897,
      "outfallName": "RANGE ROAD HYTHE K LONG",
      "isImpacting": true,
      "overFlowSiteId": 0,
      "historicSpillsList": [
        {
          "id": 344828756,
          "eventId": 599917,
          "siteUnitNumber": 12568,
          "bathingSite": "SANDGATE",
          "eventStart": "2022-05-19T09:00:00",
          "eventStop": "2022-05-19T11:15:00",
          "duration": 135,
          "status": "Genuine",
          "associatedSiteId": 109897,
          "outfallName": "RANGE ROAD HYTHE K LONG",
          "isImpacting": true,
          "overFlowSiteId": 116048
        },
        {
          "id": 344828757,
          "eventId": 599917,
          "siteUnitNumber": 12569,
          "bathingSite": "HYTHE",
          "eventStart": "2022-05-19T09:00:00",
          "eventStop": "2022-05-19T11:15:00",
          "duration": 135,
          "status": "Genuine",
          "associatedSiteId": 109897,
          "outfallName": "RANGE ROAD HYTHE K LONG",
          "isImpacting": true,
          "overFlowSiteId": 116048,
          "historicSpillsList": []
        }
      ]
    }
  ]
}