{
  "currentPage": 354,
  "totalItems": 18701,
  "totalPages": 749,
  "items": [
    {
      "id": 343966059,
      "eventId": 723036,
      "siteUnitNumber": 12616,
      "bathingSite": "GURNARD",
      "eventStart": "2023-01-06T21:20:00",
      "eventStop": "2023-01-06T22:11:00",
      "duration": 51,
      "status": "Genuine",
      "associatedSiteId": 109705,
      "outfallName": "SPRINGHILL COWES TRANSFER",
      "isImpacting": true,
      "overFlowSiteId": 0,
      "historicSpillsList": [
        {
          "id": 343966060,
          "eventId": 723036,
          "siteUnitNumber": 12617,
          "bathingSite": "COWES",
          "eventStart": "2023-01-06T21:20:00",
          "eventStop": "2023-01-06T22:11:00",
          "duration": 51,
          "status": "Genuine",
          "associatedSiteId": 109705,
          "outfallName": "SPRINGHILL COWES TRANSFER",
          "isImpacting": true,
          "overFlowSiteId": 108943,
          "historicSpillsList": []
        }
      ]
    },
    {
      "id": 343972296,
      "eventId": 744190,
      "siteUnitNumber": 12608,
      "bathingSite": "CALSHOT",
      "eventStart": "2023-01-06T16:29:00",
      "eventStop": "2023-01-06T21:35:00",
      "duration": 306,
      "status": "Genuine",
      "associatedSiteId": 109826,
      "outfallName": "ASHLETT CREEK FAWLEY",
      "isImpacting": true,
      "overFlowSiteId": 0,
      "historicSpillsList": [
        {
          "id": 343972296,
          "eventId": 744190,
          "siteUnitNumber": 12608,
          "bathingSite": "CALSHOT",
          "eventStart": "2023-01-06T16:29:00",
          "eventStop": "2023-01-06T21:35:00",
          "duration": 306,
          "status": "Genuine",
          "associatedSiteId": 109826,
          "outfallName": "ASHLETT CREEK FAWLEY",
          "isImpacting": true,
          "overFlowSiteId": 115372
        }
      ]
    },
    {
      "id": 343989411,
      "eventId": 722976,
      "siteUnitNumber": 12622,
      "bathingSite": "WHITECLIFF BAY",
      "eventStart": "2023-01-06T21:03:00",
      "eventStop": "2023-01-06T21:22:00",
      "duration": 19,
      "status": "Genuine",
      "associatedSiteId": 110096,
      "outfallName": "SANDOWN NO1",
      "isImpacting": false,
      "overFlowSiteId": 0,
      "historicSpillsList": []
    },
    {
      "id": 343961941,
      "eventId": 729046,
      "siteUnitNumber": 12616,
      "bathingSite": "GURNARD",
      "eventStart": "2023-01-06T20:58:00",
      "eventStop": "2023-01-06T21:04:00",
      "duration": 6,
      "status": "Genuine",
      "associatedSiteId": 109652,
      "outfallName": "WOODVALE TRANSFER NO1",
      "isImpacting": true,
      "overFlowSiteId": 0,
      "historicSpillsList": [
        {
          "id": 343961942,
          "eventId": 729046,
          "siteUnitNumber": 12617,
          "bathingSite": "COWES",
          "eventStart": "2023-01-06T20:58:00",
          "eventStop": "2023-01-06T21:04:00",
          "duration": 6,
          "status": "Genuine",
          "associatedSiteId": 109652,
          "outfallName": "WOODVALE TRANSFER NO1",
          "isImpacting": true,
          "overFlowSiteId": 115966,
          "historicSpillsList": []
        }
      ]
    },
    {
      "id": 343985467,
      "eventId": 725535,
      "siteUnitNumber": 12591,
      "bathingSite": "LITTLEHAMPTON",
      "eventStart": "2023-01-06T15:22:00",
      "eventStop": "2023-01-06T21:01:00",
      "duration": 339,
      "status": "Genuine",
      "associatedSiteId": 109965,
      "outfallName": "SEA ROAD LITTLEHAMPTON",
      "isImpacting": false,
      "overFlowSiteId": 0,
      "historicSpillsList": []
    },
    {
      "id": 343966061,
      "eventId": 723012,
      "siteUnitNumber": 12616,
      "bathingSite": "GURNARD",
      "eventStart": "2023-01-06T07:37:00",
      "eventStop": "2023-01-06T20:59:00",
      "duration": 802,
      "status": "Genuine",
      "associatedSiteId": 109705,
      "outfallName": "SPRINGHILL COWES TRANSFER",
      "isImpacting": true,
      "overFlowSiteId": 0,
      "historicSpillsList": [
        {
          "id": 343966062,
          "eventId": 723012,
          "siteUnitNumber": 12617,
          "bathingSite": "COWES",
          "eventStart": "2023-01-06T07:37:00",
          "eventStop": "2023-01-06T20:59:00",
          "duration": 802,
          "status": "Genuine",
          "associatedSiteId": 109705,
          "outfallName": "SPRINGHILL COWES TRANSFER",
          "isImpacting": true,
          "overFlowSiteId": 108943,
          "historicSpillsList": []
        }
      ]
    },
    {
      "id": 343989416,
      "eventId": 722972,
      "siteUnitNumber": 12622,
      "bathingSite": "WHITECLIFF BAY",
      "eventStart": "2023-01-06T19:49:00",
      "eventStop": "2023-01-06T20:26:00",
      "duration": 37,
      "status": "Genuine",
      "associatedSiteId": 110096,
      "outfallName": "SANDOWN NO1",
      "isImpacting": false,
      "overFlowSiteId": 0,
      "historicSpillsList": []
    },
    {
      "id": 343976566,
      "eventId": 722277,
      "siteUnitNumber": 12568,
      "bathingSite": "SANDGATE",
      "eventStart": "2023-01-06T17:42:00",
      "eventStop": "2023-01-06T19:54:00",
      "duration": 132,
      "status": "Genuine",
      "associatedSiteId": 109897,
      "outfallName": "RANGE ROAD HYTHE K LONG",
      "isImpacting": true,
      "overFlowSiteId": 0,
      "historicSpillsList": [
        {
          "id": 343976567,
          "eventId": 722277,
          "siteUnitNumber": 12569,
          "bathingSite": "HYTHE",
          "eventStart": "2023-01-06T17:42:00",
          "eventStop": "2023-01-06T19:54:00",
          "duration": 132,
          "status": "Genuine",
          "associatedSiteId": 109897,
          "outfallName": "RANGE ROAD HYTHE K LONG",
          "isImpacting": true,
          "overFlowSiteId": 116048,
          "historicSpillsList": []
        }
      ]
    },
    {
      "id": 343989414,
      "eventId": 722950,
      "siteUnitNumber": 12623,
      "bathingSite": "YAVERLAND",
      "eventStart": "2023-01-06T19:16:00",
      "eventStop": "2023-01-06T19:33:00",
      "duration": 17,
      "status": "Genuine",
      "associatedSiteId": 110096,
      "outfallName": "SANDOWN NO1",
      "isImpacting": false,
      "overFlowSiteId": 0,
      "historicSpillsList": []
    },
    {
      "id": 343961943,
      "eventId": 729045,
      "siteUnitNumber": 12616,
      "bathingSite": "GURNARD",
      "eventStart": "2023-01-06T19:02:00",
      "eventStop": "2023-01-06T19:08:00",
      "duration": 6,
      "status": "Genuine",
      "associatedSiteId": 109652,
      "outfallName": "WOODVALE TRANSFER NO1",
      "isImpacting": true,
      "overFlowSiteId": 0,
      "historicSpillsList": [
        {
          "id": 343961944,
          "eventId": 729045,
          "siteUnitNumber": 12617,
          "bathingSite": "COWES",
          "eventStart": "2023-01-06T19:02:00",
          "eventStop": "2023-01-06T19:08:00",
          "duration": 6,
          "status": "Genuine",
          "associatedSiteId": 109652,
          "outfallName": "WOODVALE TRANSFER NO1",
          "isImpacting": true,
          "overFlowSiteId": 115966,
          "historicSpillsList": []
        }
      ]
    },
    {
      "id": 343989418,
      "eventId": 722949,
      "siteUnitNumber": 12622,
      "bathingSite": "WHITECLIFF BAY",
      "eventStart": "2023-01-06T18:48:00",
      "eventStop": "2023-01-06T19:04:00",
      "duration": 16,
      "status": "Genuine",
      "associatedSiteId": 110096,
      "outfallName": "SANDOWN NO1",
      "isImpacting": false,
      "overFlowSiteId": 0,
      "historicSpillsList": []
    },
    {
      "id": 343989422,
      "eventId": 722948,
      "siteUnitNumber": 12622,
      "bathingSite": "WHITECLIFF BAY",
      "eventStart": "2023-01-06T17:14:00",
      "eventStop": "2023-01-06T18:37:00",
      "duration": 83,
      "status": "Genuine",
      "associatedSiteId": 110096,
      "outfallName": "SANDOWN NO1",
      "isImpacting": true,
      "overFlowSiteId": 0,
      "historicSpillsList": [
        {
          "id": 343989422,
          "eventId": 722948,
          "siteUnitNumber": 12622,
          "bathingSite": "WHITECLIFF BAY",
          "eventStart": "2023-01-06T17:14:00",
          "eventStop": "2023-01-06T18:37:00",
          "duration": 83,
          "status": "Genuine",
          "associatedSiteId": 110096,
          "outfallName": "SANDOWN NO1",
          "isImpacting": true,
          "overFlowSiteId": 115453
        },
        {
          "id": 343989423,
          "eventId": 722948,
          "siteUnitNumber": 12623,
          "bathingSite": "YAVERLAND",
          "eventStart": "2023-01-06T17:14:00",
          "eventStop": "2023-01-06T18:37:00",
          "duration": 83,
          "status": "Genuine",
          "associatedSiteId": 110096,
          "outfallName": "SANDOWN NO1",
          "isImpacting": true,
          "overFlowSiteId": 115453,
          "historicSpillsList": []
        },
        {
          "id": 343989424,
          "eventId": 722948,
          "siteUnitNumber": 12624,
          "bathingSite": "SANDOWN",
          "eventStart": "2023-01-06T17:14:00",
          "eventStop": "2023-01-06T18:37:00",
          "duration": 83,
          "status": "Genuine",
          "associatedSiteId": 110096,
          "outfallName": "SANDOWN NO1",
          "isImpacting": true,
          "overFlowSiteId": 115453,
          "historicSpillsList": []
        }
      ]
    },
    {
      "id": 343997136,
      "eventId": 722244,
      "siteUnitNumber": 12582,
      "bathingSite": "SEAFORD",
      "eventStart": "2023-01-06T17:37:36",
      "eventStop": "2023-01-06T18:34:43",
      "duration": 57,
      "status": "Genuine",
      "associatedSiteId": 110920,
      "outfallName": "NEWHAVEN",
      "isImpacting": false,
      "overFlowSiteId": 0,
      "historicSpillsList": []
    },
    {
      "id": 343961945,
      "eventId": 729044,
      "siteUnitNumber": 12616,
      "bathingSite": "GURNARD",
      "eventStart": "2023-01-06T17:41:00",
      "eventStop": "2023-01-06T17:47:00",
      "duration": 6,
      "status": "Genuine",
      "associatedSiteId": 109652,
      "outfallName": "WOODVALE TRANSFER NO1",
      "isImpacting": true,
      "overFlowSiteId": 0,
      "historicSpillsList": [
        {
          "id": 343961946,
          "eventId": 729044,
          "siteUnitNumber": 12617,
          "bathingSite": "COWES",
          "eventStart": "2023-01-06T17:41:00",
          "eventStop": "2023-01-06T17:47:00",
          "duration": 6,
          "status": "Genuine",
          "associatedSiteId": 109652,
          "outfallName": "WOODVALE TRANSFER NO1",
          "isImpacting": true,
          "overFlowSiteId": 115966,
          "historicSpillsList": []
        }
      ]
    },
    {
      "id": 343992671,
      "eventId": 722871,
      "siteUnitNumber": 12624,
      "bathingSite": "SANDOWN",
      "eventStart": "2023-01-06T15:39:00",
      "eventStop": "2023-01-06T17:18:00",
      "duration": 99,
      "status": "Genuine",
      "associatedSiteId": 110097,
      "outfallName": "SANDOWN NO2",
      "isImpacting": true,
      "overFlowSiteId": 0,
      "historicSpillsList": [
        {
          "id": 343992680,
          "eventId": 722871,
          "siteUnitNumber": 12623,
          "bathingSite": "YAVERLAND",
          "eventStart": "2023-01-06T15:39:00",
          "eventStop": "2023-01-06T17:18:00",
          "duration": 99,
          "status": "Genuine",
          "associatedSiteId": 110097,
          "outfallName": "SANDOWN NO2",
          "isImpacting": true,
          "overFlowSiteId": 115454,
          "historicSpillsList": []
        }
      ]
    },
    {
      "id": 343989425,
      "eventId": 722947,
      "siteUnitNumber": 12622,
      "bathingSite": "WHITECLIFF BAY",
      "eventStart": "2023-01-06T15:14:00",
      "eventStop": "2023-01-06T17:08:00",
      "duration": 114,
      "status": "Genuine",
      "associatedSiteId": 110096,
      "outfallName": "SANDOWN NO1",
      "isImpacting": true,
      "overFlowSiteId": 0,
      "historicSpillsList": [
        {
          "id": 343989425,
          "eventId": 722947,
          "siteUnitNumber": 12622,
          "bathingSite": "WHITECLIFF BAY",
          "eventStart": "2023-01-06T15:14:00",
          "eventStop": "2023-01-06T17:08:00",
          "duration": 114,
          "status": "Genuine",
          "associatedSiteId": 110096,
          "outfallName": "SANDOWN NO1",
          "isImpacting": true,
          "overFlowSiteId": 115453
        },
        {
          "id": 343989426,
          "eventId": 722947,
          "siteUnitNumber": 12623,
          "bathingSite": "YAVERLAND",
          "eventStart": "2023-01-06T15:14:00",
          "eventStop": "2023-01-06T17:08:00",
          "duration": 114,
          "status": "Genuine",
          "associatedSiteId": 110096,
          "outfallName": "SANDOWN NO1",
          "isImpacting": true,
          "overFlowSiteId": 115453,
          "historicSpillsList": []
        },
        {
          "id": 343989427,
          "eventId": 722947,
          "siteUnitNumber": 12624,
          "bathingSite": "SANDOWN",
          "eventStart": "2023-01-06T15:14:00",
          "eventStop": "2023-01-06T17:08:00",
          "duration": 114,
          "status": "Genuine",
          "associatedSiteId": 110096,
          "outfallName": "SANDOWN NO1",
          "isImpacting": true,
          "overFlowSiteId": 115453,
          "historicSpillsList": []
        }
      ]
    },
    {
      "id": 343961947,
      "eventId": 729042,
      "siteUnitNumber": 12616,
      "bathingSite": "GURNARD",
      "eventStart": "2023-01-06T16:36:00",
      "eventStop": "2023-01-06T16:43:00",
      "duration": 7,
      "status": "Genuine",
      "associatedSiteId": 109652,
      "outfallName": "WOODVALE TRANSFER NO1",
      "isImpacting": true,
      "overFlowSiteId": 0,
      "historicSpillsList": [
        {
          "id": 343961948,
          "eventId": 729042,
          "siteUnitNumber": 12617,
          "bathingSite": "COWES",
          "eventStart": "2023-01-06T16:36:00",
          "eventStop": "2023-01-06T16:43:00",
          "duration": 7,
          "status": "Genuine",
          "associatedSiteId": 109652,
          "outfallName": "WOODVALE TRANSFER NO1",
          "isImpacting": true,
          "overFlowSiteId": 115966,
          "historicSpillsList": []
        }
      ]
    },
    {
      "id": 343997141,
      "eventId": 721820,
      "siteUnitNumber": 12582,
      "bathingSite": "SEAFORD",
      "eventStart": "2023-01-06T10:36:46",
      "eventStop": "2023-01-06T16:17:09",
      "duration": 340,
      "status": "Genuine",
      "associatedSiteId": 110920,
      "outfallName": "NEWHAVEN",
      "isImpacting": false,
      "overFlowSiteId": 0,
      "historicSpillsList": []
    },
    {
      "id": 343995923,
      "eventId": 722145,
      "siteUnitNumber": 12616,
      "bathingSite": "GURNARD",
      "eventStart": "2023-01-06T15:49:00",
      "eventStop": "2023-01-06T16:03:00",
      "duration": 14,
      "status": "Genuine",
      "associatedSiteId": 110701,
      "outfallName": "TERMINUS ROAD COWES 2",
      "isImpacting": true,
      "overFlowSiteId": 0,
      "historicSpillsList": [
        {
          "id": 343995923,
          "eventId": 722145,
          "siteUnitNumber": 12616,
          "bathingSite": "GURNARD",
          "eventStart": "2023-01-06T15:49:00",
          "eventStop": "2023-01-06T16:03:00",
          "duration": 14,
          "status": "Genuine",
          "associatedSiteId": 110701,
          "outfallName": "TERMINUS ROAD COWES 2",
          "isImpacting": true,
          "overFlowSiteId": 108563
        },
        {
          "id": 343995924,
          "eventId": 722145,
          "siteUnitNumber": 12617,
          "bathingSite": "COWES",
          "eventStart": "2023-01-06T15:49:00",
          "eventStop": "2023-01-06T16:03:00",
          "duration": 14,
          "status": "Genuine",
          "associatedSiteId": 110701,
          "outfallName": "TERMINUS ROAD COWES 2",
          "isImpacting": true,
          "overFlowSiteId": 108563,
          "historicSpillsList": []
        }
      ]
    },
    {
      "id": 343961949,
      "eventId": 729040,
      "siteUnitNumber": 12616,
      "bathingSite": "GURNARD",
      "eventStart": "2023-01-06T15:41:00",
      "eventStop": "2023-01-06T15:50:00",
      "duration": 9,
      "status": "Genuine",
      "associatedSiteId": 109652,
      "outfallName": "WOODVALE TRANSFER NO1",
      "isImpacting": true,
      "overFlowSiteId": 0,
      "historicSpillsList": [
        {
          "id": 343961950,
          "eventId": 729040,
          "siteUnitNumber": 12617,
          "bathingSite": "COWES",
          "eventStart": "2023-01-06T15:41:00",
          "eventStop": "2023-01-06T15:50:00",
          "duration": 9,
          "status": "Genuine",
          "associatedSiteId": 109652,
          "outfallName": "WOODVALE TRANSFER NO1",
          "isImpacting": true,
          "overFlowSiteId": 115966,
          "historicSpillsList": []
        }
      ]
    },
    {
      "id": 343986000,
      "eventId": 722131,
      "siteUnitNumber": 12591,
      "bathingSite": "LITTLEHAMPTON",
      "eventStart": "2023-01-06T15:08:58",
      "eventStop": "2023-01-06T15:11:19",
      "duration": 2,
      "status": "Genuine",
      "associatedSiteId": 109968,
      "outfallName": "FORD ROAD ARUNDEL",
      "isImpacting": true,
      "overFlowSiteId": 0,
      "historicSpillsList": [
        {
          "id": 343986000,
          "eventId": 722131,
          "siteUnitNumber": 12591,
          "bathingSite": "LITTLEHAMPTON",
          "eventStart": "2023-01-06T15:08:58",
          "eventStop": "2023-01-06T15:11:19",
          "duration": 2,
          "status": "Genuine",
          "associatedSiteId": 109968,
          "outfallName": "FORD ROAD ARUNDEL",
          "isImpacting": true,
          "overFlowSiteId": 108002
        }
      ]
    },
    {
      "id": 343989429,
      "eventId": 722941,
      "siteUnitNumber": 12622,
      "bathingSite": "WHITECLIFF BAY",
      "eventStart": "2023-01-06T14:28:00",
      "eventStop": "2023-01-06T14:44:00",
      "duration": 16,
      "status": "Genuine",
      "associatedSiteId": 110096,
      "outfallName": "SANDOWN NO1",
      "isImpacting": false,
      "overFlowSiteId": 0,
      "historicSpillsList": []
    },
    {
      "id": 343978396,
      "eventId": 721617,
      "siteUnitNumber": 12576,
      "bathingSite": "ST LEONARDS",
      "eventStart": "2023-01-06T07:38:35",
      "eventStop": "2023-01-06T14:35:30",
      "duration": 416,
      "status": "Genuine",
      "associatedSiteId": 109903,
      "outfallName": "BEXHILL & HASTINGS NO2",
      "isImpacting": true,
      "overFlowSiteId": 0,
      "historicSpillsList": [
        {
          "id": 343978396,
          "eventId": 721617,
          "siteUnitNumber": 12576,
          "bathingSite": "ST LEONARDS",
          "eventStart": "2023-01-06T07:38:35",
          "eventStop": "2023-01-06T14:35:30",
          "duration": 416,
          "status": "Genuine",
          "associatedSiteId": 109903,
          "outfallName": "BEXHILL & HASTINGS NO2",
          "isImpacting": true,
          "overFlowSiteId": 115398
        },
        {
          "id": 343978397,
          "eventId": 721617,
          "siteUnitNumber": 12577,
          "bathingSite": "BEXHILL",
          "eventStart": "2023-01-06T07:38:35",
          "eventStop": "2023-01-06T14:35:30",
          "duration": 416,
          "status": "Genuine",
          "associatedSiteId": 109903,
          "outfallName": "BEXHILL & HASTINGS NO2",
          "isImpacting": true,
          "overFlowSiteId": 115398,
          "historicSpillsList": []
        }
      ]
    },
    {
      "id": 343985466,
      "eventId": 725534,
      "siteUnitNumber": 12591,
      "bathingSite": "LITTLEHAMPTON",
      "eventStart": "2023-01-06T08:36:00",
      "eventStop": "2023-01-06T14:34:00",
      "duration": 358,
      "status": "Genuine",
      "associatedSiteId": 109965,
      "outfallName": "SEA ROAD LITTLEHAMPTON",
      "isImpacting": true,
      "overFlowSiteId": 0,
      "historicSpillsList": [
        {
          "id": 343985466,
          "eventId": 725534,
          "siteUnitNumber": 12591,
          "bathingSite": "LITTLEHAMPTON",
          "eventStart": "2023-01-06T08:36:00",
          "eventStop": "2023-01-06T14:34:00",
          "duration": 358,
          "status": "Genuine",
          "associatedSiteId": 109965,
          "outfallName": "SEA ROAD LITTLEHAMPTON",
          "isImpacting": true,
          "overFlowSiteId": 109368
        }
      ]
    },
    {
      "id": 343989434,
      "eventId": 722939,
      "siteUnitNumber": 12622,
      "bathingSite": "WHITECLIFF BAY",
      "eventStart": "2023-01-06T13:38:00",
      "eventStop": "2023-01-06T13:56:00",
      "duration": 18,
      "status": "Genuine",
      "associatedSiteId": 110096,
      "outfallName": "SANDOWN NO1",
      "isImpacting": false,
      "overFlowSiteId": 0,
      "historicSpillsList": []
    }
  ]
}