{
  "currentPage": 698,
  "totalItems": 18701,
  "totalPages": 749,
  "items": [
    {
      "id": 344023294,
      "eventId": 344477,
      "siteUnitNumber": 12586,
      "bathingSite": "HOVE",
      "eventStart": "2021-02-08T15:36:30",
      "eventStop": "2021-02-08T15:56:17",
      "duration": 19,
      "status": "Genuine",
      "associatedSiteId": 109929,
      "outfallName": "SHOREHAM NO1",
      "isImpacting": true,
      "overFlowSiteId": 0,
      "historicSpillsList": [
        {
          "id": 344023294,
          "eventId": 344477,
          "siteUnitNumber": 12586,
          "bathingSite": "HOVE",
          "eventStart": "2021-02-08T15:36:30",
          "eventStop": "2021-02-08T15:56:17",
          "duration": 19,
          "status": "Genuine",
          "associatedSiteId": 109929,
          "outfallName": "SHOREHAM NO1",
          "isImpacting": true,
          "overFlowSiteId": 115434
        },
        {
          "id": 344023295,
          "eventId": 344477,
          "siteUnitNumber": 12587,
          "bathingSite": "SOUTHWICK",
          "eventStart": "2021-02-08T15:36:30",
          "eventStop": "2021-02-08T15:56:17",
          "duration": 19,
          "status": "Genuine",
          "associatedSiteId": 109929,
          "outfallName": "SHOREHAM NO1",
          "isImpacting": true,
          "overFlowSiteId": 115434,
          "historicSpillsList": []
        },
        {
          "id": 344023296,
          "eventId": 344477,
          "siteUnitNumber": 12588,
          "bathingSite": "SHOREHAM BEACH",
          "eventStart": "2021-02-08T15:36:30",
          "eventStop": "2021-02-08T15:56:17",
          "duration": 19,
          "status": "Genuine",
          "associatedSiteId": 109929,
          "outfallName": "SHOREHAM NO1",
          "isImpacting": true,
          "overFlowSiteId": 115434,
          "historicSpillsList": []
        }
      ]
    },
    {
      "id": 344013499,
      "eventId": 344418,
      "siteUnitNumber": 12596,
      "bathingSite": "PAGHAM",
      "eventStart": "2021-02-08T14:14:54",
      "eventStop": "2021-02-08T15:51:11",
      "duration": 96,
      "status": "Genuine",
      "associatedSiteId": 109791,
      "outfallName": "SIDLESHAM",
      "isImpacting": true,
      "overFlowSiteId": 0,
      "historicSpillsList": [
        {
          "id": 344013499,
          "eventId": 344418,
          "siteUnitNumber": 12596,
          "bathingSite": "PAGHAM",
          "eventStart": "2021-02-08T14:14:54",
          "eventStop": "2021-02-08T15:51:11",
          "duration": 96,
          "status": "Genuine",
          "associatedSiteId": 109791,
          "outfallName": "SIDLESHAM",
          "isImpacting": true,
          "overFlowSiteId": 115807
        }
      ]
    },
    {
      "id": 344023292,
      "eventId": 344456,
      "siteUnitNumber": 12587,
      "bathingSite": "SOUTHWICK",
      "eventStart": "2021-02-08T15:08:57",
      "eventStop": "2021-02-08T15:31:06",
      "duration": 22,
      "status": "Genuine",
      "associatedSiteId": 109929,
      "outfallName": "SHOREHAM NO1",
      "isImpacting": true,
      "overFlowSiteId": 0,
      "historicSpillsList": [
        {
          "id": 344023292,
          "eventId": 344456,
          "siteUnitNumber": 12587,
          "bathingSite": "SOUTHWICK",
          "eventStart": "2021-02-08T15:08:57",
          "eventStop": "2021-02-08T15:31:06",
          "duration": 22,
          "status": "Genuine",
          "associatedSiteId": 109929,
          "outfallName": "SHOREHAM NO1",
          "isImpacting": true,
          "overFlowSiteId": 115434
        },
        {
          "id": 344023293,
          "eventId": 344456,
          "siteUnitNumber": 12588,
          "bathingSite": "SHOREHAM BEACH",
          "eventStart": "2021-02-08T15:08:57",
          "eventStop": "2021-02-08T15:31:06",
          "duration": 22,
          "status": "Genuine",
          "associatedSiteId": 109929,
          "outfallName": "SHOREHAM NO1",
          "isImpacting": true,
          "overFlowSiteId": 115434,
          "historicSpillsList": []
        },
        {
          "id": 344023300,
          "eventId": 344456,
          "siteUnitNumber": 12586,
          "bathingSite": "HOVE",
          "eventStart": "2021-02-08T15:08:57",
          "eventStop": "2021-02-08T15:31:06",
          "duration": 22,
          "status": "Genuine",
          "associatedSiteId": 109929,
          "outfallName": "SHOREHAM NO1",
          "isImpacting": true,
          "overFlowSiteId": 115434,
          "historicSpillsList": []
        }
      ]
    },
    {
      "id": 344039406,
      "eventId": 345000,
      "siteUnitNumber": 12662,
      "bathingSite": "CHICHESTER HARBOUR",
      "eventStart": "2021-02-08T14:37:00",
      "eventStop": "2021-02-08T15:26:00",
      "duration": 49,
      "status": "Genuine",
      "associatedSiteId": 110760,
      "outfallName": "BOSHAM",
      "isImpacting": true,
      "overFlowSiteId": 0,
      "historicSpillsList": [
        {
          "id": 344039406,
          "eventId": 345000,
          "siteUnitNumber": 12662,
          "bathingSite": "CHICHESTER HARBOUR",
          "eventStart": "2021-02-08T14:37:00",
          "eventStop": "2021-02-08T15:26:00",
          "duration": 49,
          "status": "Genuine",
          "associatedSiteId": 110760,
          "outfallName": "BOSHAM",
          "isImpacting": true,
          "overFlowSiteId": 115735
        }
      ]
    },
    {
      "id": 344021726,
      "eventId": 344336,
      "siteUnitNumber": 12576,
      "bathingSite": "ST LEONARDS",
      "eventStart": "2021-02-08T12:52:41",
      "eventStop": "2021-02-08T14:49:24",
      "duration": 116,
      "status": "Genuine",
      "associatedSiteId": 109903,
      "outfallName": "BEXHILL & HASTINGS NO2",
      "isImpacting": true,
      "overFlowSiteId": 0,
      "historicSpillsList": [
        {
          "id": 344021726,
          "eventId": 344336,
          "siteUnitNumber": 12576,
          "bathingSite": "ST LEONARDS",
          "eventStart": "2021-02-08T12:52:41",
          "eventStop": "2021-02-08T14:49:24",
          "duration": 116,
          "status": "Genuine",
          "associatedSiteId": 109903,
          "outfallName": "BEXHILL & HASTINGS NO2",
          "isImpacting": true,
          "overFlowSiteId": 115398
        },
        {
          "id": 344021727,
          "eventId": 344336,
          "siteUnitNumber": 12577,
          "bathingSite": "BEXHILL",
          "eventStart": "2021-02-08T12:52:41",
          "eventStop": "2021-02-08T14:49:24",
          "duration": 116,
          "status": "Genuine",
          "associatedSiteId": 109903,
          "outfallName": "BEXHILL & HASTINGS NO2",
          "isImpacting": true,
          "overFlowSiteId": 115398,
          "historicSpillsList": []
        }
      ]
    },
    {
      "id": 344039407,
      "eventId": 344507,
      "siteUnitNumber": 12662,
      "bathingSite": "CHICHESTER HARBOUR",
      "eventStart": "2021-02-08T13:49:00",
      "eventStop": "2021-02-08T14:16:00",
      "duration": 27,
      "status": "Genuine",
      "associatedSiteId": 110760,
      "outfallName": "BOSHAM",
      "isImpacting": true,
      "overFlowSiteId": 0,
      "historicSpillsList": [
        {
          "id": 344039407,
          "eventId": 344507,
          "siteUnitNumber": 12662,
          "bathingSite": "CHICHESTER HARBOUR",
          "eventStart": "2021-02-08T13:49:00",
          "eventStop": "2021-02-08T14:16:00",
          "duration": 27,
          "status": "Genuine",
          "associatedSiteId": 110760,
          "outfallName": "BOSHAM",
          "isImpacting": true,
          "overFlowSiteId": 115735
        }
      ]
    },
    {
      "id": 344024075,
      "eventId": 345001,
      "siteUnitNumber": 12621,
      "bathingSite": "BEMBRIDGE",
      "eventStart": "2021-02-06T22:17:00",
      "eventStop": "2021-02-08T13:38:00",
      "duration": 2361,
      "status": "Genuine",
      "associatedSiteId": 109939,
      "outfallName": "LANE END ROAD BEMBRIDGE",
      "isImpacting": true,
      "overFlowSiteId": 0,
      "historicSpillsList": [
        {
          "id": 344024075,
          "eventId": 345001,
          "siteUnitNumber": 12621,
          "bathingSite": "BEMBRIDGE",
          "eventStart": "2021-02-06T22:17:00",
          "eventStop": "2021-02-08T13:38:00",
          "duration": 2361,
          "status": "Genuine",
          "associatedSiteId": 109939,
          "outfallName": "LANE END ROAD BEMBRIDGE",
          "isImpacting": true,
          "overFlowSiteId": 108533
        },
        {
          "id": 344024080,
          "eventId": 345001,
          "siteUnitNumber": 12620,
          "bathingSite": "ST HELENS",
          "eventStart": "2021-02-06T22:17:00",
          "eventStop": "2021-02-08T13:38:00",
          "duration": 2361,
          "status": "Genuine",
          "associatedSiteId": 109939,
          "outfallName": "LANE END ROAD BEMBRIDGE",
          "isImpacting": true,
          "overFlowSiteId": 108533,
          "historicSpillsList": []
        }
      ]
    },
    {
      "id": 344039408,
      "eventId": 344506,
      "siteUnitNumber": 12662,
      "bathingSite": "CHICHESTER HARBOUR",
      "eventStart": "2021-02-08T07:32:00",
      "eventStop": "2021-02-08T13:28:00",
      "duration": 356,
      "status": "Genuine",
      "associatedSiteId": 110760,
      "outfallName": "BOSHAM",
      "isImpacting": true,
      "overFlowSiteId": 0,
      "historicSpillsList": [
        {
          "id": 344039408,
          "eventId": 344506,
          "siteUnitNumber": 12662,
          "bathingSite": "CHICHESTER HARBOUR",
          "eventStart": "2021-02-08T07:32:00",
          "eventStop": "2021-02-08T13:28:00",
          "duration": 356,
          "status": "Genuine",
          "associatedSiteId": 110760,
          "outfallName": "BOSHAM",
          "isImpacting": true,
          "overFlowSiteId": 115735
        }
      ]
    },
    {
      "id": 344013498,
      "eventId": 344239,
      "siteUnitNumber": 12596,
      "bathingSite": "PAGHAM",
      "eventStart": "2021-02-08T10:22:55",
      "eventStop": "2021-02-08T12:41:58",
      "duration": 139,
      "status": "Genuine",
      "associatedSiteId": 109791,
      "outfallName": "SIDLESHAM",
      "isImpacting": true,
      "overFlowSiteId": 0,
      "historicSpillsList": [
        {
          "id": 344013498,
          "eventId": 344239,
          "siteUnitNumber": 12596,
          "bathingSite": "PAGHAM",
          "eventStart": "2021-02-08T10:22:55",
          "eventStop": "2021-02-08T12:41:58",
          "duration": 139,
          "status": "Genuine",
          "associatedSiteId": 109791,
          "outfallName": "SIDLESHAM",
          "isImpacting": true,
          "overFlowSiteId": 115807
        }
      ]
    },
    {
      "id": 344021732,
      "eventId": 344303,
      "siteUnitNumber": 12576,
      "bathingSite": "ST LEONARDS",
      "eventStart": "2021-02-08T11:31:55",
      "eventStop": "2021-02-08T12:06:17",
      "duration": 34,
      "status": "Genuine",
      "associatedSiteId": 109903,
      "outfallName": "BEXHILL & HASTINGS NO2",
      "isImpacting": true,
      "overFlowSiteId": 0,
      "historicSpillsList": [
        {
          "id": 344021732,
          "eventId": 344303,
          "siteUnitNumber": 12576,
          "bathingSite": "ST LEONARDS",
          "eventStart": "2021-02-08T11:31:55",
          "eventStop": "2021-02-08T12:06:17",
          "duration": 34,
          "status": "Genuine",
          "associatedSiteId": 109903,
          "outfallName": "BEXHILL & HASTINGS NO2",
          "isImpacting": true,
          "overFlowSiteId": 115398
        },
        {
          "id": 344021733,
          "eventId": 344303,
          "siteUnitNumber": 12577,
          "bathingSite": "BEXHILL",
          "eventStart": "2021-02-08T11:31:55",
          "eventStop": "2021-02-08T12:06:17",
          "duration": 34,
          "status": "Genuine",
          "associatedSiteId": 109903,
          "outfallName": "BEXHILL & HASTINGS NO2",
          "isImpacting": true,
          "overFlowSiteId": 115398,
          "historicSpillsList": []
        }
      ]
    },
    {
      "id": 344012416,
      "eventId": 344226,
      "siteUnitNumber": 12617,
      "bathingSite": "COWES",
      "eventStart": "2021-02-08T07:00:00",
      "eventStop": "2021-02-08T08:17:00",
      "duration": 77,
      "status": "Genuine",
      "associatedSiteId": 109777,
      "outfallName": "APPLEY PARK RYDE TRANSFER",
      "isImpacting": true,
      "overFlowSiteId": 0,
      "historicSpillsList": [
        {
          "id": 344012416,
          "eventId": 344226,
          "siteUnitNumber": 12617,
          "bathingSite": "COWES",
          "eventStart": "2021-02-08T07:00:00",
          "eventStop": "2021-02-08T08:17:00",
          "duration": 77,
          "status": "Genuine",
          "associatedSiteId": 109777,
          "outfallName": "APPLEY PARK RYDE TRANSFER",
          "isImpacting": true,
          "overFlowSiteId": 108941
        },
        {
          "id": 344012417,
          "eventId": 344226,
          "siteUnitNumber": 12618,
          "bathingSite": "RYDE",
          "eventStart": "2021-02-08T07:00:00",
          "eventStop": "2021-02-08T08:17:00",
          "duration": 77,
          "status": "Genuine",
          "associatedSiteId": 109777,
          "outfallName": "APPLEY PARK RYDE TRANSFER",
          "isImpacting": true,
          "overFlowSiteId": 108941,
          "historicSpillsList": []
        }
      ]
    },
    {
      "id": 344030449,
      "eventId": 343956,
      "siteUnitNumber": 12567,
      "bathingSite": "FOLKESTONE",
      "eventStart": "2021-02-08T04:21:01",
      "eventStop": "2021-02-08T05:09:58",
      "duration": 48,
      "status": "Genuine",
      "associatedSiteId": 110010,
      "outfallName": "THE STADE FOLKESTONE",
      "isImpacting": true,
      "overFlowSiteId": 0,
      "historicSpillsList": [
        {
          "id": 344030449,
          "eventId": 343956,
          "siteUnitNumber": 12567,
          "bathingSite": "FOLKESTONE",
          "eventStart": "2021-02-08T04:21:01",
          "eventStop": "2021-02-08T05:09:58",
          "duration": 48,
          "status": "Genuine",
          "associatedSiteId": 110010,
          "outfallName": "THE STADE FOLKESTONE",
          "isImpacting": true,
          "overFlowSiteId": 108909
        }
      ]
    },
    {
      "id": 344012418,
      "eventId": 343930,
      "siteUnitNumber": 12617,
      "bathingSite": "COWES",
      "eventStart": "2021-02-08T04:11:00",
      "eventStop": "2021-02-08T04:28:00",
      "duration": 17,
      "status": "Genuine",
      "associatedSiteId": 109777,
      "outfallName": "APPLEY PARK RYDE TRANSFER",
      "isImpacting": true,
      "overFlowSiteId": 0,
      "historicSpillsList": [
        {
          "id": 344012418,
          "eventId": 343930,
          "siteUnitNumber": 12617,
          "bathingSite": "COWES",
          "eventStart": "2021-02-08T04:11:00",
          "eventStop": "2021-02-08T04:28:00",
          "duration": 17,
          "status": "Genuine",
          "associatedSiteId": 109777,
          "outfallName": "APPLEY PARK RYDE TRANSFER",
          "isImpacting": true,
          "overFlowSiteId": 108941
        },
        {
          "id": 344012419,
          "eventId": 343930,
          "siteUnitNumber": 12618,
          "bathingSite": "RYDE",
          "eventStart": "2021-02-08T04:11:00",
          "eventStop": "2021-02-08T04:28:00",
          "duration": 17,
          "status": "Genuine",
          "associatedSiteId": 109777,
          "outfallName": "APPLEY PARK RYDE TRANSFER",
          "isImpacting": true,
          "overFlowSiteId": 108941,
          "historicSpillsList": []
        }
      ]
    },
    {
      "id": 344022098,
      "eventId": 334064,
      "siteUnitNumber": 12596,
      "bathingSite": "PAGHAM",
      "eventStart": "2021-02-01T21:21:47",
      "eventStop": "2021-02-08T02:54:00",
      "duration": 8972,
      "status": "Genuine",
      "associatedSiteId": 109911,
      "outfallName": "SUMMER LANE PAGHAM",
      "isImpacting": true,
      "overFlowSiteId": 0,
      "historicSpillsList": [
        {
          "id": 344022098,
          "eventId": 334064,
          "siteUnitNumber": 12596,
          "bathingSite": "PAGHAM",
          "eventStart": "2021-02-01T21:21:47",
          "eventStop": "2021-02-08T02:54:00",
          "duration": 8972,
          "status": "Genuine",
          "associatedSiteId": 109911,
          "outfallName": "SUMMER LANE PAGHAM",
          "isImpacting": true,
          "overFlowSiteId": 115443
        }
      ]
    },
    {
      "id": 344029267,
      "eventId": 366503,
      "siteUnitNumber": 12591,
      "bathingSite": "LITTLEHAMPTON",
      "eventStart": "2021-02-07T21:43:00",
      "eventStop": "2021-02-08T02:01:00",
      "duration": 258,
      "status": "Genuine",
      "associatedSiteId": 109977,
      "outfallName": "FORESHORE TANK LITTLEHAMPTON",
      "isImpacting": true,
      "overFlowSiteId": 0,
      "historicSpillsList": [
        {
          "id": 344029267,
          "eventId": 366503,
          "siteUnitNumber": 12591,
          "bathingSite": "LITTLEHAMPTON",
          "eventStart": "2021-02-07T21:43:00",
          "eventStop": "2021-02-08T02:01:00",
          "duration": 258,
          "status": "Genuine",
          "associatedSiteId": 109977,
          "outfallName": "FORESHORE TANK LITTLEHAMPTON",
          "isImpacting": true,
          "overFlowSiteId": 109390
        }
      ]
    },
    {
      "id": 344013503,
      "eventId": 341940,
      "siteUnitNumber": 12596,
      "bathingSite": "PAGHAM",
      "eventStart": "2021-02-06T17:30:00",
      "eventStop": "2021-02-08T01:45:00",
      "duration": 1935,
      "status": "Genuine",
      "associatedSiteId": 109791,
      "outfallName": "SIDLESHAM",
      "isImpacting": true,
      "overFlowSiteId": 0,
      "historicSpillsList": [
        {
          "id": 344013503,
          "eventId": 341940,
          "siteUnitNumber": 12596,
          "bathingSite": "PAGHAM",
          "eventStart": "2021-02-06T17:30:00",
          "eventStop": "2021-02-08T01:45:00",
          "duration": 1935,
          "status": "Genuine",
          "associatedSiteId": 109791,
          "outfallName": "SIDLESHAM",
          "isImpacting": true,
          "overFlowSiteId": 115807
        }
      ]
    },
    {
      "id": 344012420,
      "eventId": 343796,
      "siteUnitNumber": 12617,
      "bathingSite": "COWES",
      "eventStart": "2021-02-08T01:25:00",
      "eventStop": "2021-02-08T01:43:00",
      "duration": 18,
      "status": "Genuine",
      "associatedSiteId": 109777,
      "outfallName": "APPLEY PARK RYDE TRANSFER",
      "isImpacting": true,
      "overFlowSiteId": 0,
      "historicSpillsList": [
        {
          "id": 344012420,
          "eventId": 343796,
          "siteUnitNumber": 12617,
          "bathingSite": "COWES",
          "eventStart": "2021-02-08T01:25:00",
          "eventStop": "2021-02-08T01:43:00",
          "duration": 18,
          "status": "Genuine",
          "associatedSiteId": 109777,
          "outfallName": "APPLEY PARK RYDE TRANSFER",
          "isImpacting": true,
          "overFlowSiteId": 108941
        },
        {
          "id": 344012421,
          "eventId": 343796,
          "siteUnitNumber": 12618,
          "bathingSite": "RYDE",
          "eventStart": "2021-02-08T01:25:00",
          "eventStop": "2021-02-08T01:43:00",
          "duration": 18,
          "status": "Genuine",
          "associatedSiteId": 109777,
          "outfallName": "APPLEY PARK RYDE TRANSFER",
          "isImpacting": true,
          "overFlowSiteId": 108941,
          "historicSpillsList": []
        }
      ]
    },
    {
      "id": 344011201,
      "eventId": 341825,
      "siteUnitNumber": 12661,
      "bathingSite": "LANGSTONE HARBOUR",
      "eventStart": "2021-02-06T10:00:00",
      "eventStop": "2021-02-08T01:30:00",
      "duration": 2370,
      "status": "Genuine",
      "associatedSiteId": 109773,
      "outfallName": "BUDDS FARM HAVANT NO2",
      "isImpacting": true,
      "overFlowSiteId": 0,
      "historicSpillsList": [
        {
          "id": 344011201,
          "eventId": 341825,
          "siteUnitNumber": 12661,
          "bathingSite": "LANGSTONE HARBOUR",
          "eventStart": "2021-02-06T10:00:00",
          "eventStop": "2021-02-08T01:30:00",
          "duration": 2370,
          "status": "Genuine",
          "associatedSiteId": 109773,
          "outfallName": "BUDDS FARM HAVANT NO2",
          "isImpacting": true,
          "overFlowSiteId": 115936
        }
      ]
    },
    {
      "id": 344012422,
      "eventId": 342200,
      "siteUnitNumber": 12618,
      "bathingSite": "RYDE",
      "eventStart": "2021-02-06T22:15:00",
      "eventStop": "2021-02-08T01:25:00",
      "duration": 1630,
      "status": "Genuine",
      "associatedSiteId": 109777,
      "outfallName": "APPLEY PARK RYDE TRANSFER",
      "isImpacting": true,
      "overFlowSiteId": 0,
      "historicSpillsList": [
        {
          "id": 344012422,
          "eventId": 342200,
          "siteUnitNumber": 12618,
          "bathingSite": "RYDE",
          "eventStart": "2021-02-06T22:15:00",
          "eventStop": "2021-02-08T01:25:00",
          "duration": 1630,
          "status": "Genuine",
          "associatedSiteId": 109777,
          "outfallName": "APPLEY PARK RYDE TRANSFER",
          "isImpacting": true,
          "overFlowSiteId": 108941
        },
        {
          "id": 344012423,
          "eventId": 342200,
          "siteUnitNumber": 12617,
          "bathingSite": "COWES",
          "eventStart": "2021-02-06T22:15:00",
          "eventStop": "2021-02-08T01:25:00",
          "duration": 1630,
          "status": "Genuine",
          "associatedSiteId": 109777,
          "outfallName": "APPLEY PARK RYDE TRANSFER",
          "isImpacting": true,
          "overFlowSiteId": 108941,
          "historicSpillsList": []
        }
      ]
    },
    {
      "id": 344030453,
      "eventId": 343732,
      "siteUnitNumber": 12567,
      "bathingSite": "FOLKESTONE",
      "eventStart": "2021-02-07T23:23:19",
      "eventStop": "2021-02-08T00:27:53",
      "duration": 64,
      "status": "Genuine",
      "associatedSiteId": 110010,
      "outfallName": "THE STADE FOLKESTONE",
      "isImpacting": true,
      "overFlowSiteId": 0,
      "historicSpillsList": [
        {
          "id": 344030453,
          "eventId": 343732,
          "siteUnitNumber": 12567,
          "bathingSite": "FOLKESTONE",
          "eventStart": "2021-02-07T23:23:19",
          "eventStop": "2021-02-08T00:27:53",
          "duration": 64,
          "status": "Genuine",
          "associatedSiteId": 110010,
          "outfallName": "THE STADE FOLKESTONE",
          "isImpacting": true,
          "overFlowSiteId": 108909
        }
      ]
    },
    {
      "id": 344039409,
      "eventId": 343406,
      "siteUnitNumber": 12662,
      "bathingSite": "CHICHESTER HARBOUR",
      "eventStart": "2021-02-07T17:56:00",
      "eventStop": "2021-02-08T00:16:00",
      "duration": 380,
      "status": "Genuine",
      "associatedSiteId": 110760,
      "outfallName": "BOSHAM",
      "isImpacting": true,
      "overFlowSiteId": 0,
      "historicSpillsList": [
        {
          "id": 344039409,
          "eventId": 343406,
          "siteUnitNumber": 12662,
          "bathingSite": "CHICHESTER HARBOUR",
          "eventStart": "2021-02-07T17:56:00",
          "eventStop": "2021-02-08T00:16:00",
          "duration": 380,
          "status": "Genuine",
          "associatedSiteId": 110760,
          "outfallName": "BOSHAM",
          "isImpacting": true,
          "overFlowSiteId": 115735
        }
      ]
    },
    {
      "id": 344021730,
      "eventId": 343719,
      "siteUnitNumber": 12576,
      "bathingSite": "ST LEONARDS",
      "eventStart": "2021-02-07T23:20:32",
      "eventStop": "2021-02-08T00:15:04",
      "duration": 54,
      "status": "Genuine",
      "associatedSiteId": 109903,
      "outfallName": "BEXHILL & HASTINGS NO2",
      "isImpacting": true,
      "overFlowSiteId": 0,
      "historicSpillsList": [
        {
          "id": 344021730,
          "eventId": 343719,
          "siteUnitNumber": 12576,
          "bathingSite": "ST LEONARDS",
          "eventStart": "2021-02-07T23:20:32",
          "eventStop": "2021-02-08T00:15:04",
          "duration": 54,
          "status": "Genuine",
          "associatedSiteId": 109903,
          "outfallName": "BEXHILL & HASTINGS NO2",
          "isImpacting": true,
          "overFlowSiteId": 115398
        },
        {
          "id": 344021731,
          "eventId": 343719,
          "siteUnitNumber": 12577,
          "bathingSite": "BEXHILL",
          "eventStart": "2021-02-07T23:20:32",
          "eventStop": "2021-02-08T00:15:04",
          "duration": 54,
          "status": "Genuine",
          "associatedSiteId": 109903,
          "outfallName": "BEXHILL & HASTINGS NO2",
          "isImpacting": true,
          "overFlowSiteId": 115398,
          "historicSpillsList": []
        }
      ]
    },
    {
      "id": 344010638,
      "eventId": 343152,
      "siteUnitNumber": 12603,
      "bathingSite": "EASTNEY",
      "eventStart": "2021-02-07T12:58:20",
      "eventStop": "2021-02-07T23:40:00",
      "duration": 641,
      "status": "Genuine",
      "associatedSiteId": 109732,
      "outfallName": "PEEL COMMON",
      "isImpacting": true,
      "overFlowSiteId": 0,
      "historicSpillsList": [
        {
          "id": 344010638,
          "eventId": 343152,
          "siteUnitNumber": 12603,
          "bathingSite": "EASTNEY",
          "eventStart": "2021-02-07T12:58:20",
          "eventStop": "2021-02-07T23:40:00",
          "duration": 641,
          "status": "Genuine",
          "associatedSiteId": 109732,
          "outfallName": "PEEL COMMON",
          "isImpacting": true,
          "overFlowSiteId": 115425
        },
        {
          "id": 344010639,
          "eventId": 343152,
          "siteUnitNumber": 12604,
          "bathingSite": "SOUTHSEA EAST",
          "eventStart": "2021-02-07T12:58:20",
          "eventStop": "2021-02-07T23:40:00",
          "duration": 641,
          "status": "Genuine",
          "associatedSiteId": 109732,
          "outfallName": "PEEL COMMON",
          "isImpacting": true,
          "overFlowSiteId": 115425,
          "historicSpillsList": []
        },
        {
          "id": 344010640,
          "eventId": 343152,
          "siteUnitNumber": 12605,
          "bathingSite": "STOKES BAY",
          "eventStart": "2021-02-07T12:58:20",
          "eventStop": "2021-02-07T23:40:00",
          "duration": 641,
          "status": "Genuine",
          "associatedSiteId": 109732,
          "outfallName": "PEEL COMMON",
          "isImpacting": true,
          "overFlowSiteId": 115425,
          "historicSpillsList": []
        },
        {
          "id": 344010641,
          "eventId": 343152,
          "siteUnitNumber": 12606,
          "bathingSite": "LEE-ON-SOLENT",
          "eventStart": "2021-02-07T12:58:20",
          "eventStop": "2021-02-07T23:40:00",
          "duration": 641,
          "status": "Genuine",
          "associatedSiteId": 109732,
          "outfallName": "PEEL COMMON",
          "isImpacting": true,
          "overFlowSiteId": 115425,
          "historicSpillsList": []
        },
        {
          "id": 344010642,
          "eventId": 343152,
          "siteUnitNumber": 12607,
          "bathingSite": "HILLHEAD",
          "eventStart": "2021-02-07T12:58:20",
          "eventStop": "2021-02-07T23:40:00",
          "duration": 641,
          "status": "Genuine",
          "associatedSiteId": 109732,
          "outfallName": "PEEL COMMON",
          "isImpacting": true,
          "overFlowSiteId": 115425,
          "historicSpillsList": []
        }
      ]
    },
    {
      "id": 344030452,
      "eventId": 343649,
      "siteUnitNumber": 12567,
      "bathingSite": "FOLKESTONE",
      "eventStart": "2021-02-07T22:12:10",
      "eventStop": "2021-02-07T23:20:00",
      "duration": 67,
      "status": "Genuine",
      "associatedSiteId": 110010,
      "outfallName": "THE STADE FOLKESTONE",
      "isImpacting": true,
      "overFlowSiteId": 0,
      "historicSpillsList": [
        {
          "id": 344030452,
          "eventId": 343649,
          "siteUnitNumber": 12567,
          "bathingSite": "FOLKESTONE",
          "eventStart": "2021-02-07T22:12:10",
          "eventStop": "2021-02-07T23:20:00",
          "duration": 67,
          "status": "Genuine",
          "associatedSiteId": 110010,
          "outfallName": "THE STADE FOLKESTONE",
          "isImpacting": true,
          "overFlowSiteId": 108909
        }
      ]
    },
    {
      "id": 344040143,
      "eventId": 330182,
      "siteUnitNumber": 12573,
      "bathingSite": "CAMBER",
      "eventStart": "2021-01-30T09:10:00",
      "eventStop": "2021-02-07T23:15:00",
      "duration": 12365,
      "status": "Genuine",
      "associatedSiteId": 110958,
      "outfallName": "RYE",
      "isImpacting": true,
      "overFlowSiteId": 0,
      "historicSpillsList": [
        {
          "id": 344040143,
          "eventId": 330182,
          "siteUnitNumber": 12573,
          "bathingSite": "CAMBER",
          "eventStart": "2021-01-30T09:10:00",
          "eventStop": "2021-02-07T23:15:00",
          "duration": 12365,
          "status": "Genuine",
          "associatedSiteId": 110958,
          "outfallName": "RYE",
          "isImpacting": true,
          "overFlowSiteId": 115433
        }
      ]
    }
  ]
}