{
  "currentPage": 567,
  "totalItems": 21025,
  "totalPages": 841,
  "items": [
    {
      "id": 344841745,
      "eventId": 622912,
      "siteUnitNumber": 12622,
      "bathingSite": "WHITECLIFF BAY",
      "eventStart": "2022-08-17T16:53:58",
      "eventStop": "2022-08-17T17:09:29",
      "duration": 15,
      "status": "Genuine",
      "associatedSiteId": 110096,
      "outfallName": "SANDOWN NO1",
      "isImpacting": true,
      "overFlowSiteId": 0,
      "historicSpillsList": [
        {
          "id": 344841745,
          "eventId": 622912,
          "siteUnitNumber": 12622,
          "bathingSite": "WHITECLIFF BAY",
          "eventStart": "2022-08-17T16:53:58",
          "eventStop": "2022-08-17T17:09:29",
          "duration": 15,
          "status": "Genuine",
          "associatedSiteId": 110096,
          "outfallName": "SANDOWN NO1",
          "isImpacting": true,
          "overFlowSiteId": 115453
        },
        {
          "id": 344841746,
          "eventId": 622912,
          "siteUnitNumber": 12623,
          "bathingSite": "YAVERLAND",
          "eventStart": "2022-08-17T16:53:58",
          "eventStop": "2022-08-17T17:09:29",
          "duration": 15,
          "status": "Genuine",
          "associatedSiteId": 110096,
          "outfallName": "SANDOWN NO1",
          "isImpacting": true,
          "overFlowSiteId": 115453,
          "historicSpillsList": []
        },
        {
          "id": 344841747,
          "eventId": 622912,
          "siteUnitNumber": 12624,
          "bathingSite": "SANDOWN",
          "eventStart": "2022-08-17T16:53:58",
          "eventStop": "2022-08-17T17:09:29",
          "duration": 15,
          "status": "Genuine",
          "associatedSiteId": 110096,
          "outfallName": "SANDOWN NO1",
          "isImpacting": true,
          "overFlowSiteId": 115453,
          "historicSpillsList": []
        }
      ]
    },
    {
      "id": 344849063,
      "eventId": 622527,
      "siteUnitNumber": 12582,
      "bathingSite": "SEAFORD",
      "eventStart": "2022-08-17T12:00:32",
      "eventStop": "2022-08-17T17:08:08",
      "duration": 307,
      "status": "Genuine",
      "associatedSiteId": 110920,
      "outfallName": "NEWHAVEN",
      "isImpacting": true,
      "overFlowSiteId": 0,
      "historicSpillsList": [
        {
          "id": 344849063,
          "eventId": 622527,
          "siteUnitNumber": 12582,
          "bathingSite": "SEAFORD",
          "eventStart": "2022-08-17T12:00:32",
          "eventStop": "2022-08-17T17:08:08",
          "duration": 307,
          "status": "Genuine",
          "associatedSiteId": 110920,
          "outfallName": "NEWHAVEN",
          "isImpacting": true,
          "overFlowSiteId": 116065
        }
      ]
    },
    {
      "id": 344839653,
      "eventId": 622735,
      "siteUnitNumber": 12567,
      "bathingSite": "FOLKESTONE",
      "eventStart": "2022-08-17T15:12:53",
      "eventStop": "2022-08-17T16:58:00",
      "duration": 105,
      "status": "Genuine",
      "associatedSiteId": 110010,
      "outfallName": "THE STADE FOLKESTONE",
      "isImpacting": true,
      "overFlowSiteId": 0,
      "historicSpillsList": [
        {
          "id": 344839653,
          "eventId": 622735,
          "siteUnitNumber": 12567,
          "bathingSite": "FOLKESTONE",
          "eventStart": "2022-08-17T15:12:53",
          "eventStop": "2022-08-17T16:58:00",
          "duration": 105,
          "status": "Genuine",
          "associatedSiteId": 110010,
          "outfallName": "THE STADE FOLKESTONE",
          "isImpacting": true,
          "overFlowSiteId": 108909
        }
      ]
    },
    {
      "id": 344827622,
      "eventId": 622816,
      "siteUnitNumber": 12568,
      "bathingSite": "SANDGATE",
      "eventStart": "2022-08-17T16:39:37",
      "eventStop": "2022-08-17T16:46:29",
      "duration": 6,
      "status": "Genuine",
      "associatedSiteId": 109896,
      "outfallName": "RANGE ROAD HYTHE K SHORT",
      "isImpacting": true,
      "overFlowSiteId": 0,
      "historicSpillsList": [
        {
          "id": 344827622,
          "eventId": 622816,
          "siteUnitNumber": 12568,
          "bathingSite": "SANDGATE",
          "eventStart": "2022-08-17T16:39:37",
          "eventStop": "2022-08-17T16:46:29",
          "duration": 6,
          "status": "Genuine",
          "associatedSiteId": 109896,
          "outfallName": "RANGE ROAD HYTHE K SHORT",
          "isImpacting": true,
          "overFlowSiteId": 116112
        },
        {
          "id": 344827623,
          "eventId": 622816,
          "siteUnitNumber": 12569,
          "bathingSite": "HYTHE",
          "eventStart": "2022-08-17T16:39:37",
          "eventStop": "2022-08-17T16:46:29",
          "duration": 6,
          "status": "Genuine",
          "associatedSiteId": 109896,
          "outfallName": "RANGE ROAD HYTHE K SHORT",
          "isImpacting": true,
          "overFlowSiteId": 116112,
          "historicSpillsList": []
        }
      ]
    },
    {
      "id": 344849485,
      "eventId": 622730,
      "siteUnitNumber": 12577,
      "bathingSite": "BEXHILL",
      "eventStart": "2022-08-17T14:59:00",
      "eventStop": "2022-08-17T16:37:00",
      "duration": 98,
      "status": "Genuine",
      "associatedSiteId": 111338,
      "outfallName": "GALLEY HILL BEXHILL",
      "isImpacting": true,
      "overFlowSiteId": 0,
      "historicSpillsList": [
        {
          "id": 344849485,
          "eventId": 622730,
          "siteUnitNumber": 12577,
          "bathingSite": "BEXHILL",
          "eventStart": "2022-08-17T14:59:00",
          "eventStop": "2022-08-17T16:37:00",
          "duration": 98,
          "status": "Genuine",
          "associatedSiteId": 111338,
          "outfallName": "GALLEY HILL BEXHILL",
          "isImpacting": true,
          "overFlowSiteId": 110665
        }
      ]
    },
    {
      "id": 344827620,
      "eventId": 622792,
      "siteUnitNumber": 12568,
      "bathingSite": "SANDGATE",
      "eventStart": "2022-08-17T16:18:01",
      "eventStop": "2022-08-17T16:25:28",
      "duration": 7,
      "status": "Genuine",
      "associatedSiteId": 109896,
      "outfallName": "RANGE ROAD HYTHE K SHORT",
      "isImpacting": true,
      "overFlowSiteId": 0,
      "historicSpillsList": [
        {
          "id": 344827620,
          "eventId": 622792,
          "siteUnitNumber": 12568,
          "bathingSite": "SANDGATE",
          "eventStart": "2022-08-17T16:18:01",
          "eventStop": "2022-08-17T16:25:28",
          "duration": 7,
          "status": "Genuine",
          "associatedSiteId": 109896,
          "outfallName": "RANGE ROAD HYTHE K SHORT",
          "isImpacting": true,
          "overFlowSiteId": 116112
        },
        {
          "id": 344827621,
          "eventId": 622792,
          "siteUnitNumber": 12569,
          "bathingSite": "HYTHE",
          "eventStart": "2022-08-17T16:18:01",
          "eventStop": "2022-08-17T16:25:28",
          "duration": 7,
          "status": "Genuine",
          "associatedSiteId": 109896,
          "outfallName": "RANGE ROAD HYTHE K SHORT",
          "isImpacting": true,
          "overFlowSiteId": 116112,
          "historicSpillsList": []
        }
      ]
    },
    {
      "id": 344827624,
      "eventId": 622783,
      "siteUnitNumber": 12568,
      "bathingSite": "SANDGATE",
      "eventStart": "2022-08-17T15:57:53",
      "eventStop": "2022-08-17T16:06:33",
      "duration": 8,
      "status": "Genuine",
      "associatedSiteId": 109896,
      "outfallName": "RANGE ROAD HYTHE K SHORT",
      "isImpacting": true,
      "overFlowSiteId": 0,
      "historicSpillsList": [
        {
          "id": 344827624,
          "eventId": 622783,
          "siteUnitNumber": 12568,
          "bathingSite": "SANDGATE",
          "eventStart": "2022-08-17T15:57:53",
          "eventStop": "2022-08-17T16:06:33",
          "duration": 8,
          "status": "Genuine",
          "associatedSiteId": 109896,
          "outfallName": "RANGE ROAD HYTHE K SHORT",
          "isImpacting": true,
          "overFlowSiteId": 116112
        },
        {
          "id": 344827625,
          "eventId": 622783,
          "siteUnitNumber": 12569,
          "bathingSite": "HYTHE",
          "eventStart": "2022-08-17T15:57:53",
          "eventStop": "2022-08-17T16:06:33",
          "duration": 8,
          "status": "Genuine",
          "associatedSiteId": 109896,
          "outfallName": "RANGE ROAD HYTHE K SHORT",
          "isImpacting": true,
          "overFlowSiteId": 116112,
          "historicSpillsList": []
        }
      ]
    },
    {
      "id": 344826534,
      "eventId": 622738,
      "siteUnitNumber": 12568,
      "bathingSite": "SANDGATE",
      "eventStart": "2022-08-17T15:20:30",
      "eventStop": "2022-08-17T16:03:36",
      "duration": 43,
      "status": "Not Genuine",
      "associatedSiteId": 109895,
      "outfallName": "SANDGATE ROAD SEABROOK",
      "isImpacting": true,
      "overFlowSiteId": 0,
      "historicSpillsList": []
    },
    {
      "id": 344847133,
      "eventId": 622739,
      "siteUnitNumber": 12567,
      "bathingSite": "FOLKESTONE",
      "eventStart": "2022-08-17T15:24:24",
      "eventStop": "2022-08-17T16:00:09",
      "duration": 35,
      "status": "Not Genuine",
      "associatedSiteId": 110162,
      "outfallName": "FOLKESTONE JUNCTION",
      "isImpacting": true,
      "overFlowSiteId": 0,
      "historicSpillsList": []
    },
    {
      "id": 344827628,
      "eventId": 622770,
      "siteUnitNumber": 12568,
      "bathingSite": "SANDGATE",
      "eventStart": "2022-08-17T15:38:54",
      "eventStop": "2022-08-17T15:48:32",
      "duration": 9,
      "status": "Genuine",
      "associatedSiteId": 109896,
      "outfallName": "RANGE ROAD HYTHE K SHORT",
      "isImpacting": true,
      "overFlowSiteId": 0,
      "historicSpillsList": [
        {
          "id": 344827628,
          "eventId": 622770,
          "siteUnitNumber": 12568,
          "bathingSite": "SANDGATE",
          "eventStart": "2022-08-17T15:38:54",
          "eventStop": "2022-08-17T15:48:32",
          "duration": 9,
          "status": "Genuine",
          "associatedSiteId": 109896,
          "outfallName": "RANGE ROAD HYTHE K SHORT",
          "isImpacting": true,
          "overFlowSiteId": 116112
        },
        {
          "id": 344827629,
          "eventId": 622770,
          "siteUnitNumber": 12569,
          "bathingSite": "HYTHE",
          "eventStart": "2022-08-17T15:38:54",
          "eventStop": "2022-08-17T15:48:32",
          "duration": 9,
          "status": "Genuine",
          "associatedSiteId": 109896,
          "outfallName": "RANGE ROAD HYTHE K SHORT",
          "isImpacting": true,
          "overFlowSiteId": 116112,
          "historicSpillsList": []
        }
      ]
    },
    {
      "id": 344834348,
      "eventId": 622649,
      "siteUnitNumber": 12582,
      "bathingSite": "SEAFORD",
      "eventStart": "2022-08-17T15:00:00",
      "eventStop": "2022-08-17T15:30:00",
      "duration": 30,
      "status": "Genuine",
      "associatedSiteId": 109957,
      "outfallName": "PORTOBELLO BRIGHTON NO2",
      "isImpacting": true,
      "overFlowSiteId": 0,
      "historicSpillsList": [
        {
          "id": 344834348,
          "eventId": 622649,
          "siteUnitNumber": 12582,
          "bathingSite": "SEAFORD",
          "eventStart": "2022-08-17T15:00:00",
          "eventStop": "2022-08-17T15:30:00",
          "duration": 30,
          "status": "Genuine",
          "associatedSiteId": 109957,
          "outfallName": "PORTOBELLO BRIGHTON NO2",
          "isImpacting": true,
          "overFlowSiteId": 116036
        },
        {
          "id": 344834349,
          "eventId": 622649,
          "siteUnitNumber": 12583,
          "bathingSite": "SALTDEAN",
          "eventStart": "2022-08-17T15:00:00",
          "eventStop": "2022-08-17T15:30:00",
          "duration": 30,
          "status": "Genuine",
          "associatedSiteId": 109957,
          "outfallName": "PORTOBELLO BRIGHTON NO2",
          "isImpacting": true,
          "overFlowSiteId": 116036,
          "historicSpillsList": []
        }
      ]
    },
    {
      "id": 344832646,
      "eventId": 622687,
      "siteUnitNumber": 12581,
      "bathingSite": "BIRLING GAP",
      "eventStart": "2022-08-17T14:41:00",
      "eventStop": "2022-08-17T15:06:00",
      "duration": 25,
      "status": "Genuine",
      "associatedSiteId": 109936,
      "outfallName": "EAST DEAN",
      "isImpacting": true,
      "overFlowSiteId": 0,
      "historicSpillsList": [
        {
          "id": 344832646,
          "eventId": 622687,
          "siteUnitNumber": 12581,
          "bathingSite": "BIRLING GAP",
          "eventStart": "2022-08-17T14:41:00",
          "eventStop": "2022-08-17T15:06:00",
          "duration": 25,
          "status": "Genuine",
          "associatedSiteId": 109936,
          "outfallName": "EAST DEAN",
          "isImpacting": true,
          "overFlowSiteId": 115829
        }
      ]
    },
    {
      "id": 344826393,
      "eventId": 622653,
      "siteUnitNumber": 12579,
      "bathingSite": "PEVENSEY BAY",
      "eventStart": "2022-08-17T13:58:00",
      "eventStop": "2022-08-17T15:00:00",
      "duration": 62,
      "status": "Genuine",
      "associatedSiteId": 109888,
      "outfallName": "EASTBOURNE NO 2",
      "isImpacting": true,
      "overFlowSiteId": 0,
      "historicSpillsList": [
        {
          "id": 344826393,
          "eventId": 622653,
          "siteUnitNumber": 12579,
          "bathingSite": "PEVENSEY BAY",
          "eventStart": "2022-08-17T13:58:00",
          "eventStop": "2022-08-17T15:00:00",
          "duration": 62,
          "status": "Genuine",
          "associatedSiteId": 109888,
          "outfallName": "EASTBOURNE NO 2",
          "isImpacting": true,
          "overFlowSiteId": 115459
        },
        {
          "id": 344826394,
          "eventId": 622653,
          "siteUnitNumber": 12580,
          "bathingSite": "EASTBOURNE",
          "eventStart": "2022-08-17T13:58:00",
          "eventStop": "2022-08-17T15:00:00",
          "duration": 62,
          "status": "Genuine",
          "associatedSiteId": 109888,
          "outfallName": "EASTBOURNE NO 2",
          "isImpacting": true,
          "overFlowSiteId": 115459,
          "historicSpillsList": []
        }
      ]
    },
    {
      "id": 344826527,
      "eventId": 622613,
      "siteUnitNumber": 12579,
      "bathingSite": "PEVENSEY BAY",
      "eventStart": "2022-08-17T13:24:00",
      "eventStop": "2022-08-17T14:54:00",
      "duration": 90,
      "status": "Genuine",
      "associatedSiteId": 109891,
      "outfallName": "MONTAGUE WAY WESTHAM",
      "isImpacting": true,
      "overFlowSiteId": 0,
      "historicSpillsList": [
        {
          "id": 344826527,
          "eventId": 622613,
          "siteUnitNumber": 12579,
          "bathingSite": "PEVENSEY BAY",
          "eventStart": "2022-08-17T13:24:00",
          "eventStop": "2022-08-17T14:54:00",
          "duration": 90,
          "status": "Genuine",
          "associatedSiteId": 109891,
          "outfallName": "MONTAGUE WAY WESTHAM",
          "isImpacting": true,
          "overFlowSiteId": 108314
        }
      ]
    },
    {
      "id": 344854605,
      "eventId": 622898,
      "siteUnitNumber": 12577,
      "bathingSite": "BEXHILL",
      "eventStart": "2022-08-17T13:25:00",
      "eventStop": "2022-08-17T14:35:00",
      "duration": 70,
      "status": "Genuine",
      "associatedSiteId": 115504,
      "outfallName": "HARTFIELD ROAD BEXHILL",
      "isImpacting": true,
      "overFlowSiteId": 0,
      "historicSpillsList": [
        {
          "id": 344854605,
          "eventId": 622898,
          "siteUnitNumber": 12577,
          "bathingSite": "BEXHILL",
          "eventStart": "2022-08-17T13:25:00",
          "eventStop": "2022-08-17T14:35:00",
          "duration": 70,
          "status": "Genuine",
          "associatedSiteId": 115504,
          "outfallName": "HARTFIELD ROAD BEXHILL",
          "isImpacting": true,
          "overFlowSiteId": 107691
        },
        {
          "id": 344854606,
          "eventId": 622898,
          "siteUnitNumber": 12578,
          "bathingSite": "NORMANS BAY",
          "eventStart": "2022-08-17T13:25:00",
          "eventStop": "2022-08-17T14:35:00",
          "duration": 70,
          "status": "Genuine",
          "associatedSiteId": 115504,
          "outfallName": "HARTFIELD ROAD BEXHILL",
          "isImpacting": true,
          "overFlowSiteId": 107691,
          "historicSpillsList": []
        }
      ]
    },
    {
      "id": 344854451,
      "eventId": 622614,
      "siteUnitNumber": 12577,
      "bathingSite": "BEXHILL",
      "eventStart": "2022-08-17T13:25:26",
      "eventStop": "2022-08-17T14:30:00",
      "duration": 64,
      "status": "Genuine",
      "associatedSiteId": 115503,
      "outfallName": "COODEN BEACH BEXHILL",
      "isImpacting": true,
      "overFlowSiteId": 0,
      "historicSpillsList": [
        {
          "id": 344854451,
          "eventId": 622614,
          "siteUnitNumber": 12577,
          "bathingSite": "BEXHILL",
          "eventStart": "2022-08-17T13:25:26",
          "eventStop": "2022-08-17T14:30:00",
          "duration": 64,
          "status": "Genuine",
          "associatedSiteId": 115503,
          "outfallName": "COODEN BEACH BEXHILL",
          "isImpacting": true,
          "overFlowSiteId": 108029
        },
        {
          "id": 344854452,
          "eventId": 622614,
          "siteUnitNumber": 12578,
          "bathingSite": "NORMANS BAY",
          "eventStart": "2022-08-17T13:25:26",
          "eventStop": "2022-08-17T14:30:00",
          "duration": 64,
          "status": "Genuine",
          "associatedSiteId": 115503,
          "outfallName": "COODEN BEACH BEXHILL",
          "isImpacting": true,
          "overFlowSiteId": 108029,
          "historicSpillsList": []
        }
      ]
    },
    {
      "id": 344821032,
      "eventId": 622592,
      "siteUnitNumber": 12617,
      "bathingSite": "COWES",
      "eventStart": "2022-08-17T11:09:00",
      "eventStop": "2022-08-17T14:28:00",
      "duration": 199,
      "status": "Genuine",
      "associatedSiteId": 109777,
      "outfallName": "APPLEY PARK RYDE TRANSFER",
      "isImpacting": true,
      "overFlowSiteId": 0,
      "historicSpillsList": [
        {
          "id": 344821032,
          "eventId": 622592,
          "siteUnitNumber": 12617,
          "bathingSite": "COWES",
          "eventStart": "2022-08-17T11:09:00",
          "eventStop": "2022-08-17T14:28:00",
          "duration": 199,
          "status": "Genuine",
          "associatedSiteId": 109777,
          "outfallName": "APPLEY PARK RYDE TRANSFER",
          "isImpacting": true,
          "overFlowSiteId": 108941
        },
        {
          "id": 344821033,
          "eventId": 622592,
          "siteUnitNumber": 12618,
          "bathingSite": "RYDE",
          "eventStart": "2022-08-17T11:09:00",
          "eventStop": "2022-08-17T14:28:00",
          "duration": 199,
          "status": "Genuine",
          "associatedSiteId": 109777,
          "outfallName": "APPLEY PARK RYDE TRANSFER",
          "isImpacting": true,
          "overFlowSiteId": 108941,
          "historicSpillsList": []
        }
      ]
    },
    {
      "id": 344826468,
      "eventId": 622679,
      "siteUnitNumber": 12579,
      "bathingSite": "PEVENSEY BAY",
      "eventStart": "2022-08-17T13:17:00",
      "eventStop": "2022-08-17T14:14:00",
      "duration": 57,
      "status": "Genuine",
      "associatedSiteId": 109889,
      "outfallName": "RATTLE ROAD WESTHAM",
      "isImpacting": true,
      "overFlowSiteId": 0,
      "historicSpillsList": [
        {
          "id": 344826468,
          "eventId": 622679,
          "siteUnitNumber": 12579,
          "bathingSite": "PEVENSEY BAY",
          "eventStart": "2022-08-17T13:17:00",
          "eventStop": "2022-08-17T14:14:00",
          "duration": 57,
          "status": "Genuine",
          "associatedSiteId": 109889,
          "outfallName": "RATTLE ROAD WESTHAM",
          "isImpacting": true,
          "overFlowSiteId": 108315
        }
      ]
    },
    {
      "id": 344832647,
      "eventId": 622572,
      "siteUnitNumber": 12581,
      "bathingSite": "BIRLING GAP",
      "eventStart": "2022-08-17T12:48:00",
      "eventStop": "2022-08-17T13:57:00",
      "duration": 69,
      "status": "Genuine",
      "associatedSiteId": 109936,
      "outfallName": "EAST DEAN",
      "isImpacting": true,
      "overFlowSiteId": 0,
      "historicSpillsList": [
        {
          "id": 344832647,
          "eventId": 622572,
          "siteUnitNumber": 12581,
          "bathingSite": "BIRLING GAP",
          "eventStart": "2022-08-17T12:48:00",
          "eventStop": "2022-08-17T13:57:00",
          "duration": 69,
          "status": "Genuine",
          "associatedSiteId": 109936,
          "outfallName": "EAST DEAN",
          "isImpacting": true,
          "overFlowSiteId": 115829
        }
      ]
    },
    {
      "id": 344847979,
      "eventId": 622618,
      "siteUnitNumber": 12616,
      "bathingSite": "GURNARD",
      "eventStart": "2022-08-17T13:27:07",
      "eventStop": "2022-08-17T13:46:00",
      "duration": 18,
      "status": "Genuine",
      "associatedSiteId": 110701,
      "outfallName": "TERMINUS ROAD COWES 2",
      "isImpacting": true,
      "overFlowSiteId": 0,
      "historicSpillsList": [
        {
          "id": 344847979,
          "eventId": 622618,
          "siteUnitNumber": 12616,
          "bathingSite": "GURNARD",
          "eventStart": "2022-08-17T13:27:07",
          "eventStop": "2022-08-17T13:46:00",
          "duration": 18,
          "status": "Genuine",
          "associatedSiteId": 110701,
          "outfallName": "TERMINUS ROAD COWES 2",
          "isImpacting": true,
          "overFlowSiteId": 108563
        },
        {
          "id": 344847980,
          "eventId": 622618,
          "siteUnitNumber": 12617,
          "bathingSite": "COWES",
          "eventStart": "2022-08-17T13:27:07",
          "eventStop": "2022-08-17T13:46:00",
          "duration": 18,
          "status": "Genuine",
          "associatedSiteId": 110701,
          "outfallName": "TERMINUS ROAD COWES 2",
          "isImpacting": true,
          "overFlowSiteId": 108563,
          "historicSpillsList": []
        }
      ]
    },
    {
      "id": 344847977,
      "eventId": 622645,
      "siteUnitNumber": 12616,
      "bathingSite": "GURNARD",
      "eventStart": "2022-08-17T13:26:00",
      "eventStop": "2022-08-17T13:37:00",
      "duration": 11,
      "status": "Genuine",
      "associatedSiteId": 110701,
      "outfallName": "TERMINUS ROAD COWES 2",
      "isImpacting": true,
      "overFlowSiteId": 0,
      "historicSpillsList": [
        {
          "id": 344847977,
          "eventId": 622645,
          "siteUnitNumber": 12616,
          "bathingSite": "GURNARD",
          "eventStart": "2022-08-17T13:26:00",
          "eventStop": "2022-08-17T13:37:00",
          "duration": 11,
          "status": "Genuine",
          "associatedSiteId": 110701,
          "outfallName": "TERMINUS ROAD COWES 2",
          "isImpacting": true,
          "overFlowSiteId": 108562
        },
        {
          "id": 344847978,
          "eventId": 622645,
          "siteUnitNumber": 12617,
          "bathingSite": "COWES",
          "eventStart": "2022-08-17T13:26:00",
          "eventStop": "2022-08-17T13:37:00",
          "duration": 11,
          "status": "Genuine",
          "associatedSiteId": 110701,
          "outfallName": "TERMINUS ROAD COWES 2",
          "isImpacting": true,
          "overFlowSiteId": 108562,
          "historicSpillsList": []
        }
      ]
    },
    {
      "id": 344826329,
      "eventId": 622535,
      "siteUnitNumber": 12580,
      "bathingSite": "EASTBOURNE",
      "eventStart": "2022-08-17T12:25:00",
      "eventStop": "2022-08-17T12:57:00",
      "duration": 32,
      "status": "Genuine",
      "associatedSiteId": 109887,
      "outfallName": "GRANVILLE ROAD EASTBOURNE",
      "isImpacting": true,
      "overFlowSiteId": 0,
      "historicSpillsList": [
        {
          "id": 344826329,
          "eventId": 622535,
          "siteUnitNumber": 12580,
          "bathingSite": "EASTBOURNE",
          "eventStart": "2022-08-17T12:25:00",
          "eventStop": "2022-08-17T12:57:00",
          "duration": 32,
          "status": "Genuine",
          "associatedSiteId": 109887,
          "outfallName": "GRANVILLE ROAD EASTBOURNE",
          "isImpacting": true,
          "overFlowSiteId": 108241
        }
      ]
    },
    {
      "id": 344837407,
      "eventId": 622496,
      "siteUnitNumber": 12591,
      "bathingSite": "LITTLEHAMPTON",
      "eventStart": "2022-08-17T10:48:57",
      "eventStop": "2022-08-17T12:01:31",
      "duration": 72,
      "status": "Genuine",
      "associatedSiteId": 109965,
      "outfallName": "SEA ROAD LITTLEHAMPTON",
      "isImpacting": true,
      "overFlowSiteId": 0,
      "historicSpillsList": [
        {
          "id": 344837407,
          "eventId": 622496,
          "siteUnitNumber": 12591,
          "bathingSite": "LITTLEHAMPTON",
          "eventStart": "2022-08-17T10:48:57",
          "eventStop": "2022-08-17T12:01:31",
          "duration": 72,
          "status": "Genuine",
          "associatedSiteId": 109965,
          "outfallName": "SEA ROAD LITTLEHAMPTON",
          "isImpacting": true,
          "overFlowSiteId": 109368
        }
      ]
    },
    {
      "id": 344824592,
      "eventId": 622256,
      "siteUnitNumber": 12548,
      "bathingSite": "TANKERTON",
      "eventStart": "2022-08-16T12:32:04",
      "eventStop": "2022-08-16T13:10:31",
      "duration": 38,
      "status": "Genuine",
      "associatedSiteId": 109830,
      "outfallName": "SWALECLIFFE NO1",
      "isImpacting": true,
      "overFlowSiteId": 0,
      "historicSpillsList": [
        {
          "id": 344824592,
          "eventId": 622256,
          "siteUnitNumber": 12548,
          "bathingSite": "TANKERTON",
          "eventStart": "2022-08-16T12:32:04",
          "eventStop": "2022-08-16T13:10:31",
          "duration": 38,
          "status": "Genuine",
          "associatedSiteId": 109830,
          "outfallName": "SWALECLIFFE NO1",
          "isImpacting": true,
          "overFlowSiteId": 115444
        },
        {
          "id": 344824593,
          "eventId": 622256,
          "siteUnitNumber": 12549,
          "bathingSite": "HERNE BAY CENTRAL",
          "eventStart": "2022-08-16T12:32:04",
          "eventStop": "2022-08-16T13:10:31",
          "duration": 38,
          "status": "Genuine",
          "associatedSiteId": 109830,
          "outfallName": "SWALECLIFFE NO1",
          "isImpacting": true,
          "overFlowSiteId": 115444,
          "historicSpillsList": []
        }
      ]
    },
    {
      "id": 344852518,
      "eventId": 622202,
      "siteUnitNumber": 12615,
      "bathingSite": "COLWELL BAY",
      "eventStart": "2022-08-16T11:31:23",
      "eventStop": "2022-08-16T12:30:00",
      "duration": 58,
      "status": "Genuine",
      "associatedSiteId": 115498,
      "outfallName": "NORTON TRANSFER IOW",
      "isImpacting": true,
      "overFlowSiteId": 0,
      "historicSpillsList": [
        {
          "id": 344852518,
          "eventId": 622202,
          "siteUnitNumber": 12615,
          "bathingSite": "COLWELL BAY",
          "eventStart": "2022-08-16T11:31:23",
          "eventStop": "2022-08-16T12:30:00",
          "duration": 58,
          "status": "Genuine",
          "associatedSiteId": 115498,
          "outfallName": "NORTON TRANSFER IOW",
          "isImpacting": true,
          "overFlowSiteId": 108544
        },
        {
          "id": 344852519,
          "eventId": 622202,
          "siteUnitNumber": 12614,
          "bathingSite": "TOTLAND BAY",
          "eventStart": "2022-08-16T11:31:23",
          "eventStop": "2022-08-16T12:30:00",
          "duration": 58,
          "status": "Genuine",
          "associatedSiteId": 115498,
          "outfallName": "NORTON TRANSFER IOW",
          "isImpacting": true,
          "overFlowSiteId": 108544,
          "historicSpillsList": []
        }
      ]
    }
  ]
}