{
  "currentPage": 360,
  "totalItems": 18701,
  "totalPages": 749,
  "items": [
    {
      "id": 343976620,
      "eventId": 721960,
      "siteUnitNumber": 12568,
      "bathingSite": "SANDGATE",
      "eventStart": "2023-01-03T15:09:00",
      "eventStop": "2023-01-03T15:36:00",
      "duration": 27,
      "status": "Genuine",
      "associatedSiteId": 109897,
      "outfallName": "RANGE ROAD HYTHE K LONG",
      "isImpacting": false,
      "overFlowSiteId": 0,
      "historicSpillsList": []
    },
    {
      "id": 343997146,
      "eventId": 717616,
      "siteUnitNumber": 12582,
      "bathingSite": "SEAFORD",
      "eventStart": "2023-01-03T09:00:21",
      "eventStop": "2023-01-03T14:54:47",
      "duration": 354,
      "status": "Genuine",
      "associatedSiteId": 110920,
      "outfallName": "NEWHAVEN",
      "isImpacting": false,
      "overFlowSiteId": 0,
      "historicSpillsList": []
    },
    {
      "id": 343976618,
      "eventId": 721959,
      "siteUnitNumber": 12568,
      "bathingSite": "SANDGATE",
      "eventStart": "2023-01-03T11:39:00",
      "eventStop": "2023-01-03T14:50:00",
      "duration": 191,
      "status": "Genuine",
      "associatedSiteId": 109897,
      "outfallName": "RANGE ROAD HYTHE K LONG",
      "isImpacting": true,
      "overFlowSiteId": 0,
      "historicSpillsList": [
        {
          "id": 343976618,
          "eventId": 721959,
          "siteUnitNumber": 12568,
          "bathingSite": "SANDGATE",
          "eventStart": "2023-01-03T11:39:00",
          "eventStop": "2023-01-03T14:50:00",
          "duration": 191,
          "status": "Genuine",
          "associatedSiteId": 109897,
          "outfallName": "RANGE ROAD HYTHE K LONG",
          "isImpacting": true,
          "overFlowSiteId": 116048
        },
        {
          "id": 343976619,
          "eventId": 721959,
          "siteUnitNumber": 12569,
          "bathingSite": "HYTHE",
          "eventStart": "2023-01-03T11:39:00",
          "eventStop": "2023-01-03T14:50:00",
          "duration": 191,
          "status": "Genuine",
          "associatedSiteId": 109897,
          "outfallName": "RANGE ROAD HYTHE K LONG",
          "isImpacting": true,
          "overFlowSiteId": 116048,
          "historicSpillsList": []
        }
      ]
    },
    {
      "id": 343984145,
      "eventId": 717647,
      "siteUnitNumber": 12594,
      "bathingSite": "BOGNOR REGIS EAST",
      "eventStart": "2023-01-03T09:20:22",
      "eventStop": "2023-01-03T14:00:00",
      "duration": 279,
      "status": "Genuine",
      "associatedSiteId": 109959,
      "outfallName": "WEST PARK BOGNOR REGIS",
      "isImpacting": true,
      "overFlowSiteId": 0,
      "historicSpillsList": [
        {
          "id": 343984145,
          "eventId": 717647,
          "siteUnitNumber": 12594,
          "bathingSite": "BOGNOR REGIS EAST",
          "eventStart": "2023-01-03T09:20:22",
          "eventStop": "2023-01-03T14:00:00",
          "duration": 279,
          "status": "Genuine",
          "associatedSiteId": 109959,
          "outfallName": "WEST PARK BOGNOR REGIS",
          "isImpacting": true,
          "overFlowSiteId": 108160
        }
      ]
    },
    {
      "id": 343961973,
      "eventId": 718049,
      "siteUnitNumber": 12616,
      "bathingSite": "GURNARD",
      "eventStart": "2023-01-03T13:50:08",
      "eventStop": "2023-01-03T13:57:13",
      "duration": 7,
      "status": "Genuine",
      "associatedSiteId": 109652,
      "outfallName": "WOODVALE TRANSFER NO1",
      "isImpacting": true,
      "overFlowSiteId": 0,
      "historicSpillsList": [
        {
          "id": 343961974,
          "eventId": 718049,
          "siteUnitNumber": 12617,
          "bathingSite": "COWES",
          "eventStart": "2023-01-03T13:50:08",
          "eventStop": "2023-01-03T13:57:13",
          "duration": 7,
          "status": "Genuine",
          "associatedSiteId": 109652,
          "outfallName": "WOODVALE TRANSFER NO1",
          "isImpacting": true,
          "overFlowSiteId": 115966,
          "historicSpillsList": []
        }
      ]
    },
    {
      "id": 343961975,
      "eventId": 716529,
      "siteUnitNumber": 12616,
      "bathingSite": "GURNARD",
      "eventStart": "2023-01-02T19:15:00",
      "eventStop": "2023-01-03T13:45:00",
      "duration": 1110,
      "status": "Genuine",
      "associatedSiteId": 109652,
      "outfallName": "WOODVALE TRANSFER NO1",
      "isImpacting": true,
      "overFlowSiteId": 0,
      "historicSpillsList": [
        {
          "id": 343961975,
          "eventId": 716529,
          "siteUnitNumber": 12616,
          "bathingSite": "GURNARD",
          "eventStart": "2023-01-02T19:15:00",
          "eventStop": "2023-01-03T13:45:00",
          "duration": 1110,
          "status": "Genuine",
          "associatedSiteId": 109652,
          "outfallName": "WOODVALE TRANSFER NO1",
          "isImpacting": true,
          "overFlowSiteId": 115966
        },
        {
          "id": 343961976,
          "eventId": 716529,
          "siteUnitNumber": 12617,
          "bathingSite": "COWES",
          "eventStart": "2023-01-02T19:15:00",
          "eventStop": "2023-01-03T13:45:00",
          "duration": 1110,
          "status": "Genuine",
          "associatedSiteId": 109652,
          "outfallName": "WOODVALE TRANSFER NO1",
          "isImpacting": true,
          "overFlowSiteId": 115966,
          "historicSpillsList": []
        }
      ]
    },
    {
      "id": 343974354,
      "eventId": 727772,
      "siteUnitNumber": 12662,
      "bathingSite": "CHICHESTER HARBOUR",
      "eventStart": "2023-01-03T08:46:00",
      "eventStop": "2023-01-03T13:39:00",
      "duration": 293,
      "status": "Genuine",
      "associatedSiteId": 109850,
      "outfallName": "THORNHAM",
      "isImpacting": true,
      "overFlowSiteId": 0,
      "historicSpillsList": [
        {
          "id": 343974354,
          "eventId": 727772,
          "siteUnitNumber": 12662,
          "bathingSite": "CHICHESTER HARBOUR",
          "eventStart": "2023-01-03T08:46:00",
          "eventStop": "2023-01-03T13:39:00",
          "duration": 293,
          "status": "Genuine",
          "associatedSiteId": 109850,
          "outfallName": "THORNHAM",
          "isImpacting": true,
          "overFlowSiteId": 115369
        }
      ]
    },
    {
      "id": 343978316,
      "eventId": 757901,
      "siteUnitNumber": 12576,
      "bathingSite": "ST LEONARDS",
      "eventStart": "2023-01-01T00:00:00",
      "eventStop": "2023-01-03T11:40:00",
      "duration": 3580,
      "status": "Genuine",
      "associatedSiteId": 109903,
      "outfallName": "BEXHILL & HASTINGS NO2",
      "isImpacting": true,
      "overFlowSiteId": 0,
      "historicSpillsList": [
        {
          "id": 343978316,
          "eventId": 757901,
          "siteUnitNumber": 12576,
          "bathingSite": "ST LEONARDS",
          "eventStart": "2023-01-01T00:00:00",
          "eventStop": "2023-01-03T11:40:00",
          "duration": 3580,
          "status": "Genuine",
          "associatedSiteId": 109903,
          "outfallName": "BEXHILL & HASTINGS NO2",
          "isImpacting": true,
          "overFlowSiteId": 115398
        },
        {
          "id": 343978317,
          "eventId": 757901,
          "siteUnitNumber": 12577,
          "bathingSite": "BEXHILL",
          "eventStart": "2023-01-01T00:00:00",
          "eventStop": "2023-01-03T11:40:00",
          "duration": 3580,
          "status": "Genuine",
          "associatedSiteId": 109903,
          "outfallName": "BEXHILL & HASTINGS NO2",
          "isImpacting": true,
          "overFlowSiteId": 115398,
          "historicSpillsList": []
        }
      ]
    },
    {
      "id": 343976624,
      "eventId": 721957,
      "siteUnitNumber": 12568,
      "bathingSite": "SANDGATE",
      "eventStart": "2023-01-03T09:53:00",
      "eventStop": "2023-01-03T11:21:00",
      "duration": 88,
      "status": "Genuine",
      "associatedSiteId": 109897,
      "outfallName": "RANGE ROAD HYTHE K LONG",
      "isImpacting": true,
      "overFlowSiteId": 0,
      "historicSpillsList": [
        {
          "id": 343976624,
          "eventId": 721957,
          "siteUnitNumber": 12568,
          "bathingSite": "SANDGATE",
          "eventStart": "2023-01-03T09:53:00",
          "eventStop": "2023-01-03T11:21:00",
          "duration": 88,
          "status": "Genuine",
          "associatedSiteId": 109897,
          "outfallName": "RANGE ROAD HYTHE K LONG",
          "isImpacting": true,
          "overFlowSiteId": 116048
        }
      ]
    },
    {
      "id": 343966619,
      "eventId": 717809,
      "siteUnitNumber": 12616,
      "bathingSite": "GURNARD",
      "eventStart": "2023-01-03T10:34:28",
      "eventStop": "2023-01-03T10:36:34",
      "duration": 2,
      "status": "Genuine",
      "associatedSiteId": 109706,
      "outfallName": "HIGH STREET COWES",
      "isImpacting": false,
      "overFlowSiteId": 0,
      "historicSpillsList": []
    },
    {
      "id": 343976622,
      "eventId": 721956,
      "siteUnitNumber": 12568,
      "bathingSite": "SANDGATE",
      "eventStart": "2023-01-03T09:09:00",
      "eventStop": "2023-01-03T09:36:00",
      "duration": 27,
      "status": "Genuine",
      "associatedSiteId": 109897,
      "outfallName": "RANGE ROAD HYTHE K LONG",
      "isImpacting": true,
      "overFlowSiteId": 0,
      "historicSpillsList": [
        {
          "id": 343976622,
          "eventId": 721956,
          "siteUnitNumber": 12568,
          "bathingSite": "SANDGATE",
          "eventStart": "2023-01-03T09:09:00",
          "eventStop": "2023-01-03T09:36:00",
          "duration": 27,
          "status": "Genuine",
          "associatedSiteId": 109897,
          "outfallName": "RANGE ROAD HYTHE K LONG",
          "isImpacting": true,
          "overFlowSiteId": 116048
        }
      ]
    },
    {
      "id": 343984148,
      "eventId": 717675,
      "siteUnitNumber": 12594,
      "bathingSite": "BOGNOR REGIS EAST",
      "eventStart": "2023-01-03T09:00:00",
      "eventStop": "2023-01-03T09:20:22",
      "duration": 20,
      "status": "Genuine",
      "associatedSiteId": 109959,
      "outfallName": "WEST PARK BOGNOR REGIS",
      "isImpacting": false,
      "overFlowSiteId": 0,
      "historicSpillsList": []
    },
    {
      "id": 343976628,
      "eventId": 721945,
      "siteUnitNumber": 12568,
      "bathingSite": "SANDGATE",
      "eventStart": "2023-01-03T07:38:00",
      "eventStop": "2023-01-03T08:50:00",
      "duration": 72,
      "status": "Genuine",
      "associatedSiteId": 109897,
      "outfallName": "RANGE ROAD HYTHE K LONG",
      "isImpacting": true,
      "overFlowSiteId": 0,
      "historicSpillsList": [
        {
          "id": 343976628,
          "eventId": 721945,
          "siteUnitNumber": 12568,
          "bathingSite": "SANDGATE",
          "eventStart": "2023-01-03T07:38:00",
          "eventStop": "2023-01-03T08:50:00",
          "duration": 72,
          "status": "Genuine",
          "associatedSiteId": 109897,
          "outfallName": "RANGE ROAD HYTHE K LONG",
          "isImpacting": true,
          "overFlowSiteId": 116048
        }
      ]
    },
    {
      "id": 343992775,
      "eventId": 717223,
      "siteUnitNumber": 12619,
      "bathingSite": "SEAGROVE",
      "eventStart": "2023-01-03T05:06:21",
      "eventStop": "2023-01-03T08:30:03",
      "duration": 203,
      "status": "Genuine",
      "associatedSiteId": 110097,
      "outfallName": "SANDOWN NO2",
      "isImpacting": true,
      "overFlowSiteId": 0,
      "historicSpillsList": [
        {
          "id": 343992768,
          "eventId": 717223,
          "siteUnitNumber": 12623,
          "bathingSite": "YAVERLAND",
          "eventStart": "2023-01-03T05:06:21",
          "eventStop": "2023-01-03T08:30:03",
          "duration": 203,
          "status": "Genuine",
          "associatedSiteId": 110097,
          "outfallName": "SANDOWN NO2",
          "isImpacting": true,
          "overFlowSiteId": 115454,
          "historicSpillsList": []
        },
        {
          "id": 343992769,
          "eventId": 717223,
          "siteUnitNumber": 12624,
          "bathingSite": "SANDOWN",
          "eventStart": "2023-01-03T05:06:21",
          "eventStop": "2023-01-03T08:30:03",
          "duration": 203,
          "status": "Genuine",
          "associatedSiteId": 110097,
          "outfallName": "SANDOWN NO2",
          "isImpacting": true,
          "overFlowSiteId": 115454,
          "historicSpillsList": []
        }
      ]
    },
    {
      "id": 343985477,
      "eventId": 718181,
      "siteUnitNumber": 12591,
      "bathingSite": "LITTLEHAMPTON",
      "eventStart": "2023-01-03T08:05:00",
      "eventStop": "2023-01-03T08:25:00",
      "duration": 20,
      "status": "Genuine",
      "associatedSiteId": 109965,
      "outfallName": "SEA ROAD LITTLEHAMPTON",
      "isImpacting": false,
      "overFlowSiteId": 0,
      "historicSpillsList": []
    },
    {
      "id": 343976626,
      "eventId": 721944,
      "siteUnitNumber": 12568,
      "bathingSite": "SANDGATE",
      "eventStart": "2023-01-03T06:41:00",
      "eventStop": "2023-01-03T07:12:00",
      "duration": 31,
      "status": "Genuine",
      "associatedSiteId": 109897,
      "outfallName": "RANGE ROAD HYTHE K LONG",
      "isImpacting": true,
      "overFlowSiteId": 0,
      "historicSpillsList": [
        {
          "id": 343976626,
          "eventId": 721944,
          "siteUnitNumber": 12568,
          "bathingSite": "SANDGATE",
          "eventStart": "2023-01-03T06:41:00",
          "eventStop": "2023-01-03T07:12:00",
          "duration": 31,
          "status": "Genuine",
          "associatedSiteId": 109897,
          "outfallName": "RANGE ROAD HYTHE K LONG",
          "isImpacting": true,
          "overFlowSiteId": 116048
        }
      ]
    },
    {
      "id": 343985476,
      "eventId": 718180,
      "siteUnitNumber": 12591,
      "bathingSite": "LITTLEHAMPTON",
      "eventStart": "2023-01-03T05:43:00",
      "eventStop": "2023-01-03T06:51:00",
      "duration": 68,
      "status": "Genuine",
      "associatedSiteId": 109965,
      "outfallName": "SEA ROAD LITTLEHAMPTON",
      "isImpacting": false,
      "overFlowSiteId": 0,
      "historicSpillsList": []
    },
    {
      "id": 343976632,
      "eventId": 721943,
      "siteUnitNumber": 12568,
      "bathingSite": "SANDGATE",
      "eventStart": "2023-01-03T05:55:00",
      "eventStop": "2023-01-03T06:19:00",
      "duration": 24,
      "status": "Genuine",
      "associatedSiteId": 109897,
      "outfallName": "RANGE ROAD HYTHE K LONG",
      "isImpacting": false,
      "overFlowSiteId": 0,
      "historicSpillsList": []
    },
    {
      "id": 343976658,
      "eventId": 717253,
      "siteUnitNumber": 12568,
      "bathingSite": "SANDGATE",
      "eventStart": "2023-01-03T04:42:00",
      "eventStop": "2023-01-03T05:36:00",
      "duration": 54,
      "status": "Genuine",
      "associatedSiteId": 109897,
      "outfallName": "RANGE ROAD HYTHE K LONG",
      "isImpacting": false,
      "overFlowSiteId": 0,
      "historicSpillsList": []
    },
    {
      "id": 343992773,
      "eventId": 717167,
      "siteUnitNumber": 12624,
      "bathingSite": "SANDOWN",
      "eventStart": "2023-01-03T04:05:16",
      "eventStop": "2023-01-03T05:00:05",
      "duration": 54,
      "status": "Genuine",
      "associatedSiteId": 110097,
      "outfallName": "SANDOWN NO2",
      "isImpacting": true,
      "overFlowSiteId": 0,
      "historicSpillsList": [
        {
          "id": 343992782,
          "eventId": 717167,
          "siteUnitNumber": 12623,
          "bathingSite": "YAVERLAND",
          "eventStart": "2023-01-03T04:05:16",
          "eventStop": "2023-01-03T05:00:05",
          "duration": 54,
          "status": "Genuine",
          "associatedSiteId": 110097,
          "outfallName": "SANDOWN NO2",
          "isImpacting": true,
          "overFlowSiteId": 115454,
          "historicSpillsList": []
        }
      ]
    },
    {
      "id": 343986601,
      "eventId": 755024,
      "siteUnitNumber": 12591,
      "bathingSite": "LITTLEHAMPTON",
      "eventStart": "2023-01-01T00:00:00",
      "eventStop": "2023-01-03T04:48:00",
      "duration": 3168,
      "status": "Genuine",
      "associatedSiteId": 109977,
      "outfallName": "FORESHORE TANK LITTLEHAMPTON",
      "isImpacting": true,
      "overFlowSiteId": 0,
      "historicSpillsList": [
        {
          "id": 343986601,
          "eventId": 755024,
          "siteUnitNumber": 12591,
          "bathingSite": "LITTLEHAMPTON",
          "eventStart": "2023-01-01T00:00:00",
          "eventStop": "2023-01-03T04:48:00",
          "duration": 3168,
          "status": "Genuine",
          "associatedSiteId": 109977,
          "outfallName": "FORESHORE TANK LITTLEHAMPTON",
          "isImpacting": true,
          "overFlowSiteId": 109390
        }
      ]
    },
    {
      "id": 343980918,
      "eventId": 720545,
      "siteUnitNumber": 12620,
      "bathingSite": "ST HELENS",
      "eventStart": "2023-01-01T19:21:00",
      "eventStop": "2023-01-03T04:40:00",
      "duration": 1999,
      "status": "Genuine",
      "associatedSiteId": 109937,
      "outfallName": "HILLWAY BEMBRIDGE",
      "isImpacting": false,
      "overFlowSiteId": 0,
      "historicSpillsList": []
    },
    {
      "id": 343976664,
      "eventId": 716708,
      "siteUnitNumber": 12568,
      "bathingSite": "SANDGATE",
      "eventStart": "2023-01-02T23:30:00",
      "eventStop": "2023-01-03T04:30:00",
      "duration": 300,
      "status": "Genuine",
      "associatedSiteId": 109897,
      "outfallName": "RANGE ROAD HYTHE K LONG",
      "isImpacting": true,
      "overFlowSiteId": 0,
      "historicSpillsList": [
        {
          "id": 343976664,
          "eventId": 716708,
          "siteUnitNumber": 12568,
          "bathingSite": "SANDGATE",
          "eventStart": "2023-01-02T23:30:00",
          "eventStop": "2023-01-03T04:30:00",
          "duration": 300,
          "status": "Genuine",
          "associatedSiteId": 109897,
          "outfallName": "RANGE ROAD HYTHE K LONG",
          "isImpacting": true,
          "overFlowSiteId": 116048
        },
        {
          "id": 343976665,
          "eventId": 716708,
          "siteUnitNumber": 12569,
          "bathingSite": "HYTHE",
          "eventStart": "2023-01-02T23:30:00",
          "eventStop": "2023-01-03T04:30:00",
          "duration": 300,
          "status": "Genuine",
          "associatedSiteId": 109897,
          "outfallName": "RANGE ROAD HYTHE K LONG",
          "isImpacting": true,
          "overFlowSiteId": 116048,
          "historicSpillsList": []
        }
      ]
    },
    {
      "id": 343968459,
      "eventId": 716711,
      "siteUnitNumber": 12661,
      "bathingSite": "LANGSTONE HARBOUR",
      "eventStart": "2023-01-02T23:58:17",
      "eventStop": "2023-01-03T04:21:00",
      "duration": 262,
      "status": "Genuine",
      "associatedSiteId": 109773,
      "outfallName": "BUDDS FARM HAVANT NO2",
      "isImpacting": true,
      "overFlowSiteId": 0,
      "historicSpillsList": [
        {
          "id": 343968459,
          "eventId": 716711,
          "siteUnitNumber": 12661,
          "bathingSite": "LANGSTONE HARBOUR",
          "eventStart": "2023-01-02T23:58:17",
          "eventStop": "2023-01-03T04:21:00",
          "duration": 262,
          "status": "Genuine",
          "associatedSiteId": 109773,
          "outfallName": "BUDDS FARM HAVANT NO2",
          "isImpacting": true,
          "overFlowSiteId": 116279
        }
      ]
    },
    {
      "id": 343992783,
      "eventId": 716568,
      "siteUnitNumber": 12619,
      "bathingSite": "SEAGROVE",
      "eventStart": "2023-01-02T19:40:46",
      "eventStop": "2023-01-03T04:04:16",
      "duration": 503,
      "status": "Genuine",
      "associatedSiteId": 110097,
      "outfallName": "SANDOWN NO2",
      "isImpacting": true,
      "overFlowSiteId": 0,
      "historicSpillsList": [
        {
          "id": 343992786,
          "eventId": 716568,
          "siteUnitNumber": 12623,
          "bathingSite": "YAVERLAND",
          "eventStart": "2023-01-02T19:40:46",
          "eventStop": "2023-01-03T04:04:16",
          "duration": 503,
          "status": "Genuine",
          "associatedSiteId": 110097,
          "outfallName": "SANDOWN NO2",
          "isImpacting": true,
          "overFlowSiteId": 115454,
          "historicSpillsList": []
        },
        {
          "id": 343992787,
          "eventId": 716568,
          "siteUnitNumber": 12624,
          "bathingSite": "SANDOWN",
          "eventStart": "2023-01-02T19:40:46",
          "eventStop": "2023-01-03T04:04:16",
          "duration": 503,
          "status": "Genuine",
          "associatedSiteId": 110097,
          "outfallName": "SANDOWN NO2",
          "isImpacting": true,
          "overFlowSiteId": 115454,
          "historicSpillsList": []
        }
      ]
    }
  ]
}