{
  "currentPage": 128,
  "totalItems": 18701,
  "totalPages": 749,
  "items": [
    {
      "id": 343939504,
      "eventId": 888190,
      "siteUnitNumber": 12582,
      "bathingSite": "SEAFORD",
      "eventStart": "2023-10-31T12:13:54",
      "eventStop": "2023-10-31T13:00:00",
      "duration": 46,
      "status": "Genuine",
      "associatedSiteId": 109957,
      "outfallName": "PORTOBELLO BRIGHTON NO2",
      "isImpacting": true,
      "overFlowSiteId": 0,
      "historicSpillsList": [
        {
          "id": 343939505,
          "eventId": 888190,
          "siteUnitNumber": 12583,
          "bathingSite": "SALTDEAN",
          "eventStart": "2023-10-31T12:13:54",
          "eventStop": "2023-10-31T13:00:00",
          "duration": 46,
          "status": "Genuine",
          "associatedSiteId": 109957,
          "outfallName": "PORTOBELLO BRIGHTON NO2",
          "isImpacting": true,
          "overFlowSiteId": 116012,
          "historicSpillsList": []
        }
      ]
    },
    {
      "id": 343943715,
      "eventId": 887624,
      "siteUnitNumber": 12594,
      "bathingSite": "BOGNOR REGIS EAST",
      "eventStart": "2023-10-31T04:13:46",
      "eventStop": "2023-10-31T12:38:57",
      "duration": 505,
      "status": "Genuine",
      "associatedSiteId": 109972,
      "outfallName": "BOGNOR MAIN",
      "isImpacting": true,
      "overFlowSiteId": 0,
      "historicSpillsList": [
        {
          "id": 343943715,
          "eventId": 887624,
          "siteUnitNumber": 12594,
          "bathingSite": "BOGNOR REGIS EAST",
          "eventStart": "2023-10-31T04:13:46",
          "eventStop": "2023-10-31T12:38:57",
          "duration": 505,
          "status": "Genuine",
          "associatedSiteId": 109972,
          "outfallName": "BOGNOR MAIN",
          "isImpacting": true,
          "overFlowSiteId": 107412
        },
        {
          "id": 343943724,
          "eventId": 887624,
          "siteUnitNumber": 12593,
          "bathingSite": "FELPHAM",
          "eventStart": "2023-10-31T04:13:46",
          "eventStop": "2023-10-31T12:38:57",
          "duration": 505,
          "status": "Genuine",
          "associatedSiteId": 109972,
          "outfallName": "BOGNOR MAIN",
          "isImpacting": true,
          "overFlowSiteId": 107412,
          "historicSpillsList": []
        }
      ]
    },
    {
      "id": 343923757,
      "eventId": 888095,
      "siteUnitNumber": 12616,
      "bathingSite": "GURNARD",
      "eventStart": "2023-10-31T12:16:25",
      "eventStop": "2023-10-31T12:38:35",
      "duration": 22,
      "status": "Genuine",
      "associatedSiteId": 109706,
      "outfallName": "HIGH STREET COWES",
      "isImpacting": false,
      "overFlowSiteId": 0,
      "historicSpillsList": []
    },
    {
      "id": 343959721,
      "eventId": 897897,
      "siteUnitNumber": 12577,
      "bathingSite": "BEXHILL",
      "eventStart": "2023-10-31T12:08:00",
      "eventStop": "2023-10-31T12:37:00",
      "duration": 29,
      "status": "Genuine",
      "associatedSiteId": 115499,
      "outfallName": "BROCKLEY ROAD BEXHILL",
      "isImpacting": true,
      "overFlowSiteId": 0,
      "historicSpillsList": [
        {
          "id": 343959721,
          "eventId": 897897,
          "siteUnitNumber": 12577,
          "bathingSite": "BEXHILL",
          "eventStart": "2023-10-31T12:08:00",
          "eventStop": "2023-10-31T12:37:00",
          "duration": 29,
          "status": "Genuine",
          "associatedSiteId": 115499,
          "outfallName": "BROCKLEY ROAD BEXHILL",
          "isImpacting": true,
          "overFlowSiteId": 103297
        }
      ]
    },
    {
      "id": 343954270,
      "eventId": 887517,
      "siteUnitNumber": 12620,
      "bathingSite": "ST HELENS",
      "eventStart": "2023-10-31T01:58:00",
      "eventStop": "2023-10-31T12:37:00",
      "duration": 639,
      "status": "Genuine",
      "associatedSiteId": 110761,
      "outfallName": "BRADING",
      "isImpacting": true,
      "overFlowSiteId": 0,
      "historicSpillsList": [
        {
          "id": 343954270,
          "eventId": 887517,
          "siteUnitNumber": 12620,
          "bathingSite": "ST HELENS",
          "eventStart": "2023-10-31T01:58:00",
          "eventStop": "2023-10-31T12:37:00",
          "duration": 639,
          "status": "Genuine",
          "associatedSiteId": 110761,
          "outfallName": "BRADING",
          "isImpacting": true,
          "overFlowSiteId": 113676
        }
      ]
    },
    {
      "id": 343944519,
      "eventId": 888098,
      "siteUnitNumber": 12575,
      "bathingSite": "HASTINGS PELHAM BEACH",
      "eventStart": "2023-10-31T12:20:53",
      "eventStop": "2023-10-31T12:30:49",
      "duration": 9,
      "status": "Genuine",
      "associatedSiteId": 109982,
      "outfallName": "COOMBS HASTINGS",
      "isImpacting": true,
      "overFlowSiteId": 0,
      "historicSpillsList": [
        {
          "id": 343944520,
          "eventId": 888098,
          "siteUnitNumber": 12576,
          "bathingSite": "ST LEONARDS",
          "eventStart": "2023-10-31T12:20:53",
          "eventStop": "2023-10-31T12:30:49",
          "duration": 9,
          "status": "Genuine",
          "associatedSiteId": 109982,
          "outfallName": "COOMBS HASTINGS",
          "isImpacting": true,
          "overFlowSiteId": 110211,
          "historicSpillsList": []
        }
      ]
    },
    {
      "id": 343934852,
      "eventId": 889660,
      "siteUnitNumber": 12575,
      "bathingSite": "HASTINGS PELHAM BEACH",
      "eventStart": "2023-10-31T12:20:00",
      "eventStop": "2023-10-31T12:22:00",
      "duration": 2,
      "status": "Genuine",
      "associatedSiteId": 109899,
      "outfallName": "SEASIDE ROAD HASTINGS",
      "isImpacting": true,
      "overFlowSiteId": 0,
      "historicSpillsList": [
        {
          "id": 343934852,
          "eventId": 889660,
          "siteUnitNumber": 12575,
          "bathingSite": "HASTINGS PELHAM BEACH",
          "eventStart": "2023-10-31T12:20:00",
          "eventStop": "2023-10-31T12:22:00",
          "duration": 2,
          "status": "Genuine",
          "associatedSiteId": 109899,
          "outfallName": "SEASIDE ROAD HASTINGS",
          "isImpacting": true,
          "overFlowSiteId": 107639
        },
        {
          "id": 343934853,
          "eventId": 889660,
          "siteUnitNumber": 12576,
          "bathingSite": "ST LEONARDS",
          "eventStart": "2023-10-31T12:20:00",
          "eventStop": "2023-10-31T12:22:00",
          "duration": 2,
          "status": "Genuine",
          "associatedSiteId": 109899,
          "outfallName": "SEASIDE ROAD HASTINGS",
          "isImpacting": true,
          "overFlowSiteId": 107639,
          "historicSpillsList": []
        }
      ]
    },
    {
      "id": 343944531,
      "eventId": 888036,
      "siteUnitNumber": 12575,
      "bathingSite": "HASTINGS PELHAM BEACH",
      "eventStart": "2023-10-31T11:38:04",
      "eventStop": "2023-10-31T12:15:00",
      "duration": 36,
      "status": "Genuine",
      "associatedSiteId": 109982,
      "outfallName": "COOMBS HASTINGS",
      "isImpacting": true,
      "overFlowSiteId": 0,
      "historicSpillsList": [
        {
          "id": 343944532,
          "eventId": 888036,
          "siteUnitNumber": 12576,
          "bathingSite": "ST LEONARDS",
          "eventStart": "2023-10-31T11:38:04",
          "eventStop": "2023-10-31T12:15:00",
          "duration": 36,
          "status": "Genuine",
          "associatedSiteId": 109982,
          "outfallName": "COOMBS HASTINGS",
          "isImpacting": true,
          "overFlowSiteId": 110211,
          "historicSpillsList": []
        }
      ]
    },
    {
      "id": 343939508,
      "eventId": 888188,
      "siteUnitNumber": 12582,
      "bathingSite": "SEAFORD",
      "eventStart": "2023-10-31T12:07:10",
      "eventStop": "2023-10-31T12:11:37",
      "duration": 4,
      "status": "Genuine",
      "associatedSiteId": 109957,
      "outfallName": "PORTOBELLO BRIGHTON NO2",
      "isImpacting": true,
      "overFlowSiteId": 0,
      "historicSpillsList": [
        {
          "id": 343939509,
          "eventId": 888188,
          "siteUnitNumber": 12583,
          "bathingSite": "SALTDEAN",
          "eventStart": "2023-10-31T12:07:10",
          "eventStop": "2023-10-31T12:11:37",
          "duration": 4,
          "status": "Genuine",
          "associatedSiteId": 109957,
          "outfallName": "PORTOBELLO BRIGHTON NO2",
          "isImpacting": true,
          "overFlowSiteId": 116012,
          "historicSpillsList": []
        }
      ]
    },
    {
      "id": 343931440,
      "eventId": 888033,
      "siteUnitNumber": 12662,
      "bathingSite": "CHICHESTER HARBOUR",
      "eventStart": "2023-10-31T11:38:00",
      "eventStop": "2023-10-31T12:11:00",
      "duration": 33,
      "status": "Genuine",
      "associatedSiteId": 109836,
      "outfallName": "CHICHESTER",
      "isImpacting": true,
      "overFlowSiteId": 0,
      "historicSpillsList": [
        {
          "id": 343931440,
          "eventId": 888033,
          "siteUnitNumber": 12662,
          "bathingSite": "CHICHESTER HARBOUR",
          "eventStart": "2023-10-31T11:38:00",
          "eventStop": "2023-10-31T12:11:00",
          "duration": 33,
          "status": "Genuine",
          "associatedSiteId": 109836,
          "outfallName": "CHICHESTER",
          "isImpacting": true,
          "overFlowSiteId": 115401
        }
      ]
    },
    {
      "id": 343934850,
      "eventId": 887700,
      "siteUnitNumber": 12575,
      "bathingSite": "HASTINGS PELHAM BEACH",
      "eventStart": "2023-10-31T12:05:00",
      "eventStop": "2023-10-31T12:08:00",
      "duration": 3,
      "status": "Genuine",
      "associatedSiteId": 109899,
      "outfallName": "SEASIDE ROAD HASTINGS",
      "isImpacting": true,
      "overFlowSiteId": 0,
      "historicSpillsList": [
        {
          "id": 343934850,
          "eventId": 887700,
          "siteUnitNumber": 12575,
          "bathingSite": "HASTINGS PELHAM BEACH",
          "eventStart": "2023-10-31T12:05:00",
          "eventStop": "2023-10-31T12:08:00",
          "duration": 3,
          "status": "Genuine",
          "associatedSiteId": 109899,
          "outfallName": "SEASIDE ROAD HASTINGS",
          "isImpacting": true,
          "overFlowSiteId": 107639
        },
        {
          "id": 343934851,
          "eventId": 887700,
          "siteUnitNumber": 12576,
          "bathingSite": "ST LEONARDS",
          "eventStart": "2023-10-31T12:05:00",
          "eventStop": "2023-10-31T12:08:00",
          "duration": 3,
          "status": "Genuine",
          "associatedSiteId": 109899,
          "outfallName": "SEASIDE ROAD HASTINGS",
          "isImpacting": true,
          "overFlowSiteId": 107639,
          "historicSpillsList": []
        }
      ]
    },
    {
      "id": 343939506,
      "eventId": 888185,
      "siteUnitNumber": 12582,
      "bathingSite": "SEAFORD",
      "eventStart": "2023-10-31T11:58:39",
      "eventStop": "2023-10-31T12:03:24",
      "duration": 4,
      "status": "Genuine",
      "associatedSiteId": 109957,
      "outfallName": "PORTOBELLO BRIGHTON NO2",
      "isImpacting": true,
      "overFlowSiteId": 0,
      "historicSpillsList": [
        {
          "id": 343939507,
          "eventId": 888185,
          "siteUnitNumber": 12583,
          "bathingSite": "SALTDEAN",
          "eventStart": "2023-10-31T11:58:39",
          "eventStop": "2023-10-31T12:03:24",
          "duration": 4,
          "status": "Genuine",
          "associatedSiteId": 109957,
          "outfallName": "PORTOBELLO BRIGHTON NO2",
          "isImpacting": true,
          "overFlowSiteId": 116012,
          "historicSpillsList": []
        }
      ]
    },
    {
      "id": 343939177,
      "eventId": 888071,
      "siteUnitNumber": 12583,
      "bathingSite": "SALTDEAN",
      "eventStart": "2023-10-31T11:20:00",
      "eventStop": "2023-10-31T11:57:00",
      "duration": 37,
      "status": "Genuine",
      "associatedSiteId": 109955,
      "outfallName": "PORTOBELLO BRIGHTON NO1",
      "isImpacting": true,
      "overFlowSiteId": 0,
      "historicSpillsList": [
        {
          "id": 343939177,
          "eventId": 888071,
          "siteUnitNumber": 12583,
          "bathingSite": "SALTDEAN",
          "eventStart": "2023-10-31T11:20:00",
          "eventStop": "2023-10-31T11:57:00",
          "duration": 37,
          "status": "Genuine",
          "associatedSiteId": 109955,
          "outfallName": "PORTOBELLO BRIGHTON NO1",
          "isImpacting": true,
          "overFlowSiteId": 111606
        }
      ]
    },
    {
      "id": 343939510,
      "eventId": 888183,
      "siteUnitNumber": 12582,
      "bathingSite": "SEAFORD",
      "eventStart": "2023-10-31T11:51:02",
      "eventStop": "2023-10-31T11:54:47",
      "duration": 3,
      "status": "Genuine",
      "associatedSiteId": 109957,
      "outfallName": "PORTOBELLO BRIGHTON NO2",
      "isImpacting": true,
      "overFlowSiteId": 0,
      "historicSpillsList": [
        {
          "id": 343939511,
          "eventId": 888183,
          "siteUnitNumber": 12583,
          "bathingSite": "SALTDEAN",
          "eventStart": "2023-10-31T11:51:02",
          "eventStop": "2023-10-31T11:54:47",
          "duration": 3,
          "status": "Genuine",
          "associatedSiteId": 109957,
          "outfallName": "PORTOBELLO BRIGHTON NO2",
          "isImpacting": true,
          "overFlowSiteId": 116012,
          "historicSpillsList": []
        }
      ]
    },
    {
      "id": 343939514,
      "eventId": 888073,
      "siteUnitNumber": 12582,
      "bathingSite": "SEAFORD",
      "eventStart": "2023-10-31T11:41:01",
      "eventStop": "2023-10-31T11:45:32",
      "duration": 4,
      "status": "Genuine",
      "associatedSiteId": 109957,
      "outfallName": "PORTOBELLO BRIGHTON NO2",
      "isImpacting": true,
      "overFlowSiteId": 0,
      "historicSpillsList": [
        {
          "id": 343939515,
          "eventId": 888073,
          "siteUnitNumber": 12583,
          "bathingSite": "SALTDEAN",
          "eventStart": "2023-10-31T11:41:01",
          "eventStop": "2023-10-31T11:45:32",
          "duration": 4,
          "status": "Genuine",
          "associatedSiteId": 109957,
          "outfallName": "PORTOBELLO BRIGHTON NO2",
          "isImpacting": true,
          "overFlowSiteId": 116012,
          "historicSpillsList": []
        }
      ]
    },
    {
      "id": 343938693,
      "eventId": 900555,
      "siteUnitNumber": 12621,
      "bathingSite": "BEMBRIDGE",
      "eventStart": "2023-10-31T01:37:00",
      "eventStop": "2023-10-31T11:43:00",
      "duration": 606,
      "status": "Genuine",
      "associatedSiteId": 109939,
      "outfallName": "LANE END ROAD BEMBRIDGE",
      "isImpacting": true,
      "overFlowSiteId": 0,
      "historicSpillsList": [
        {
          "id": 343938693,
          "eventId": 900555,
          "siteUnitNumber": 12621,
          "bathingSite": "BEMBRIDGE",
          "eventStart": "2023-10-31T01:37:00",
          "eventStop": "2023-10-31T11:43:00",
          "duration": 606,
          "status": "Genuine",
          "associatedSiteId": 109939,
          "outfallName": "LANE END ROAD BEMBRIDGE",
          "isImpacting": true,
          "overFlowSiteId": 108533
        }
      ]
    },
    {
      "id": 343944533,
      "eventId": 888048,
      "siteUnitNumber": 12575,
      "bathingSite": "HASTINGS PELHAM BEACH",
      "eventStart": "2023-10-31T11:30:00",
      "eventStop": "2023-10-31T11:38:04",
      "duration": 8,
      "status": "Genuine",
      "associatedSiteId": 109982,
      "outfallName": "COOMBS HASTINGS",
      "isImpacting": true,
      "overFlowSiteId": 0,
      "historicSpillsList": [
        {
          "id": 343944534,
          "eventId": 888048,
          "siteUnitNumber": 12576,
          "bathingSite": "ST LEONARDS",
          "eventStart": "2023-10-31T11:30:00",
          "eventStop": "2023-10-31T11:38:04",
          "duration": 8,
          "status": "Genuine",
          "associatedSiteId": 109982,
          "outfallName": "COOMBS HASTINGS",
          "isImpacting": true,
          "overFlowSiteId": 110211,
          "historicSpillsList": []
        }
      ]
    },
    {
      "id": 343939512,
      "eventId": 888070,
      "siteUnitNumber": 12582,
      "bathingSite": "SEAFORD",
      "eventStart": "2023-10-31T11:31:30",
      "eventStop": "2023-10-31T11:35:57",
      "duration": 4,
      "status": "Genuine",
      "associatedSiteId": 109957,
      "outfallName": "PORTOBELLO BRIGHTON NO2",
      "isImpacting": true,
      "overFlowSiteId": 0,
      "historicSpillsList": [
        {
          "id": 343939513,
          "eventId": 888070,
          "siteUnitNumber": 12583,
          "bathingSite": "SALTDEAN",
          "eventStart": "2023-10-31T11:31:30",
          "eventStop": "2023-10-31T11:35:57",
          "duration": 4,
          "status": "Genuine",
          "associatedSiteId": 109957,
          "outfallName": "PORTOBELLO BRIGHTON NO2",
          "isImpacting": true,
          "overFlowSiteId": 116012,
          "historicSpillsList": []
        }
      ]
    },
    {
      "id": 343944545,
      "eventId": 887986,
      "siteUnitNumber": 12575,
      "bathingSite": "HASTINGS PELHAM BEACH",
      "eventStart": "2023-10-31T10:42:11",
      "eventStop": "2023-10-31T11:30:00",
      "duration": 47,
      "status": "Genuine",
      "associatedSiteId": 109982,
      "outfallName": "COOMBS HASTINGS",
      "isImpacting": true,
      "overFlowSiteId": 0,
      "historicSpillsList": [
        {
          "id": 343944546,
          "eventId": 887986,
          "siteUnitNumber": 12576,
          "bathingSite": "ST LEONARDS",
          "eventStart": "2023-10-31T10:42:11",
          "eventStop": "2023-10-31T11:30:00",
          "duration": 47,
          "status": "Genuine",
          "associatedSiteId": 109982,
          "outfallName": "COOMBS HASTINGS",
          "isImpacting": true,
          "overFlowSiteId": 110211,
          "historicSpillsList": []
        }
      ]
    },
    {
      "id": 343939528,
      "eventId": 887918,
      "siteUnitNumber": 12582,
      "bathingSite": "SEAFORD",
      "eventStart": "2023-10-31T09:42:01",
      "eventStop": "2023-10-31T11:30:00",
      "duration": 107,
      "status": "Genuine",
      "associatedSiteId": 109957,
      "outfallName": "PORTOBELLO BRIGHTON NO2",
      "isImpacting": false,
      "overFlowSiteId": 0,
      "historicSpillsList": []
    },
    {
      "id": 343931442,
      "eventId": 887787,
      "siteUnitNumber": 12662,
      "bathingSite": "CHICHESTER HARBOUR",
      "eventStart": "2023-10-31T06:55:20",
      "eventStop": "2023-10-31T11:24:00",
      "duration": 268,
      "status": "Genuine",
      "associatedSiteId": 109836,
      "outfallName": "CHICHESTER",
      "isImpacting": true,
      "overFlowSiteId": 0,
      "historicSpillsList": [
        {
          "id": 343931442,
          "eventId": 887787,
          "siteUnitNumber": 12662,
          "bathingSite": "CHICHESTER HARBOUR",
          "eventStart": "2023-10-31T06:55:20",
          "eventStop": "2023-10-31T11:24:00",
          "duration": 268,
          "status": "Genuine",
          "associatedSiteId": 109836,
          "outfallName": "CHICHESTER",
          "isImpacting": true,
          "overFlowSiteId": 115401
        }
      ]
    },
    {
      "id": 343960025,
      "eventId": 887717,
      "siteUnitNumber": 12577,
      "bathingSite": "BEXHILL",
      "eventStart": "2023-10-31T05:30:22",
      "eventStop": "2023-10-31T10:44:25",
      "duration": 314,
      "status": "Genuine",
      "associatedSiteId": 115503,
      "outfallName": "COODEN BEACH BEXHILL",
      "isImpacting": true,
      "overFlowSiteId": 0,
      "historicSpillsList": [
        {
          "id": 343960025,
          "eventId": 887717,
          "siteUnitNumber": 12577,
          "bathingSite": "BEXHILL",
          "eventStart": "2023-10-31T05:30:22",
          "eventStop": "2023-10-31T10:44:25",
          "duration": 314,
          "status": "Genuine",
          "associatedSiteId": 115503,
          "outfallName": "COODEN BEACH BEXHILL",
          "isImpacting": true,
          "overFlowSiteId": 108029
        },
        {
          "id": 343960026,
          "eventId": 887717,
          "siteUnitNumber": 12578,
          "bathingSite": "NORMANS BAY",
          "eventStart": "2023-10-31T05:30:22",
          "eventStop": "2023-10-31T10:44:25",
          "duration": 314,
          "status": "Genuine",
          "associatedSiteId": 115503,
          "outfallName": "COODEN BEACH BEXHILL",
          "isImpacting": true,
          "overFlowSiteId": 108029,
          "historicSpillsList": []
        }
      ]
    },
    {
      "id": 343930668,
      "eventId": 888174,
      "siteUnitNumber": 12547,
      "bathingSite": "WEST BEACH WHITSTABLE",
      "eventStart": "2023-10-31T10:28:00",
      "eventStop": "2023-10-31T10:33:00",
      "duration": 5,
      "status": "Genuine",
      "associatedSiteId": 109831,
      "outfallName": "TANKERTON CIRCUS",
      "isImpacting": true,
      "overFlowSiteId": 0,
      "historicSpillsList": [
        {
          "id": 343930669,
          "eventId": 888174,
          "siteUnitNumber": 12548,
          "bathingSite": "TANKERTON",
          "eventStart": "2023-10-31T10:28:00",
          "eventStop": "2023-10-31T10:33:00",
          "duration": 5,
          "status": "Genuine",
          "associatedSiteId": 109831,
          "outfallName": "TANKERTON CIRCUS",
          "isImpacting": true,
          "overFlowSiteId": 103280,
          "historicSpillsList": []
        }
      ]
    },
    {
      "id": 343944543,
      "eventId": 887978,
      "siteUnitNumber": 12575,
      "bathingSite": "HASTINGS PELHAM BEACH",
      "eventStart": "2023-10-31T10:22:36",
      "eventStop": "2023-10-31T10:32:33",
      "duration": 9,
      "status": "Genuine",
      "associatedSiteId": 109982,
      "outfallName": "COOMBS HASTINGS",
      "isImpacting": true,
      "overFlowSiteId": 0,
      "historicSpillsList": [
        {
          "id": 343944544,
          "eventId": 887978,
          "siteUnitNumber": 12576,
          "bathingSite": "ST LEONARDS",
          "eventStart": "2023-10-31T10:22:36",
          "eventStop": "2023-10-31T10:32:33",
          "duration": 9,
          "status": "Genuine",
          "associatedSiteId": 109982,
          "outfallName": "COOMBS HASTINGS",
          "isImpacting": true,
          "overFlowSiteId": 110211,
          "historicSpillsList": []
        }
      ]
    },
    {
      "id": 343945193,
      "eventId": 887850,
      "siteUnitNumber": 12567,
      "bathingSite": "FOLKESTONE",
      "eventStart": "2023-10-31T08:07:26",
      "eventStop": "2023-10-31T10:21:00",
      "duration": 133,
      "status": "Genuine",
      "associatedSiteId": 110010,
      "outfallName": "THE STADE FOLKESTONE",
      "isImpacting": true,
      "overFlowSiteId": 0,
      "historicSpillsList": [
        {
          "id": 343945193,
          "eventId": 887850,
          "siteUnitNumber": 12567,
          "bathingSite": "FOLKESTONE",
          "eventStart": "2023-10-31T08:07:26",
          "eventStop": "2023-10-31T10:21:00",
          "duration": 133,
          "status": "Genuine",
          "associatedSiteId": 110010,
          "outfallName": "THE STADE FOLKESTONE",
          "isImpacting": true,
          "overFlowSiteId": 108909
        }
      ]
    }
  ]
}