{
  "currentPage": 230,
  "totalItems": 18701,
  "totalPages": 749,
  "items": [
    {
      "id": 343988984,
      "eventId": 842113,
      "siteUnitNumber": 12622,
      "bathingSite": "WHITECLIFF BAY",
      "eventStart": "2023-07-26T19:05:00",
      "eventStop": "2023-07-27T17:09:00",
      "duration": 1324,
      "status": "Genuine",
      "associatedSiteId": 110096,
      "outfallName": "SANDOWN NO1",
      "isImpacting": true,
      "overFlowSiteId": 0,
      "historicSpillsList": [
        {
          "id": 343988984,
          "eventId": 842113,
          "siteUnitNumber": 12622,
          "bathingSite": "WHITECLIFF BAY",
          "eventStart": "2023-07-26T19:05:00",
          "eventStop": "2023-07-27T17:09:00",
          "duration": 1324,
          "status": "Genuine",
          "associatedSiteId": 110096,
          "outfallName": "SANDOWN NO1",
          "isImpacting": true,
          "overFlowSiteId": 115453
        },
        {
          "id": 343988985,
          "eventId": 842113,
          "siteUnitNumber": 12623,
          "bathingSite": "YAVERLAND",
          "eventStart": "2023-07-26T19:05:00",
          "eventStop": "2023-07-27T17:09:00",
          "duration": 1324,
          "status": "Genuine",
          "associatedSiteId": 110096,
          "outfallName": "SANDOWN NO1",
          "isImpacting": true,
          "overFlowSiteId": 115453,
          "historicSpillsList": []
        },
        {
          "id": 343988986,
          "eventId": 842113,
          "siteUnitNumber": 12624,
          "bathingSite": "SANDOWN",
          "eventStart": "2023-07-26T19:05:00",
          "eventStop": "2023-07-27T17:09:00",
          "duration": 1324,
          "status": "Genuine",
          "associatedSiteId": 110096,
          "outfallName": "SANDOWN NO1",
          "isImpacting": true,
          "overFlowSiteId": 115453,
          "historicSpillsList": []
        }
      ]
    },
    {
      "id": 343988585,
      "eventId": 841579,
      "siteUnitNumber": 12593,
      "bathingSite": "FELPHAM",
      "eventStart": "2023-07-27T07:56:00",
      "eventStop": "2023-07-27T14:08:00",
      "duration": 372,
      "status": "Genuine",
      "associatedSiteId": 110095,
      "outfallName": "LIDSEY",
      "isImpacting": true,
      "overFlowSiteId": 0,
      "historicSpillsList": [
        {
          "id": 343988585,
          "eventId": 841579,
          "siteUnitNumber": 12593,
          "bathingSite": "FELPHAM",
          "eventStart": "2023-07-27T07:56:00",
          "eventStop": "2023-07-27T14:08:00",
          "duration": 372,
          "status": "Genuine",
          "associatedSiteId": 110095,
          "outfallName": "LIDSEY",
          "isImpacting": true,
          "overFlowSiteId": 115776
        }
      ]
    },
    {
      "id": 343991720,
      "eventId": 842147,
      "siteUnitNumber": 12619,
      "bathingSite": "SEAGROVE",
      "eventStart": "2023-07-27T12:47:00",
      "eventStop": "2023-07-27T13:12:00",
      "duration": 25,
      "status": "Genuine",
      "associatedSiteId": 110097,
      "outfallName": "SANDOWN NO2",
      "isImpacting": true,
      "overFlowSiteId": 0,
      "historicSpillsList": [
        {
          "id": 343991723,
          "eventId": 842147,
          "siteUnitNumber": 12623,
          "bathingSite": "YAVERLAND",
          "eventStart": "2023-07-27T12:47:00",
          "eventStop": "2023-07-27T13:12:00",
          "duration": 25,
          "status": "Genuine",
          "associatedSiteId": 110097,
          "outfallName": "SANDOWN NO2",
          "isImpacting": true,
          "overFlowSiteId": 115454,
          "historicSpillsList": []
        }
      ]
    },
    {
      "id": 343968752,
      "eventId": 841151,
      "siteUnitNumber": 12617,
      "bathingSite": "COWES",
      "eventStart": "2023-07-26T19:02:31",
      "eventStop": "2023-07-27T12:55:00",
      "duration": 1072,
      "status": "Genuine",
      "associatedSiteId": 109777,
      "outfallName": "APPLEY PARK RYDE TRANSFER",
      "isImpacting": true,
      "overFlowSiteId": 0,
      "historicSpillsList": [
        {
          "id": 343968753,
          "eventId": 841151,
          "siteUnitNumber": 12618,
          "bathingSite": "RYDE",
          "eventStart": "2023-07-26T19:02:31",
          "eventStop": "2023-07-27T12:55:00",
          "duration": 1072,
          "status": "Genuine",
          "associatedSiteId": 109777,
          "outfallName": "APPLEY PARK RYDE TRANSFER",
          "isImpacting": true,
          "overFlowSiteId": 108941,
          "historicSpillsList": []
        }
      ]
    },
    {
      "id": 343991726,
      "eventId": 842146,
      "siteUnitNumber": 12621,
      "bathingSite": "BEMBRIDGE",
      "eventStart": "2023-07-27T11:31:00",
      "eventStop": "2023-07-27T12:00:00",
      "duration": 29,
      "status": "Genuine",
      "associatedSiteId": 110097,
      "outfallName": "SANDOWN NO2",
      "isImpacting": true,
      "overFlowSiteId": 0,
      "historicSpillsList": [
        {
          "id": 343991728,
          "eventId": 842146,
          "siteUnitNumber": 12623,
          "bathingSite": "YAVERLAND",
          "eventStart": "2023-07-27T11:31:00",
          "eventStop": "2023-07-27T12:00:00",
          "duration": 29,
          "status": "Genuine",
          "associatedSiteId": 110097,
          "outfallName": "SANDOWN NO2",
          "isImpacting": true,
          "overFlowSiteId": 115454,
          "historicSpillsList": []
        }
      ]
    },
    {
      "id": 343991739,
      "eventId": 842145,
      "siteUnitNumber": 12619,
      "bathingSite": "SEAGROVE",
      "eventStart": "2023-07-27T10:31:00",
      "eventStop": "2023-07-27T11:15:00",
      "duration": 44,
      "status": "Genuine",
      "associatedSiteId": 110097,
      "outfallName": "SANDOWN NO2",
      "isImpacting": true,
      "overFlowSiteId": 0,
      "historicSpillsList": [
        {
          "id": 343991732,
          "eventId": 842145,
          "siteUnitNumber": 12623,
          "bathingSite": "YAVERLAND",
          "eventStart": "2023-07-27T10:31:00",
          "eventStop": "2023-07-27T11:15:00",
          "duration": 44,
          "status": "Genuine",
          "associatedSiteId": 110097,
          "outfallName": "SANDOWN NO2",
          "isImpacting": true,
          "overFlowSiteId": 115454,
          "historicSpillsList": []
        }
      ]
    },
    {
      "id": 343972440,
      "eventId": 841733,
      "siteUnitNumber": 12549,
      "bathingSite": "HERNE BAY CENTRAL",
      "eventStart": "2023-07-27T07:10:53",
      "eventStop": "2023-07-27T11:14:00",
      "duration": 243,
      "status": "Genuine",
      "associatedSiteId": 109830,
      "outfallName": "SWALECLIFFE NO1",
      "isImpacting": true,
      "overFlowSiteId": 0,
      "historicSpillsList": [
        {
          "id": 343972445,
          "eventId": 841733,
          "siteUnitNumber": 12548,
          "bathingSite": "TANKERTON",
          "eventStart": "2023-07-27T07:10:53",
          "eventStop": "2023-07-27T11:14:00",
          "duration": 243,
          "status": "Genuine",
          "associatedSiteId": 109830,
          "outfallName": "SWALECLIFFE NO1",
          "isImpacting": true,
          "overFlowSiteId": 115444,
          "historicSpillsList": []
        }
      ]
    },
    {
      "id": 343991736,
      "eventId": 842144,
      "siteUnitNumber": 12623,
      "bathingSite": "YAVERLAND",
      "eventStart": "2023-07-27T09:01:00",
      "eventStop": "2023-07-27T09:58:00",
      "duration": 57,
      "status": "Genuine",
      "associatedSiteId": 110097,
      "outfallName": "SANDOWN NO2",
      "isImpacting": true,
      "overFlowSiteId": 0,
      "historicSpillsList": [
        {
          "id": 343991736,
          "eventId": 842144,
          "siteUnitNumber": 12623,
          "bathingSite": "YAVERLAND",
          "eventStart": "2023-07-27T09:01:00",
          "eventStop": "2023-07-27T09:58:00",
          "duration": 57,
          "status": "Genuine",
          "associatedSiteId": 110097,
          "outfallName": "SANDOWN NO2",
          "isImpacting": true,
          "overFlowSiteId": 115454
        }
      ]
    },
    {
      "id": 343968372,
      "eventId": 842189,
      "siteUnitNumber": 12661,
      "bathingSite": "LANGSTONE HARBOUR",
      "eventStart": "2023-07-27T09:00:00",
      "eventStop": "2023-07-27T09:14:00",
      "duration": 14,
      "status": "Genuine",
      "associatedSiteId": 109773,
      "outfallName": "BUDDS FARM HAVANT NO2",
      "isImpacting": true,
      "overFlowSiteId": 0,
      "historicSpillsList": [
        {
          "id": 343968372,
          "eventId": 842189,
          "siteUnitNumber": 12661,
          "bathingSite": "LANGSTONE HARBOUR",
          "eventStart": "2023-07-27T09:00:00",
          "eventStop": "2023-07-27T09:14:00",
          "duration": 14,
          "status": "Genuine",
          "associatedSiteId": 109773,
          "outfallName": "BUDDS FARM HAVANT NO2",
          "isImpacting": true,
          "overFlowSiteId": 115936
        }
      ]
    },
    {
      "id": 343976352,
      "eventId": 841258,
      "siteUnitNumber": 12568,
      "bathingSite": "SANDGATE",
      "eventStart": "2023-07-26T21:43:00",
      "eventStop": "2023-07-27T09:11:00",
      "duration": 688,
      "status": "Genuine",
      "associatedSiteId": 109897,
      "outfallName": "RANGE ROAD HYTHE K LONG",
      "isImpacting": true,
      "overFlowSiteId": 0,
      "historicSpillsList": [
        {
          "id": 343976352,
          "eventId": 841258,
          "siteUnitNumber": 12568,
          "bathingSite": "SANDGATE",
          "eventStart": "2023-07-26T21:43:00",
          "eventStop": "2023-07-27T09:11:00",
          "duration": 688,
          "status": "Genuine",
          "associatedSiteId": 109897,
          "outfallName": "RANGE ROAD HYTHE K LONG",
          "isImpacting": true,
          "overFlowSiteId": 116048
        },
        {
          "id": 343976353,
          "eventId": 841258,
          "siteUnitNumber": 12569,
          "bathingSite": "HYTHE",
          "eventStart": "2023-07-26T21:43:00",
          "eventStop": "2023-07-27T09:11:00",
          "duration": 688,
          "status": "Genuine",
          "associatedSiteId": 109897,
          "outfallName": "RANGE ROAD HYTHE K LONG",
          "isImpacting": true,
          "overFlowSiteId": 116048,
          "historicSpillsList": []
        }
      ]
    },
    {
      "id": 343968373,
      "eventId": 842188,
      "siteUnitNumber": 12661,
      "bathingSite": "LANGSTONE HARBOUR",
      "eventStart": "2023-07-27T08:38:00",
      "eventStop": "2023-07-27T08:50:00",
      "duration": 12,
      "status": "Genuine",
      "associatedSiteId": 109773,
      "outfallName": "BUDDS FARM HAVANT NO2",
      "isImpacting": true,
      "overFlowSiteId": 0,
      "historicSpillsList": [
        {
          "id": 343968373,
          "eventId": 842188,
          "siteUnitNumber": 12661,
          "bathingSite": "LANGSTONE HARBOUR",
          "eventStart": "2023-07-27T08:38:00",
          "eventStop": "2023-07-27T08:50:00",
          "duration": 12,
          "status": "Genuine",
          "associatedSiteId": 109773,
          "outfallName": "BUDDS FARM HAVANT NO2",
          "isImpacting": true,
          "overFlowSiteId": 115936
        }
      ]
    },
    {
      "id": 343991741,
      "eventId": 842143,
      "siteUnitNumber": 12624,
      "bathingSite": "SANDOWN",
      "eventStart": "2023-07-27T06:18:00",
      "eventStop": "2023-07-27T08:30:00",
      "duration": 132,
      "status": "Genuine",
      "associatedSiteId": 110097,
      "outfallName": "SANDOWN NO2",
      "isImpacting": true,
      "overFlowSiteId": 0,
      "historicSpillsList": [
        {
          "id": 343991750,
          "eventId": 842143,
          "siteUnitNumber": 12623,
          "bathingSite": "YAVERLAND",
          "eventStart": "2023-07-27T06:18:00",
          "eventStop": "2023-07-27T08:30:00",
          "duration": 132,
          "status": "Genuine",
          "associatedSiteId": 110097,
          "outfallName": "SANDOWN NO2",
          "isImpacting": true,
          "overFlowSiteId": 115454,
          "historicSpillsList": []
        }
      ]
    },
    {
      "id": 343997045,
      "eventId": 841619,
      "siteUnitNumber": 12582,
      "bathingSite": "SEAFORD",
      "eventStart": "2023-07-27T07:13:21",
      "eventStop": "2023-07-27T07:54:54",
      "duration": 41,
      "status": "Genuine",
      "associatedSiteId": 110920,
      "outfallName": "NEWHAVEN",
      "isImpacting": false,
      "overFlowSiteId": 0,
      "historicSpillsList": []
    },
    {
      "id": 343968374,
      "eventId": 842187,
      "siteUnitNumber": 12661,
      "bathingSite": "LANGSTONE HARBOUR",
      "eventStart": "2023-07-27T07:37:00",
      "eventStop": "2023-07-27T07:51:00",
      "duration": 14,
      "status": "Genuine",
      "associatedSiteId": 109773,
      "outfallName": "BUDDS FARM HAVANT NO2",
      "isImpacting": true,
      "overFlowSiteId": 0,
      "historicSpillsList": [
        {
          "id": 343968374,
          "eventId": 842187,
          "siteUnitNumber": 12661,
          "bathingSite": "LANGSTONE HARBOUR",
          "eventStart": "2023-07-27T07:37:00",
          "eventStop": "2023-07-27T07:51:00",
          "duration": 14,
          "status": "Genuine",
          "associatedSiteId": 109773,
          "outfallName": "BUDDS FARM HAVANT NO2",
          "isImpacting": true,
          "overFlowSiteId": 115936
        }
      ]
    },
    {
      "id": 343965983,
      "eventId": 841803,
      "siteUnitNumber": 12616,
      "bathingSite": "GURNARD",
      "eventStart": "2023-07-27T07:28:00",
      "eventStop": "2023-07-27T07:42:00",
      "duration": 14,
      "status": "Genuine",
      "associatedSiteId": 109705,
      "outfallName": "SPRINGHILL COWES TRANSFER",
      "isImpacting": true,
      "overFlowSiteId": 0,
      "historicSpillsList": [
        {
          "id": 343965984,
          "eventId": 841803,
          "siteUnitNumber": 12617,
          "bathingSite": "COWES",
          "eventStart": "2023-07-27T07:28:00",
          "eventStop": "2023-07-27T07:42:00",
          "duration": 14,
          "status": "Genuine",
          "associatedSiteId": 109705,
          "outfallName": "SPRINGHILL COWES TRANSFER",
          "isImpacting": true,
          "overFlowSiteId": 108943,
          "historicSpillsList": []
        }
      ]
    },
    {
      "id": 343965985,
      "eventId": 841798,
      "siteUnitNumber": 12616,
      "bathingSite": "GURNARD",
      "eventStart": "2023-07-27T05:37:00",
      "eventStop": "2023-07-27T06:41:00",
      "duration": 64,
      "status": "Genuine",
      "associatedSiteId": 109705,
      "outfallName": "SPRINGHILL COWES TRANSFER",
      "isImpacting": true,
      "overFlowSiteId": 0,
      "historicSpillsList": [
        {
          "id": 343965986,
          "eventId": 841798,
          "siteUnitNumber": 12617,
          "bathingSite": "COWES",
          "eventStart": "2023-07-27T05:37:00",
          "eventStop": "2023-07-27T06:41:00",
          "duration": 64,
          "status": "Genuine",
          "associatedSiteId": 109705,
          "outfallName": "SPRINGHILL COWES TRANSFER",
          "isImpacting": true,
          "overFlowSiteId": 108943,
          "historicSpillsList": []
        }
      ]
    },
    {
      "id": 343972443,
      "eventId": 841732,
      "siteUnitNumber": 12548,
      "bathingSite": "TANKERTON",
      "eventStart": "2023-07-26T20:43:36",
      "eventStop": "2023-07-27T06:39:33",
      "duration": 595,
      "status": "Genuine",
      "associatedSiteId": 109830,
      "outfallName": "SWALECLIFFE NO1",
      "isImpacting": true,
      "overFlowSiteId": 0,
      "historicSpillsList": [
        {
          "id": 343972443,
          "eventId": 841732,
          "siteUnitNumber": 12548,
          "bathingSite": "TANKERTON",
          "eventStart": "2023-07-26T20:43:36",
          "eventStop": "2023-07-27T06:39:33",
          "duration": 595,
          "status": "Genuine",
          "associatedSiteId": 109830,
          "outfallName": "SWALECLIFFE NO1",
          "isImpacting": true,
          "overFlowSiteId": 115444
        }
      ]
    },
    {
      "id": 343991751,
      "eventId": 842142,
      "siteUnitNumber": 12619,
      "bathingSite": "SEAGROVE",
      "eventStart": "2023-07-26T22:16:00",
      "eventStop": "2023-07-27T06:00:00",
      "duration": 464,
      "status": "Genuine",
      "associatedSiteId": 110097,
      "outfallName": "SANDOWN NO2",
      "isImpacting": true,
      "overFlowSiteId": 0,
      "historicSpillsList": [
        {
          "id": 343991754,
          "eventId": 842142,
          "siteUnitNumber": 12623,
          "bathingSite": "YAVERLAND",
          "eventStart": "2023-07-26T22:16:00",
          "eventStop": "2023-07-27T06:00:00",
          "duration": 464,
          "status": "Genuine",
          "associatedSiteId": 110097,
          "outfallName": "SANDOWN NO2",
          "isImpacting": true,
          "overFlowSiteId": 115454,
          "historicSpillsList": []
        },
        {
          "id": 343991755,
          "eventId": 842142,
          "siteUnitNumber": 12624,
          "bathingSite": "SANDOWN",
          "eventStart": "2023-07-26T22:16:00",
          "eventStop": "2023-07-27T06:00:00",
          "duration": 464,
          "status": "Genuine",
          "associatedSiteId": 110097,
          "outfallName": "SANDOWN NO2",
          "isImpacting": true,
          "overFlowSiteId": 115454,
          "historicSpillsList": []
        },
        {
          "id": 343991746,
          "eventId": 842142,
          "siteUnitNumber": 12625,
          "bathingSite": "SHANKLIN",
          "eventStart": "2023-07-26T22:16:00",
          "eventStop": "2023-07-27T06:00:00",
          "duration": 464,
          "status": "Genuine",
          "associatedSiteId": 110097,
          "outfallName": "SANDOWN NO2",
          "isImpacting": true,
          "overFlowSiteId": 115454,
          "historicSpillsList": []
        }
      ]
    },
    {
      "id": 343968375,
      "eventId": 842186,
      "siteUnitNumber": 12661,
      "bathingSite": "LANGSTONE HARBOUR",
      "eventStart": "2023-07-26T21:39:00",
      "eventStop": "2023-07-27T05:41:00",
      "duration": 482,
      "status": "Genuine",
      "associatedSiteId": 109773,
      "outfallName": "BUDDS FARM HAVANT NO2",
      "isImpacting": true,
      "overFlowSiteId": 0,
      "historicSpillsList": [
        {
          "id": 343968375,
          "eventId": 842186,
          "siteUnitNumber": 12661,
          "bathingSite": "LANGSTONE HARBOUR",
          "eventStart": "2023-07-26T21:39:00",
          "eventStop": "2023-07-27T05:41:00",
          "duration": 482,
          "status": "Genuine",
          "associatedSiteId": 109773,
          "outfallName": "BUDDS FARM HAVANT NO2",
          "isImpacting": true,
          "overFlowSiteId": 115936
        }
      ]
    },
    {
      "id": 343965987,
      "eventId": 841288,
      "siteUnitNumber": 12616,
      "bathingSite": "GURNARD",
      "eventStart": "2023-07-26T21:59:00",
      "eventStop": "2023-07-27T05:29:00",
      "duration": 450,
      "status": "Genuine",
      "associatedSiteId": 109705,
      "outfallName": "SPRINGHILL COWES TRANSFER",
      "isImpacting": true,
      "overFlowSiteId": 0,
      "historicSpillsList": [
        {
          "id": 343965988,
          "eventId": 841288,
          "siteUnitNumber": 12617,
          "bathingSite": "COWES",
          "eventStart": "2023-07-26T21:59:00",
          "eventStop": "2023-07-27T05:29:00",
          "duration": 450,
          "status": "Genuine",
          "associatedSiteId": 109705,
          "outfallName": "SPRINGHILL COWES TRANSFER",
          "isImpacting": true,
          "overFlowSiteId": 108943,
          "historicSpillsList": []
        }
      ]
    },
    {
      "id": 343987795,
      "eventId": 841332,
      "siteUnitNumber": 12567,
      "bathingSite": "FOLKESTONE",
      "eventStart": "2023-07-26T22:52:40",
      "eventStop": "2023-07-27T05:20:00",
      "duration": 387,
      "status": "Genuine",
      "associatedSiteId": 110010,
      "outfallName": "THE STADE FOLKESTONE",
      "isImpacting": true,
      "overFlowSiteId": 0,
      "historicSpillsList": [
        {
          "id": 343987795,
          "eventId": 841332,
          "siteUnitNumber": 12567,
          "bathingSite": "FOLKESTONE",
          "eventStart": "2023-07-26T22:52:40",
          "eventStop": "2023-07-27T05:20:00",
          "duration": 387,
          "status": "Genuine",
          "associatedSiteId": 110010,
          "outfallName": "THE STADE FOLKESTONE",
          "isImpacting": true,
          "overFlowSiteId": 108909
        }
      ]
    },
    {
      "id": 343982270,
      "eventId": 841590,
      "siteUnitNumber": 12582,
      "bathingSite": "SEAFORD",
      "eventStart": "2023-07-27T04:47:31",
      "eventStop": "2023-07-27T04:50:22",
      "duration": 2,
      "status": "Genuine",
      "associatedSiteId": 109957,
      "outfallName": "PORTOBELLO BRIGHTON NO2",
      "isImpacting": false,
      "overFlowSiteId": 0,
      "historicSpillsList": []
    },
    {
      "id": 343982274,
      "eventId": 841576,
      "siteUnitNumber": 12582,
      "bathingSite": "SEAFORD",
      "eventStart": "2023-07-27T04:33:03",
      "eventStop": "2023-07-27T04:38:19",
      "duration": 5,
      "status": "Genuine",
      "associatedSiteId": 109957,
      "outfallName": "PORTOBELLO BRIGHTON NO2",
      "isImpacting": false,
      "overFlowSiteId": 0,
      "historicSpillsList": []
    },
    {
      "id": 343982272,
      "eventId": 841564,
      "siteUnitNumber": 12582,
      "bathingSite": "SEAFORD",
      "eventStart": "2023-07-27T04:20:26",
      "eventStop": "2023-07-27T04:25:21",
      "duration": 4,
      "status": "Genuine",
      "associatedSiteId": 109957,
      "outfallName": "PORTOBELLO BRIGHTON NO2",
      "isImpacting": false,
      "overFlowSiteId": 0,
      "historicSpillsList": []
    },
    {
      "id": 343982276,
      "eventId": 841558,
      "siteUnitNumber": 12582,
      "bathingSite": "SEAFORD",
      "eventStart": "2023-07-27T04:05:52",
      "eventStop": "2023-07-27T04:09:02",
      "duration": 3,
      "status": "Genuine",
      "associatedSiteId": 109957,
      "outfallName": "PORTOBELLO BRIGHTON NO2",
      "isImpacting": false,
      "overFlowSiteId": 0,
      "historicSpillsList": []
    }
  ]
}