{
  "currentPage": 263,
  "totalItems": 18701,
  "totalPages": 749,
  "items": [
    {
      "id": 343988654,
      "eventId": 804413,
      "siteUnitNumber": 12593,
      "bathingSite": "FELPHAM",
      "eventStart": "2023-04-20T06:45:00",
      "eventStop": "2023-04-20T09:23:00",
      "duration": 158,
      "status": "Genuine",
      "associatedSiteId": 110095,
      "outfallName": "LIDSEY",
      "isImpacting": true,
      "overFlowSiteId": 0,
      "historicSpillsList": [
        {
          "id": 343988654,
          "eventId": 804413,
          "siteUnitNumber": 12593,
          "bathingSite": "FELPHAM",
          "eventStart": "2023-04-20T06:45:00",
          "eventStop": "2023-04-20T09:23:00",
          "duration": 158,
          "status": "Genuine",
          "associatedSiteId": 110095,
          "outfallName": "LIDSEY",
          "isImpacting": true,
          "overFlowSiteId": 115776
        }
      ]
    },
    {
      "id": 343988659,
      "eventId": 804412,
      "siteUnitNumber": 12593,
      "bathingSite": "FELPHAM",
      "eventStart": "2023-04-20T04:57:00",
      "eventStop": "2023-04-20T06:16:00",
      "duration": 79,
      "status": "Genuine",
      "associatedSiteId": 110095,
      "outfallName": "LIDSEY",
      "isImpacting": true,
      "overFlowSiteId": 0,
      "historicSpillsList": [
        {
          "id": 343988659,
          "eventId": 804412,
          "siteUnitNumber": 12593,
          "bathingSite": "FELPHAM",
          "eventStart": "2023-04-20T04:57:00",
          "eventStop": "2023-04-20T06:16:00",
          "duration": 79,
          "status": "Genuine",
          "associatedSiteId": 110095,
          "outfallName": "LIDSEY",
          "isImpacting": true,
          "overFlowSiteId": 115776
        }
      ]
    },
    {
      "id": 343988658,
      "eventId": 804411,
      "siteUnitNumber": 12593,
      "bathingSite": "FELPHAM",
      "eventStart": "2023-04-20T00:29:00",
      "eventStop": "2023-04-20T03:19:00",
      "duration": 170,
      "status": "Genuine",
      "associatedSiteId": 110095,
      "outfallName": "LIDSEY",
      "isImpacting": false,
      "overFlowSiteId": 0,
      "historicSpillsList": []
    },
    {
      "id": 343988657,
      "eventId": 804410,
      "siteUnitNumber": 12593,
      "bathingSite": "FELPHAM",
      "eventStart": "2023-04-19T06:01:00",
      "eventStop": "2023-04-19T23:57:00",
      "duration": 1076,
      "status": "Genuine",
      "associatedSiteId": 110095,
      "outfallName": "LIDSEY",
      "isImpacting": true,
      "overFlowSiteId": 0,
      "historicSpillsList": [
        {
          "id": 343988657,
          "eventId": 804410,
          "siteUnitNumber": 12593,
          "bathingSite": "FELPHAM",
          "eventStart": "2023-04-19T06:01:00",
          "eventStop": "2023-04-19T23:57:00",
          "duration": 1076,
          "status": "Genuine",
          "associatedSiteId": 110095,
          "outfallName": "LIDSEY",
          "isImpacting": true,
          "overFlowSiteId": 115776
        }
      ]
    },
    {
      "id": 343979623,
      "eventId": 803642,
      "siteUnitNumber": 12590,
      "bathingSite": "WORTHING",
      "eventStart": "2023-04-19T04:11:00",
      "eventStop": "2023-04-19T09:25:00",
      "duration": 314,
      "status": "Genuine",
      "associatedSiteId": 109912,
      "outfallName": "SEA LANE GORING",
      "isImpacting": false,
      "overFlowSiteId": 0,
      "historicSpillsList": []
    },
    {
      "id": 343988662,
      "eventId": 804402,
      "siteUnitNumber": 12593,
      "bathingSite": "FELPHAM",
      "eventStart": "2023-04-19T03:18:00",
      "eventStop": "2023-04-19T05:08:00",
      "duration": 110,
      "status": "Genuine",
      "associatedSiteId": 110095,
      "outfallName": "LIDSEY",
      "isImpacting": true,
      "overFlowSiteId": 0,
      "historicSpillsList": [
        {
          "id": 343988662,
          "eventId": 804402,
          "siteUnitNumber": 12593,
          "bathingSite": "FELPHAM",
          "eventStart": "2023-04-19T03:18:00",
          "eventStop": "2023-04-19T05:08:00",
          "duration": 110,
          "status": "Genuine",
          "associatedSiteId": 110095,
          "outfallName": "LIDSEY",
          "isImpacting": true,
          "overFlowSiteId": 115776
        }
      ]
    },
    {
      "id": 343988661,
      "eventId": 804401,
      "siteUnitNumber": 12593,
      "bathingSite": "FELPHAM",
      "eventStart": "2023-04-18T04:27:00",
      "eventStop": "2023-04-19T02:24:00",
      "duration": 1317,
      "status": "Genuine",
      "associatedSiteId": 110095,
      "outfallName": "LIDSEY",
      "isImpacting": true,
      "overFlowSiteId": 0,
      "historicSpillsList": [
        {
          "id": 343988661,
          "eventId": 804401,
          "siteUnitNumber": 12593,
          "bathingSite": "FELPHAM",
          "eventStart": "2023-04-18T04:27:00",
          "eventStop": "2023-04-19T02:24:00",
          "duration": 1317,
          "status": "Genuine",
          "associatedSiteId": 110095,
          "outfallName": "LIDSEY",
          "isImpacting": true,
          "overFlowSiteId": 115776
        }
      ]
    },
    {
      "id": 343985328,
      "eventId": 803575,
      "siteUnitNumber": 12591,
      "bathingSite": "LITTLEHAMPTON",
      "eventStart": "2023-04-18T11:30:00",
      "eventStop": "2023-04-18T11:52:00",
      "duration": 22,
      "status": "Genuine",
      "associatedSiteId": 109965,
      "outfallName": "SEA ROAD LITTLEHAMPTON",
      "isImpacting": true,
      "overFlowSiteId": 0,
      "historicSpillsList": [
        {
          "id": 343985328,
          "eventId": 803575,
          "siteUnitNumber": 12591,
          "bathingSite": "LITTLEHAMPTON",
          "eventStart": "2023-04-18T11:30:00",
          "eventStop": "2023-04-18T11:52:00",
          "duration": 22,
          "status": "Genuine",
          "associatedSiteId": 109965,
          "outfallName": "SEA ROAD LITTLEHAMPTON",
          "isImpacting": true,
          "overFlowSiteId": 109368
        }
      ]
    },
    {
      "id": 343985333,
      "eventId": 803160,
      "siteUnitNumber": 12591,
      "bathingSite": "LITTLEHAMPTON",
      "eventStart": "2023-04-18T08:18:00",
      "eventStop": "2023-04-18T09:16:00",
      "duration": 58,
      "status": "Genuine",
      "associatedSiteId": 109965,
      "outfallName": "SEA ROAD LITTLEHAMPTON",
      "isImpacting": false,
      "overFlowSiteId": 0,
      "historicSpillsList": []
    },
    {
      "id": 343988660,
      "eventId": 804400,
      "siteUnitNumber": 12593,
      "bathingSite": "FELPHAM",
      "eventStart": "2023-04-18T02:57:00",
      "eventStop": "2023-04-18T03:55:00",
      "duration": 58,
      "status": "Genuine",
      "associatedSiteId": 110095,
      "outfallName": "LIDSEY",
      "isImpacting": true,
      "overFlowSiteId": 0,
      "historicSpillsList": [
        {
          "id": 343988660,
          "eventId": 804400,
          "siteUnitNumber": 12593,
          "bathingSite": "FELPHAM",
          "eventStart": "2023-04-18T02:57:00",
          "eventStop": "2023-04-18T03:55:00",
          "duration": 58,
          "status": "Genuine",
          "associatedSiteId": 110095,
          "outfallName": "LIDSEY",
          "isImpacting": true,
          "overFlowSiteId": 115776
        }
      ]
    },
    {
      "id": 343988665,
      "eventId": 804399,
      "siteUnitNumber": 12593,
      "bathingSite": "FELPHAM",
      "eventStart": "2023-04-18T02:13:00",
      "eventStop": "2023-04-18T02:36:00",
      "duration": 23,
      "status": "Genuine",
      "associatedSiteId": 110095,
      "outfallName": "LIDSEY",
      "isImpacting": true,
      "overFlowSiteId": 0,
      "historicSpillsList": [
        {
          "id": 343988665,
          "eventId": 804399,
          "siteUnitNumber": 12593,
          "bathingSite": "FELPHAM",
          "eventStart": "2023-04-18T02:13:00",
          "eventStop": "2023-04-18T02:36:00",
          "duration": 23,
          "status": "Genuine",
          "associatedSiteId": 110095,
          "outfallName": "LIDSEY",
          "isImpacting": true,
          "overFlowSiteId": 115776
        }
      ]
    },
    {
      "id": 343988664,
      "eventId": 804398,
      "siteUnitNumber": 12593,
      "bathingSite": "FELPHAM",
      "eventStart": "2023-04-18T01:29:00",
      "eventStop": "2023-04-18T01:49:00",
      "duration": 20,
      "status": "Genuine",
      "associatedSiteId": 110095,
      "outfallName": "LIDSEY",
      "isImpacting": false,
      "overFlowSiteId": 0,
      "historicSpillsList": []
    },
    {
      "id": 343988663,
      "eventId": 804397,
      "siteUnitNumber": 12593,
      "bathingSite": "FELPHAM",
      "eventStart": "2023-04-10T05:17:00",
      "eventStop": "2023-04-18T01:11:00",
      "duration": 11274,
      "status": "Genuine",
      "associatedSiteId": 110095,
      "outfallName": "LIDSEY",
      "isImpacting": true,
      "overFlowSiteId": 0,
      "historicSpillsList": [
        {
          "id": 343988663,
          "eventId": 804397,
          "siteUnitNumber": 12593,
          "bathingSite": "FELPHAM",
          "eventStart": "2023-04-10T05:17:00",
          "eventStop": "2023-04-18T01:11:00",
          "duration": 11274,
          "status": "Genuine",
          "associatedSiteId": 110095,
          "outfallName": "LIDSEY",
          "isImpacting": true,
          "overFlowSiteId": 115776
        }
      ]
    },
    {
      "id": 343985354,
      "eventId": 802603,
      "siteUnitNumber": 12591,
      "bathingSite": "LITTLEHAMPTON",
      "eventStart": "2023-04-17T09:34:00",
      "eventStop": "2023-04-17T11:35:00",
      "duration": 121,
      "status": "Genuine",
      "associatedSiteId": 109965,
      "outfallName": "SEA ROAD LITTLEHAMPTON",
      "isImpacting": false,
      "overFlowSiteId": 0,
      "historicSpillsList": []
    },
    {
      "id": 343985335,
      "eventId": 802783,
      "siteUnitNumber": 12591,
      "bathingSite": "LITTLEHAMPTON",
      "eventStart": "2023-04-17T09:33:00",
      "eventStop": "2023-04-17T11:34:00",
      "duration": 121,
      "status": "Genuine",
      "associatedSiteId": 109965,
      "outfallName": "SEA ROAD LITTLEHAMPTON",
      "isImpacting": false,
      "overFlowSiteId": 0,
      "historicSpillsList": []
    },
    {
      "id": 343968872,
      "eventId": 802188,
      "siteUnitNumber": 12617,
      "bathingSite": "COWES",
      "eventStart": "2023-04-16T13:30:00",
      "eventStop": "2023-04-16T23:15:00",
      "duration": 585,
      "status": "Genuine",
      "associatedSiteId": 109777,
      "outfallName": "APPLEY PARK RYDE TRANSFER",
      "isImpacting": true,
      "overFlowSiteId": 0,
      "historicSpillsList": [
        {
          "id": 343968873,
          "eventId": 802188,
          "siteUnitNumber": 12618,
          "bathingSite": "RYDE",
          "eventStart": "2023-04-16T13:30:00",
          "eventStop": "2023-04-16T23:15:00",
          "duration": 585,
          "status": "Genuine",
          "associatedSiteId": 109777,
          "outfallName": "APPLEY PARK RYDE TRANSFER",
          "isImpacting": true,
          "overFlowSiteId": 108941,
          "historicSpillsList": []
        }
      ]
    },
    {
      "id": 343985334,
      "eventId": 802764,
      "siteUnitNumber": 12591,
      "bathingSite": "LITTLEHAMPTON",
      "eventStart": "2023-04-16T20:33:00",
      "eventStop": "2023-04-16T21:19:00",
      "duration": 46,
      "status": "Genuine",
      "associatedSiteId": 109965,
      "outfallName": "SEA ROAD LITTLEHAMPTON",
      "isImpacting": false,
      "overFlowSiteId": 0,
      "historicSpillsList": []
    },
    {
      "id": 343985338,
      "eventId": 802763,
      "siteUnitNumber": 12591,
      "bathingSite": "LITTLEHAMPTON",
      "eventStart": "2023-04-16T17:48:00",
      "eventStop": "2023-04-16T19:04:00",
      "duration": 76,
      "status": "Genuine",
      "associatedSiteId": 109965,
      "outfallName": "SEA ROAD LITTLEHAMPTON",
      "isImpacting": false,
      "overFlowSiteId": 0,
      "historicSpillsList": []
    },
    {
      "id": 343985337,
      "eventId": 802762,
      "siteUnitNumber": 12591,
      "bathingSite": "LITTLEHAMPTON",
      "eventStart": "2023-04-16T17:28:00",
      "eventStop": "2023-04-16T17:38:00",
      "duration": 10,
      "status": "Genuine",
      "associatedSiteId": 109965,
      "outfallName": "SEA ROAD LITTLEHAMPTON",
      "isImpacting": false,
      "overFlowSiteId": 0,
      "historicSpillsList": []
    },
    {
      "id": 343985336,
      "eventId": 802761,
      "siteUnitNumber": 12591,
      "bathingSite": "LITTLEHAMPTON",
      "eventStart": "2023-04-16T14:44:00",
      "eventStop": "2023-04-16T15:43:00",
      "duration": 59,
      "status": "Genuine",
      "associatedSiteId": 109965,
      "outfallName": "SEA ROAD LITTLEHAMPTON",
      "isImpacting": false,
      "overFlowSiteId": 0,
      "historicSpillsList": []
    },
    {
      "id": 343985341,
      "eventId": 802760,
      "siteUnitNumber": 12591,
      "bathingSite": "LITTLEHAMPTON",
      "eventStart": "2023-04-16T13:56:00",
      "eventStop": "2023-04-16T14:04:00",
      "duration": 8,
      "status": "Genuine",
      "associatedSiteId": 109965,
      "outfallName": "SEA ROAD LITTLEHAMPTON",
      "isImpacting": false,
      "overFlowSiteId": 0,
      "historicSpillsList": []
    },
    {
      "id": 343985340,
      "eventId": 802751,
      "siteUnitNumber": 12591,
      "bathingSite": "LITTLEHAMPTON",
      "eventStart": "2023-04-16T13:09:00",
      "eventStop": "2023-04-16T13:19:00",
      "duration": 10,
      "status": "Genuine",
      "associatedSiteId": 109965,
      "outfallName": "SEA ROAD LITTLEHAMPTON",
      "isImpacting": false,
      "overFlowSiteId": 0,
      "historicSpillsList": []
    },
    {
      "id": 343968874,
      "eventId": 802178,
      "siteUnitNumber": 12618,
      "bathingSite": "RYDE",
      "eventStart": "2023-04-16T13:05:39",
      "eventStop": "2023-04-16T13:10:09",
      "duration": 4,
      "status": "Genuine",
      "associatedSiteId": 109777,
      "outfallName": "APPLEY PARK RYDE TRANSFER",
      "isImpacting": false,
      "overFlowSiteId": 0,
      "historicSpillsList": []
    },
    {
      "id": 343979415,
      "eventId": 802143,
      "siteUnitNumber": 12596,
      "bathingSite": "PAGHAM",
      "eventStart": "2023-04-16T12:36:00",
      "eventStop": "2023-04-16T12:48:00",
      "duration": 12,
      "status": "Genuine",
      "associatedSiteId": 109911,
      "outfallName": "SUMMER LANE PAGHAM",
      "isImpacting": true,
      "overFlowSiteId": 0,
      "historicSpillsList": [
        {
          "id": 343979415,
          "eventId": 802143,
          "siteUnitNumber": 12596,
          "bathingSite": "PAGHAM",
          "eventStart": "2023-04-16T12:36:00",
          "eventStop": "2023-04-16T12:48:00",
          "duration": 12,
          "status": "Genuine",
          "associatedSiteId": 109911,
          "outfallName": "SUMMER LANE PAGHAM",
          "isImpacting": true,
          "overFlowSiteId": 115443
        }
      ]
    },
    {
      "id": 343977964,
      "eventId": 802158,
      "siteUnitNumber": 12576,
      "bathingSite": "ST LEONARDS",
      "eventStart": "2023-04-16T12:25:29",
      "eventStop": "2023-04-16T12:45:29",
      "duration": 20,
      "status": "Genuine",
      "associatedSiteId": 109903,
      "outfallName": "BEXHILL & HASTINGS NO2",
      "isImpacting": true,
      "overFlowSiteId": 0,
      "historicSpillsList": [
        {
          "id": 343977964,
          "eventId": 802158,
          "siteUnitNumber": 12576,
          "bathingSite": "ST LEONARDS",
          "eventStart": "2023-04-16T12:25:29",
          "eventStop": "2023-04-16T12:45:29",
          "duration": 20,
          "status": "Genuine",
          "associatedSiteId": 109903,
          "outfallName": "BEXHILL & HASTINGS NO2",
          "isImpacting": true,
          "overFlowSiteId": 115398
        },
        {
          "id": 343977965,
          "eventId": 802158,
          "siteUnitNumber": 12577,
          "bathingSite": "BEXHILL",
          "eventStart": "2023-04-16T12:25:29",
          "eventStop": "2023-04-16T12:45:29",
          "duration": 20,
          "status": "Genuine",
          "associatedSiteId": 109903,
          "outfallName": "BEXHILL & HASTINGS NO2",
          "isImpacting": true,
          "overFlowSiteId": 115398,
          "historicSpillsList": []
        }
      ]
    }
  ]
}