{
  "currentPage": 101,
  "totalItems": 18701,
  "totalPages": 749,
  "items": [
    {
      "id": 343918313,
      "eventId": 895503,
      "siteUnitNumber": 12544,
      "bathingSite": "SHEERNESS",
      "eventStart": "2023-11-04T22:00:00",
      "eventStop": "2023-11-05T00:15:00",
      "duration": 135,
      "status": "Genuine",
      "associatedSiteId": 109616,
      "outfallName": "SOUTH STREET QUEENBOROUGH",
      "isImpacting": true,
      "overFlowSiteId": 0,
      "historicSpillsList": [
        {
          "id": 343918313,
          "eventId": 895503,
          "siteUnitNumber": 12544,
          "bathingSite": "SHEERNESS",
          "eventStart": "2023-11-04T22:00:00",
          "eventStop": "2023-11-05T00:15:00",
          "duration": 135,
          "status": "Genuine",
          "associatedSiteId": 109616,
          "outfallName": "SOUTH STREET QUEENBOROUGH",
          "isImpacting": true,
          "overFlowSiteId": 108732
        }
      ]
    },
    {
      "id": 343957394,
      "eventId": 895654,
      "siteUnitNumber": 12614,
      "bathingSite": "TOTLAND BAY",
      "eventStart": "2023-11-04T23:51:10",
      "eventStop": "2023-11-05T00:09:20",
      "duration": 18,
      "status": "Genuine",
      "associatedSiteId": 115498,
      "outfallName": "NORTON TRANSFER IOW",
      "isImpacting": true,
      "overFlowSiteId": 0,
      "historicSpillsList": [
        {
          "id": 343957394,
          "eventId": 895654,
          "siteUnitNumber": 12614,
          "bathingSite": "TOTLAND BAY",
          "eventStart": "2023-11-04T23:51:10",
          "eventStop": "2023-11-05T00:09:20",
          "duration": 18,
          "status": "Genuine",
          "associatedSiteId": 115498,
          "outfallName": "NORTON TRANSFER IOW",
          "isImpacting": true,
          "overFlowSiteId": 109524
        },
        {
          "id": 343957395,
          "eventId": 895654,
          "siteUnitNumber": 12615,
          "bathingSite": "COLWELL BAY",
          "eventStart": "2023-11-04T23:51:10",
          "eventStop": "2023-11-05T00:09:20",
          "duration": 18,
          "status": "Genuine",
          "associatedSiteId": 115498,
          "outfallName": "NORTON TRANSFER IOW",
          "isImpacting": true,
          "overFlowSiteId": 109524,
          "historicSpillsList": []
        }
      ]
    },
    {
      "id": 343925628,
      "eventId": 894571,
      "siteUnitNumber": 12662,
      "bathingSite": "CHICHESTER HARBOUR",
      "eventStart": "2023-11-04T13:10:00",
      "eventStop": "2023-11-04T23:48:00",
      "duration": 638,
      "status": "Genuine",
      "associatedSiteId": 109764,
      "outfallName": "FISHERY LANE HAYLING ISLAND",
      "isImpacting": true,
      "overFlowSiteId": 0,
      "historicSpillsList": [
        {
          "id": 343925628,
          "eventId": 894571,
          "siteUnitNumber": 12662,
          "bathingSite": "CHICHESTER HARBOUR",
          "eventStart": "2023-11-04T13:10:00",
          "eventStop": "2023-11-04T23:48:00",
          "duration": 638,
          "status": "Genuine",
          "associatedSiteId": 109764,
          "outfallName": "FISHERY LANE HAYLING ISLAND",
          "isImpacting": true,
          "overFlowSiteId": 108429
        },
        {
          "id": 343925629,
          "eventId": 894571,
          "siteUnitNumber": 12599,
          "bathingSite": "WEST WITTERING",
          "eventStart": "2023-11-04T13:10:00",
          "eventStop": "2023-11-04T23:48:00",
          "duration": 638,
          "status": "Genuine",
          "associatedSiteId": 109764,
          "outfallName": "FISHERY LANE HAYLING ISLAND",
          "isImpacting": true,
          "overFlowSiteId": 108429,
          "historicSpillsList": []
        },
        {
          "id": 343925630,
          "eventId": 894571,
          "siteUnitNumber": 12600,
          "bathingSite": "EASTOKE",
          "eventStart": "2023-11-04T13:10:00",
          "eventStop": "2023-11-04T23:48:00",
          "duration": 638,
          "status": "Genuine",
          "associatedSiteId": 109764,
          "outfallName": "FISHERY LANE HAYLING ISLAND",
          "isImpacting": true,
          "overFlowSiteId": 108429,
          "historicSpillsList": []
        },
        {
          "id": 343925631,
          "eventId": 894571,
          "siteUnitNumber": 12601,
          "bathingSite": "BEACHLANDS CENTRAL",
          "eventStart": "2023-11-04T13:10:00",
          "eventStop": "2023-11-04T23:48:00",
          "duration": 638,
          "status": "Genuine",
          "associatedSiteId": 109764,
          "outfallName": "FISHERY LANE HAYLING ISLAND",
          "isImpacting": true,
          "overFlowSiteId": 108429,
          "historicSpillsList": []
        },
        {
          "id": 343925632,
          "eventId": 894571,
          "siteUnitNumber": 12602,
          "bathingSite": "BEACHLANDS WEST",
          "eventStart": "2023-11-04T13:10:00",
          "eventStop": "2023-11-04T23:48:00",
          "duration": 638,
          "status": "Genuine",
          "associatedSiteId": 109764,
          "outfallName": "FISHERY LANE HAYLING ISLAND",
          "isImpacting": true,
          "overFlowSiteId": 108429,
          "historicSpillsList": []
        }
      ]
    },
    {
      "id": 343957396,
      "eventId": 895562,
      "siteUnitNumber": 12615,
      "bathingSite": "COLWELL BAY",
      "eventStart": "2023-11-04T22:54:33",
      "eventStop": "2023-11-04T23:45:32",
      "duration": 50,
      "status": "Genuine",
      "associatedSiteId": 115498,
      "outfallName": "NORTON TRANSFER IOW",
      "isImpacting": true,
      "overFlowSiteId": 0,
      "historicSpillsList": [
        {
          "id": 343957396,
          "eventId": 895562,
          "siteUnitNumber": 12615,
          "bathingSite": "COLWELL BAY",
          "eventStart": "2023-11-04T22:54:33",
          "eventStop": "2023-11-04T23:45:32",
          "duration": 50,
          "status": "Genuine",
          "associatedSiteId": 115498,
          "outfallName": "NORTON TRANSFER IOW",
          "isImpacting": true,
          "overFlowSiteId": 109524
        },
        {
          "id": 343957397,
          "eventId": 895562,
          "siteUnitNumber": 12614,
          "bathingSite": "TOTLAND BAY",
          "eventStart": "2023-11-04T22:54:33",
          "eventStop": "2023-11-04T23:45:32",
          "duration": 50,
          "status": "Genuine",
          "associatedSiteId": 115498,
          "outfallName": "NORTON TRANSFER IOW",
          "isImpacting": true,
          "overFlowSiteId": 109524,
          "historicSpillsList": []
        }
      ]
    },
    {
      "id": 343940594,
      "eventId": 894324,
      "siteUnitNumber": 12595,
      "bathingSite": "BOGNOR REGIS (ALDWICK)",
      "eventStart": "2023-11-04T10:30:00",
      "eventStop": "2023-11-04T23:44:00",
      "duration": 794,
      "status": "Genuine",
      "associatedSiteId": 109959,
      "outfallName": "WEST PARK BOGNOR REGIS",
      "isImpacting": true,
      "overFlowSiteId": 0,
      "historicSpillsList": [
        {
          "id": 343940602,
          "eventId": 894324,
          "siteUnitNumber": 12594,
          "bathingSite": "BOGNOR REGIS EAST",
          "eventStart": "2023-11-04T10:30:00",
          "eventStop": "2023-11-04T23:44:00",
          "duration": 794,
          "status": "Genuine",
          "associatedSiteId": 109959,
          "outfallName": "WEST PARK BOGNOR REGIS",
          "isImpacting": true,
          "overFlowSiteId": 108160,
          "historicSpillsList": []
        }
      ]
    },
    {
      "id": 343938210,
      "eventId": 895505,
      "siteUnitNumber": 12581,
      "bathingSite": "BIRLING GAP",
      "eventStart": "2023-11-04T22:02:21",
      "eventStop": "2023-11-04T23:34:02",
      "duration": 91,
      "status": "Genuine",
      "associatedSiteId": 109936,
      "outfallName": "EAST DEAN",
      "isImpacting": false,
      "overFlowSiteId": 0,
      "historicSpillsList": []
    },
    {
      "id": 343945399,
      "eventId": 894115,
      "siteUnitNumber": 12624,
      "bathingSite": "SANDOWN",
      "eventStart": "2023-11-04T08:50:00",
      "eventStop": "2023-11-04T23:30:00",
      "duration": 880,
      "status": "Genuine",
      "associatedSiteId": 110029,
      "outfallName": "HOPE BEACH SHANKLIN NEW",
      "isImpacting": true,
      "overFlowSiteId": 0,
      "historicSpillsList": [
        {
          "id": 343945400,
          "eventId": 894115,
          "siteUnitNumber": 12625,
          "bathingSite": "SHANKLIN",
          "eventStart": "2023-11-04T08:50:00",
          "eventStop": "2023-11-04T23:30:00",
          "duration": 880,
          "status": "Genuine",
          "associatedSiteId": 110029,
          "outfallName": "HOPE BEACH SHANKLIN NEW",
          "isImpacting": true,
          "overFlowSiteId": 109389,
          "historicSpillsList": []
        }
      ]
    },
    {
      "id": 343936754,
      "eventId": 897955,
      "siteUnitNumber": 12571,
      "bathingSite": "ST MARYS BAY (KENT)",
      "eventStart": "2023-11-04T13:53:00",
      "eventStop": "2023-11-04T23:23:00",
      "duration": 570,
      "status": "Genuine",
      "associatedSiteId": 109907,
      "outfallName": "QUEENS ROAD NEW ROMNEY",
      "isImpacting": true,
      "overFlowSiteId": 0,
      "historicSpillsList": [
        {
          "id": 343936755,
          "eventId": 897955,
          "siteUnitNumber": 12572,
          "bathingSite": "LITTLESTONE",
          "eventStart": "2023-11-04T13:53:00",
          "eventStop": "2023-11-04T23:23:00",
          "duration": 570,
          "status": "Genuine",
          "associatedSiteId": 109907,
          "outfallName": "QUEENS ROAD NEW ROMNEY",
          "isImpacting": true,
          "overFlowSiteId": 108711,
          "historicSpillsList": []
        }
      ]
    },
    {
      "id": 343943694,
      "eventId": 896561,
      "siteUnitNumber": 12594,
      "bathingSite": "BOGNOR REGIS EAST",
      "eventStart": "2023-11-04T19:01:00",
      "eventStop": "2023-11-04T23:15:00",
      "duration": 254,
      "status": "Genuine",
      "associatedSiteId": 109972,
      "outfallName": "BOGNOR MAIN",
      "isImpacting": true,
      "overFlowSiteId": 0,
      "historicSpillsList": [
        {
          "id": 343943700,
          "eventId": 896561,
          "siteUnitNumber": 12593,
          "bathingSite": "FELPHAM",
          "eventStart": "2023-11-04T19:01:00",
          "eventStop": "2023-11-04T23:15:00",
          "duration": 254,
          "status": "Genuine",
          "associatedSiteId": 109972,
          "outfallName": "BOGNOR MAIN",
          "isImpacting": true,
          "overFlowSiteId": 107412,
          "historicSpillsList": []
        }
      ]
    },
    {
      "id": 343928574,
      "eventId": 896559,
      "siteUnitNumber": 12661,
      "bathingSite": "LANGSTONE HARBOUR",
      "eventStart": "2023-11-04T17:17:00",
      "eventStop": "2023-11-04T23:12:00",
      "duration": 355,
      "status": "Genuine",
      "associatedSiteId": 109819,
      "outfallName": "COURT LANE COSHAM",
      "isImpacting": true,
      "overFlowSiteId": 0,
      "historicSpillsList": [
        {
          "id": 343928574,
          "eventId": 896559,
          "siteUnitNumber": 12661,
          "bathingSite": "LANGSTONE HARBOUR",
          "eventStart": "2023-11-04T17:17:00",
          "eventStop": "2023-11-04T23:12:00",
          "duration": 355,
          "status": "Genuine",
          "associatedSiteId": 109819,
          "outfallName": "COURT LANE COSHAM",
          "isImpacting": true,
          "overFlowSiteId": 115958
        }
      ]
    },
    {
      "id": 343943593,
      "eventId": 894348,
      "siteUnitNumber": 12593,
      "bathingSite": "FELPHAM",
      "eventStart": "2023-11-04T08:56:26",
      "eventStop": "2023-11-04T23:09:00",
      "duration": 852,
      "status": "Genuine",
      "associatedSiteId": 109970,
      "outfallName": "CHICHESTER ROAD BOGNOR",
      "isImpacting": true,
      "overFlowSiteId": 0,
      "historicSpillsList": [
        {
          "id": 343943593,
          "eventId": 894348,
          "siteUnitNumber": 12593,
          "bathingSite": "FELPHAM",
          "eventStart": "2023-11-04T08:56:26",
          "eventStop": "2023-11-04T23:09:00",
          "duration": 852,
          "status": "Genuine",
          "associatedSiteId": 109970,
          "outfallName": "CHICHESTER ROAD BOGNOR",
          "isImpacting": true,
          "overFlowSiteId": 103301
        },
        {
          "id": 343943594,
          "eventId": 894348,
          "siteUnitNumber": 12594,
          "bathingSite": "BOGNOR REGIS EAST",
          "eventStart": "2023-11-04T08:56:26",
          "eventStop": "2023-11-04T23:09:00",
          "duration": 852,
          "status": "Genuine",
          "associatedSiteId": 109970,
          "outfallName": "CHICHESTER ROAD BOGNOR",
          "isImpacting": true,
          "overFlowSiteId": 103301,
          "historicSpillsList": []
        },
        {
          "id": 343943595,
          "eventId": 894348,
          "siteUnitNumber": 12595,
          "bathingSite": "BOGNOR REGIS (ALDWICK)",
          "eventStart": "2023-11-04T08:56:26",
          "eventStop": "2023-11-04T23:09:00",
          "duration": 852,
          "status": "Genuine",
          "associatedSiteId": 109970,
          "outfallName": "CHICHESTER ROAD BOGNOR",
          "isImpacting": true,
          "overFlowSiteId": 103301,
          "historicSpillsList": []
        }
      ]
    },
    {
      "id": 343957398,
      "eventId": 895529,
      "siteUnitNumber": 12614,
      "bathingSite": "TOTLAND BAY",
      "eventStart": "2023-11-04T22:37:17",
      "eventStop": "2023-11-04T22:51:24",
      "duration": 14,
      "status": "Genuine",
      "associatedSiteId": 115498,
      "outfallName": "NORTON TRANSFER IOW",
      "isImpacting": true,
      "overFlowSiteId": 0,
      "historicSpillsList": [
        {
          "id": 343957398,
          "eventId": 895529,
          "siteUnitNumber": 12614,
          "bathingSite": "TOTLAND BAY",
          "eventStart": "2023-11-04T22:37:17",
          "eventStop": "2023-11-04T22:51:24",
          "duration": 14,
          "status": "Genuine",
          "associatedSiteId": 115498,
          "outfallName": "NORTON TRANSFER IOW",
          "isImpacting": true,
          "overFlowSiteId": 109524
        },
        {
          "id": 343957399,
          "eventId": 895529,
          "siteUnitNumber": 12615,
          "bathingSite": "COLWELL BAY",
          "eventStart": "2023-11-04T22:37:17",
          "eventStop": "2023-11-04T22:51:24",
          "duration": 14,
          "status": "Genuine",
          "associatedSiteId": 115498,
          "outfallName": "NORTON TRANSFER IOW",
          "isImpacting": true,
          "overFlowSiteId": 109524,
          "historicSpillsList": []
        }
      ]
    },
    {
      "id": 343927562,
      "eventId": 901432,
      "siteUnitNumber": 12618,
      "bathingSite": "RYDE",
      "eventStart": "2023-11-04T21:20:00",
      "eventStop": "2023-11-04T22:50:00",
      "duration": 90,
      "status": "Genuine",
      "associatedSiteId": 109780,
      "outfallName": "LADIES WALK BINSTEAD",
      "isImpacting": true,
      "overFlowSiteId": 0,
      "historicSpillsList": [
        {
          "id": 343927562,
          "eventId": 901432,
          "siteUnitNumber": 12618,
          "bathingSite": "RYDE",
          "eventStart": "2023-11-04T21:20:00",
          "eventStop": "2023-11-04T22:50:00",
          "duration": 90,
          "status": "Genuine",
          "associatedSiteId": 109780,
          "outfallName": "LADIES WALK BINSTEAD",
          "isImpacting": true,
          "overFlowSiteId": 107406
        }
      ]
    },
    {
      "id": 343931846,
      "eventId": 901594,
      "siteUnitNumber": 12662,
      "bathingSite": "CHICHESTER HARBOUR",
      "eventStart": "2023-11-04T19:24:00",
      "eventStop": "2023-11-04T22:49:00",
      "duration": 205,
      "status": "Genuine",
      "associatedSiteId": 109854,
      "outfallName": "KINGS ROAD EMSWORTH",
      "isImpacting": true,
      "overFlowSiteId": 0,
      "historicSpillsList": [
        {
          "id": 343931846,
          "eventId": 901594,
          "siteUnitNumber": 12662,
          "bathingSite": "CHICHESTER HARBOUR",
          "eventStart": "2023-11-04T19:24:00",
          "eventStop": "2023-11-04T22:49:00",
          "duration": 205,
          "status": "Genuine",
          "associatedSiteId": 109854,
          "outfallName": "KINGS ROAD EMSWORTH",
          "isImpacting": true,
          "overFlowSiteId": 109298
        }
      ]
    },
    {
      "id": 343929377,
      "eventId": 895915,
      "siteUnitNumber": 12601,
      "bathingSite": "BEACHLANDS CENTRAL",
      "eventStart": "2023-11-04T19:47:00",
      "eventStop": "2023-11-04T22:45:00",
      "duration": 178,
      "status": "Genuine",
      "associatedSiteId": 109823,
      "outfallName": "FORT CUMBERLAND NO1",
      "isImpacting": true,
      "overFlowSiteId": 0,
      "historicSpillsList": [
        {
          "id": 343929381,
          "eventId": 895915,
          "siteUnitNumber": 12661,
          "bathingSite": "LANGSTONE HARBOUR",
          "eventStart": "2023-11-04T19:47:00",
          "eventStop": "2023-11-04T22:45:00",
          "duration": 178,
          "status": "Genuine",
          "associatedSiteId": 109823,
          "outfallName": "FORT CUMBERLAND NO1",
          "isImpacting": true,
          "overFlowSiteId": 110658,
          "historicSpillsList": []
        }
      ]
    },
    {
      "id": 343952777,
      "eventId": 895541,
      "siteUnitNumber": 12562,
      "bathingSite": "BROADSTAIRS VIKING BAY",
      "eventStart": "2023-11-04T22:28:00",
      "eventStop": "2023-11-04T22:40:00",
      "duration": 12,
      "status": "Genuine",
      "associatedSiteId": 110673,
      "outfallName": "BROADSTAIRS SSO 1",
      "isImpacting": true,
      "overFlowSiteId": 0,
      "historicSpillsList": [
        {
          "id": 343952779,
          "eventId": 895541,
          "siteUnitNumber": 12560,
          "bathingSite": "JOSS BAY BROADSTAIRS",
          "eventStart": "2023-11-04T22:28:00",
          "eventStop": "2023-11-04T22:40:00",
          "duration": 12,
          "status": "Genuine",
          "associatedSiteId": 110673,
          "outfallName": "BROADSTAIRS SSO 1",
          "isImpacting": true,
          "overFlowSiteId": 116106,
          "historicSpillsList": []
        }
      ]
    },
    {
      "id": 343957400,
      "eventId": 895384,
      "siteUnitNumber": 12614,
      "bathingSite": "TOTLAND BAY",
      "eventStart": "2023-11-04T21:29:42",
      "eventStop": "2023-11-04T22:33:59",
      "duration": 64,
      "status": "Genuine",
      "associatedSiteId": 115498,
      "outfallName": "NORTON TRANSFER IOW",
      "isImpacting": true,
      "overFlowSiteId": 0,
      "historicSpillsList": [
        {
          "id": 343957400,
          "eventId": 895384,
          "siteUnitNumber": 12614,
          "bathingSite": "TOTLAND BAY",
          "eventStart": "2023-11-04T21:29:42",
          "eventStop": "2023-11-04T22:33:59",
          "duration": 64,
          "status": "Genuine",
          "associatedSiteId": 115498,
          "outfallName": "NORTON TRANSFER IOW",
          "isImpacting": true,
          "overFlowSiteId": 109524
        },
        {
          "id": 343957401,
          "eventId": 895384,
          "siteUnitNumber": 12615,
          "bathingSite": "COLWELL BAY",
          "eventStart": "2023-11-04T21:29:42",
          "eventStop": "2023-11-04T22:33:59",
          "duration": 64,
          "status": "Genuine",
          "associatedSiteId": 115498,
          "outfallName": "NORTON TRANSFER IOW",
          "isImpacting": true,
          "overFlowSiteId": 109524,
          "historicSpillsList": []
        }
      ]
    },
    {
      "id": 343928451,
      "eventId": 896614,
      "siteUnitNumber": 12661,
      "bathingSite": "LANGSTONE HARBOUR",
      "eventStart": "2023-11-04T19:57:00",
      "eventStop": "2023-11-04T21:42:00",
      "duration": 105,
      "status": "Genuine",
      "associatedSiteId": 109817,
      "outfallName": "MAINLAND DRAYTON",
      "isImpacting": true,
      "overFlowSiteId": 0,
      "historicSpillsList": [
        {
          "id": 343928451,
          "eventId": 896614,
          "siteUnitNumber": 12661,
          "bathingSite": "LANGSTONE HARBOUR",
          "eventStart": "2023-11-04T19:57:00",
          "eventStop": "2023-11-04T21:42:00",
          "duration": 105,
          "status": "Genuine",
          "associatedSiteId": 109817,
          "outfallName": "MAINLAND DRAYTON",
          "isImpacting": true,
          "overFlowSiteId": 115960
        }
      ]
    },
    {
      "id": 343927751,
      "eventId": 895244,
      "siteUnitNumber": 12618,
      "bathingSite": "RYDE",
      "eventStart": "2023-11-04T20:04:00",
      "eventStop": "2023-11-04T21:40:00",
      "duration": 96,
      "status": "Genuine",
      "associatedSiteId": 109785,
      "outfallName": "SIMEON STREET RYDE",
      "isImpacting": false,
      "overFlowSiteId": 0,
      "historicSpillsList": []
    },
    {
      "id": 343944261,
      "eventId": 895382,
      "siteUnitNumber": 12575,
      "bathingSite": "HASTINGS PELHAM BEACH",
      "eventStart": "2023-11-04T21:16:17",
      "eventStop": "2023-11-04T21:25:37",
      "duration": 9,
      "status": "Genuine",
      "associatedSiteId": 109982,
      "outfallName": "COOMBS HASTINGS",
      "isImpacting": false,
      "overFlowSiteId": 0,
      "historicSpillsList": []
    },
    {
      "id": 343957402,
      "eventId": 895374,
      "siteUnitNumber": 12615,
      "bathingSite": "COLWELL BAY",
      "eventStart": "2023-11-04T21:07:24",
      "eventStop": "2023-11-04T21:25:00",
      "duration": 17,
      "status": "Genuine",
      "associatedSiteId": 115498,
      "outfallName": "NORTON TRANSFER IOW",
      "isImpacting": true,
      "overFlowSiteId": 0,
      "historicSpillsList": [
        {
          "id": 343957402,
          "eventId": 895374,
          "siteUnitNumber": 12615,
          "bathingSite": "COLWELL BAY",
          "eventStart": "2023-11-04T21:07:24",
          "eventStop": "2023-11-04T21:25:00",
          "duration": 17,
          "status": "Genuine",
          "associatedSiteId": 115498,
          "outfallName": "NORTON TRANSFER IOW",
          "isImpacting": true,
          "overFlowSiteId": 109524
        },
        {
          "id": 343957403,
          "eventId": 895374,
          "siteUnitNumber": 12614,
          "bathingSite": "TOTLAND BAY",
          "eventStart": "2023-11-04T21:07:24",
          "eventStop": "2023-11-04T21:25:00",
          "duration": 17,
          "status": "Genuine",
          "associatedSiteId": 115498,
          "outfallName": "NORTON TRANSFER IOW",
          "isImpacting": true,
          "overFlowSiteId": 109524,
          "historicSpillsList": []
        }
      ]
    },
    {
      "id": 343927564,
      "eventId": 901431,
      "siteUnitNumber": 12618,
      "bathingSite": "RYDE",
      "eventStart": "2023-11-04T20:18:00",
      "eventStop": "2023-11-04T21:20:00",
      "duration": 62,
      "status": "Genuine",
      "associatedSiteId": 109780,
      "outfallName": "LADIES WALK BINSTEAD",
      "isImpacting": true,
      "overFlowSiteId": 0,
      "historicSpillsList": [
        {
          "id": 343927564,
          "eventId": 901431,
          "siteUnitNumber": 12618,
          "bathingSite": "RYDE",
          "eventStart": "2023-11-04T20:18:00",
          "eventStop": "2023-11-04T21:20:00",
          "duration": 62,
          "status": "Genuine",
          "associatedSiteId": 109780,
          "outfallName": "LADIES WALK BINSTEAD",
          "isImpacting": true,
          "overFlowSiteId": 107406
        }
      ]
    },
    {
      "id": 343944267,
      "eventId": 895368,
      "siteUnitNumber": 12575,
      "bathingSite": "HASTINGS PELHAM BEACH",
      "eventStart": "2023-11-04T21:02:27",
      "eventStop": "2023-11-04T21:12:42",
      "duration": 10,
      "status": "Genuine",
      "associatedSiteId": 109982,
      "outfallName": "COOMBS HASTINGS",
      "isImpacting": false,
      "overFlowSiteId": 0,
      "historicSpillsList": []
    },
    {
      "id": 343957404,
      "eventId": 895341,
      "siteUnitNumber": 12614,
      "bathingSite": "TOTLAND BAY",
      "eventStart": "2023-11-04T20:44:56",
      "eventStop": "2023-11-04T21:01:56",
      "duration": 17,
      "status": "Genuine",
      "associatedSiteId": 115498,
      "outfallName": "NORTON TRANSFER IOW",
      "isImpacting": true,
      "overFlowSiteId": 0,
      "historicSpillsList": [
        {
          "id": 343957404,
          "eventId": 895341,
          "siteUnitNumber": 12614,
          "bathingSite": "TOTLAND BAY",
          "eventStart": "2023-11-04T20:44:56",
          "eventStop": "2023-11-04T21:01:56",
          "duration": 17,
          "status": "Genuine",
          "associatedSiteId": 115498,
          "outfallName": "NORTON TRANSFER IOW",
          "isImpacting": true,
          "overFlowSiteId": 109524
        },
        {
          "id": 343957405,
          "eventId": 895341,
          "siteUnitNumber": 12615,
          "bathingSite": "COLWELL BAY",
          "eventStart": "2023-11-04T20:44:56",
          "eventStop": "2023-11-04T21:01:56",
          "duration": 17,
          "status": "Genuine",
          "associatedSiteId": 115498,
          "outfallName": "NORTON TRANSFER IOW",
          "isImpacting": true,
          "overFlowSiteId": 109524,
          "historicSpillsList": []
        }
      ]
    },
    {
      "id": 343944265,
      "eventId": 895351,
      "siteUnitNumber": 12575,
      "bathingSite": "HASTINGS PELHAM BEACH",
      "eventStart": "2023-11-04T20:46:24",
      "eventStop": "2023-11-04T20:58:30",
      "duration": 12,
      "status": "Genuine",
      "associatedSiteId": 109982,
      "outfallName": "COOMBS HASTINGS",
      "isImpacting": false,
      "overFlowSiteId": 0,
      "historicSpillsList": []
    }
  ]
}