{
  "currentPage": 748,
  "totalItems": 18701,
  "totalPages": 749,
  "items": [
    {
      "id": 344020008,
      "eventId": 303883,
      "siteUnitNumber": 12568,
      "bathingSite": "SANDGATE",
      "eventStart": "2021-01-03T11:24:00",
      "eventStop": "2021-01-03T13:23:00",
      "duration": 119,
      "status": "Genuine",
      "associatedSiteId": 109897,
      "outfallName": "RANGE ROAD HYTHE K LONG",
      "isImpacting": true,
      "overFlowSiteId": 0,
      "historicSpillsList": [
        {
          "id": 344020008,
          "eventId": 303883,
          "siteUnitNumber": 12568,
          "bathingSite": "SANDGATE",
          "eventStart": "2021-01-03T11:24:00",
          "eventStop": "2021-01-03T13:23:00",
          "duration": 119,
          "status": "Genuine",
          "associatedSiteId": 109897,
          "outfallName": "RANGE ROAD HYTHE K LONG",
          "isImpacting": true,
          "overFlowSiteId": 116048
        },
        {
          "id": 344020009,
          "eventId": 303883,
          "siteUnitNumber": 12569,
          "bathingSite": "HYTHE",
          "eventStart": "2021-01-03T11:24:00",
          "eventStop": "2021-01-03T13:23:00",
          "duration": 119,
          "status": "Genuine",
          "associatedSiteId": 109897,
          "outfallName": "RANGE ROAD HYTHE K LONG",
          "isImpacting": true,
          "overFlowSiteId": 116048,
          "historicSpillsList": []
        }
      ]
    },
    {
      "id": 344028341,
      "eventId": 303856,
      "siteUnitNumber": 12591,
      "bathingSite": "LITTLEHAMPTON",
      "eventStart": "2021-01-03T11:45:00",
      "eventStop": "2021-01-03T12:01:00",
      "duration": 16,
      "status": "Genuine",
      "associatedSiteId": 109965,
      "outfallName": "SEA ROAD LITTLEHAMPTON",
      "isImpacting": true,
      "overFlowSiteId": 0,
      "historicSpillsList": [
        {
          "id": 344028341,
          "eventId": 303856,
          "siteUnitNumber": 12591,
          "bathingSite": "LITTLEHAMPTON",
          "eventStart": "2021-01-03T11:45:00",
          "eventStop": "2021-01-03T12:01:00",
          "duration": 16,
          "status": "Genuine",
          "associatedSiteId": 109965,
          "outfallName": "SEA ROAD LITTLEHAMPTON",
          "isImpacting": true,
          "overFlowSiteId": 109368
        }
      ]
    },
    {
      "id": 344005537,
      "eventId": 303564,
      "siteUnitNumber": 12616,
      "bathingSite": "GURNARD",
      "eventStart": "2021-01-02T19:45:00",
      "eventStop": "2021-01-03T07:15:00",
      "duration": 690,
      "status": "Genuine",
      "associatedSiteId": 109652,
      "outfallName": "WOODVALE TRANSFER NO1",
      "isImpacting": true,
      "overFlowSiteId": 0,
      "historicSpillsList": [
        {
          "id": 344005537,
          "eventId": 303564,
          "siteUnitNumber": 12616,
          "bathingSite": "GURNARD",
          "eventStart": "2021-01-02T19:45:00",
          "eventStop": "2021-01-03T07:15:00",
          "duration": 690,
          "status": "Genuine",
          "associatedSiteId": 109652,
          "outfallName": "WOODVALE TRANSFER NO1",
          "isImpacting": true,
          "overFlowSiteId": 115966
        },
        {
          "id": 344005538,
          "eventId": 303564,
          "siteUnitNumber": 12617,
          "bathingSite": "COWES",
          "eventStart": "2021-01-02T19:45:00",
          "eventStop": "2021-01-03T07:15:00",
          "duration": 690,
          "status": "Genuine",
          "associatedSiteId": 109652,
          "outfallName": "WOODVALE TRANSFER NO1",
          "isImpacting": true,
          "overFlowSiteId": 115966,
          "historicSpillsList": []
        }
      ]
    },
    {
      "id": 344016893,
      "eventId": 303348,
      "siteUnitNumber": 12662,
      "bathingSite": "CHICHESTER HARBOUR",
      "eventStart": "2021-01-02T11:45:00",
      "eventStop": "2021-01-03T01:45:00",
      "duration": 840,
      "status": "Genuine",
      "associatedSiteId": 109836,
      "outfallName": "CHICHESTER",
      "isImpacting": true,
      "overFlowSiteId": 0,
      "historicSpillsList": [
        {
          "id": 344016893,
          "eventId": 303348,
          "siteUnitNumber": 12662,
          "bathingSite": "CHICHESTER HARBOUR",
          "eventStart": "2021-01-02T11:45:00",
          "eventStop": "2021-01-03T01:45:00",
          "duration": 840,
          "status": "Genuine",
          "associatedSiteId": 109836,
          "outfallName": "CHICHESTER",
          "isImpacting": true,
          "overFlowSiteId": 115402
        }
      ]
    },
    {
      "id": 344028339,
      "eventId": 303874,
      "siteUnitNumber": 12591,
      "bathingSite": "LITTLEHAMPTON",
      "eventStart": "2021-01-02T23:02:00",
      "eventStop": "2021-01-03T01:17:00",
      "duration": 135,
      "status": "Genuine",
      "associatedSiteId": 109965,
      "outfallName": "SEA ROAD LITTLEHAMPTON",
      "isImpacting": true,
      "overFlowSiteId": 0,
      "historicSpillsList": [
        {
          "id": 344028339,
          "eventId": 303874,
          "siteUnitNumber": 12591,
          "bathingSite": "LITTLEHAMPTON",
          "eventStart": "2021-01-02T23:02:00",
          "eventStop": "2021-01-03T01:17:00",
          "duration": 135,
          "status": "Genuine",
          "associatedSiteId": 109965,
          "outfallName": "SEA ROAD LITTLEHAMPTON",
          "isImpacting": true,
          "overFlowSiteId": 109368
        }
      ]
    },
    {
      "id": 344005539,
      "eventId": 303385,
      "siteUnitNumber": 12616,
      "bathingSite": "GURNARD",
      "eventStart": "2021-01-02T09:00:00",
      "eventStop": "2021-01-02T18:45:00",
      "duration": 585,
      "status": "Genuine",
      "associatedSiteId": 109652,
      "outfallName": "WOODVALE TRANSFER NO1",
      "isImpacting": true,
      "overFlowSiteId": 0,
      "historicSpillsList": [
        {
          "id": 344005539,
          "eventId": 303385,
          "siteUnitNumber": 12616,
          "bathingSite": "GURNARD",
          "eventStart": "2021-01-02T09:00:00",
          "eventStop": "2021-01-02T18:45:00",
          "duration": 585,
          "status": "Genuine",
          "associatedSiteId": 109652,
          "outfallName": "WOODVALE TRANSFER NO1",
          "isImpacting": true,
          "overFlowSiteId": 115966
        },
        {
          "id": 344005540,
          "eventId": 303385,
          "siteUnitNumber": 12617,
          "bathingSite": "COWES",
          "eventStart": "2021-01-02T09:00:00",
          "eventStop": "2021-01-02T18:45:00",
          "duration": 585,
          "status": "Genuine",
          "associatedSiteId": 109652,
          "outfallName": "WOODVALE TRANSFER NO1",
          "isImpacting": true,
          "overFlowSiteId": 115966,
          "historicSpillsList": []
        }
      ]
    },
    {
      "id": 344019940,
      "eventId": 365485,
      "siteUnitNumber": 12568,
      "bathingSite": "SANDGATE",
      "eventStart": "2021-01-02T16:37:00",
      "eventStop": "2021-01-02T17:03:00",
      "duration": 26,
      "status": "Genuine",
      "associatedSiteId": 109897,
      "outfallName": "RANGE ROAD HYTHE K LONG",
      "isImpacting": true,
      "overFlowSiteId": 0,
      "historicSpillsList": [
        {
          "id": 344019940,
          "eventId": 365485,
          "siteUnitNumber": 12568,
          "bathingSite": "SANDGATE",
          "eventStart": "2021-01-02T16:37:00",
          "eventStop": "2021-01-02T17:03:00",
          "duration": 26,
          "status": "Genuine",
          "associatedSiteId": 109897,
          "outfallName": "RANGE ROAD HYTHE K LONG",
          "isImpacting": true,
          "overFlowSiteId": 116048
        },
        {
          "id": 344019941,
          "eventId": 365485,
          "siteUnitNumber": 12569,
          "bathingSite": "HYTHE",
          "eventStart": "2021-01-02T16:37:00",
          "eventStop": "2021-01-02T17:03:00",
          "duration": 26,
          "status": "Genuine",
          "associatedSiteId": 109897,
          "outfallName": "RANGE ROAD HYTHE K LONG",
          "isImpacting": true,
          "overFlowSiteId": 116048,
          "historicSpillsList": []
        }
      ]
    },
    {
      "id": 344039542,
      "eventId": 303489,
      "siteUnitNumber": 12582,
      "bathingSite": "SEAFORD",
      "eventStart": "2021-01-02T15:23:59",
      "eventStop": "2021-01-02T15:50:31",
      "duration": 26,
      "status": "Genuine",
      "associatedSiteId": 110920,
      "outfallName": "NEWHAVEN",
      "isImpacting": true,
      "overFlowSiteId": 0,
      "historicSpillsList": [
        {
          "id": 344039542,
          "eventId": 303489,
          "siteUnitNumber": 12582,
          "bathingSite": "SEAFORD",
          "eventStart": "2021-01-02T15:23:59",
          "eventStop": "2021-01-02T15:50:31",
          "duration": 26,
          "status": "Genuine",
          "associatedSiteId": 110920,
          "outfallName": "NEWHAVEN",
          "isImpacting": true,
          "overFlowSiteId": 116065
        }
      ]
    },
    {
      "id": 344019946,
      "eventId": 365484,
      "siteUnitNumber": 12568,
      "bathingSite": "SANDGATE",
      "eventStart": "2021-01-02T14:42:00",
      "eventStop": "2021-01-02T15:18:00",
      "duration": 36,
      "status": "Genuine",
      "associatedSiteId": 109897,
      "outfallName": "RANGE ROAD HYTHE K LONG",
      "isImpacting": true,
      "overFlowSiteId": 0,
      "historicSpillsList": [
        {
          "id": 344019946,
          "eventId": 365484,
          "siteUnitNumber": 12568,
          "bathingSite": "SANDGATE",
          "eventStart": "2021-01-02T14:42:00",
          "eventStop": "2021-01-02T15:18:00",
          "duration": 36,
          "status": "Genuine",
          "associatedSiteId": 109897,
          "outfallName": "RANGE ROAD HYTHE K LONG",
          "isImpacting": true,
          "overFlowSiteId": 116048
        },
        {
          "id": 344019947,
          "eventId": 365484,
          "siteUnitNumber": 12569,
          "bathingSite": "HYTHE",
          "eventStart": "2021-01-02T14:42:00",
          "eventStop": "2021-01-02T15:18:00",
          "duration": 36,
          "status": "Genuine",
          "associatedSiteId": 109897,
          "outfallName": "RANGE ROAD HYTHE K LONG",
          "isImpacting": true,
          "overFlowSiteId": 116048,
          "historicSpillsList": []
        }
      ]
    },
    {
      "id": 344028338,
      "eventId": 303873,
      "siteUnitNumber": 12591,
      "bathingSite": "LITTLEHAMPTON",
      "eventStart": "2021-01-02T13:53:00",
      "eventStop": "2021-01-02T14:22:00",
      "duration": 29,
      "status": "Genuine",
      "associatedSiteId": 109965,
      "outfallName": "SEA ROAD LITTLEHAMPTON",
      "isImpacting": true,
      "overFlowSiteId": 0,
      "historicSpillsList": [
        {
          "id": 344028338,
          "eventId": 303873,
          "siteUnitNumber": 12591,
          "bathingSite": "LITTLEHAMPTON",
          "eventStart": "2021-01-02T13:53:00",
          "eventStop": "2021-01-02T14:22:00",
          "duration": 29,
          "status": "Genuine",
          "associatedSiteId": 109965,
          "outfallName": "SEA ROAD LITTLEHAMPTON",
          "isImpacting": true,
          "overFlowSiteId": 109368
        }
      ]
    },
    {
      "id": 344020012,
      "eventId": 303351,
      "siteUnitNumber": 12568,
      "bathingSite": "SANDGATE",
      "eventStart": "2021-01-02T12:13:00",
      "eventStop": "2021-01-02T14:12:00",
      "duration": 119,
      "status": "Genuine",
      "associatedSiteId": 109897,
      "outfallName": "RANGE ROAD HYTHE K LONG",
      "isImpacting": true,
      "overFlowSiteId": 0,
      "historicSpillsList": [
        {
          "id": 344020012,
          "eventId": 303351,
          "siteUnitNumber": 12568,
          "bathingSite": "SANDGATE",
          "eventStart": "2021-01-02T12:13:00",
          "eventStop": "2021-01-02T14:12:00",
          "duration": 119,
          "status": "Genuine",
          "associatedSiteId": 109897,
          "outfallName": "RANGE ROAD HYTHE K LONG",
          "isImpacting": true,
          "overFlowSiteId": 116048
        },
        {
          "id": 344020013,
          "eventId": 303351,
          "siteUnitNumber": 12569,
          "bathingSite": "HYTHE",
          "eventStart": "2021-01-02T12:13:00",
          "eventStop": "2021-01-02T14:12:00",
          "duration": 119,
          "status": "Genuine",
          "associatedSiteId": 109897,
          "outfallName": "RANGE ROAD HYTHE K LONG",
          "isImpacting": true,
          "overFlowSiteId": 116048,
          "historicSpillsList": []
        }
      ]
    },
    {
      "id": 344027835,
      "eventId": 303362,
      "siteUnitNumber": 12591,
      "bathingSite": "LITTLEHAMPTON",
      "eventStart": "2021-01-02T10:41:00",
      "eventStop": "2021-01-02T11:33:00",
      "duration": 52,
      "status": "Genuine",
      "associatedSiteId": 109965,
      "outfallName": "SEA ROAD LITTLEHAMPTON",
      "isImpacting": true,
      "overFlowSiteId": 0,
      "historicSpillsList": [
        {
          "id": 344027835,
          "eventId": 303362,
          "siteUnitNumber": 12591,
          "bathingSite": "LITTLEHAMPTON",
          "eventStart": "2021-01-02T10:41:00",
          "eventStop": "2021-01-02T11:33:00",
          "duration": 52,
          "status": "Genuine",
          "associatedSiteId": 109965,
          "outfallName": "SEA ROAD LITTLEHAMPTON",
          "isImpacting": true,
          "overFlowSiteId": 109368
        }
      ]
    },
    {
      "id": 344003963,
      "eventId": 303167,
      "siteUnitNumber": 12616,
      "bathingSite": "GURNARD",
      "eventStart": "2021-01-01T18:45:00",
      "eventStop": "2021-01-02T06:30:00",
      "duration": 705,
      "status": "Genuine",
      "associatedSiteId": 109652,
      "outfallName": "WOODVALE TRANSFER NO1",
      "isImpacting": true,
      "overFlowSiteId": 0,
      "historicSpillsList": [
        {
          "id": 344003963,
          "eventId": 303167,
          "siteUnitNumber": 12616,
          "bathingSite": "GURNARD",
          "eventStart": "2021-01-01T18:45:00",
          "eventStop": "2021-01-02T06:30:00",
          "duration": 705,
          "status": "Genuine",
          "associatedSiteId": 109652,
          "outfallName": "WOODVALE TRANSFER NO1",
          "isImpacting": true,
          "overFlowSiteId": 115966
        },
        {
          "id": 344003964,
          "eventId": 303167,
          "siteUnitNumber": 12617,
          "bathingSite": "COWES",
          "eventStart": "2021-01-01T18:45:00",
          "eventStop": "2021-01-02T06:30:00",
          "duration": 705,
          "status": "Genuine",
          "associatedSiteId": 109652,
          "outfallName": "WOODVALE TRANSFER NO1",
          "isImpacting": true,
          "overFlowSiteId": 115966,
          "historicSpillsList": []
        }
      ]
    },
    {
      "id": 344028344,
      "eventId": 303432,
      "siteUnitNumber": 12591,
      "bathingSite": "LITTLEHAMPTON",
      "eventStart": "2021-01-02T02:22:00",
      "eventStop": "2021-01-02T03:16:00",
      "duration": 54,
      "status": "Genuine",
      "associatedSiteId": 109965,
      "outfallName": "SEA ROAD LITTLEHAMPTON",
      "isImpacting": true,
      "overFlowSiteId": 0,
      "historicSpillsList": [
        {
          "id": 344028344,
          "eventId": 303432,
          "siteUnitNumber": 12591,
          "bathingSite": "LITTLEHAMPTON",
          "eventStart": "2021-01-02T02:22:00",
          "eventStop": "2021-01-02T03:16:00",
          "duration": 54,
          "status": "Genuine",
          "associatedSiteId": 109965,
          "outfallName": "SEA ROAD LITTLEHAMPTON",
          "isImpacting": true,
          "overFlowSiteId": 109368
        }
      ]
    },
    {
      "id": 344028343,
      "eventId": 303431,
      "siteUnitNumber": 12591,
      "bathingSite": "LITTLEHAMPTON",
      "eventStart": "2021-01-02T00:48:00",
      "eventStop": "2021-01-02T01:10:00",
      "duration": 22,
      "status": "Genuine",
      "associatedSiteId": 109965,
      "outfallName": "SEA ROAD LITTLEHAMPTON",
      "isImpacting": true,
      "overFlowSiteId": 0,
      "historicSpillsList": [
        {
          "id": 344028343,
          "eventId": 303431,
          "siteUnitNumber": 12591,
          "bathingSite": "LITTLEHAMPTON",
          "eventStart": "2021-01-02T00:48:00",
          "eventStop": "2021-01-02T01:10:00",
          "duration": 22,
          "status": "Genuine",
          "associatedSiteId": 109965,
          "outfallName": "SEA ROAD LITTLEHAMPTON",
          "isImpacting": true,
          "overFlowSiteId": 109368
        }
      ]
    },
    {
      "id": 344016894,
      "eventId": 302980,
      "siteUnitNumber": 12662,
      "bathingSite": "CHICHESTER HARBOUR",
      "eventStart": "2021-01-01T12:26:00",
      "eventStop": "2021-01-01T23:32:00",
      "duration": 666,
      "status": "Genuine",
      "associatedSiteId": 109836,
      "outfallName": "CHICHESTER",
      "isImpacting": true,
      "overFlowSiteId": 0,
      "historicSpillsList": [
        {
          "id": 344016894,
          "eventId": 302980,
          "siteUnitNumber": 12662,
          "bathingSite": "CHICHESTER HARBOUR",
          "eventStart": "2021-01-01T12:26:00",
          "eventStop": "2021-01-01T23:32:00",
          "duration": 666,
          "status": "Genuine",
          "associatedSiteId": 109836,
          "outfallName": "CHICHESTER",
          "isImpacting": true,
          "overFlowSiteId": 115402
        }
      ]
    },
    {
      "id": 344020014,
      "eventId": 303132,
      "siteUnitNumber": 12568,
      "bathingSite": "SANDGATE",
      "eventStart": "2021-01-01T18:56:00",
      "eventStop": "2021-01-01T19:02:00",
      "duration": 6,
      "status": "Genuine",
      "associatedSiteId": 109897,
      "outfallName": "RANGE ROAD HYTHE K LONG",
      "isImpacting": true,
      "overFlowSiteId": 0,
      "historicSpillsList": [
        {
          "id": 344020014,
          "eventId": 303132,
          "siteUnitNumber": 12568,
          "bathingSite": "SANDGATE",
          "eventStart": "2021-01-01T18:56:00",
          "eventStop": "2021-01-01T19:02:00",
          "duration": 6,
          "status": "Genuine",
          "associatedSiteId": 109897,
          "outfallName": "RANGE ROAD HYTHE K LONG",
          "isImpacting": true,
          "overFlowSiteId": 116048
        },
        {
          "id": 344020015,
          "eventId": 303132,
          "siteUnitNumber": 12569,
          "bathingSite": "HYTHE",
          "eventStart": "2021-01-01T18:56:00",
          "eventStop": "2021-01-01T19:02:00",
          "duration": 6,
          "status": "Genuine",
          "associatedSiteId": 109897,
          "outfallName": "RANGE ROAD HYTHE K LONG",
          "isImpacting": true,
          "overFlowSiteId": 116048,
          "historicSpillsList": []
        }
      ]
    },
    {
      "id": 344019944,
      "eventId": 365471,
      "siteUnitNumber": 12568,
      "bathingSite": "SANDGATE",
      "eventStart": "2021-01-01T16:42:00",
      "eventStop": "2021-01-01T16:47:00",
      "duration": 5,
      "status": "Genuine",
      "associatedSiteId": 109897,
      "outfallName": "RANGE ROAD HYTHE K LONG",
      "isImpacting": true,
      "overFlowSiteId": 0,
      "historicSpillsList": [
        {
          "id": 344019944,
          "eventId": 365471,
          "siteUnitNumber": 12568,
          "bathingSite": "SANDGATE",
          "eventStart": "2021-01-01T16:42:00",
          "eventStop": "2021-01-01T16:47:00",
          "duration": 5,
          "status": "Genuine",
          "associatedSiteId": 109897,
          "outfallName": "RANGE ROAD HYTHE K LONG",
          "isImpacting": true,
          "overFlowSiteId": 116048
        },
        {
          "id": 344019945,
          "eventId": 365471,
          "siteUnitNumber": 12569,
          "bathingSite": "HYTHE",
          "eventStart": "2021-01-01T16:42:00",
          "eventStop": "2021-01-01T16:47:00",
          "duration": 5,
          "status": "Genuine",
          "associatedSiteId": 109897,
          "outfallName": "RANGE ROAD HYTHE K LONG",
          "isImpacting": true,
          "overFlowSiteId": 116048,
          "historicSpillsList": []
        }
      ]
    },
    {
      "id": 344019950,
      "eventId": 365470,
      "siteUnitNumber": 12568,
      "bathingSite": "SANDGATE",
      "eventStart": "2021-01-01T15:32:00",
      "eventStop": "2021-01-01T15:52:00",
      "duration": 20,
      "status": "Genuine",
      "associatedSiteId": 109897,
      "outfallName": "RANGE ROAD HYTHE K LONG",
      "isImpacting": true,
      "overFlowSiteId": 0,
      "historicSpillsList": [
        {
          "id": 344019950,
          "eventId": 365470,
          "siteUnitNumber": 12568,
          "bathingSite": "SANDGATE",
          "eventStart": "2021-01-01T15:32:00",
          "eventStop": "2021-01-01T15:52:00",
          "duration": 20,
          "status": "Genuine",
          "associatedSiteId": 109897,
          "outfallName": "RANGE ROAD HYTHE K LONG",
          "isImpacting": true,
          "overFlowSiteId": 116048
        },
        {
          "id": 344019951,
          "eventId": 365470,
          "siteUnitNumber": 12569,
          "bathingSite": "HYTHE",
          "eventStart": "2021-01-01T15:32:00",
          "eventStop": "2021-01-01T15:52:00",
          "duration": 20,
          "status": "Genuine",
          "associatedSiteId": 109897,
          "outfallName": "RANGE ROAD HYTHE K LONG",
          "isImpacting": true,
          "overFlowSiteId": 116048,
          "historicSpillsList": []
        }
      ]
    },
    {
      "id": 344019948,
      "eventId": 365469,
      "siteUnitNumber": 12568,
      "bathingSite": "SANDGATE",
      "eventStart": "2021-01-01T14:30:00",
      "eventStop": "2021-01-01T15:05:00",
      "duration": 35,
      "status": "Genuine",
      "associatedSiteId": 109897,
      "outfallName": "RANGE ROAD HYTHE K LONG",
      "isImpacting": true,
      "overFlowSiteId": 0,
      "historicSpillsList": [
        {
          "id": 344019948,
          "eventId": 365469,
          "siteUnitNumber": 12568,
          "bathingSite": "SANDGATE",
          "eventStart": "2021-01-01T14:30:00",
          "eventStop": "2021-01-01T15:05:00",
          "duration": 35,
          "status": "Genuine",
          "associatedSiteId": 109897,
          "outfallName": "RANGE ROAD HYTHE K LONG",
          "isImpacting": true,
          "overFlowSiteId": 116048
        },
        {
          "id": 344019949,
          "eventId": 365469,
          "siteUnitNumber": 12569,
          "bathingSite": "HYTHE",
          "eventStart": "2021-01-01T14:30:00",
          "eventStop": "2021-01-01T15:05:00",
          "duration": 35,
          "status": "Genuine",
          "associatedSiteId": 109897,
          "outfallName": "RANGE ROAD HYTHE K LONG",
          "isImpacting": true,
          "overFlowSiteId": 116048,
          "historicSpillsList": []
        }
      ]
    },
    {
      "id": 344039541,
      "eventId": 303024,
      "siteUnitNumber": 12582,
      "bathingSite": "SEAFORD",
      "eventStart": "2021-01-01T12:53:12",
      "eventStop": "2021-01-01T14:39:42",
      "duration": 106,
      "status": "Genuine",
      "associatedSiteId": 110920,
      "outfallName": "NEWHAVEN",
      "isImpacting": true,
      "overFlowSiteId": 0,
      "historicSpillsList": [
        {
          "id": 344039541,
          "eventId": 303024,
          "siteUnitNumber": 12582,
          "bathingSite": "SEAFORD",
          "eventStart": "2021-01-01T12:53:12",
          "eventStop": "2021-01-01T14:39:42",
          "duration": 106,
          "status": "Genuine",
          "associatedSiteId": 110920,
          "outfallName": "NEWHAVEN",
          "isImpacting": true,
          "overFlowSiteId": 116065
        }
      ]
    },
    {
      "id": 344019952,
      "eventId": 365461,
      "siteUnitNumber": 12568,
      "bathingSite": "SANDGATE",
      "eventStart": "2021-01-01T13:05:00",
      "eventStop": "2021-01-01T13:56:00",
      "duration": 51,
      "status": "Genuine",
      "associatedSiteId": 109897,
      "outfallName": "RANGE ROAD HYTHE K LONG",
      "isImpacting": true,
      "overFlowSiteId": 0,
      "historicSpillsList": [
        {
          "id": 344019952,
          "eventId": 365461,
          "siteUnitNumber": 12568,
          "bathingSite": "SANDGATE",
          "eventStart": "2021-01-01T13:05:00",
          "eventStop": "2021-01-01T13:56:00",
          "duration": 51,
          "status": "Genuine",
          "associatedSiteId": 109897,
          "outfallName": "RANGE ROAD HYTHE K LONG",
          "isImpacting": true,
          "overFlowSiteId": 116048
        },
        {
          "id": 344019953,
          "eventId": 365461,
          "siteUnitNumber": 12569,
          "bathingSite": "HYTHE",
          "eventStart": "2021-01-01T13:05:00",
          "eventStop": "2021-01-01T13:56:00",
          "duration": 51,
          "status": "Genuine",
          "associatedSiteId": 109897,
          "outfallName": "RANGE ROAD HYTHE K LONG",
          "isImpacting": true,
          "overFlowSiteId": 116048,
          "historicSpillsList": []
        }
      ]
    },
    {
      "id": 344027834,
      "eventId": 302908,
      "siteUnitNumber": 12591,
      "bathingSite": "LITTLEHAMPTON",
      "eventStart": "2021-01-01T10:24:00",
      "eventStop": "2021-01-01T12:23:00",
      "duration": 119,
      "status": "Genuine",
      "associatedSiteId": 109965,
      "outfallName": "SEA ROAD LITTLEHAMPTON",
      "isImpacting": true,
      "overFlowSiteId": 0,
      "historicSpillsList": [
        {
          "id": 344027834,
          "eventId": 302908,
          "siteUnitNumber": 12591,
          "bathingSite": "LITTLEHAMPTON",
          "eventStart": "2021-01-01T10:24:00",
          "eventStop": "2021-01-01T12:23:00",
          "duration": 119,
          "status": "Genuine",
          "associatedSiteId": 109965,
          "outfallName": "SEA ROAD LITTLEHAMPTON",
          "isImpacting": true,
          "overFlowSiteId": 109368
        }
      ]
    },
    {
      "id": 344020016,
      "eventId": 302952,
      "siteUnitNumber": 12568,
      "bathingSite": "SANDGATE",
      "eventStart": "2021-01-01T11:10:00",
      "eventStop": "2021-01-01T11:28:00",
      "duration": 18,
      "status": "Genuine",
      "associatedSiteId": 109897,
      "outfallName": "RANGE ROAD HYTHE K LONG",
      "isImpacting": true,
      "overFlowSiteId": 0,
      "historicSpillsList": [
        {
          "id": 344020016,
          "eventId": 302952,
          "siteUnitNumber": 12568,
          "bathingSite": "SANDGATE",
          "eventStart": "2021-01-01T11:10:00",
          "eventStop": "2021-01-01T11:28:00",
          "duration": 18,
          "status": "Genuine",
          "associatedSiteId": 109897,
          "outfallName": "RANGE ROAD HYTHE K LONG",
          "isImpacting": true,
          "overFlowSiteId": 116048
        },
        {
          "id": 344020017,
          "eventId": 302952,
          "siteUnitNumber": 12569,
          "bathingSite": "HYTHE",
          "eventStart": "2021-01-01T11:10:00",
          "eventStop": "2021-01-01T11:28:00",
          "duration": 18,
          "status": "Genuine",
          "associatedSiteId": 109897,
          "outfallName": "RANGE ROAD HYTHE K LONG",
          "isImpacting": true,
          "overFlowSiteId": 116048,
          "historicSpillsList": []
        }
      ]
    },
    {
      "id": 344028342,
      "eventId": 303414,
      "siteUnitNumber": 12591,
      "bathingSite": "LITTLEHAMPTON",
      "eventStart": "2021-01-01T05:56:00",
      "eventStop": "2021-01-01T06:16:00",
      "duration": 20,
      "status": "Genuine",
      "associatedSiteId": 109965,
      "outfallName": "SEA ROAD LITTLEHAMPTON",
      "isImpacting": true,
      "overFlowSiteId": 0,
      "historicSpillsList": [
        {
          "id": 344028342,
          "eventId": 303414,
          "siteUnitNumber": 12591,
          "bathingSite": "LITTLEHAMPTON",
          "eventStart": "2021-01-01T05:56:00",
          "eventStop": "2021-01-01T06:16:00",
          "duration": 20,
          "status": "Genuine",
          "associatedSiteId": 109965,
          "outfallName": "SEA ROAD LITTLEHAMPTON",
          "isImpacting": true,
          "overFlowSiteId": 109368
        }
      ]
    }
  ]
}