{
  "currentPage": 366,
  "totalItems": 21025,
  "totalPages": 841,
  "items": [
    {
      "id": 344878404,
      "eventId": 732919,
      "siteUnitNumber": 12594,
      "bathingSite": "BOGNOR REGIS EAST",
      "eventStart": "2023-01-15T15:42:19",
      "eventStop": "2023-01-15T18:36:02",
      "duration": 173,
      "status": "Genuine",
      "associatedSiteId": 109959,
      "outfallName": "WEST PARK BOGNOR REGIS",
      "isImpacting": false,
      "overFlowSiteId": 0,
      "historicSpillsList": []
    },
    {
      "id": 344896736,
      "eventId": 731267,
      "siteUnitNumber": 12577,
      "bathingSite": "BEXHILL",
      "eventStart": "2023-01-14T06:06:38",
      "eventStop": "2023-01-15T18:30:00",
      "duration": 2183,
      "status": "Genuine",
      "associatedSiteId": 115499,
      "outfallName": "BROCKLEY ROAD BEXHILL",
      "isImpacting": true,
      "overFlowSiteId": 0,
      "historicSpillsList": [
        {
          "id": 344896736,
          "eventId": 731267,
          "siteUnitNumber": 12577,
          "bathingSite": "BEXHILL",
          "eventStart": "2023-01-14T06:06:38",
          "eventStop": "2023-01-15T18:30:00",
          "duration": 2183,
          "status": "Genuine",
          "associatedSiteId": 115499,
          "outfallName": "BROCKLEY ROAD BEXHILL",
          "isImpacting": true,
          "overFlowSiteId": 103297
        }
      ]
    },
    {
      "id": 344891868,
      "eventId": 732960,
      "siteUnitNumber": 12573,
      "bathingSite": "CAMBER",
      "eventStart": "2023-01-15T16:53:00",
      "eventStop": "2023-01-15T18:16:00",
      "duration": 83,
      "status": "Genuine",
      "associatedSiteId": 110958,
      "outfallName": "RYE",
      "isImpacting": false,
      "overFlowSiteId": 0,
      "historicSpillsList": []
    },
    {
      "id": 344883679,
      "eventId": 741075,
      "siteUnitNumber": 12622,
      "bathingSite": "WHITECLIFF BAY",
      "eventStart": "2023-01-13T12:23:00",
      "eventStop": "2023-01-15T17:32:00",
      "duration": 3189,
      "status": "Genuine",
      "associatedSiteId": 110096,
      "outfallName": "SANDOWN NO1",
      "isImpacting": true,
      "overFlowSiteId": 0,
      "historicSpillsList": [
        {
          "id": 344883679,
          "eventId": 741075,
          "siteUnitNumber": 12622,
          "bathingSite": "WHITECLIFF BAY",
          "eventStart": "2023-01-13T12:23:00",
          "eventStop": "2023-01-15T17:32:00",
          "duration": 3189,
          "status": "Genuine",
          "associatedSiteId": 110096,
          "outfallName": "SANDOWN NO1",
          "isImpacting": true,
          "overFlowSiteId": 115453
        },
        {
          "id": 344883680,
          "eventId": 741075,
          "siteUnitNumber": 12623,
          "bathingSite": "YAVERLAND",
          "eventStart": "2023-01-13T12:23:00",
          "eventStop": "2023-01-15T17:32:00",
          "duration": 3189,
          "status": "Genuine",
          "associatedSiteId": 110096,
          "outfallName": "SANDOWN NO1",
          "isImpacting": true,
          "overFlowSiteId": 115453,
          "historicSpillsList": []
        },
        {
          "id": 344883681,
          "eventId": 741075,
          "siteUnitNumber": 12624,
          "bathingSite": "SANDOWN",
          "eventStart": "2023-01-13T12:23:00",
          "eventStop": "2023-01-15T17:32:00",
          "duration": 3189,
          "status": "Genuine",
          "associatedSiteId": 110096,
          "outfallName": "SANDOWN NO1",
          "isImpacting": true,
          "overFlowSiteId": 115453,
          "historicSpillsList": []
        }
      ]
    },
    {
      "id": 344870910,
      "eventId": 733041,
      "siteUnitNumber": 12568,
      "bathingSite": "SANDGATE",
      "eventStart": "2023-01-15T17:15:00",
      "eventStop": "2023-01-15T17:30:00",
      "duration": 15,
      "status": "Genuine",
      "associatedSiteId": 109897,
      "outfallName": "RANGE ROAD HYTHE K LONG",
      "isImpacting": true,
      "overFlowSiteId": 0,
      "historicSpillsList": [
        {
          "id": 344870910,
          "eventId": 733041,
          "siteUnitNumber": 12568,
          "bathingSite": "SANDGATE",
          "eventStart": "2023-01-15T17:15:00",
          "eventStop": "2023-01-15T17:30:00",
          "duration": 15,
          "status": "Genuine",
          "associatedSiteId": 109897,
          "outfallName": "RANGE ROAD HYTHE K LONG",
          "isImpacting": true,
          "overFlowSiteId": 116048
        }
      ]
    },
    {
      "id": 344870916,
      "eventId": 733017,
      "siteUnitNumber": 12568,
      "bathingSite": "SANDGATE",
      "eventStart": "2023-01-15T16:30:00",
      "eventStop": "2023-01-15T17:15:00",
      "duration": 45,
      "status": "Genuine",
      "associatedSiteId": 109897,
      "outfallName": "RANGE ROAD HYTHE K LONG",
      "isImpacting": true,
      "overFlowSiteId": 0,
      "historicSpillsList": [
        {
          "id": 344870916,
          "eventId": 733017,
          "siteUnitNumber": 12568,
          "bathingSite": "SANDGATE",
          "eventStart": "2023-01-15T16:30:00",
          "eventStop": "2023-01-15T17:15:00",
          "duration": 45,
          "status": "Genuine",
          "associatedSiteId": 109897,
          "outfallName": "RANGE ROAD HYTHE K LONG",
          "isImpacting": true,
          "overFlowSiteId": 116048
        }
      ]
    },
    {
      "id": 344891867,
      "eventId": 732878,
      "siteUnitNumber": 12573,
      "bathingSite": "CAMBER",
      "eventStart": "2023-01-15T14:12:00",
      "eventStop": "2023-01-15T15:53:00",
      "duration": 101,
      "status": "Genuine",
      "associatedSiteId": 110958,
      "outfallName": "RYE",
      "isImpacting": false,
      "overFlowSiteId": 0,
      "historicSpillsList": []
    },
    {
      "id": 344880397,
      "eventId": 732922,
      "siteUnitNumber": 12591,
      "bathingSite": "LITTLEHAMPTON",
      "eventStart": "2023-01-15T15:43:34",
      "eventStop": "2023-01-15T15:47:00",
      "duration": 3,
      "status": "Genuine",
      "associatedSiteId": 109968,
      "outfallName": "FORD ROAD ARUNDEL",
      "isImpacting": false,
      "overFlowSiteId": 0,
      "historicSpillsList": []
    },
    {
      "id": 344890271,
      "eventId": 730854,
      "siteUnitNumber": 12616,
      "bathingSite": "GURNARD",
      "eventStart": "2023-01-14T02:03:00",
      "eventStop": "2023-01-15T15:33:00",
      "duration": 2250,
      "status": "Genuine",
      "associatedSiteId": 110701,
      "outfallName": "TERMINUS ROAD COWES 2",
      "isImpacting": true,
      "overFlowSiteId": 0,
      "historicSpillsList": [
        {
          "id": 344890271,
          "eventId": 730854,
          "siteUnitNumber": 12616,
          "bathingSite": "GURNARD",
          "eventStart": "2023-01-14T02:03:00",
          "eventStop": "2023-01-15T15:33:00",
          "duration": 2250,
          "status": "Genuine",
          "associatedSiteId": 110701,
          "outfallName": "TERMINUS ROAD COWES 2",
          "isImpacting": true,
          "overFlowSiteId": 108563
        },
        {
          "id": 344890272,
          "eventId": 730854,
          "siteUnitNumber": 12617,
          "bathingSite": "COWES",
          "eventStart": "2023-01-14T02:03:00",
          "eventStop": "2023-01-15T15:33:00",
          "duration": 2250,
          "status": "Genuine",
          "associatedSiteId": 110701,
          "outfallName": "TERMINUS ROAD COWES 2",
          "isImpacting": true,
          "overFlowSiteId": 108563,
          "historicSpillsList": []
        }
      ]
    },
    {
      "id": 344878410,
      "eventId": 732800,
      "siteUnitNumber": 12594,
      "bathingSite": "BOGNOR REGIS EAST",
      "eventStart": "2023-01-15T10:45:00",
      "eventStop": "2023-01-15T15:30:00",
      "duration": 285,
      "status": "Genuine",
      "associatedSiteId": 109959,
      "outfallName": "WEST PARK BOGNOR REGIS",
      "isImpacting": true,
      "overFlowSiteId": 0,
      "historicSpillsList": [
        {
          "id": 344878410,
          "eventId": 732800,
          "siteUnitNumber": 12594,
          "bathingSite": "BOGNOR REGIS EAST",
          "eventStart": "2023-01-15T10:45:00",
          "eventStop": "2023-01-15T15:30:00",
          "duration": 285,
          "status": "Genuine",
          "associatedSiteId": 109959,
          "outfallName": "WEST PARK BOGNOR REGIS",
          "isImpacting": true,
          "overFlowSiteId": 108160
        }
      ]
    },
    {
      "id": 344870924,
      "eventId": 732711,
      "siteUnitNumber": 12568,
      "bathingSite": "SANDGATE",
      "eventStart": "2023-01-15T09:15:00",
      "eventStop": "2023-01-15T15:15:00",
      "duration": 360,
      "status": "Genuine",
      "associatedSiteId": 109897,
      "outfallName": "RANGE ROAD HYTHE K LONG",
      "isImpacting": true,
      "overFlowSiteId": 0,
      "historicSpillsList": [
        {
          "id": 344870924,
          "eventId": 732711,
          "siteUnitNumber": 12568,
          "bathingSite": "SANDGATE",
          "eventStart": "2023-01-15T09:15:00",
          "eventStop": "2023-01-15T15:15:00",
          "duration": 360,
          "status": "Genuine",
          "associatedSiteId": 109897,
          "outfallName": "RANGE ROAD HYTHE K LONG",
          "isImpacting": true,
          "overFlowSiteId": 116048
        },
        {
          "id": 344870925,
          "eventId": 732711,
          "siteUnitNumber": 12569,
          "bathingSite": "HYTHE",
          "eventStart": "2023-01-15T09:15:00",
          "eventStop": "2023-01-15T15:15:00",
          "duration": 360,
          "status": "Genuine",
          "associatedSiteId": 109897,
          "outfallName": "RANGE ROAD HYTHE K LONG",
          "isImpacting": true,
          "overFlowSiteId": 116048,
          "historicSpillsList": []
        }
      ]
    },
    {
      "id": 344891872,
      "eventId": 732861,
      "siteUnitNumber": 12573,
      "bathingSite": "CAMBER",
      "eventStart": "2023-01-15T13:00:00",
      "eventStop": "2023-01-15T13:30:00",
      "duration": 30,
      "status": "Genuine",
      "associatedSiteId": 110958,
      "outfallName": "RYE",
      "isImpacting": false,
      "overFlowSiteId": 0,
      "historicSpillsList": []
    },
    {
      "id": 344866985,
      "eventId": 732762,
      "siteUnitNumber": 12548,
      "bathingSite": "TANKERTON",
      "eventStart": "2023-01-15T09:57:20",
      "eventStop": "2023-01-15T12:37:00",
      "duration": 159,
      "status": "Genuine",
      "associatedSiteId": 109830,
      "outfallName": "SWALECLIFFE NO1",
      "isImpacting": false,
      "overFlowSiteId": 0,
      "historicSpillsList": []
    },
    {
      "id": 344880398,
      "eventId": 732786,
      "siteUnitNumber": 12591,
      "bathingSite": "LITTLEHAMPTON",
      "eventStart": "2023-01-15T10:37:26",
      "eventStop": "2023-01-15T12:15:00",
      "duration": 97,
      "status": "Not Genuine",
      "associatedSiteId": 109968,
      "outfallName": "FORD ROAD ARUNDEL",
      "isImpacting": true,
      "overFlowSiteId": 0,
      "historicSpillsList": []
    },
    {
      "id": 344891871,
      "eventId": 732784,
      "siteUnitNumber": 12573,
      "bathingSite": "CAMBER",
      "eventStart": "2023-01-15T10:10:00",
      "eventStop": "2023-01-15T11:02:00",
      "duration": 52,
      "status": "Genuine",
      "associatedSiteId": 110958,
      "outfallName": "RYE",
      "isImpacting": false,
      "overFlowSiteId": 0,
      "historicSpillsList": []
    },
    {
      "id": 344880399,
      "eventId": 732812,
      "siteUnitNumber": 12591,
      "bathingSite": "LITTLEHAMPTON",
      "eventStart": "2023-01-15T10:30:00",
      "eventStop": "2023-01-15T10:37:26",
      "duration": 7,
      "status": "Genuine",
      "associatedSiteId": 109968,
      "outfallName": "FORD ROAD ARUNDEL",
      "isImpacting": true,
      "overFlowSiteId": 0,
      "historicSpillsList": [
        {
          "id": 344880399,
          "eventId": 732812,
          "siteUnitNumber": 12591,
          "bathingSite": "LITTLEHAMPTON",
          "eventStart": "2023-01-15T10:30:00",
          "eventStop": "2023-01-15T10:37:26",
          "duration": 7,
          "status": "Genuine",
          "associatedSiteId": 109968,
          "outfallName": "FORD ROAD ARUNDEL",
          "isImpacting": true,
          "overFlowSiteId": 108002
        }
      ]
    },
    {
      "id": 344878417,
      "eventId": 730930,
      "siteUnitNumber": 12594,
      "bathingSite": "BOGNOR REGIS EAST",
      "eventStart": "2023-01-14T02:42:36",
      "eventStop": "2023-01-15T10:30:00",
      "duration": 1907,
      "status": "Genuine",
      "associatedSiteId": 109959,
      "outfallName": "WEST PARK BOGNOR REGIS",
      "isImpacting": true,
      "overFlowSiteId": 0,
      "historicSpillsList": [
        {
          "id": 344878417,
          "eventId": 730930,
          "siteUnitNumber": 12594,
          "bathingSite": "BOGNOR REGIS EAST",
          "eventStart": "2023-01-14T02:42:36",
          "eventStop": "2023-01-15T10:30:00",
          "duration": 1907,
          "status": "Genuine",
          "associatedSiteId": 109959,
          "outfallName": "WEST PARK BOGNOR REGIS",
          "isImpacting": true,
          "overFlowSiteId": 108160
        }
      ]
    },
    {
      "id": 344897428,
      "eventId": 731311,
      "siteUnitNumber": 12662,
      "bathingSite": "CHICHESTER HARBOUR",
      "eventStart": "2023-01-14T08:51:00",
      "eventStop": "2023-01-15T09:49:00",
      "duration": 1498,
      "status": "Genuine",
      "associatedSiteId": 116108,
      "outfallName": "TAYLORS LANE BOSHAM PS PUMPED",
      "isImpacting": true,
      "overFlowSiteId": 0,
      "historicSpillsList": [
        {
          "id": 344897428,
          "eventId": 731311,
          "siteUnitNumber": 12662,
          "bathingSite": "CHICHESTER HARBOUR",
          "eventStart": "2023-01-14T08:51:00",
          "eventStop": "2023-01-15T09:49:00",
          "duration": 1498,
          "status": "Genuine",
          "associatedSiteId": 116108,
          "outfallName": "TAYLORS LANE BOSHAM PS PUMPED",
          "isImpacting": true,
          "overFlowSiteId": 116066
        }
      ]
    },
    {
      "id": 344891870,
      "eventId": 732647,
      "siteUnitNumber": 12573,
      "bathingSite": "CAMBER",
      "eventStart": "2023-01-15T07:30:00",
      "eventStop": "2023-01-15T09:45:00",
      "duration": 135,
      "status": "Genuine",
      "associatedSiteId": 110958,
      "outfallName": "RYE",
      "isImpacting": false,
      "overFlowSiteId": 0,
      "historicSpillsList": []
    },
    {
      "id": 344860055,
      "eventId": 732713,
      "siteUnitNumber": 12616,
      "bathingSite": "GURNARD",
      "eventStart": "2023-01-15T09:17:48",
      "eventStop": "2023-01-15T09:21:29",
      "duration": 3,
      "status": "Genuine",
      "associatedSiteId": 109704,
      "outfallName": "EGYPT POINT COWES",
      "isImpacting": true,
      "overFlowSiteId": 0,
      "historicSpillsList": [
        {
          "id": 344860056,
          "eventId": 732713,
          "siteUnitNumber": 12617,
          "bathingSite": "COWES",
          "eventStart": "2023-01-15T09:17:48",
          "eventStop": "2023-01-15T09:21:29",
          "duration": 3,
          "status": "Genuine",
          "associatedSiteId": 109704,
          "outfallName": "EGYPT POINT COWES",
          "isImpacting": true,
          "overFlowSiteId": 116213,
          "historicSpillsList": []
        }
      ]
    },
    {
      "id": 344860065,
      "eventId": 730951,
      "siteUnitNumber": 12616,
      "bathingSite": "GURNARD",
      "eventStart": "2023-01-14T03:00:00",
      "eventStop": "2023-01-15T09:20:00",
      "duration": 1820,
      "status": "Genuine",
      "associatedSiteId": 109704,
      "outfallName": "EGYPT POINT COWES",
      "isImpacting": true,
      "overFlowSiteId": 0,
      "historicSpillsList": [
        {
          "id": 344860066,
          "eventId": 730951,
          "siteUnitNumber": 12617,
          "bathingSite": "COWES",
          "eventStart": "2023-01-14T03:00:00",
          "eventStop": "2023-01-15T09:20:00",
          "duration": 1820,
          "status": "Genuine",
          "associatedSiteId": 109704,
          "outfallName": "EGYPT POINT COWES",
          "isImpacting": true,
          "overFlowSiteId": 116213,
          "historicSpillsList": []
        }
      ]
    },
    {
      "id": 344860057,
      "eventId": 732671,
      "siteUnitNumber": 12616,
      "bathingSite": "GURNARD",
      "eventStart": "2023-01-15T08:15:00",
      "eventStop": "2023-01-15T09:15:00",
      "duration": 60,
      "status": "Not Genuine",
      "associatedSiteId": 109704,
      "outfallName": "EGYPT POINT COWES",
      "isImpacting": false,
      "overFlowSiteId": 0,
      "historicSpillsList": []
    },
    {
      "id": 344870922,
      "eventId": 732705,
      "siteUnitNumber": 12568,
      "bathingSite": "SANDGATE",
      "eventStart": "2023-01-15T08:15:00",
      "eventStop": "2023-01-15T08:35:00",
      "duration": 20,
      "status": "Genuine",
      "associatedSiteId": 109897,
      "outfallName": "RANGE ROAD HYTHE K LONG",
      "isImpacting": false,
      "overFlowSiteId": 0,
      "historicSpillsList": []
    },
    {
      "id": 344860059,
      "eventId": 732625,
      "siteUnitNumber": 12616,
      "bathingSite": "GURNARD",
      "eventStart": "2023-01-15T07:00:00",
      "eventStop": "2023-01-15T08:00:00",
      "duration": 60,
      "status": "Not Genuine",
      "associatedSiteId": 109704,
      "outfallName": "EGYPT POINT COWES",
      "isImpacting": false,
      "overFlowSiteId": 0,
      "historicSpillsList": []
    },
    {
      "id": 344891534,
      "eventId": 732668,
      "siteUnitNumber": 12582,
      "bathingSite": "SEAFORD",
      "eventStart": "2023-01-15T07:48:24",
      "eventStop": "2023-01-15T07:56:09",
      "duration": 7,
      "status": "Genuine",
      "associatedSiteId": 110920,
      "outfallName": "NEWHAVEN",
      "isImpacting": false,
      "overFlowSiteId": 0,
      "historicSpillsList": []
    }
  ]
}