{
  "currentPage": 745,
  "totalItems": 18701,
  "totalPages": 749,
  "items": [
    {
      "id": 344019912,
      "eventId": 365532,
      "siteUnitNumber": 12568,
      "bathingSite": "SANDGATE",
      "eventStart": "2021-01-07T03:57:00",
      "eventStop": "2021-01-07T05:05:00",
      "duration": 68,
      "status": "Genuine",
      "associatedSiteId": 109897,
      "outfallName": "RANGE ROAD HYTHE K LONG",
      "isImpacting": true,
      "overFlowSiteId": 0,
      "historicSpillsList": [
        {
          "id": 344019912,
          "eventId": 365532,
          "siteUnitNumber": 12568,
          "bathingSite": "SANDGATE",
          "eventStart": "2021-01-07T03:57:00",
          "eventStop": "2021-01-07T05:05:00",
          "duration": 68,
          "status": "Genuine",
          "associatedSiteId": 109897,
          "outfallName": "RANGE ROAD HYTHE K LONG",
          "isImpacting": true,
          "overFlowSiteId": 116048
        },
        {
          "id": 344019913,
          "eventId": 365532,
          "siteUnitNumber": 12569,
          "bathingSite": "HYTHE",
          "eventStart": "2021-01-07T03:57:00",
          "eventStop": "2021-01-07T05:05:00",
          "duration": 68,
          "status": "Genuine",
          "associatedSiteId": 109897,
          "outfallName": "RANGE ROAD HYTHE K LONG",
          "isImpacting": true,
          "overFlowSiteId": 116048,
          "historicSpillsList": []
        }
      ]
    },
    {
      "id": 344019918,
      "eventId": 365531,
      "siteUnitNumber": 12568,
      "bathingSite": "SANDGATE",
      "eventStart": "2021-01-07T02:35:00",
      "eventStop": "2021-01-07T03:35:00",
      "duration": 60,
      "status": "Genuine",
      "associatedSiteId": 109897,
      "outfallName": "RANGE ROAD HYTHE K LONG",
      "isImpacting": true,
      "overFlowSiteId": 0,
      "historicSpillsList": [
        {
          "id": 344019918,
          "eventId": 365531,
          "siteUnitNumber": 12568,
          "bathingSite": "SANDGATE",
          "eventStart": "2021-01-07T02:35:00",
          "eventStop": "2021-01-07T03:35:00",
          "duration": 60,
          "status": "Genuine",
          "associatedSiteId": 109897,
          "outfallName": "RANGE ROAD HYTHE K LONG",
          "isImpacting": true,
          "overFlowSiteId": 116048
        },
        {
          "id": 344019919,
          "eventId": 365531,
          "siteUnitNumber": 12569,
          "bathingSite": "HYTHE",
          "eventStart": "2021-01-07T02:35:00",
          "eventStop": "2021-01-07T03:35:00",
          "duration": 60,
          "status": "Genuine",
          "associatedSiteId": 109897,
          "outfallName": "RANGE ROAD HYTHE K LONG",
          "isImpacting": true,
          "overFlowSiteId": 116048,
          "historicSpillsList": []
        }
      ]
    },
    {
      "id": 344006713,
      "eventId": 305012,
      "siteUnitNumber": 12551,
      "bathingSite": "HERNE BAY",
      "eventStart": "2021-01-05T16:07:33",
      "eventStop": "2021-01-07T02:33:00",
      "duration": 2065,
      "status": "Genuine",
      "associatedSiteId": 109682,
      "outfallName": "MAY STREET HERNE BAY NO3",
      "isImpacting": true,
      "overFlowSiteId": 0,
      "historicSpillsList": [
        {
          "id": 344006713,
          "eventId": 305012,
          "siteUnitNumber": 12551,
          "bathingSite": "HERNE BAY",
          "eventStart": "2021-01-05T16:07:33",
          "eventStop": "2021-01-07T02:33:00",
          "duration": 2065,
          "status": "Genuine",
          "associatedSiteId": 109682,
          "outfallName": "MAY STREET HERNE BAY NO3",
          "isImpacting": true,
          "overFlowSiteId": 115418
        }
      ]
    },
    {
      "id": 344019916,
      "eventId": 365530,
      "siteUnitNumber": 12568,
      "bathingSite": "SANDGATE",
      "eventStart": "2021-01-07T02:05:00",
      "eventStop": "2021-01-07T02:27:00",
      "duration": 22,
      "status": "Genuine",
      "associatedSiteId": 109897,
      "outfallName": "RANGE ROAD HYTHE K LONG",
      "isImpacting": true,
      "overFlowSiteId": 0,
      "historicSpillsList": [
        {
          "id": 344019916,
          "eventId": 365530,
          "siteUnitNumber": 12568,
          "bathingSite": "SANDGATE",
          "eventStart": "2021-01-07T02:05:00",
          "eventStop": "2021-01-07T02:27:00",
          "duration": 22,
          "status": "Genuine",
          "associatedSiteId": 109897,
          "outfallName": "RANGE ROAD HYTHE K LONG",
          "isImpacting": true,
          "overFlowSiteId": 116048
        },
        {
          "id": 344019917,
          "eventId": 365530,
          "siteUnitNumber": 12569,
          "bathingSite": "HYTHE",
          "eventStart": "2021-01-07T02:05:00",
          "eventStop": "2021-01-07T02:27:00",
          "duration": 22,
          "status": "Genuine",
          "associatedSiteId": 109897,
          "outfallName": "RANGE ROAD HYTHE K LONG",
          "isImpacting": true,
          "overFlowSiteId": 116048,
          "historicSpillsList": []
        }
      ]
    },
    {
      "id": 344019922,
      "eventId": 365529,
      "siteUnitNumber": 12568,
      "bathingSite": "SANDGATE",
      "eventStart": "2021-01-07T01:23:00",
      "eventStop": "2021-01-07T01:54:00",
      "duration": 31,
      "status": "Genuine",
      "associatedSiteId": 109897,
      "outfallName": "RANGE ROAD HYTHE K LONG",
      "isImpacting": true,
      "overFlowSiteId": 0,
      "historicSpillsList": [
        {
          "id": 344019922,
          "eventId": 365529,
          "siteUnitNumber": 12568,
          "bathingSite": "SANDGATE",
          "eventStart": "2021-01-07T01:23:00",
          "eventStop": "2021-01-07T01:54:00",
          "duration": 31,
          "status": "Genuine",
          "associatedSiteId": 109897,
          "outfallName": "RANGE ROAD HYTHE K LONG",
          "isImpacting": true,
          "overFlowSiteId": 116048
        },
        {
          "id": 344019923,
          "eventId": 365529,
          "siteUnitNumber": 12569,
          "bathingSite": "HYTHE",
          "eventStart": "2021-01-07T01:23:00",
          "eventStop": "2021-01-07T01:54:00",
          "duration": 31,
          "status": "Genuine",
          "associatedSiteId": 109897,
          "outfallName": "RANGE ROAD HYTHE K LONG",
          "isImpacting": true,
          "overFlowSiteId": 116048,
          "historicSpillsList": []
        }
      ]
    },
    {
      "id": 344016889,
      "eventId": 306028,
      "siteUnitNumber": 12662,
      "bathingSite": "CHICHESTER HARBOUR",
      "eventStart": "2021-01-06T09:45:00",
      "eventStop": "2021-01-07T01:34:00",
      "duration": 949,
      "status": "Genuine",
      "associatedSiteId": 109836,
      "outfallName": "CHICHESTER",
      "isImpacting": true,
      "overFlowSiteId": 0,
      "historicSpillsList": [
        {
          "id": 344016889,
          "eventId": 306028,
          "siteUnitNumber": 12662,
          "bathingSite": "CHICHESTER HARBOUR",
          "eventStart": "2021-01-06T09:45:00",
          "eventStop": "2021-01-07T01:34:00",
          "duration": 949,
          "status": "Genuine",
          "associatedSiteId": 109836,
          "outfallName": "CHICHESTER",
          "isImpacting": true,
          "overFlowSiteId": 115402
        }
      ]
    },
    {
      "id": 344019920,
      "eventId": 365528,
      "siteUnitNumber": 12568,
      "bathingSite": "SANDGATE",
      "eventStart": "2021-01-06T20:32:00",
      "eventStop": "2021-01-07T00:37:00",
      "duration": 245,
      "status": "Genuine",
      "associatedSiteId": 109897,
      "outfallName": "RANGE ROAD HYTHE K LONG",
      "isImpacting": true,
      "overFlowSiteId": 0,
      "historicSpillsList": [
        {
          "id": 344019920,
          "eventId": 365528,
          "siteUnitNumber": 12568,
          "bathingSite": "SANDGATE",
          "eventStart": "2021-01-06T20:32:00",
          "eventStop": "2021-01-07T00:37:00",
          "duration": 245,
          "status": "Genuine",
          "associatedSiteId": 109897,
          "outfallName": "RANGE ROAD HYTHE K LONG",
          "isImpacting": true,
          "overFlowSiteId": 116048
        },
        {
          "id": 344019921,
          "eventId": 365528,
          "siteUnitNumber": 12569,
          "bathingSite": "HYTHE",
          "eventStart": "2021-01-06T20:32:00",
          "eventStop": "2021-01-07T00:37:00",
          "duration": 245,
          "status": "Genuine",
          "associatedSiteId": 109897,
          "outfallName": "RANGE ROAD HYTHE K LONG",
          "isImpacting": true,
          "overFlowSiteId": 116048,
          "historicSpillsList": []
        }
      ]
    },
    {
      "id": 344031398,
      "eventId": 396136,
      "siteUnitNumber": 12593,
      "bathingSite": "FELPHAM",
      "eventStart": "2021-01-06T22:01:00",
      "eventStop": "2021-01-07T00:17:00",
      "duration": 136,
      "status": "Genuine",
      "associatedSiteId": 110095,
      "outfallName": "LIDSEY",
      "isImpacting": true,
      "overFlowSiteId": 0,
      "historicSpillsList": [
        {
          "id": 344031398,
          "eventId": 396136,
          "siteUnitNumber": 12593,
          "bathingSite": "FELPHAM",
          "eventStart": "2021-01-06T22:01:00",
          "eventStop": "2021-01-07T00:17:00",
          "duration": 136,
          "status": "Genuine",
          "associatedSiteId": 110095,
          "outfallName": "LIDSEY",
          "isImpacting": true,
          "overFlowSiteId": 115776
        }
      ]
    },
    {
      "id": 344031163,
      "eventId": 305576,
      "siteUnitNumber": 12593,
      "bathingSite": "FELPHAM",
      "eventStart": "2021-01-06T10:19:34",
      "eventStop": "2021-01-06T22:00:00",
      "duration": 700,
      "status": "Genuine",
      "associatedSiteId": 110095,
      "outfallName": "LIDSEY",
      "isImpacting": true,
      "overFlowSiteId": 0,
      "historicSpillsList": [
        {
          "id": 344031163,
          "eventId": 305576,
          "siteUnitNumber": 12593,
          "bathingSite": "FELPHAM",
          "eventStart": "2021-01-06T10:19:34",
          "eventStop": "2021-01-06T22:00:00",
          "duration": 700,
          "status": "Genuine",
          "associatedSiteId": 110095,
          "outfallName": "LIDSEY",
          "isImpacting": true,
          "overFlowSiteId": 115776
        }
      ]
    },
    {
      "id": 344003666,
      "eventId": 306094,
      "siteUnitNumber": 12550,
      "bathingSite": "MINSTER LEAS",
      "eventStart": "2021-01-06T15:25:00",
      "eventStop": "2021-01-06T21:57:00",
      "duration": 392,
      "status": "Genuine",
      "associatedSiteId": 109617,
      "outfallName": "DROVE ROAD SHEERNESS",
      "isImpacting": true,
      "overFlowSiteId": 0,
      "historicSpillsList": [
        {
          "id": 344003666,
          "eventId": 306094,
          "siteUnitNumber": 12550,
          "bathingSite": "MINSTER LEAS",
          "eventStart": "2021-01-06T15:25:00",
          "eventStop": "2021-01-06T21:57:00",
          "duration": 392,
          "status": "Genuine",
          "associatedSiteId": 109617,
          "outfallName": "DROVE ROAD SHEERNESS",
          "isImpacting": true,
          "overFlowSiteId": 108727
        },
        {
          "id": 344003667,
          "eventId": 306094,
          "siteUnitNumber": 12544,
          "bathingSite": "SHEERNESS",
          "eventStart": "2021-01-06T15:25:00",
          "eventStop": "2021-01-06T21:57:00",
          "duration": 392,
          "status": "Genuine",
          "associatedSiteId": 109617,
          "outfallName": "DROVE ROAD SHEERNESS",
          "isImpacting": true,
          "overFlowSiteId": 108727,
          "historicSpillsList": []
        }
      ]
    },
    {
      "id": 344003388,
      "eventId": 304762,
      "siteUnitNumber": 12546,
      "bathingSite": "LEYSDOWN",
      "eventStart": "2021-01-05T08:52:34",
      "eventStop": "2021-01-06T20:34:24",
      "duration": 2141,
      "status": "Genuine",
      "associatedSiteId": 109613,
      "outfallName": "BARROWS BROOK EASTCHURCH",
      "isImpacting": true,
      "overFlowSiteId": 0,
      "historicSpillsList": [
        {
          "id": 344003388,
          "eventId": 304762,
          "siteUnitNumber": 12546,
          "bathingSite": "LEYSDOWN",
          "eventStart": "2021-01-05T08:52:34",
          "eventStop": "2021-01-06T20:34:24",
          "duration": 2141,
          "status": "Genuine",
          "associatedSiteId": 109613,
          "outfallName": "BARROWS BROOK EASTCHURCH",
          "isImpacting": true,
          "overFlowSiteId": 108109
        }
      ]
    },
    {
      "id": 344003670,
      "eventId": 305240,
      "siteUnitNumber": 12544,
      "bathingSite": "SHEERNESS",
      "eventStart": "2021-01-06T01:33:41",
      "eventStop": "2021-01-06T20:23:39",
      "duration": 1129,
      "status": "Genuine",
      "associatedSiteId": 109619,
      "outfallName": "WARDS HILL ROAD MINSTER IOS",
      "isImpacting": true,
      "overFlowSiteId": 0,
      "historicSpillsList": [
        {
          "id": 344003670,
          "eventId": 305240,
          "siteUnitNumber": 12544,
          "bathingSite": "SHEERNESS",
          "eventStart": "2021-01-06T01:33:41",
          "eventStop": "2021-01-06T20:23:39",
          "duration": 1129,
          "status": "Genuine",
          "associatedSiteId": 109619,
          "outfallName": "WARDS HILL ROAD MINSTER IOS",
          "isImpacting": true,
          "overFlowSiteId": 107413
        },
        {
          "id": 344003671,
          "eventId": 305240,
          "siteUnitNumber": 12550,
          "bathingSite": "MINSTER LEAS",
          "eventStart": "2021-01-06T01:33:41",
          "eventStop": "2021-01-06T20:23:39",
          "duration": 1129,
          "status": "Genuine",
          "associatedSiteId": 109619,
          "outfallName": "WARDS HILL ROAD MINSTER IOS",
          "isImpacting": true,
          "overFlowSiteId": 107413,
          "historicSpillsList": []
        }
      ]
    },
    {
      "id": 344019926,
      "eventId": 365527,
      "siteUnitNumber": 12568,
      "bathingSite": "SANDGATE",
      "eventStart": "2021-01-06T16:07:00",
      "eventStop": "2021-01-06T20:09:00",
      "duration": 242,
      "status": "Genuine",
      "associatedSiteId": 109897,
      "outfallName": "RANGE ROAD HYTHE K LONG",
      "isImpacting": true,
      "overFlowSiteId": 0,
      "historicSpillsList": [
        {
          "id": 344019926,
          "eventId": 365527,
          "siteUnitNumber": 12568,
          "bathingSite": "SANDGATE",
          "eventStart": "2021-01-06T16:07:00",
          "eventStop": "2021-01-06T20:09:00",
          "duration": 242,
          "status": "Genuine",
          "associatedSiteId": 109897,
          "outfallName": "RANGE ROAD HYTHE K LONG",
          "isImpacting": true,
          "overFlowSiteId": 116048
        },
        {
          "id": 344019927,
          "eventId": 365527,
          "siteUnitNumber": 12569,
          "bathingSite": "HYTHE",
          "eventStart": "2021-01-06T16:07:00",
          "eventStop": "2021-01-06T20:09:00",
          "duration": 242,
          "status": "Genuine",
          "associatedSiteId": 109897,
          "outfallName": "RANGE ROAD HYTHE K LONG",
          "isImpacting": true,
          "overFlowSiteId": 116048,
          "historicSpillsList": []
        }
      ]
    },
    {
      "id": 344006704,
      "eventId": 305719,
      "siteUnitNumber": 12549,
      "bathingSite": "HERNE BAY CENTRAL",
      "eventStart": "2021-01-06T16:08:00",
      "eventStop": "2021-01-06T16:30:00",
      "duration": 22,
      "status": "Genuine",
      "associatedSiteId": 109678,
      "outfallName": "EDDINGTON LANE HERNE BAY NO2",
      "isImpacting": true,
      "overFlowSiteId": 0,
      "historicSpillsList": [
        {
          "id": 344006704,
          "eventId": 305719,
          "siteUnitNumber": 12549,
          "bathingSite": "HERNE BAY CENTRAL",
          "eventStart": "2021-01-06T16:08:00",
          "eventStop": "2021-01-06T16:30:00",
          "duration": 22,
          "status": "Genuine",
          "associatedSiteId": 109678,
          "outfallName": "EDDINGTON LANE HERNE BAY NO2",
          "isImpacting": true,
          "overFlowSiteId": 108093
        },
        {
          "id": 344006705,
          "eventId": 305719,
          "siteUnitNumber": 12551,
          "bathingSite": "HERNE BAY",
          "eventStart": "2021-01-06T16:08:00",
          "eventStop": "2021-01-06T16:30:00",
          "duration": 22,
          "status": "Genuine",
          "associatedSiteId": 109678,
          "outfallName": "EDDINGTON LANE HERNE BAY NO2",
          "isImpacting": true,
          "overFlowSiteId": 108093,
          "historicSpillsList": []
        }
      ]
    },
    {
      "id": 344028325,
      "eventId": 306031,
      "siteUnitNumber": 12591,
      "bathingSite": "LITTLEHAMPTON",
      "eventStart": "2021-01-06T15:42:00",
      "eventStop": "2021-01-06T16:19:00",
      "duration": 37,
      "status": "Genuine",
      "associatedSiteId": 109965,
      "outfallName": "SEA ROAD LITTLEHAMPTON",
      "isImpacting": true,
      "overFlowSiteId": 0,
      "historicSpillsList": [
        {
          "id": 344028325,
          "eventId": 306031,
          "siteUnitNumber": 12591,
          "bathingSite": "LITTLEHAMPTON",
          "eventStart": "2021-01-06T15:42:00",
          "eventStop": "2021-01-06T16:19:00",
          "duration": 37,
          "status": "Genuine",
          "associatedSiteId": 109965,
          "outfallName": "SEA ROAD LITTLEHAMPTON",
          "isImpacting": true,
          "overFlowSiteId": 109368
        }
      ]
    },
    {
      "id": 344019924,
      "eventId": 365526,
      "siteUnitNumber": 12568,
      "bathingSite": "SANDGATE",
      "eventStart": "2021-01-06T07:09:00",
      "eventStop": "2021-01-06T15:53:00",
      "duration": 524,
      "status": "Genuine",
      "associatedSiteId": 109897,
      "outfallName": "RANGE ROAD HYTHE K LONG",
      "isImpacting": true,
      "overFlowSiteId": 0,
      "historicSpillsList": [
        {
          "id": 344019924,
          "eventId": 365526,
          "siteUnitNumber": 12568,
          "bathingSite": "SANDGATE",
          "eventStart": "2021-01-06T07:09:00",
          "eventStop": "2021-01-06T15:53:00",
          "duration": 524,
          "status": "Genuine",
          "associatedSiteId": 109897,
          "outfallName": "RANGE ROAD HYTHE K LONG",
          "isImpacting": true,
          "overFlowSiteId": 116048
        },
        {
          "id": 344019925,
          "eventId": 365526,
          "siteUnitNumber": 12569,
          "bathingSite": "HYTHE",
          "eventStart": "2021-01-06T07:09:00",
          "eventStop": "2021-01-06T15:53:00",
          "duration": 524,
          "status": "Genuine",
          "associatedSiteId": 109897,
          "outfallName": "RANGE ROAD HYTHE K LONG",
          "isImpacting": true,
          "overFlowSiteId": 116048,
          "historicSpillsList": []
        }
      ]
    },
    {
      "id": 344003668,
      "eventId": 305241,
      "siteUnitNumber": 12544,
      "bathingSite": "SHEERNESS",
      "eventStart": "2021-01-06T01:59:00",
      "eventStop": "2021-01-06T15:24:00",
      "duration": 805,
      "status": "Genuine",
      "associatedSiteId": 109617,
      "outfallName": "DROVE ROAD SHEERNESS",
      "isImpacting": true,
      "overFlowSiteId": 0,
      "historicSpillsList": [
        {
          "id": 344003668,
          "eventId": 305241,
          "siteUnitNumber": 12544,
          "bathingSite": "SHEERNESS",
          "eventStart": "2021-01-06T01:59:00",
          "eventStop": "2021-01-06T15:24:00",
          "duration": 805,
          "status": "Genuine",
          "associatedSiteId": 109617,
          "outfallName": "DROVE ROAD SHEERNESS",
          "isImpacting": true,
          "overFlowSiteId": 108727
        },
        {
          "id": 344003669,
          "eventId": 305241,
          "siteUnitNumber": 12550,
          "bathingSite": "MINSTER LEAS",
          "eventStart": "2021-01-06T01:59:00",
          "eventStop": "2021-01-06T15:24:00",
          "duration": 805,
          "status": "Genuine",
          "associatedSiteId": 109617,
          "outfallName": "DROVE ROAD SHEERNESS",
          "isImpacting": true,
          "overFlowSiteId": 108727,
          "historicSpillsList": []
        }
      ]
    },
    {
      "id": 344028327,
      "eventId": 306030,
      "siteUnitNumber": 12591,
      "bathingSite": "LITTLEHAMPTON",
      "eventStart": "2021-01-06T13:59:00",
      "eventStop": "2021-01-06T14:31:00",
      "duration": 32,
      "status": "Genuine",
      "associatedSiteId": 109965,
      "outfallName": "SEA ROAD LITTLEHAMPTON",
      "isImpacting": true,
      "overFlowSiteId": 0,
      "historicSpillsList": [
        {
          "id": 344028327,
          "eventId": 306030,
          "siteUnitNumber": 12591,
          "bathingSite": "LITTLEHAMPTON",
          "eventStart": "2021-01-06T13:59:00",
          "eventStop": "2021-01-06T14:31:00",
          "duration": 32,
          "status": "Genuine",
          "associatedSiteId": 109965,
          "outfallName": "SEA ROAD LITTLEHAMPTON",
          "isImpacting": true,
          "overFlowSiteId": 109368
        }
      ]
    },
    {
      "id": 344016381,
      "eventId": 305399,
      "siteUnitNumber": 12547,
      "bathingSite": "WEST BEACH WHITSTABLE",
      "eventStart": "2021-01-06T04:26:00",
      "eventStop": "2021-01-06T14:08:00",
      "duration": 582,
      "status": "Genuine",
      "associatedSiteId": 109832,
      "outfallName": "GORREL NO1",
      "isImpacting": true,
      "overFlowSiteId": 0,
      "historicSpillsList": [
        {
          "id": 344016381,
          "eventId": 305399,
          "siteUnitNumber": 12547,
          "bathingSite": "WEST BEACH WHITSTABLE",
          "eventStart": "2021-01-06T04:26:00",
          "eventStop": "2021-01-06T14:08:00",
          "duration": 582,
          "status": "Genuine",
          "associatedSiteId": 109832,
          "outfallName": "GORREL NO1",
          "isImpacting": true,
          "overFlowSiteId": 103279
        },
        {
          "id": 344016382,
          "eventId": 305399,
          "siteUnitNumber": 12548,
          "bathingSite": "TANKERTON",
          "eventStart": "2021-01-06T04:26:00",
          "eventStop": "2021-01-06T14:08:00",
          "duration": 582,
          "status": "Genuine",
          "associatedSiteId": 109832,
          "outfallName": "GORREL NO1",
          "isImpacting": true,
          "overFlowSiteId": 103279,
          "historicSpillsList": []
        }
      ]
    },
    {
      "id": 344021904,
      "eventId": 305514,
      "siteUnitNumber": 12576,
      "bathingSite": "ST LEONARDS",
      "eventStart": "2021-01-06T09:22:12",
      "eventStop": "2021-01-06T14:07:40",
      "duration": 285,
      "status": "Genuine",
      "associatedSiteId": 109903,
      "outfallName": "BEXHILL & HASTINGS NO2",
      "isImpacting": true,
      "overFlowSiteId": 0,
      "historicSpillsList": [
        {
          "id": 344021904,
          "eventId": 305514,
          "siteUnitNumber": 12576,
          "bathingSite": "ST LEONARDS",
          "eventStart": "2021-01-06T09:22:12",
          "eventStop": "2021-01-06T14:07:40",
          "duration": 285,
          "status": "Genuine",
          "associatedSiteId": 109903,
          "outfallName": "BEXHILL & HASTINGS NO2",
          "isImpacting": true,
          "overFlowSiteId": 115398
        },
        {
          "id": 344021905,
          "eventId": 305514,
          "siteUnitNumber": 12577,
          "bathingSite": "BEXHILL",
          "eventStart": "2021-01-06T09:22:12",
          "eventStop": "2021-01-06T14:07:40",
          "duration": 285,
          "status": "Genuine",
          "associatedSiteId": 109903,
          "outfallName": "BEXHILL & HASTINGS NO2",
          "isImpacting": true,
          "overFlowSiteId": 115398,
          "historicSpillsList": []
        }
      ]
    },
    {
      "id": 344017223,
      "eventId": 305806,
      "siteUnitNumber": 12579,
      "bathingSite": "PEVENSEY BAY",
      "eventStart": "2021-01-06T12:13:00",
      "eventStop": "2021-01-06T13:44:00",
      "duration": 91,
      "status": "Genuine",
      "associatedSiteId": 109889,
      "outfallName": "RATTLE ROAD WESTHAM",
      "isImpacting": true,
      "overFlowSiteId": 0,
      "historicSpillsList": [
        {
          "id": 344017223,
          "eventId": 305806,
          "siteUnitNumber": 12579,
          "bathingSite": "PEVENSEY BAY",
          "eventStart": "2021-01-06T12:13:00",
          "eventStop": "2021-01-06T13:44:00",
          "duration": 91,
          "status": "Genuine",
          "associatedSiteId": 109889,
          "outfallName": "RATTLE ROAD WESTHAM",
          "isImpacting": true,
          "overFlowSiteId": 108315
        }
      ]
    },
    {
      "id": 344028326,
      "eventId": 306029,
      "siteUnitNumber": 12591,
      "bathingSite": "LITTLEHAMPTON",
      "eventStart": "2021-01-06T11:59:00",
      "eventStop": "2021-01-06T12:48:00",
      "duration": 49,
      "status": "Genuine",
      "associatedSiteId": 109965,
      "outfallName": "SEA ROAD LITTLEHAMPTON",
      "isImpacting": true,
      "overFlowSiteId": 0,
      "historicSpillsList": [
        {
          "id": 344028326,
          "eventId": 306029,
          "siteUnitNumber": 12591,
          "bathingSite": "LITTLEHAMPTON",
          "eventStart": "2021-01-06T11:59:00",
          "eventStop": "2021-01-06T12:48:00",
          "duration": 49,
          "status": "Genuine",
          "associatedSiteId": 109965,
          "outfallName": "SEA ROAD LITTLEHAMPTON",
          "isImpacting": true,
          "overFlowSiteId": 109368
        }
      ]
    },
    {
      "id": 344006348,
      "eventId": 304901,
      "siteUnitNumber": 12549,
      "bathingSite": "HERNE BAY CENTRAL",
      "eventStart": "2021-01-06T02:37:00",
      "eventStop": "2021-01-06T12:06:00",
      "duration": 569,
      "status": "Genuine",
      "associatedSiteId": 109676,
      "outfallName": "KINGS HALL HERNE BAY A",
      "isImpacting": true,
      "overFlowSiteId": 0,
      "historicSpillsList": [
        {
          "id": 344006348,
          "eventId": 304901,
          "siteUnitNumber": 12549,
          "bathingSite": "HERNE BAY CENTRAL",
          "eventStart": "2021-01-06T02:37:00",
          "eventStop": "2021-01-06T12:06:00",
          "duration": 569,
          "status": "Genuine",
          "associatedSiteId": 109676,
          "outfallName": "KINGS HALL HERNE BAY A",
          "isImpacting": true,
          "overFlowSiteId": 108096
        },
        {
          "id": 344006349,
          "eventId": 304901,
          "siteUnitNumber": 12551,
          "bathingSite": "HERNE BAY",
          "eventStart": "2021-01-06T02:37:00",
          "eventStop": "2021-01-06T12:06:00",
          "duration": 569,
          "status": "Genuine",
          "associatedSiteId": 109676,
          "outfallName": "KINGS HALL HERNE BAY A",
          "isImpacting": true,
          "overFlowSiteId": 108096,
          "historicSpillsList": []
        }
      ]
    },
    {
      "id": 344006522,
      "eventId": 305346,
      "siteUnitNumber": 12549,
      "bathingSite": "HERNE BAY CENTRAL",
      "eventStart": "2021-01-06T11:00:00",
      "eventStop": "2021-01-06T11:40:00",
      "duration": 40,
      "status": "Genuine",
      "associatedSiteId": 109678,
      "outfallName": "EDDINGTON LANE HERNE BAY NO2",
      "isImpacting": true,
      "overFlowSiteId": 0,
      "historicSpillsList": [
        {
          "id": 344006522,
          "eventId": 305346,
          "siteUnitNumber": 12549,
          "bathingSite": "HERNE BAY CENTRAL",
          "eventStart": "2021-01-06T11:00:00",
          "eventStop": "2021-01-06T11:40:00",
          "duration": 40,
          "status": "Genuine",
          "associatedSiteId": 109678,
          "outfallName": "EDDINGTON LANE HERNE BAY NO2",
          "isImpacting": true,
          "overFlowSiteId": 108093
        },
        {
          "id": 344006523,
          "eventId": 305346,
          "siteUnitNumber": 12551,
          "bathingSite": "HERNE BAY",
          "eventStart": "2021-01-06T11:00:00",
          "eventStop": "2021-01-06T11:40:00",
          "duration": 40,
          "status": "Genuine",
          "associatedSiteId": 109678,
          "outfallName": "EDDINGTON LANE HERNE BAY NO2",
          "isImpacting": true,
          "overFlowSiteId": 108093,
          "historicSpillsList": []
        }
      ]
    },
    {
      "id": 344028329,
      "eventId": 305507,
      "siteUnitNumber": 12591,
      "bathingSite": "LITTLEHAMPTON",
      "eventStart": "2021-01-06T10:13:00",
      "eventStop": "2021-01-06T11:06:00",
      "duration": 53,
      "status": "Genuine",
      "associatedSiteId": 109965,
      "outfallName": "SEA ROAD LITTLEHAMPTON",
      "isImpacting": true,
      "overFlowSiteId": 0,
      "historicSpillsList": [
        {
          "id": 344028329,
          "eventId": 305507,
          "siteUnitNumber": 12591,
          "bathingSite": "LITTLEHAMPTON",
          "eventStart": "2021-01-06T10:13:00",
          "eventStop": "2021-01-06T11:06:00",
          "duration": 53,
          "status": "Genuine",
          "associatedSiteId": 109965,
          "outfallName": "SEA ROAD LITTLEHAMPTON",
          "isImpacting": true,
          "overFlowSiteId": 109368
        }
      ]
    }
  ]
}