{
  "currentPage": 115,
  "totalItems": 21025,
  "totalPages": 841,
  "items": [
    {
      "id": 344752383,
      "eventId": 894486,
      "siteUnitNumber": 12592,
      "bathingSite": "MIDDLETON-ON-SEA",
      "eventStart": "2023-11-04T11:00:00",
      "eventStop": "2023-11-04T11:05:26",
      "duration": 5,
      "status": "Not Genuine",
      "associatedSiteId": 109967,
      "outfallName": "GLOUCESTER ROAD BOGNOR",
      "isImpacting": false,
      "overFlowSiteId": 0,
      "historicSpillsList": []
    },
    {
      "id": 344766688,
      "eventId": 894224,
      "siteUnitNumber": 12615,
      "bathingSite": "COLWELL BAY",
      "eventStart": "2023-11-04T09:58:55",
      "eventStop": "2023-11-04T10:53:15",
      "duration": 54,
      "status": "Genuine",
      "associatedSiteId": 115498,
      "outfallName": "NORTON TRANSFER IOW",
      "isImpacting": true,
      "overFlowSiteId": 0,
      "historicSpillsList": [
        {
          "id": 344766688,
          "eventId": 894224,
          "siteUnitNumber": 12615,
          "bathingSite": "COLWELL BAY",
          "eventStart": "2023-11-04T09:58:55",
          "eventStop": "2023-11-04T10:53:15",
          "duration": 54,
          "status": "Genuine",
          "associatedSiteId": 115498,
          "outfallName": "NORTON TRANSFER IOW",
          "isImpacting": true,
          "overFlowSiteId": 109524
        },
        {
          "id": 344766689,
          "eventId": 894224,
          "siteUnitNumber": 12614,
          "bathingSite": "TOTLAND BAY",
          "eventStart": "2023-11-04T09:58:55",
          "eventStop": "2023-11-04T10:53:15",
          "duration": 54,
          "status": "Genuine",
          "associatedSiteId": 115498,
          "outfallName": "NORTON TRANSFER IOW",
          "isImpacting": true,
          "overFlowSiteId": 109524,
          "historicSpillsList": []
        }
      ]
    },
    {
      "id": 344729804,
      "eventId": 901680,
      "siteUnitNumber": 12615,
      "bathingSite": "COLWELL BAY",
      "eventStart": "2023-11-04T09:58:00",
      "eventStop": "2023-11-04T10:51:00",
      "duration": 53,
      "status": "Genuine",
      "associatedSiteId": 109663,
      "outfallName": "THE INSTITUTE YARMOUTH NO1",
      "isImpacting": false,
      "overFlowSiteId": 0,
      "historicSpillsList": []
    },
    {
      "id": 344729896,
      "eventId": 899645,
      "siteUnitNumber": 12614,
      "bathingSite": "TOTLAND BAY",
      "eventStart": "2023-11-04T10:45:00",
      "eventStop": "2023-11-04T10:48:00",
      "duration": 3,
      "status": "Genuine",
      "associatedSiteId": 109665,
      "outfallName": "THORLEY ROAD BOULDNOR",
      "isImpacting": false,
      "overFlowSiteId": 0,
      "historicSpillsList": []
    },
    {
      "id": 344737587,
      "eventId": 893653,
      "siteUnitNumber": 12611,
      "bathingSite": "CHRISTCHURCH BAY",
      "eventStart": "2023-11-04T10:09:00",
      "eventStop": "2023-11-04T10:38:00",
      "duration": 29,
      "status": "Genuine",
      "associatedSiteId": 109801,
      "outfallName": "BECTON LANE BARTON ON SEA",
      "isImpacting": false,
      "overFlowSiteId": 0,
      "historicSpillsList": []
    },
    {
      "id": 344731075,
      "eventId": 894842,
      "siteUnitNumber": 12616,
      "bathingSite": "GURNARD",
      "eventStart": "2023-11-04T10:05:43",
      "eventStop": "2023-11-04T10:36:00",
      "duration": 30,
      "status": "Genuine",
      "associatedSiteId": 109700,
      "outfallName": "MARKET HILL COWES",
      "isImpacting": false,
      "overFlowSiteId": 0,
      "historicSpillsList": []
    },
    {
      "id": 344734838,
      "eventId": 894004,
      "siteUnitNumber": 12661,
      "bathingSite": "LANGSTONE HARBOUR",
      "eventStart": "2023-11-04T08:34:00",
      "eventStop": "2023-11-04T10:35:00",
      "duration": 121,
      "status": "Genuine",
      "associatedSiteId": 109772,
      "outfallName": "BUDDS FARM HAVANT NO1",
      "isImpacting": true,
      "overFlowSiteId": 0,
      "historicSpillsList": [
        {
          "id": 344734838,
          "eventId": 894004,
          "siteUnitNumber": 12661,
          "bathingSite": "LANGSTONE HARBOUR",
          "eventStart": "2023-11-04T08:34:00",
          "eventStop": "2023-11-04T10:35:00",
          "duration": 121,
          "status": "Genuine",
          "associatedSiteId": 109772,
          "outfallName": "BUDDS FARM HAVANT NO1",
          "isImpacting": true,
          "overFlowSiteId": 116073
        }
      ]
    },
    {
      "id": 344749800,
      "eventId": 894512,
      "siteUnitNumber": 12594,
      "bathingSite": "BOGNOR REGIS EAST",
      "eventStart": "2023-11-04T10:25:18",
      "eventStop": "2023-11-04T10:30:00",
      "duration": 4,
      "status": "Genuine",
      "associatedSiteId": 109959,
      "outfallName": "WEST PARK BOGNOR REGIS",
      "isImpacting": true,
      "overFlowSiteId": 0,
      "historicSpillsList": [
        {
          "id": 344749802,
          "eventId": 894512,
          "siteUnitNumber": 12596,
          "bathingSite": "PAGHAM",
          "eventStart": "2023-11-04T10:25:18",
          "eventStop": "2023-11-04T10:30:00",
          "duration": 4,
          "status": "Genuine",
          "associatedSiteId": 109959,
          "outfallName": "WEST PARK BOGNOR REGIS",
          "isImpacting": true,
          "overFlowSiteId": 108160,
          "historicSpillsList": []
        }
      ]
    },
    {
      "id": 344748634,
      "eventId": 893730,
      "siteUnitNumber": 12582,
      "bathingSite": "SEAFORD",
      "eventStart": "2023-11-04T06:55:00",
      "eventStop": "2023-11-04T10:30:00",
      "duration": 215,
      "status": "Genuine",
      "associatedSiteId": 109957,
      "outfallName": "PORTOBELLO BRIGHTON NO2",
      "isImpacting": false,
      "overFlowSiteId": 0,
      "historicSpillsList": []
    },
    {
      "id": 344746621,
      "eventId": 894251,
      "siteUnitNumber": 12586,
      "bathingSite": "HOVE",
      "eventStart": "2023-11-04T10:03:21",
      "eventStop": "2023-11-04T10:26:53",
      "duration": 23,
      "status": "Genuine",
      "associatedSiteId": 109929,
      "outfallName": "SHOREHAM NO1",
      "isImpacting": true,
      "overFlowSiteId": 0,
      "historicSpillsList": [
        {
          "id": 344746621,
          "eventId": 894251,
          "siteUnitNumber": 12586,
          "bathingSite": "HOVE",
          "eventStart": "2023-11-04T10:03:21",
          "eventStop": "2023-11-04T10:26:53",
          "duration": 23,
          "status": "Genuine",
          "associatedSiteId": 109929,
          "outfallName": "SHOREHAM NO1",
          "isImpacting": true,
          "overFlowSiteId": 115434
        },
        {
          "id": 344746622,
          "eventId": 894251,
          "siteUnitNumber": 12587,
          "bathingSite": "SOUTHWICK",
          "eventStart": "2023-11-04T10:03:21",
          "eventStop": "2023-11-04T10:26:53",
          "duration": 23,
          "status": "Genuine",
          "associatedSiteId": 109929,
          "outfallName": "SHOREHAM NO1",
          "isImpacting": true,
          "overFlowSiteId": 115434,
          "historicSpillsList": []
        },
        {
          "id": 344746623,
          "eventId": 894251,
          "siteUnitNumber": 12588,
          "bathingSite": "SHOREHAM BEACH",
          "eventStart": "2023-11-04T10:03:21",
          "eventStop": "2023-11-04T10:26:53",
          "duration": 23,
          "status": "Genuine",
          "associatedSiteId": 109929,
          "outfallName": "SHOREHAM NO1",
          "isImpacting": true,
          "overFlowSiteId": 115434,
          "historicSpillsList": []
        }
      ]
    },
    {
      "id": 344732093,
      "eventId": 899022,
      "siteUnitNumber": 12616,
      "bathingSite": "GURNARD",
      "eventStart": "2023-11-04T10:01:00",
      "eventStop": "2023-11-04T10:26:00",
      "duration": 25,
      "status": "Genuine",
      "associatedSiteId": 109704,
      "outfallName": "EGYPT POINT COWES",
      "isImpacting": true,
      "overFlowSiteId": 0,
      "historicSpillsList": [
        {
          "id": 344732094,
          "eventId": 899022,
          "siteUnitNumber": 12617,
          "bathingSite": "COWES",
          "eventStart": "2023-11-04T10:01:00",
          "eventStop": "2023-11-04T10:26:00",
          "duration": 25,
          "status": "Genuine",
          "associatedSiteId": 109704,
          "outfallName": "EGYPT POINT COWES",
          "isImpacting": true,
          "overFlowSiteId": 116213,
          "historicSpillsList": []
        }
      ]
    },
    {
      "id": 344729898,
      "eventId": 899642,
      "siteUnitNumber": 12615,
      "bathingSite": "COLWELL BAY",
      "eventStart": "2023-11-04T10:22:00",
      "eventStop": "2023-11-04T10:25:00",
      "duration": 3,
      "status": "Genuine",
      "associatedSiteId": 109665,
      "outfallName": "THORLEY ROAD BOULDNOR",
      "isImpacting": false,
      "overFlowSiteId": 0,
      "historicSpillsList": []
    },
    {
      "id": 344746173,
      "eventId": 894497,
      "siteUnitNumber": 12590,
      "bathingSite": "WORTHING",
      "eventStart": "2023-11-04T10:09:00",
      "eventStop": "2023-11-04T10:16:00",
      "duration": 7,
      "status": "Genuine",
      "associatedSiteId": 109912,
      "outfallName": "SEA LANE GORING",
      "isImpacting": false,
      "overFlowSiteId": 0,
      "historicSpillsList": []
    },
    {
      "id": 344749807,
      "eventId": 893594,
      "siteUnitNumber": 12594,
      "bathingSite": "BOGNOR REGIS EAST",
      "eventStart": "2023-11-04T04:30:36",
      "eventStop": "2023-11-04T10:15:00",
      "duration": 344,
      "status": "Genuine",
      "associatedSiteId": 109959,
      "outfallName": "WEST PARK BOGNOR REGIS",
      "isImpacting": true,
      "overFlowSiteId": 0,
      "historicSpillsList": [
        {
          "id": 344749807,
          "eventId": 893594,
          "siteUnitNumber": 12594,
          "bathingSite": "BOGNOR REGIS EAST",
          "eventStart": "2023-11-04T04:30:36",
          "eventStop": "2023-11-04T10:15:00",
          "duration": 344,
          "status": "Genuine",
          "associatedSiteId": 109959,
          "outfallName": "WEST PARK BOGNOR REGIS",
          "isImpacting": true,
          "overFlowSiteId": 108160
        }
      ]
    },
    {
      "id": 344748225,
      "eventId": 893993,
      "siteUnitNumber": 12575,
      "bathingSite": "HASTINGS PELHAM BEACH",
      "eventStart": "2023-11-04T08:23:22",
      "eventStop": "2023-11-04T10:01:07",
      "duration": 97,
      "status": "Genuine",
      "associatedSiteId": 109950,
      "outfallName": "ST HELENS DOWN HASTINGS",
      "isImpacting": true,
      "overFlowSiteId": 0,
      "historicSpillsList": [
        {
          "id": 344748225,
          "eventId": 893993,
          "siteUnitNumber": 12575,
          "bathingSite": "HASTINGS PELHAM BEACH",
          "eventStart": "2023-11-04T08:23:22",
          "eventStop": "2023-11-04T10:01:07",
          "duration": 97,
          "status": "Genuine",
          "associatedSiteId": 109950,
          "outfallName": "ST HELENS DOWN HASTINGS",
          "isImpacting": true,
          "overFlowSiteId": 109050
        }
      ]
    },
    {
      "id": 344733381,
      "eventId": 893992,
      "siteUnitNumber": 12616,
      "bathingSite": "GURNARD",
      "eventStart": "2023-11-04T08:20:42",
      "eventStop": "2023-11-04T10:01:00",
      "duration": 100,
      "status": "Genuine",
      "associatedSiteId": 109707,
      "outfallName": "MEDINA ROAD COWES",
      "isImpacting": false,
      "overFlowSiteId": 0,
      "historicSpillsList": []
    },
    {
      "id": 344732095,
      "eventId": 898979,
      "siteUnitNumber": 12616,
      "bathingSite": "GURNARD",
      "eventStart": "2023-11-04T03:48:00",
      "eventStop": "2023-11-04T10:01:00",
      "duration": 373,
      "status": "Genuine",
      "associatedSiteId": 109704,
      "outfallName": "EGYPT POINT COWES",
      "isImpacting": true,
      "overFlowSiteId": 0,
      "historicSpillsList": [
        {
          "id": 344732096,
          "eventId": 898979,
          "siteUnitNumber": 12617,
          "bathingSite": "COWES",
          "eventStart": "2023-11-04T03:48:00",
          "eventStop": "2023-11-04T10:01:00",
          "duration": 373,
          "status": "Genuine",
          "associatedSiteId": 109704,
          "outfallName": "EGYPT POINT COWES",
          "isImpacting": true,
          "overFlowSiteId": 116213,
          "historicSpillsList": []
        }
      ]
    },
    {
      "id": 344753498,
      "eventId": 894133,
      "siteUnitNumber": 12575,
      "bathingSite": "HASTINGS PELHAM BEACH",
      "eventStart": "2023-11-04T09:07:28",
      "eventStop": "2023-11-04T10:00:00",
      "duration": 52,
      "status": "Genuine",
      "associatedSiteId": 109982,
      "outfallName": "COOMBS HASTINGS",
      "isImpacting": false,
      "overFlowSiteId": 0,
      "historicSpillsList": []
    },
    {
      "id": 344766692,
      "eventId": 894144,
      "siteUnitNumber": 12614,
      "bathingSite": "TOTLAND BAY",
      "eventStart": "2023-11-03T13:01:00",
      "eventStop": "2023-11-04T10:00:00",
      "duration": 1259,
      "status": "Genuine",
      "associatedSiteId": 115498,
      "outfallName": "NORTON TRANSFER IOW",
      "isImpacting": true,
      "overFlowSiteId": 0,
      "historicSpillsList": [
        {
          "id": 344766692,
          "eventId": 894144,
          "siteUnitNumber": 12614,
          "bathingSite": "TOTLAND BAY",
          "eventStart": "2023-11-03T13:01:00",
          "eventStop": "2023-11-04T10:00:00",
          "duration": 1259,
          "status": "Genuine",
          "associatedSiteId": 115498,
          "outfallName": "NORTON TRANSFER IOW",
          "isImpacting": true,
          "overFlowSiteId": 108544
        },
        {
          "id": 344766693,
          "eventId": 894144,
          "siteUnitNumber": 12615,
          "bathingSite": "COLWELL BAY",
          "eventStart": "2023-11-03T13:01:00",
          "eventStop": "2023-11-04T10:00:00",
          "duration": 1259,
          "status": "Genuine",
          "associatedSiteId": 115498,
          "outfallName": "NORTON TRANSFER IOW",
          "isImpacting": true,
          "overFlowSiteId": 108544,
          "historicSpillsList": []
        }
      ]
    },
    {
      "id": 344746618,
      "eventId": 894841,
      "siteUnitNumber": 12586,
      "bathingSite": "HOVE",
      "eventStart": "2023-11-04T09:55:00",
      "eventStop": "2023-11-04T09:59:01",
      "duration": 4,
      "status": "Not Genuine",
      "associatedSiteId": 109929,
      "outfallName": "SHOREHAM NO1",
      "isImpacting": true,
      "overFlowSiteId": 0,
      "historicSpillsList": []
    },
    {
      "id": 344746627,
      "eventId": 894054,
      "siteUnitNumber": 12586,
      "bathingSite": "HOVE",
      "eventStart": "2023-11-04T08:37:19",
      "eventStop": "2023-11-04T09:55:00",
      "duration": 77,
      "status": "Genuine",
      "associatedSiteId": 109929,
      "outfallName": "SHOREHAM NO1",
      "isImpacting": true,
      "overFlowSiteId": 0,
      "historicSpillsList": [
        {
          "id": 344746627,
          "eventId": 894054,
          "siteUnitNumber": 12586,
          "bathingSite": "HOVE",
          "eventStart": "2023-11-04T08:37:19",
          "eventStop": "2023-11-04T09:55:00",
          "duration": 77,
          "status": "Genuine",
          "associatedSiteId": 109929,
          "outfallName": "SHOREHAM NO1",
          "isImpacting": true,
          "overFlowSiteId": 115434
        },
        {
          "id": 344746619,
          "eventId": 894054,
          "siteUnitNumber": 12587,
          "bathingSite": "SOUTHWICK",
          "eventStart": "2023-11-04T08:37:19",
          "eventStop": "2023-11-04T09:55:00",
          "duration": 77,
          "status": "Genuine",
          "associatedSiteId": 109929,
          "outfallName": "SHOREHAM NO1",
          "isImpacting": true,
          "overFlowSiteId": 115434,
          "historicSpillsList": []
        },
        {
          "id": 344746620,
          "eventId": 894054,
          "siteUnitNumber": 12588,
          "bathingSite": "SHOREHAM BEACH",
          "eventStart": "2023-11-04T08:37:19",
          "eventStop": "2023-11-04T09:55:00",
          "duration": 77,
          "status": "Genuine",
          "associatedSiteId": 109929,
          "outfallName": "SHOREHAM NO1",
          "isImpacting": true,
          "overFlowSiteId": 115434,
          "historicSpillsList": []
        }
      ]
    },
    {
      "id": 344766690,
      "eventId": 894183,
      "siteUnitNumber": 12614,
      "bathingSite": "TOTLAND BAY",
      "eventStart": "2023-11-04T09:34:18",
      "eventStop": "2023-11-04T09:54:55",
      "duration": 20,
      "status": "Genuine",
      "associatedSiteId": 115498,
      "outfallName": "NORTON TRANSFER IOW",
      "isImpacting": true,
      "overFlowSiteId": 0,
      "historicSpillsList": [
        {
          "id": 344766690,
          "eventId": 894183,
          "siteUnitNumber": 12614,
          "bathingSite": "TOTLAND BAY",
          "eventStart": "2023-11-04T09:34:18",
          "eventStop": "2023-11-04T09:54:55",
          "duration": 20,
          "status": "Genuine",
          "associatedSiteId": 115498,
          "outfallName": "NORTON TRANSFER IOW",
          "isImpacting": true,
          "overFlowSiteId": 109524
        },
        {
          "id": 344766691,
          "eventId": 894183,
          "siteUnitNumber": 12615,
          "bathingSite": "COLWELL BAY",
          "eventStart": "2023-11-04T09:34:18",
          "eventStop": "2023-11-04T09:54:55",
          "duration": 20,
          "status": "Genuine",
          "associatedSiteId": 115498,
          "outfallName": "NORTON TRANSFER IOW",
          "isImpacting": true,
          "overFlowSiteId": 109524,
          "historicSpillsList": []
        }
      ]
    },
    {
      "id": 344729805,
      "eventId": 901679,
      "siteUnitNumber": 12615,
      "bathingSite": "COLWELL BAY",
      "eventStart": "2023-11-04T09:46:00",
      "eventStop": "2023-11-04T09:51:00",
      "duration": 5,
      "status": "Genuine",
      "associatedSiteId": 109663,
      "outfallName": "THE INSTITUTE YARMOUTH NO1",
      "isImpacting": false,
      "overFlowSiteId": 0,
      "historicSpillsList": []
    },
    {
      "id": 344746176,
      "eventId": 894111,
      "siteUnitNumber": 12590,
      "bathingSite": "WORTHING",
      "eventStart": "2023-11-04T07:15:00",
      "eventStop": "2023-11-04T09:45:59",
      "duration": 150,
      "status": "Not Genuine",
      "associatedSiteId": 109912,
      "outfallName": "SEA LANE GORING",
      "isImpacting": false,
      "overFlowSiteId": 0,
      "historicSpillsList": []
    },
    {
      "id": 344766652,
      "eventId": 894893,
      "siteUnitNumber": 12615,
      "bathingSite": "COLWELL BAY",
      "eventStart": "2023-11-04T09:30:00",
      "eventStop": "2023-11-04T09:45:00",
      "duration": 15,
      "status": "Not Genuine",
      "associatedSiteId": 115498,
      "outfallName": "NORTON TRANSFER IOW",
      "isImpacting": true,
      "overFlowSiteId": 0,
      "historicSpillsList": []
    }
  ]
}