{
  "currentPage": 127,
  "totalItems": 21026,
  "totalPages": 842,
  "items": [
    {
      "id": 345470858,
      "eventId": 893027,
      "siteUnitNumber": 12586,
      "bathingSite": "HOVE",
      "eventStart": "2023-11-02T08:34:00",
      "eventStop": "2023-11-02T08:37:00",
      "duration": 3,
      "status": "Genuine",
      "associatedSiteId": 109929,
      "outfallName": "SHOREHAM NO1",
      "isImpacting": true,
      "overFlowSiteId": 0,
      "historicSpillsList": [
        {
          "id": 345470858,
          "eventId": 893027,
          "siteUnitNumber": 12586,
          "bathingSite": "HOVE",
          "eventStart": "2023-11-02T08:34:00",
          "eventStop": "2023-11-02T08:37:00",
          "duration": 3,
          "status": "Genuine",
          "associatedSiteId": 109929,
          "outfallName": "SHOREHAM NO1",
          "isImpacting": true,
          "overFlowSiteId": 115434
        },
        {
          "id": 345470859,
          "eventId": 893027,
          "siteUnitNumber": 12587,
          "bathingSite": "SOUTHWICK",
          "eventStart": "2023-11-02T08:34:00",
          "eventStop": "2023-11-02T08:37:00",
          "duration": 3,
          "status": "Genuine",
          "associatedSiteId": 109929,
          "outfallName": "SHOREHAM NO1",
          "isImpacting": true,
          "overFlowSiteId": 115434,
          "historicSpillsList": []
        },
        {
          "id": 345470860,
          "eventId": 893027,
          "siteUnitNumber": 12588,
          "bathingSite": "SHOREHAM BEACH",
          "eventStart": "2023-11-02T08:34:00",
          "eventStop": "2023-11-02T08:37:00",
          "duration": 3,
          "status": "Genuine",
          "associatedSiteId": 109929,
          "outfallName": "SHOREHAM NO1",
          "isImpacting": true,
          "overFlowSiteId": 115434,
          "historicSpillsList": []
        }
      ]
    },
    {
      "id": 345468357,
      "eventId": 891325,
      "siteUnitNumber": 12576,
      "bathingSite": "ST LEONARDS",
      "eventStart": "2023-11-02T08:03:21",
      "eventStop": "2023-11-02T08:31:38",
      "duration": 28,
      "status": "Genuine",
      "associatedSiteId": 109903,
      "outfallName": "BEXHILL & HASTINGS NO2",
      "isImpacting": true,
      "overFlowSiteId": 0,
      "historicSpillsList": [
        {
          "id": 345468357,
          "eventId": 891325,
          "siteUnitNumber": 12576,
          "bathingSite": "ST LEONARDS",
          "eventStart": "2023-11-02T08:03:21",
          "eventStop": "2023-11-02T08:31:38",
          "duration": 28,
          "status": "Genuine",
          "associatedSiteId": 109903,
          "outfallName": "BEXHILL & HASTINGS NO2",
          "isImpacting": true,
          "overFlowSiteId": 115398
        },
        {
          "id": 345468358,
          "eventId": 891325,
          "siteUnitNumber": 12577,
          "bathingSite": "BEXHILL",
          "eventStart": "2023-11-02T08:03:21",
          "eventStop": "2023-11-02T08:31:38",
          "duration": 28,
          "status": "Genuine",
          "associatedSiteId": 109903,
          "outfallName": "BEXHILL & HASTINGS NO2",
          "isImpacting": true,
          "overFlowSiteId": 115398,
          "historicSpillsList": []
        }
      ]
    },
    {
      "id": 345470856,
      "eventId": 893025,
      "siteUnitNumber": 12587,
      "bathingSite": "SOUTHWICK",
      "eventStart": "2023-11-02T08:25:00",
      "eventStop": "2023-11-02T08:29:00",
      "duration": 4,
      "status": "Genuine",
      "associatedSiteId": 109929,
      "outfallName": "SHOREHAM NO1",
      "isImpacting": true,
      "overFlowSiteId": 0,
      "historicSpillsList": [
        {
          "id": 345470856,
          "eventId": 893025,
          "siteUnitNumber": 12587,
          "bathingSite": "SOUTHWICK",
          "eventStart": "2023-11-02T08:25:00",
          "eventStop": "2023-11-02T08:29:00",
          "duration": 4,
          "status": "Genuine",
          "associatedSiteId": 109929,
          "outfallName": "SHOREHAM NO1",
          "isImpacting": true,
          "overFlowSiteId": 115434
        },
        {
          "id": 345470857,
          "eventId": 893025,
          "siteUnitNumber": 12588,
          "bathingSite": "SHOREHAM BEACH",
          "eventStart": "2023-11-02T08:25:00",
          "eventStop": "2023-11-02T08:29:00",
          "duration": 4,
          "status": "Genuine",
          "associatedSiteId": 109929,
          "outfallName": "SHOREHAM NO1",
          "isImpacting": true,
          "overFlowSiteId": 115434,
          "historicSpillsList": []
        },
        {
          "id": 345470864,
          "eventId": 893025,
          "siteUnitNumber": 12586,
          "bathingSite": "HOVE",
          "eventStart": "2023-11-02T08:25:00",
          "eventStop": "2023-11-02T08:29:00",
          "duration": 4,
          "status": "Genuine",
          "associatedSiteId": 109929,
          "outfallName": "SHOREHAM NO1",
          "isImpacting": true,
          "overFlowSiteId": 115434,
          "historicSpillsList": []
        }
      ]
    },
    {
      "id": 345491064,
      "eventId": 891295,
      "siteUnitNumber": 12615,
      "bathingSite": "COLWELL BAY",
      "eventStart": "2023-11-02T08:02:42",
      "eventStop": "2023-11-02T08:24:03",
      "duration": 21,
      "status": "Genuine",
      "associatedSiteId": 115498,
      "outfallName": "NORTON TRANSFER IOW",
      "isImpacting": true,
      "overFlowSiteId": 0,
      "historicSpillsList": [
        {
          "id": 345491064,
          "eventId": 891295,
          "siteUnitNumber": 12615,
          "bathingSite": "COLWELL BAY",
          "eventStart": "2023-11-02T08:02:42",
          "eventStop": "2023-11-02T08:24:03",
          "duration": 21,
          "status": "Genuine",
          "associatedSiteId": 115498,
          "outfallName": "NORTON TRANSFER IOW",
          "isImpacting": true,
          "overFlowSiteId": 109524
        },
        {
          "id": 345491065,
          "eventId": 891295,
          "siteUnitNumber": 12614,
          "bathingSite": "TOTLAND BAY",
          "eventStart": "2023-11-02T08:02:42",
          "eventStop": "2023-11-02T08:24:03",
          "duration": 21,
          "status": "Genuine",
          "associatedSiteId": 115498,
          "outfallName": "NORTON TRANSFER IOW",
          "isImpacting": true,
          "overFlowSiteId": 109524,
          "historicSpillsList": []
        }
      ]
    },
    {
      "id": 345470867,
      "eventId": 891324,
      "siteUnitNumber": 12586,
      "bathingSite": "HOVE",
      "eventStart": "2023-11-02T08:00:00",
      "eventStop": "2023-11-02T08:06:00",
      "duration": 6,
      "status": "Genuine",
      "associatedSiteId": 109929,
      "outfallName": "SHOREHAM NO1",
      "isImpacting": true,
      "overFlowSiteId": 0,
      "historicSpillsList": [
        {
          "id": 345470867,
          "eventId": 891324,
          "siteUnitNumber": 12586,
          "bathingSite": "HOVE",
          "eventStart": "2023-11-02T08:00:00",
          "eventStop": "2023-11-02T08:06:00",
          "duration": 6,
          "status": "Genuine",
          "associatedSiteId": 109929,
          "outfallName": "SHOREHAM NO1",
          "isImpacting": true,
          "overFlowSiteId": 115434
        },
        {
          "id": 345470868,
          "eventId": 891324,
          "siteUnitNumber": 12587,
          "bathingSite": "SOUTHWICK",
          "eventStart": "2023-11-02T08:00:00",
          "eventStop": "2023-11-02T08:06:00",
          "duration": 6,
          "status": "Genuine",
          "associatedSiteId": 109929,
          "outfallName": "SHOREHAM NO1",
          "isImpacting": true,
          "overFlowSiteId": 115434,
          "historicSpillsList": []
        },
        {
          "id": 345470869,
          "eventId": 891324,
          "siteUnitNumber": 12588,
          "bathingSite": "SHOREHAM BEACH",
          "eventStart": "2023-11-02T08:00:00",
          "eventStop": "2023-11-02T08:06:00",
          "duration": 6,
          "status": "Genuine",
          "associatedSiteId": 109929,
          "outfallName": "SHOREHAM NO1",
          "isImpacting": true,
          "overFlowSiteId": 115434,
          "historicSpillsList": []
        }
      ]
    },
    {
      "id": 345460960,
      "eventId": 891755,
      "siteUnitNumber": 12618,
      "bathingSite": "RYDE",
      "eventStart": "2023-11-02T05:18:00",
      "eventStop": "2023-11-02T08:06:00",
      "duration": 168,
      "status": "Genuine",
      "associatedSiteId": 109780,
      "outfallName": "LADIES WALK BINSTEAD",
      "isImpacting": true,
      "overFlowSiteId": 0,
      "historicSpillsList": [
        {
          "id": 345460960,
          "eventId": 891755,
          "siteUnitNumber": 12618,
          "bathingSite": "RYDE",
          "eventStart": "2023-11-02T05:18:00",
          "eventStop": "2023-11-02T08:06:00",
          "duration": 168,
          "status": "Genuine",
          "associatedSiteId": 109780,
          "outfallName": "LADIES WALK BINSTEAD",
          "isImpacting": true,
          "overFlowSiteId": 107406
        }
      ]
    },
    {
      "id": 345476592,
      "eventId": 891212,
      "siteUnitNumber": 12593,
      "bathingSite": "FELPHAM",
      "eventStart": "2023-11-02T04:41:00",
      "eventStop": "2023-11-02T08:06:00",
      "duration": 205,
      "status": "Genuine",
      "associatedSiteId": 109967,
      "outfallName": "GLOUCESTER ROAD BOGNOR",
      "isImpacting": true,
      "overFlowSiteId": 0,
      "historicSpillsList": [
        {
          "id": 345476592,
          "eventId": 891212,
          "siteUnitNumber": 12593,
          "bathingSite": "FELPHAM",
          "eventStart": "2023-11-02T04:41:00",
          "eventStop": "2023-11-02T08:06:00",
          "duration": 205,
          "status": "Genuine",
          "associatedSiteId": 109967,
          "outfallName": "GLOUCESTER ROAD BOGNOR",
          "isImpacting": true,
          "overFlowSiteId": 103299
        },
        {
          "id": 345476593,
          "eventId": 891212,
          "siteUnitNumber": 12594,
          "bathingSite": "BOGNOR REGIS EAST",
          "eventStart": "2023-11-02T04:41:00",
          "eventStop": "2023-11-02T08:06:00",
          "duration": 205,
          "status": "Genuine",
          "associatedSiteId": 109967,
          "outfallName": "GLOUCESTER ROAD BOGNOR",
          "isImpacting": true,
          "overFlowSiteId": 103299,
          "historicSpillsList": []
        }
      ]
    },
    {
      "id": 345454809,
      "eventId": 892925,
      "siteUnitNumber": 12549,
      "bathingSite": "HERNE BAY CENTRAL",
      "eventStart": "2023-11-02T07:59:00",
      "eventStop": "2023-11-02T08:01:00",
      "duration": 2,
      "status": "Genuine",
      "associatedSiteId": 109678,
      "outfallName": "EDDINGTON LANE HERNE BAY NO2",
      "isImpacting": false,
      "overFlowSiteId": 0,
      "historicSpillsList": []
    },
    {
      "id": 345491090,
      "eventId": 890417,
      "siteUnitNumber": 12614,
      "bathingSite": "TOTLAND BAY",
      "eventStart": "2023-11-01T15:01:00",
      "eventStop": "2023-11-02T08:00:00",
      "duration": 1019,
      "status": "Genuine",
      "associatedSiteId": 115498,
      "outfallName": "NORTON TRANSFER IOW",
      "isImpacting": true,
      "overFlowSiteId": 0,
      "historicSpillsList": [
        {
          "id": 345491090,
          "eventId": 890417,
          "siteUnitNumber": 12614,
          "bathingSite": "TOTLAND BAY",
          "eventStart": "2023-11-01T15:01:00",
          "eventStop": "2023-11-02T08:00:00",
          "duration": 1019,
          "status": "Genuine",
          "associatedSiteId": 115498,
          "outfallName": "NORTON TRANSFER IOW",
          "isImpacting": true,
          "overFlowSiteId": 108544
        },
        {
          "id": 345491091,
          "eventId": 890417,
          "siteUnitNumber": 12615,
          "bathingSite": "COLWELL BAY",
          "eventStart": "2023-11-01T15:01:00",
          "eventStop": "2023-11-02T08:00:00",
          "duration": 1019,
          "status": "Genuine",
          "associatedSiteId": 115498,
          "outfallName": "NORTON TRANSFER IOW",
          "isImpacting": true,
          "overFlowSiteId": 108544,
          "historicSpillsList": []
        }
      ]
    },
    {
      "id": 345459147,
      "eventId": 891306,
      "siteUnitNumber": 12661,
      "bathingSite": "LANGSTONE HARBOUR",
      "eventStart": "2023-10-31T19:09:00",
      "eventStop": "2023-11-02T08:00:00",
      "duration": 2211,
      "status": "Genuine",
      "associatedSiteId": 109773,
      "outfallName": "BUDDS FARM HAVANT NO2",
      "isImpacting": true,
      "overFlowSiteId": 0,
      "historicSpillsList": [
        {
          "id": 345459147,
          "eventId": 891306,
          "siteUnitNumber": 12661,
          "bathingSite": "LANGSTONE HARBOUR",
          "eventStart": "2023-10-31T19:09:00",
          "eventStop": "2023-11-02T08:00:00",
          "duration": 2211,
          "status": "Genuine",
          "associatedSiteId": 109773,
          "outfallName": "BUDDS FARM HAVANT NO2",
          "isImpacting": true,
          "overFlowSiteId": 115936
        }
      ]
    },
    {
      "id": 345491066,
      "eventId": 891232,
      "siteUnitNumber": 12614,
      "bathingSite": "TOTLAND BAY",
      "eventStart": "2023-11-02T07:43:16",
      "eventStop": "2023-11-02T07:57:35",
      "duration": 14,
      "status": "Genuine",
      "associatedSiteId": 115498,
      "outfallName": "NORTON TRANSFER IOW",
      "isImpacting": true,
      "overFlowSiteId": 0,
      "historicSpillsList": [
        {
          "id": 345491066,
          "eventId": 891232,
          "siteUnitNumber": 12614,
          "bathingSite": "TOTLAND BAY",
          "eventStart": "2023-11-02T07:43:16",
          "eventStop": "2023-11-02T07:57:35",
          "duration": 14,
          "status": "Genuine",
          "associatedSiteId": 115498,
          "outfallName": "NORTON TRANSFER IOW",
          "isImpacting": true,
          "overFlowSiteId": 109524
        },
        {
          "id": 345491067,
          "eventId": 891232,
          "siteUnitNumber": 12615,
          "bathingSite": "COLWELL BAY",
          "eventStart": "2023-11-02T07:43:16",
          "eventStop": "2023-11-02T07:57:35",
          "duration": 14,
          "status": "Genuine",
          "associatedSiteId": 115498,
          "outfallName": "NORTON TRANSFER IOW",
          "isImpacting": true,
          "overFlowSiteId": 109524,
          "historicSpillsList": []
        }
      ]
    },
    {
      "id": 345453970,
      "eventId": 890485,
      "siteUnitNumber": 12614,
      "bathingSite": "TOTLAND BAY",
      "eventStart": "2023-11-02T01:22:00",
      "eventStop": "2023-11-02T07:50:00",
      "duration": 388,
      "status": "Genuine",
      "associatedSiteId": 109658,
      "outfallName": "MONKS LANE LINSTONE CHINE",
      "isImpacting": true,
      "overFlowSiteId": 0,
      "historicSpillsList": [
        {
          "id": 345453971,
          "eventId": 890485,
          "siteUnitNumber": 12615,
          "bathingSite": "COLWELL BAY",
          "eventStart": "2023-11-02T01:22:00",
          "eventStop": "2023-11-02T07:50:00",
          "duration": 388,
          "status": "Genuine",
          "associatedSiteId": 109658,
          "outfallName": "MONKS LANE LINSTONE CHINE",
          "isImpacting": true,
          "overFlowSiteId": 101227,
          "historicSpillsList": []
        }
      ]
    },
    {
      "id": 345491068,
      "eventId": 891225,
      "siteUnitNumber": 12614,
      "bathingSite": "TOTLAND BAY",
      "eventStart": "2023-11-02T07:33:29",
      "eventStop": "2023-11-02T07:41:44",
      "duration": 8,
      "status": "Genuine",
      "associatedSiteId": 115498,
      "outfallName": "NORTON TRANSFER IOW",
      "isImpacting": true,
      "overFlowSiteId": 0,
      "historicSpillsList": [
        {
          "id": 345491068,
          "eventId": 891225,
          "siteUnitNumber": 12614,
          "bathingSite": "TOTLAND BAY",
          "eventStart": "2023-11-02T07:33:29",
          "eventStop": "2023-11-02T07:41:44",
          "duration": 8,
          "status": "Genuine",
          "associatedSiteId": 115498,
          "outfallName": "NORTON TRANSFER IOW",
          "isImpacting": true,
          "overFlowSiteId": 109524
        },
        {
          "id": 345491069,
          "eventId": 891225,
          "siteUnitNumber": 12615,
          "bathingSite": "COLWELL BAY",
          "eventStart": "2023-11-02T07:33:29",
          "eventStop": "2023-11-02T07:41:44",
          "duration": 8,
          "status": "Genuine",
          "associatedSiteId": 115498,
          "outfallName": "NORTON TRANSFER IOW",
          "isImpacting": true,
          "overFlowSiteId": 109524,
          "historicSpillsList": []
        }
      ]
    },
    {
      "id": 345454815,
      "eventId": 891285,
      "siteUnitNumber": 12549,
      "bathingSite": "HERNE BAY CENTRAL",
      "eventStart": "2023-11-02T07:39:00",
      "eventStop": "2023-11-02T07:41:00",
      "duration": 2,
      "status": "Genuine",
      "associatedSiteId": 109678,
      "outfallName": "EDDINGTON LANE HERNE BAY NO2",
      "isImpacting": false,
      "overFlowSiteId": 0,
      "historicSpillsList": []
    },
    {
      "id": 345455286,
      "eventId": 890378,
      "siteUnitNumber": 12616,
      "bathingSite": "GURNARD",
      "eventStart": "2023-11-02T00:34:28",
      "eventStop": "2023-11-02T07:35:47",
      "duration": 421,
      "status": "Not Genuine",
      "associatedSiteId": 109700,
      "outfallName": "MARKET HILL COWES",
      "isImpacting": false,
      "overFlowSiteId": 0,
      "historicSpillsList": []
    },
    {
      "id": 345491070,
      "eventId": 891180,
      "siteUnitNumber": 12615,
      "bathingSite": "COLWELL BAY",
      "eventStart": "2023-11-02T07:14:13",
      "eventStop": "2023-11-02T07:30:08",
      "duration": 15,
      "status": "Genuine",
      "associatedSiteId": 115498,
      "outfallName": "NORTON TRANSFER IOW",
      "isImpacting": true,
      "overFlowSiteId": 0,
      "historicSpillsList": [
        {
          "id": 345491070,
          "eventId": 891180,
          "siteUnitNumber": 12615,
          "bathingSite": "COLWELL BAY",
          "eventStart": "2023-11-02T07:14:13",
          "eventStop": "2023-11-02T07:30:08",
          "duration": 15,
          "status": "Genuine",
          "associatedSiteId": 115498,
          "outfallName": "NORTON TRANSFER IOW",
          "isImpacting": true,
          "overFlowSiteId": 109524
        },
        {
          "id": 345491071,
          "eventId": 891180,
          "siteUnitNumber": 12614,
          "bathingSite": "TOTLAND BAY",
          "eventStart": "2023-11-02T07:14:13",
          "eventStop": "2023-11-02T07:30:08",
          "duration": 15,
          "status": "Genuine",
          "associatedSiteId": 115498,
          "outfallName": "NORTON TRANSFER IOW",
          "isImpacting": true,
          "overFlowSiteId": 109524,
          "historicSpillsList": []
        }
      ]
    },
    {
      "id": 345470488,
      "eventId": 891197,
      "siteUnitNumber": 12589,
      "bathingSite": "LANCING BEACH GREEN",
      "eventStart": "2023-11-02T06:37:54",
      "eventStop": "2023-11-02T07:30:00",
      "duration": 52,
      "status": "Genuine",
      "associatedSiteId": 109919,
      "outfallName": "SOMPTING ROAD WORTHING",
      "isImpacting": true,
      "overFlowSiteId": 0,
      "historicSpillsList": [
        {
          "id": 345470488,
          "eventId": 891197,
          "siteUnitNumber": 12589,
          "bathingSite": "LANCING BEACH GREEN",
          "eventStart": "2023-11-02T06:37:54",
          "eventStop": "2023-11-02T07:30:00",
          "duration": 52,
          "status": "Genuine",
          "associatedSiteId": 109919,
          "outfallName": "SOMPTING ROAD WORTHING",
          "isImpacting": true,
          "overFlowSiteId": 108336
        },
        {
          "id": 345470489,
          "eventId": 891197,
          "siteUnitNumber": 12590,
          "bathingSite": "WORTHING",
          "eventStart": "2023-11-02T06:37:54",
          "eventStop": "2023-11-02T07:30:00",
          "duration": 52,
          "status": "Genuine",
          "associatedSiteId": 109919,
          "outfallName": "SOMPTING ROAD WORTHING",
          "isImpacting": true,
          "overFlowSiteId": 108336,
          "historicSpillsList": []
        }
      ]
    },
    {
      "id": 345454821,
      "eventId": 891178,
      "siteUnitNumber": 12549,
      "bathingSite": "HERNE BAY CENTRAL",
      "eventStart": "2023-11-02T07:11:29",
      "eventStop": "2023-11-02T07:15:02",
      "duration": 3,
      "status": "Genuine",
      "associatedSiteId": 109678,
      "outfallName": "EDDINGTON LANE HERNE BAY NO2",
      "isImpacting": false,
      "overFlowSiteId": 0,
      "historicSpillsList": []
    },
    {
      "id": 345491072,
      "eventId": 891177,
      "siteUnitNumber": 12614,
      "bathingSite": "TOTLAND BAY",
      "eventStart": "2023-11-02T07:07:18",
      "eventStop": "2023-11-02T07:12:49",
      "duration": 5,
      "status": "Genuine",
      "associatedSiteId": 115498,
      "outfallName": "NORTON TRANSFER IOW",
      "isImpacting": true,
      "overFlowSiteId": 0,
      "historicSpillsList": [
        {
          "id": 345491072,
          "eventId": 891177,
          "siteUnitNumber": 12614,
          "bathingSite": "TOTLAND BAY",
          "eventStart": "2023-11-02T07:07:18",
          "eventStop": "2023-11-02T07:12:49",
          "duration": 5,
          "status": "Genuine",
          "associatedSiteId": 115498,
          "outfallName": "NORTON TRANSFER IOW",
          "isImpacting": true,
          "overFlowSiteId": 109524
        },
        {
          "id": 345491073,
          "eventId": 891177,
          "siteUnitNumber": 12615,
          "bathingSite": "COLWELL BAY",
          "eventStart": "2023-11-02T07:07:18",
          "eventStop": "2023-11-02T07:12:49",
          "duration": 5,
          "status": "Genuine",
          "associatedSiteId": 115498,
          "outfallName": "NORTON TRANSFER IOW",
          "isImpacting": true,
          "overFlowSiteId": 109524,
          "historicSpillsList": []
        }
      ]
    },
    {
      "id": 345454819,
      "eventId": 891238,
      "siteUnitNumber": 12549,
      "bathingSite": "HERNE BAY CENTRAL",
      "eventStart": "2023-11-02T06:54:40",
      "eventStop": "2023-11-02T07:11:29",
      "duration": 16,
      "status": "Not Genuine",
      "associatedSiteId": 109678,
      "outfallName": "EDDINGTON LANE HERNE BAY NO2",
      "isImpacting": false,
      "overFlowSiteId": 0,
      "historicSpillsList": []
    },
    {
      "id": 345460921,
      "eventId": 891110,
      "siteUnitNumber": 12618,
      "bathingSite": "RYDE",
      "eventStart": "2023-11-02T06:20:45",
      "eventStop": "2023-11-02T07:10:00",
      "duration": 49,
      "status": "Genuine",
      "associatedSiteId": 109779,
      "outfallName": "ASHEY ROAD RYDE",
      "isImpacting": false,
      "overFlowSiteId": 0,
      "historicSpillsList": []
    },
    {
      "id": 345491074,
      "eventId": 891164,
      "siteUnitNumber": 12614,
      "bathingSite": "TOTLAND BAY",
      "eventStart": "2023-11-02T06:56:52",
      "eventStop": "2023-11-02T07:06:13",
      "duration": 9,
      "status": "Genuine",
      "associatedSiteId": 115498,
      "outfallName": "NORTON TRANSFER IOW",
      "isImpacting": true,
      "overFlowSiteId": 0,
      "historicSpillsList": [
        {
          "id": 345491074,
          "eventId": 891164,
          "siteUnitNumber": 12614,
          "bathingSite": "TOTLAND BAY",
          "eventStart": "2023-11-02T06:56:52",
          "eventStop": "2023-11-02T07:06:13",
          "duration": 9,
          "status": "Genuine",
          "associatedSiteId": 115498,
          "outfallName": "NORTON TRANSFER IOW",
          "isImpacting": true,
          "overFlowSiteId": 109524
        },
        {
          "id": 345491075,
          "eventId": 891164,
          "siteUnitNumber": 12615,
          "bathingSite": "COLWELL BAY",
          "eventStart": "2023-11-02T06:56:52",
          "eventStop": "2023-11-02T07:06:13",
          "duration": 9,
          "status": "Genuine",
          "associatedSiteId": 115498,
          "outfallName": "NORTON TRANSFER IOW",
          "isImpacting": true,
          "overFlowSiteId": 109524,
          "historicSpillsList": []
        }
      ]
    },
    {
      "id": 345470522,
      "eventId": 891150,
      "siteUnitNumber": 12589,
      "bathingSite": "LANCING BEACH GREEN",
      "eventStart": "2023-11-02T06:41:49",
      "eventStop": "2023-11-02T07:01:00",
      "duration": 19,
      "status": "Genuine",
      "associatedSiteId": 109920,
      "outfallName": "CORTIS AVENUE WORTHING",
      "isImpacting": true,
      "overFlowSiteId": 0,
      "historicSpillsList": [
        {
          "id": 345470522,
          "eventId": 891150,
          "siteUnitNumber": 12589,
          "bathingSite": "LANCING BEACH GREEN",
          "eventStart": "2023-11-02T06:41:49",
          "eventStop": "2023-11-02T07:01:00",
          "duration": 19,
          "status": "Genuine",
          "associatedSiteId": 109920,
          "outfallName": "CORTIS AVENUE WORTHING",
          "isImpacting": true,
          "overFlowSiteId": 108212
        },
        {
          "id": 345470523,
          "eventId": 891150,
          "siteUnitNumber": 12590,
          "bathingSite": "WORTHING",
          "eventStart": "2023-11-02T06:41:49",
          "eventStop": "2023-11-02T07:01:00",
          "duration": 19,
          "status": "Genuine",
          "associatedSiteId": 109920,
          "outfallName": "CORTIS AVENUE WORTHING",
          "isImpacting": true,
          "overFlowSiteId": 108212,
          "historicSpillsList": []
        }
      ]
    },
    {
      "id": 345454823,
      "eventId": 891169,
      "siteUnitNumber": 12549,
      "bathingSite": "HERNE BAY CENTRAL",
      "eventStart": "2023-11-02T06:52:17",
      "eventStop": "2023-11-02T06:54:40",
      "duration": 2,
      "status": "Genuine",
      "associatedSiteId": 109678,
      "outfallName": "EDDINGTON LANE HERNE BAY NO2",
      "isImpacting": false,
      "overFlowSiteId": 0,
      "historicSpillsList": []
    },
    {
      "id": 345491076,
      "eventId": 891116,
      "siteUnitNumber": 12615,
      "bathingSite": "COLWELL BAY",
      "eventStart": "2023-11-02T06:34:09",
      "eventStop": "2023-11-02T06:54:04",
      "duration": 19,
      "status": "Genuine",
      "associatedSiteId": 115498,
      "outfallName": "NORTON TRANSFER IOW",
      "isImpacting": true,
      "overFlowSiteId": 0,
      "historicSpillsList": [
        {
          "id": 345491076,
          "eventId": 891116,
          "siteUnitNumber": 12615,
          "bathingSite": "COLWELL BAY",
          "eventStart": "2023-11-02T06:34:09",
          "eventStop": "2023-11-02T06:54:04",
          "duration": 19,
          "status": "Genuine",
          "associatedSiteId": 115498,
          "outfallName": "NORTON TRANSFER IOW",
          "isImpacting": true,
          "overFlowSiteId": 109524
        },
        {
          "id": 345491077,
          "eventId": 891116,
          "siteUnitNumber": 12614,
          "bathingSite": "TOTLAND BAY",
          "eventStart": "2023-11-02T06:34:09",
          "eventStop": "2023-11-02T06:54:04",
          "duration": 19,
          "status": "Genuine",
          "associatedSiteId": 115498,
          "outfallName": "NORTON TRANSFER IOW",
          "isImpacting": true,
          "overFlowSiteId": 109524,
          "historicSpillsList": []
        }
      ]
    }
  ]
}