{
  "currentPage": 219,
  "totalItems": 21025,
  "totalPages": 841,
  "items": [
    {
      "id": 344790533,
      "eventId": 860423,
      "siteUnitNumber": 12621,
      "bathingSite": "BEMBRIDGE",
      "eventStart": "2023-09-17T13:01:00",
      "eventStop": "2023-09-17T15:53:00",
      "duration": 172,
      "status": "Genuine",
      "associatedSiteId": 109939,
      "outfallName": "LANE END ROAD BEMBRIDGE",
      "isImpacting": true,
      "overFlowSiteId": 0,
      "historicSpillsList": [
        {
          "id": 344790533,
          "eventId": 860423,
          "siteUnitNumber": 12621,
          "bathingSite": "BEMBRIDGE",
          "eventStart": "2023-09-17T13:01:00",
          "eventStop": "2023-09-17T15:53:00",
          "duration": 172,
          "status": "Genuine",
          "associatedSiteId": 109939,
          "outfallName": "LANE END ROAD BEMBRIDGE",
          "isImpacting": true,
          "overFlowSiteId": 108533
        }
      ]
    },
    {
      "id": 344775165,
      "eventId": 859543,
      "siteUnitNumber": 12616,
      "bathingSite": "GURNARD",
      "eventStart": "2023-09-17T12:46:00",
      "eventStop": "2023-09-17T15:43:00",
      "duration": 177,
      "status": "Genuine",
      "associatedSiteId": 109705,
      "outfallName": "SPRINGHILL COWES TRANSFER",
      "isImpacting": true,
      "overFlowSiteId": 0,
      "historicSpillsList": [
        {
          "id": 344775166,
          "eventId": 859543,
          "siteUnitNumber": 12617,
          "bathingSite": "COWES",
          "eventStart": "2023-09-17T12:46:00",
          "eventStop": "2023-09-17T15:43:00",
          "duration": 177,
          "status": "Genuine",
          "associatedSiteId": 109705,
          "outfallName": "SPRINGHILL COWES TRANSFER",
          "isImpacting": true,
          "overFlowSiteId": 108943,
          "historicSpillsList": []
        }
      ]
    },
    {
      "id": 344790101,
      "eventId": 859484,
      "siteUnitNumber": 12621,
      "bathingSite": "BEMBRIDGE",
      "eventStart": "2023-09-17T11:49:00",
      "eventStop": "2023-09-17T15:25:00",
      "duration": 216,
      "status": "Genuine",
      "associatedSiteId": 109937,
      "outfallName": "HILLWAY BEMBRIDGE",
      "isImpacting": false,
      "overFlowSiteId": 0,
      "historicSpillsList": []
    },
    {
      "id": 344770649,
      "eventId": 859465,
      "siteUnitNumber": 12616,
      "bathingSite": "GURNARD",
      "eventStart": "2023-09-17T11:34:08",
      "eventStop": "2023-09-17T15:03:00",
      "duration": 208,
      "status": "Genuine",
      "associatedSiteId": 109652,
      "outfallName": "WOODVALE TRANSFER NO1",
      "isImpacting": true,
      "overFlowSiteId": 0,
      "historicSpillsList": [
        {
          "id": 344770649,
          "eventId": 859465,
          "siteUnitNumber": 12616,
          "bathingSite": "GURNARD",
          "eventStart": "2023-09-17T11:34:08",
          "eventStop": "2023-09-17T15:03:00",
          "duration": 208,
          "status": "Genuine",
          "associatedSiteId": 109652,
          "outfallName": "WOODVALE TRANSFER NO1",
          "isImpacting": true,
          "overFlowSiteId": 115966
        },
        {
          "id": 344770650,
          "eventId": 859465,
          "siteUnitNumber": 12617,
          "bathingSite": "COWES",
          "eventStart": "2023-09-17T11:34:08",
          "eventStop": "2023-09-17T15:03:00",
          "duration": 208,
          "status": "Genuine",
          "associatedSiteId": 109652,
          "outfallName": "WOODVALE TRANSFER NO1",
          "isImpacting": true,
          "overFlowSiteId": 115966,
          "historicSpillsList": []
        }
      ]
    },
    {
      "id": 344781260,
      "eventId": 859574,
      "siteUnitNumber": 12661,
      "bathingSite": "LANGSTONE HARBOUR",
      "eventStart": "2023-09-17T13:15:00",
      "eventStop": "2023-09-17T14:49:00",
      "duration": 94,
      "status": "Genuine",
      "associatedSiteId": 109823,
      "outfallName": "FORT CUMBERLAND NO1",
      "isImpacting": true,
      "overFlowSiteId": 0,
      "historicSpillsList": [
        {
          "id": 344781260,
          "eventId": 859574,
          "siteUnitNumber": 12661,
          "bathingSite": "LANGSTONE HARBOUR",
          "eventStart": "2023-09-17T13:15:00",
          "eventStop": "2023-09-17T14:49:00",
          "duration": 94,
          "status": "Genuine",
          "associatedSiteId": 109823,
          "outfallName": "FORT CUMBERLAND NO1",
          "isImpacting": true,
          "overFlowSiteId": 110658
        },
        {
          "id": 344781263,
          "eventId": 859574,
          "siteUnitNumber": 12603,
          "bathingSite": "EASTNEY",
          "eventStart": "2023-09-17T13:15:00",
          "eventStop": "2023-09-17T14:49:00",
          "duration": 94,
          "status": "Genuine",
          "associatedSiteId": 109823,
          "outfallName": "FORT CUMBERLAND NO1",
          "isImpacting": true,
          "overFlowSiteId": 110658,
          "historicSpillsList": []
        }
      ]
    },
    {
      "id": 344779228,
      "eventId": 859501,
      "siteUnitNumber": 12618,
      "bathingSite": "RYDE",
      "eventStart": "2023-09-17T12:13:00",
      "eventStop": "2023-09-17T14:44:00",
      "duration": 151,
      "status": "Genuine",
      "associatedSiteId": 109778,
      "outfallName": "PRINCE CONSORT RYDE NEW",
      "isImpacting": true,
      "overFlowSiteId": 0,
      "historicSpillsList": [
        {
          "id": 344779228,
          "eventId": 859501,
          "siteUnitNumber": 12618,
          "bathingSite": "RYDE",
          "eventStart": "2023-09-17T12:13:00",
          "eventStop": "2023-09-17T14:44:00",
          "duration": 151,
          "status": "Genuine",
          "associatedSiteId": 109778,
          "outfallName": "PRINCE CONSORT RYDE NEW",
          "isImpacting": true,
          "overFlowSiteId": 108043
        }
      ]
    },
    {
      "id": 344779891,
      "eventId": 860166,
      "siteUnitNumber": 12618,
      "bathingSite": "RYDE",
      "eventStart": "2023-09-17T13:20:00",
      "eventStop": "2023-09-17T14:20:00",
      "duration": 60,
      "status": "Genuine",
      "associatedSiteId": 109789,
      "outfallName": "SEAGROVE BAY",
      "isImpacting": true,
      "overFlowSiteId": 0,
      "historicSpillsList": [
        {
          "id": 344779891,
          "eventId": 860166,
          "siteUnitNumber": 12618,
          "bathingSite": "RYDE",
          "eventStart": "2023-09-17T13:20:00",
          "eventStop": "2023-09-17T14:20:00",
          "duration": 60,
          "status": "Genuine",
          "associatedSiteId": 109789,
          "outfallName": "SEAGROVE BAY",
          "isImpacting": true,
          "overFlowSiteId": 100244
        },
        {
          "id": 344779892,
          "eventId": 860166,
          "siteUnitNumber": 12619,
          "bathingSite": "SEAGROVE",
          "eventStart": "2023-09-17T13:20:00",
          "eventStop": "2023-09-17T14:20:00",
          "duration": 60,
          "status": "Genuine",
          "associatedSiteId": 109789,
          "outfallName": "SEAGROVE BAY",
          "isImpacting": true,
          "overFlowSiteId": 100244,
          "historicSpillsList": []
        },
        {
          "id": 344779893,
          "eventId": 860166,
          "siteUnitNumber": 12620,
          "bathingSite": "ST HELENS",
          "eventStart": "2023-09-17T13:20:00",
          "eventStop": "2023-09-17T14:20:00",
          "duration": 60,
          "status": "Genuine",
          "associatedSiteId": 109789,
          "outfallName": "SEAGROVE BAY",
          "isImpacting": true,
          "overFlowSiteId": 100244,
          "historicSpillsList": []
        }
      ]
    },
    {
      "id": 344809534,
      "eventId": 859477,
      "siteUnitNumber": 12615,
      "bathingSite": "COLWELL BAY",
      "eventStart": "2023-09-17T11:44:18",
      "eventStop": "2023-09-17T14:17:00",
      "duration": 152,
      "status": "Genuine",
      "associatedSiteId": 115498,
      "outfallName": "NORTON TRANSFER IOW",
      "isImpacting": true,
      "overFlowSiteId": 0,
      "historicSpillsList": [
        {
          "id": 344809534,
          "eventId": 859477,
          "siteUnitNumber": 12615,
          "bathingSite": "COLWELL BAY",
          "eventStart": "2023-09-17T11:44:18",
          "eventStop": "2023-09-17T14:17:00",
          "duration": 152,
          "status": "Genuine",
          "associatedSiteId": 115498,
          "outfallName": "NORTON TRANSFER IOW",
          "isImpacting": true,
          "overFlowSiteId": 109524
        },
        {
          "id": 344809535,
          "eventId": 859477,
          "siteUnitNumber": 12614,
          "bathingSite": "TOTLAND BAY",
          "eventStart": "2023-09-17T11:44:18",
          "eventStop": "2023-09-17T14:17:00",
          "duration": 152,
          "status": "Genuine",
          "associatedSiteId": 115498,
          "outfallName": "NORTON TRANSFER IOW",
          "isImpacting": true,
          "overFlowSiteId": 109524,
          "historicSpillsList": []
        }
      ]
    },
    {
      "id": 344806086,
      "eventId": 859397,
      "siteUnitNumber": 12620,
      "bathingSite": "ST HELENS",
      "eventStart": "2023-09-17T10:56:00",
      "eventStop": "2023-09-17T13:56:00",
      "duration": 180,
      "status": "Genuine",
      "associatedSiteId": 110761,
      "outfallName": "BRADING",
      "isImpacting": true,
      "overFlowSiteId": 0,
      "historicSpillsList": [
        {
          "id": 344806086,
          "eventId": 859397,
          "siteUnitNumber": 12620,
          "bathingSite": "ST HELENS",
          "eventStart": "2023-09-17T10:56:00",
          "eventStop": "2023-09-17T13:56:00",
          "duration": 180,
          "status": "Genuine",
          "associatedSiteId": 110761,
          "outfallName": "BRADING",
          "isImpacting": true,
          "overFlowSiteId": 113676
        }
      ]
    },
    {
      "id": 344780375,
      "eventId": 859530,
      "siteUnitNumber": 12661,
      "bathingSite": "LANGSTONE HARBOUR",
      "eventStart": "2023-09-17T12:20:20",
      "eventStop": "2023-09-17T13:55:00",
      "duration": 94,
      "status": "Genuine",
      "associatedSiteId": 109819,
      "outfallName": "COURT LANE COSHAM",
      "isImpacting": true,
      "overFlowSiteId": 0,
      "historicSpillsList": [
        {
          "id": 344780375,
          "eventId": 859530,
          "siteUnitNumber": 12661,
          "bathingSite": "LANGSTONE HARBOUR",
          "eventStart": "2023-09-17T12:20:20",
          "eventStop": "2023-09-17T13:55:00",
          "duration": 94,
          "status": "Genuine",
          "associatedSiteId": 109819,
          "outfallName": "COURT LANE COSHAM",
          "isImpacting": true,
          "overFlowSiteId": 115958
        }
      ]
    },
    {
      "id": 344777445,
      "eventId": 859621,
      "siteUnitNumber": 12661,
      "bathingSite": "LANGSTONE HARBOUR",
      "eventStart": "2023-09-17T13:19:00",
      "eventStop": "2023-09-17T13:52:00",
      "duration": 33,
      "status": "Genuine",
      "associatedSiteId": 109772,
      "outfallName": "BUDDS FARM HAVANT NO1",
      "isImpacting": true,
      "overFlowSiteId": 0,
      "historicSpillsList": [
        {
          "id": 344777445,
          "eventId": 859621,
          "siteUnitNumber": 12661,
          "bathingSite": "LANGSTONE HARBOUR",
          "eventStart": "2023-09-17T13:19:00",
          "eventStop": "2023-09-17T13:52:00",
          "duration": 33,
          "status": "Genuine",
          "associatedSiteId": 109772,
          "outfallName": "BUDDS FARM HAVANT NO1",
          "isImpacting": true,
          "overFlowSiteId": 116073
        }
      ]
    },
    {
      "id": 344780252,
      "eventId": 859508,
      "siteUnitNumber": 12661,
      "bathingSite": "LANGSTONE HARBOUR",
      "eventStart": "2023-09-17T11:54:15",
      "eventStop": "2023-09-17T13:45:00",
      "duration": 110,
      "status": "Genuine",
      "associatedSiteId": 109817,
      "outfallName": "MAINLAND DRAYTON",
      "isImpacting": true,
      "overFlowSiteId": 0,
      "historicSpillsList": [
        {
          "id": 344780252,
          "eventId": 859508,
          "siteUnitNumber": 12661,
          "bathingSite": "LANGSTONE HARBOUR",
          "eventStart": "2023-09-17T11:54:15",
          "eventStop": "2023-09-17T13:45:00",
          "duration": 110,
          "status": "Genuine",
          "associatedSiteId": 109817,
          "outfallName": "MAINLAND DRAYTON",
          "isImpacting": true,
          "overFlowSiteId": 115960
        }
      ]
    },
    {
      "id": 344770467,
      "eventId": 859461,
      "siteUnitNumber": 12616,
      "bathingSite": "GURNARD",
      "eventStart": "2023-09-17T11:31:26",
      "eventStop": "2023-09-17T13:43:57",
      "duration": 132,
      "status": "Genuine",
      "associatedSiteId": 109650,
      "outfallName": "MARSH ROAD GURNARD",
      "isImpacting": false,
      "overFlowSiteId": 0,
      "historicSpillsList": []
    },
    {
      "id": 344804813,
      "eventId": 859545,
      "siteUnitNumber": 12617,
      "bathingSite": "COWES",
      "eventStart": "2023-09-17T10:41:00",
      "eventStop": "2023-09-17T13:38:00",
      "duration": 177,
      "status": "Genuine",
      "associatedSiteId": 110701,
      "outfallName": "TERMINUS ROAD COWES 2",
      "isImpacting": true,
      "overFlowSiteId": 0,
      "historicSpillsList": [
        {
          "id": 344804813,
          "eventId": 859545,
          "siteUnitNumber": 12617,
          "bathingSite": "COWES",
          "eventStart": "2023-09-17T10:41:00",
          "eventStop": "2023-09-17T13:38:00",
          "duration": 177,
          "status": "Genuine",
          "associatedSiteId": 110701,
          "outfallName": "TERMINUS ROAD COWES 2",
          "isImpacting": true,
          "overFlowSiteId": 108562
        },
        {
          "id": 344804814,
          "eventId": 859545,
          "siteUnitNumber": 12616,
          "bathingSite": "GURNARD",
          "eventStart": "2023-09-17T10:41:00",
          "eventStop": "2023-09-17T13:38:00",
          "duration": 177,
          "status": "Genuine",
          "associatedSiteId": 110701,
          "outfallName": "TERMINUS ROAD COWES 2",
          "isImpacting": true,
          "overFlowSiteId": 108562,
          "historicSpillsList": []
        }
      ]
    },
    {
      "id": 344780327,
      "eventId": 859511,
      "siteUnitNumber": 12661,
      "bathingSite": "LANGSTONE HARBOUR",
      "eventStart": "2023-09-17T12:00:00",
      "eventStop": "2023-09-17T13:11:00",
      "duration": 71,
      "status": "Genuine",
      "associatedSiteId": 109818,
      "outfallName": "KIRTLEY CLOSE DRAYTON",
      "isImpacting": true,
      "overFlowSiteId": 0,
      "historicSpillsList": [
        {
          "id": 344780327,
          "eventId": 859511,
          "siteUnitNumber": 12661,
          "bathingSite": "LANGSTONE HARBOUR",
          "eventStart": "2023-09-17T12:00:00",
          "eventStop": "2023-09-17T13:11:00",
          "duration": 71,
          "status": "Genuine",
          "associatedSiteId": 109818,
          "outfallName": "KIRTLEY CLOSE DRAYTON",
          "isImpacting": true,
          "overFlowSiteId": 108774
        }
      ]
    },
    {
      "id": 344806247,
      "eventId": 859513,
      "siteUnitNumber": 12582,
      "bathingSite": "SEAFORD",
      "eventStart": "2023-09-17T12:00:09",
      "eventStop": "2023-09-17T13:04:25",
      "duration": 64,
      "status": "Genuine",
      "associatedSiteId": 110920,
      "outfallName": "NEWHAVEN",
      "isImpacting": false,
      "overFlowSiteId": 0,
      "historicSpillsList": []
    },
    {
      "id": 344776223,
      "eventId": 859451,
      "siteUnitNumber": 12606,
      "bathingSite": "LEE-ON-SOLENT",
      "eventStart": "2023-09-17T11:40:08",
      "eventStop": "2023-09-17T13:01:15",
      "duration": 81,
      "status": "Genuine",
      "associatedSiteId": 109715,
      "outfallName": "SALTERNS ROAD HILL HEAD",
      "isImpacting": true,
      "overFlowSiteId": 0,
      "historicSpillsList": [
        {
          "id": 344776224,
          "eventId": 859451,
          "siteUnitNumber": 12607,
          "bathingSite": "HILLHEAD",
          "eventStart": "2023-09-17T11:40:08",
          "eventStop": "2023-09-17T13:01:15",
          "duration": 81,
          "status": "Genuine",
          "associatedSiteId": 109715,
          "outfallName": "SALTERNS ROAD HILL HEAD",
          "isImpacting": true,
          "overFlowSiteId": 108441,
          "historicSpillsList": []
        }
      ]
    },
    {
      "id": 344790536,
      "eventId": 860422,
      "siteUnitNumber": 12620,
      "bathingSite": "ST HELENS",
      "eventStart": "2023-09-17T11:50:00",
      "eventStop": "2023-09-17T13:01:00",
      "duration": 71,
      "status": "Genuine",
      "associatedSiteId": 109939,
      "outfallName": "LANE END ROAD BEMBRIDGE",
      "isImpacting": true,
      "overFlowSiteId": 0,
      "historicSpillsList": [
        {
          "id": 344790537,
          "eventId": 860422,
          "siteUnitNumber": 12621,
          "bathingSite": "BEMBRIDGE",
          "eventStart": "2023-09-17T11:50:00",
          "eventStop": "2023-09-17T13:01:00",
          "duration": 71,
          "status": "Genuine",
          "associatedSiteId": 109939,
          "outfallName": "LANE END ROAD BEMBRIDGE",
          "isImpacting": true,
          "overFlowSiteId": 108533,
          "historicSpillsList": []
        }
      ]
    },
    {
      "id": 344790318,
      "eventId": 859373,
      "siteUnitNumber": 12619,
      "bathingSite": "SEAGROVE",
      "eventStart": "2023-09-17T10:29:26",
      "eventStop": "2023-09-17T12:59:00",
      "duration": 149,
      "status": "Genuine",
      "associatedSiteId": 109938,
      "outfallName": "THE POINT BEMBRIDGE",
      "isImpacting": false,
      "overFlowSiteId": 0,
      "historicSpillsList": []
    },
    {
      "id": 344777846,
      "eventId": 859496,
      "siteUnitNumber": 12600,
      "bathingSite": "EASTOKE",
      "eventStart": "2023-09-17T12:00:00",
      "eventStop": "2023-09-17T12:56:00",
      "duration": 56,
      "status": "Genuine",
      "associatedSiteId": 109775,
      "outfallName": "GREEN LANE HAYLING ISLAND",
      "isImpacting": true,
      "overFlowSiteId": 0,
      "historicSpillsList": [
        {
          "id": 344777846,
          "eventId": 859496,
          "siteUnitNumber": 12600,
          "bathingSite": "EASTOKE",
          "eventStart": "2023-09-17T12:00:00",
          "eventStop": "2023-09-17T12:56:00",
          "duration": 56,
          "status": "Genuine",
          "associatedSiteId": 109775,
          "outfallName": "GREEN LANE HAYLING ISLAND",
          "isImpacting": true,
          "overFlowSiteId": 108769
        },
        {
          "id": 344777847,
          "eventId": 859496,
          "siteUnitNumber": 12601,
          "bathingSite": "BEACHLANDS CENTRAL",
          "eventStart": "2023-09-17T12:00:00",
          "eventStop": "2023-09-17T12:56:00",
          "duration": 56,
          "status": "Genuine",
          "associatedSiteId": 109775,
          "outfallName": "GREEN LANE HAYLING ISLAND",
          "isImpacting": true,
          "overFlowSiteId": 108769,
          "historicSpillsList": []
        },
        {
          "id": 344777848,
          "eventId": 859496,
          "siteUnitNumber": 12602,
          "bathingSite": "BEACHLANDS WEST",
          "eventStart": "2023-09-17T12:00:00",
          "eventStop": "2023-09-17T12:56:00",
          "duration": 56,
          "status": "Genuine",
          "associatedSiteId": 109775,
          "outfallName": "GREEN LANE HAYLING ISLAND",
          "isImpacting": true,
          "overFlowSiteId": 108769,
          "historicSpillsList": []
        }
      ]
    },
    {
      "id": 344780427,
      "eventId": 859446,
      "siteUnitNumber": 12661,
      "bathingSite": "LANGSTONE HARBOUR",
      "eventStart": "2023-09-17T11:28:00",
      "eventStop": "2023-09-17T12:45:00",
      "duration": 77,
      "status": "Not Genuine",
      "associatedSiteId": 109820,
      "outfallName": "ST ANDREWS ROAD PORTSMOUTH",
      "isImpacting": true,
      "overFlowSiteId": 0,
      "historicSpillsList": []
    },
    {
      "id": 344804815,
      "eventId": 859380,
      "siteUnitNumber": 12616,
      "bathingSite": "GURNARD",
      "eventStart": "2023-09-17T10:37:52",
      "eventStop": "2023-09-17T12:45:00",
      "duration": 127,
      "status": "Genuine",
      "associatedSiteId": 110701,
      "outfallName": "TERMINUS ROAD COWES 2",
      "isImpacting": true,
      "overFlowSiteId": 0,
      "historicSpillsList": [
        {
          "id": 344804815,
          "eventId": 859380,
          "siteUnitNumber": 12616,
          "bathingSite": "GURNARD",
          "eventStart": "2023-09-17T10:37:52",
          "eventStop": "2023-09-17T12:45:00",
          "duration": 127,
          "status": "Genuine",
          "associatedSiteId": 110701,
          "outfallName": "TERMINUS ROAD COWES 2",
          "isImpacting": true,
          "overFlowSiteId": 108563
        },
        {
          "id": 344804816,
          "eventId": 859380,
          "siteUnitNumber": 12617,
          "bathingSite": "COWES",
          "eventStart": "2023-09-17T10:37:52",
          "eventStop": "2023-09-17T12:45:00",
          "duration": 127,
          "status": "Genuine",
          "associatedSiteId": 110701,
          "outfallName": "TERMINUS ROAD COWES 2",
          "isImpacting": true,
          "overFlowSiteId": 108563,
          "historicSpillsList": []
        }
      ]
    },
    {
      "id": 344780456,
      "eventId": 860163,
      "siteUnitNumber": 12604,
      "bathingSite": "SOUTHSEA EAST",
      "eventStart": "2023-09-17T12:28:00",
      "eventStop": "2023-09-17T12:30:00",
      "duration": 2,
      "status": "Genuine",
      "associatedSiteId": 109822,
      "outfallName": "PIER ROAD SOUTHSEA",
      "isImpacting": true,
      "overFlowSiteId": 0,
      "historicSpillsList": [
        {
          "id": 344780456,
          "eventId": 860163,
          "siteUnitNumber": 12604,
          "bathingSite": "SOUTHSEA EAST",
          "eventStart": "2023-09-17T12:28:00",
          "eventStop": "2023-09-17T12:30:00",
          "duration": 2,
          "status": "Genuine",
          "associatedSiteId": 109822,
          "outfallName": "PIER ROAD SOUTHSEA",
          "isImpacting": true,
          "overFlowSiteId": 108469
        },
        {
          "id": 344780457,
          "eventId": 860163,
          "siteUnitNumber": 12605,
          "bathingSite": "STOKES BAY",
          "eventStart": "2023-09-17T12:28:00",
          "eventStop": "2023-09-17T12:30:00",
          "duration": 2,
          "status": "Genuine",
          "associatedSiteId": 109822,
          "outfallName": "PIER ROAD SOUTHSEA",
          "isImpacting": true,
          "overFlowSiteId": 108469,
          "historicSpillsList": []
        }
      ]
    },
    {
      "id": 344779386,
      "eventId": 859398,
      "siteUnitNumber": 12618,
      "bathingSite": "RYDE",
      "eventStart": "2023-09-17T10:59:00",
      "eventStop": "2023-09-17T12:22:00",
      "duration": 83,
      "status": "Genuine",
      "associatedSiteId": 109780,
      "outfallName": "LADIES WALK BINSTEAD",
      "isImpacting": true,
      "overFlowSiteId": 0,
      "historicSpillsList": [
        {
          "id": 344779386,
          "eventId": 859398,
          "siteUnitNumber": 12618,
          "bathingSite": "RYDE",
          "eventStart": "2023-09-17T10:59:00",
          "eventStop": "2023-09-17T12:22:00",
          "duration": 83,
          "status": "Genuine",
          "associatedSiteId": 109780,
          "outfallName": "LADIES WALK BINSTEAD",
          "isImpacting": true,
          "overFlowSiteId": 107406
        }
      ]
    },
    {
      "id": 344779894,
      "eventId": 859387,
      "siteUnitNumber": 12618,
      "bathingSite": "RYDE",
      "eventStart": "2023-09-17T10:44:47",
      "eventStop": "2023-09-17T12:20:00",
      "duration": 95,
      "status": "Genuine",
      "associatedSiteId": 109789,
      "outfallName": "SEAGROVE BAY",
      "isImpacting": true,
      "overFlowSiteId": 0,
      "historicSpillsList": [
        {
          "id": 344779894,
          "eventId": 859387,
          "siteUnitNumber": 12618,
          "bathingSite": "RYDE",
          "eventStart": "2023-09-17T10:44:47",
          "eventStop": "2023-09-17T12:20:00",
          "duration": 95,
          "status": "Genuine",
          "associatedSiteId": 109789,
          "outfallName": "SEAGROVE BAY",
          "isImpacting": true,
          "overFlowSiteId": 100244
        },
        {
          "id": 344779895,
          "eventId": 859387,
          "siteUnitNumber": 12619,
          "bathingSite": "SEAGROVE",
          "eventStart": "2023-09-17T10:44:47",
          "eventStop": "2023-09-17T12:20:00",
          "duration": 95,
          "status": "Genuine",
          "associatedSiteId": 109789,
          "outfallName": "SEAGROVE BAY",
          "isImpacting": true,
          "overFlowSiteId": 100244,
          "historicSpillsList": []
        },
        {
          "id": 344779896,
          "eventId": 859387,
          "siteUnitNumber": 12620,
          "bathingSite": "ST HELENS",
          "eventStart": "2023-09-17T10:44:47",
          "eventStop": "2023-09-17T12:20:00",
          "duration": 95,
          "status": "Genuine",
          "associatedSiteId": 109789,
          "outfallName": "SEAGROVE BAY",
          "isImpacting": true,
          "overFlowSiteId": 100244,
          "historicSpillsList": []
        }
      ]
    }
  ]
}