{
  "currentPage": 435,
  "totalItems": 21025,
  "totalPages": 841,
  "items": [
    {
      "id": 344779654,
      "eventId": 702212,
      "siteUnitNumber": 12618,
      "bathingSite": "RYDE",
      "eventStart": "2022-12-23T09:17:53",
      "eventStop": "2022-12-23T12:35:18",
      "duration": 197,
      "status": "Genuine",
      "associatedSiteId": 109787,
      "outfallName": "SALTERNS ROAD SEAVIEW",
      "isImpacting": true,
      "overFlowSiteId": 0,
      "historicSpillsList": [
        {
          "id": 344779654,
          "eventId": 702212,
          "siteUnitNumber": 12618,
          "bathingSite": "RYDE",
          "eventStart": "2022-12-23T09:17:53",
          "eventStop": "2022-12-23T12:35:18",
          "duration": 197,
          "status": "Genuine",
          "associatedSiteId": 109787,
          "outfallName": "SALTERNS ROAD SEAVIEW",
          "isImpacting": true,
          "overFlowSiteId": 107411
        },
        {
          "id": 344779655,
          "eventId": 702212,
          "siteUnitNumber": 12619,
          "bathingSite": "SEAGROVE",
          "eventStart": "2022-12-23T09:17:53",
          "eventStop": "2022-12-23T12:35:18",
          "duration": 197,
          "status": "Genuine",
          "associatedSiteId": 109787,
          "outfallName": "SALTERNS ROAD SEAVIEW",
          "isImpacting": true,
          "overFlowSiteId": 107411,
          "historicSpillsList": []
        },
        {
          "id": 344779656,
          "eventId": 702212,
          "siteUnitNumber": 12620,
          "bathingSite": "ST HELENS",
          "eventStart": "2022-12-23T09:17:53",
          "eventStop": "2022-12-23T12:35:18",
          "duration": 197,
          "status": "Genuine",
          "associatedSiteId": 109787,
          "outfallName": "SALTERNS ROAD SEAVIEW",
          "isImpacting": true,
          "overFlowSiteId": 107411,
          "historicSpillsList": []
        }
      ]
    },
    {
      "id": 344770135,
      "eventId": 702636,
      "siteUnitNumber": 12544,
      "bathingSite": "SHEERNESS",
      "eventStart": "2022-12-23T12:14:00",
      "eventStop": "2022-12-23T12:17:00",
      "duration": 3,
      "status": "Genuine",
      "associatedSiteId": 109616,
      "outfallName": "SOUTH STREET QUEENBOROUGH",
      "isImpacting": true,
      "overFlowSiteId": 0,
      "historicSpillsList": [
        {
          "id": 344770135,
          "eventId": 702636,
          "siteUnitNumber": 12544,
          "bathingSite": "SHEERNESS",
          "eventStart": "2022-12-23T12:14:00",
          "eventStop": "2022-12-23T12:17:00",
          "duration": 3,
          "status": "Genuine",
          "associatedSiteId": 109616,
          "outfallName": "SOUTH STREET QUEENBOROUGH",
          "isImpacting": true,
          "overFlowSiteId": 108732
        }
      ]
    },
    {
      "id": 344784930,
      "eventId": 702812,
      "siteUnitNumber": 12568,
      "bathingSite": "SANDGATE",
      "eventStart": "2022-12-23T12:07:34",
      "eventStop": "2022-12-23T12:13:46",
      "duration": 6,
      "status": "Genuine",
      "associatedSiteId": 109896,
      "outfallName": "RANGE ROAD HYTHE K SHORT",
      "isImpacting": true,
      "overFlowSiteId": 0,
      "historicSpillsList": [
        {
          "id": 344784931,
          "eventId": 702812,
          "siteUnitNumber": 12569,
          "bathingSite": "HYTHE",
          "eventStart": "2022-12-23T12:07:34",
          "eventStop": "2022-12-23T12:13:46",
          "duration": 6,
          "status": "Genuine",
          "associatedSiteId": 109896,
          "outfallName": "RANGE ROAD HYTHE K SHORT",
          "isImpacting": true,
          "overFlowSiteId": 116112,
          "historicSpillsList": []
        }
      ]
    },
    {
      "id": 344809754,
      "eventId": 701827,
      "siteUnitNumber": 12614,
      "bathingSite": "TOTLAND BAY",
      "eventStart": "2022-12-23T05:40:00",
      "eventStop": "2022-12-23T12:13:00",
      "duration": 393,
      "status": "Genuine",
      "associatedSiteId": 115498,
      "outfallName": "NORTON TRANSFER IOW",
      "isImpacting": true,
      "overFlowSiteId": 0,
      "historicSpillsList": [
        {
          "id": 344809754,
          "eventId": 701827,
          "siteUnitNumber": 12614,
          "bathingSite": "TOTLAND BAY",
          "eventStart": "2022-12-23T05:40:00",
          "eventStop": "2022-12-23T12:13:00",
          "duration": 393,
          "status": "Genuine",
          "associatedSiteId": 115498,
          "outfallName": "NORTON TRANSFER IOW",
          "isImpacting": true,
          "overFlowSiteId": 109524
        },
        {
          "id": 344809755,
          "eventId": 701827,
          "siteUnitNumber": 12615,
          "bathingSite": "COLWELL BAY",
          "eventStart": "2022-12-23T05:40:00",
          "eventStop": "2022-12-23T12:13:00",
          "duration": 393,
          "status": "Genuine",
          "associatedSiteId": 115498,
          "outfallName": "NORTON TRANSFER IOW",
          "isImpacting": true,
          "overFlowSiteId": 109524,
          "historicSpillsList": []
        }
      ]
    },
    {
      "id": 344783644,
      "eventId": 701898,
      "siteUnitNumber": 12662,
      "bathingSite": "CHICHESTER HARBOUR",
      "eventStart": "2022-12-23T08:30:00",
      "eventStop": "2022-12-23T12:04:00",
      "duration": 214,
      "status": "Genuine",
      "associatedSiteId": 109854,
      "outfallName": "KINGS ROAD EMSWORTH",
      "isImpacting": true,
      "overFlowSiteId": 0,
      "historicSpillsList": [
        {
          "id": 344783644,
          "eventId": 701898,
          "siteUnitNumber": 12662,
          "bathingSite": "CHICHESTER HARBOUR",
          "eventStart": "2022-12-23T08:30:00",
          "eventStop": "2022-12-23T12:04:00",
          "duration": 214,
          "status": "Genuine",
          "associatedSiteId": 109854,
          "outfallName": "KINGS ROAD EMSWORTH",
          "isImpacting": true,
          "overFlowSiteId": 109298
        }
      ]
    },
    {
      "id": 344783914,
      "eventId": 702228,
      "siteUnitNumber": 12579,
      "bathingSite": "PEVENSEY BAY",
      "eventStart": "2022-12-23T09:34:00",
      "eventStop": "2022-12-23T12:00:00",
      "duration": 146,
      "status": "Genuine",
      "associatedSiteId": 109891,
      "outfallName": "MONTAGUE WAY WESTHAM",
      "isImpacting": true,
      "overFlowSiteId": 0,
      "historicSpillsList": [
        {
          "id": 344783914,
          "eventId": 702228,
          "siteUnitNumber": 12579,
          "bathingSite": "PEVENSEY BAY",
          "eventStart": "2022-12-23T09:34:00",
          "eventStop": "2022-12-23T12:00:00",
          "duration": 146,
          "status": "Genuine",
          "associatedSiteId": 109891,
          "outfallName": "MONTAGUE WAY WESTHAM",
          "isImpacting": true,
          "overFlowSiteId": 108314
        }
      ]
    },
    {
      "id": 344772994,
      "eventId": 702527,
      "siteUnitNumber": 12549,
      "bathingSite": "HERNE BAY CENTRAL",
      "eventStart": "2022-12-23T10:38:52",
      "eventStop": "2022-12-23T11:55:00",
      "duration": 76,
      "status": "Genuine",
      "associatedSiteId": 109676,
      "outfallName": "KINGS HALL HERNE BAY A",
      "isImpacting": true,
      "overFlowSiteId": 0,
      "historicSpillsList": [
        {
          "id": 344772995,
          "eventId": 702527,
          "siteUnitNumber": 12551,
          "bathingSite": "HERNE BAY",
          "eventStart": "2022-12-23T10:38:52",
          "eventStop": "2022-12-23T11:55:00",
          "duration": 76,
          "status": "Genuine",
          "associatedSiteId": 109676,
          "outfallName": "KINGS HALL HERNE BAY A",
          "isImpacting": true,
          "overFlowSiteId": 108096,
          "historicSpillsList": []
        }
      ]
    },
    {
      "id": 344780153,
      "eventId": 702279,
      "siteUnitNumber": 12567,
      "bathingSite": "FOLKESTONE",
      "eventStart": "2022-12-23T09:41:00",
      "eventStop": "2022-12-23T11:52:00",
      "duration": 131,
      "status": "Genuine",
      "associatedSiteId": 109794,
      "outfallName": "GRANVILLE PARADE SANDGATE",
      "isImpacting": false,
      "overFlowSiteId": 0,
      "historicSpillsList": []
    },
    {
      "id": 344783863,
      "eventId": 702482,
      "siteUnitNumber": 12579,
      "bathingSite": "PEVENSEY BAY",
      "eventStart": "2022-12-23T09:07:00",
      "eventStop": "2022-12-23T11:50:00",
      "duration": 163,
      "status": "Genuine",
      "associatedSiteId": 109889,
      "outfallName": "RATTLE ROAD WESTHAM",
      "isImpacting": false,
      "overFlowSiteId": 0,
      "historicSpillsList": []
    },
    {
      "id": 344806928,
      "eventId": 702125,
      "siteUnitNumber": 12576,
      "bathingSite": "ST LEONARDS",
      "eventStart": "2022-12-23T08:58:50",
      "eventStop": "2022-12-23T11:45:00",
      "duration": 166,
      "status": "Genuine",
      "associatedSiteId": 111370,
      "outfallName": "YORK ROAD BEXHILL",
      "isImpacting": false,
      "overFlowSiteId": 0,
      "historicSpillsList": []
    },
    {
      "id": 344776319,
      "eventId": 702207,
      "siteUnitNumber": 12607,
      "bathingSite": "HILLHEAD",
      "eventStart": "2022-12-23T09:55:00",
      "eventStop": "2022-12-23T11:41:00",
      "duration": 106,
      "status": "Genuine",
      "associatedSiteId": 109717,
      "outfallName": "NEWGATE LANE PEEL COMMON",
      "isImpacting": false,
      "overFlowSiteId": 0,
      "historicSpillsList": []
    },
    {
      "id": 344804595,
      "eventId": 702624,
      "siteUnitNumber": 12562,
      "bathingSite": "BROADSTAIRS VIKING BAY",
      "eventStart": "2022-12-23T11:05:00",
      "eventStop": "2022-12-23T11:35:00",
      "duration": 30,
      "status": "Genuine",
      "associatedSiteId": 110673,
      "outfallName": "BROADSTAIRS SSO 1",
      "isImpacting": true,
      "overFlowSiteId": 0,
      "historicSpillsList": [
        {
          "id": 344804595,
          "eventId": 702624,
          "siteUnitNumber": 12562,
          "bathingSite": "BROADSTAIRS VIKING BAY",
          "eventStart": "2022-12-23T11:05:00",
          "eventStop": "2022-12-23T11:35:00",
          "duration": 30,
          "status": "Genuine",
          "associatedSiteId": 110673,
          "outfallName": "BROADSTAIRS SSO 1",
          "isImpacting": true,
          "overFlowSiteId": 116106
        },
        {
          "id": 344804598,
          "eventId": 702624,
          "siteUnitNumber": 12561,
          "bathingSite": "BROADSTAIRS STONE BAY",
          "eventStart": "2022-12-23T11:05:00",
          "eventStop": "2022-12-23T11:35:00",
          "duration": 30,
          "status": "Genuine",
          "associatedSiteId": 110673,
          "outfallName": "BROADSTAIRS SSO 1",
          "isImpacting": true,
          "overFlowSiteId": 116106,
          "historicSpillsList": []
        }
      ]
    },
    {
      "id": 344791602,
      "eventId": 702586,
      "siteUnitNumber": 12582,
      "bathingSite": "SEAFORD",
      "eventStart": "2022-12-23T11:00:07",
      "eventStop": "2022-12-23T11:27:35",
      "duration": 27,
      "status": "Genuine",
      "associatedSiteId": 109957,
      "outfallName": "PORTOBELLO BRIGHTON NO2",
      "isImpacting": true,
      "overFlowSiteId": 0,
      "historicSpillsList": [
        {
          "id": 344791603,
          "eventId": 702586,
          "siteUnitNumber": 12583,
          "bathingSite": "SALTDEAN",
          "eventStart": "2022-12-23T11:00:07",
          "eventStop": "2022-12-23T11:27:35",
          "duration": 27,
          "status": "Genuine",
          "associatedSiteId": 109957,
          "outfallName": "PORTOBELLO BRIGHTON NO2",
          "isImpacting": true,
          "overFlowSiteId": 116012,
          "historicSpillsList": []
        }
      ]
    },
    {
      "id": 344770136,
      "eventId": 702095,
      "siteUnitNumber": 12544,
      "bathingSite": "SHEERNESS",
      "eventStart": "2022-12-23T08:58:00",
      "eventStop": "2022-12-23T11:25:00",
      "duration": 147,
      "status": "Genuine",
      "associatedSiteId": 109616,
      "outfallName": "SOUTH STREET QUEENBOROUGH",
      "isImpacting": true,
      "overFlowSiteId": 0,
      "historicSpillsList": [
        {
          "id": 344770136,
          "eventId": 702095,
          "siteUnitNumber": 12544,
          "bathingSite": "SHEERNESS",
          "eventStart": "2022-12-23T08:58:00",
          "eventStop": "2022-12-23T11:25:00",
          "duration": 147,
          "status": "Genuine",
          "associatedSiteId": 109616,
          "outfallName": "SOUTH STREET QUEENBOROUGH",
          "isImpacting": true,
          "overFlowSiteId": 108732
        }
      ]
    },
    {
      "id": 344777449,
      "eventId": 701962,
      "siteUnitNumber": 12661,
      "bathingSite": "LANGSTONE HARBOUR",
      "eventStart": "2022-12-23T08:31:00",
      "eventStop": "2022-12-23T11:25:00",
      "duration": 174,
      "status": "Genuine",
      "associatedSiteId": 109772,
      "outfallName": "BUDDS FARM HAVANT NO1",
      "isImpacting": true,
      "overFlowSiteId": 0,
      "historicSpillsList": [
        {
          "id": 344777449,
          "eventId": 701962,
          "siteUnitNumber": 12661,
          "bathingSite": "LANGSTONE HARBOUR",
          "eventStart": "2022-12-23T08:31:00",
          "eventStop": "2022-12-23T11:25:00",
          "duration": 174,
          "status": "Genuine",
          "associatedSiteId": 109772,
          "outfallName": "BUDDS FARM HAVANT NO1",
          "isImpacting": true,
          "overFlowSiteId": 116073
        }
      ]
    },
    {
      "id": 344784934,
      "eventId": 702677,
      "siteUnitNumber": 12568,
      "bathingSite": "SANDGATE",
      "eventStart": "2022-12-23T11:17:52",
      "eventStop": "2022-12-23T11:24:47",
      "duration": 6,
      "status": "Genuine",
      "associatedSiteId": 109896,
      "outfallName": "RANGE ROAD HYTHE K SHORT",
      "isImpacting": true,
      "overFlowSiteId": 0,
      "historicSpillsList": [
        {
          "id": 344784935,
          "eventId": 702677,
          "siteUnitNumber": 12569,
          "bathingSite": "HYTHE",
          "eventStart": "2022-12-23T11:17:52",
          "eventStop": "2022-12-23T11:24:47",
          "duration": 6,
          "status": "Genuine",
          "associatedSiteId": 109896,
          "outfallName": "RANGE ROAD HYTHE K SHORT",
          "isImpacting": true,
          "overFlowSiteId": 116112,
          "historicSpillsList": []
        }
      ]
    },
    {
      "id": 344774427,
      "eventId": 702534,
      "siteUnitNumber": 12616,
      "bathingSite": "GURNARD",
      "eventStart": "2022-12-23T10:45:00",
      "eventStop": "2022-12-23T11:22:56",
      "duration": 37,
      "status": "Genuine",
      "associatedSiteId": 109702,
      "outfallName": "ALBANY ROAD EAST COWES",
      "isImpacting": false,
      "overFlowSiteId": 0,
      "historicSpillsList": []
    },
    {
      "id": 344804574,
      "eventId": 702524,
      "siteUnitNumber": 12584,
      "bathingSite": "BRIGHTON KEMPTOWN",
      "eventStart": "2022-12-23T10:37:12",
      "eventStop": "2022-12-23T11:22:12",
      "duration": 45,
      "status": "Not Genuine",
      "associatedSiteId": 110669,
      "outfallName": "ALBION GROYNE BRIGHTON",
      "isImpacting": true,
      "overFlowSiteId": 0,
      "historicSpillsList": []
    },
    {
      "id": 344806699,
      "eventId": 702368,
      "siteUnitNumber": 12573,
      "bathingSite": "CAMBER",
      "eventStart": "2022-12-23T08:47:00",
      "eventStop": "2022-12-23T11:21:00",
      "duration": 154,
      "status": "Genuine",
      "associatedSiteId": 110958,
      "outfallName": "RYE",
      "isImpacting": false,
      "overFlowSiteId": 0,
      "historicSpillsList": []
    },
    {
      "id": 344796971,
      "eventId": 702511,
      "siteUnitNumber": 12546,
      "bathingSite": "LEYSDOWN",
      "eventStart": "2022-12-23T10:27:00",
      "eventStop": "2022-12-23T11:19:00",
      "duration": 52,
      "status": "Genuine",
      "associatedSiteId": 109998,
      "outfallName": "MUSTARDS ROAD LEYSDOWN ON SEA",
      "isImpacting": true,
      "overFlowSiteId": 0,
      "historicSpillsList": [
        {
          "id": 344796971,
          "eventId": 702511,
          "siteUnitNumber": 12546,
          "bathingSite": "LEYSDOWN",
          "eventStart": "2022-12-23T10:27:00",
          "eventStop": "2022-12-23T11:19:00",
          "duration": 52,
          "status": "Genuine",
          "associatedSiteId": 109998,
          "outfallName": "MUSTARDS ROAD LEYSDOWN ON SEA",
          "isImpacting": true,
          "overFlowSiteId": 108113
        }
      ]
    },
    {
      "id": 344807080,
      "eventId": 702263,
      "siteUnitNumber": 12549,
      "bathingSite": "HERNE BAY CENTRAL",
      "eventStart": "2022-12-23T09:46:00",
      "eventStop": "2022-12-23T11:06:00",
      "duration": 80,
      "status": "Genuine",
      "associatedSiteId": 111724,
      "outfallName": "GAINSBOROUGH DRIVE HERNE BAY",
      "isImpacting": false,
      "overFlowSiteId": 0,
      "historicSpillsList": []
    },
    {
      "id": 344784932,
      "eventId": 702582,
      "siteUnitNumber": 12568,
      "bathingSite": "SANDGATE",
      "eventStart": "2022-12-23T10:56:16",
      "eventStop": "2022-12-23T11:04:58",
      "duration": 8,
      "status": "Genuine",
      "associatedSiteId": 109896,
      "outfallName": "RANGE ROAD HYTHE K SHORT",
      "isImpacting": true,
      "overFlowSiteId": 0,
      "historicSpillsList": [
        {
          "id": 344784933,
          "eventId": 702582,
          "siteUnitNumber": 12569,
          "bathingSite": "HYTHE",
          "eventStart": "2022-12-23T10:56:16",
          "eventStop": "2022-12-23T11:04:58",
          "duration": 8,
          "status": "Genuine",
          "associatedSiteId": 109896,
          "outfallName": "RANGE ROAD HYTHE K SHORT",
          "isImpacting": true,
          "overFlowSiteId": 116112,
          "historicSpillsList": []
        }
      ]
    },
    {
      "id": 344782597,
      "eventId": 703245,
      "siteUnitNumber": 12547,
      "bathingSite": "WEST BEACH WHITSTABLE",
      "eventStart": "2022-12-23T09:23:49",
      "eventStop": "2022-12-23T11:00:25",
      "duration": 96,
      "status": "Genuine",
      "associatedSiteId": 109831,
      "outfallName": "TANKERTON CIRCUS",
      "isImpacting": false,
      "overFlowSiteId": 0,
      "historicSpillsList": []
    },
    {
      "id": 344806110,
      "eventId": 701768,
      "siteUnitNumber": 12620,
      "bathingSite": "ST HELENS",
      "eventStart": "2022-12-23T07:04:12",
      "eventStop": "2022-12-23T11:00:00",
      "duration": 235,
      "status": "Genuine",
      "associatedSiteId": 110761,
      "outfallName": "BRADING",
      "isImpacting": true,
      "overFlowSiteId": 0,
      "historicSpillsList": [
        {
          "id": 344806110,
          "eventId": 701768,
          "siteUnitNumber": 12620,
          "bathingSite": "ST HELENS",
          "eventStart": "2022-12-23T07:04:12",
          "eventStop": "2022-12-23T11:00:00",
          "duration": 235,
          "status": "Genuine",
          "associatedSiteId": 110761,
          "outfallName": "BRADING",
          "isImpacting": true,
          "overFlowSiteId": 113676
        }
      ]
    },
    {
      "id": 344790893,
      "eventId": 702066,
      "siteUnitNumber": 12575,
      "bathingSite": "HASTINGS PELHAM BEACH",
      "eventStart": "2022-12-23T08:44:18",
      "eventStop": "2022-12-23T10:57:17",
      "duration": 132,
      "status": "Genuine",
      "associatedSiteId": 109950,
      "outfallName": "ST HELENS DOWN HASTINGS",
      "isImpacting": true,
      "overFlowSiteId": 0,
      "historicSpillsList": [
        {
          "id": 344790893,
          "eventId": 702066,
          "siteUnitNumber": 12575,
          "bathingSite": "HASTINGS PELHAM BEACH",
          "eventStart": "2022-12-23T08:44:18",
          "eventStop": "2022-12-23T10:57:17",
          "duration": 132,
          "status": "Genuine",
          "associatedSiteId": 109950,
          "outfallName": "ST HELENS DOWN HASTINGS",
          "isImpacting": true,
          "overFlowSiteId": 109050
        }
      ]
    }
  ]
}