{
  "currentPage": 423,
  "totalItems": 18701,
  "totalPages": 749,
  "items": [
    {
      "id": 343962177,
      "eventId": 675793,
      "siteUnitNumber": 12616,
      "bathingSite": "GURNARD",
      "eventStart": "2022-11-20T12:38:00",
      "eventStop": "2022-11-20T12:42:00",
      "duration": 4,
      "status": "Genuine",
      "associatedSiteId": 109652,
      "outfallName": "WOODVALE TRANSFER NO1",
      "isImpacting": true,
      "overFlowSiteId": 0,
      "historicSpillsList": [
        {
          "id": 343962177,
          "eventId": 675793,
          "siteUnitNumber": 12616,
          "bathingSite": "GURNARD",
          "eventStart": "2022-11-20T12:38:00",
          "eventStop": "2022-11-20T12:42:00",
          "duration": 4,
          "status": "Genuine",
          "associatedSiteId": 109652,
          "outfallName": "WOODVALE TRANSFER NO1",
          "isImpacting": true,
          "overFlowSiteId": 115966
        }
      ]
    },
    {
      "id": 343993533,
      "eventId": 675856,
      "siteUnitNumber": 12619,
      "bathingSite": "SEAGROVE",
      "eventStart": "2022-11-20T12:22:00",
      "eventStop": "2022-11-20T12:37:00",
      "duration": 15,
      "status": "Genuine",
      "associatedSiteId": 110097,
      "outfallName": "SANDOWN NO2",
      "isImpacting": true,
      "overFlowSiteId": 0,
      "historicSpillsList": [
        {
          "id": 343993526,
          "eventId": 675856,
          "siteUnitNumber": 12623,
          "bathingSite": "YAVERLAND",
          "eventStart": "2022-11-20T12:22:00",
          "eventStop": "2022-11-20T12:37:00",
          "duration": 15,
          "status": "Genuine",
          "associatedSiteId": 110097,
          "outfallName": "SANDOWN NO2",
          "isImpacting": true,
          "overFlowSiteId": 115454,
          "historicSpillsList": []
        }
      ]
    },
    {
      "id": 343997192,
      "eventId": 674853,
      "siteUnitNumber": 12582,
      "bathingSite": "SEAFORD",
      "eventStart": "2022-11-20T10:35:00",
      "eventStop": "2022-11-20T11:49:00",
      "duration": 74,
      "status": "Genuine",
      "associatedSiteId": 110920,
      "outfallName": "NEWHAVEN",
      "isImpacting": false,
      "overFlowSiteId": 0,
      "historicSpillsList": []
    },
    {
      "id": 343993571,
      "eventId": 674801,
      "siteUnitNumber": 12624,
      "bathingSite": "SANDOWN",
      "eventStart": "2022-11-20T10:27:00",
      "eventStop": "2022-11-20T11:34:00",
      "duration": 67,
      "status": "Genuine",
      "associatedSiteId": 110097,
      "outfallName": "SANDOWN NO2",
      "isImpacting": true,
      "overFlowSiteId": 0,
      "historicSpillsList": [
        {
          "id": 343993571,
          "eventId": 674801,
          "siteUnitNumber": 12624,
          "bathingSite": "SANDOWN",
          "eventStart": "2022-11-20T10:27:00",
          "eventStop": "2022-11-20T11:34:00",
          "duration": 67,
          "status": "Genuine",
          "associatedSiteId": 110097,
          "outfallName": "SANDOWN NO2",
          "isImpacting": true,
          "overFlowSiteId": 115454
        },
        {
          "id": 343993572,
          "eventId": 674801,
          "siteUnitNumber": 12625,
          "bathingSite": "SHANKLIN",
          "eventStart": "2022-11-20T10:27:00",
          "eventStop": "2022-11-20T11:34:00",
          "duration": 67,
          "status": "Genuine",
          "associatedSiteId": 110097,
          "outfallName": "SANDOWN NO2",
          "isImpacting": true,
          "overFlowSiteId": 115454,
          "historicSpillsList": []
        },
        {
          "id": 343993580,
          "eventId": 674801,
          "siteUnitNumber": 12623,
          "bathingSite": "YAVERLAND",
          "eventStart": "2022-11-20T10:27:00",
          "eventStop": "2022-11-20T11:34:00",
          "duration": 67,
          "status": "Genuine",
          "associatedSiteId": 110097,
          "outfallName": "SANDOWN NO2",
          "isImpacting": true,
          "overFlowSiteId": 115454,
          "historicSpillsList": []
        }
      ]
    },
    {
      "id": 343960842,
      "eventId": 674773,
      "siteUnitNumber": 12544,
      "bathingSite": "SHEERNESS",
      "eventStart": "2022-11-20T09:47:00",
      "eventStop": "2022-11-20T10:48:00",
      "duration": 61,
      "status": "Genuine",
      "associatedSiteId": 109614,
      "outfallName": "BRIELLE WAY WESTMINSTER",
      "isImpacting": false,
      "overFlowSiteId": 0,
      "historicSpillsList": []
    },
    {
      "id": 343973707,
      "eventId": 675431,
      "siteUnitNumber": 12547,
      "bathingSite": "WEST BEACH WHITSTABLE",
      "eventStart": "2022-11-20T10:01:00",
      "eventStop": "2022-11-20T10:44:00",
      "duration": 43,
      "status": "Genuine",
      "associatedSiteId": 109832,
      "outfallName": "GORREL NO1",
      "isImpacting": true,
      "overFlowSiteId": 0,
      "historicSpillsList": [
        {
          "id": 343973708,
          "eventId": 675431,
          "siteUnitNumber": 12548,
          "bathingSite": "TANKERTON",
          "eventStart": "2022-11-20T10:01:00",
          "eventStop": "2022-11-20T10:44:00",
          "duration": 43,
          "status": "Genuine",
          "associatedSiteId": 109832,
          "outfallName": "GORREL NO1",
          "isImpacting": true,
          "overFlowSiteId": 103279,
          "historicSpillsList": []
        }
      ]
    },
    {
      "id": 343962179,
      "eventId": 675792,
      "siteUnitNumber": 12616,
      "bathingSite": "GURNARD",
      "eventStart": "2022-11-20T10:01:00",
      "eventStop": "2022-11-20T10:07:00",
      "duration": 6,
      "status": "Genuine",
      "associatedSiteId": 109652,
      "outfallName": "WOODVALE TRANSFER NO1",
      "isImpacting": true,
      "overFlowSiteId": 0,
      "historicSpillsList": [
        {
          "id": 343962179,
          "eventId": 675792,
          "siteUnitNumber": 12616,
          "bathingSite": "GURNARD",
          "eventStart": "2022-11-20T10:01:00",
          "eventStop": "2022-11-20T10:07:00",
          "duration": 6,
          "status": "Genuine",
          "associatedSiteId": 109652,
          "outfallName": "WOODVALE TRANSFER NO1",
          "isImpacting": true,
          "overFlowSiteId": 115966
        }
      ]
    },
    {
      "id": 343973409,
      "eventId": 674754,
      "siteUnitNumber": 12547,
      "bathingSite": "WEST BEACH WHITSTABLE",
      "eventStart": "2022-11-20T09:39:08",
      "eventStop": "2022-11-20T09:54:45",
      "duration": 15,
      "status": "Genuine",
      "associatedSiteId": 109831,
      "outfallName": "TANKERTON CIRCUS",
      "isImpacting": true,
      "overFlowSiteId": 0,
      "historicSpillsList": [
        {
          "id": 343973404,
          "eventId": 674754,
          "siteUnitNumber": 12548,
          "bathingSite": "TANKERTON",
          "eventStart": "2022-11-20T09:39:08",
          "eventStop": "2022-11-20T09:54:45",
          "duration": 15,
          "status": "Genuine",
          "associatedSiteId": 109831,
          "outfallName": "TANKERTON CIRCUS",
          "isImpacting": true,
          "overFlowSiteId": 103281,
          "historicSpillsList": []
        }
      ]
    },
    {
      "id": 343960937,
      "eventId": 674759,
      "siteUnitNumber": 12544,
      "bathingSite": "SHEERNESS",
      "eventStart": "2022-11-20T09:49:00",
      "eventStop": "2022-11-20T09:51:00",
      "duration": 2,
      "status": "Genuine",
      "associatedSiteId": 109616,
      "outfallName": "SOUTH STREET QUEENBOROUGH",
      "isImpacting": true,
      "overFlowSiteId": 0,
      "historicSpillsList": [
        {
          "id": 343960937,
          "eventId": 674759,
          "siteUnitNumber": 12544,
          "bathingSite": "SHEERNESS",
          "eventStart": "2022-11-20T09:49:00",
          "eventStop": "2022-11-20T09:51:00",
          "duration": 2,
          "status": "Genuine",
          "associatedSiteId": 109616,
          "outfallName": "SOUTH STREET QUEENBOROUGH",
          "isImpacting": true,
          "overFlowSiteId": 108732
        }
      ]
    },
    {
      "id": 343974473,
      "eventId": 674730,
      "siteUnitNumber": 12544,
      "bathingSite": "SHEERNESS",
      "eventStart": "2022-11-20T09:08:28",
      "eventStop": "2022-11-20T09:39:00",
      "duration": 30,
      "status": "Genuine",
      "associatedSiteId": 109869,
      "outfallName": "GRAIN NO2",
      "isImpacting": true,
      "overFlowSiteId": 0,
      "historicSpillsList": [
        {
          "id": 343974473,
          "eventId": 674730,
          "siteUnitNumber": 12544,
          "bathingSite": "SHEERNESS",
          "eventStart": "2022-11-20T09:08:28",
          "eventStop": "2022-11-20T09:39:00",
          "duration": 30,
          "status": "Genuine",
          "associatedSiteId": 109869,
          "outfallName": "GRAIN NO2",
          "isImpacting": true,
          "overFlowSiteId": 115411
        }
      ]
    },
    {
      "id": 343984490,
      "eventId": 674600,
      "siteUnitNumber": 12594,
      "bathingSite": "BOGNOR REGIS EAST",
      "eventStart": "2022-11-20T07:00:00",
      "eventStop": "2022-11-20T08:42:00",
      "duration": 102,
      "status": "Genuine",
      "associatedSiteId": 109959,
      "outfallName": "WEST PARK BOGNOR REGIS",
      "isImpacting": false,
      "overFlowSiteId": 0,
      "historicSpillsList": []
    },
    {
      "id": 343962181,
      "eventId": 675791,
      "siteUnitNumber": 12616,
      "bathingSite": "GURNARD",
      "eventStart": "2022-11-20T08:09:00",
      "eventStop": "2022-11-20T08:14:00",
      "duration": 5,
      "status": "Genuine",
      "associatedSiteId": 109652,
      "outfallName": "WOODVALE TRANSFER NO1",
      "isImpacting": true,
      "overFlowSiteId": 0,
      "historicSpillsList": [
        {
          "id": 343962181,
          "eventId": 675791,
          "siteUnitNumber": 12616,
          "bathingSite": "GURNARD",
          "eventStart": "2022-11-20T08:09:00",
          "eventStop": "2022-11-20T08:14:00",
          "duration": 5,
          "status": "Genuine",
          "associatedSiteId": 109652,
          "outfallName": "WOODVALE TRANSFER NO1",
          "isImpacting": true,
          "overFlowSiteId": 115966
        }
      ]
    },
    {
      "id": 343979457,
      "eventId": 676144,
      "siteUnitNumber": 12596,
      "bathingSite": "PAGHAM",
      "eventStart": "2022-11-20T05:05:00",
      "eventStop": "2022-11-20T07:36:00",
      "duration": 151,
      "status": "Genuine",
      "associatedSiteId": 109911,
      "outfallName": "SUMMER LANE PAGHAM",
      "isImpacting": true,
      "overFlowSiteId": 0,
      "historicSpillsList": [
        {
          "id": 343979457,
          "eventId": 676144,
          "siteUnitNumber": 12596,
          "bathingSite": "PAGHAM",
          "eventStart": "2022-11-20T05:05:00",
          "eventStop": "2022-11-20T07:36:00",
          "duration": 151,
          "status": "Genuine",
          "associatedSiteId": 109911,
          "outfallName": "SUMMER LANE PAGHAM",
          "isImpacting": true,
          "overFlowSiteId": 115443
        }
      ]
    },
    {
      "id": 343997191,
      "eventId": 674591,
      "siteUnitNumber": 12582,
      "bathingSite": "SEAFORD",
      "eventStart": "2022-11-20T06:34:00",
      "eventStop": "2022-11-20T07:12:00",
      "duration": 38,
      "status": "Genuine",
      "associatedSiteId": 110920,
      "outfallName": "NEWHAVEN",
      "isImpacting": false,
      "overFlowSiteId": 0,
      "historicSpillsList": []
    },
    {
      "id": 343984496,
      "eventId": 674587,
      "siteUnitNumber": 12594,
      "bathingSite": "BOGNOR REGIS EAST",
      "eventStart": "2022-11-20T06:50:31",
      "eventStop": "2022-11-20T06:52:46",
      "duration": 2,
      "status": "Genuine",
      "associatedSiteId": 109959,
      "outfallName": "WEST PARK BOGNOR REGIS",
      "isImpacting": false,
      "overFlowSiteId": 0,
      "historicSpillsList": []
    },
    {
      "id": 343985532,
      "eventId": 676235,
      "siteUnitNumber": 12591,
      "bathingSite": "LITTLEHAMPTON",
      "eventStart": "2022-11-20T05:30:00",
      "eventStop": "2022-11-20T06:45:00",
      "duration": 75,
      "status": "Genuine",
      "associatedSiteId": 109965,
      "outfallName": "SEA ROAD LITTLEHAMPTON",
      "isImpacting": false,
      "overFlowSiteId": 0,
      "historicSpillsList": []
    },
    {
      "id": 343984502,
      "eventId": 674514,
      "siteUnitNumber": 12594,
      "bathingSite": "BOGNOR REGIS EAST",
      "eventStart": "2022-11-20T04:40:00",
      "eventStop": "2022-11-20T06:42:00",
      "duration": 122,
      "status": "Genuine",
      "associatedSiteId": 109959,
      "outfallName": "WEST PARK BOGNOR REGIS",
      "isImpacting": false,
      "overFlowSiteId": 0,
      "historicSpillsList": []
    },
    {
      "id": 343962185,
      "eventId": 675789,
      "siteUnitNumber": 12616,
      "bathingSite": "GURNARD",
      "eventStart": "2022-11-20T06:06:00",
      "eventStop": "2022-11-20T06:10:00",
      "duration": 4,
      "status": "Genuine",
      "associatedSiteId": 109652,
      "outfallName": "WOODVALE TRANSFER NO1",
      "isImpacting": true,
      "overFlowSiteId": 0,
      "historicSpillsList": [
        {
          "id": 343962185,
          "eventId": 675789,
          "siteUnitNumber": 12616,
          "bathingSite": "GURNARD",
          "eventStart": "2022-11-20T06:06:00",
          "eventStop": "2022-11-20T06:10:00",
          "duration": 4,
          "status": "Genuine",
          "associatedSiteId": 109652,
          "outfallName": "WOODVALE TRANSFER NO1",
          "isImpacting": true,
          "overFlowSiteId": 115966
        }
      ]
    },
    {
      "id": 343962183,
      "eventId": 675790,
      "siteUnitNumber": 12616,
      "bathingSite": "GURNARD",
      "eventStart": "2022-11-20T05:20:00",
      "eventStop": "2022-11-20T05:25:00",
      "duration": 5,
      "status": "Genuine",
      "associatedSiteId": 109652,
      "outfallName": "WOODVALE TRANSFER NO1",
      "isImpacting": true,
      "overFlowSiteId": 0,
      "historicSpillsList": [
        {
          "id": 343962184,
          "eventId": 675790,
          "siteUnitNumber": 12617,
          "bathingSite": "COWES",
          "eventStart": "2022-11-20T05:20:00",
          "eventStop": "2022-11-20T05:25:00",
          "duration": 5,
          "status": "Genuine",
          "associatedSiteId": 109652,
          "outfallName": "WOODVALE TRANSFER NO1",
          "isImpacting": true,
          "overFlowSiteId": 115966,
          "historicSpillsList": []
        }
      ]
    },
    {
      "id": 343997190,
      "eventId": 674497,
      "siteUnitNumber": 12582,
      "bathingSite": "SEAFORD",
      "eventStart": "2022-11-20T03:59:00",
      "eventStop": "2022-11-20T04:30:00",
      "duration": 31,
      "status": "Genuine",
      "associatedSiteId": 110920,
      "outfallName": "NEWHAVEN",
      "isImpacting": false,
      "overFlowSiteId": 0,
      "historicSpillsList": []
    },
    {
      "id": 343984499,
      "eventId": 674486,
      "siteUnitNumber": 12594,
      "bathingSite": "BOGNOR REGIS EAST",
      "eventStart": "2022-11-20T04:09:00",
      "eventStop": "2022-11-20T04:25:00",
      "duration": 16,
      "status": "Genuine",
      "associatedSiteId": 109959,
      "outfallName": "WEST PARK BOGNOR REGIS",
      "isImpacting": true,
      "overFlowSiteId": 0,
      "historicSpillsList": [
        {
          "id": 343984501,
          "eventId": 674486,
          "siteUnitNumber": 12596,
          "bathingSite": "PAGHAM",
          "eventStart": "2022-11-20T04:09:00",
          "eventStop": "2022-11-20T04:25:00",
          "duration": 16,
          "status": "Genuine",
          "associatedSiteId": 109959,
          "outfallName": "WEST PARK BOGNOR REGIS",
          "isImpacting": true,
          "overFlowSiteId": 108160,
          "historicSpillsList": []
        }
      ]
    },
    {
      "id": 343984505,
      "eventId": 674435,
      "siteUnitNumber": 12594,
      "bathingSite": "BOGNOR REGIS EAST",
      "eventStart": "2022-11-20T02:00:00",
      "eventStop": "2022-11-20T03:45:00",
      "duration": 105,
      "status": "Genuine",
      "associatedSiteId": 109959,
      "outfallName": "WEST PARK BOGNOR REGIS",
      "isImpacting": false,
      "overFlowSiteId": 0,
      "historicSpillsList": []
    },
    {
      "id": 343979456,
      "eventId": 676130,
      "siteUnitNumber": 12596,
      "bathingSite": "PAGHAM",
      "eventStart": "2022-11-20T01:04:00",
      "eventStop": "2022-11-20T01:53:00",
      "duration": 49,
      "status": "Genuine",
      "associatedSiteId": 109911,
      "outfallName": "SUMMER LANE PAGHAM",
      "isImpacting": true,
      "overFlowSiteId": 0,
      "historicSpillsList": [
        {
          "id": 343979456,
          "eventId": 676130,
          "siteUnitNumber": 12596,
          "bathingSite": "PAGHAM",
          "eventStart": "2022-11-20T01:04:00",
          "eventStop": "2022-11-20T01:53:00",
          "duration": 49,
          "status": "Genuine",
          "associatedSiteId": 109911,
          "outfallName": "SUMMER LANE PAGHAM",
          "isImpacting": true,
          "overFlowSiteId": 115443
        }
      ]
    },
    {
      "id": 343984503,
      "eventId": 674420,
      "siteUnitNumber": 12595,
      "bathingSite": "BOGNOR REGIS (ALDWICK)",
      "eventStart": "2022-11-20T00:45:00",
      "eventStop": "2022-11-20T01:45:00",
      "duration": 60,
      "status": "Genuine",
      "associatedSiteId": 109959,
      "outfallName": "WEST PARK BOGNOR REGIS",
      "isImpacting": true,
      "overFlowSiteId": 0,
      "historicSpillsList": [
        {
          "id": 343984504,
          "eventId": 674420,
          "siteUnitNumber": 12596,
          "bathingSite": "PAGHAM",
          "eventStart": "2022-11-20T00:45:00",
          "eventStop": "2022-11-20T01:45:00",
          "duration": 60,
          "status": "Genuine",
          "associatedSiteId": 109959,
          "outfallName": "WEST PARK BOGNOR REGIS",
          "isImpacting": true,
          "overFlowSiteId": 108160,
          "historicSpillsList": []
        }
      ]
    },
    {
      "id": 343972677,
      "eventId": 674251,
      "siteUnitNumber": 12548,
      "bathingSite": "TANKERTON",
      "eventStart": "2022-11-19T20:14:45",
      "eventStop": "2022-11-20T01:13:38",
      "duration": 298,
      "status": "Genuine",
      "associatedSiteId": 109830,
      "outfallName": "SWALECLIFFE NO1",
      "isImpacting": true,
      "overFlowSiteId": 0,
      "historicSpillsList": [
        {
          "id": 343972677,
          "eventId": 674251,
          "siteUnitNumber": 12548,
          "bathingSite": "TANKERTON",
          "eventStart": "2022-11-19T20:14:45",
          "eventStop": "2022-11-20T01:13:38",
          "duration": 298,
          "status": "Genuine",
          "associatedSiteId": 109830,
          "outfallName": "SWALECLIFFE NO1",
          "isImpacting": true,
          "overFlowSiteId": 115444
        }
      ]
    }
  ]
}