{
  "currentPage": 689,
  "totalItems": 21025,
  "totalPages": 841,
  "items": [
    {
      "id": 344852874,
      "eventId": 482772,
      "siteUnitNumber": 12614,
      "bathingSite": "TOTLAND BAY",
      "eventStart": "2021-08-19T14:53:13",
      "eventStop": "2021-08-19T14:59:02",
      "duration": 5,
      "status": "Under Review",
      "associatedSiteId": 115498,
      "outfallName": "NORTON TRANSFER IOW",
      "isImpacting": true,
      "overFlowSiteId": 0,
      "historicSpillsList": [
        {
          "id": 344852874,
          "eventId": 482772,
          "siteUnitNumber": 12614,
          "bathingSite": "TOTLAND BAY",
          "eventStart": "2021-08-19T14:53:13",
          "eventStop": "2021-08-19T14:59:02",
          "duration": 5,
          "status": "Under Review",
          "associatedSiteId": 115498,
          "outfallName": "NORTON TRANSFER IOW",
          "isImpacting": true,
          "overFlowSiteId": 108544
        },
        {
          "id": 344852875,
          "eventId": 482772,
          "siteUnitNumber": 12615,
          "bathingSite": "COLWELL BAY",
          "eventStart": "2021-08-19T14:53:13",
          "eventStop": "2021-08-19T14:59:02",
          "duration": 5,
          "status": "Under Review",
          "associatedSiteId": 115498,
          "outfallName": "NORTON TRANSFER IOW",
          "isImpacting": true,
          "overFlowSiteId": 108544,
          "historicSpillsList": []
        }
      ]
    },
    {
      "id": 344852876,
      "eventId": 482770,
      "siteUnitNumber": 12614,
      "bathingSite": "TOTLAND BAY",
      "eventStart": "2021-08-19T14:44:11",
      "eventStop": "2021-08-19T14:50:43",
      "duration": 6,
      "status": "Not Genuine",
      "associatedSiteId": 115498,
      "outfallName": "NORTON TRANSFER IOW",
      "isImpacting": true,
      "overFlowSiteId": 0,
      "historicSpillsList": []
    },
    {
      "id": 344852878,
      "eventId": 482768,
      "siteUnitNumber": 12615,
      "bathingSite": "COLWELL BAY",
      "eventStart": "2021-08-19T14:34:37",
      "eventStop": "2021-08-19T14:41:27",
      "duration": 6,
      "status": "Under Review",
      "associatedSiteId": 115498,
      "outfallName": "NORTON TRANSFER IOW",
      "isImpacting": true,
      "overFlowSiteId": 0,
      "historicSpillsList": [
        {
          "id": 344852878,
          "eventId": 482768,
          "siteUnitNumber": 12615,
          "bathingSite": "COLWELL BAY",
          "eventStart": "2021-08-19T14:34:37",
          "eventStop": "2021-08-19T14:41:27",
          "duration": 6,
          "status": "Under Review",
          "associatedSiteId": 115498,
          "outfallName": "NORTON TRANSFER IOW",
          "isImpacting": true,
          "overFlowSiteId": 108544
        },
        {
          "id": 344852879,
          "eventId": 482768,
          "siteUnitNumber": 12614,
          "bathingSite": "TOTLAND BAY",
          "eventStart": "2021-08-19T14:34:37",
          "eventStop": "2021-08-19T14:41:27",
          "duration": 6,
          "status": "Under Review",
          "associatedSiteId": 115498,
          "outfallName": "NORTON TRANSFER IOW",
          "isImpacting": true,
          "overFlowSiteId": 108544,
          "historicSpillsList": []
        }
      ]
    },
    {
      "id": 344852880,
      "eventId": 482762,
      "siteUnitNumber": 12614,
      "bathingSite": "TOTLAND BAY",
      "eventStart": "2021-08-19T14:26:14",
      "eventStop": "2021-08-19T14:32:12",
      "duration": 5,
      "status": "Under Review",
      "associatedSiteId": 115498,
      "outfallName": "NORTON TRANSFER IOW",
      "isImpacting": true,
      "overFlowSiteId": 0,
      "historicSpillsList": [
        {
          "id": 344852880,
          "eventId": 482762,
          "siteUnitNumber": 12614,
          "bathingSite": "TOTLAND BAY",
          "eventStart": "2021-08-19T14:26:14",
          "eventStop": "2021-08-19T14:32:12",
          "duration": 5,
          "status": "Under Review",
          "associatedSiteId": 115498,
          "outfallName": "NORTON TRANSFER IOW",
          "isImpacting": true,
          "overFlowSiteId": 108544
        },
        {
          "id": 344852881,
          "eventId": 482762,
          "siteUnitNumber": 12615,
          "bathingSite": "COLWELL BAY",
          "eventStart": "2021-08-19T14:26:14",
          "eventStop": "2021-08-19T14:32:12",
          "duration": 5,
          "status": "Under Review",
          "associatedSiteId": 115498,
          "outfallName": "NORTON TRANSFER IOW",
          "isImpacting": true,
          "overFlowSiteId": 108544,
          "historicSpillsList": []
        }
      ]
    },
    {
      "id": 344852882,
      "eventId": 482760,
      "siteUnitNumber": 12614,
      "bathingSite": "TOTLAND BAY",
      "eventStart": "2021-08-19T14:16:24",
      "eventStop": "2021-08-19T14:22:52",
      "duration": 6,
      "status": "Under Review",
      "associatedSiteId": 115498,
      "outfallName": "NORTON TRANSFER IOW",
      "isImpacting": true,
      "overFlowSiteId": 0,
      "historicSpillsList": [
        {
          "id": 344852882,
          "eventId": 482760,
          "siteUnitNumber": 12614,
          "bathingSite": "TOTLAND BAY",
          "eventStart": "2021-08-19T14:16:24",
          "eventStop": "2021-08-19T14:22:52",
          "duration": 6,
          "status": "Under Review",
          "associatedSiteId": 115498,
          "outfallName": "NORTON TRANSFER IOW",
          "isImpacting": true,
          "overFlowSiteId": 108544
        },
        {
          "id": 344852883,
          "eventId": 482760,
          "siteUnitNumber": 12615,
          "bathingSite": "COLWELL BAY",
          "eventStart": "2021-08-19T14:16:24",
          "eventStop": "2021-08-19T14:22:52",
          "duration": 6,
          "status": "Under Review",
          "associatedSiteId": 115498,
          "outfallName": "NORTON TRANSFER IOW",
          "isImpacting": true,
          "overFlowSiteId": 108544,
          "historicSpillsList": []
        }
      ]
    },
    {
      "id": 344852884,
      "eventId": 482758,
      "siteUnitNumber": 12615,
      "bathingSite": "COLWELL BAY",
      "eventStart": "2021-08-19T14:09:00",
      "eventStop": "2021-08-19T14:14:48",
      "duration": 5,
      "status": "Under Review",
      "associatedSiteId": 115498,
      "outfallName": "NORTON TRANSFER IOW",
      "isImpacting": true,
      "overFlowSiteId": 0,
      "historicSpillsList": [
        {
          "id": 344852884,
          "eventId": 482758,
          "siteUnitNumber": 12615,
          "bathingSite": "COLWELL BAY",
          "eventStart": "2021-08-19T14:09:00",
          "eventStop": "2021-08-19T14:14:48",
          "duration": 5,
          "status": "Under Review",
          "associatedSiteId": 115498,
          "outfallName": "NORTON TRANSFER IOW",
          "isImpacting": true,
          "overFlowSiteId": 108544
        },
        {
          "id": 344852885,
          "eventId": 482758,
          "siteUnitNumber": 12614,
          "bathingSite": "TOTLAND BAY",
          "eventStart": "2021-08-19T14:09:00",
          "eventStop": "2021-08-19T14:14:48",
          "duration": 5,
          "status": "Under Review",
          "associatedSiteId": 115498,
          "outfallName": "NORTON TRANSFER IOW",
          "isImpacting": true,
          "overFlowSiteId": 108544,
          "historicSpillsList": []
        }
      ]
    },
    {
      "id": 344852886,
      "eventId": 482756,
      "siteUnitNumber": 12614,
      "bathingSite": "TOTLAND BAY",
      "eventStart": "2021-08-19T14:00:19",
      "eventStop": "2021-08-19T14:06:46",
      "duration": 6,
      "status": "Under Review",
      "associatedSiteId": 115498,
      "outfallName": "NORTON TRANSFER IOW",
      "isImpacting": true,
      "overFlowSiteId": 0,
      "historicSpillsList": [
        {
          "id": 344852886,
          "eventId": 482756,
          "siteUnitNumber": 12614,
          "bathingSite": "TOTLAND BAY",
          "eventStart": "2021-08-19T14:00:19",
          "eventStop": "2021-08-19T14:06:46",
          "duration": 6,
          "status": "Under Review",
          "associatedSiteId": 115498,
          "outfallName": "NORTON TRANSFER IOW",
          "isImpacting": true,
          "overFlowSiteId": 108544
        },
        {
          "id": 344852887,
          "eventId": 482756,
          "siteUnitNumber": 12615,
          "bathingSite": "COLWELL BAY",
          "eventStart": "2021-08-19T14:00:19",
          "eventStop": "2021-08-19T14:06:46",
          "duration": 6,
          "status": "Under Review",
          "associatedSiteId": 115498,
          "outfallName": "NORTON TRANSFER IOW",
          "isImpacting": true,
          "overFlowSiteId": 108544,
          "historicSpillsList": []
        }
      ]
    },
    {
      "id": 344852888,
      "eventId": 482747,
      "siteUnitNumber": 12614,
      "bathingSite": "TOTLAND BAY",
      "eventStart": "2021-08-19T13:26:45",
      "eventStop": "2021-08-19T13:35:41",
      "duration": 8,
      "status": "Not Genuine",
      "associatedSiteId": 115498,
      "outfallName": "NORTON TRANSFER IOW",
      "isImpacting": true,
      "overFlowSiteId": 0,
      "historicSpillsList": []
    },
    {
      "id": 344852890,
      "eventId": 482745,
      "siteUnitNumber": 12614,
      "bathingSite": "TOTLAND BAY",
      "eventStart": "2021-08-19T13:17:30",
      "eventStop": "2021-08-19T13:23:13",
      "duration": 5,
      "status": "Under Review",
      "associatedSiteId": 115498,
      "outfallName": "NORTON TRANSFER IOW",
      "isImpacting": true,
      "overFlowSiteId": 0,
      "historicSpillsList": [
        {
          "id": 344852890,
          "eventId": 482745,
          "siteUnitNumber": 12614,
          "bathingSite": "TOTLAND BAY",
          "eventStart": "2021-08-19T13:17:30",
          "eventStop": "2021-08-19T13:23:13",
          "duration": 5,
          "status": "Under Review",
          "associatedSiteId": 115498,
          "outfallName": "NORTON TRANSFER IOW",
          "isImpacting": true,
          "overFlowSiteId": 108544
        },
        {
          "id": 344852891,
          "eventId": 482745,
          "siteUnitNumber": 12615,
          "bathingSite": "COLWELL BAY",
          "eventStart": "2021-08-19T13:17:30",
          "eventStop": "2021-08-19T13:23:13",
          "duration": 5,
          "status": "Under Review",
          "associatedSiteId": 115498,
          "outfallName": "NORTON TRANSFER IOW",
          "isImpacting": true,
          "overFlowSiteId": 108544,
          "historicSpillsList": []
        }
      ]
    },
    {
      "id": 344852892,
      "eventId": 482743,
      "siteUnitNumber": 12615,
      "bathingSite": "COLWELL BAY",
      "eventStart": "2021-08-19T13:08:50",
      "eventStop": "2021-08-19T13:14:43",
      "duration": 5,
      "status": "Under Review",
      "associatedSiteId": 115498,
      "outfallName": "NORTON TRANSFER IOW",
      "isImpacting": true,
      "overFlowSiteId": 0,
      "historicSpillsList": [
        {
          "id": 344852892,
          "eventId": 482743,
          "siteUnitNumber": 12615,
          "bathingSite": "COLWELL BAY",
          "eventStart": "2021-08-19T13:08:50",
          "eventStop": "2021-08-19T13:14:43",
          "duration": 5,
          "status": "Under Review",
          "associatedSiteId": 115498,
          "outfallName": "NORTON TRANSFER IOW",
          "isImpacting": true,
          "overFlowSiteId": 108544
        },
        {
          "id": 344852893,
          "eventId": 482743,
          "siteUnitNumber": 12614,
          "bathingSite": "TOTLAND BAY",
          "eventStart": "2021-08-19T13:08:50",
          "eventStop": "2021-08-19T13:14:43",
          "duration": 5,
          "status": "Under Review",
          "associatedSiteId": 115498,
          "outfallName": "NORTON TRANSFER IOW",
          "isImpacting": true,
          "overFlowSiteId": 108544,
          "historicSpillsList": []
        }
      ]
    },
    {
      "id": 344852894,
      "eventId": 482741,
      "siteUnitNumber": 12614,
      "bathingSite": "TOTLAND BAY",
      "eventStart": "2021-08-19T13:01:37",
      "eventStop": "2021-08-19T13:07:06",
      "duration": 5,
      "status": "Under Review",
      "associatedSiteId": 115498,
      "outfallName": "NORTON TRANSFER IOW",
      "isImpacting": true,
      "overFlowSiteId": 0,
      "historicSpillsList": [
        {
          "id": 344852894,
          "eventId": 482741,
          "siteUnitNumber": 12614,
          "bathingSite": "TOTLAND BAY",
          "eventStart": "2021-08-19T13:01:37",
          "eventStop": "2021-08-19T13:07:06",
          "duration": 5,
          "status": "Under Review",
          "associatedSiteId": 115498,
          "outfallName": "NORTON TRANSFER IOW",
          "isImpacting": true,
          "overFlowSiteId": 108544
        },
        {
          "id": 344852895,
          "eventId": 482741,
          "siteUnitNumber": 12615,
          "bathingSite": "COLWELL BAY",
          "eventStart": "2021-08-19T13:01:37",
          "eventStop": "2021-08-19T13:07:06",
          "duration": 5,
          "status": "Under Review",
          "associatedSiteId": 115498,
          "outfallName": "NORTON TRANSFER IOW",
          "isImpacting": true,
          "overFlowSiteId": 108544,
          "historicSpillsList": []
        }
      ]
    },
    {
      "id": 344852896,
      "eventId": 482734,
      "siteUnitNumber": 12614,
      "bathingSite": "TOTLAND BAY",
      "eventStart": "2021-08-19T12:52:41",
      "eventStop": "2021-08-19T12:59:02",
      "duration": 6,
      "status": "Under Review",
      "associatedSiteId": 115498,
      "outfallName": "NORTON TRANSFER IOW",
      "isImpacting": true,
      "overFlowSiteId": 0,
      "historicSpillsList": [
        {
          "id": 344852896,
          "eventId": 482734,
          "siteUnitNumber": 12614,
          "bathingSite": "TOTLAND BAY",
          "eventStart": "2021-08-19T12:52:41",
          "eventStop": "2021-08-19T12:59:02",
          "duration": 6,
          "status": "Under Review",
          "associatedSiteId": 115498,
          "outfallName": "NORTON TRANSFER IOW",
          "isImpacting": true,
          "overFlowSiteId": 108544
        },
        {
          "id": 344852897,
          "eventId": 482734,
          "siteUnitNumber": 12615,
          "bathingSite": "COLWELL BAY",
          "eventStart": "2021-08-19T12:52:41",
          "eventStop": "2021-08-19T12:59:02",
          "duration": 6,
          "status": "Under Review",
          "associatedSiteId": 115498,
          "outfallName": "NORTON TRANSFER IOW",
          "isImpacting": true,
          "overFlowSiteId": 108544,
          "historicSpillsList": []
        }
      ]
    },
    {
      "id": 344852898,
      "eventId": 482729,
      "siteUnitNumber": 12615,
      "bathingSite": "COLWELL BAY",
      "eventStart": "2021-08-19T12:43:36",
      "eventStop": "2021-08-19T12:49:39",
      "duration": 6,
      "status": "Under Review",
      "associatedSiteId": 115498,
      "outfallName": "NORTON TRANSFER IOW",
      "isImpacting": true,
      "overFlowSiteId": 0,
      "historicSpillsList": [
        {
          "id": 344852898,
          "eventId": 482729,
          "siteUnitNumber": 12615,
          "bathingSite": "COLWELL BAY",
          "eventStart": "2021-08-19T12:43:36",
          "eventStop": "2021-08-19T12:49:39",
          "duration": 6,
          "status": "Under Review",
          "associatedSiteId": 115498,
          "outfallName": "NORTON TRANSFER IOW",
          "isImpacting": true,
          "overFlowSiteId": 108544
        },
        {
          "id": 344852899,
          "eventId": 482729,
          "siteUnitNumber": 12614,
          "bathingSite": "TOTLAND BAY",
          "eventStart": "2021-08-19T12:43:36",
          "eventStop": "2021-08-19T12:49:39",
          "duration": 6,
          "status": "Under Review",
          "associatedSiteId": 115498,
          "outfallName": "NORTON TRANSFER IOW",
          "isImpacting": true,
          "overFlowSiteId": 108544,
          "historicSpillsList": []
        }
      ]
    },
    {
      "id": 344852900,
      "eventId": 482726,
      "siteUnitNumber": 12614,
      "bathingSite": "TOTLAND BAY",
      "eventStart": "2021-08-19T12:32:42",
      "eventStop": "2021-08-19T12:39:06",
      "duration": 6,
      "status": "Under Review",
      "associatedSiteId": 115498,
      "outfallName": "NORTON TRANSFER IOW",
      "isImpacting": true,
      "overFlowSiteId": 0,
      "historicSpillsList": [
        {
          "id": 344852900,
          "eventId": 482726,
          "siteUnitNumber": 12614,
          "bathingSite": "TOTLAND BAY",
          "eventStart": "2021-08-19T12:32:42",
          "eventStop": "2021-08-19T12:39:06",
          "duration": 6,
          "status": "Under Review",
          "associatedSiteId": 115498,
          "outfallName": "NORTON TRANSFER IOW",
          "isImpacting": true,
          "overFlowSiteId": 108544
        },
        {
          "id": 344852901,
          "eventId": 482726,
          "siteUnitNumber": 12615,
          "bathingSite": "COLWELL BAY",
          "eventStart": "2021-08-19T12:32:42",
          "eventStop": "2021-08-19T12:39:06",
          "duration": 6,
          "status": "Under Review",
          "associatedSiteId": 115498,
          "outfallName": "NORTON TRANSFER IOW",
          "isImpacting": true,
          "overFlowSiteId": 108544,
          "historicSpillsList": []
        }
      ]
    },
    {
      "id": 344852902,
      "eventId": 482723,
      "siteUnitNumber": 12614,
      "bathingSite": "TOTLAND BAY",
      "eventStart": "2021-08-19T12:23:12",
      "eventStop": "2021-08-19T12:30:13",
      "duration": 7,
      "status": "Not Genuine",
      "associatedSiteId": 115498,
      "outfallName": "NORTON TRANSFER IOW",
      "isImpacting": true,
      "overFlowSiteId": 0,
      "historicSpillsList": []
    },
    {
      "id": 344852904,
      "eventId": 482708,
      "siteUnitNumber": 12614,
      "bathingSite": "TOTLAND BAY",
      "eventStart": "2021-08-19T11:32:36",
      "eventStop": "2021-08-19T11:38:14",
      "duration": 5,
      "status": "Under Review",
      "associatedSiteId": 115498,
      "outfallName": "NORTON TRANSFER IOW",
      "isImpacting": true,
      "overFlowSiteId": 0,
      "historicSpillsList": [
        {
          "id": 344852904,
          "eventId": 482708,
          "siteUnitNumber": 12614,
          "bathingSite": "TOTLAND BAY",
          "eventStart": "2021-08-19T11:32:36",
          "eventStop": "2021-08-19T11:38:14",
          "duration": 5,
          "status": "Under Review",
          "associatedSiteId": 115498,
          "outfallName": "NORTON TRANSFER IOW",
          "isImpacting": true,
          "overFlowSiteId": 108544
        },
        {
          "id": 344852905,
          "eventId": 482708,
          "siteUnitNumber": 12615,
          "bathingSite": "COLWELL BAY",
          "eventStart": "2021-08-19T11:32:36",
          "eventStop": "2021-08-19T11:38:14",
          "duration": 5,
          "status": "Under Review",
          "associatedSiteId": 115498,
          "outfallName": "NORTON TRANSFER IOW",
          "isImpacting": true,
          "overFlowSiteId": 108544,
          "historicSpillsList": []
        }
      ]
    },
    {
      "id": 344852906,
      "eventId": 482701,
      "siteUnitNumber": 12615,
      "bathingSite": "COLWELL BAY",
      "eventStart": "2021-08-19T11:16:50",
      "eventStop": "2021-08-19T11:31:27",
      "duration": 14,
      "status": "Not Genuine",
      "associatedSiteId": 115498,
      "outfallName": "NORTON TRANSFER IOW",
      "isImpacting": true,
      "overFlowSiteId": 0,
      "historicSpillsList": []
    },
    {
      "id": 344852908,
      "eventId": 482699,
      "siteUnitNumber": 12614,
      "bathingSite": "TOTLAND BAY",
      "eventStart": "2021-08-19T11:08:24",
      "eventStop": "2021-08-19T11:13:38",
      "duration": 5,
      "status": "Under Review",
      "associatedSiteId": 115498,
      "outfallName": "NORTON TRANSFER IOW",
      "isImpacting": true,
      "overFlowSiteId": 0,
      "historicSpillsList": [
        {
          "id": 344852908,
          "eventId": 482699,
          "siteUnitNumber": 12614,
          "bathingSite": "TOTLAND BAY",
          "eventStart": "2021-08-19T11:08:24",
          "eventStop": "2021-08-19T11:13:38",
          "duration": 5,
          "status": "Under Review",
          "associatedSiteId": 115498,
          "outfallName": "NORTON TRANSFER IOW",
          "isImpacting": true,
          "overFlowSiteId": 108544
        },
        {
          "id": 344852909,
          "eventId": 482699,
          "siteUnitNumber": 12615,
          "bathingSite": "COLWELL BAY",
          "eventStart": "2021-08-19T11:08:24",
          "eventStop": "2021-08-19T11:13:38",
          "duration": 5,
          "status": "Under Review",
          "associatedSiteId": 115498,
          "outfallName": "NORTON TRANSFER IOW",
          "isImpacting": true,
          "overFlowSiteId": 108544,
          "historicSpillsList": []
        }
      ]
    },
    {
      "id": 344852910,
      "eventId": 482696,
      "siteUnitNumber": 12614,
      "bathingSite": "TOTLAND BAY",
      "eventStart": "2021-08-19T11:00:55",
      "eventStop": "2021-08-19T11:06:40",
      "duration": 5,
      "status": "Under Review",
      "associatedSiteId": 115498,
      "outfallName": "NORTON TRANSFER IOW",
      "isImpacting": true,
      "overFlowSiteId": 0,
      "historicSpillsList": [
        {
          "id": 344852910,
          "eventId": 482696,
          "siteUnitNumber": 12614,
          "bathingSite": "TOTLAND BAY",
          "eventStart": "2021-08-19T11:00:55",
          "eventStop": "2021-08-19T11:06:40",
          "duration": 5,
          "status": "Under Review",
          "associatedSiteId": 115498,
          "outfallName": "NORTON TRANSFER IOW",
          "isImpacting": true,
          "overFlowSiteId": 108544
        },
        {
          "id": 344852911,
          "eventId": 482696,
          "siteUnitNumber": 12615,
          "bathingSite": "COLWELL BAY",
          "eventStart": "2021-08-19T11:00:55",
          "eventStop": "2021-08-19T11:06:40",
          "duration": 5,
          "status": "Under Review",
          "associatedSiteId": 115498,
          "outfallName": "NORTON TRANSFER IOW",
          "isImpacting": true,
          "overFlowSiteId": 108544,
          "historicSpillsList": []
        }
      ]
    },
    {
      "id": 344852912,
      "eventId": 482692,
      "siteUnitNumber": 12615,
      "bathingSite": "COLWELL BAY",
      "eventStart": "2021-08-19T10:51:46",
      "eventStop": "2021-08-19T10:57:14",
      "duration": 5,
      "status": "Under Review",
      "associatedSiteId": 115498,
      "outfallName": "NORTON TRANSFER IOW",
      "isImpacting": true,
      "overFlowSiteId": 0,
      "historicSpillsList": [
        {
          "id": 344852912,
          "eventId": 482692,
          "siteUnitNumber": 12615,
          "bathingSite": "COLWELL BAY",
          "eventStart": "2021-08-19T10:51:46",
          "eventStop": "2021-08-19T10:57:14",
          "duration": 5,
          "status": "Under Review",
          "associatedSiteId": 115498,
          "outfallName": "NORTON TRANSFER IOW",
          "isImpacting": true,
          "overFlowSiteId": 108544
        },
        {
          "id": 344852913,
          "eventId": 482692,
          "siteUnitNumber": 12614,
          "bathingSite": "TOTLAND BAY",
          "eventStart": "2021-08-19T10:51:46",
          "eventStop": "2021-08-19T10:57:14",
          "duration": 5,
          "status": "Under Review",
          "associatedSiteId": 115498,
          "outfallName": "NORTON TRANSFER IOW",
          "isImpacting": true,
          "overFlowSiteId": 108544,
          "historicSpillsList": []
        }
      ]
    },
    {
      "id": 344852914,
      "eventId": 482682,
      "siteUnitNumber": 12614,
      "bathingSite": "TOTLAND BAY",
      "eventStart": "2021-08-19T10:35:16",
      "eventStop": "2021-08-19T10:41:34",
      "duration": 6,
      "status": "Under Review",
      "associatedSiteId": 115498,
      "outfallName": "NORTON TRANSFER IOW",
      "isImpacting": true,
      "overFlowSiteId": 0,
      "historicSpillsList": [
        {
          "id": 344852914,
          "eventId": 482682,
          "siteUnitNumber": 12614,
          "bathingSite": "TOTLAND BAY",
          "eventStart": "2021-08-19T10:35:16",
          "eventStop": "2021-08-19T10:41:34",
          "duration": 6,
          "status": "Under Review",
          "associatedSiteId": 115498,
          "outfallName": "NORTON TRANSFER IOW",
          "isImpacting": true,
          "overFlowSiteId": 108544
        },
        {
          "id": 344852915,
          "eventId": 482682,
          "siteUnitNumber": 12615,
          "bathingSite": "COLWELL BAY",
          "eventStart": "2021-08-19T10:35:16",
          "eventStop": "2021-08-19T10:41:34",
          "duration": 6,
          "status": "Under Review",
          "associatedSiteId": 115498,
          "outfallName": "NORTON TRANSFER IOW",
          "isImpacting": true,
          "overFlowSiteId": 108544,
          "historicSpillsList": []
        }
      ]
    },
    {
      "id": 344852916,
      "eventId": 482674,
      "siteUnitNumber": 12614,
      "bathingSite": "TOTLAND BAY",
      "eventStart": "2021-08-19T10:26:40",
      "eventStop": "2021-08-19T10:31:59",
      "duration": 5,
      "status": "Not Genuine",
      "associatedSiteId": 115498,
      "outfallName": "NORTON TRANSFER IOW",
      "isImpacting": true,
      "overFlowSiteId": 0,
      "historicSpillsList": []
    },
    {
      "id": 344852918,
      "eventId": 482672,
      "siteUnitNumber": 12615,
      "bathingSite": "COLWELL BAY",
      "eventStart": "2021-08-19T10:19:26",
      "eventStop": "2021-08-19T10:25:01",
      "duration": 5,
      "status": "Under Review",
      "associatedSiteId": 115498,
      "outfallName": "NORTON TRANSFER IOW",
      "isImpacting": true,
      "overFlowSiteId": 0,
      "historicSpillsList": [
        {
          "id": 344852918,
          "eventId": 482672,
          "siteUnitNumber": 12615,
          "bathingSite": "COLWELL BAY",
          "eventStart": "2021-08-19T10:19:26",
          "eventStop": "2021-08-19T10:25:01",
          "duration": 5,
          "status": "Under Review",
          "associatedSiteId": 115498,
          "outfallName": "NORTON TRANSFER IOW",
          "isImpacting": true,
          "overFlowSiteId": 108544
        },
        {
          "id": 344852919,
          "eventId": 482672,
          "siteUnitNumber": 12614,
          "bathingSite": "TOTLAND BAY",
          "eventStart": "2021-08-19T10:19:26",
          "eventStop": "2021-08-19T10:25:01",
          "duration": 5,
          "status": "Under Review",
          "associatedSiteId": 115498,
          "outfallName": "NORTON TRANSFER IOW",
          "isImpacting": true,
          "overFlowSiteId": 108544,
          "historicSpillsList": []
        }
      ]
    },
    {
      "id": 344852920,
      "eventId": 482654,
      "siteUnitNumber": 12615,
      "bathingSite": "COLWELL BAY",
      "eventStart": "2021-08-19T09:33:58",
      "eventStop": "2021-08-19T09:46:40",
      "duration": 12,
      "status": "Under Review",
      "associatedSiteId": 115498,
      "outfallName": "NORTON TRANSFER IOW",
      "isImpacting": true,
      "overFlowSiteId": 0,
      "historicSpillsList": [
        {
          "id": 344852920,
          "eventId": 482654,
          "siteUnitNumber": 12615,
          "bathingSite": "COLWELL BAY",
          "eventStart": "2021-08-19T09:33:58",
          "eventStop": "2021-08-19T09:46:40",
          "duration": 12,
          "status": "Under Review",
          "associatedSiteId": 115498,
          "outfallName": "NORTON TRANSFER IOW",
          "isImpacting": true,
          "overFlowSiteId": 108544
        },
        {
          "id": 344852921,
          "eventId": 482654,
          "siteUnitNumber": 12614,
          "bathingSite": "TOTLAND BAY",
          "eventStart": "2021-08-19T09:33:58",
          "eventStop": "2021-08-19T09:46:40",
          "duration": 12,
          "status": "Under Review",
          "associatedSiteId": 115498,
          "outfallName": "NORTON TRANSFER IOW",
          "isImpacting": true,
          "overFlowSiteId": 108544,
          "historicSpillsList": []
        }
      ]
    },
    {
      "id": 344852922,
      "eventId": 482645,
      "siteUnitNumber": 12614,
      "bathingSite": "TOTLAND BAY",
      "eventStart": "2021-08-19T09:17:10",
      "eventStop": "2021-08-19T09:30:07",
      "duration": 12,
      "status": "Under Review",
      "associatedSiteId": 115498,
      "outfallName": "NORTON TRANSFER IOW",
      "isImpacting": true,
      "overFlowSiteId": 0,
      "historicSpillsList": [
        {
          "id": 344852922,
          "eventId": 482645,
          "siteUnitNumber": 12614,
          "bathingSite": "TOTLAND BAY",
          "eventStart": "2021-08-19T09:17:10",
          "eventStop": "2021-08-19T09:30:07",
          "duration": 12,
          "status": "Under Review",
          "associatedSiteId": 115498,
          "outfallName": "NORTON TRANSFER IOW",
          "isImpacting": true,
          "overFlowSiteId": 108544
        },
        {
          "id": 344852923,
          "eventId": 482645,
          "siteUnitNumber": 12615,
          "bathingSite": "COLWELL BAY",
          "eventStart": "2021-08-19T09:17:10",
          "eventStop": "2021-08-19T09:30:07",
          "duration": 12,
          "status": "Under Review",
          "associatedSiteId": 115498,
          "outfallName": "NORTON TRANSFER IOW",
          "isImpacting": true,
          "overFlowSiteId": 108544,
          "historicSpillsList": []
        }
      ]
    }
  ]
}