{
  "currentPage": 482,
  "totalItems": 18701,
  "totalPages": 749,
  "items": [
    {
      "id": 343982498,
      "eventId": 639108,
      "siteUnitNumber": 12582,
      "bathingSite": "SEAFORD",
      "eventStart": "2022-10-02T10:12:00",
      "eventStop": "2022-10-02T10:56:00",
      "duration": 44,
      "status": "Genuine",
      "associatedSiteId": 109957,
      "outfallName": "PORTOBELLO BRIGHTON NO2",
      "isImpacting": true,
      "overFlowSiteId": 0,
      "historicSpillsList": [
        {
          "id": 343982498,
          "eventId": 639108,
          "siteUnitNumber": 12582,
          "bathingSite": "SEAFORD",
          "eventStart": "2022-10-02T10:12:00",
          "eventStop": "2022-10-02T10:56:00",
          "duration": 44,
          "status": "Genuine",
          "associatedSiteId": 109957,
          "outfallName": "PORTOBELLO BRIGHTON NO2",
          "isImpacting": true,
          "overFlowSiteId": 116036
        },
        {
          "id": 343982499,
          "eventId": 639108,
          "siteUnitNumber": 12583,
          "bathingSite": "SALTDEAN",
          "eventStart": "2022-10-02T10:12:00",
          "eventStop": "2022-10-02T10:56:00",
          "duration": 44,
          "status": "Genuine",
          "associatedSiteId": 109957,
          "outfallName": "PORTOBELLO BRIGHTON NO2",
          "isImpacting": true,
          "overFlowSiteId": 116036,
          "historicSpillsList": []
        }
      ]
    },
    {
      "id": 343984673,
      "eventId": 638403,
      "siteUnitNumber": 12594,
      "bathingSite": "BOGNOR REGIS EAST",
      "eventStart": "2022-10-02T09:45:00",
      "eventStop": "2022-10-02T10:46:00",
      "duration": 61,
      "status": "Genuine",
      "associatedSiteId": 109959,
      "outfallName": "WEST PARK BOGNOR REGIS",
      "isImpacting": false,
      "overFlowSiteId": 0,
      "historicSpillsList": []
    },
    {
      "id": 343986066,
      "eventId": 638371,
      "siteUnitNumber": 12591,
      "bathingSite": "LITTLEHAMPTON",
      "eventStart": "2022-10-02T09:14:38",
      "eventStop": "2022-10-02T09:56:00",
      "duration": 41,
      "status": "Genuine",
      "associatedSiteId": 109968,
      "outfallName": "FORD ROAD ARUNDEL",
      "isImpacting": true,
      "overFlowSiteId": 0,
      "historicSpillsList": [
        {
          "id": 343986066,
          "eventId": 638371,
          "siteUnitNumber": 12591,
          "bathingSite": "LITTLEHAMPTON",
          "eventStart": "2022-10-02T09:14:38",
          "eventStop": "2022-10-02T09:56:00",
          "duration": 41,
          "status": "Genuine",
          "associatedSiteId": 109968,
          "outfallName": "FORD ROAD ARUNDEL",
          "isImpacting": true,
          "overFlowSiteId": 108002
        }
      ]
    },
    {
      "id": 343985579,
      "eventId": 638363,
      "siteUnitNumber": 12591,
      "bathingSite": "LITTLEHAMPTON",
      "eventStart": "2022-10-02T09:27:00",
      "eventStop": "2022-10-02T09:53:00",
      "duration": 26,
      "status": "Genuine",
      "associatedSiteId": 109965,
      "outfallName": "SEA ROAD LITTLEHAMPTON",
      "isImpacting": false,
      "overFlowSiteId": 0,
      "historicSpillsList": []
    },
    {
      "id": 343996089,
      "eventId": 639073,
      "siteUnitNumber": 12616,
      "bathingSite": "GURNARD",
      "eventStart": "2022-10-02T08:47:00",
      "eventStop": "2022-10-02T09:49:00",
      "duration": 62,
      "status": "Genuine",
      "associatedSiteId": 110701,
      "outfallName": "TERMINUS ROAD COWES 2",
      "isImpacting": true,
      "overFlowSiteId": 0,
      "historicSpillsList": [
        {
          "id": 343996089,
          "eventId": 639073,
          "siteUnitNumber": 12616,
          "bathingSite": "GURNARD",
          "eventStart": "2022-10-02T08:47:00",
          "eventStop": "2022-10-02T09:49:00",
          "duration": 62,
          "status": "Genuine",
          "associatedSiteId": 110701,
          "outfallName": "TERMINUS ROAD COWES 2",
          "isImpacting": true,
          "overFlowSiteId": 108563
        },
        {
          "id": 343996090,
          "eventId": 639073,
          "siteUnitNumber": 12617,
          "bathingSite": "COWES",
          "eventStart": "2022-10-02T08:47:00",
          "eventStop": "2022-10-02T09:49:00",
          "duration": 62,
          "status": "Genuine",
          "associatedSiteId": 110701,
          "outfallName": "TERMINUS ROAD COWES 2",
          "isImpacting": true,
          "overFlowSiteId": 108563,
          "historicSpillsList": []
        }
      ]
    },
    {
      "id": 343996091,
      "eventId": 638476,
      "siteUnitNumber": 12616,
      "bathingSite": "GURNARD",
      "eventStart": "2022-10-02T08:59:10",
      "eventStop": "2022-10-02T09:12:00",
      "duration": 12,
      "status": "Genuine",
      "associatedSiteId": 110701,
      "outfallName": "TERMINUS ROAD COWES 2",
      "isImpacting": true,
      "overFlowSiteId": 0,
      "historicSpillsList": [
        {
          "id": 343996091,
          "eventId": 638476,
          "siteUnitNumber": 12616,
          "bathingSite": "GURNARD",
          "eventStart": "2022-10-02T08:59:10",
          "eventStop": "2022-10-02T09:12:00",
          "duration": 12,
          "status": "Genuine",
          "associatedSiteId": 110701,
          "outfallName": "TERMINUS ROAD COWES 2",
          "isImpacting": true,
          "overFlowSiteId": 108562
        },
        {
          "id": 343996092,
          "eventId": 638476,
          "siteUnitNumber": 12617,
          "bathingSite": "COWES",
          "eventStart": "2022-10-02T08:59:10",
          "eventStop": "2022-10-02T09:12:00",
          "duration": 12,
          "status": "Genuine",
          "associatedSiteId": 110701,
          "outfallName": "TERMINUS ROAD COWES 2",
          "isImpacting": true,
          "overFlowSiteId": 108562,
          "historicSpillsList": []
        }
      ]
    },
    {
      "id": 343976906,
      "eventId": 638286,
      "siteUnitNumber": 12568,
      "bathingSite": "SANDGATE",
      "eventStart": "2022-10-02T05:00:00",
      "eventStop": "2022-10-02T06:42:00",
      "duration": 102,
      "status": "Genuine",
      "associatedSiteId": 109897,
      "outfallName": "RANGE ROAD HYTHE K LONG",
      "isImpacting": true,
      "overFlowSiteId": 0,
      "historicSpillsList": [
        {
          "id": 343976906,
          "eventId": 638286,
          "siteUnitNumber": 12568,
          "bathingSite": "SANDGATE",
          "eventStart": "2022-10-02T05:00:00",
          "eventStop": "2022-10-02T06:42:00",
          "duration": 102,
          "status": "Genuine",
          "associatedSiteId": 109897,
          "outfallName": "RANGE ROAD HYTHE K LONG",
          "isImpacting": true,
          "overFlowSiteId": 116048
        },
        {
          "id": 343976907,
          "eventId": 638286,
          "siteUnitNumber": 12569,
          "bathingSite": "HYTHE",
          "eventStart": "2022-10-02T05:00:00",
          "eventStop": "2022-10-02T06:42:00",
          "duration": 102,
          "status": "Genuine",
          "associatedSiteId": 109897,
          "outfallName": "RANGE ROAD HYTHE K LONG",
          "isImpacting": true,
          "overFlowSiteId": 116048,
          "historicSpillsList": []
        }
      ]
    },
    {
      "id": 343986069,
      "eventId": 638101,
      "siteUnitNumber": 12591,
      "bathingSite": "LITTLEHAMPTON",
      "eventStart": "2022-10-01T15:45:00",
      "eventStop": "2022-10-01T16:45:00",
      "duration": 60,
      "status": "Genuine",
      "associatedSiteId": 109968,
      "outfallName": "FORD ROAD ARUNDEL",
      "isImpacting": false,
      "overFlowSiteId": 0,
      "historicSpillsList": []
    },
    {
      "id": 343964895,
      "eventId": 638108,
      "siteUnitNumber": 12616,
      "bathingSite": "GURNARD",
      "eventStart": "2022-10-01T13:28:45",
      "eventStop": "2022-10-01T16:11:57",
      "duration": 163,
      "status": "Genuine",
      "associatedSiteId": 109700,
      "outfallName": "MARKET HILL COWES",
      "isImpacting": false,
      "overFlowSiteId": 0,
      "historicSpillsList": []
    },
    {
      "id": 343969184,
      "eventId": 640737,
      "siteUnitNumber": 12617,
      "bathingSite": "COWES",
      "eventStart": "2022-10-01T00:00:00",
      "eventStop": "2022-10-01T09:57:00",
      "duration": 597,
      "status": "Genuine",
      "associatedSiteId": 109777,
      "outfallName": "APPLEY PARK RYDE TRANSFER",
      "isImpacting": true,
      "overFlowSiteId": 0,
      "historicSpillsList": [
        {
          "id": 343969184,
          "eventId": 640737,
          "siteUnitNumber": 12617,
          "bathingSite": "COWES",
          "eventStart": "2022-10-01T00:00:00",
          "eventStop": "2022-10-01T09:57:00",
          "duration": 597,
          "status": "Genuine",
          "associatedSiteId": 109777,
          "outfallName": "APPLEY PARK RYDE TRANSFER",
          "isImpacting": true,
          "overFlowSiteId": 108941
        },
        {
          "id": 343969185,
          "eventId": 640737,
          "siteUnitNumber": 12618,
          "bathingSite": "RYDE",
          "eventStart": "2022-10-01T00:00:00",
          "eventStop": "2022-10-01T09:57:00",
          "duration": 597,
          "status": "Genuine",
          "associatedSiteId": 109777,
          "outfallName": "APPLEY PARK RYDE TRANSFER",
          "isImpacting": true,
          "overFlowSiteId": 108941,
          "historicSpillsList": []
        }
      ]
    },
    {
      "id": 343989794,
      "eventId": 644003,
      "siteUnitNumber": 12622,
      "bathingSite": "WHITECLIFF BAY",
      "eventStart": "2022-10-01T02:54:00",
      "eventStop": "2022-10-01T03:27:00",
      "duration": 33,
      "status": "Genuine",
      "associatedSiteId": 110096,
      "outfallName": "SANDOWN NO1",
      "isImpacting": true,
      "overFlowSiteId": 0,
      "historicSpillsList": [
        {
          "id": 343989794,
          "eventId": 644003,
          "siteUnitNumber": 12622,
          "bathingSite": "WHITECLIFF BAY",
          "eventStart": "2022-10-01T02:54:00",
          "eventStop": "2022-10-01T03:27:00",
          "duration": 33,
          "status": "Genuine",
          "associatedSiteId": 110096,
          "outfallName": "SANDOWN NO1",
          "isImpacting": true,
          "overFlowSiteId": 115453
        },
        {
          "id": 343989795,
          "eventId": 644003,
          "siteUnitNumber": 12623,
          "bathingSite": "YAVERLAND",
          "eventStart": "2022-10-01T02:54:00",
          "eventStop": "2022-10-01T03:27:00",
          "duration": 33,
          "status": "Genuine",
          "associatedSiteId": 110096,
          "outfallName": "SANDOWN NO1",
          "isImpacting": true,
          "overFlowSiteId": 115453,
          "historicSpillsList": []
        },
        {
          "id": 343989796,
          "eventId": 644003,
          "siteUnitNumber": 12624,
          "bathingSite": "SANDOWN",
          "eventStart": "2022-10-01T02:54:00",
          "eventStop": "2022-10-01T03:27:00",
          "duration": 33,
          "status": "Genuine",
          "associatedSiteId": 110096,
          "outfallName": "SANDOWN NO1",
          "isImpacting": true,
          "overFlowSiteId": 115453,
          "historicSpillsList": []
        }
      ]
    },
    {
      "id": 343989798,
      "eventId": 644002,
      "siteUnitNumber": 12622,
      "bathingSite": "WHITECLIFF BAY",
      "eventStart": "2022-10-01T01:00:00",
      "eventStop": "2022-10-01T01:46:00",
      "duration": 46,
      "status": "Genuine",
      "associatedSiteId": 110096,
      "outfallName": "SANDOWN NO1",
      "isImpacting": true,
      "overFlowSiteId": 0,
      "historicSpillsList": [
        {
          "id": 343989798,
          "eventId": 644002,
          "siteUnitNumber": 12622,
          "bathingSite": "WHITECLIFF BAY",
          "eventStart": "2022-10-01T01:00:00",
          "eventStop": "2022-10-01T01:46:00",
          "duration": 46,
          "status": "Genuine",
          "associatedSiteId": 110096,
          "outfallName": "SANDOWN NO1",
          "isImpacting": true,
          "overFlowSiteId": 115453
        },
        {
          "id": 343989799,
          "eventId": 644002,
          "siteUnitNumber": 12623,
          "bathingSite": "YAVERLAND",
          "eventStart": "2022-10-01T01:00:00",
          "eventStop": "2022-10-01T01:46:00",
          "duration": 46,
          "status": "Genuine",
          "associatedSiteId": 110096,
          "outfallName": "SANDOWN NO1",
          "isImpacting": true,
          "overFlowSiteId": 115453,
          "historicSpillsList": []
        },
        {
          "id": 343989800,
          "eventId": 644002,
          "siteUnitNumber": 12624,
          "bathingSite": "SANDOWN",
          "eventStart": "2022-10-01T01:00:00",
          "eventStop": "2022-10-01T01:46:00",
          "duration": 46,
          "status": "Genuine",
          "associatedSiteId": 110096,
          "outfallName": "SANDOWN NO1",
          "isImpacting": true,
          "overFlowSiteId": 115453,
          "historicSpillsList": []
        }
      ]
    },
    {
      "id": 343987828,
      "eventId": 640903,
      "siteUnitNumber": 12567,
      "bathingSite": "FOLKESTONE",
      "eventStart": "2022-10-01T00:00:00",
      "eventStop": "2022-10-01T01:26:00",
      "duration": 86,
      "status": "Genuine",
      "associatedSiteId": 110010,
      "outfallName": "THE STADE FOLKESTONE",
      "isImpacting": true,
      "overFlowSiteId": 0,
      "historicSpillsList": [
        {
          "id": 343987828,
          "eventId": 640903,
          "siteUnitNumber": 12567,
          "bathingSite": "FOLKESTONE",
          "eventStart": "2022-10-01T00:00:00",
          "eventStop": "2022-10-01T01:26:00",
          "duration": 86,
          "status": "Genuine",
          "associatedSiteId": 110010,
          "outfallName": "THE STADE FOLKESTONE",
          "isImpacting": true,
          "overFlowSiteId": 108909
        }
      ]
    },
    {
      "id": 343978612,
      "eventId": 640739,
      "siteUnitNumber": 12576,
      "bathingSite": "ST LEONARDS",
      "eventStart": "2022-10-01T00:00:00",
      "eventStop": "2022-10-01T00:33:00",
      "duration": 33,
      "status": "Genuine",
      "associatedSiteId": 109903,
      "outfallName": "BEXHILL & HASTINGS NO2",
      "isImpacting": true,
      "overFlowSiteId": 0,
      "historicSpillsList": [
        {
          "id": 343978612,
          "eventId": 640739,
          "siteUnitNumber": 12576,
          "bathingSite": "ST LEONARDS",
          "eventStart": "2022-10-01T00:00:00",
          "eventStop": "2022-10-01T00:33:00",
          "duration": 33,
          "status": "Genuine",
          "associatedSiteId": 109903,
          "outfallName": "BEXHILL & HASTINGS NO2",
          "isImpacting": true,
          "overFlowSiteId": 115398
        },
        {
          "id": 343978613,
          "eventId": 640739,
          "siteUnitNumber": 12577,
          "bathingSite": "BEXHILL",
          "eventStart": "2022-10-01T00:00:00",
          "eventStop": "2022-10-01T00:33:00",
          "duration": 33,
          "status": "Genuine",
          "associatedSiteId": 109903,
          "outfallName": "BEXHILL & HASTINGS NO2",
          "isImpacting": true,
          "overFlowSiteId": 115398,
          "historicSpillsList": []
        }
      ]
    },
    {
      "id": 343997224,
      "eventId": 640931,
      "siteUnitNumber": 12582,
      "bathingSite": "SEAFORD",
      "eventStart": "2022-10-01T00:00:00",
      "eventStop": "2022-10-01T00:19:00",
      "duration": 19,
      "status": "Genuine",
      "associatedSiteId": 110920,
      "outfallName": "NEWHAVEN",
      "isImpacting": true,
      "overFlowSiteId": 0,
      "historicSpillsList": [
        {
          "id": 343997224,
          "eventId": 640931,
          "siteUnitNumber": 12582,
          "bathingSite": "SEAFORD",
          "eventStart": "2022-10-01T00:00:00",
          "eventStop": "2022-10-01T00:19:00",
          "duration": 19,
          "status": "Genuine",
          "associatedSiteId": 110920,
          "outfallName": "NEWHAVEN",
          "isImpacting": true,
          "overFlowSiteId": 116065
        }
      ]
    },
    {
      "id": 343997222,
      "eventId": 637842,
      "siteUnitNumber": 12582,
      "bathingSite": "SEAFORD",
      "eventStart": "2022-09-30T23:44:00",
      "eventStop": "2022-09-30T23:59:00",
      "duration": 15,
      "status": "Genuine",
      "associatedSiteId": 110920,
      "outfallName": "NEWHAVEN",
      "isImpacting": false,
      "overFlowSiteId": 0,
      "historicSpillsList": []
    },
    {
      "id": 343987827,
      "eventId": 637852,
      "siteUnitNumber": 12567,
      "bathingSite": "FOLKESTONE",
      "eventStart": "2022-09-30T23:44:00",
      "eventStop": "2022-09-30T23:59:00",
      "duration": 15,
      "status": "Genuine",
      "associatedSiteId": 110010,
      "outfallName": "THE STADE FOLKESTONE",
      "isImpacting": true,
      "overFlowSiteId": 0,
      "historicSpillsList": [
        {
          "id": 343987827,
          "eventId": 637852,
          "siteUnitNumber": 12567,
          "bathingSite": "FOLKESTONE",
          "eventStart": "2022-09-30T23:44:00",
          "eventStop": "2022-09-30T23:59:00",
          "duration": 15,
          "status": "Genuine",
          "associatedSiteId": 110010,
          "outfallName": "THE STADE FOLKESTONE",
          "isImpacting": true,
          "overFlowSiteId": 108909
        }
      ]
    },
    {
      "id": 343994006,
      "eventId": 637840,
      "siteUnitNumber": 12624,
      "bathingSite": "SANDOWN",
      "eventStart": "2022-09-30T23:34:00",
      "eventStop": "2022-09-30T23:59:00",
      "duration": 25,
      "status": "Genuine",
      "associatedSiteId": 110097,
      "outfallName": "SANDOWN NO2",
      "isImpacting": true,
      "overFlowSiteId": 0,
      "historicSpillsList": [
        {
          "id": 343994012,
          "eventId": 637840,
          "siteUnitNumber": 12623,
          "bathingSite": "YAVERLAND",
          "eventStart": "2022-09-30T23:34:00",
          "eventStop": "2022-09-30T23:59:00",
          "duration": 25,
          "status": "Genuine",
          "associatedSiteId": 110097,
          "outfallName": "SANDOWN NO2",
          "isImpacting": true,
          "overFlowSiteId": 115454,
          "historicSpillsList": []
        }
      ]
    },
    {
      "id": 343978616,
      "eventId": 637724,
      "siteUnitNumber": 12576,
      "bathingSite": "ST LEONARDS",
      "eventStart": "2022-09-30T20:37:02",
      "eventStop": "2022-09-30T23:59:00",
      "duration": 201,
      "status": "Genuine",
      "associatedSiteId": 109903,
      "outfallName": "BEXHILL & HASTINGS NO2",
      "isImpacting": true,
      "overFlowSiteId": 0,
      "historicSpillsList": [
        {
          "id": 343978616,
          "eventId": 637724,
          "siteUnitNumber": 12576,
          "bathingSite": "ST LEONARDS",
          "eventStart": "2022-09-30T20:37:02",
          "eventStop": "2022-09-30T23:59:00",
          "duration": 201,
          "status": "Genuine",
          "associatedSiteId": 109903,
          "outfallName": "BEXHILL & HASTINGS NO2",
          "isImpacting": true,
          "overFlowSiteId": 115398
        },
        {
          "id": 343978617,
          "eventId": 637724,
          "siteUnitNumber": 12577,
          "bathingSite": "BEXHILL",
          "eventStart": "2022-09-30T20:37:02",
          "eventStop": "2022-09-30T23:59:00",
          "duration": 201,
          "status": "Genuine",
          "associatedSiteId": 109903,
          "outfallName": "BEXHILL & HASTINGS NO2",
          "isImpacting": true,
          "overFlowSiteId": 115398,
          "historicSpillsList": []
        }
      ]
    },
    {
      "id": 343989839,
      "eventId": 637699,
      "siteUnitNumber": 12622,
      "bathingSite": "WHITECLIFF BAY",
      "eventStart": "2022-09-30T20:35:54",
      "eventStop": "2022-09-30T23:59:00",
      "duration": 203,
      "status": "Genuine",
      "associatedSiteId": 110096,
      "outfallName": "SANDOWN NO1",
      "isImpacting": true,
      "overFlowSiteId": 0,
      "historicSpillsList": [
        {
          "id": 343989839,
          "eventId": 637699,
          "siteUnitNumber": 12622,
          "bathingSite": "WHITECLIFF BAY",
          "eventStart": "2022-09-30T20:35:54",
          "eventStop": "2022-09-30T23:59:00",
          "duration": 203,
          "status": "Genuine",
          "associatedSiteId": 110096,
          "outfallName": "SANDOWN NO1",
          "isImpacting": true,
          "overFlowSiteId": 115453
        },
        {
          "id": 343989840,
          "eventId": 637699,
          "siteUnitNumber": 12623,
          "bathingSite": "YAVERLAND",
          "eventStart": "2022-09-30T20:35:54",
          "eventStop": "2022-09-30T23:59:00",
          "duration": 203,
          "status": "Genuine",
          "associatedSiteId": 110096,
          "outfallName": "SANDOWN NO1",
          "isImpacting": true,
          "overFlowSiteId": 115453,
          "historicSpillsList": []
        },
        {
          "id": 343989833,
          "eventId": 637699,
          "siteUnitNumber": 12624,
          "bathingSite": "SANDOWN",
          "eventStart": "2022-09-30T20:35:54",
          "eventStop": "2022-09-30T23:59:00",
          "duration": 203,
          "status": "Genuine",
          "associatedSiteId": 110096,
          "outfallName": "SANDOWN NO1",
          "isImpacting": true,
          "overFlowSiteId": 115453,
          "historicSpillsList": []
        }
      ]
    },
    {
      "id": 343969190,
      "eventId": 637542,
      "siteUnitNumber": 12617,
      "bathingSite": "COWES",
      "eventStart": "2022-09-30T17:24:43",
      "eventStop": "2022-09-30T23:59:00",
      "duration": 394,
      "status": "Genuine",
      "associatedSiteId": 109777,
      "outfallName": "APPLEY PARK RYDE TRANSFER",
      "isImpacting": true,
      "overFlowSiteId": 0,
      "historicSpillsList": [
        {
          "id": 343969191,
          "eventId": 637542,
          "siteUnitNumber": 12618,
          "bathingSite": "RYDE",
          "eventStart": "2022-09-30T17:24:43",
          "eventStop": "2022-09-30T23:59:00",
          "duration": 394,
          "status": "Genuine",
          "associatedSiteId": 109777,
          "outfallName": "APPLEY PARK RYDE TRANSFER",
          "isImpacting": true,
          "overFlowSiteId": 108941,
          "historicSpillsList": []
        }
      ]
    },
    {
      "id": 343997227,
      "eventId": 637806,
      "siteUnitNumber": 12582,
      "bathingSite": "SEAFORD",
      "eventStart": "2022-09-30T22:37:06",
      "eventStop": "2022-09-30T23:30:47",
      "duration": 53,
      "status": "Genuine",
      "associatedSiteId": 110920,
      "outfallName": "NEWHAVEN",
      "isImpacting": false,
      "overFlowSiteId": 0,
      "historicSpillsList": []
    },
    {
      "id": 343972738,
      "eventId": 637771,
      "siteUnitNumber": 12548,
      "bathingSite": "TANKERTON",
      "eventStart": "2022-09-30T21:54:37",
      "eventStop": "2022-09-30T23:28:45",
      "duration": 94,
      "status": "Genuine",
      "associatedSiteId": 109830,
      "outfallName": "SWALECLIFFE NO1",
      "isImpacting": false,
      "overFlowSiteId": 0,
      "historicSpillsList": []
    },
    {
      "id": 343994013,
      "eventId": 637700,
      "siteUnitNumber": 12619,
      "bathingSite": "SEAGROVE",
      "eventStart": "2022-09-30T20:48:00",
      "eventStop": "2022-09-30T23:16:00",
      "duration": 148,
      "status": "Genuine",
      "associatedSiteId": 110097,
      "outfallName": "SANDOWN NO2",
      "isImpacting": true,
      "overFlowSiteId": 0,
      "historicSpillsList": [
        {
          "id": 343994016,
          "eventId": 637700,
          "siteUnitNumber": 12623,
          "bathingSite": "YAVERLAND",
          "eventStart": "2022-09-30T20:48:00",
          "eventStop": "2022-09-30T23:16:00",
          "duration": 148,
          "status": "Genuine",
          "associatedSiteId": 110097,
          "outfallName": "SANDOWN NO2",
          "isImpacting": true,
          "overFlowSiteId": 115454,
          "historicSpillsList": []
        }
      ]
    },
    {
      "id": 344000660,
      "eventId": 637880,
      "siteUnitNumber": 12614,
      "bathingSite": "TOTLAND BAY",
      "eventStart": "2022-09-30T19:15:00",
      "eventStop": "2022-09-30T22:45:00",
      "duration": 210,
      "status": "Genuine",
      "associatedSiteId": 115498,
      "outfallName": "NORTON TRANSFER IOW",
      "isImpacting": true,
      "overFlowSiteId": 0,
      "historicSpillsList": [
        {
          "id": 344000660,
          "eventId": 637880,
          "siteUnitNumber": 12614,
          "bathingSite": "TOTLAND BAY",
          "eventStart": "2022-09-30T19:15:00",
          "eventStop": "2022-09-30T22:45:00",
          "duration": 210,
          "status": "Genuine",
          "associatedSiteId": 115498,
          "outfallName": "NORTON TRANSFER IOW",
          "isImpacting": true,
          "overFlowSiteId": 108544
        },
        {
          "id": 344000661,
          "eventId": 637880,
          "siteUnitNumber": 12615,
          "bathingSite": "COLWELL BAY",
          "eventStart": "2022-09-30T19:15:00",
          "eventStop": "2022-09-30T22:45:00",
          "duration": 210,
          "status": "Genuine",
          "associatedSiteId": 115498,
          "outfallName": "NORTON TRANSFER IOW",
          "isImpacting": true,
          "overFlowSiteId": 108544,
          "historicSpillsList": []
        }
      ]
    }
  ]
}