{
  "currentPage": 624,
  "totalItems": 18701,
  "totalPages": 749,
  "items": [
    {
      "id": 344015582,
      "eventId": 475886,
      "siteUnitNumber": 12548,
      "bathingSite": "TANKERTON",
      "eventStart": "2021-08-07T12:19:19",
      "eventStop": "2021-08-07T16:13:36",
      "duration": 234,
      "status": "Genuine",
      "associatedSiteId": 109830,
      "outfallName": "SWALECLIFFE NO1",
      "isImpacting": true,
      "overFlowSiteId": 0,
      "historicSpillsList": [
        {
          "id": 344015582,
          "eventId": 475886,
          "siteUnitNumber": 12548,
          "bathingSite": "TANKERTON",
          "eventStart": "2021-08-07T12:19:19",
          "eventStop": "2021-08-07T16:13:36",
          "duration": 234,
          "status": "Genuine",
          "associatedSiteId": 109830,
          "outfallName": "SWALECLIFFE NO1",
          "isImpacting": true,
          "overFlowSiteId": 115444
        },
        {
          "id": 344015583,
          "eventId": 475886,
          "siteUnitNumber": 12549,
          "bathingSite": "HERNE BAY CENTRAL",
          "eventStart": "2021-08-07T12:19:19",
          "eventStop": "2021-08-07T16:13:36",
          "duration": 234,
          "status": "Genuine",
          "associatedSiteId": 109830,
          "outfallName": "SWALECLIFFE NO1",
          "isImpacting": true,
          "overFlowSiteId": 115444,
          "historicSpillsList": []
        }
      ]
    },
    {
      "id": 344012676,
      "eventId": 475282,
      "siteUnitNumber": 12618,
      "bathingSite": "RYDE",
      "eventStart": "2021-08-07T04:30:00",
      "eventStop": "2021-08-07T16:06:00",
      "duration": 696,
      "status": "Genuine",
      "associatedSiteId": 109778,
      "outfallName": "PRINCE CONSORT RYDE NEW",
      "isImpacting": true,
      "overFlowSiteId": 0,
      "historicSpillsList": [
        {
          "id": 344012676,
          "eventId": 475282,
          "siteUnitNumber": 12618,
          "bathingSite": "RYDE",
          "eventStart": "2021-08-07T04:30:00",
          "eventStop": "2021-08-07T16:06:00",
          "duration": 696,
          "status": "Genuine",
          "associatedSiteId": 109778,
          "outfallName": "PRINCE CONSORT RYDE NEW",
          "isImpacting": true,
          "overFlowSiteId": 108043
        }
      ]
    },
    {
      "id": 344003588,
      "eventId": 475884,
      "siteUnitNumber": 12544,
      "bathingSite": "SHEERNESS",
      "eventStart": "2021-08-07T12:15:00",
      "eventStop": "2021-08-07T14:40:02",
      "duration": 145,
      "status": "Genuine",
      "associatedSiteId": 109616,
      "outfallName": "SOUTH STREET QUEENBOROUGH",
      "isImpacting": true,
      "overFlowSiteId": 0,
      "historicSpillsList": [
        {
          "id": 344003588,
          "eventId": 475884,
          "siteUnitNumber": 12544,
          "bathingSite": "SHEERNESS",
          "eventStart": "2021-08-07T12:15:00",
          "eventStop": "2021-08-07T14:40:02",
          "duration": 145,
          "status": "Genuine",
          "associatedSiteId": 109616,
          "outfallName": "SOUTH STREET QUEENBOROUGH",
          "isImpacting": true,
          "overFlowSiteId": 108732
        }
      ]
    },
    {
      "id": 344038951,
      "eventId": 512877,
      "siteUnitNumber": 12616,
      "bathingSite": "GURNARD",
      "eventStart": "2021-08-07T13:22:00",
      "eventStop": "2021-08-07T14:13:00",
      "duration": 51,
      "status": "Genuine",
      "associatedSiteId": 110701,
      "outfallName": "TERMINUS ROAD COWES 2",
      "isImpacting": true,
      "overFlowSiteId": 0,
      "historicSpillsList": [
        {
          "id": 344038951,
          "eventId": 512877,
          "siteUnitNumber": 12616,
          "bathingSite": "GURNARD",
          "eventStart": "2021-08-07T13:22:00",
          "eventStop": "2021-08-07T14:13:00",
          "duration": 51,
          "status": "Genuine",
          "associatedSiteId": 110701,
          "outfallName": "TERMINUS ROAD COWES 2",
          "isImpacting": true,
          "overFlowSiteId": 108562
        },
        {
          "id": 344038952,
          "eventId": 512877,
          "siteUnitNumber": 12617,
          "bathingSite": "COWES",
          "eventStart": "2021-08-07T13:22:00",
          "eventStop": "2021-08-07T14:13:00",
          "duration": 51,
          "status": "Genuine",
          "associatedSiteId": 110701,
          "outfallName": "TERMINUS ROAD COWES 2",
          "isImpacting": true,
          "overFlowSiteId": 108562,
          "historicSpillsList": []
        }
      ]
    },
    {
      "id": 344039025,
      "eventId": 475931,
      "siteUnitNumber": 12616,
      "bathingSite": "GURNARD",
      "eventStart": "2021-08-07T13:19:06",
      "eventStop": "2021-08-07T14:03:00",
      "duration": 43,
      "status": "Genuine",
      "associatedSiteId": 110701,
      "outfallName": "TERMINUS ROAD COWES 2",
      "isImpacting": true,
      "overFlowSiteId": 0,
      "historicSpillsList": [
        {
          "id": 344039025,
          "eventId": 475931,
          "siteUnitNumber": 12616,
          "bathingSite": "GURNARD",
          "eventStart": "2021-08-07T13:19:06",
          "eventStop": "2021-08-07T14:03:00",
          "duration": 43,
          "status": "Genuine",
          "associatedSiteId": 110701,
          "outfallName": "TERMINUS ROAD COWES 2",
          "isImpacting": true,
          "overFlowSiteId": 108563
        },
        {
          "id": 344039026,
          "eventId": 475931,
          "siteUnitNumber": 12617,
          "bathingSite": "COWES",
          "eventStart": "2021-08-07T13:19:06",
          "eventStop": "2021-08-07T14:03:00",
          "duration": 43,
          "status": "Genuine",
          "associatedSiteId": 110701,
          "outfallName": "TERMINUS ROAD COWES 2",
          "isImpacting": true,
          "overFlowSiteId": 108563,
          "historicSpillsList": []
        }
      ]
    },
    {
      "id": 344045530,
      "eventId": 475623,
      "siteUnitNumber": 12662,
      "bathingSite": "CHICHESTER HARBOUR",
      "eventStart": "2021-08-07T08:51:00",
      "eventStop": "2021-08-07T13:44:00",
      "duration": 293,
      "status": "Genuine",
      "associatedSiteId": 116025,
      "outfallName": "PRIORS LEAZE LANE NUTBOURNE",
      "isImpacting": true,
      "overFlowSiteId": 0,
      "historicSpillsList": [
        {
          "id": 344045530,
          "eventId": 475623,
          "siteUnitNumber": 12662,
          "bathingSite": "CHICHESTER HARBOUR",
          "eventStart": "2021-08-07T08:51:00",
          "eventStop": "2021-08-07T13:44:00",
          "duration": 293,
          "status": "Genuine",
          "associatedSiteId": 116025,
          "outfallName": "PRIORS LEAZE LANE NUTBOURNE",
          "isImpacting": true,
          "overFlowSiteId": 111267
        }
      ]
    },
    {
      "id": 344003468,
      "eventId": 475865,
      "siteUnitNumber": 12544,
      "bathingSite": "SHEERNESS",
      "eventStart": "2021-08-07T11:42:00",
      "eventStop": "2021-08-07T13:33:00",
      "duration": 111,
      "status": "Genuine",
      "associatedSiteId": 109614,
      "outfallName": "BRIELLE WAY WESTMINSTER",
      "isImpacting": true,
      "overFlowSiteId": 0,
      "historicSpillsList": [
        {
          "id": 344003468,
          "eventId": 475865,
          "siteUnitNumber": 12544,
          "bathingSite": "SHEERNESS",
          "eventStart": "2021-08-07T11:42:00",
          "eventStop": "2021-08-07T13:33:00",
          "duration": 111,
          "status": "Genuine",
          "associatedSiteId": 109614,
          "outfallName": "BRIELLE WAY WESTMINSTER",
          "isImpacting": true,
          "overFlowSiteId": 108810
        }
      ]
    },
    {
      "id": 344016346,
      "eventId": 475917,
      "siteUnitNumber": 12547,
      "bathingSite": "WEST BEACH WHITSTABLE",
      "eventStart": "2021-08-07T12:29:16",
      "eventStop": "2021-08-07T13:13:53",
      "duration": 44,
      "status": "Genuine",
      "associatedSiteId": 109832,
      "outfallName": "GORREL NO1",
      "isImpacting": true,
      "overFlowSiteId": 0,
      "historicSpillsList": [
        {
          "id": 344016346,
          "eventId": 475917,
          "siteUnitNumber": 12547,
          "bathingSite": "WEST BEACH WHITSTABLE",
          "eventStart": "2021-08-07T12:29:16",
          "eventStop": "2021-08-07T13:13:53",
          "duration": 44,
          "status": "Genuine",
          "associatedSiteId": 109832,
          "outfallName": "GORREL NO1",
          "isImpacting": true,
          "overFlowSiteId": 103279
        },
        {
          "id": 344016347,
          "eventId": 475917,
          "siteUnitNumber": 12548,
          "bathingSite": "TANKERTON",
          "eventStart": "2021-08-07T12:29:16",
          "eventStop": "2021-08-07T13:13:53",
          "duration": 44,
          "status": "Genuine",
          "associatedSiteId": 109832,
          "outfallName": "GORREL NO1",
          "isImpacting": true,
          "overFlowSiteId": 103279,
          "historicSpillsList": []
        }
      ]
    },
    {
      "id": 344038953,
      "eventId": 512876,
      "siteUnitNumber": 12616,
      "bathingSite": "GURNARD",
      "eventStart": "2021-08-07T12:14:00",
      "eventStop": "2021-08-07T12:42:00",
      "duration": 28,
      "status": "Genuine",
      "associatedSiteId": 110701,
      "outfallName": "TERMINUS ROAD COWES 2",
      "isImpacting": true,
      "overFlowSiteId": 0,
      "historicSpillsList": [
        {
          "id": 344038953,
          "eventId": 512876,
          "siteUnitNumber": 12616,
          "bathingSite": "GURNARD",
          "eventStart": "2021-08-07T12:14:00",
          "eventStop": "2021-08-07T12:42:00",
          "duration": 28,
          "status": "Genuine",
          "associatedSiteId": 110701,
          "outfallName": "TERMINUS ROAD COWES 2",
          "isImpacting": true,
          "overFlowSiteId": 108562
        },
        {
          "id": 344038954,
          "eventId": 512876,
          "siteUnitNumber": 12617,
          "bathingSite": "COWES",
          "eventStart": "2021-08-07T12:14:00",
          "eventStop": "2021-08-07T12:42:00",
          "duration": 28,
          "status": "Genuine",
          "associatedSiteId": 110701,
          "outfallName": "TERMINUS ROAD COWES 2",
          "isImpacting": true,
          "overFlowSiteId": 108562,
          "historicSpillsList": []
        }
      ]
    },
    {
      "id": 344021474,
      "eventId": 475896,
      "siteUnitNumber": 12576,
      "bathingSite": "ST LEONARDS",
      "eventStart": "2021-08-07T12:17:37",
      "eventStop": "2021-08-07T12:41:18",
      "duration": 23,
      "status": "Genuine",
      "associatedSiteId": 109903,
      "outfallName": "BEXHILL & HASTINGS NO2",
      "isImpacting": true,
      "overFlowSiteId": 0,
      "historicSpillsList": [
        {
          "id": 344021474,
          "eventId": 475896,
          "siteUnitNumber": 12576,
          "bathingSite": "ST LEONARDS",
          "eventStart": "2021-08-07T12:17:37",
          "eventStop": "2021-08-07T12:41:18",
          "duration": 23,
          "status": "Genuine",
          "associatedSiteId": 109903,
          "outfallName": "BEXHILL & HASTINGS NO2",
          "isImpacting": true,
          "overFlowSiteId": 115398
        },
        {
          "id": 344021475,
          "eventId": 475896,
          "siteUnitNumber": 12577,
          "bathingSite": "BEXHILL",
          "eventStart": "2021-08-07T12:17:37",
          "eventStop": "2021-08-07T12:41:18",
          "duration": 23,
          "status": "Genuine",
          "associatedSiteId": 109903,
          "outfallName": "BEXHILL & HASTINGS NO2",
          "isImpacting": true,
          "overFlowSiteId": 115398,
          "historicSpillsList": []
        }
      ]
    },
    {
      "id": 344039027,
      "eventId": 475882,
      "siteUnitNumber": 12616,
      "bathingSite": "GURNARD",
      "eventStart": "2021-08-07T12:08:51",
      "eventStop": "2021-08-07T12:31:00",
      "duration": 22,
      "status": "Genuine",
      "associatedSiteId": 110701,
      "outfallName": "TERMINUS ROAD COWES 2",
      "isImpacting": true,
      "overFlowSiteId": 0,
      "historicSpillsList": [
        {
          "id": 344039027,
          "eventId": 475882,
          "siteUnitNumber": 12616,
          "bathingSite": "GURNARD",
          "eventStart": "2021-08-07T12:08:51",
          "eventStop": "2021-08-07T12:31:00",
          "duration": 22,
          "status": "Genuine",
          "associatedSiteId": 110701,
          "outfallName": "TERMINUS ROAD COWES 2",
          "isImpacting": true,
          "overFlowSiteId": 108563
        },
        {
          "id": 344039028,
          "eventId": 475882,
          "siteUnitNumber": 12617,
          "bathingSite": "COWES",
          "eventStart": "2021-08-07T12:08:51",
          "eventStop": "2021-08-07T12:31:00",
          "duration": 22,
          "status": "Genuine",
          "associatedSiteId": 110701,
          "outfallName": "TERMINUS ROAD COWES 2",
          "isImpacting": true,
          "overFlowSiteId": 108563,
          "historicSpillsList": []
        }
      ]
    },
    {
      "id": 344003587,
      "eventId": 475868,
      "siteUnitNumber": 12544,
      "bathingSite": "SHEERNESS",
      "eventStart": "2021-08-07T11:52:39",
      "eventStop": "2021-08-07T12:02:50",
      "duration": 10,
      "status": "Genuine",
      "associatedSiteId": 109616,
      "outfallName": "SOUTH STREET QUEENBOROUGH",
      "isImpacting": true,
      "overFlowSiteId": 0,
      "historicSpillsList": [
        {
          "id": 344003587,
          "eventId": 475868,
          "siteUnitNumber": 12544,
          "bathingSite": "SHEERNESS",
          "eventStart": "2021-08-07T11:52:39",
          "eventStop": "2021-08-07T12:02:50",
          "duration": 10,
          "status": "Genuine",
          "associatedSiteId": 109616,
          "outfallName": "SOUTH STREET QUEENBOROUGH",
          "isImpacting": true,
          "overFlowSiteId": 108732
        }
      ]
    },
    {
      "id": 344023102,
      "eventId": 475728,
      "siteUnitNumber": 12586,
      "bathingSite": "HOVE",
      "eventStart": "2021-08-07T10:02:00",
      "eventStop": "2021-08-07T11:50:00",
      "duration": 108,
      "status": "Genuine",
      "associatedSiteId": 109929,
      "outfallName": "SHOREHAM NO1",
      "isImpacting": true,
      "overFlowSiteId": 0,
      "historicSpillsList": [
        {
          "id": 344023102,
          "eventId": 475728,
          "siteUnitNumber": 12586,
          "bathingSite": "HOVE",
          "eventStart": "2021-08-07T10:02:00",
          "eventStop": "2021-08-07T11:50:00",
          "duration": 108,
          "status": "Genuine",
          "associatedSiteId": 109929,
          "outfallName": "SHOREHAM NO1",
          "isImpacting": true,
          "overFlowSiteId": 115434
        },
        {
          "id": 344023103,
          "eventId": 475728,
          "siteUnitNumber": 12587,
          "bathingSite": "SOUTHWICK",
          "eventStart": "2021-08-07T10:02:00",
          "eventStop": "2021-08-07T11:50:00",
          "duration": 108,
          "status": "Genuine",
          "associatedSiteId": 109929,
          "outfallName": "SHOREHAM NO1",
          "isImpacting": true,
          "overFlowSiteId": 115434,
          "historicSpillsList": []
        },
        {
          "id": 344023104,
          "eventId": 475728,
          "siteUnitNumber": 12588,
          "bathingSite": "SHOREHAM BEACH",
          "eventStart": "2021-08-07T10:02:00",
          "eventStop": "2021-08-07T11:50:00",
          "duration": 108,
          "status": "Genuine",
          "associatedSiteId": 109929,
          "outfallName": "SHOREHAM NO1",
          "isImpacting": true,
          "overFlowSiteId": 115434,
          "historicSpillsList": []
        }
      ]
    },
    {
      "id": 344039906,
      "eventId": 475542,
      "siteUnitNumber": 12582,
      "bathingSite": "SEAFORD",
      "eventStart": "2021-08-07T07:51:26",
      "eventStop": "2021-08-07T11:45:57",
      "duration": 234,
      "status": "Genuine",
      "associatedSiteId": 110920,
      "outfallName": "NEWHAVEN",
      "isImpacting": true,
      "overFlowSiteId": 0,
      "historicSpillsList": [
        {
          "id": 344039906,
          "eventId": 475542,
          "siteUnitNumber": 12582,
          "bathingSite": "SEAFORD",
          "eventStart": "2021-08-07T07:51:26",
          "eventStop": "2021-08-07T11:45:57",
          "duration": 234,
          "status": "Genuine",
          "associatedSiteId": 110920,
          "outfallName": "NEWHAVEN",
          "isImpacting": true,
          "overFlowSiteId": 116065
        }
      ]
    },
    {
      "id": 344003650,
      "eventId": 475753,
      "siteUnitNumber": 12544,
      "bathingSite": "SHEERNESS",
      "eventStart": "2021-08-07T11:21:00",
      "eventStop": "2021-08-07T11:37:00",
      "duration": 16,
      "status": "Genuine",
      "associatedSiteId": 109617,
      "outfallName": "DROVE ROAD SHEERNESS",
      "isImpacting": true,
      "overFlowSiteId": 0,
      "historicSpillsList": [
        {
          "id": 344003650,
          "eventId": 475753,
          "siteUnitNumber": 12544,
          "bathingSite": "SHEERNESS",
          "eventStart": "2021-08-07T11:21:00",
          "eventStop": "2021-08-07T11:37:00",
          "duration": 16,
          "status": "Genuine",
          "associatedSiteId": 109617,
          "outfallName": "DROVE ROAD SHEERNESS",
          "isImpacting": true,
          "overFlowSiteId": 108727
        },
        {
          "id": 344003651,
          "eventId": 475753,
          "siteUnitNumber": 12550,
          "bathingSite": "MINSTER LEAS",
          "eventStart": "2021-08-07T11:21:00",
          "eventStop": "2021-08-07T11:37:00",
          "duration": 16,
          "status": "Genuine",
          "associatedSiteId": 109617,
          "outfallName": "DROVE ROAD SHEERNESS",
          "isImpacting": true,
          "overFlowSiteId": 108727,
          "historicSpillsList": []
        }
      ]
    },
    {
      "id": 344003589,
      "eventId": 475862,
      "siteUnitNumber": 12544,
      "bathingSite": "SHEERNESS",
      "eventStart": "2021-08-07T11:30:51",
      "eventStop": "2021-08-07T11:36:56",
      "duration": 6,
      "status": "Genuine",
      "associatedSiteId": 109616,
      "outfallName": "SOUTH STREET QUEENBOROUGH",
      "isImpacting": true,
      "overFlowSiteId": 0,
      "historicSpillsList": [
        {
          "id": 344003589,
          "eventId": 475862,
          "siteUnitNumber": 12544,
          "bathingSite": "SHEERNESS",
          "eventStart": "2021-08-07T11:30:51",
          "eventStop": "2021-08-07T11:36:56",
          "duration": 6,
          "status": "Genuine",
          "associatedSiteId": 109616,
          "outfallName": "SOUTH STREET QUEENBOROUGH",
          "isImpacting": true,
          "overFlowSiteId": 108732
        }
      ]
    },
    {
      "id": 344013372,
      "eventId": 475569,
      "siteUnitNumber": 12618,
      "bathingSite": "RYDE",
      "eventStart": "2021-08-07T08:04:26",
      "eventStop": "2021-08-07T11:26:46",
      "duration": 202,
      "status": "Genuine",
      "associatedSiteId": 109790,
      "outfallName": "GREAT PRESTON ROAD RYDE",
      "isImpacting": true,
      "overFlowSiteId": 0,
      "historicSpillsList": [
        {
          "id": 344013372,
          "eventId": 475569,
          "siteUnitNumber": 12618,
          "bathingSite": "RYDE",
          "eventStart": "2021-08-07T08:04:26",
          "eventStop": "2021-08-07T11:26:46",
          "duration": 202,
          "status": "Genuine",
          "associatedSiteId": 109790,
          "outfallName": "GREAT PRESTON ROAD RYDE",
          "isImpacting": true,
          "overFlowSiteId": 109304
        },
        {
          "id": 344013373,
          "eventId": 475569,
          "siteUnitNumber": 12619,
          "bathingSite": "SEAGROVE",
          "eventStart": "2021-08-07T08:04:26",
          "eventStop": "2021-08-07T11:26:46",
          "duration": 202,
          "status": "Genuine",
          "associatedSiteId": 109790,
          "outfallName": "GREAT PRESTON ROAD RYDE",
          "isImpacting": true,
          "overFlowSiteId": 109304,
          "historicSpillsList": []
        }
      ]
    },
    {
      "id": 344003590,
      "eventId": 475857,
      "siteUnitNumber": 12544,
      "bathingSite": "SHEERNESS",
      "eventStart": "2021-08-07T11:22:41",
      "eventStop": "2021-08-07T11:25:29",
      "duration": 2,
      "status": "Genuine",
      "associatedSiteId": 109616,
      "outfallName": "SOUTH STREET QUEENBOROUGH",
      "isImpacting": true,
      "overFlowSiteId": 0,
      "historicSpillsList": [
        {
          "id": 344003590,
          "eventId": 475857,
          "siteUnitNumber": 12544,
          "bathingSite": "SHEERNESS",
          "eventStart": "2021-08-07T11:22:41",
          "eventStop": "2021-08-07T11:25:29",
          "duration": 2,
          "status": "Genuine",
          "associatedSiteId": 109616,
          "outfallName": "SOUTH STREET QUEENBOROUGH",
          "isImpacting": true,
          "overFlowSiteId": 108732
        }
      ]
    },
    {
      "id": 344003937,
      "eventId": 478838,
      "siteUnitNumber": 12616,
      "bathingSite": "GURNARD",
      "eventStart": "2021-08-07T05:54:00",
      "eventStop": "2021-08-07T11:18:00",
      "duration": 324,
      "status": "Genuine",
      "associatedSiteId": 109650,
      "outfallName": "MARSH ROAD GURNARD",
      "isImpacting": true,
      "overFlowSiteId": 0,
      "historicSpillsList": [
        {
          "id": 344003937,
          "eventId": 478838,
          "siteUnitNumber": 12616,
          "bathingSite": "GURNARD",
          "eventStart": "2021-08-07T05:54:00",
          "eventStop": "2021-08-07T11:18:00",
          "duration": 324,
          "status": "Genuine",
          "associatedSiteId": 109650,
          "outfallName": "MARSH ROAD GURNARD",
          "isImpacting": true,
          "overFlowSiteId": 107441
        },
        {
          "id": 344003938,
          "eventId": 478838,
          "siteUnitNumber": 12617,
          "bathingSite": "COWES",
          "eventStart": "2021-08-07T05:54:00",
          "eventStop": "2021-08-07T11:18:00",
          "duration": 324,
          "status": "Genuine",
          "associatedSiteId": 109650,
          "outfallName": "MARSH ROAD GURNARD",
          "isImpacting": true,
          "overFlowSiteId": 107441,
          "historicSpillsList": []
        }
      ]
    },
    {
      "id": 344039523,
      "eventId": 475544,
      "siteUnitNumber": 12620,
      "bathingSite": "ST HELENS",
      "eventStart": "2021-08-07T07:55:13",
      "eventStop": "2021-08-07T10:33:24",
      "duration": 158,
      "status": "Genuine",
      "associatedSiteId": 110761,
      "outfallName": "BRADING",
      "isImpacting": true,
      "overFlowSiteId": 0,
      "historicSpillsList": [
        {
          "id": 344039523,
          "eventId": 475544,
          "siteUnitNumber": 12620,
          "bathingSite": "ST HELENS",
          "eventStart": "2021-08-07T07:55:13",
          "eventStop": "2021-08-07T10:33:24",
          "duration": 158,
          "status": "Genuine",
          "associatedSiteId": 110761,
          "outfallName": "BRADING",
          "isImpacting": true,
          "overFlowSiteId": 113676
        }
      ]
    },
    {
      "id": 344010781,
      "eventId": 475455,
      "siteUnitNumber": 12607,
      "bathingSite": "HILLHEAD",
      "eventStart": "2021-08-07T07:10:00",
      "eventStop": "2021-08-07T10:21:00",
      "duration": 191,
      "status": "Genuine",
      "associatedSiteId": 109751,
      "outfallName": "HOOK PARK NO.1",
      "isImpacting": true,
      "overFlowSiteId": 0,
      "historicSpillsList": [
        {
          "id": 344010781,
          "eventId": 475455,
          "siteUnitNumber": 12607,
          "bathingSite": "HILLHEAD",
          "eventStart": "2021-08-07T07:10:00",
          "eventStop": "2021-08-07T10:21:00",
          "duration": 191,
          "status": "Genuine",
          "associatedSiteId": 109751,
          "outfallName": "HOOK PARK NO.1",
          "isImpacting": true,
          "overFlowSiteId": 111291
        }
      ]
    },
    {
      "id": 344025202,
      "eventId": 475622,
      "siteUnitNumber": 12582,
      "bathingSite": "SEAFORD",
      "eventStart": "2021-08-07T08:48:41",
      "eventStop": "2021-08-07T10:15:24",
      "duration": 86,
      "status": "Genuine",
      "associatedSiteId": 109957,
      "outfallName": "PORTOBELLO BRIGHTON NO2",
      "isImpacting": true,
      "overFlowSiteId": 0,
      "historicSpillsList": [
        {
          "id": 344025202,
          "eventId": 475622,
          "siteUnitNumber": 12582,
          "bathingSite": "SEAFORD",
          "eventStart": "2021-08-07T08:48:41",
          "eventStop": "2021-08-07T10:15:24",
          "duration": 86,
          "status": "Genuine",
          "associatedSiteId": 109957,
          "outfallName": "PORTOBELLO BRIGHTON NO2",
          "isImpacting": true,
          "overFlowSiteId": 116036
        },
        {
          "id": 344025203,
          "eventId": 475622,
          "siteUnitNumber": 12583,
          "bathingSite": "SALTDEAN",
          "eventStart": "2021-08-07T08:48:41",
          "eventStop": "2021-08-07T10:15:24",
          "duration": 86,
          "status": "Genuine",
          "associatedSiteId": 109957,
          "outfallName": "PORTOBELLO BRIGHTON NO2",
          "isImpacting": true,
          "overFlowSiteId": 116036,
          "historicSpillsList": []
        }
      ]
    },
    {
      "id": 344005469,
      "eventId": 475325,
      "siteUnitNumber": 12616,
      "bathingSite": "GURNARD",
      "eventStart": "2021-08-07T05:17:00",
      "eventStop": "2021-08-07T10:15:00",
      "duration": 298,
      "status": "Genuine",
      "associatedSiteId": 109652,
      "outfallName": "WOODVALE TRANSFER NO1",
      "isImpacting": true,
      "overFlowSiteId": 0,
      "historicSpillsList": [
        {
          "id": 344005469,
          "eventId": 475325,
          "siteUnitNumber": 12616,
          "bathingSite": "GURNARD",
          "eventStart": "2021-08-07T05:17:00",
          "eventStop": "2021-08-07T10:15:00",
          "duration": 298,
          "status": "Genuine",
          "associatedSiteId": 109652,
          "outfallName": "WOODVALE TRANSFER NO1",
          "isImpacting": true,
          "overFlowSiteId": 115966
        },
        {
          "id": 344005470,
          "eventId": 475325,
          "siteUnitNumber": 12617,
          "bathingSite": "COWES",
          "eventStart": "2021-08-07T05:17:00",
          "eventStop": "2021-08-07T10:15:00",
          "duration": 298,
          "status": "Genuine",
          "associatedSiteId": 109652,
          "outfallName": "WOODVALE TRANSFER NO1",
          "isImpacting": true,
          "overFlowSiteId": 115966,
          "historicSpillsList": []
        }
      ]
    },
    {
      "id": 344039035,
      "eventId": 475278,
      "siteUnitNumber": 12616,
      "bathingSite": "GURNARD",
      "eventStart": "2021-08-07T04:02:53",
      "eventStop": "2021-08-07T10:03:00",
      "duration": 360,
      "status": "Genuine",
      "associatedSiteId": 110701,
      "outfallName": "TERMINUS ROAD COWES 2",
      "isImpacting": true,
      "overFlowSiteId": 0,
      "historicSpillsList": [
        {
          "id": 344039035,
          "eventId": 475278,
          "siteUnitNumber": 12616,
          "bathingSite": "GURNARD",
          "eventStart": "2021-08-07T04:02:53",
          "eventStop": "2021-08-07T10:03:00",
          "duration": 360,
          "status": "Genuine",
          "associatedSiteId": 110701,
          "outfallName": "TERMINUS ROAD COWES 2",
          "isImpacting": true,
          "overFlowSiteId": 108563
        },
        {
          "id": 344039036,
          "eventId": 475278,
          "siteUnitNumber": 12617,
          "bathingSite": "COWES",
          "eventStart": "2021-08-07T04:02:53",
          "eventStop": "2021-08-07T10:03:00",
          "duration": 360,
          "status": "Genuine",
          "associatedSiteId": 110701,
          "outfallName": "TERMINUS ROAD COWES 2",
          "isImpacting": true,
          "overFlowSiteId": 108563,
          "historicSpillsList": []
        }
      ]
    },
    {
      "id": 344045620,
      "eventId": 475458,
      "siteUnitNumber": 12607,
      "bathingSite": "HILLHEAD",
      "eventStart": "2021-08-07T07:26:00",
      "eventStop": "2021-08-07T09:57:00",
      "duration": 151,
      "status": "Genuine",
      "associatedSiteId": 116111,
      "outfallName": "HOOK PARK NO.2",
      "isImpacting": true,
      "overFlowSiteId": 0,
      "historicSpillsList": [
        {
          "id": 344045620,
          "eventId": 475458,
          "siteUnitNumber": 12607,
          "bathingSite": "HILLHEAD",
          "eventStart": "2021-08-07T07:26:00",
          "eventStop": "2021-08-07T09:57:00",
          "duration": 151,
          "status": "Genuine",
          "associatedSiteId": 116111,
          "outfallName": "HOOK PARK NO.2",
          "isImpacting": true,
          "overFlowSiteId": 108444
        }
      ]
    }
  ]
}