{
  "currentPage": 426,
  "totalItems": 21025,
  "totalPages": 841,
  "items": [
    {
      "id": 344785928,
      "eventId": 709935,
      "siteUnitNumber": 12568,
      "bathingSite": "SANDGATE",
      "eventStart": "2022-12-25T16:30:00",
      "eventStop": "2022-12-26T00:45:00",
      "duration": 495,
      "status": "Genuine",
      "associatedSiteId": 109897,
      "outfallName": "RANGE ROAD HYTHE K LONG",
      "isImpacting": true,
      "overFlowSiteId": 0,
      "historicSpillsList": [
        {
          "id": 344785928,
          "eventId": 709935,
          "siteUnitNumber": 12568,
          "bathingSite": "SANDGATE",
          "eventStart": "2022-12-25T16:30:00",
          "eventStop": "2022-12-26T00:45:00",
          "duration": 495,
          "status": "Genuine",
          "associatedSiteId": 109897,
          "outfallName": "RANGE ROAD HYTHE K LONG",
          "isImpacting": true,
          "overFlowSiteId": 116048
        },
        {
          "id": 344785929,
          "eventId": 709935,
          "siteUnitNumber": 12569,
          "bathingSite": "HYTHE",
          "eventStart": "2022-12-25T16:30:00",
          "eventStop": "2022-12-26T00:45:00",
          "duration": 495,
          "status": "Genuine",
          "associatedSiteId": 109897,
          "outfallName": "RANGE ROAD HYTHE K LONG",
          "isImpacting": true,
          "overFlowSiteId": 116048,
          "historicSpillsList": []
        }
      ]
    },
    {
      "id": 344802185,
      "eventId": 706166,
      "siteUnitNumber": 12619,
      "bathingSite": "SEAGROVE",
      "eventStart": "2022-12-25T23:55:43",
      "eventStop": "2022-12-26T00:32:56",
      "duration": 37,
      "status": "Genuine",
      "associatedSiteId": 110097,
      "outfallName": "SANDOWN NO2",
      "isImpacting": true,
      "overFlowSiteId": 0,
      "historicSpillsList": [
        {
          "id": 344802178,
          "eventId": 706166,
          "siteUnitNumber": 12623,
          "bathingSite": "YAVERLAND",
          "eventStart": "2022-12-25T23:55:43",
          "eventStop": "2022-12-26T00:32:56",
          "duration": 37,
          "status": "Genuine",
          "associatedSiteId": 110097,
          "outfallName": "SANDOWN NO2",
          "isImpacting": true,
          "overFlowSiteId": 115454,
          "historicSpillsList": []
        },
        {
          "id": 344802179,
          "eventId": 706166,
          "siteUnitNumber": 12624,
          "bathingSite": "SANDOWN",
          "eventStart": "2022-12-25T23:55:43",
          "eventStop": "2022-12-26T00:32:56",
          "duration": 37,
          "status": "Genuine",
          "associatedSiteId": 110097,
          "outfallName": "SANDOWN NO2",
          "isImpacting": true,
          "overFlowSiteId": 115454,
          "historicSpillsList": []
        },
        {
          "id": 344802180,
          "eventId": 706166,
          "siteUnitNumber": 12625,
          "bathingSite": "SHANKLIN",
          "eventStart": "2022-12-25T23:55:43",
          "eventStop": "2022-12-26T00:32:56",
          "duration": 37,
          "status": "Genuine",
          "associatedSiteId": 110097,
          "outfallName": "SANDOWN NO2",
          "isImpacting": true,
          "overFlowSiteId": 115454,
          "historicSpillsList": []
        }
      ]
    },
    {
      "id": 344787688,
      "eventId": 706159,
      "siteUnitNumber": 12576,
      "bathingSite": "ST LEONARDS",
      "eventStart": "2022-12-25T23:35:00",
      "eventStop": "2022-12-26T00:18:00",
      "duration": 43,
      "status": "Genuine",
      "associatedSiteId": 109903,
      "outfallName": "BEXHILL & HASTINGS NO2",
      "isImpacting": true,
      "overFlowSiteId": 0,
      "historicSpillsList": [
        {
          "id": 344787688,
          "eventId": 706159,
          "siteUnitNumber": 12576,
          "bathingSite": "ST LEONARDS",
          "eventStart": "2022-12-25T23:35:00",
          "eventStop": "2022-12-26T00:18:00",
          "duration": 43,
          "status": "Genuine",
          "associatedSiteId": 109903,
          "outfallName": "BEXHILL & HASTINGS NO2",
          "isImpacting": true,
          "overFlowSiteId": 115398
        },
        {
          "id": 344787689,
          "eventId": 706159,
          "siteUnitNumber": 12577,
          "bathingSite": "BEXHILL",
          "eventStart": "2022-12-25T23:35:00",
          "eventStop": "2022-12-26T00:18:00",
          "duration": 43,
          "status": "Genuine",
          "associatedSiteId": 109903,
          "outfallName": "BEXHILL & HASTINGS NO2",
          "isImpacting": true,
          "overFlowSiteId": 115398,
          "historicSpillsList": []
        }
      ]
    },
    {
      "id": 344797106,
      "eventId": 709017,
      "siteUnitNumber": 12624,
      "bathingSite": "SANDOWN",
      "eventStart": "2022-12-23T15:50:23",
      "eventStop": "2022-12-26T00:04:40",
      "duration": 3374,
      "status": "Not Genuine",
      "associatedSiteId": 110022,
      "outfallName": "SHANKLIN CHINE",
      "isImpacting": false,
      "overFlowSiteId": 0,
      "historicSpillsList": []
    },
    {
      "id": 344788599,
      "eventId": 697044,
      "siteUnitNumber": 12572,
      "bathingSite": "LITTLESTONE",
      "eventStart": "2022-12-19T12:15:00",
      "eventStop": "2022-12-25T23:45:00",
      "duration": 9330,
      "status": "Genuine",
      "associatedSiteId": 109908,
      "outfallName": "NEW ROMNEY",
      "isImpacting": true,
      "overFlowSiteId": 0,
      "historicSpillsList": [
        {
          "id": 344788599,
          "eventId": 697044,
          "siteUnitNumber": 12572,
          "bathingSite": "LITTLESTONE",
          "eventStart": "2022-12-19T12:15:00",
          "eventStop": "2022-12-25T23:45:00",
          "duration": 9330,
          "status": "Genuine",
          "associatedSiteId": 109908,
          "outfallName": "NEW ROMNEY",
          "isImpacting": true,
          "overFlowSiteId": 115759
        }
      ]
    },
    {
      "id": 344802182,
      "eventId": 706135,
      "siteUnitNumber": 12623,
      "bathingSite": "YAVERLAND",
      "eventStart": "2022-12-25T23:00:25",
      "eventStop": "2022-12-25T23:36:08",
      "duration": 35,
      "status": "Genuine",
      "associatedSiteId": 110097,
      "outfallName": "SANDOWN NO2",
      "isImpacting": true,
      "overFlowSiteId": 0,
      "historicSpillsList": [
        {
          "id": 344802182,
          "eventId": 706135,
          "siteUnitNumber": 12623,
          "bathingSite": "YAVERLAND",
          "eventStart": "2022-12-25T23:00:25",
          "eventStop": "2022-12-25T23:36:08",
          "duration": 35,
          "status": "Genuine",
          "associatedSiteId": 110097,
          "outfallName": "SANDOWN NO2",
          "isImpacting": true,
          "overFlowSiteId": 115454
        },
        {
          "id": 344802183,
          "eventId": 706135,
          "siteUnitNumber": 12624,
          "bathingSite": "SANDOWN",
          "eventStart": "2022-12-25T23:00:25",
          "eventStop": "2022-12-25T23:36:08",
          "duration": 35,
          "status": "Genuine",
          "associatedSiteId": 110097,
          "outfallName": "SANDOWN NO2",
          "isImpacting": true,
          "overFlowSiteId": 115454,
          "historicSpillsList": []
        },
        {
          "id": 344802184,
          "eventId": 706135,
          "siteUnitNumber": 12625,
          "bathingSite": "SHANKLIN",
          "eventStart": "2022-12-25T23:00:25",
          "eventStop": "2022-12-25T23:36:08",
          "duration": 35,
          "status": "Genuine",
          "associatedSiteId": 110097,
          "outfallName": "SANDOWN NO2",
          "isImpacting": true,
          "overFlowSiteId": 115454,
          "historicSpillsList": []
        }
      ]
    },
    {
      "id": 344771235,
      "eventId": 707832,
      "siteUnitNumber": 12616,
      "bathingSite": "GURNARD",
      "eventStart": "2022-12-25T23:29:00",
      "eventStop": "2022-12-25T23:34:00",
      "duration": 5,
      "status": "Genuine",
      "associatedSiteId": 109652,
      "outfallName": "WOODVALE TRANSFER NO1",
      "isImpacting": false,
      "overFlowSiteId": 0,
      "historicSpillsList": []
    },
    {
      "id": 344787694,
      "eventId": 695370,
      "siteUnitNumber": 12576,
      "bathingSite": "ST LEONARDS",
      "eventStart": "2022-12-18T14:13:50",
      "eventStop": "2022-12-25T23:30:00",
      "duration": 10636,
      "status": "Genuine",
      "associatedSiteId": 109903,
      "outfallName": "BEXHILL & HASTINGS NO2",
      "isImpacting": true,
      "overFlowSiteId": 0,
      "historicSpillsList": [
        {
          "id": 344787694,
          "eventId": 695370,
          "siteUnitNumber": 12576,
          "bathingSite": "ST LEONARDS",
          "eventStart": "2022-12-18T14:13:50",
          "eventStop": "2022-12-25T23:30:00",
          "duration": 10636,
          "status": "Genuine",
          "associatedSiteId": 109903,
          "outfallName": "BEXHILL & HASTINGS NO2",
          "isImpacting": true,
          "overFlowSiteId": 115398
        },
        {
          "id": 344787695,
          "eventId": 695370,
          "siteUnitNumber": 12577,
          "bathingSite": "BEXHILL",
          "eventStart": "2022-12-18T14:13:50",
          "eventStop": "2022-12-25T23:30:00",
          "duration": 10636,
          "status": "Genuine",
          "associatedSiteId": 109903,
          "outfallName": "BEXHILL & HASTINGS NO2",
          "isImpacting": true,
          "overFlowSiteId": 115398,
          "historicSpillsList": []
        }
      ]
    },
    {
      "id": 344802193,
      "eventId": 706046,
      "siteUnitNumber": 12619,
      "bathingSite": "SEAGROVE",
      "eventStart": "2022-12-25T20:33:11",
      "eventStop": "2022-12-25T22:48:13",
      "duration": 135,
      "status": "Genuine",
      "associatedSiteId": 110097,
      "outfallName": "SANDOWN NO2",
      "isImpacting": true,
      "overFlowSiteId": 0,
      "historicSpillsList": [
        {
          "id": 344802196,
          "eventId": 706046,
          "siteUnitNumber": 12623,
          "bathingSite": "YAVERLAND",
          "eventStart": "2022-12-25T20:33:11",
          "eventStop": "2022-12-25T22:48:13",
          "duration": 135,
          "status": "Genuine",
          "associatedSiteId": 110097,
          "outfallName": "SANDOWN NO2",
          "isImpacting": true,
          "overFlowSiteId": 115454,
          "historicSpillsList": []
        }
      ]
    },
    {
      "id": 344777670,
      "eventId": 708470,
      "siteUnitNumber": 12661,
      "bathingSite": "LANGSTONE HARBOUR",
      "eventStart": "2022-12-25T18:43:00",
      "eventStop": "2022-12-25T22:38:00",
      "duration": 235,
      "status": "Genuine",
      "associatedSiteId": 109773,
      "outfallName": "BUDDS FARM HAVANT NO2",
      "isImpacting": true,
      "overFlowSiteId": 0,
      "historicSpillsList": [
        {
          "id": 344777670,
          "eventId": 708470,
          "siteUnitNumber": 12661,
          "bathingSite": "LANGSTONE HARBOUR",
          "eventStart": "2022-12-25T18:43:00",
          "eventStop": "2022-12-25T22:38:00",
          "duration": 235,
          "status": "Genuine",
          "associatedSiteId": 109773,
          "outfallName": "BUDDS FARM HAVANT NO2",
          "isImpacting": true,
          "overFlowSiteId": 115936
        }
      ]
    },
    {
      "id": 344777675,
      "eventId": 706065,
      "siteUnitNumber": 12661,
      "bathingSite": "LANGSTONE HARBOUR",
      "eventStart": "2022-12-25T20:57:50",
      "eventStop": "2022-12-25T21:19:05",
      "duration": 21,
      "status": "Not Genuine",
      "associatedSiteId": 109773,
      "outfallName": "BUDDS FARM HAVANT NO2",
      "isImpacting": true,
      "overFlowSiteId": 0,
      "historicSpillsList": []
    },
    {
      "id": 344771237,
      "eventId": 707831,
      "siteUnitNumber": 12616,
      "bathingSite": "GURNARD",
      "eventStart": "2022-12-25T21:12:00",
      "eventStop": "2022-12-25T21:17:00",
      "duration": 5,
      "status": "Genuine",
      "associatedSiteId": 109652,
      "outfallName": "WOODVALE TRANSFER NO1",
      "isImpacting": true,
      "overFlowSiteId": 0,
      "historicSpillsList": [
        {
          "id": 344771238,
          "eventId": 707831,
          "siteUnitNumber": 12617,
          "bathingSite": "COWES",
          "eventStart": "2022-12-25T21:12:00",
          "eventStop": "2022-12-25T21:17:00",
          "duration": 5,
          "status": "Genuine",
          "associatedSiteId": 109652,
          "outfallName": "WOODVALE TRANSFER NO1",
          "isImpacting": true,
          "overFlowSiteId": 115966,
          "historicSpillsList": []
        }
      ]
    },
    {
      "id": 344781826,
      "eventId": 706064,
      "siteUnitNumber": 12548,
      "bathingSite": "TANKERTON",
      "eventStart": "2022-12-25T20:45:28",
      "eventStop": "2022-12-25T21:08:25",
      "duration": 22,
      "status": "Genuine",
      "associatedSiteId": 109830,
      "outfallName": "SWALECLIFFE NO1",
      "isImpacting": false,
      "overFlowSiteId": 0,
      "historicSpillsList": []
    },
    {
      "id": 344777676,
      "eventId": 705956,
      "siteUnitNumber": 12661,
      "bathingSite": "LANGSTONE HARBOUR",
      "eventStart": "2022-12-25T18:44:26",
      "eventStop": "2022-12-25T20:54:44",
      "duration": 130,
      "status": "Not Genuine",
      "associatedSiteId": 109773,
      "outfallName": "BUDDS FARM HAVANT NO2",
      "isImpacting": true,
      "overFlowSiteId": 0,
      "historicSpillsList": []
    },
    {
      "id": 344775255,
      "eventId": 761809,
      "siteUnitNumber": 12616,
      "bathingSite": "GURNARD",
      "eventStart": "2022-12-23T04:56:00",
      "eventStop": "2022-12-25T20:48:00",
      "duration": 3832,
      "status": "Genuine",
      "associatedSiteId": 109705,
      "outfallName": "SPRINGHILL COWES TRANSFER",
      "isImpacting": true,
      "overFlowSiteId": 0,
      "historicSpillsList": [
        {
          "id": 344775256,
          "eventId": 761809,
          "siteUnitNumber": 12617,
          "bathingSite": "COWES",
          "eventStart": "2022-12-23T04:56:00",
          "eventStop": "2022-12-25T20:48:00",
          "duration": 3832,
          "status": "Genuine",
          "associatedSiteId": 109705,
          "outfallName": "SPRINGHILL COWES TRANSFER",
          "isImpacting": true,
          "overFlowSiteId": 108943,
          "historicSpillsList": []
        }
      ]
    },
    {
      "id": 344806381,
      "eventId": 706018,
      "siteUnitNumber": 12582,
      "bathingSite": "SEAFORD",
      "eventStart": "2022-12-25T19:44:02",
      "eventStop": "2022-12-25T20:44:43",
      "duration": 60,
      "status": "Genuine",
      "associatedSiteId": 110920,
      "outfallName": "NEWHAVEN",
      "isImpacting": false,
      "overFlowSiteId": 0,
      "historicSpillsList": []
    },
    {
      "id": 344794709,
      "eventId": 718109,
      "siteUnitNumber": 12591,
      "bathingSite": "LITTLEHAMPTON",
      "eventStart": "2022-12-25T18:07:00",
      "eventStop": "2022-12-25T20:32:00",
      "duration": 145,
      "status": "Genuine",
      "associatedSiteId": 109965,
      "outfallName": "SEA ROAD LITTLEHAMPTON",
      "isImpacting": false,
      "overFlowSiteId": 0,
      "historicSpillsList": []
    },
    {
      "id": 344802197,
      "eventId": 705798,
      "siteUnitNumber": 12619,
      "bathingSite": "SEAGROVE",
      "eventStart": "2022-12-25T17:15:38",
      "eventStop": "2022-12-25T20:24:26",
      "duration": 188,
      "status": "Genuine",
      "associatedSiteId": 110097,
      "outfallName": "SANDOWN NO2",
      "isImpacting": true,
      "overFlowSiteId": 0,
      "historicSpillsList": [
        {
          "id": 344802200,
          "eventId": 705798,
          "siteUnitNumber": 12623,
          "bathingSite": "YAVERLAND",
          "eventStart": "2022-12-25T17:15:38",
          "eventStop": "2022-12-25T20:24:26",
          "duration": 188,
          "status": "Genuine",
          "associatedSiteId": 110097,
          "outfallName": "SANDOWN NO2",
          "isImpacting": true,
          "overFlowSiteId": 115454,
          "historicSpillsList": []
        },
        {
          "id": 344802201,
          "eventId": 705798,
          "siteUnitNumber": 12624,
          "bathingSite": "SANDOWN",
          "eventStart": "2022-12-25T17:15:38",
          "eventStop": "2022-12-25T20:24:26",
          "duration": 188,
          "status": "Genuine",
          "associatedSiteId": 110097,
          "outfallName": "SANDOWN NO2",
          "isImpacting": true,
          "overFlowSiteId": 115454,
          "historicSpillsList": []
        },
        {
          "id": 344802192,
          "eventId": 705798,
          "siteUnitNumber": 12625,
          "bathingSite": "SHANKLIN",
          "eventStart": "2022-12-25T17:15:38",
          "eventStop": "2022-12-25T20:24:26",
          "duration": 188,
          "status": "Genuine",
          "associatedSiteId": 110097,
          "outfallName": "SANDOWN NO2",
          "isImpacting": true,
          "overFlowSiteId": 115454,
          "historicSpillsList": []
        }
      ]
    },
    {
      "id": 344793463,
      "eventId": 705837,
      "siteUnitNumber": 12595,
      "bathingSite": "BOGNOR REGIS (ALDWICK)",
      "eventStart": "2022-12-25T18:04:00",
      "eventStop": "2022-12-25T19:41:00",
      "duration": 97,
      "status": "Genuine",
      "associatedSiteId": 109959,
      "outfallName": "WEST PARK BOGNOR REGIS",
      "isImpacting": false,
      "overFlowSiteId": 0,
      "historicSpillsList": []
    },
    {
      "id": 344771239,
      "eventId": 707821,
      "siteUnitNumber": 12616,
      "bathingSite": "GURNARD",
      "eventStart": "2022-12-25T19:30:00",
      "eventStop": "2022-12-25T19:36:00",
      "duration": 6,
      "status": "Genuine",
      "associatedSiteId": 109652,
      "outfallName": "WOODVALE TRANSFER NO1",
      "isImpacting": true,
      "overFlowSiteId": 0,
      "historicSpillsList": [
        {
          "id": 344771240,
          "eventId": 707821,
          "siteUnitNumber": 12617,
          "bathingSite": "COWES",
          "eventStart": "2022-12-25T19:30:00",
          "eventStop": "2022-12-25T19:36:00",
          "duration": 6,
          "status": "Genuine",
          "associatedSiteId": 109652,
          "outfallName": "WOODVALE TRANSFER NO1",
          "isImpacting": true,
          "overFlowSiteId": 115966,
          "historicSpillsList": []
        }
      ]
    },
    {
      "id": 344809714,
      "eventId": 717922,
      "siteUnitNumber": 12614,
      "bathingSite": "TOTLAND BAY",
      "eventStart": "2022-12-25T18:59:00",
      "eventStop": "2022-12-25T19:15:00",
      "duration": 16,
      "status": "Genuine",
      "associatedSiteId": 115498,
      "outfallName": "NORTON TRANSFER IOW",
      "isImpacting": true,
      "overFlowSiteId": 0,
      "historicSpillsList": [
        {
          "id": 344809714,
          "eventId": 717922,
          "siteUnitNumber": 12614,
          "bathingSite": "TOTLAND BAY",
          "eventStart": "2022-12-25T18:59:00",
          "eventStop": "2022-12-25T19:15:00",
          "duration": 16,
          "status": "Genuine",
          "associatedSiteId": 115498,
          "outfallName": "NORTON TRANSFER IOW",
          "isImpacting": true,
          "overFlowSiteId": 109524
        },
        {
          "id": 344809715,
          "eventId": 717922,
          "siteUnitNumber": 12615,
          "bathingSite": "COLWELL BAY",
          "eventStart": "2022-12-25T18:59:00",
          "eventStop": "2022-12-25T19:15:00",
          "duration": 16,
          "status": "Genuine",
          "associatedSiteId": 115498,
          "outfallName": "NORTON TRANSFER IOW",
          "isImpacting": true,
          "overFlowSiteId": 109524,
          "historicSpillsList": []
        }
      ]
    },
    {
      "id": 344809716,
      "eventId": 717887,
      "siteUnitNumber": 12614,
      "bathingSite": "TOTLAND BAY",
      "eventStart": "2022-12-25T16:49:00",
      "eventStop": "2022-12-25T17:42:00",
      "duration": 53,
      "status": "Genuine",
      "associatedSiteId": 115498,
      "outfallName": "NORTON TRANSFER IOW",
      "isImpacting": true,
      "overFlowSiteId": 0,
      "historicSpillsList": [
        {
          "id": 344809716,
          "eventId": 717887,
          "siteUnitNumber": 12614,
          "bathingSite": "TOTLAND BAY",
          "eventStart": "2022-12-25T16:49:00",
          "eventStop": "2022-12-25T17:42:00",
          "duration": 53,
          "status": "Genuine",
          "associatedSiteId": 115498,
          "outfallName": "NORTON TRANSFER IOW",
          "isImpacting": true,
          "overFlowSiteId": 109524
        },
        {
          "id": 344809717,
          "eventId": 717887,
          "siteUnitNumber": 12615,
          "bathingSite": "COLWELL BAY",
          "eventStart": "2022-12-25T16:49:00",
          "eventStop": "2022-12-25T17:42:00",
          "duration": 53,
          "status": "Genuine",
          "associatedSiteId": 115498,
          "outfallName": "NORTON TRANSFER IOW",
          "isImpacting": true,
          "overFlowSiteId": 109524,
          "historicSpillsList": []
        }
      ]
    },
    {
      "id": 344805161,
      "eventId": 705810,
      "siteUnitNumber": 12616,
      "bathingSite": "GURNARD",
      "eventStart": "2022-12-25T17:00:00",
      "eventStop": "2022-12-25T17:40:00",
      "duration": 40,
      "status": "Genuine",
      "associatedSiteId": 110701,
      "outfallName": "TERMINUS ROAD COWES 2",
      "isImpacting": true,
      "overFlowSiteId": 0,
      "historicSpillsList": [
        {
          "id": 344805161,
          "eventId": 705810,
          "siteUnitNumber": 12616,
          "bathingSite": "GURNARD",
          "eventStart": "2022-12-25T17:00:00",
          "eventStop": "2022-12-25T17:40:00",
          "duration": 40,
          "status": "Genuine",
          "associatedSiteId": 110701,
          "outfallName": "TERMINUS ROAD COWES 2",
          "isImpacting": true,
          "overFlowSiteId": 108563
        },
        {
          "id": 344805162,
          "eventId": 705810,
          "siteUnitNumber": 12617,
          "bathingSite": "COWES",
          "eventStart": "2022-12-25T17:00:00",
          "eventStop": "2022-12-25T17:40:00",
          "duration": 40,
          "status": "Genuine",
          "associatedSiteId": 110701,
          "outfallName": "TERMINUS ROAD COWES 2",
          "isImpacting": true,
          "overFlowSiteId": 108563,
          "historicSpillsList": []
        }
      ]
    },
    {
      "id": 344771241,
      "eventId": 707820,
      "siteUnitNumber": 12616,
      "bathingSite": "GURNARD",
      "eventStart": "2022-12-25T17:05:00",
      "eventStop": "2022-12-25T17:12:00",
      "duration": 7,
      "status": "Genuine",
      "associatedSiteId": 109652,
      "outfallName": "WOODVALE TRANSFER NO1",
      "isImpacting": true,
      "overFlowSiteId": 0,
      "historicSpillsList": [
        {
          "id": 344771242,
          "eventId": 707820,
          "siteUnitNumber": 12617,
          "bathingSite": "COWES",
          "eventStart": "2022-12-25T17:05:00",
          "eventStop": "2022-12-25T17:12:00",
          "duration": 7,
          "status": "Genuine",
          "associatedSiteId": 109652,
          "outfallName": "WOODVALE TRANSFER NO1",
          "isImpacting": true,
          "overFlowSiteId": 115966,
          "historicSpillsList": []
        }
      ]
    },
    {
      "id": 344794714,
      "eventId": 718099,
      "siteUnitNumber": 12591,
      "bathingSite": "LITTLEHAMPTON",
      "eventStart": "2022-12-25T09:11:00",
      "eventStop": "2022-12-25T17:01:00",
      "duration": 470,
      "status": "Genuine",
      "associatedSiteId": 109965,
      "outfallName": "SEA ROAD LITTLEHAMPTON",
      "isImpacting": true,
      "overFlowSiteId": 0,
      "historicSpillsList": [
        {
          "id": 344794714,
          "eventId": 718099,
          "siteUnitNumber": 12591,
          "bathingSite": "LITTLEHAMPTON",
          "eventStart": "2022-12-25T09:11:00",
          "eventStop": "2022-12-25T17:01:00",
          "duration": 470,
          "status": "Genuine",
          "associatedSiteId": 109965,
          "outfallName": "SEA ROAD LITTLEHAMPTON",
          "isImpacting": true,
          "overFlowSiteId": 109368
        }
      ]
    }
  ]
}