{
  "currentPage": 325,
  "totalItems": 18701,
  "totalPages": 749,
  "items": [
    {
      "id": 343960839,
      "eventId": 733788,
      "siteUnitNumber": 12544,
      "bathingSite": "SHEERNESS",
      "eventStart": "2023-01-16T03:49:00",
      "eventStop": "2023-01-16T06:20:00",
      "duration": 151,
      "status": "Genuine",
      "associatedSiteId": 109614,
      "outfallName": "BRIELLE WAY WESTMINSTER",
      "isImpacting": false,
      "overFlowSiteId": 0,
      "historicSpillsList": []
    },
    {
      "id": 343988278,
      "eventId": 733565,
      "siteUnitNumber": 12623,
      "bathingSite": "YAVERLAND",
      "eventStart": "2023-01-16T02:43:03",
      "eventStop": "2023-01-16T06:20:00",
      "duration": 216,
      "status": "Genuine",
      "associatedSiteId": 110029,
      "outfallName": "HOPE BEACH SHANKLIN NEW",
      "isImpacting": true,
      "overFlowSiteId": 0,
      "historicSpillsList": [
        {
          "id": 343988271,
          "eventId": 733565,
          "siteUnitNumber": 12625,
          "bathingSite": "SHANKLIN",
          "eventStart": "2023-01-16T02:43:03",
          "eventStop": "2023-01-16T06:20:00",
          "duration": 216,
          "status": "Genuine",
          "associatedSiteId": 110029,
          "outfallName": "HOPE BEACH SHANKLIN NEW",
          "isImpacting": true,
          "overFlowSiteId": 109389,
          "historicSpillsList": []
        }
      ]
    },
    {
      "id": 343975718,
      "eventId": 734125,
      "siteUnitNumber": 12568,
      "bathingSite": "SANDGATE",
      "eventStart": "2023-01-16T03:36:00",
      "eventStop": "2023-01-16T06:08:00",
      "duration": 152,
      "status": "Genuine",
      "associatedSiteId": 109896,
      "outfallName": "RANGE ROAD HYTHE K SHORT",
      "isImpacting": true,
      "overFlowSiteId": 0,
      "historicSpillsList": [
        {
          "id": 343975719,
          "eventId": 734125,
          "siteUnitNumber": 12569,
          "bathingSite": "HYTHE",
          "eventStart": "2023-01-16T03:36:00",
          "eventStop": "2023-01-16T06:08:00",
          "duration": 152,
          "status": "Genuine",
          "associatedSiteId": 109896,
          "outfallName": "RANGE ROAD HYTHE K SHORT",
          "isImpacting": true,
          "overFlowSiteId": 116112,
          "historicSpillsList": []
        }
      ]
    },
    {
      "id": 343960624,
      "eventId": 733602,
      "siteUnitNumber": 12618,
      "bathingSite": "RYDE",
      "eventStart": "2023-01-16T02:41:00",
      "eventStop": "2023-01-16T06:01:00",
      "duration": 200,
      "status": "Genuine",
      "associatedSiteId": 102971,
      "outfallName": "SPRING VALE",
      "isImpacting": false,
      "overFlowSiteId": 0,
      "historicSpillsList": []
    },
    {
      "id": 343985810,
      "eventId": 733647,
      "siteUnitNumber": 12592,
      "bathingSite": "MIDDLETON-ON-SEA",
      "eventStart": "2023-01-16T02:51:24",
      "eventStop": "2023-01-16T06:00:00",
      "duration": 188,
      "status": "Genuine",
      "associatedSiteId": 109967,
      "outfallName": "GLOUCESTER ROAD BOGNOR",
      "isImpacting": true,
      "overFlowSiteId": 0,
      "historicSpillsList": [
        {
          "id": 343985811,
          "eventId": 733647,
          "siteUnitNumber": 12593,
          "bathingSite": "FELPHAM",
          "eventStart": "2023-01-16T02:51:24",
          "eventStop": "2023-01-16T06:00:00",
          "duration": 188,
          "status": "Genuine",
          "associatedSiteId": 109967,
          "outfallName": "GLOUCESTER ROAD BOGNOR",
          "isImpacting": true,
          "overFlowSiteId": 103299,
          "historicSpillsList": []
        }
      ]
    },
    {
      "id": 343966575,
      "eventId": 734272,
      "siteUnitNumber": 12616,
      "bathingSite": "GURNARD",
      "eventStart": "2023-01-16T05:50:13",
      "eventStop": "2023-01-16T05:59:39",
      "duration": 9,
      "status": "Genuine",
      "associatedSiteId": 109706,
      "outfallName": "HIGH STREET COWES",
      "isImpacting": false,
      "overFlowSiteId": 0,
      "historicSpillsList": []
    },
    {
      "id": 343960931,
      "eventId": 734400,
      "siteUnitNumber": 12544,
      "bathingSite": "SHEERNESS",
      "eventStart": "2023-01-16T05:57:00",
      "eventStop": "2023-01-16T05:59:00",
      "duration": 2,
      "status": "Genuine",
      "associatedSiteId": 109616,
      "outfallName": "SOUTH STREET QUEENBOROUGH",
      "isImpacting": true,
      "overFlowSiteId": 0,
      "historicSpillsList": [
        {
          "id": 343960931,
          "eventId": 734400,
          "siteUnitNumber": 12544,
          "bathingSite": "SHEERNESS",
          "eventStart": "2023-01-16T05:57:00",
          "eventStop": "2023-01-16T05:59:00",
          "duration": 2,
          "status": "Genuine",
          "associatedSiteId": 109616,
          "outfallName": "SOUTH STREET QUEENBOROUGH",
          "isImpacting": true,
          "overFlowSiteId": 108732
        }
      ]
    },
    {
      "id": 343962969,
      "eventId": 733494,
      "siteUnitNumber": 12616,
      "bathingSite": "GURNARD",
      "eventStart": "2023-01-16T02:07:00",
      "eventStop": "2023-01-16T05:38:00",
      "duration": 211,
      "status": "Genuine",
      "associatedSiteId": 109654,
      "outfallName": "WHITFORD BRIDGE NORTHWOOD",
      "isImpacting": true,
      "overFlowSiteId": 0,
      "historicSpillsList": [
        {
          "id": 343962969,
          "eventId": 733494,
          "siteUnitNumber": 12616,
          "bathingSite": "GURNARD",
          "eventStart": "2023-01-16T02:07:00",
          "eventStop": "2023-01-16T05:38:00",
          "duration": 211,
          "status": "Genuine",
          "associatedSiteId": 109654,
          "outfallName": "WHITFORD BRIDGE NORTHWOOD",
          "isImpacting": true,
          "overFlowSiteId": 101029
        },
        {
          "id": 343962970,
          "eventId": 733494,
          "siteUnitNumber": 12617,
          "bathingSite": "COWES",
          "eventStart": "2023-01-16T02:07:00",
          "eventStop": "2023-01-16T05:38:00",
          "duration": 211,
          "status": "Genuine",
          "associatedSiteId": 109654,
          "outfallName": "WHITFORD BRIDGE NORTHWOOD",
          "isImpacting": true,
          "overFlowSiteId": 101029,
          "historicSpillsList": []
        }
      ]
    },
    {
      "id": 343963436,
      "eventId": 733450,
      "siteUnitNumber": 12614,
      "bathingSite": "TOTLAND BAY",
      "eventStart": "2023-01-16T02:06:45",
      "eventStop": "2023-01-16T05:29:07",
      "duration": 202,
      "status": "Genuine",
      "associatedSiteId": 109667,
      "outfallName": "NORTON GREEN",
      "isImpacting": true,
      "overFlowSiteId": 0,
      "historicSpillsList": [
        {
          "id": 343963436,
          "eventId": 733450,
          "siteUnitNumber": 12614,
          "bathingSite": "TOTLAND BAY",
          "eventStart": "2023-01-16T02:06:45",
          "eventStop": "2023-01-16T05:29:07",
          "duration": 202,
          "status": "Genuine",
          "associatedSiteId": 109667,
          "outfallName": "NORTON GREEN",
          "isImpacting": true,
          "overFlowSiteId": 108543
        },
        {
          "id": 343963437,
          "eventId": 733450,
          "siteUnitNumber": 12615,
          "bathingSite": "COLWELL BAY",
          "eventStart": "2023-01-16T02:06:45",
          "eventStop": "2023-01-16T05:29:07",
          "duration": 202,
          "status": "Genuine",
          "associatedSiteId": 109667,
          "outfallName": "NORTON GREEN",
          "isImpacting": true,
          "overFlowSiteId": 108543,
          "historicSpillsList": []
        }
      ]
    },
    {
      "id": 343986367,
      "eventId": 733408,
      "siteUnitNumber": 12592,
      "bathingSite": "MIDDLETON-ON-SEA",
      "eventStart": "2023-01-16T03:09:00",
      "eventStop": "2023-01-16T05:14:00",
      "duration": 125,
      "status": "Genuine",
      "associatedSiteId": 109972,
      "outfallName": "BOGNOR MAIN",
      "isImpacting": true,
      "overFlowSiteId": 0,
      "historicSpillsList": [
        {
          "id": 343986358,
          "eventId": 733408,
          "siteUnitNumber": 12593,
          "bathingSite": "FELPHAM",
          "eventStart": "2023-01-16T03:09:00",
          "eventStop": "2023-01-16T05:14:00",
          "duration": 125,
          "status": "Genuine",
          "associatedSiteId": 109972,
          "outfallName": "BOGNOR MAIN",
          "isImpacting": true,
          "overFlowSiteId": 107412,
          "historicSpillsList": []
        }
      ]
    },
    {
      "id": 343967107,
      "eventId": 739368,
      "siteUnitNumber": 12606,
      "bathingSite": "LEE-ON-SOLENT",
      "eventStart": "2023-01-16T02:50:00",
      "eventStop": "2023-01-16T05:09:00",
      "duration": 139,
      "status": "Genuine",
      "associatedSiteId": 109717,
      "outfallName": "NEWGATE LANE PEEL COMMON",
      "isImpacting": false,
      "overFlowSiteId": 0,
      "historicSpillsList": []
    },
    {
      "id": 343971175,
      "eventId": 733587,
      "siteUnitNumber": 12661,
      "bathingSite": "LANGSTONE HARBOUR",
      "eventStart": "2023-01-16T01:22:00",
      "eventStop": "2023-01-16T05:03:00",
      "duration": 221,
      "status": "Genuine",
      "associatedSiteId": 109819,
      "outfallName": "COURT LANE COSHAM",
      "isImpacting": true,
      "overFlowSiteId": 0,
      "historicSpillsList": [
        {
          "id": 343971175,
          "eventId": 733587,
          "siteUnitNumber": 12661,
          "bathingSite": "LANGSTONE HARBOUR",
          "eventStart": "2023-01-16T01:22:00",
          "eventStop": "2023-01-16T05:03:00",
          "duration": 221,
          "status": "Genuine",
          "associatedSiteId": 109819,
          "outfallName": "COURT LANE COSHAM",
          "isImpacting": true,
          "overFlowSiteId": 115958
        }
      ]
    },
    {
      "id": 343968245,
      "eventId": 734558,
      "siteUnitNumber": 12661,
      "bathingSite": "LANGSTONE HARBOUR",
      "eventStart": "2023-01-16T03:16:00",
      "eventStop": "2023-01-16T04:55:00",
      "duration": 99,
      "status": "Genuine",
      "associatedSiteId": 109772,
      "outfallName": "BUDDS FARM HAVANT NO1",
      "isImpacting": true,
      "overFlowSiteId": 0,
      "historicSpillsList": [
        {
          "id": 343968245,
          "eventId": 734558,
          "siteUnitNumber": 12661,
          "bathingSite": "LANGSTONE HARBOUR",
          "eventStart": "2023-01-16T03:16:00",
          "eventStop": "2023-01-16T04:55:00",
          "duration": 99,
          "status": "Genuine",
          "associatedSiteId": 109772,
          "outfallName": "BUDDS FARM HAVANT NO1",
          "isImpacting": true,
          "overFlowSiteId": 116073
        }
      ]
    },
    {
      "id": 343965411,
      "eventId": 733975,
      "siteUnitNumber": 12616,
      "bathingSite": "GURNARD",
      "eventStart": "2023-01-16T04:38:25",
      "eventStop": "2023-01-16T04:52:31",
      "duration": 14,
      "status": "Genuine",
      "associatedSiteId": 109703,
      "outfallName": "CASTLE STREET COWES",
      "isImpacting": true,
      "overFlowSiteId": 0,
      "historicSpillsList": [
        {
          "id": 343965411,
          "eventId": 733975,
          "siteUnitNumber": 12616,
          "bathingSite": "GURNARD",
          "eventStart": "2023-01-16T04:38:25",
          "eventStop": "2023-01-16T04:52:31",
          "duration": 14,
          "status": "Genuine",
          "associatedSiteId": 109703,
          "outfallName": "CASTLE STREET COWES",
          "isImpacting": true,
          "overFlowSiteId": 108822
        },
        {
          "id": 343965412,
          "eventId": 733975,
          "siteUnitNumber": 12617,
          "bathingSite": "COWES",
          "eventStart": "2023-01-16T04:38:25",
          "eventStop": "2023-01-16T04:52:31",
          "duration": 14,
          "status": "Genuine",
          "associatedSiteId": 109703,
          "outfallName": "CASTLE STREET COWES",
          "isImpacting": true,
          "overFlowSiteId": 108822,
          "historicSpillsList": []
        }
      ]
    },
    {
      "id": 343974467,
      "eventId": 733871,
      "siteUnitNumber": 12544,
      "bathingSite": "SHEERNESS",
      "eventStart": "2023-01-16T04:12:22",
      "eventStop": "2023-01-16T04:45:00",
      "duration": 32,
      "status": "Genuine",
      "associatedSiteId": 109869,
      "outfallName": "GRAIN NO2",
      "isImpacting": true,
      "overFlowSiteId": 0,
      "historicSpillsList": [
        {
          "id": 343974467,
          "eventId": 733871,
          "siteUnitNumber": 12544,
          "bathingSite": "SHEERNESS",
          "eventStart": "2023-01-16T04:12:22",
          "eventStop": "2023-01-16T04:45:00",
          "duration": 32,
          "status": "Genuine",
          "associatedSiteId": 109869,
          "outfallName": "GRAIN NO2",
          "isImpacting": true,
          "overFlowSiteId": 115411
        }
      ]
    },
    {
      "id": 343971067,
      "eventId": 733927,
      "siteUnitNumber": 12661,
      "bathingSite": "LANGSTONE HARBOUR",
      "eventStart": "2023-01-16T04:20:00",
      "eventStop": "2023-01-16T04:28:00",
      "duration": 8,
      "status": "Genuine",
      "associatedSiteId": 109817,
      "outfallName": "MAINLAND DRAYTON",
      "isImpacting": true,
      "overFlowSiteId": 0,
      "historicSpillsList": [
        {
          "id": 343971067,
          "eventId": 733927,
          "siteUnitNumber": 12661,
          "bathingSite": "LANGSTONE HARBOUR",
          "eventStart": "2023-01-16T04:20:00",
          "eventStop": "2023-01-16T04:28:00",
          "duration": 8,
          "status": "Genuine",
          "associatedSiteId": 109817,
          "outfallName": "MAINLAND DRAYTON",
          "isImpacting": true,
          "overFlowSiteId": 115960
        }
      ]
    },
    {
      "id": 343997453,
      "eventId": 733690,
      "siteUnitNumber": 12573,
      "bathingSite": "CAMBER",
      "eventStart": "2023-01-16T02:43:00",
      "eventStop": "2023-01-16T04:02:00",
      "duration": 79,
      "status": "Genuine",
      "associatedSiteId": 110958,
      "outfallName": "RYE",
      "isImpacting": false,
      "overFlowSiteId": 0,
      "historicSpillsList": []
    },
    {
      "id": 343971066,
      "eventId": 754104,
      "siteUnitNumber": 12661,
      "bathingSite": "LANGSTONE HARBOUR",
      "eventStart": "2023-01-16T02:12:00",
      "eventStop": "2023-01-16T04:01:00",
      "duration": 109,
      "status": "Genuine",
      "associatedSiteId": 109817,
      "outfallName": "MAINLAND DRAYTON",
      "isImpacting": true,
      "overFlowSiteId": 0,
      "historicSpillsList": [
        {
          "id": 343971066,
          "eventId": 754104,
          "siteUnitNumber": 12661,
          "bathingSite": "LANGSTONE HARBOUR",
          "eventStart": "2023-01-16T02:12:00",
          "eventStop": "2023-01-16T04:01:00",
          "duration": 109,
          "status": "Genuine",
          "associatedSiteId": 109817,
          "outfallName": "MAINLAND DRAYTON",
          "isImpacting": true,
          "overFlowSiteId": 115960
        }
      ]
    },
    {
      "id": 343966577,
      "eventId": 733794,
      "siteUnitNumber": 12616,
      "bathingSite": "GURNARD",
      "eventStart": "2023-01-16T03:47:34",
      "eventStop": "2023-01-16T03:57:45",
      "duration": 10,
      "status": "Genuine",
      "associatedSiteId": 109706,
      "outfallName": "HIGH STREET COWES",
      "isImpacting": false,
      "overFlowSiteId": 0,
      "historicSpillsList": []
    },
    {
      "id": 343960932,
      "eventId": 734118,
      "siteUnitNumber": 12544,
      "bathingSite": "SHEERNESS",
      "eventStart": "2023-01-16T03:24:00",
      "eventStop": "2023-01-16T03:57:00",
      "duration": 33,
      "status": "Genuine",
      "associatedSiteId": 109616,
      "outfallName": "SOUTH STREET QUEENBOROUGH",
      "isImpacting": true,
      "overFlowSiteId": 0,
      "historicSpillsList": [
        {
          "id": 343960932,
          "eventId": 734118,
          "siteUnitNumber": 12544,
          "bathingSite": "SHEERNESS",
          "eventStart": "2023-01-16T03:24:00",
          "eventStop": "2023-01-16T03:57:00",
          "duration": 33,
          "status": "Genuine",
          "associatedSiteId": 109616,
          "outfallName": "SOUTH STREET QUEENBOROUGH",
          "isImpacting": true,
          "overFlowSiteId": 108732
        }
      ]
    },
    {
      "id": 343989270,
      "eventId": 732977,
      "siteUnitNumber": 12622,
      "bathingSite": "WHITECLIFF BAY",
      "eventStart": "2023-01-15T17:36:32",
      "eventStop": "2023-01-16T03:37:17",
      "duration": 600,
      "status": "Genuine",
      "associatedSiteId": 110096,
      "outfallName": "SANDOWN NO1",
      "isImpacting": true,
      "overFlowSiteId": 0,
      "historicSpillsList": [
        {
          "id": 343989270,
          "eventId": 732977,
          "siteUnitNumber": 12622,
          "bathingSite": "WHITECLIFF BAY",
          "eventStart": "2023-01-15T17:36:32",
          "eventStop": "2023-01-16T03:37:17",
          "duration": 600,
          "status": "Genuine",
          "associatedSiteId": 110096,
          "outfallName": "SANDOWN NO1",
          "isImpacting": true,
          "overFlowSiteId": 115453
        },
        {
          "id": 343989271,
          "eventId": 732977,
          "siteUnitNumber": 12623,
          "bathingSite": "YAVERLAND",
          "eventStart": "2023-01-15T17:36:32",
          "eventStop": "2023-01-16T03:37:17",
          "duration": 600,
          "status": "Genuine",
          "associatedSiteId": 110096,
          "outfallName": "SANDOWN NO1",
          "isImpacting": true,
          "overFlowSiteId": 115453,
          "historicSpillsList": []
        },
        {
          "id": 343989272,
          "eventId": 732977,
          "siteUnitNumber": 12624,
          "bathingSite": "SANDOWN",
          "eventStart": "2023-01-15T17:36:32",
          "eventStop": "2023-01-16T03:37:17",
          "duration": 600,
          "status": "Genuine",
          "associatedSiteId": 110096,
          "outfallName": "SANDOWN NO1",
          "isImpacting": true,
          "overFlowSiteId": 115453,
          "historicSpillsList": []
        }
      ]
    },
    {
      "id": 343970286,
      "eventId": 733509,
      "siteUnitNumber": 12618,
      "bathingSite": "RYDE",
      "eventStart": "2023-01-16T02:30:00",
      "eventStop": "2023-01-16T03:37:00",
      "duration": 67,
      "status": "Genuine",
      "associatedSiteId": 109782,
      "outfallName": "AUGUSTA ROAD RYDE",
      "isImpacting": true,
      "overFlowSiteId": 0,
      "historicSpillsList": [
        {
          "id": 343970286,
          "eventId": 733509,
          "siteUnitNumber": 12618,
          "bathingSite": "RYDE",
          "eventStart": "2023-01-16T02:30:00",
          "eventStop": "2023-01-16T03:37:00",
          "duration": 67,
          "status": "Genuine",
          "associatedSiteId": 109782,
          "outfallName": "AUGUSTA ROAD RYDE",
          "isImpacting": true,
          "overFlowSiteId": 102348
        }
      ]
    },
    {
      "id": 343965159,
      "eventId": 733452,
      "siteUnitNumber": 12616,
      "bathingSite": "GURNARD",
      "eventStart": "2023-01-16T01:20:00",
      "eventStop": "2023-01-16T03:35:00",
      "duration": 135,
      "status": "Genuine",
      "associatedSiteId": 109702,
      "outfallName": "ALBANY ROAD EAST COWES",
      "isImpacting": false,
      "overFlowSiteId": 0,
      "historicSpillsList": []
    },
    {
      "id": 343970125,
      "eventId": 733643,
      "siteUnitNumber": 12618,
      "bathingSite": "RYDE",
      "eventStart": "2023-01-16T02:49:09",
      "eventStop": "2023-01-16T03:15:04",
      "duration": 25,
      "status": "Genuine",
      "associatedSiteId": 109779,
      "outfallName": "ASHEY ROAD RYDE",
      "isImpacting": false,
      "overFlowSiteId": 0,
      "historicSpillsList": []
    },
    {
      "id": 343980268,
      "eventId": 745336,
      "siteUnitNumber": 12587,
      "bathingSite": "SOUTHWICK",
      "eventStart": "2023-01-16T01:26:00",
      "eventStop": "2023-01-16T03:07:00",
      "duration": 101,
      "status": "Genuine",
      "associatedSiteId": 109929,
      "outfallName": "SHOREHAM NO1",
      "isImpacting": true,
      "overFlowSiteId": 0,
      "historicSpillsList": [
        {
          "id": 343980268,
          "eventId": 745336,
          "siteUnitNumber": 12587,
          "bathingSite": "SOUTHWICK",
          "eventStart": "2023-01-16T01:26:00",
          "eventStop": "2023-01-16T03:07:00",
          "duration": 101,
          "status": "Genuine",
          "associatedSiteId": 109929,
          "outfallName": "SHOREHAM NO1",
          "isImpacting": true,
          "overFlowSiteId": 115434
        },
        {
          "id": 343980269,
          "eventId": 745336,
          "siteUnitNumber": 12588,
          "bathingSite": "SHOREHAM BEACH",
          "eventStart": "2023-01-16T01:26:00",
          "eventStop": "2023-01-16T03:07:00",
          "duration": 101,
          "status": "Genuine",
          "associatedSiteId": 109929,
          "outfallName": "SHOREHAM NO1",
          "isImpacting": true,
          "overFlowSiteId": 115434,
          "historicSpillsList": []
        },
        {
          "id": 343980276,
          "eventId": 745336,
          "siteUnitNumber": 12586,
          "bathingSite": "HOVE",
          "eventStart": "2023-01-16T01:26:00",
          "eventStop": "2023-01-16T03:07:00",
          "duration": 101,
          "status": "Genuine",
          "associatedSiteId": 109929,
          "outfallName": "SHOREHAM NO1",
          "isImpacting": true,
          "overFlowSiteId": 115434,
          "historicSpillsList": []
        }
      ]
    }
  ]
}