{
  "currentPage": 137,
  "totalItems": 18701,
  "totalPages": 749,
  "items": [
    {
      "id": 343943297,
      "eventId": 885184,
      "siteUnitNumber": 12591,
      "bathingSite": "LITTLEHAMPTON",
      "eventStart": "2023-10-29T10:01:00",
      "eventStop": "2023-10-29T20:00:00",
      "duration": 599,
      "status": "Genuine",
      "associatedSiteId": 109968,
      "outfallName": "FORD ROAD ARUNDEL",
      "isImpacting": true,
      "overFlowSiteId": 0,
      "historicSpillsList": [
        {
          "id": 343943297,
          "eventId": 885184,
          "siteUnitNumber": 12591,
          "bathingSite": "LITTLEHAMPTON",
          "eventStart": "2023-10-29T10:01:00",
          "eventStop": "2023-10-29T20:00:00",
          "duration": 599,
          "status": "Genuine",
          "associatedSiteId": 109968,
          "outfallName": "FORD ROAD ARUNDEL",
          "isImpacting": true,
          "overFlowSiteId": 108002
        }
      ]
    },
    {
      "id": 343932884,
      "eventId": 885942,
      "siteUnitNumber": 12568,
      "bathingSite": "SANDGATE",
      "eventStart": "2023-10-29T19:30:32",
      "eventStop": "2023-10-29T19:37:13",
      "duration": 6,
      "status": "Genuine",
      "associatedSiteId": 109896,
      "outfallName": "RANGE ROAD HYTHE K SHORT",
      "isImpacting": false,
      "overFlowSiteId": 0,
      "historicSpillsList": []
    },
    {
      "id": 343924511,
      "eventId": 884365,
      "siteUnitNumber": 12606,
      "bathingSite": "LEE-ON-SOLENT",
      "eventStart": "2023-10-28T21:47:00",
      "eventStop": "2023-10-29T19:15:00",
      "duration": 1288,
      "status": "Genuine",
      "associatedSiteId": 109717,
      "outfallName": "NEWGATE LANE PEEL COMMON",
      "isImpacting": false,
      "overFlowSiteId": 0,
      "historicSpillsList": []
    },
    {
      "id": 343954414,
      "eventId": 885004,
      "siteUnitNumber": 12582,
      "bathingSite": "SEAFORD",
      "eventStart": "2023-10-29T07:12:17",
      "eventStop": "2023-10-29T18:57:41",
      "duration": 705,
      "status": "Genuine",
      "associatedSiteId": 110920,
      "outfallName": "NEWHAVEN",
      "isImpacting": false,
      "overFlowSiteId": 0,
      "historicSpillsList": []
    },
    {
      "id": 343943653,
      "eventId": 885445,
      "siteUnitNumber": 12591,
      "bathingSite": "LITTLEHAMPTON",
      "eventStart": "2023-10-29T10:08:00",
      "eventStop": "2023-10-29T18:56:00",
      "duration": 528,
      "status": "Genuine",
      "associatedSiteId": 109971,
      "outfallName": "BROADMARK LANE RUSTINGTON",
      "isImpacting": true,
      "overFlowSiteId": 0,
      "historicSpillsList": [
        {
          "id": 343943653,
          "eventId": 885445,
          "siteUnitNumber": 12591,
          "bathingSite": "LITTLEHAMPTON",
          "eventStart": "2023-10-29T10:08:00",
          "eventStop": "2023-10-29T18:56:00",
          "duration": 528,
          "status": "Genuine",
          "associatedSiteId": 109971,
          "outfallName": "BROADMARK LANE RUSTINGTON",
          "isImpacting": true,
          "overFlowSiteId": 107443
        }
      ]
    },
    {
      "id": 343937013,
      "eventId": 885754,
      "siteUnitNumber": 12590,
      "bathingSite": "WORTHING",
      "eventStart": "2023-10-29T16:17:22",
      "eventStop": "2023-10-29T18:45:24",
      "duration": 148,
      "status": "Genuine",
      "associatedSiteId": 109912,
      "outfallName": "SEA LANE GORING",
      "isImpacting": false,
      "overFlowSiteId": 0,
      "historicSpillsList": []
    },
    {
      "id": 343932888,
      "eventId": 885925,
      "siteUnitNumber": 12568,
      "bathingSite": "SANDGATE",
      "eventStart": "2023-10-29T18:21:25",
      "eventStop": "2023-10-29T18:27:52",
      "duration": 6,
      "status": "Genuine",
      "associatedSiteId": 109896,
      "outfallName": "RANGE ROAD HYTHE K SHORT",
      "isImpacting": false,
      "overFlowSiteId": 0,
      "historicSpillsList": []
    },
    {
      "id": 343927577,
      "eventId": 888303,
      "siteUnitNumber": 12618,
      "bathingSite": "RYDE",
      "eventStart": "2023-10-29T17:34:00",
      "eventStop": "2023-10-29T18:03:00",
      "duration": 29,
      "status": "Genuine",
      "associatedSiteId": 109780,
      "outfallName": "LADIES WALK BINSTEAD",
      "isImpacting": true,
      "overFlowSiteId": 0,
      "historicSpillsList": [
        {
          "id": 343927577,
          "eventId": 888303,
          "siteUnitNumber": 12618,
          "bathingSite": "RYDE",
          "eventStart": "2023-10-29T17:34:00",
          "eventStop": "2023-10-29T18:03:00",
          "duration": 29,
          "status": "Genuine",
          "associatedSiteId": 109780,
          "outfallName": "LADIES WALK BINSTEAD",
          "isImpacting": true,
          "overFlowSiteId": 107406
        }
      ]
    },
    {
      "id": 343921923,
      "eventId": 885138,
      "siteUnitNumber": 12616,
      "bathingSite": "GURNARD",
      "eventStart": "2023-10-29T09:40:17",
      "eventStop": "2023-10-29T18:01:00",
      "duration": 500,
      "status": "Genuine",
      "associatedSiteId": 109700,
      "outfallName": "MARKET HILL COWES",
      "isImpacting": false,
      "overFlowSiteId": 0,
      "historicSpillsList": []
    },
    {
      "id": 343932892,
      "eventId": 885923,
      "siteUnitNumber": 12568,
      "bathingSite": "SANDGATE",
      "eventStart": "2023-10-29T17:33:43",
      "eventStop": "2023-10-29T17:40:09",
      "duration": 6,
      "status": "Genuine",
      "associatedSiteId": 109896,
      "outfallName": "RANGE ROAD HYTHE K SHORT",
      "isImpacting": false,
      "overFlowSiteId": 0,
      "historicSpillsList": []
    },
    {
      "id": 343932890,
      "eventId": 885777,
      "siteUnitNumber": 12568,
      "bathingSite": "SANDGATE",
      "eventStart": "2023-10-29T16:59:57",
      "eventStop": "2023-10-29T17:06:30",
      "duration": 6,
      "status": "Genuine",
      "associatedSiteId": 109896,
      "outfallName": "RANGE ROAD HYTHE K SHORT",
      "isImpacting": false,
      "overFlowSiteId": 0,
      "historicSpillsList": []
    },
    {
      "id": 343937471,
      "eventId": 885645,
      "siteUnitNumber": 12586,
      "bathingSite": "HOVE",
      "eventStart": "2023-10-29T16:01:00",
      "eventStop": "2023-10-29T16:47:00",
      "duration": 46,
      "status": "Genuine",
      "associatedSiteId": 109929,
      "outfallName": "SHOREHAM NO1",
      "isImpacting": true,
      "overFlowSiteId": 0,
      "historicSpillsList": [
        {
          "id": 343937471,
          "eventId": 885645,
          "siteUnitNumber": 12586,
          "bathingSite": "HOVE",
          "eventStart": "2023-10-29T16:01:00",
          "eventStop": "2023-10-29T16:47:00",
          "duration": 46,
          "status": "Genuine",
          "associatedSiteId": 109929,
          "outfallName": "SHOREHAM NO1",
          "isImpacting": true,
          "overFlowSiteId": 115434
        },
        {
          "id": 343937472,
          "eventId": 885645,
          "siteUnitNumber": 12587,
          "bathingSite": "SOUTHWICK",
          "eventStart": "2023-10-29T16:01:00",
          "eventStop": "2023-10-29T16:47:00",
          "duration": 46,
          "status": "Genuine",
          "associatedSiteId": 109929,
          "outfallName": "SHOREHAM NO1",
          "isImpacting": true,
          "overFlowSiteId": 115434,
          "historicSpillsList": []
        },
        {
          "id": 343937473,
          "eventId": 885645,
          "siteUnitNumber": 12588,
          "bathingSite": "SHOREHAM BEACH",
          "eventStart": "2023-10-29T16:01:00",
          "eventStop": "2023-10-29T16:47:00",
          "duration": 46,
          "status": "Genuine",
          "associatedSiteId": 109929,
          "outfallName": "SHOREHAM NO1",
          "isImpacting": true,
          "overFlowSiteId": 115434,
          "historicSpillsList": []
        }
      ]
    },
    {
      "id": 343922897,
      "eventId": 899053,
      "siteUnitNumber": 12616,
      "bathingSite": "GURNARD",
      "eventStart": "2023-10-29T09:46:00",
      "eventStop": "2023-10-29T16:47:00",
      "duration": 421,
      "status": "Genuine",
      "associatedSiteId": 109704,
      "outfallName": "EGYPT POINT COWES",
      "isImpacting": true,
      "overFlowSiteId": 0,
      "historicSpillsList": [
        {
          "id": 343922898,
          "eventId": 899053,
          "siteUnitNumber": 12617,
          "bathingSite": "COWES",
          "eventStart": "2023-10-29T09:46:00",
          "eventStop": "2023-10-29T16:47:00",
          "duration": 421,
          "status": "Genuine",
          "associatedSiteId": 109704,
          "outfallName": "EGYPT POINT COWES",
          "isImpacting": true,
          "overFlowSiteId": 116213,
          "historicSpillsList": []
        }
      ]
    },
    {
      "id": 343932104,
      "eventId": 887879,
      "siteUnitNumber": 12579,
      "bathingSite": "PEVENSEY BAY",
      "eventStart": "2023-10-29T15:53:00",
      "eventStop": "2023-10-29T16:44:00",
      "duration": 51,
      "status": "Genuine",
      "associatedSiteId": 109891,
      "outfallName": "MONTAGUE WAY WESTHAM",
      "isImpacting": false,
      "overFlowSiteId": 0,
      "historicSpillsList": []
    },
    {
      "id": 343927576,
      "eventId": 888304,
      "siteUnitNumber": 12618,
      "bathingSite": "RYDE",
      "eventStart": "2023-10-29T14:33:00",
      "eventStop": "2023-10-29T16:37:00",
      "duration": 124,
      "status": "Genuine",
      "associatedSiteId": 109780,
      "outfallName": "LADIES WALK BINSTEAD",
      "isImpacting": true,
      "overFlowSiteId": 0,
      "historicSpillsList": [
        {
          "id": 343927576,
          "eventId": 888304,
          "siteUnitNumber": 12618,
          "bathingSite": "RYDE",
          "eventStart": "2023-10-29T14:33:00",
          "eventStop": "2023-10-29T16:37:00",
          "duration": 124,
          "status": "Genuine",
          "associatedSiteId": 109780,
          "outfallName": "LADIES WALK BINSTEAD",
          "isImpacting": true,
          "overFlowSiteId": 107406
        }
      ]
    },
    {
      "id": 343932894,
      "eventId": 885753,
      "siteUnitNumber": 12568,
      "bathingSite": "SANDGATE",
      "eventStart": "2023-10-29T16:13:54",
      "eventStop": "2023-10-29T16:20:41",
      "duration": 6,
      "status": "Genuine",
      "associatedSiteId": 109896,
      "outfallName": "RANGE ROAD HYTHE K SHORT",
      "isImpacting": false,
      "overFlowSiteId": 0,
      "historicSpillsList": []
    },
    {
      "id": 343937012,
      "eventId": 885337,
      "siteUnitNumber": 12590,
      "bathingSite": "WORTHING",
      "eventStart": "2023-10-29T12:01:50",
      "eventStop": "2023-10-29T16:15:57",
      "duration": 254,
      "status": "Genuine",
      "associatedSiteId": 109912,
      "outfallName": "SEA LANE GORING",
      "isImpacting": false,
      "overFlowSiteId": 0,
      "historicSpillsList": []
    },
    {
      "id": 343931742,
      "eventId": 885134,
      "siteUnitNumber": 12662,
      "bathingSite": "CHICHESTER HARBOUR",
      "eventStart": "2023-10-29T11:33:00",
      "eventStop": "2023-10-29T16:02:00",
      "duration": 269,
      "status": "Genuine",
      "associatedSiteId": 109850,
      "outfallName": "THORNHAM",
      "isImpacting": true,
      "overFlowSiteId": 0,
      "historicSpillsList": [
        {
          "id": 343931742,
          "eventId": 885134,
          "siteUnitNumber": 12662,
          "bathingSite": "CHICHESTER HARBOUR",
          "eventStart": "2023-10-29T11:33:00",
          "eventStop": "2023-10-29T16:02:00",
          "duration": 269,
          "status": "Genuine",
          "associatedSiteId": 109850,
          "outfallName": "THORNHAM",
          "isImpacting": true,
          "overFlowSiteId": 115370
        }
      ]
    },
    {
      "id": 343937465,
      "eventId": 885677,
      "siteUnitNumber": 12586,
      "bathingSite": "HOVE",
      "eventStart": "2023-10-29T15:15:00",
      "eventStop": "2023-10-29T15:59:00",
      "duration": 44,
      "status": "Genuine",
      "associatedSiteId": 109929,
      "outfallName": "SHOREHAM NO1",
      "isImpacting": true,
      "overFlowSiteId": 0,
      "historicSpillsList": [
        {
          "id": 343937465,
          "eventId": 885677,
          "siteUnitNumber": 12586,
          "bathingSite": "HOVE",
          "eventStart": "2023-10-29T15:15:00",
          "eventStop": "2023-10-29T15:59:00",
          "duration": 44,
          "status": "Genuine",
          "associatedSiteId": 109929,
          "outfallName": "SHOREHAM NO1",
          "isImpacting": true,
          "overFlowSiteId": 115434
        },
        {
          "id": 343937466,
          "eventId": 885677,
          "siteUnitNumber": 12587,
          "bathingSite": "SOUTHWICK",
          "eventStart": "2023-10-29T15:15:00",
          "eventStop": "2023-10-29T15:59:00",
          "duration": 44,
          "status": "Genuine",
          "associatedSiteId": 109929,
          "outfallName": "SHOREHAM NO1",
          "isImpacting": true,
          "overFlowSiteId": 115434,
          "historicSpillsList": []
        },
        {
          "id": 343937467,
          "eventId": 885677,
          "siteUnitNumber": 12588,
          "bathingSite": "SHOREHAM BEACH",
          "eventStart": "2023-10-29T15:15:00",
          "eventStop": "2023-10-29T15:59:00",
          "duration": 44,
          "status": "Genuine",
          "associatedSiteId": 109929,
          "outfallName": "SHOREHAM NO1",
          "isImpacting": true,
          "overFlowSiteId": 115434,
          "historicSpillsList": []
        }
      ]
    },
    {
      "id": 343928581,
      "eventId": 885352,
      "siteUnitNumber": 12661,
      "bathingSite": "LANGSTONE HARBOUR",
      "eventStart": "2023-10-29T12:26:45",
      "eventStop": "2023-10-29T15:57:53",
      "duration": 211,
      "status": "Genuine",
      "associatedSiteId": 109819,
      "outfallName": "COURT LANE COSHAM",
      "isImpacting": true,
      "overFlowSiteId": 0,
      "historicSpillsList": [
        {
          "id": 343928581,
          "eventId": 885352,
          "siteUnitNumber": 12661,
          "bathingSite": "LANGSTONE HARBOUR",
          "eventStart": "2023-10-29T12:26:45",
          "eventStop": "2023-10-29T15:57:53",
          "duration": 211,
          "status": "Genuine",
          "associatedSiteId": 109819,
          "outfallName": "COURT LANE COSHAM",
          "isImpacting": true,
          "overFlowSiteId": 115958
        }
      ]
    },
    {
      "id": 343926052,
      "eventId": 885256,
      "siteUnitNumber": 12600,
      "bathingSite": "EASTOKE",
      "eventStart": "2023-10-29T11:28:00",
      "eventStop": "2023-10-29T15:56:00",
      "duration": 268,
      "status": "Genuine",
      "associatedSiteId": 109775,
      "outfallName": "GREEN LANE HAYLING ISLAND",
      "isImpacting": true,
      "overFlowSiteId": 0,
      "historicSpillsList": [
        {
          "id": 343926052,
          "eventId": 885256,
          "siteUnitNumber": 12600,
          "bathingSite": "EASTOKE",
          "eventStart": "2023-10-29T11:28:00",
          "eventStop": "2023-10-29T15:56:00",
          "duration": 268,
          "status": "Genuine",
          "associatedSiteId": 109775,
          "outfallName": "GREEN LANE HAYLING ISLAND",
          "isImpacting": true,
          "overFlowSiteId": 108769
        },
        {
          "id": 343926053,
          "eventId": 885256,
          "siteUnitNumber": 12601,
          "bathingSite": "BEACHLANDS CENTRAL",
          "eventStart": "2023-10-29T11:28:00",
          "eventStop": "2023-10-29T15:56:00",
          "duration": 268,
          "status": "Genuine",
          "associatedSiteId": 109775,
          "outfallName": "GREEN LANE HAYLING ISLAND",
          "isImpacting": true,
          "overFlowSiteId": 108769,
          "historicSpillsList": []
        },
        {
          "id": 343926054,
          "eventId": 885256,
          "siteUnitNumber": 12602,
          "bathingSite": "BEACHLANDS WEST",
          "eventStart": "2023-10-29T11:28:00",
          "eventStop": "2023-10-29T15:56:00",
          "duration": 268,
          "status": "Genuine",
          "associatedSiteId": 109775,
          "outfallName": "GREEN LANE HAYLING ISLAND",
          "isImpacting": true,
          "overFlowSiteId": 108769,
          "historicSpillsList": []
        }
      ]
    },
    {
      "id": 343960087,
      "eventId": 891915,
      "siteUnitNumber": 12577,
      "bathingSite": "BEXHILL",
      "eventStart": "2023-10-29T14:45:00",
      "eventStop": "2023-10-29T15:48:00",
      "duration": 63,
      "status": "Genuine",
      "associatedSiteId": 115504,
      "outfallName": "HARTFIELD ROAD BEXHILL",
      "isImpacting": false,
      "overFlowSiteId": 0,
      "historicSpillsList": []
    },
    {
      "id": 343922951,
      "eventId": 885181,
      "siteUnitNumber": 12616,
      "bathingSite": "GURNARD",
      "eventStart": "2023-10-29T10:03:32",
      "eventStop": "2023-10-29T15:45:00",
      "duration": 341,
      "status": "Genuine",
      "associatedSiteId": 109704,
      "outfallName": "EGYPT POINT COWES",
      "isImpacting": true,
      "overFlowSiteId": 0,
      "historicSpillsList": [
        {
          "id": 343922952,
          "eventId": 885181,
          "siteUnitNumber": 12617,
          "bathingSite": "COWES",
          "eventStart": "2023-10-29T10:03:32",
          "eventStop": "2023-10-29T15:45:00",
          "duration": 341,
          "status": "Genuine",
          "associatedSiteId": 109704,
          "outfallName": "EGYPT POINT COWES",
          "isImpacting": true,
          "overFlowSiteId": 108518,
          "historicSpillsList": []
        }
      ]
    },
    {
      "id": 343932898,
      "eventId": 885752,
      "siteUnitNumber": 12568,
      "bathingSite": "SANDGATE",
      "eventStart": "2023-10-29T15:28:56",
      "eventStop": "2023-10-29T15:35:30",
      "duration": 6,
      "status": "Genuine",
      "associatedSiteId": 109896,
      "outfallName": "RANGE ROAD HYTHE K SHORT",
      "isImpacting": false,
      "overFlowSiteId": 0,
      "historicSpillsList": []
    },
    {
      "id": 343945431,
      "eventId": 889571,
      "siteUnitNumber": 12623,
      "bathingSite": "YAVERLAND",
      "eventStart": "2023-10-29T15:29:00",
      "eventStop": "2023-10-29T15:33:00",
      "duration": 4,
      "status": "Genuine",
      "associatedSiteId": 110029,
      "outfallName": "HOPE BEACH SHANKLIN NEW",
      "isImpacting": true,
      "overFlowSiteId": 0,
      "historicSpillsList": [
        {
          "id": 343945433,
          "eventId": 889571,
          "siteUnitNumber": 12625,
          "bathingSite": "SHANKLIN",
          "eventStart": "2023-10-29T15:29:00",
          "eventStop": "2023-10-29T15:33:00",
          "duration": 4,
          "status": "Genuine",
          "associatedSiteId": 110029,
          "outfallName": "HOPE BEACH SHANKLIN NEW",
          "isImpacting": true,
          "overFlowSiteId": 109389,
          "historicSpillsList": []
        }
      ]
    }
  ]
}