{
  "currentPage": 136,
  "totalItems": 18701,
  "totalPages": 749,
  "items": [
    {
      "id": 343955179,
      "eventId": 891265,
      "siteUnitNumber": 12662,
      "bathingSite": "CHICHESTER HARBOUR",
      "eventStart": "2023-10-29T11:33:00",
      "eventStop": "2023-10-29T23:38:00",
      "duration": 725,
      "status": "Genuine",
      "associatedSiteId": 111600,
      "outfallName": "MILL LANE FISHBOURNE",
      "isImpacting": true,
      "overFlowSiteId": 0,
      "historicSpillsList": [
        {
          "id": 343955179,
          "eventId": 891265,
          "siteUnitNumber": 12662,
          "bathingSite": "CHICHESTER HARBOUR",
          "eventStart": "2023-10-29T11:33:00",
          "eventStop": "2023-10-29T23:38:00",
          "duration": 725,
          "status": "Genuine",
          "associatedSiteId": 111600,
          "outfallName": "MILL LANE FISHBOURNE",
          "isImpacting": true,
          "overFlowSiteId": 111371
        }
      ]
    },
    {
      "id": 343929422,
      "eventId": 885875,
      "siteUnitNumber": 12603,
      "bathingSite": "EASTNEY",
      "eventStart": "2023-10-29T10:54:00",
      "eventStop": "2023-10-29T23:33:00",
      "duration": 759,
      "status": "Genuine",
      "associatedSiteId": 109823,
      "outfallName": "FORT CUMBERLAND NO1",
      "isImpacting": true,
      "overFlowSiteId": 0,
      "historicSpillsList": [
        {
          "id": 343929422,
          "eventId": 885875,
          "siteUnitNumber": 12603,
          "bathingSite": "EASTNEY",
          "eventStart": "2023-10-29T10:54:00",
          "eventStop": "2023-10-29T23:33:00",
          "duration": 759,
          "status": "Genuine",
          "associatedSiteId": 109823,
          "outfallName": "FORT CUMBERLAND NO1",
          "isImpacting": true,
          "overFlowSiteId": 110658
        },
        {
          "id": 343929424,
          "eventId": 885875,
          "siteUnitNumber": 12661,
          "bathingSite": "LANGSTONE HARBOUR",
          "eventStart": "2023-10-29T10:54:00",
          "eventStop": "2023-10-29T23:33:00",
          "duration": 759,
          "status": "Genuine",
          "associatedSiteId": 109823,
          "outfallName": "FORT CUMBERLAND NO1",
          "isImpacting": true,
          "overFlowSiteId": 110658,
          "historicSpillsList": []
        },
        {
          "id": 343929426,
          "eventId": 885875,
          "siteUnitNumber": 12602,
          "bathingSite": "BEACHLANDS WEST",
          "eventStart": "2023-10-29T10:54:00",
          "eventStop": "2023-10-29T23:33:00",
          "duration": 759,
          "status": "Genuine",
          "associatedSiteId": 109823,
          "outfallName": "FORT CUMBERLAND NO1",
          "isImpacting": true,
          "overFlowSiteId": 110658,
          "historicSpillsList": []
        }
      ]
    },
    {
      "id": 343944529,
      "eventId": 888063,
      "siteUnitNumber": 12575,
      "bathingSite": "HASTINGS PELHAM BEACH",
      "eventStart": "2023-10-29T23:15:00",
      "eventStop": "2023-10-29T23:26:00",
      "duration": 11,
      "status": "Genuine",
      "associatedSiteId": 109982,
      "outfallName": "COOMBS HASTINGS",
      "isImpacting": true,
      "overFlowSiteId": 0,
      "historicSpillsList": [
        {
          "id": 343944530,
          "eventId": 888063,
          "siteUnitNumber": 12576,
          "bathingSite": "ST LEONARDS",
          "eventStart": "2023-10-29T23:15:00",
          "eventStop": "2023-10-29T23:26:00",
          "duration": 11,
          "status": "Genuine",
          "associatedSiteId": 109982,
          "outfallName": "COOMBS HASTINGS",
          "isImpacting": true,
          "overFlowSiteId": 110211,
          "historicSpillsList": []
        }
      ]
    },
    {
      "id": 343923779,
      "eventId": 886122,
      "siteUnitNumber": 12616,
      "bathingSite": "GURNARD",
      "eventStart": "2023-10-29T23:11:51",
      "eventStop": "2023-10-29T23:21:00",
      "duration": 9,
      "status": "Genuine",
      "associatedSiteId": 109706,
      "outfallName": "HIGH STREET COWES",
      "isImpacting": false,
      "overFlowSiteId": 0,
      "historicSpillsList": []
    },
    {
      "id": 343939540,
      "eventId": 885531,
      "siteUnitNumber": 12582,
      "bathingSite": "SEAFORD",
      "eventStart": "2023-10-29T11:09:00",
      "eventStop": "2023-10-29T23:15:00",
      "duration": 726,
      "status": "Genuine",
      "associatedSiteId": 109957,
      "outfallName": "PORTOBELLO BRIGHTON NO2",
      "isImpacting": true,
      "overFlowSiteId": 0,
      "historicSpillsList": [
        {
          "id": 343939541,
          "eventId": 885531,
          "siteUnitNumber": 12583,
          "bathingSite": "SALTDEAN",
          "eventStart": "2023-10-29T11:09:00",
          "eventStop": "2023-10-29T23:15:00",
          "duration": 726,
          "status": "Genuine",
          "associatedSiteId": 109957,
          "outfallName": "PORTOBELLO BRIGHTON NO2",
          "isImpacting": true,
          "overFlowSiteId": 116012,
          "historicSpillsList": []
        }
      ]
    },
    {
      "id": 343929788,
      "eventId": 882529,
      "siteUnitNumber": 12548,
      "bathingSite": "TANKERTON",
      "eventStart": "2023-10-28T00:18:44",
      "eventStop": "2023-10-29T23:09:00",
      "duration": 2810,
      "status": "Genuine",
      "associatedSiteId": 109830,
      "outfallName": "SWALECLIFFE NO1",
      "isImpacting": true,
      "overFlowSiteId": 0,
      "historicSpillsList": [
        {
          "id": 343929788,
          "eventId": 882529,
          "siteUnitNumber": 12548,
          "bathingSite": "TANKERTON",
          "eventStart": "2023-10-28T00:18:44",
          "eventStop": "2023-10-29T23:09:00",
          "duration": 2810,
          "status": "Genuine",
          "associatedSiteId": 109830,
          "outfallName": "SWALECLIFFE NO1",
          "isImpacting": true,
          "overFlowSiteId": 115444
        },
        {
          "id": 343929789,
          "eventId": 882529,
          "siteUnitNumber": 12549,
          "bathingSite": "HERNE BAY CENTRAL",
          "eventStart": "2023-10-28T00:18:44",
          "eventStop": "2023-10-29T23:09:00",
          "duration": 2810,
          "status": "Genuine",
          "associatedSiteId": 109830,
          "outfallName": "SWALECLIFFE NO1",
          "isImpacting": true,
          "overFlowSiteId": 115444,
          "historicSpillsList": []
        }
      ]
    },
    {
      "id": 343944669,
      "eventId": 886117,
      "siteUnitNumber": 12575,
      "bathingSite": "HASTINGS PELHAM BEACH",
      "eventStart": "2023-10-29T22:57:13",
      "eventStop": "2023-10-29T23:07:00",
      "duration": 9,
      "status": "Genuine",
      "associatedSiteId": 109982,
      "outfallName": "COOMBS HASTINGS",
      "isImpacting": true,
      "overFlowSiteId": 0,
      "historicSpillsList": [
        {
          "id": 343944670,
          "eventId": 886117,
          "siteUnitNumber": 12576,
          "bathingSite": "ST LEONARDS",
          "eventStart": "2023-10-29T22:57:13",
          "eventStop": "2023-10-29T23:07:00",
          "duration": 9,
          "status": "Genuine",
          "associatedSiteId": 109982,
          "outfallName": "COOMBS HASTINGS",
          "isImpacting": true,
          "overFlowSiteId": 110211,
          "historicSpillsList": []
        }
      ]
    },
    {
      "id": 343921546,
      "eventId": 892794,
      "siteUnitNumber": 12551,
      "bathingSite": "HERNE BAY",
      "eventStart": "2023-10-29T09:46:00",
      "eventStop": "2023-10-29T23:04:00",
      "duration": 798,
      "status": "Genuine",
      "associatedSiteId": 109682,
      "outfallName": "MAY STREET HERNE BAY NO3",
      "isImpacting": true,
      "overFlowSiteId": 0,
      "historicSpillsList": [
        {
          "id": 343921546,
          "eventId": 892794,
          "siteUnitNumber": 12551,
          "bathingSite": "HERNE BAY",
          "eventStart": "2023-10-29T09:46:00",
          "eventStop": "2023-10-29T23:04:00",
          "duration": 798,
          "status": "Genuine",
          "associatedSiteId": 109682,
          "outfallName": "MAY STREET HERNE BAY NO3",
          "isImpacting": true,
          "overFlowSiteId": 115418
        }
      ]
    },
    {
      "id": 343944667,
      "eventId": 886106,
      "siteUnitNumber": 12575,
      "bathingSite": "HASTINGS PELHAM BEACH",
      "eventStart": "2023-10-29T22:39:39",
      "eventStop": "2023-10-29T22:50:06",
      "duration": 10,
      "status": "Genuine",
      "associatedSiteId": 109982,
      "outfallName": "COOMBS HASTINGS",
      "isImpacting": true,
      "overFlowSiteId": 0,
      "historicSpillsList": [
        {
          "id": 343944668,
          "eventId": 886106,
          "siteUnitNumber": 12576,
          "bathingSite": "ST LEONARDS",
          "eventStart": "2023-10-29T22:39:39",
          "eventStop": "2023-10-29T22:50:06",
          "duration": 10,
          "status": "Genuine",
          "associatedSiteId": 109982,
          "outfallName": "COOMBS HASTINGS",
          "isImpacting": true,
          "overFlowSiteId": 110211,
          "historicSpillsList": []
        }
      ]
    },
    {
      "id": 343925576,
      "eventId": 885221,
      "siteUnitNumber": 12607,
      "bathingSite": "HILLHEAD",
      "eventStart": "2023-10-29T10:52:13",
      "eventStop": "2023-10-29T22:48:00",
      "duration": 715,
      "status": "Genuine",
      "associatedSiteId": 109751,
      "outfallName": "HOOK PARK NO.1",
      "isImpacting": false,
      "overFlowSiteId": 0,
      "historicSpillsList": []
    },
    {
      "id": 343923781,
      "eventId": 886093,
      "siteUnitNumber": 12616,
      "bathingSite": "GURNARD",
      "eventStart": "2023-10-29T22:14:15",
      "eventStop": "2023-10-29T22:38:29",
      "duration": 24,
      "status": "Genuine",
      "associatedSiteId": 109706,
      "outfallName": "HIGH STREET COWES",
      "isImpacting": false,
      "overFlowSiteId": 0,
      "historicSpillsList": []
    },
    {
      "id": 343927416,
      "eventId": 892869,
      "siteUnitNumber": 12618,
      "bathingSite": "RYDE",
      "eventStart": "2023-10-29T09:23:00",
      "eventStop": "2023-10-29T22:34:00",
      "duration": 791,
      "status": "Genuine",
      "associatedSiteId": 109778,
      "outfallName": "PRINCE CONSORT RYDE NEW",
      "isImpacting": true,
      "overFlowSiteId": 0,
      "historicSpillsList": [
        {
          "id": 343927416,
          "eventId": 892869,
          "siteUnitNumber": 12618,
          "bathingSite": "RYDE",
          "eventStart": "2023-10-29T09:23:00",
          "eventStop": "2023-10-29T22:34:00",
          "duration": 791,
          "status": "Genuine",
          "associatedSiteId": 109778,
          "outfallName": "PRINCE CONSORT RYDE NEW",
          "isImpacting": true,
          "overFlowSiteId": 108043
        }
      ]
    },
    {
      "id": 343944673,
      "eventId": 886090,
      "siteUnitNumber": 12575,
      "bathingSite": "HASTINGS PELHAM BEACH",
      "eventStart": "2023-10-29T22:20:13",
      "eventStop": "2023-10-29T22:32:10",
      "duration": 11,
      "status": "Genuine",
      "associatedSiteId": 109982,
      "outfallName": "COOMBS HASTINGS",
      "isImpacting": true,
      "overFlowSiteId": 0,
      "historicSpillsList": [
        {
          "id": 343944674,
          "eventId": 886090,
          "siteUnitNumber": 12576,
          "bathingSite": "ST LEONARDS",
          "eventStart": "2023-10-29T22:20:13",
          "eventStop": "2023-10-29T22:32:10",
          "duration": 11,
          "status": "Genuine",
          "associatedSiteId": 109982,
          "outfallName": "COOMBS HASTINGS",
          "isImpacting": true,
          "overFlowSiteId": 110211,
          "historicSpillsList": []
        }
      ]
    },
    {
      "id": 343926049,
      "eventId": 885801,
      "siteUnitNumber": 12600,
      "bathingSite": "EASTOKE",
      "eventStart": "2023-10-29T17:32:00",
      "eventStop": "2023-10-29T22:18:00",
      "duration": 286,
      "status": "Genuine",
      "associatedSiteId": 109775,
      "outfallName": "GREEN LANE HAYLING ISLAND",
      "isImpacting": true,
      "overFlowSiteId": 0,
      "historicSpillsList": [
        {
          "id": 343926049,
          "eventId": 885801,
          "siteUnitNumber": 12600,
          "bathingSite": "EASTOKE",
          "eventStart": "2023-10-29T17:32:00",
          "eventStop": "2023-10-29T22:18:00",
          "duration": 286,
          "status": "Genuine",
          "associatedSiteId": 109775,
          "outfallName": "GREEN LANE HAYLING ISLAND",
          "isImpacting": true,
          "overFlowSiteId": 108769
        },
        {
          "id": 343926050,
          "eventId": 885801,
          "siteUnitNumber": 12601,
          "bathingSite": "BEACHLANDS CENTRAL",
          "eventStart": "2023-10-29T17:32:00",
          "eventStop": "2023-10-29T22:18:00",
          "duration": 286,
          "status": "Genuine",
          "associatedSiteId": 109775,
          "outfallName": "GREEN LANE HAYLING ISLAND",
          "isImpacting": true,
          "overFlowSiteId": 108769,
          "historicSpillsList": []
        },
        {
          "id": 343926051,
          "eventId": 885801,
          "siteUnitNumber": 12602,
          "bathingSite": "BEACHLANDS WEST",
          "eventStart": "2023-10-29T17:32:00",
          "eventStop": "2023-10-29T22:18:00",
          "duration": 286,
          "status": "Genuine",
          "associatedSiteId": 109775,
          "outfallName": "GREEN LANE HAYLING ISLAND",
          "isImpacting": true,
          "overFlowSiteId": 108769,
          "historicSpillsList": []
        }
      ]
    },
    {
      "id": 343960441,
      "eventId": 885315,
      "siteUnitNumber": 12607,
      "bathingSite": "HILLHEAD",
      "eventStart": "2023-10-29T11:51:54",
      "eventStop": "2023-10-29T22:14:43",
      "duration": 622,
      "status": "Genuine",
      "associatedSiteId": 116111,
      "outfallName": "HOOK PARK NO.2",
      "isImpacting": false,
      "overFlowSiteId": 0,
      "historicSpillsList": []
    },
    {
      "id": 343944527,
      "eventId": 888062,
      "siteUnitNumber": 12575,
      "bathingSite": "HASTINGS PELHAM BEACH",
      "eventStart": "2023-10-29T22:01:00",
      "eventStop": "2023-10-29T22:13:00",
      "duration": 12,
      "status": "Genuine",
      "associatedSiteId": 109982,
      "outfallName": "COOMBS HASTINGS",
      "isImpacting": true,
      "overFlowSiteId": 0,
      "historicSpillsList": [
        {
          "id": 343944528,
          "eventId": 888062,
          "siteUnitNumber": 12576,
          "bathingSite": "ST LEONARDS",
          "eventStart": "2023-10-29T22:01:00",
          "eventStop": "2023-10-29T22:13:00",
          "duration": 12,
          "status": "Genuine",
          "associatedSiteId": 109982,
          "outfallName": "COOMBS HASTINGS",
          "isImpacting": true,
          "overFlowSiteId": 110211,
          "historicSpillsList": []
        }
      ]
    },
    {
      "id": 343954277,
      "eventId": 885130,
      "siteUnitNumber": 12620,
      "bathingSite": "ST HELENS",
      "eventStart": "2023-10-29T09:39:00",
      "eventStop": "2023-10-29T22:01:00",
      "duration": 742,
      "status": "Genuine",
      "associatedSiteId": 110761,
      "outfallName": "BRADING",
      "isImpacting": true,
      "overFlowSiteId": 0,
      "historicSpillsList": [
        {
          "id": 343954277,
          "eventId": 885130,
          "siteUnitNumber": 12620,
          "bathingSite": "ST HELENS",
          "eventStart": "2023-10-29T09:39:00",
          "eventStop": "2023-10-29T22:01:00",
          "duration": 742,
          "status": "Genuine",
          "associatedSiteId": 110761,
          "outfallName": "BRADING",
          "isImpacting": true,
          "overFlowSiteId": 113676
        }
      ]
    },
    {
      "id": 343944671,
      "eventId": 886072,
      "siteUnitNumber": 12575,
      "bathingSite": "HASTINGS PELHAM BEACH",
      "eventStart": "2023-10-29T21:41:33",
      "eventStop": "2023-10-29T21:55:00",
      "duration": 13,
      "status": "Genuine",
      "associatedSiteId": 109982,
      "outfallName": "COOMBS HASTINGS",
      "isImpacting": true,
      "overFlowSiteId": 0,
      "historicSpillsList": [
        {
          "id": 343944672,
          "eventId": 886072,
          "siteUnitNumber": 12576,
          "bathingSite": "ST LEONARDS",
          "eventStart": "2023-10-29T21:41:33",
          "eventStop": "2023-10-29T21:55:00",
          "duration": 13,
          "status": "Genuine",
          "associatedSiteId": 109982,
          "outfallName": "COOMBS HASTINGS",
          "isImpacting": true,
          "overFlowSiteId": 110211,
          "historicSpillsList": []
        }
      ]
    },
    {
      "id": 343938700,
      "eventId": 900553,
      "siteUnitNumber": 12620,
      "bathingSite": "ST HELENS",
      "eventStart": "2023-10-29T09:32:00",
      "eventStop": "2023-10-29T21:52:00",
      "duration": 740,
      "status": "Genuine",
      "associatedSiteId": 109939,
      "outfallName": "LANE END ROAD BEMBRIDGE",
      "isImpacting": true,
      "overFlowSiteId": 0,
      "historicSpillsList": [
        {
          "id": 343938701,
          "eventId": 900553,
          "siteUnitNumber": 12621,
          "bathingSite": "BEMBRIDGE",
          "eventStart": "2023-10-29T09:32:00",
          "eventStop": "2023-10-29T21:52:00",
          "duration": 740,
          "status": "Genuine",
          "associatedSiteId": 109939,
          "outfallName": "LANE END ROAD BEMBRIDGE",
          "isImpacting": true,
          "overFlowSiteId": 108533,
          "historicSpillsList": []
        }
      ]
    },
    {
      "id": 343944677,
      "eventId": 886028,
      "siteUnitNumber": 12575,
      "bathingSite": "HASTINGS PELHAM BEACH",
      "eventStart": "2023-10-29T21:18:14",
      "eventStop": "2023-10-29T21:34:41",
      "duration": 16,
      "status": "Genuine",
      "associatedSiteId": 109982,
      "outfallName": "COOMBS HASTINGS",
      "isImpacting": true,
      "overFlowSiteId": 0,
      "historicSpillsList": [
        {
          "id": 343944678,
          "eventId": 886028,
          "siteUnitNumber": 12576,
          "bathingSite": "ST LEONARDS",
          "eventStart": "2023-10-29T21:18:14",
          "eventStop": "2023-10-29T21:34:41",
          "duration": 16,
          "status": "Genuine",
          "associatedSiteId": 109982,
          "outfallName": "COOMBS HASTINGS",
          "isImpacting": true,
          "overFlowSiteId": 110211,
          "historicSpillsList": []
        }
      ]
    },
    {
      "id": 343932886,
      "eventId": 886064,
      "siteUnitNumber": 12568,
      "bathingSite": "SANDGATE",
      "eventStart": "2023-10-29T21:17:13",
      "eventStop": "2023-10-29T21:23:25",
      "duration": 6,
      "status": "Genuine",
      "associatedSiteId": 109896,
      "outfallName": "RANGE ROAD HYTHE K SHORT",
      "isImpacting": true,
      "overFlowSiteId": 0,
      "historicSpillsList": [
        {
          "id": 343932887,
          "eventId": 886064,
          "siteUnitNumber": 12569,
          "bathingSite": "HYTHE",
          "eventStart": "2023-10-29T21:17:13",
          "eventStop": "2023-10-29T21:23:25",
          "duration": 6,
          "status": "Genuine",
          "associatedSiteId": 109896,
          "outfallName": "RANGE ROAD HYTHE K SHORT",
          "isImpacting": true,
          "overFlowSiteId": 116112,
          "historicSpillsList": []
        }
      ]
    },
    {
      "id": 343944675,
      "eventId": 886022,
      "siteUnitNumber": 12575,
      "bathingSite": "HASTINGS PELHAM BEACH",
      "eventStart": "2023-10-29T20:54:05",
      "eventStop": "2023-10-29T21:12:00",
      "duration": 17,
      "status": "Genuine",
      "associatedSiteId": 109982,
      "outfallName": "COOMBS HASTINGS",
      "isImpacting": false,
      "overFlowSiteId": 0,
      "historicSpillsList": []
    },
    {
      "id": 343944681,
      "eventId": 885993,
      "siteUnitNumber": 12575,
      "bathingSite": "HASTINGS PELHAM BEACH",
      "eventStart": "2023-10-29T20:33:00",
      "eventStop": "2023-10-29T20:48:27",
      "duration": 15,
      "status": "Genuine",
      "associatedSiteId": 109982,
      "outfallName": "COOMBS HASTINGS",
      "isImpacting": false,
      "overFlowSiteId": 0,
      "historicSpillsList": []
    },
    {
      "id": 343944679,
      "eventId": 885412,
      "siteUnitNumber": 12575,
      "bathingSite": "HASTINGS PELHAM BEACH",
      "eventStart": "2023-10-29T13:13:52",
      "eventStop": "2023-10-29T20:24:00",
      "duration": 430,
      "status": "Genuine",
      "associatedSiteId": 109982,
      "outfallName": "COOMBS HASTINGS",
      "isImpacting": true,
      "overFlowSiteId": 0,
      "historicSpillsList": [
        {
          "id": 343944680,
          "eventId": 885412,
          "siteUnitNumber": 12576,
          "bathingSite": "ST LEONARDS",
          "eventStart": "2023-10-29T13:13:52",
          "eventStop": "2023-10-29T20:24:00",
          "duration": 430,
          "status": "Genuine",
          "associatedSiteId": 109982,
          "outfallName": "COOMBS HASTINGS",
          "isImpacting": true,
          "overFlowSiteId": 110211,
          "historicSpillsList": []
        }
      ]
    },
    {
      "id": 343937014,
      "eventId": 885973,
      "siteUnitNumber": 12590,
      "bathingSite": "WORTHING",
      "eventStart": "2023-10-29T18:47:07",
      "eventStop": "2023-10-29T20:00:44",
      "duration": 73,
      "status": "Genuine",
      "associatedSiteId": 109912,
      "outfallName": "SEA LANE GORING",
      "isImpacting": false,
      "overFlowSiteId": 0,
      "historicSpillsList": []
    }
  ]
}