{
  "currentPage": 570,
  "totalItems": 21025,
  "totalPages": 841,
  "items": [
    {
      "id": 344815297,
      "eventId": 612755,
      "siteUnitNumber": 12556,
      "bathingSite": "MARGATE THE BAY",
      "eventStart": "2022-07-06T17:32:14",
      "eventStop": "2022-07-06T17:58:36",
      "duration": 26,
      "status": "Not Genuine",
      "associatedSiteId": 109672,
      "outfallName": "SEA VIEW TERRACE MARGATE",
      "isImpacting": true,
      "overFlowSiteId": 0,
      "historicSpillsList": []
    },
    {
      "id": 344815305,
      "eventId": 612754,
      "siteUnitNumber": 12553,
      "bathingSite": "WEST BAY WESTGATE",
      "eventStart": "2022-07-06T16:22:20",
      "eventStop": "2022-07-06T16:58:02",
      "duration": 35,
      "status": "Not Genuine",
      "associatedSiteId": 109672,
      "outfallName": "SEA VIEW TERRACE MARGATE",
      "isImpacting": true,
      "overFlowSiteId": 0,
      "historicSpillsList": []
    },
    {
      "id": 344815310,
      "eventId": 612753,
      "siteUnitNumber": 12554,
      "bathingSite": "ST MILDREDS BAY WESTGATE",
      "eventStart": "2022-07-06T15:24:45",
      "eventStop": "2022-07-06T16:21:11",
      "duration": 56,
      "status": "Not Genuine",
      "associatedSiteId": 109672,
      "outfallName": "SEA VIEW TERRACE MARGATE",
      "isImpacting": true,
      "overFlowSiteId": 0,
      "historicSpillsList": []
    },
    {
      "id": 344815315,
      "eventId": 612752,
      "siteUnitNumber": 12556,
      "bathingSite": "MARGATE THE BAY",
      "eventStart": "2022-07-06T14:43:47",
      "eventStop": "2022-07-06T15:22:21",
      "duration": 38,
      "status": "Not Genuine",
      "associatedSiteId": 109672,
      "outfallName": "SEA VIEW TERRACE MARGATE",
      "isImpacting": true,
      "overFlowSiteId": 0,
      "historicSpillsList": []
    },
    {
      "id": 344815323,
      "eventId": 612749,
      "siteUnitNumber": 12553,
      "bathingSite": "WEST BAY WESTGATE",
      "eventStart": "2022-07-06T13:53:38",
      "eventStop": "2022-07-06T14:18:46",
      "duration": 25,
      "status": "Not Genuine",
      "associatedSiteId": 109672,
      "outfallName": "SEA VIEW TERRACE MARGATE",
      "isImpacting": true,
      "overFlowSiteId": 0,
      "historicSpillsList": []
    },
    {
      "id": 344815336,
      "eventId": 612746,
      "siteUnitNumber": 12553,
      "bathingSite": "WEST BAY WESTGATE",
      "eventStart": "2022-07-06T13:15:28",
      "eventStop": "2022-07-06T13:34:34",
      "duration": 19,
      "status": "Not Genuine",
      "associatedSiteId": 109672,
      "outfallName": "SEA VIEW TERRACE MARGATE",
      "isImpacting": true,
      "overFlowSiteId": 0,
      "historicSpillsList": []
    },
    {
      "id": 344815333,
      "eventId": 612745,
      "siteUnitNumber": 12556,
      "bathingSite": "MARGATE THE BAY",
      "eventStart": "2022-07-06T12:25:45",
      "eventStop": "2022-07-06T13:13:19",
      "duration": 47,
      "status": "Not Genuine",
      "associatedSiteId": 109672,
      "outfallName": "SEA VIEW TERRACE MARGATE",
      "isImpacting": true,
      "overFlowSiteId": 0,
      "historicSpillsList": []
    },
    {
      "id": 344833575,
      "eventId": 612311,
      "siteUnitNumber": 12584,
      "bathingSite": "BRIGHTON KEMPTOWN",
      "eventStart": "2022-07-05T08:43:17",
      "eventStop": "2022-07-05T08:43:17",
      "duration": 0,
      "status": "Not Genuine",
      "associatedSiteId": 109954,
      "outfallName": "BLACK ROCK MARINE DRIVE BRIGHTON",
      "isImpacting": true,
      "overFlowSiteId": 0,
      "historicSpillsList": []
    },
    {
      "id": 344815341,
      "eventId": 612227,
      "siteUnitNumber": 12553,
      "bathingSite": "WEST BAY WESTGATE",
      "eventStart": "2022-07-05T00:20:16",
      "eventStop": "2022-07-05T00:40:00",
      "duration": 19,
      "status": "Not Genuine",
      "associatedSiteId": 109672,
      "outfallName": "SEA VIEW TERRACE MARGATE",
      "isImpacting": true,
      "overFlowSiteId": 0,
      "historicSpillsList": []
    },
    {
      "id": 344826183,
      "eventId": 612137,
      "siteUnitNumber": 12662,
      "bathingSite": "CHICHESTER HARBOUR",
      "eventStart": "2022-07-04T14:12:45",
      "eventStop": "2022-07-04T14:14:47",
      "duration": 2,
      "status": "Not Genuine",
      "associatedSiteId": 109850,
      "outfallName": "THORNHAM",
      "isImpacting": true,
      "overFlowSiteId": 0,
      "historicSpillsList": []
    },
    {
      "id": 344812372,
      "eventId": 611714,
      "siteUnitNumber": 12618,
      "bathingSite": "RYDE",
      "eventStart": "2022-07-02T03:03:44",
      "eventStop": "2022-07-02T07:25:25",
      "duration": 261,
      "status": "Not Genuine",
      "associatedSiteId": 102050,
      "outfallName": "ESPLANADE SEAVIEW",
      "isImpacting": true,
      "overFlowSiteId": 0,
      "historicSpillsList": []
    },
    {
      "id": 344812563,
      "eventId": 611555,
      "siteUnitNumber": 12546,
      "bathingSite": "LEYSDOWN",
      "eventStart": "2022-07-01T07:42:53",
      "eventStop": "2022-07-01T08:45:08",
      "duration": 62,
      "status": "Not Genuine",
      "associatedSiteId": 109613,
      "outfallName": "BARROWS BROOK EASTCHURCH",
      "isImpacting": true,
      "overFlowSiteId": 0,
      "historicSpillsList": []
    },
    {
      "id": 344812564,
      "eventId": 611552,
      "siteUnitNumber": 12546,
      "bathingSite": "LEYSDOWN",
      "eventStart": "2022-07-01T06:59:16",
      "eventStop": "2022-07-01T07:15:00",
      "duration": 15,
      "status": "Not Genuine",
      "associatedSiteId": 109613,
      "outfallName": "BARROWS BROOK EASTCHURCH",
      "isImpacting": true,
      "overFlowSiteId": 0,
      "historicSpillsList": []
    },
    {
      "id": 344849066,
      "eventId": 611506,
      "siteUnitNumber": 12582,
      "bathingSite": "SEAFORD",
      "eventStart": "2022-07-01T03:06:42",
      "eventStop": "2022-07-01T03:42:32",
      "duration": 35,
      "status": "Genuine",
      "associatedSiteId": 110920,
      "outfallName": "NEWHAVEN",
      "isImpacting": true,
      "overFlowSiteId": 0,
      "historicSpillsList": [
        {
          "id": 344849066,
          "eventId": 611506,
          "siteUnitNumber": 12582,
          "bathingSite": "SEAFORD",
          "eventStart": "2022-07-01T03:06:42",
          "eventStop": "2022-07-01T03:42:32",
          "duration": 35,
          "status": "Genuine",
          "associatedSiteId": 110920,
          "outfallName": "NEWHAVEN",
          "isImpacting": true,
          "overFlowSiteId": 116065
        }
      ]
    },
    {
      "id": 344823041,
      "eventId": 611405,
      "siteUnitNumber": 12661,
      "bathingSite": "LANGSTONE HARBOUR",
      "eventStart": "2022-06-30T18:13:16",
      "eventStop": "2022-06-30T18:45:00",
      "duration": 31,
      "status": "Not Genuine",
      "associatedSiteId": 109820,
      "outfallName": "ST ANDREWS ROAD PORTSMOUTH",
      "isImpacting": true,
      "overFlowSiteId": 0,
      "historicSpillsList": []
    },
    {
      "id": 344840308,
      "eventId": 611294,
      "siteUnitNumber": 12582,
      "bathingSite": "SEAFORD",
      "eventStart": "2022-06-30T09:50:09",
      "eventStop": "2022-06-30T11:00:00",
      "duration": 69,
      "status": "Not Genuine",
      "associatedSiteId": 110043,
      "outfallName": "WEST PIER NEWHAVEN",
      "isImpacting": true,
      "overFlowSiteId": 0,
      "historicSpillsList": []
    },
    {
      "id": 344812565,
      "eventId": 611180,
      "siteUnitNumber": 12546,
      "bathingSite": "LEYSDOWN",
      "eventStart": "2022-06-29T21:00:00",
      "eventStop": "2022-06-30T06:09:15",
      "duration": 549,
      "status": "Not Genuine",
      "associatedSiteId": 109613,
      "outfallName": "BARROWS BROOK EASTCHURCH",
      "isImpacting": true,
      "overFlowSiteId": 0,
      "historicSpillsList": []
    },
    {
      "id": 344830472,
      "eventId": 611225,
      "siteUnitNumber": 12576,
      "bathingSite": "ST LEONARDS",
      "eventStart": "2022-06-30T01:35:14",
      "eventStop": "2022-06-30T02:15:00",
      "duration": 39,
      "status": "Genuine",
      "associatedSiteId": 109903,
      "outfallName": "BEXHILL & HASTINGS NO2",
      "isImpacting": true,
      "overFlowSiteId": 0,
      "historicSpillsList": [
        {
          "id": 344830472,
          "eventId": 611225,
          "siteUnitNumber": 12576,
          "bathingSite": "ST LEONARDS",
          "eventStart": "2022-06-30T01:35:14",
          "eventStop": "2022-06-30T02:15:00",
          "duration": 39,
          "status": "Genuine",
          "associatedSiteId": 109903,
          "outfallName": "BEXHILL & HASTINGS NO2",
          "isImpacting": true,
          "overFlowSiteId": 115398
        },
        {
          "id": 344830473,
          "eventId": 611225,
          "siteUnitNumber": 12577,
          "bathingSite": "BEXHILL",
          "eventStart": "2022-06-30T01:35:14",
          "eventStop": "2022-06-30T02:15:00",
          "duration": 39,
          "status": "Genuine",
          "associatedSiteId": 109903,
          "outfallName": "BEXHILL & HASTINGS NO2",
          "isImpacting": true,
          "overFlowSiteId": 115398,
          "historicSpillsList": []
        }
      ]
    },
    {
      "id": 344849065,
      "eventId": 611214,
      "siteUnitNumber": 12582,
      "bathingSite": "SEAFORD",
      "eventStart": "2022-06-30T01:32:24",
      "eventStop": "2022-06-30T01:49:21",
      "duration": 16,
      "status": "Genuine",
      "associatedSiteId": 110920,
      "outfallName": "NEWHAVEN",
      "isImpacting": true,
      "overFlowSiteId": 0,
      "historicSpillsList": [
        {
          "id": 344849065,
          "eventId": 611214,
          "siteUnitNumber": 12582,
          "bathingSite": "SEAFORD",
          "eventStart": "2022-06-30T01:32:24",
          "eventStop": "2022-06-30T01:49:21",
          "duration": 16,
          "status": "Genuine",
          "associatedSiteId": 110920,
          "outfallName": "NEWHAVEN",
          "isImpacting": true,
          "overFlowSiteId": 116065
        }
      ]
    },
    {
      "id": 344812566,
      "eventId": 611178,
      "siteUnitNumber": 12546,
      "bathingSite": "LEYSDOWN",
      "eventStart": "2022-06-29T20:15:00",
      "eventStop": "2022-06-29T20:34:33",
      "duration": 19,
      "status": "Not Genuine",
      "associatedSiteId": 109613,
      "outfallName": "BARROWS BROOK EASTCHURCH",
      "isImpacting": true,
      "overFlowSiteId": 0,
      "historicSpillsList": []
    },
    {
      "id": 344812567,
      "eventId": 611163,
      "siteUnitNumber": 12546,
      "bathingSite": "LEYSDOWN",
      "eventStart": "2022-06-29T19:30:00",
      "eventStop": "2022-06-29T19:48:57",
      "duration": 18,
      "status": "Not Genuine",
      "associatedSiteId": 109613,
      "outfallName": "BARROWS BROOK EASTCHURCH",
      "isImpacting": true,
      "overFlowSiteId": 0,
      "historicSpillsList": []
    },
    {
      "id": 344812568,
      "eventId": 610948,
      "siteUnitNumber": 12546,
      "bathingSite": "LEYSDOWN",
      "eventStart": "2022-06-28T19:45:00",
      "eventStop": "2022-06-28T20:00:00",
      "duration": 15,
      "status": "Not Genuine",
      "associatedSiteId": 109613,
      "outfallName": "BARROWS BROOK EASTCHURCH",
      "isImpacting": true,
      "overFlowSiteId": 0,
      "historicSpillsList": []
    },
    {
      "id": 344812569,
      "eventId": 610797,
      "siteUnitNumber": 12546,
      "bathingSite": "LEYSDOWN",
      "eventStart": "2022-06-28T01:15:00",
      "eventStop": "2022-06-28T01:30:00",
      "duration": 15,
      "status": "Not Genuine",
      "associatedSiteId": 109613,
      "outfallName": "BARROWS BROOK EASTCHURCH",
      "isImpacting": true,
      "overFlowSiteId": 0,
      "historicSpillsList": []
    },
    {
      "id": 344812570,
      "eventId": 610779,
      "siteUnitNumber": 12546,
      "bathingSite": "LEYSDOWN",
      "eventStart": "2022-06-27T21:57:58",
      "eventStop": "2022-06-27T22:15:00",
      "duration": 17,
      "status": "Not Genuine",
      "associatedSiteId": 109613,
      "outfallName": "BARROWS BROOK EASTCHURCH",
      "isImpacting": true,
      "overFlowSiteId": 0,
      "historicSpillsList": []
    },
    {
      "id": 344812571,
      "eventId": 610679,
      "siteUnitNumber": 12546,
      "bathingSite": "LEYSDOWN",
      "eventStart": "2022-06-27T14:30:00",
      "eventStop": "2022-06-27T15:00:00",
      "duration": 30,
      "status": "Not Genuine",
      "associatedSiteId": 109613,
      "outfallName": "BARROWS BROOK EASTCHURCH",
      "isImpacting": true,
      "overFlowSiteId": 0,
      "historicSpillsList": []
    }
  ]
}