{
  "currentPage": 532,
  "totalItems": 21025,
  "totalPages": 841,
  "items": [
    {
      "id": 344816667,
      "eventId": 649402,
      "siteUnitNumber": 12616,
      "bathingSite": "GURNARD",
      "eventStart": "2022-10-28T11:49:16",
      "eventStop": "2022-10-28T13:15:00",
      "duration": 85,
      "status": "Not Genuine",
      "associatedSiteId": 109700,
      "outfallName": "MARKET HILL COWES",
      "isImpacting": false,
      "overFlowSiteId": 0,
      "historicSpillsList": []
    },
    {
      "id": 344822685,
      "eventId": 646713,
      "siteUnitNumber": 12596,
      "bathingSite": "PAGHAM",
      "eventStart": "2022-10-23T22:03:28",
      "eventStop": "2022-10-28T09:39:29",
      "duration": 6456,
      "status": "Not Genuine",
      "associatedSiteId": 109791,
      "outfallName": "SIDLESHAM",
      "isImpacting": true,
      "overFlowSiteId": 0,
      "historicSpillsList": []
    },
    {
      "id": 344818495,
      "eventId": 649153,
      "siteUnitNumber": 12616,
      "bathingSite": "GURNARD",
      "eventStart": "2022-10-28T01:49:18",
      "eventStop": "2022-10-28T02:22:06",
      "duration": 32,
      "status": "Not Genuine",
      "associatedSiteId": 109706,
      "outfallName": "HIGH STREET COWES",
      "isImpacting": false,
      "overFlowSiteId": 0,
      "historicSpillsList": []
    },
    {
      "id": 344818497,
      "eventId": 649148,
      "siteUnitNumber": 12616,
      "bathingSite": "GURNARD",
      "eventStart": "2022-10-28T01:13:13",
      "eventStop": "2022-10-28T01:35:28",
      "duration": 22,
      "status": "Not Genuine",
      "associatedSiteId": 109706,
      "outfallName": "HIGH STREET COWES",
      "isImpacting": false,
      "overFlowSiteId": 0,
      "historicSpillsList": []
    },
    {
      "id": 344816669,
      "eventId": 649243,
      "siteUnitNumber": 12616,
      "bathingSite": "GURNARD",
      "eventStart": "2022-10-27T23:24:55",
      "eventStop": "2022-10-27T23:45:00",
      "duration": 20,
      "status": "Not Genuine",
      "associatedSiteId": 109700,
      "outfallName": "MARKET HILL COWES",
      "isImpacting": false,
      "overFlowSiteId": 0,
      "historicSpillsList": []
    },
    {
      "id": 344818499,
      "eventId": 648925,
      "siteUnitNumber": 12616,
      "bathingSite": "GURNARD",
      "eventStart": "2022-10-27T13:12:33",
      "eventStop": "2022-10-27T16:03:32",
      "duration": 170,
      "status": "Not Genuine",
      "associatedSiteId": 109706,
      "outfallName": "HIGH STREET COWES",
      "isImpacting": false,
      "overFlowSiteId": 0,
      "historicSpillsList": []
    },
    {
      "id": 344816671,
      "eventId": 648994,
      "siteUnitNumber": 12616,
      "bathingSite": "GURNARD",
      "eventStart": "2022-10-27T11:06:04",
      "eventStop": "2022-10-27T14:15:00",
      "duration": 188,
      "status": "Not Genuine",
      "associatedSiteId": 109700,
      "outfallName": "MARKET HILL COWES",
      "isImpacting": false,
      "overFlowSiteId": 0,
      "historicSpillsList": []
    },
    {
      "id": 344818501,
      "eventId": 648894,
      "siteUnitNumber": 12616,
      "bathingSite": "GURNARD",
      "eventStart": "2022-10-27T12:42:15",
      "eventStop": "2022-10-27T13:00:54",
      "duration": 18,
      "status": "Genuine",
      "associatedSiteId": 109706,
      "outfallName": "HIGH STREET COWES",
      "isImpacting": false,
      "overFlowSiteId": 0,
      "historicSpillsList": []
    },
    {
      "id": 344818503,
      "eventId": 648738,
      "siteUnitNumber": 12616,
      "bathingSite": "GURNARD",
      "eventStart": "2022-10-26T13:58:00",
      "eventStop": "2022-10-26T15:27:00",
      "duration": 89,
      "status": "Genuine",
      "associatedSiteId": 109706,
      "outfallName": "HIGH STREET COWES",
      "isImpacting": false,
      "overFlowSiteId": 0,
      "historicSpillsList": []
    },
    {
      "id": 344818505,
      "eventId": 648501,
      "siteUnitNumber": 12616,
      "bathingSite": "GURNARD",
      "eventStart": "2022-10-26T13:24:12",
      "eventStop": "2022-10-26T13:57:00",
      "duration": 32,
      "status": "Genuine",
      "associatedSiteId": 109706,
      "outfallName": "HIGH STREET COWES",
      "isImpacting": false,
      "overFlowSiteId": 0,
      "historicSpillsList": []
    },
    {
      "id": 344818507,
      "eventId": 648464,
      "siteUnitNumber": 12616,
      "bathingSite": "GURNARD",
      "eventStart": "2022-10-26T12:06:54",
      "eventStop": "2022-10-26T13:13:28",
      "duration": 66,
      "status": "Genuine",
      "associatedSiteId": 109706,
      "outfallName": "HIGH STREET COWES",
      "isImpacting": false,
      "overFlowSiteId": 0,
      "historicSpillsList": []
    },
    {
      "id": 344816673,
      "eventId": 648549,
      "siteUnitNumber": 12616,
      "bathingSite": "GURNARD",
      "eventStart": "2022-10-26T10:15:18",
      "eventStop": "2022-10-26T12:30:00",
      "duration": 134,
      "status": "Not Genuine",
      "associatedSiteId": 109700,
      "outfallName": "MARKET HILL COWES",
      "isImpacting": false,
      "overFlowSiteId": 0,
      "historicSpillsList": []
    },
    {
      "id": 344818509,
      "eventId": 648269,
      "siteUnitNumber": 12616,
      "bathingSite": "GURNARD",
      "eventStart": "2022-10-26T00:30:56",
      "eventStop": "2022-10-26T02:17:00",
      "duration": 106,
      "status": "Genuine",
      "associatedSiteId": 109706,
      "outfallName": "HIGH STREET COWES",
      "isImpacting": false,
      "overFlowSiteId": 0,
      "historicSpillsList": []
    },
    {
      "id": 344816675,
      "eventId": 648268,
      "siteUnitNumber": 12616,
      "bathingSite": "GURNARD",
      "eventStart": "2022-10-25T22:11:45",
      "eventStop": "2022-10-26T00:00:00",
      "duration": 108,
      "status": "Not Genuine",
      "associatedSiteId": 109700,
      "outfallName": "MARKET HILL COWES",
      "isImpacting": false,
      "overFlowSiteId": 0,
      "historicSpillsList": []
    },
    {
      "id": 344813033,
      "eventId": 648131,
      "siteUnitNumber": 12544,
      "bathingSite": "SHEERNESS",
      "eventStart": "2022-10-25T16:24:00",
      "eventStop": "2022-10-25T16:26:00",
      "duration": 2,
      "status": "Not Genuine",
      "associatedSiteId": 109621,
      "outfallName": "NOREEN AVENUE SHEERNESS",
      "isImpacting": true,
      "overFlowSiteId": 0,
      "historicSpillsList": []
    },
    {
      "id": 344820974,
      "eventId": 648318,
      "siteUnitNumber": 12617,
      "bathingSite": "COWES",
      "eventStart": "2022-10-25T09:37:00",
      "eventStop": "2022-10-25T13:24:00",
      "duration": 227,
      "status": "Genuine",
      "associatedSiteId": 109777,
      "outfallName": "APPLEY PARK RYDE TRANSFER",
      "isImpacting": true,
      "overFlowSiteId": 0,
      "historicSpillsList": [
        {
          "id": 344820975,
          "eventId": 648318,
          "siteUnitNumber": 12618,
          "bathingSite": "RYDE",
          "eventStart": "2022-10-25T09:37:00",
          "eventStop": "2022-10-25T13:24:00",
          "duration": 227,
          "status": "Genuine",
          "associatedSiteId": 109777,
          "outfallName": "APPLEY PARK RYDE TRANSFER",
          "isImpacting": true,
          "overFlowSiteId": 108941,
          "historicSpillsList": []
        }
      ]
    },
    {
      "id": 344818511,
      "eventId": 648070,
      "siteUnitNumber": 12616,
      "bathingSite": "GURNARD",
      "eventStart": "2022-10-25T12:16:34",
      "eventStop": "2022-10-25T12:37:57",
      "duration": 21,
      "status": "Genuine",
      "associatedSiteId": 109706,
      "outfallName": "HIGH STREET COWES",
      "isImpacting": false,
      "overFlowSiteId": 0,
      "historicSpillsList": []
    },
    {
      "id": 344836467,
      "eventId": 648020,
      "siteUnitNumber": 12594,
      "bathingSite": "BOGNOR REGIS EAST",
      "eventStart": "2022-10-25T10:25:00",
      "eventStop": "2022-10-25T11:57:00",
      "duration": 92,
      "status": "Genuine",
      "associatedSiteId": 109959,
      "outfallName": "WEST PARK BOGNOR REGIS",
      "isImpacting": false,
      "overFlowSiteId": 0,
      "historicSpillsList": []
    },
    {
      "id": 344816677,
      "eventId": 648129,
      "siteUnitNumber": 12616,
      "bathingSite": "GURNARD",
      "eventStart": "2022-10-25T10:05:00",
      "eventStop": "2022-10-25T11:21:00",
      "duration": 76,
      "status": "Genuine",
      "associatedSiteId": 109700,
      "outfallName": "MARKET HILL COWES",
      "isImpacting": false,
      "overFlowSiteId": 0,
      "historicSpillsList": []
    },
    {
      "id": 344822993,
      "eventId": 648013,
      "siteUnitNumber": 12661,
      "bathingSite": "LANGSTONE HARBOUR",
      "eventStart": "2022-10-25T03:51:00",
      "eventStop": "2022-10-25T04:57:00",
      "duration": 66,
      "status": "Genuine",
      "associatedSiteId": 109819,
      "outfallName": "COURT LANE COSHAM",
      "isImpacting": true,
      "overFlowSiteId": 0,
      "historicSpillsList": [
        {
          "id": 344822993,
          "eventId": 648013,
          "siteUnitNumber": 12661,
          "bathingSite": "LANGSTONE HARBOUR",
          "eventStart": "2022-10-25T03:51:00",
          "eventStop": "2022-10-25T04:57:00",
          "duration": 66,
          "status": "Genuine",
          "associatedSiteId": 109819,
          "outfallName": "COURT LANE COSHAM",
          "isImpacting": true,
          "overFlowSiteId": 115958
        }
      ]
    },
    {
      "id": 344820976,
      "eventId": 645611,
      "siteUnitNumber": 12617,
      "bathingSite": "COWES",
      "eventStart": "2022-10-23T06:16:29",
      "eventStop": "2022-10-24T23:25:00",
      "duration": 2468,
      "status": "Genuine",
      "associatedSiteId": 109777,
      "outfallName": "APPLEY PARK RYDE TRANSFER",
      "isImpacting": true,
      "overFlowSiteId": 0,
      "historicSpillsList": [
        {
          "id": 344820977,
          "eventId": 645611,
          "siteUnitNumber": 12618,
          "bathingSite": "RYDE",
          "eventStart": "2022-10-23T06:16:29",
          "eventStop": "2022-10-24T23:25:00",
          "duration": 2468,
          "status": "Genuine",
          "associatedSiteId": 109777,
          "outfallName": "APPLEY PARK RYDE TRANSFER",
          "isImpacting": true,
          "overFlowSiteId": 108941,
          "historicSpillsList": []
        }
      ]
    },
    {
      "id": 344822995,
      "eventId": 648011,
      "siteUnitNumber": 12661,
      "bathingSite": "LANGSTONE HARBOUR",
      "eventStart": "2022-10-24T20:51:00",
      "eventStop": "2022-10-24T22:04:00",
      "duration": 73,
      "status": "Genuine",
      "associatedSiteId": 109819,
      "outfallName": "COURT LANE COSHAM",
      "isImpacting": true,
      "overFlowSiteId": 0,
      "historicSpillsList": [
        {
          "id": 344822995,
          "eventId": 648011,
          "siteUnitNumber": 12661,
          "bathingSite": "LANGSTONE HARBOUR",
          "eventStart": "2022-10-24T20:51:00",
          "eventStop": "2022-10-24T22:04:00",
          "duration": 73,
          "status": "Genuine",
          "associatedSiteId": 109819,
          "outfallName": "COURT LANE COSHAM",
          "isImpacting": true,
          "overFlowSiteId": 115958
        }
      ]
    },
    {
      "id": 344830390,
      "eventId": 647994,
      "siteUnitNumber": 12576,
      "bathingSite": "ST LEONARDS",
      "eventStart": "2022-10-24T13:16:00",
      "eventStop": "2022-10-24T21:22:00",
      "duration": 486,
      "status": "Genuine",
      "associatedSiteId": 109903,
      "outfallName": "BEXHILL & HASTINGS NO2",
      "isImpacting": true,
      "overFlowSiteId": 0,
      "historicSpillsList": [
        {
          "id": 344830390,
          "eventId": 647994,
          "siteUnitNumber": 12576,
          "bathingSite": "ST LEONARDS",
          "eventStart": "2022-10-24T13:16:00",
          "eventStop": "2022-10-24T21:22:00",
          "duration": 486,
          "status": "Genuine",
          "associatedSiteId": 109903,
          "outfallName": "BEXHILL & HASTINGS NO2",
          "isImpacting": true,
          "overFlowSiteId": 115398
        },
        {
          "id": 344830391,
          "eventId": 647994,
          "siteUnitNumber": 12577,
          "bathingSite": "BEXHILL",
          "eventStart": "2022-10-24T13:16:00",
          "eventStop": "2022-10-24T21:22:00",
          "duration": 486,
          "status": "Genuine",
          "associatedSiteId": 109903,
          "outfallName": "BEXHILL & HASTINGS NO2",
          "isImpacting": true,
          "overFlowSiteId": 115398,
          "historicSpillsList": []
        }
      ]
    },
    {
      "id": 344841553,
      "eventId": 647692,
      "siteUnitNumber": 12622,
      "bathingSite": "WHITECLIFF BAY",
      "eventStart": "2022-10-24T19:34:00",
      "eventStop": "2022-10-24T20:12:25",
      "duration": 38,
      "status": "Genuine",
      "associatedSiteId": 110096,
      "outfallName": "SANDOWN NO1",
      "isImpacting": false,
      "overFlowSiteId": 0,
      "historicSpillsList": []
    },
    {
      "id": 344841556,
      "eventId": 647683,
      "siteUnitNumber": 12622,
      "bathingSite": "WHITECLIFF BAY",
      "eventStart": "2022-10-24T18:16:00",
      "eventStop": "2022-10-24T19:01:00",
      "duration": 45,
      "status": "Genuine",
      "associatedSiteId": 110096,
      "outfallName": "SANDOWN NO1",
      "isImpacting": false,
      "overFlowSiteId": 0,
      "historicSpillsList": []
    }
  ]
}