{
  "currentPage": 40,
  "totalItems": 18701,
  "totalPages": 749,
  "items": [
    {
      "id": 343940401,
      "eventId": 909546,
      "siteUnitNumber": 12594,
      "bathingSite": "BOGNOR REGIS EAST",
      "eventStart": "2023-11-15T07:27:56",
      "eventStop": "2023-11-15T16:00:00",
      "duration": 512,
      "status": "Genuine",
      "associatedSiteId": 109959,
      "outfallName": "WEST PARK BOGNOR REGIS",
      "isImpacting": true,
      "overFlowSiteId": 0,
      "historicSpillsList": [
        {
          "id": 343940401,
          "eventId": 909546,
          "siteUnitNumber": 12594,
          "bathingSite": "BOGNOR REGIS EAST",
          "eventStart": "2023-11-15T07:27:56",
          "eventStop": "2023-11-15T16:00:00",
          "duration": 512,
          "status": "Genuine",
          "associatedSiteId": 109959,
          "outfallName": "WEST PARK BOGNOR REGIS",
          "isImpacting": true,
          "overFlowSiteId": 108160
        }
      ]
    },
    {
      "id": 343918797,
      "eventId": 911387,
      "siteUnitNumber": 12616,
      "bathingSite": "GURNARD",
      "eventStart": "2023-11-15T07:11:00",
      "eventStop": "2023-11-15T15:34:00",
      "duration": 503,
      "status": "Genuine",
      "associatedSiteId": 109652,
      "outfallName": "WOODVALE TRANSFER NO1",
      "isImpacting": true,
      "overFlowSiteId": 0,
      "historicSpillsList": [
        {
          "id": 343918797,
          "eventId": 911387,
          "siteUnitNumber": 12616,
          "bathingSite": "GURNARD",
          "eventStart": "2023-11-15T07:11:00",
          "eventStop": "2023-11-15T15:34:00",
          "duration": 503,
          "status": "Genuine",
          "associatedSiteId": 109652,
          "outfallName": "WOODVALE TRANSFER NO1",
          "isImpacting": true,
          "overFlowSiteId": 115966
        },
        {
          "id": 343918798,
          "eventId": 911387,
          "siteUnitNumber": 12617,
          "bathingSite": "COWES",
          "eventStart": "2023-11-15T07:11:00",
          "eventStop": "2023-11-15T15:34:00",
          "duration": 503,
          "status": "Genuine",
          "associatedSiteId": 109652,
          "outfallName": "WOODVALE TRANSFER NO1",
          "isImpacting": true,
          "overFlowSiteId": 115966,
          "historicSpillsList": []
        }
      ]
    },
    {
      "id": 343931376,
      "eventId": 910012,
      "siteUnitNumber": 12662,
      "bathingSite": "CHICHESTER HARBOUR",
      "eventStart": "2023-11-15T15:04:43",
      "eventStop": "2023-11-15T15:29:00",
      "duration": 24,
      "status": "Genuine",
      "associatedSiteId": 109836,
      "outfallName": "CHICHESTER",
      "isImpacting": true,
      "overFlowSiteId": 0,
      "historicSpillsList": [
        {
          "id": 343931376,
          "eventId": 910012,
          "siteUnitNumber": 12662,
          "bathingSite": "CHICHESTER HARBOUR",
          "eventStart": "2023-11-15T15:04:43",
          "eventStop": "2023-11-15T15:29:00",
          "duration": 24,
          "status": "Genuine",
          "associatedSiteId": 109836,
          "outfallName": "CHICHESTER",
          "isImpacting": true,
          "overFlowSiteId": 115401
        }
      ]
    },
    {
      "id": 343956344,
      "eventId": 910023,
      "siteUnitNumber": 12615,
      "bathingSite": "COLWELL BAY",
      "eventStart": "2023-11-15T15:20:12",
      "eventStop": "2023-11-15T15:28:48",
      "duration": 8,
      "status": "Genuine",
      "associatedSiteId": 115498,
      "outfallName": "NORTON TRANSFER IOW",
      "isImpacting": true,
      "overFlowSiteId": 0,
      "historicSpillsList": [
        {
          "id": 343956344,
          "eventId": 910023,
          "siteUnitNumber": 12615,
          "bathingSite": "COLWELL BAY",
          "eventStart": "2023-11-15T15:20:12",
          "eventStop": "2023-11-15T15:28:48",
          "duration": 8,
          "status": "Genuine",
          "associatedSiteId": 115498,
          "outfallName": "NORTON TRANSFER IOW",
          "isImpacting": true,
          "overFlowSiteId": 109524
        },
        {
          "id": 343956345,
          "eventId": 910023,
          "siteUnitNumber": 12614,
          "bathingSite": "TOTLAND BAY",
          "eventStart": "2023-11-15T15:20:12",
          "eventStop": "2023-11-15T15:28:48",
          "duration": 8,
          "status": "Genuine",
          "associatedSiteId": 115498,
          "outfallName": "NORTON TRANSFER IOW",
          "isImpacting": true,
          "overFlowSiteId": 109524,
          "historicSpillsList": []
        }
      ]
    },
    {
      "id": 343929771,
      "eventId": 909918,
      "siteUnitNumber": 12548,
      "bathingSite": "TANKERTON",
      "eventStart": "2023-11-15T13:03:35",
      "eventStop": "2023-11-15T15:07:17",
      "duration": 123,
      "status": "Genuine",
      "associatedSiteId": 109830,
      "outfallName": "SWALECLIFFE NO1",
      "isImpacting": true,
      "overFlowSiteId": 0,
      "historicSpillsList": [
        {
          "id": 343929772,
          "eventId": 909918,
          "siteUnitNumber": 12549,
          "bathingSite": "HERNE BAY CENTRAL",
          "eventStart": "2023-11-15T13:03:35",
          "eventStop": "2023-11-15T15:07:17",
          "duration": 123,
          "status": "Genuine",
          "associatedSiteId": 109830,
          "outfallName": "SWALECLIFFE NO1",
          "isImpacting": true,
          "overFlowSiteId": 115444,
          "historicSpillsList": []
        }
      ]
    },
    {
      "id": 343931377,
      "eventId": 909994,
      "siteUnitNumber": 12662,
      "bathingSite": "CHICHESTER HARBOUR",
      "eventStart": "2023-11-15T14:31:51",
      "eventStop": "2023-11-15T15:00:00",
      "duration": 28,
      "status": "Genuine",
      "associatedSiteId": 109836,
      "outfallName": "CHICHESTER",
      "isImpacting": true,
      "overFlowSiteId": 0,
      "historicSpillsList": [
        {
          "id": 343931377,
          "eventId": 909994,
          "siteUnitNumber": 12662,
          "bathingSite": "CHICHESTER HARBOUR",
          "eventStart": "2023-11-15T14:31:51",
          "eventStop": "2023-11-15T15:00:00",
          "duration": 28,
          "status": "Genuine",
          "associatedSiteId": 109836,
          "outfallName": "CHICHESTER",
          "isImpacting": true,
          "overFlowSiteId": 115401
        }
      ]
    },
    {
      "id": 343956346,
      "eventId": 909998,
      "siteUnitNumber": 12614,
      "bathingSite": "TOTLAND BAY",
      "eventStart": "2023-11-15T14:44:00",
      "eventStop": "2023-11-15T14:57:00",
      "duration": 13,
      "status": "Genuine",
      "associatedSiteId": 115498,
      "outfallName": "NORTON TRANSFER IOW",
      "isImpacting": true,
      "overFlowSiteId": 0,
      "historicSpillsList": [
        {
          "id": 343956346,
          "eventId": 909998,
          "siteUnitNumber": 12614,
          "bathingSite": "TOTLAND BAY",
          "eventStart": "2023-11-15T14:44:00",
          "eventStop": "2023-11-15T14:57:00",
          "duration": 13,
          "status": "Genuine",
          "associatedSiteId": 115498,
          "outfallName": "NORTON TRANSFER IOW",
          "isImpacting": true,
          "overFlowSiteId": 109524
        },
        {
          "id": 343956347,
          "eventId": 909998,
          "siteUnitNumber": 12615,
          "bathingSite": "COLWELL BAY",
          "eventStart": "2023-11-15T14:44:00",
          "eventStop": "2023-11-15T14:57:00",
          "duration": 13,
          "status": "Genuine",
          "associatedSiteId": 115498,
          "outfallName": "NORTON TRANSFER IOW",
          "isImpacting": true,
          "overFlowSiteId": 109524,
          "historicSpillsList": []
        }
      ]
    },
    {
      "id": 343931378,
      "eventId": 909969,
      "siteUnitNumber": 12662,
      "bathingSite": "CHICHESTER HARBOUR",
      "eventStart": "2023-11-15T14:04:46",
      "eventStop": "2023-11-15T14:30:00",
      "duration": 25,
      "status": "Genuine",
      "associatedSiteId": 109836,
      "outfallName": "CHICHESTER",
      "isImpacting": true,
      "overFlowSiteId": 0,
      "historicSpillsList": [
        {
          "id": 343931378,
          "eventId": 909969,
          "siteUnitNumber": 12662,
          "bathingSite": "CHICHESTER HARBOUR",
          "eventStart": "2023-11-15T14:04:46",
          "eventStop": "2023-11-15T14:30:00",
          "duration": 25,
          "status": "Genuine",
          "associatedSiteId": 109836,
          "outfallName": "CHICHESTER",
          "isImpacting": true,
          "overFlowSiteId": 115401
        }
      ]
    },
    {
      "id": 343956348,
      "eventId": 909951,
      "siteUnitNumber": 12614,
      "bathingSite": "TOTLAND BAY",
      "eventStart": "2023-11-15T14:02:00",
      "eventStop": "2023-11-15T14:23:34",
      "duration": 21,
      "status": "Genuine",
      "associatedSiteId": 115498,
      "outfallName": "NORTON TRANSFER IOW",
      "isImpacting": true,
      "overFlowSiteId": 0,
      "historicSpillsList": [
        {
          "id": 343956348,
          "eventId": 909951,
          "siteUnitNumber": 12614,
          "bathingSite": "TOTLAND BAY",
          "eventStart": "2023-11-15T14:02:00",
          "eventStop": "2023-11-15T14:23:34",
          "duration": 21,
          "status": "Genuine",
          "associatedSiteId": 115498,
          "outfallName": "NORTON TRANSFER IOW",
          "isImpacting": true,
          "overFlowSiteId": 109524
        },
        {
          "id": 343956349,
          "eventId": 909951,
          "siteUnitNumber": 12615,
          "bathingSite": "COLWELL BAY",
          "eventStart": "2023-11-15T14:02:00",
          "eventStop": "2023-11-15T14:23:34",
          "duration": 21,
          "status": "Genuine",
          "associatedSiteId": 115498,
          "outfallName": "NORTON TRANSFER IOW",
          "isImpacting": true,
          "overFlowSiteId": 109524,
          "historicSpillsList": []
        }
      ]
    },
    {
      "id": 343925727,
      "eventId": 910942,
      "siteUnitNumber": 12661,
      "bathingSite": "LANGSTONE HARBOUR",
      "eventStart": "2023-11-15T08:27:00",
      "eventStop": "2023-11-15T14:17:00",
      "duration": 350,
      "status": "Genuine",
      "associatedSiteId": 109773,
      "outfallName": "BUDDS FARM HAVANT NO2",
      "isImpacting": true,
      "overFlowSiteId": 0,
      "historicSpillsList": [
        {
          "id": 343925727,
          "eventId": 910942,
          "siteUnitNumber": 12661,
          "bathingSite": "LANGSTONE HARBOUR",
          "eventStart": "2023-11-15T08:27:00",
          "eventStop": "2023-11-15T14:17:00",
          "duration": 350,
          "status": "Genuine",
          "associatedSiteId": 109773,
          "outfallName": "BUDDS FARM HAVANT NO2",
          "isImpacting": true,
          "overFlowSiteId": 115936
        }
      ]
    },
    {
      "id": 343925730,
      "eventId": 909635,
      "siteUnitNumber": 12661,
      "bathingSite": "LANGSTONE HARBOUR",
      "eventStart": "2023-11-15T08:36:09",
      "eventStop": "2023-11-15T14:04:00",
      "duration": 327,
      "status": "Genuine",
      "associatedSiteId": 109773,
      "outfallName": "BUDDS FARM HAVANT NO2",
      "isImpacting": true,
      "overFlowSiteId": 0,
      "historicSpillsList": [
        {
          "id": 343925730,
          "eventId": 909635,
          "siteUnitNumber": 12661,
          "bathingSite": "LANGSTONE HARBOUR",
          "eventStart": "2023-11-15T08:36:09",
          "eventStop": "2023-11-15T14:04:00",
          "duration": 327,
          "status": "Genuine",
          "associatedSiteId": 109773,
          "outfallName": "BUDDS FARM HAVANT NO2",
          "isImpacting": true,
          "overFlowSiteId": 116279
        }
      ]
    },
    {
      "id": 343931379,
      "eventId": 909930,
      "siteUnitNumber": 12662,
      "bathingSite": "CHICHESTER HARBOUR",
      "eventStart": "2023-11-15T13:38:38",
      "eventStop": "2023-11-15T14:00:00",
      "duration": 21,
      "status": "Genuine",
      "associatedSiteId": 109836,
      "outfallName": "CHICHESTER",
      "isImpacting": true,
      "overFlowSiteId": 0,
      "historicSpillsList": [
        {
          "id": 343931379,
          "eventId": 909930,
          "siteUnitNumber": 12662,
          "bathingSite": "CHICHESTER HARBOUR",
          "eventStart": "2023-11-15T13:38:38",
          "eventStop": "2023-11-15T14:00:00",
          "duration": 21,
          "status": "Genuine",
          "associatedSiteId": 109836,
          "outfallName": "CHICHESTER",
          "isImpacting": true,
          "overFlowSiteId": 115401
        }
      ]
    },
    {
      "id": 343956350,
      "eventId": 909944,
      "siteUnitNumber": 12615,
      "bathingSite": "COLWELL BAY",
      "eventStart": "2023-11-15T13:46:58",
      "eventStop": "2023-11-15T13:54:49",
      "duration": 7,
      "status": "Genuine",
      "associatedSiteId": 115498,
      "outfallName": "NORTON TRANSFER IOW",
      "isImpacting": true,
      "overFlowSiteId": 0,
      "historicSpillsList": [
        {
          "id": 343956350,
          "eventId": 909944,
          "siteUnitNumber": 12615,
          "bathingSite": "COLWELL BAY",
          "eventStart": "2023-11-15T13:46:58",
          "eventStop": "2023-11-15T13:54:49",
          "duration": 7,
          "status": "Genuine",
          "associatedSiteId": 115498,
          "outfallName": "NORTON TRANSFER IOW",
          "isImpacting": true,
          "overFlowSiteId": 109524
        },
        {
          "id": 343956351,
          "eventId": 909944,
          "siteUnitNumber": 12614,
          "bathingSite": "TOTLAND BAY",
          "eventStart": "2023-11-15T13:46:58",
          "eventStop": "2023-11-15T13:54:49",
          "duration": 7,
          "status": "Genuine",
          "associatedSiteId": 115498,
          "outfallName": "NORTON TRANSFER IOW",
          "isImpacting": true,
          "overFlowSiteId": 109524,
          "historicSpillsList": []
        }
      ]
    },
    {
      "id": 343956352,
      "eventId": 909925,
      "siteUnitNumber": 12614,
      "bathingSite": "TOTLAND BAY",
      "eventStart": "2023-11-15T13:32:42",
      "eventStop": "2023-11-15T13:42:21",
      "duration": 9,
      "status": "Genuine",
      "associatedSiteId": 115498,
      "outfallName": "NORTON TRANSFER IOW",
      "isImpacting": true,
      "overFlowSiteId": 0,
      "historicSpillsList": [
        {
          "id": 343956352,
          "eventId": 909925,
          "siteUnitNumber": 12614,
          "bathingSite": "TOTLAND BAY",
          "eventStart": "2023-11-15T13:32:42",
          "eventStop": "2023-11-15T13:42:21",
          "duration": 9,
          "status": "Genuine",
          "associatedSiteId": 115498,
          "outfallName": "NORTON TRANSFER IOW",
          "isImpacting": true,
          "overFlowSiteId": 109524
        },
        {
          "id": 343956353,
          "eventId": 909925,
          "siteUnitNumber": 12615,
          "bathingSite": "COLWELL BAY",
          "eventStart": "2023-11-15T13:32:42",
          "eventStop": "2023-11-15T13:42:21",
          "duration": 9,
          "status": "Genuine",
          "associatedSiteId": 115498,
          "outfallName": "NORTON TRANSFER IOW",
          "isImpacting": true,
          "overFlowSiteId": 109524,
          "historicSpillsList": []
        }
      ]
    },
    {
      "id": 343931381,
      "eventId": 909876,
      "siteUnitNumber": 12662,
      "bathingSite": "CHICHESTER HARBOUR",
      "eventStart": "2023-11-15T12:17:28",
      "eventStop": "2023-11-15T13:30:00",
      "duration": 72,
      "status": "Genuine",
      "associatedSiteId": 109836,
      "outfallName": "CHICHESTER",
      "isImpacting": true,
      "overFlowSiteId": 0,
      "historicSpillsList": [
        {
          "id": 343931381,
          "eventId": 909876,
          "siteUnitNumber": 12662,
          "bathingSite": "CHICHESTER HARBOUR",
          "eventStart": "2023-11-15T12:17:28",
          "eventStop": "2023-11-15T13:30:00",
          "duration": 72,
          "status": "Genuine",
          "associatedSiteId": 109836,
          "outfallName": "CHICHESTER",
          "isImpacting": true,
          "overFlowSiteId": 115401
        }
      ]
    },
    {
      "id": 343960313,
      "eventId": 907999,
      "siteUnitNumber": 12662,
      "bathingSite": "CHICHESTER HARBOUR",
      "eventStart": "2023-11-14T11:18:24",
      "eventStop": "2023-11-15T13:29:00",
      "duration": 1570,
      "status": "Genuine",
      "associatedSiteId": 116025,
      "outfallName": "PRIORS LEAZE LANE NUTBOURNE",
      "isImpacting": true,
      "overFlowSiteId": 0,
      "historicSpillsList": [
        {
          "id": 343960313,
          "eventId": 907999,
          "siteUnitNumber": 12662,
          "bathingSite": "CHICHESTER HARBOUR",
          "eventStart": "2023-11-14T11:18:24",
          "eventStop": "2023-11-15T13:29:00",
          "duration": 1570,
          "status": "Genuine",
          "associatedSiteId": 116025,
          "outfallName": "PRIORS LEAZE LANE NUTBOURNE",
          "isImpacting": true,
          "overFlowSiteId": 111267
        }
      ]
    },
    {
      "id": 343956354,
      "eventId": 909916,
      "siteUnitNumber": 12614,
      "bathingSite": "TOTLAND BAY",
      "eventStart": "2023-11-15T13:18:21",
      "eventStop": "2023-11-15T13:23:15",
      "duration": 4,
      "status": "Genuine",
      "associatedSiteId": 115498,
      "outfallName": "NORTON TRANSFER IOW",
      "isImpacting": true,
      "overFlowSiteId": 0,
      "historicSpillsList": [
        {
          "id": 343956354,
          "eventId": 909916,
          "siteUnitNumber": 12614,
          "bathingSite": "TOTLAND BAY",
          "eventStart": "2023-11-15T13:18:21",
          "eventStop": "2023-11-15T13:23:15",
          "duration": 4,
          "status": "Genuine",
          "associatedSiteId": 115498,
          "outfallName": "NORTON TRANSFER IOW",
          "isImpacting": true,
          "overFlowSiteId": 109524
        },
        {
          "id": 343956355,
          "eventId": 909916,
          "siteUnitNumber": 12615,
          "bathingSite": "COLWELL BAY",
          "eventStart": "2023-11-15T13:18:21",
          "eventStop": "2023-11-15T13:23:15",
          "duration": 4,
          "status": "Genuine",
          "associatedSiteId": 115498,
          "outfallName": "NORTON TRANSFER IOW",
          "isImpacting": true,
          "overFlowSiteId": 109524,
          "historicSpillsList": []
        }
      ]
    },
    {
      "id": 343956356,
      "eventId": 909912,
      "siteUnitNumber": 12615,
      "bathingSite": "COLWELL BAY",
      "eventStart": "2023-11-15T13:00:29",
      "eventStop": "2023-11-15T13:08:35",
      "duration": 8,
      "status": "Genuine",
      "associatedSiteId": 115498,
      "outfallName": "NORTON TRANSFER IOW",
      "isImpacting": true,
      "overFlowSiteId": 0,
      "historicSpillsList": [
        {
          "id": 343956356,
          "eventId": 909912,
          "siteUnitNumber": 12615,
          "bathingSite": "COLWELL BAY",
          "eventStart": "2023-11-15T13:00:29",
          "eventStop": "2023-11-15T13:08:35",
          "duration": 8,
          "status": "Genuine",
          "associatedSiteId": 115498,
          "outfallName": "NORTON TRANSFER IOW",
          "isImpacting": true,
          "overFlowSiteId": 109524
        },
        {
          "id": 343956357,
          "eventId": 909912,
          "siteUnitNumber": 12614,
          "bathingSite": "TOTLAND BAY",
          "eventStart": "2023-11-15T13:00:29",
          "eventStop": "2023-11-15T13:08:35",
          "duration": 8,
          "status": "Genuine",
          "associatedSiteId": 115498,
          "outfallName": "NORTON TRANSFER IOW",
          "isImpacting": true,
          "overFlowSiteId": 109524,
          "historicSpillsList": []
        }
      ]
    },
    {
      "id": 343956362,
      "eventId": 909901,
      "siteUnitNumber": 12615,
      "bathingSite": "COLWELL BAY",
      "eventStart": "2023-11-15T12:48:43",
      "eventStop": "2023-11-15T12:54:29",
      "duration": 5,
      "status": "Genuine",
      "associatedSiteId": 115498,
      "outfallName": "NORTON TRANSFER IOW",
      "isImpacting": true,
      "overFlowSiteId": 0,
      "historicSpillsList": [
        {
          "id": 343956362,
          "eventId": 909901,
          "siteUnitNumber": 12615,
          "bathingSite": "COLWELL BAY",
          "eventStart": "2023-11-15T12:48:43",
          "eventStop": "2023-11-15T12:54:29",
          "duration": 5,
          "status": "Genuine",
          "associatedSiteId": 115498,
          "outfallName": "NORTON TRANSFER IOW",
          "isImpacting": true,
          "overFlowSiteId": 109524
        },
        {
          "id": 343956363,
          "eventId": 909901,
          "siteUnitNumber": 12614,
          "bathingSite": "TOTLAND BAY",
          "eventStart": "2023-11-15T12:48:43",
          "eventStop": "2023-11-15T12:54:29",
          "duration": 5,
          "status": "Genuine",
          "associatedSiteId": 115498,
          "outfallName": "NORTON TRANSFER IOW",
          "isImpacting": true,
          "overFlowSiteId": 109524,
          "historicSpillsList": []
        }
      ]
    },
    {
      "id": 343956364,
      "eventId": 909888,
      "siteUnitNumber": 12614,
      "bathingSite": "TOTLAND BAY",
      "eventStart": "2023-11-15T12:35:52",
      "eventStop": "2023-11-15T12:42:07",
      "duration": 6,
      "status": "Genuine",
      "associatedSiteId": 115498,
      "outfallName": "NORTON TRANSFER IOW",
      "isImpacting": true,
      "overFlowSiteId": 0,
      "historicSpillsList": [
        {
          "id": 343956364,
          "eventId": 909888,
          "siteUnitNumber": 12614,
          "bathingSite": "TOTLAND BAY",
          "eventStart": "2023-11-15T12:35:52",
          "eventStop": "2023-11-15T12:42:07",
          "duration": 6,
          "status": "Genuine",
          "associatedSiteId": 115498,
          "outfallName": "NORTON TRANSFER IOW",
          "isImpacting": true,
          "overFlowSiteId": 109524
        },
        {
          "id": 343956365,
          "eventId": 909888,
          "siteUnitNumber": 12615,
          "bathingSite": "COLWELL BAY",
          "eventStart": "2023-11-15T12:35:52",
          "eventStop": "2023-11-15T12:42:07",
          "duration": 6,
          "status": "Genuine",
          "associatedSiteId": 115498,
          "outfallName": "NORTON TRANSFER IOW",
          "isImpacting": true,
          "overFlowSiteId": 109524,
          "historicSpillsList": []
        }
      ]
    },
    {
      "id": 343956366,
      "eventId": 909879,
      "siteUnitNumber": 12614,
      "bathingSite": "TOTLAND BAY",
      "eventStart": "2023-11-15T12:27:10",
      "eventStop": "2023-11-15T12:31:28",
      "duration": 4,
      "status": "Genuine",
      "associatedSiteId": 115498,
      "outfallName": "NORTON TRANSFER IOW",
      "isImpacting": true,
      "overFlowSiteId": 0,
      "historicSpillsList": [
        {
          "id": 343956366,
          "eventId": 909879,
          "siteUnitNumber": 12614,
          "bathingSite": "TOTLAND BAY",
          "eventStart": "2023-11-15T12:27:10",
          "eventStop": "2023-11-15T12:31:28",
          "duration": 4,
          "status": "Genuine",
          "associatedSiteId": 115498,
          "outfallName": "NORTON TRANSFER IOW",
          "isImpacting": true,
          "overFlowSiteId": 109524
        },
        {
          "id": 343956367,
          "eventId": 909879,
          "siteUnitNumber": 12615,
          "bathingSite": "COLWELL BAY",
          "eventStart": "2023-11-15T12:27:10",
          "eventStop": "2023-11-15T12:31:28",
          "duration": 4,
          "status": "Genuine",
          "associatedSiteId": 115498,
          "outfallName": "NORTON TRANSFER IOW",
          "isImpacting": true,
          "overFlowSiteId": 109524,
          "historicSpillsList": []
        }
      ]
    },
    {
      "id": 343956368,
      "eventId": 909877,
      "siteUnitNumber": 12615,
      "bathingSite": "COLWELL BAY",
      "eventStart": "2023-11-15T12:18:58",
      "eventStop": "2023-11-15T12:24:10",
      "duration": 5,
      "status": "Genuine",
      "associatedSiteId": 115498,
      "outfallName": "NORTON TRANSFER IOW",
      "isImpacting": true,
      "overFlowSiteId": 0,
      "historicSpillsList": [
        {
          "id": 343956368,
          "eventId": 909877,
          "siteUnitNumber": 12615,
          "bathingSite": "COLWELL BAY",
          "eventStart": "2023-11-15T12:18:58",
          "eventStop": "2023-11-15T12:24:10",
          "duration": 5,
          "status": "Genuine",
          "associatedSiteId": 115498,
          "outfallName": "NORTON TRANSFER IOW",
          "isImpacting": true,
          "overFlowSiteId": 109524
        },
        {
          "id": 343956369,
          "eventId": 909877,
          "siteUnitNumber": 12614,
          "bathingSite": "TOTLAND BAY",
          "eventStart": "2023-11-15T12:18:58",
          "eventStop": "2023-11-15T12:24:10",
          "duration": 5,
          "status": "Genuine",
          "associatedSiteId": 115498,
          "outfallName": "NORTON TRANSFER IOW",
          "isImpacting": true,
          "overFlowSiteId": 109524,
          "historicSpillsList": []
        }
      ]
    },
    {
      "id": 343956370,
      "eventId": 909871,
      "siteUnitNumber": 12614,
      "bathingSite": "TOTLAND BAY",
      "eventStart": "2023-11-15T12:10:22",
      "eventStop": "2023-11-15T12:15:31",
      "duration": 5,
      "status": "Genuine",
      "associatedSiteId": 115498,
      "outfallName": "NORTON TRANSFER IOW",
      "isImpacting": true,
      "overFlowSiteId": 0,
      "historicSpillsList": [
        {
          "id": 343956370,
          "eventId": 909871,
          "siteUnitNumber": 12614,
          "bathingSite": "TOTLAND BAY",
          "eventStart": "2023-11-15T12:10:22",
          "eventStop": "2023-11-15T12:15:31",
          "duration": 5,
          "status": "Genuine",
          "associatedSiteId": 115498,
          "outfallName": "NORTON TRANSFER IOW",
          "isImpacting": true,
          "overFlowSiteId": 109524
        },
        {
          "id": 343956371,
          "eventId": 909871,
          "siteUnitNumber": 12615,
          "bathingSite": "COLWELL BAY",
          "eventStart": "2023-11-15T12:10:22",
          "eventStop": "2023-11-15T12:15:31",
          "duration": 5,
          "status": "Genuine",
          "associatedSiteId": 115498,
          "outfallName": "NORTON TRANSFER IOW",
          "isImpacting": true,
          "overFlowSiteId": 109524,
          "historicSpillsList": []
        }
      ]
    },
    {
      "id": 343956372,
      "eventId": 909866,
      "siteUnitNumber": 12614,
      "bathingSite": "TOTLAND BAY",
      "eventStart": "2023-11-15T11:48:59",
      "eventStop": "2023-11-15T11:57:23",
      "duration": 8,
      "status": "Genuine",
      "associatedSiteId": 115498,
      "outfallName": "NORTON TRANSFER IOW",
      "isImpacting": true,
      "overFlowSiteId": 0,
      "historicSpillsList": [
        {
          "id": 343956372,
          "eventId": 909866,
          "siteUnitNumber": 12614,
          "bathingSite": "TOTLAND BAY",
          "eventStart": "2023-11-15T11:48:59",
          "eventStop": "2023-11-15T11:57:23",
          "duration": 8,
          "status": "Genuine",
          "associatedSiteId": 115498,
          "outfallName": "NORTON TRANSFER IOW",
          "isImpacting": true,
          "overFlowSiteId": 109524
        },
        {
          "id": 343956373,
          "eventId": 909866,
          "siteUnitNumber": 12615,
          "bathingSite": "COLWELL BAY",
          "eventStart": "2023-11-15T11:48:59",
          "eventStop": "2023-11-15T11:57:23",
          "duration": 8,
          "status": "Genuine",
          "associatedSiteId": 115498,
          "outfallName": "NORTON TRANSFER IOW",
          "isImpacting": true,
          "overFlowSiteId": 109524,
          "historicSpillsList": []
        }
      ]
    },
    {
      "id": 343956374,
      "eventId": 909825,
      "siteUnitNumber": 12615,
      "bathingSite": "COLWELL BAY",
      "eventStart": "2023-11-15T11:38:27",
      "eventStop": "2023-11-15T11:47:15",
      "duration": 8,
      "status": "Genuine",
      "associatedSiteId": 115498,
      "outfallName": "NORTON TRANSFER IOW",
      "isImpacting": true,
      "overFlowSiteId": 0,
      "historicSpillsList": [
        {
          "id": 343956374,
          "eventId": 909825,
          "siteUnitNumber": 12615,
          "bathingSite": "COLWELL BAY",
          "eventStart": "2023-11-15T11:38:27",
          "eventStop": "2023-11-15T11:47:15",
          "duration": 8,
          "status": "Genuine",
          "associatedSiteId": 115498,
          "outfallName": "NORTON TRANSFER IOW",
          "isImpacting": true,
          "overFlowSiteId": 109524
        },
        {
          "id": 343956375,
          "eventId": 909825,
          "siteUnitNumber": 12614,
          "bathingSite": "TOTLAND BAY",
          "eventStart": "2023-11-15T11:38:27",
          "eventStop": "2023-11-15T11:47:15",
          "duration": 8,
          "status": "Genuine",
          "associatedSiteId": 115498,
          "outfallName": "NORTON TRANSFER IOW",
          "isImpacting": true,
          "overFlowSiteId": 109524,
          "historicSpillsList": []
        }
      ]
    }
  ]
}