{
  "currentPage": 811,
  "totalItems": 21025,
  "totalPages": 841,
  "items": [
    {
      "id": 344896686,
      "eventId": 334748,
      "siteUnitNumber": 12614,
      "bathingSite": "TOTLAND BAY",
      "eventStart": "2021-01-28T16:08:00",
      "eventStop": "2021-01-29T15:34:00",
      "duration": 1406,
      "status": "Genuine",
      "associatedSiteId": 115498,
      "outfallName": "NORTON TRANSFER IOW",
      "isImpacting": true,
      "overFlowSiteId": 0,
      "historicSpillsList": [
        {
          "id": 344896686,
          "eventId": 334748,
          "siteUnitNumber": 12614,
          "bathingSite": "TOTLAND BAY",
          "eventStart": "2021-01-28T16:08:00",
          "eventStop": "2021-01-29T15:34:00",
          "duration": 1406,
          "status": "Genuine",
          "associatedSiteId": 115498,
          "outfallName": "NORTON TRANSFER IOW",
          "isImpacting": true,
          "overFlowSiteId": 109524
        },
        {
          "id": 344896687,
          "eventId": 334748,
          "siteUnitNumber": 12615,
          "bathingSite": "COLWELL BAY",
          "eventStart": "2021-01-28T16:08:00",
          "eventStop": "2021-01-29T15:34:00",
          "duration": 1406,
          "status": "Genuine",
          "associatedSiteId": 115498,
          "outfallName": "NORTON TRANSFER IOW",
          "isImpacting": true,
          "overFlowSiteId": 109524,
          "historicSpillsList": []
        }
      ]
    },
    {
      "id": 344858611,
      "eventId": 333687,
      "siteUnitNumber": 12551,
      "bathingSite": "HERNE BAY",
      "eventStart": "2021-01-29T10:12:00",
      "eventStop": "2021-01-29T14:53:00",
      "duration": 281,
      "status": "Genuine",
      "associatedSiteId": 109682,
      "outfallName": "MAY STREET HERNE BAY NO3",
      "isImpacting": true,
      "overFlowSiteId": 0,
      "historicSpillsList": [
        {
          "id": 344858611,
          "eventId": 333687,
          "siteUnitNumber": 12551,
          "bathingSite": "HERNE BAY",
          "eventStart": "2021-01-29T10:12:00",
          "eventStop": "2021-01-29T14:53:00",
          "duration": 281,
          "status": "Genuine",
          "associatedSiteId": 109682,
          "outfallName": "MAY STREET HERNE BAY NO3",
          "isImpacting": true,
          "overFlowSiteId": 115418
        }
      ]
    },
    {
      "id": 344879427,
      "eventId": 329029,
      "siteUnitNumber": 12594,
      "bathingSite": "BOGNOR REGIS EAST",
      "eventStart": "2021-01-29T14:00:00",
      "eventStop": "2021-01-29T14:51:00",
      "duration": 51,
      "status": "Genuine",
      "associatedSiteId": 109959,
      "outfallName": "WEST PARK BOGNOR REGIS",
      "isImpacting": true,
      "overFlowSiteId": 0,
      "historicSpillsList": [
        {
          "id": 344879427,
          "eventId": 329029,
          "siteUnitNumber": 12594,
          "bathingSite": "BOGNOR REGIS EAST",
          "eventStart": "2021-01-29T14:00:00",
          "eventStop": "2021-01-29T14:51:00",
          "duration": 51,
          "status": "Genuine",
          "associatedSiteId": 109959,
          "outfallName": "WEST PARK BOGNOR REGIS",
          "isImpacting": true,
          "overFlowSiteId": 108160
        },
        {
          "id": 344879428,
          "eventId": 329029,
          "siteUnitNumber": 12595,
          "bathingSite": "BOGNOR REGIS (ALDWICK)",
          "eventStart": "2021-01-29T14:00:00",
          "eventStop": "2021-01-29T14:51:00",
          "duration": 51,
          "status": "Genuine",
          "associatedSiteId": 109959,
          "outfallName": "WEST PARK BOGNOR REGIS",
          "isImpacting": true,
          "overFlowSiteId": 108160,
          "historicSpillsList": []
        },
        {
          "id": 344879429,
          "eventId": 329029,
          "siteUnitNumber": 12596,
          "bathingSite": "PAGHAM",
          "eventStart": "2021-01-29T14:00:00",
          "eventStop": "2021-01-29T14:51:00",
          "duration": 51,
          "status": "Genuine",
          "associatedSiteId": 109959,
          "outfallName": "WEST PARK BOGNOR REGIS",
          "isImpacting": true,
          "overFlowSiteId": 108160,
          "historicSpillsList": []
        }
      ]
    },
    {
      "id": 344885677,
      "eventId": 329046,
      "siteUnitNumber": 12622,
      "bathingSite": "WHITECLIFF BAY",
      "eventStart": "2021-01-29T13:19:20",
      "eventStop": "2021-01-29T14:45:00",
      "duration": 85,
      "status": "Genuine",
      "associatedSiteId": 110096,
      "outfallName": "SANDOWN NO1",
      "isImpacting": true,
      "overFlowSiteId": 0,
      "historicSpillsList": [
        {
          "id": 344885677,
          "eventId": 329046,
          "siteUnitNumber": 12622,
          "bathingSite": "WHITECLIFF BAY",
          "eventStart": "2021-01-29T13:19:20",
          "eventStop": "2021-01-29T14:45:00",
          "duration": 85,
          "status": "Genuine",
          "associatedSiteId": 110096,
          "outfallName": "SANDOWN NO1",
          "isImpacting": true,
          "overFlowSiteId": 115453
        },
        {
          "id": 344885678,
          "eventId": 329046,
          "siteUnitNumber": 12623,
          "bathingSite": "YAVERLAND",
          "eventStart": "2021-01-29T13:19:20",
          "eventStop": "2021-01-29T14:45:00",
          "duration": 85,
          "status": "Genuine",
          "associatedSiteId": 110096,
          "outfallName": "SANDOWN NO1",
          "isImpacting": true,
          "overFlowSiteId": 115453,
          "historicSpillsList": []
        },
        {
          "id": 344885679,
          "eventId": 329046,
          "siteUnitNumber": 12624,
          "bathingSite": "SANDOWN",
          "eventStart": "2021-01-29T13:19:20",
          "eventStop": "2021-01-29T14:45:00",
          "duration": 85,
          "status": "Genuine",
          "associatedSiteId": 110096,
          "outfallName": "SANDOWN NO1",
          "isImpacting": true,
          "overFlowSiteId": 115453,
          "historicSpillsList": []
        }
      ]
    },
    {
      "id": 344891793,
      "eventId": 329056,
      "siteUnitNumber": 12582,
      "bathingSite": "SEAFORD",
      "eventStart": "2021-01-29T14:05:09",
      "eventStop": "2021-01-29T14:40:56",
      "duration": 35,
      "status": "Genuine",
      "associatedSiteId": 110920,
      "outfallName": "NEWHAVEN",
      "isImpacting": true,
      "overFlowSiteId": 0,
      "historicSpillsList": [
        {
          "id": 344891793,
          "eventId": 329056,
          "siteUnitNumber": 12582,
          "bathingSite": "SEAFORD",
          "eventStart": "2021-01-29T14:05:09",
          "eventStop": "2021-01-29T14:40:56",
          "duration": 35,
          "status": "Genuine",
          "associatedSiteId": 110920,
          "outfallName": "NEWHAVEN",
          "isImpacting": true,
          "overFlowSiteId": 116065
        }
      ]
    },
    {
      "id": 344880585,
      "eventId": 332423,
      "siteUnitNumber": 12591,
      "bathingSite": "LITTLEHAMPTON",
      "eventStart": "2021-01-29T11:42:00",
      "eventStop": "2021-01-29T14:01:00",
      "duration": 139,
      "status": "Genuine",
      "associatedSiteId": 109968,
      "outfallName": "FORD ROAD ARUNDEL",
      "isImpacting": true,
      "overFlowSiteId": 0,
      "historicSpillsList": [
        {
          "id": 344880585,
          "eventId": 332423,
          "siteUnitNumber": 12591,
          "bathingSite": "LITTLEHAMPTON",
          "eventStart": "2021-01-29T11:42:00",
          "eventStop": "2021-01-29T14:01:00",
          "duration": 139,
          "status": "Genuine",
          "associatedSiteId": 109968,
          "outfallName": "FORD ROAD ARUNDEL",
          "isImpacting": true,
          "overFlowSiteId": 108002
        }
      ]
    },
    {
      "id": 344891792,
      "eventId": 328800,
      "siteUnitNumber": 12582,
      "bathingSite": "SEAFORD",
      "eventStart": "2021-01-29T11:25:46",
      "eventStop": "2021-01-29T13:56:01",
      "duration": 150,
      "status": "Genuine",
      "associatedSiteId": 110920,
      "outfallName": "NEWHAVEN",
      "isImpacting": true,
      "overFlowSiteId": 0,
      "historicSpillsList": [
        {
          "id": 344891792,
          "eventId": 328800,
          "siteUnitNumber": 12582,
          "bathingSite": "SEAFORD",
          "eventStart": "2021-01-29T11:25:46",
          "eventStop": "2021-01-29T13:56:01",
          "duration": 150,
          "status": "Genuine",
          "associatedSiteId": 110920,
          "outfallName": "NEWHAVEN",
          "isImpacting": true,
          "overFlowSiteId": 116065
        }
      ]
    },
    {
      "id": 344855534,
      "eventId": 328815,
      "siteUnitNumber": 12544,
      "bathingSite": "SHEERNESS",
      "eventStart": "2021-01-29T12:14:00",
      "eventStop": "2021-01-29T13:50:00",
      "duration": 96,
      "status": "Genuine",
      "associatedSiteId": 109619,
      "outfallName": "WARDS HILL ROAD MINSTER IOS",
      "isImpacting": true,
      "overFlowSiteId": 0,
      "historicSpillsList": [
        {
          "id": 344855534,
          "eventId": 328815,
          "siteUnitNumber": 12544,
          "bathingSite": "SHEERNESS",
          "eventStart": "2021-01-29T12:14:00",
          "eventStop": "2021-01-29T13:50:00",
          "duration": 96,
          "status": "Genuine",
          "associatedSiteId": 109619,
          "outfallName": "WARDS HILL ROAD MINSTER IOS",
          "isImpacting": true,
          "overFlowSiteId": 107413
        },
        {
          "id": 344855535,
          "eventId": 328815,
          "siteUnitNumber": 12550,
          "bathingSite": "MINSTER LEAS",
          "eventStart": "2021-01-29T12:14:00",
          "eventStop": "2021-01-29T13:50:00",
          "duration": 96,
          "status": "Genuine",
          "associatedSiteId": 109619,
          "outfallName": "WARDS HILL ROAD MINSTER IOS",
          "isImpacting": true,
          "overFlowSiteId": 107413,
          "historicSpillsList": []
        }
      ]
    },
    {
      "id": 344875442,
      "eventId": 326251,
      "siteUnitNumber": 12620,
      "bathingSite": "ST HELENS",
      "eventStart": "2021-01-28T21:45:00",
      "eventStop": "2021-01-29T13:39:00",
      "duration": 954,
      "status": "Genuine",
      "associatedSiteId": 109937,
      "outfallName": "HILLWAY BEMBRIDGE",
      "isImpacting": true,
      "overFlowSiteId": 0,
      "historicSpillsList": [
        {
          "id": 344875442,
          "eventId": 326251,
          "siteUnitNumber": 12620,
          "bathingSite": "ST HELENS",
          "eventStart": "2021-01-28T21:45:00",
          "eventStop": "2021-01-29T13:39:00",
          "duration": 954,
          "status": "Genuine",
          "associatedSiteId": 109937,
          "outfallName": "HILLWAY BEMBRIDGE",
          "isImpacting": true,
          "overFlowSiteId": 108529
        },
        {
          "id": 344875443,
          "eventId": 326251,
          "siteUnitNumber": 12621,
          "bathingSite": "BEMBRIDGE",
          "eventStart": "2021-01-28T21:45:00",
          "eventStop": "2021-01-29T13:39:00",
          "duration": 954,
          "status": "Genuine",
          "associatedSiteId": 109937,
          "outfallName": "HILLWAY BEMBRIDGE",
          "isImpacting": true,
          "overFlowSiteId": 108529,
          "historicSpillsList": []
        }
      ]
    },
    {
      "id": 344891974,
      "eventId": 327945,
      "siteUnitNumber": 12573,
      "bathingSite": "CAMBER",
      "eventStart": "2021-01-28T23:18:00",
      "eventStop": "2021-01-29T13:29:00",
      "duration": 851,
      "status": "Genuine",
      "associatedSiteId": 110958,
      "outfallName": "RYE",
      "isImpacting": true,
      "overFlowSiteId": 0,
      "historicSpillsList": [
        {
          "id": 344891974,
          "eventId": 327945,
          "siteUnitNumber": 12573,
          "bathingSite": "CAMBER",
          "eventStart": "2021-01-28T23:18:00",
          "eventStop": "2021-01-29T13:29:00",
          "duration": 851,
          "status": "Genuine",
          "associatedSiteId": 110958,
          "outfallName": "RYE",
          "isImpacting": true,
          "overFlowSiteId": 115433
        }
      ]
    },
    {
      "id": 344892098,
      "eventId": 329145,
      "siteUnitNumber": 12577,
      "bathingSite": "BEXHILL",
      "eventStart": "2021-01-29T13:06:00",
      "eventStop": "2021-01-29T13:22:00",
      "duration": 16,
      "status": "Genuine",
      "associatedSiteId": 111338,
      "outfallName": "GALLEY HILL BEXHILL",
      "isImpacting": true,
      "overFlowSiteId": 0,
      "historicSpillsList": [
        {
          "id": 344892098,
          "eventId": 329145,
          "siteUnitNumber": 12577,
          "bathingSite": "BEXHILL",
          "eventStart": "2021-01-29T13:06:00",
          "eventStop": "2021-01-29T13:22:00",
          "duration": 16,
          "status": "Genuine",
          "associatedSiteId": 111338,
          "outfallName": "GALLEY HILL BEXHILL",
          "isImpacting": true,
          "overFlowSiteId": 116162
        }
      ]
    },
    {
      "id": 344870382,
      "eventId": 329013,
      "siteUnitNumber": 12568,
      "bathingSite": "SANDGATE",
      "eventStart": "2021-01-29T13:11:30",
      "eventStop": "2021-01-29T13:16:15",
      "duration": 4,
      "status": "Genuine",
      "associatedSiteId": 109896,
      "outfallName": "RANGE ROAD HYTHE K SHORT",
      "isImpacting": true,
      "overFlowSiteId": 0,
      "historicSpillsList": [
        {
          "id": 344870382,
          "eventId": 329013,
          "siteUnitNumber": 12568,
          "bathingSite": "SANDGATE",
          "eventStart": "2021-01-29T13:11:30",
          "eventStop": "2021-01-29T13:16:15",
          "duration": 4,
          "status": "Genuine",
          "associatedSiteId": 109896,
          "outfallName": "RANGE ROAD HYTHE K SHORT",
          "isImpacting": true,
          "overFlowSiteId": 116112
        },
        {
          "id": 344870383,
          "eventId": 329013,
          "siteUnitNumber": 12569,
          "bathingSite": "HYTHE",
          "eventStart": "2021-01-29T13:11:30",
          "eventStop": "2021-01-29T13:16:15",
          "duration": 4,
          "status": "Genuine",
          "associatedSiteId": 109896,
          "outfallName": "RANGE ROAD HYTHE K SHORT",
          "isImpacting": true,
          "overFlowSiteId": 116112,
          "historicSpillsList": []
        }
      ]
    },
    {
      "id": 344885680,
      "eventId": 328978,
      "siteUnitNumber": 12622,
      "bathingSite": "WHITECLIFF BAY",
      "eventStart": "2021-01-29T13:00:00",
      "eventStop": "2021-01-29T13:15:00",
      "duration": 15,
      "status": "Genuine",
      "associatedSiteId": 110096,
      "outfallName": "SANDOWN NO1",
      "isImpacting": true,
      "overFlowSiteId": 0,
      "historicSpillsList": [
        {
          "id": 344885680,
          "eventId": 328978,
          "siteUnitNumber": 12622,
          "bathingSite": "WHITECLIFF BAY",
          "eventStart": "2021-01-29T13:00:00",
          "eventStop": "2021-01-29T13:15:00",
          "duration": 15,
          "status": "Genuine",
          "associatedSiteId": 110096,
          "outfallName": "SANDOWN NO1",
          "isImpacting": true,
          "overFlowSiteId": 115453
        },
        {
          "id": 344885681,
          "eventId": 328978,
          "siteUnitNumber": 12623,
          "bathingSite": "YAVERLAND",
          "eventStart": "2021-01-29T13:00:00",
          "eventStop": "2021-01-29T13:15:00",
          "duration": 15,
          "status": "Genuine",
          "associatedSiteId": 110096,
          "outfallName": "SANDOWN NO1",
          "isImpacting": true,
          "overFlowSiteId": 115453,
          "historicSpillsList": []
        },
        {
          "id": 344885682,
          "eventId": 328978,
          "siteUnitNumber": 12624,
          "bathingSite": "SANDOWN",
          "eventStart": "2021-01-29T13:00:00",
          "eventStop": "2021-01-29T13:15:00",
          "duration": 15,
          "status": "Genuine",
          "associatedSiteId": 110096,
          "outfallName": "SANDOWN NO1",
          "isImpacting": true,
          "overFlowSiteId": 115453,
          "historicSpillsList": []
        }
      ]
    },
    {
      "id": 344868194,
      "eventId": 329086,
      "siteUnitNumber": 12547,
      "bathingSite": "WEST BEACH WHITSTABLE",
      "eventStart": "2021-01-29T12:41:41",
      "eventStop": "2021-01-29T13:15:00",
      "duration": 33,
      "status": "Genuine",
      "associatedSiteId": 109832,
      "outfallName": "GORREL NO1",
      "isImpacting": true,
      "overFlowSiteId": 0,
      "historicSpillsList": [
        {
          "id": 344868194,
          "eventId": 329086,
          "siteUnitNumber": 12547,
          "bathingSite": "WEST BEACH WHITSTABLE",
          "eventStart": "2021-01-29T12:41:41",
          "eventStop": "2021-01-29T13:15:00",
          "duration": 33,
          "status": "Genuine",
          "associatedSiteId": 109832,
          "outfallName": "GORREL NO1",
          "isImpacting": true,
          "overFlowSiteId": 103279
        },
        {
          "id": 344868195,
          "eventId": 329086,
          "siteUnitNumber": 12548,
          "bathingSite": "TANKERTON",
          "eventStart": "2021-01-29T12:41:41",
          "eventStop": "2021-01-29T13:15:00",
          "duration": 33,
          "status": "Genuine",
          "associatedSiteId": 109832,
          "outfallName": "GORREL NO1",
          "isImpacting": true,
          "overFlowSiteId": 103279,
          "historicSpillsList": []
        }
      ]
    },
    {
      "id": 344882178,
      "eventId": 328932,
      "siteUnitNumber": 12546,
      "bathingSite": "LEYSDOWN",
      "eventStart": "2021-01-29T12:33:00",
      "eventStop": "2021-01-29T13:11:00",
      "duration": 38,
      "status": "Genuine",
      "associatedSiteId": 109998,
      "outfallName": "MUSTARDS ROAD LEYSDOWN ON SEA",
      "isImpacting": true,
      "overFlowSiteId": 0,
      "historicSpillsList": [
        {
          "id": 344882178,
          "eventId": 328932,
          "siteUnitNumber": 12546,
          "bathingSite": "LEYSDOWN",
          "eventStart": "2021-01-29T12:33:00",
          "eventStop": "2021-01-29T13:11:00",
          "duration": 38,
          "status": "Genuine",
          "associatedSiteId": 109998,
          "outfallName": "MUSTARDS ROAD LEYSDOWN ON SEA",
          "isImpacting": true,
          "overFlowSiteId": 108113
        }
      ]
    },
    {
      "id": 344892042,
      "eventId": 329144,
      "siteUnitNumber": 12577,
      "bathingSite": "BEXHILL",
      "eventStart": "2021-01-29T01:33:00",
      "eventStop": "2021-01-29T12:56:00",
      "duration": 683,
      "status": "Genuine",
      "associatedSiteId": 111338,
      "outfallName": "GALLEY HILL BEXHILL",
      "isImpacting": true,
      "overFlowSiteId": 0,
      "historicSpillsList": [
        {
          "id": 344892042,
          "eventId": 329144,
          "siteUnitNumber": 12577,
          "bathingSite": "BEXHILL",
          "eventStart": "2021-01-29T01:33:00",
          "eventStop": "2021-01-29T12:56:00",
          "duration": 683,
          "status": "Genuine",
          "associatedSiteId": 111338,
          "outfallName": "GALLEY HILL BEXHILL",
          "isImpacting": true,
          "overFlowSiteId": 116162
        }
      ]
    },
    {
      "id": 344885684,
      "eventId": 328967,
      "siteUnitNumber": 12622,
      "bathingSite": "WHITECLIFF BAY",
      "eventStart": "2021-01-29T11:51:33",
      "eventStop": "2021-01-29T12:10:05",
      "duration": 18,
      "status": "Genuine",
      "associatedSiteId": 110096,
      "outfallName": "SANDOWN NO1",
      "isImpacting": true,
      "overFlowSiteId": 0,
      "historicSpillsList": [
        {
          "id": 344885684,
          "eventId": 328967,
          "siteUnitNumber": 12622,
          "bathingSite": "WHITECLIFF BAY",
          "eventStart": "2021-01-29T11:51:33",
          "eventStop": "2021-01-29T12:10:05",
          "duration": 18,
          "status": "Genuine",
          "associatedSiteId": 110096,
          "outfallName": "SANDOWN NO1",
          "isImpacting": true,
          "overFlowSiteId": 115453
        },
        {
          "id": 344885685,
          "eventId": 328967,
          "siteUnitNumber": 12623,
          "bathingSite": "YAVERLAND",
          "eventStart": "2021-01-29T11:51:33",
          "eventStop": "2021-01-29T12:10:05",
          "duration": 18,
          "status": "Genuine",
          "associatedSiteId": 110096,
          "outfallName": "SANDOWN NO1",
          "isImpacting": true,
          "overFlowSiteId": 115453,
          "historicSpillsList": []
        },
        {
          "id": 344885686,
          "eventId": 328967,
          "siteUnitNumber": 12624,
          "bathingSite": "SANDOWN",
          "eventStart": "2021-01-29T11:51:33",
          "eventStop": "2021-01-29T12:10:05",
          "duration": 18,
          "status": "Genuine",
          "associatedSiteId": 110096,
          "outfallName": "SANDOWN NO1",
          "isImpacting": true,
          "overFlowSiteId": 115453,
          "historicSpillsList": []
        }
      ]
    },
    {
      "id": 344868917,
      "eventId": 328797,
      "siteUnitNumber": 12544,
      "bathingSite": "SHEERNESS",
      "eventStart": "2021-01-29T11:39:00",
      "eventStop": "2021-01-29T12:04:00",
      "duration": 25,
      "status": "Genuine",
      "associatedSiteId": 109869,
      "outfallName": "GRAIN NO2",
      "isImpacting": true,
      "overFlowSiteId": 0,
      "historicSpillsList": [
        {
          "id": 344868917,
          "eventId": 328797,
          "siteUnitNumber": 12544,
          "bathingSite": "SHEERNESS",
          "eventStart": "2021-01-29T11:39:00",
          "eventStop": "2021-01-29T12:04:00",
          "duration": 25,
          "status": "Genuine",
          "associatedSiteId": 109869,
          "outfallName": "GRAIN NO2",
          "isImpacting": true,
          "overFlowSiteId": 115411
        }
      ]
    },
    {
      "id": 344870380,
      "eventId": 329005,
      "siteUnitNumber": 12568,
      "bathingSite": "SANDGATE",
      "eventStart": "2021-01-29T11:45:23",
      "eventStop": "2021-01-29T11:50:08",
      "duration": 4,
      "status": "Genuine",
      "associatedSiteId": 109896,
      "outfallName": "RANGE ROAD HYTHE K SHORT",
      "isImpacting": true,
      "overFlowSiteId": 0,
      "historicSpillsList": [
        {
          "id": 344870380,
          "eventId": 329005,
          "siteUnitNumber": 12568,
          "bathingSite": "SANDGATE",
          "eventStart": "2021-01-29T11:45:23",
          "eventStop": "2021-01-29T11:50:08",
          "duration": 4,
          "status": "Genuine",
          "associatedSiteId": 109896,
          "outfallName": "RANGE ROAD HYTHE K SHORT",
          "isImpacting": true,
          "overFlowSiteId": 116112
        },
        {
          "id": 344870381,
          "eventId": 329005,
          "siteUnitNumber": 12569,
          "bathingSite": "HYTHE",
          "eventStart": "2021-01-29T11:45:23",
          "eventStop": "2021-01-29T11:50:08",
          "duration": 4,
          "status": "Genuine",
          "associatedSiteId": 109896,
          "outfallName": "RANGE ROAD HYTHE K SHORT",
          "isImpacting": true,
          "overFlowSiteId": 116112,
          "historicSpillsList": []
        }
      ]
    },
    {
      "id": 344855454,
      "eventId": 329528,
      "siteUnitNumber": 12544,
      "bathingSite": "SHEERNESS",
      "eventStart": "2021-01-29T11:41:00",
      "eventStop": "2021-01-29T11:45:00",
      "duration": 4,
      "status": "Genuine",
      "associatedSiteId": 109616,
      "outfallName": "SOUTH STREET QUEENBOROUGH",
      "isImpacting": true,
      "overFlowSiteId": 0,
      "historicSpillsList": [
        {
          "id": 344855454,
          "eventId": 329528,
          "siteUnitNumber": 12544,
          "bathingSite": "SHEERNESS",
          "eventStart": "2021-01-29T11:41:00",
          "eventStop": "2021-01-29T11:45:00",
          "duration": 4,
          "status": "Genuine",
          "associatedSiteId": 109616,
          "outfallName": "SOUTH STREET QUEENBOROUGH",
          "isImpacting": true,
          "overFlowSiteId": 108732
        }
      ]
    },
    {
      "id": 344891248,
      "eventId": 328920,
      "siteUnitNumber": 12662,
      "bathingSite": "CHICHESTER HARBOUR",
      "eventStart": "2021-01-28T04:49:00",
      "eventStop": "2021-01-29T10:40:00",
      "duration": 1791,
      "status": "Genuine",
      "associatedSiteId": 110760,
      "outfallName": "BOSHAM",
      "isImpacting": true,
      "overFlowSiteId": 0,
      "historicSpillsList": [
        {
          "id": 344891248,
          "eventId": 328920,
          "siteUnitNumber": 12662,
          "bathingSite": "CHICHESTER HARBOUR",
          "eventStart": "2021-01-28T04:49:00",
          "eventStop": "2021-01-29T10:40:00",
          "duration": 1791,
          "status": "Genuine",
          "associatedSiteId": 110760,
          "outfallName": "BOSHAM",
          "isImpacting": true,
          "overFlowSiteId": 115735
        }
      ]
    },
    {
      "id": 344858610,
      "eventId": 333686,
      "siteUnitNumber": 12551,
      "bathingSite": "HERNE BAY",
      "eventStart": "2021-01-29T06:10:00",
      "eventStop": "2021-01-29T09:34:00",
      "duration": 204,
      "status": "Genuine",
      "associatedSiteId": 109682,
      "outfallName": "MAY STREET HERNE BAY NO3",
      "isImpacting": true,
      "overFlowSiteId": 0,
      "historicSpillsList": [
        {
          "id": 344858610,
          "eventId": 333686,
          "siteUnitNumber": 12551,
          "bathingSite": "HERNE BAY",
          "eventStart": "2021-01-29T06:10:00",
          "eventStop": "2021-01-29T09:34:00",
          "duration": 204,
          "status": "Genuine",
          "associatedSiteId": 109682,
          "outfallName": "MAY STREET HERNE BAY NO3",
          "isImpacting": true,
          "overFlowSiteId": 115418
        }
      ]
    },
    {
      "id": 344885689,
      "eventId": 328276,
      "siteUnitNumber": 12622,
      "bathingSite": "WHITECLIFF BAY",
      "eventStart": "2021-01-29T02:21:35",
      "eventStop": "2021-01-29T09:30:51",
      "duration": 429,
      "status": "Genuine",
      "associatedSiteId": 110096,
      "outfallName": "SANDOWN NO1",
      "isImpacting": true,
      "overFlowSiteId": 0,
      "historicSpillsList": [
        {
          "id": 344885689,
          "eventId": 328276,
          "siteUnitNumber": 12622,
          "bathingSite": "WHITECLIFF BAY",
          "eventStart": "2021-01-29T02:21:35",
          "eventStop": "2021-01-29T09:30:51",
          "duration": 429,
          "status": "Genuine",
          "associatedSiteId": 110096,
          "outfallName": "SANDOWN NO1",
          "isImpacting": true,
          "overFlowSiteId": 115453
        },
        {
          "id": 344885690,
          "eventId": 328276,
          "siteUnitNumber": 12623,
          "bathingSite": "YAVERLAND",
          "eventStart": "2021-01-29T02:21:35",
          "eventStop": "2021-01-29T09:30:51",
          "duration": 429,
          "status": "Genuine",
          "associatedSiteId": 110096,
          "outfallName": "SANDOWN NO1",
          "isImpacting": true,
          "overFlowSiteId": 115453,
          "historicSpillsList": []
        },
        {
          "id": 344885683,
          "eventId": 328276,
          "siteUnitNumber": 12624,
          "bathingSite": "SANDOWN",
          "eventStart": "2021-01-29T02:21:35",
          "eventStop": "2021-01-29T09:30:51",
          "duration": 429,
          "status": "Genuine",
          "associatedSiteId": 110096,
          "outfallName": "SANDOWN NO1",
          "isImpacting": true,
          "overFlowSiteId": 115453,
          "historicSpillsList": []
        }
      ]
    },
    {
      "id": 344863026,
      "eventId": 328827,
      "siteUnitNumber": 12661,
      "bathingSite": "LANGSTONE HARBOUR",
      "eventStart": "2021-01-28T02:44:00",
      "eventStop": "2021-01-29T09:01:00",
      "duration": 1817,
      "status": "Genuine",
      "associatedSiteId": 109773,
      "outfallName": "BUDDS FARM HAVANT NO2",
      "isImpacting": true,
      "overFlowSiteId": 0,
      "historicSpillsList": [
        {
          "id": 344863026,
          "eventId": 328827,
          "siteUnitNumber": 12661,
          "bathingSite": "LANGSTONE HARBOUR",
          "eventStart": "2021-01-28T02:44:00",
          "eventStop": "2021-01-29T09:01:00",
          "duration": 1817,
          "status": "Genuine",
          "associatedSiteId": 109773,
          "outfallName": "BUDDS FARM HAVANT NO2",
          "isImpacting": true,
          "overFlowSiteId": 115936
        }
      ]
    },
    {
      "id": 344868699,
      "eventId": 328593,
      "siteUnitNumber": 12662,
      "bathingSite": "CHICHESTER HARBOUR",
      "eventStart": "2021-01-29T08:20:31",
      "eventStop": "2021-01-29T08:36:22",
      "duration": 15,
      "status": "Genuine",
      "associatedSiteId": 109836,
      "outfallName": "CHICHESTER",
      "isImpacting": true,
      "overFlowSiteId": 0,
      "historicSpillsList": [
        {
          "id": 344868699,
          "eventId": 328593,
          "siteUnitNumber": 12662,
          "bathingSite": "CHICHESTER HARBOUR",
          "eventStart": "2021-01-29T08:20:31",
          "eventStop": "2021-01-29T08:36:22",
          "duration": 15,
          "status": "Genuine",
          "associatedSiteId": 109836,
          "outfallName": "CHICHESTER",
          "isImpacting": true,
          "overFlowSiteId": 115401
        }
      ]
    }
  ]
}