{
  "currentPage": 248,
  "totalItems": 21025,
  "totalPages": 841,
  "items": [
    {
      "id": 344770659,
      "eventId": 841786,
      "siteUnitNumber": 12616,
      "bathingSite": "GURNARD",
      "eventStart": "2023-07-27T03:11:00",
      "eventStop": "2023-07-27T03:16:00",
      "duration": 5,
      "status": "Genuine",
      "associatedSiteId": 109652,
      "outfallName": "WOODVALE TRANSFER NO1",
      "isImpacting": true,
      "overFlowSiteId": 0,
      "historicSpillsList": [
        {
          "id": 344770660,
          "eventId": 841786,
          "siteUnitNumber": 12617,
          "bathingSite": "COWES",
          "eventStart": "2023-07-27T03:11:00",
          "eventStop": "2023-07-27T03:16:00",
          "duration": 5,
          "status": "Genuine",
          "associatedSiteId": 109652,
          "outfallName": "WOODVALE TRANSFER NO1",
          "isImpacting": true,
          "overFlowSiteId": 115966,
          "historicSpillsList": []
        }
      ]
    },
    {
      "id": 344806260,
      "eventId": 841175,
      "siteUnitNumber": 12582,
      "bathingSite": "SEAFORD",
      "eventStart": "2023-07-26T19:40:20",
      "eventStop": "2023-07-27T02:59:10",
      "duration": 438,
      "status": "Genuine",
      "associatedSiteId": 110920,
      "outfallName": "NEWHAVEN",
      "isImpacting": false,
      "overFlowSiteId": 0,
      "historicSpillsList": []
    },
    {
      "id": 344791504,
      "eventId": 841547,
      "siteUnitNumber": 12582,
      "bathingSite": "SEAFORD",
      "eventStart": "2023-07-27T02:19:41",
      "eventStop": "2023-07-27T02:56:44",
      "duration": 37,
      "status": "Genuine",
      "associatedSiteId": 109957,
      "outfallName": "PORTOBELLO BRIGHTON NO2",
      "isImpacting": false,
      "overFlowSiteId": 0,
      "historicSpillsList": []
    },
    {
      "id": 344804877,
      "eventId": 841615,
      "siteUnitNumber": 12617,
      "bathingSite": "COWES",
      "eventStart": "2023-07-27T01:21:00",
      "eventStop": "2023-07-27T02:54:00",
      "duration": 93,
      "status": "Genuine",
      "associatedSiteId": 110701,
      "outfallName": "TERMINUS ROAD COWES 2",
      "isImpacting": true,
      "overFlowSiteId": 0,
      "historicSpillsList": [
        {
          "id": 344804877,
          "eventId": 841615,
          "siteUnitNumber": 12617,
          "bathingSite": "COWES",
          "eventStart": "2023-07-27T01:21:00",
          "eventStop": "2023-07-27T02:54:00",
          "duration": 93,
          "status": "Genuine",
          "associatedSiteId": 110701,
          "outfallName": "TERMINUS ROAD COWES 2",
          "isImpacting": true,
          "overFlowSiteId": 108562
        },
        {
          "id": 344804878,
          "eventId": 841615,
          "siteUnitNumber": 12616,
          "bathingSite": "GURNARD",
          "eventStart": "2023-07-27T01:21:00",
          "eventStop": "2023-07-27T02:54:00",
          "duration": 93,
          "status": "Genuine",
          "associatedSiteId": 110701,
          "outfallName": "TERMINUS ROAD COWES 2",
          "isImpacting": true,
          "overFlowSiteId": 108562,
          "historicSpillsList": []
        }
      ]
    },
    {
      "id": 344795152,
      "eventId": 841513,
      "siteUnitNumber": 12591,
      "bathingSite": "LITTLEHAMPTON",
      "eventStart": "2023-07-27T02:30:00",
      "eventStop": "2023-07-27T02:45:00",
      "duration": 15,
      "status": "Not Genuine",
      "associatedSiteId": 109968,
      "outfallName": "FORD ROAD ARUNDEL",
      "isImpacting": true,
      "overFlowSiteId": 0,
      "historicSpillsList": []
    },
    {
      "id": 344804883,
      "eventId": 841462,
      "siteUnitNumber": 12616,
      "bathingSite": "GURNARD",
      "eventStart": "2023-07-27T01:34:00",
      "eventStop": "2023-07-27T02:44:00",
      "duration": 70,
      "status": "Genuine",
      "associatedSiteId": 110701,
      "outfallName": "TERMINUS ROAD COWES 2",
      "isImpacting": true,
      "overFlowSiteId": 0,
      "historicSpillsList": [
        {
          "id": 344804883,
          "eventId": 841462,
          "siteUnitNumber": 12616,
          "bathingSite": "GURNARD",
          "eventStart": "2023-07-27T01:34:00",
          "eventStop": "2023-07-27T02:44:00",
          "duration": 70,
          "status": "Genuine",
          "associatedSiteId": 110701,
          "outfallName": "TERMINUS ROAD COWES 2",
          "isImpacting": true,
          "overFlowSiteId": 108563
        },
        {
          "id": 344804884,
          "eventId": 841462,
          "siteUnitNumber": 12617,
          "bathingSite": "COWES",
          "eventStart": "2023-07-27T01:34:00",
          "eventStop": "2023-07-27T02:44:00",
          "duration": 70,
          "status": "Genuine",
          "associatedSiteId": 110701,
          "outfallName": "TERMINUS ROAD COWES 2",
          "isImpacting": true,
          "overFlowSiteId": 108563,
          "historicSpillsList": []
        }
      ]
    },
    {
      "id": 344770661,
      "eventId": 841785,
      "siteUnitNumber": 12616,
      "bathingSite": "GURNARD",
      "eventStart": "2023-07-27T02:28:00",
      "eventStop": "2023-07-27T02:34:00",
      "duration": 6,
      "status": "Genuine",
      "associatedSiteId": 109652,
      "outfallName": "WOODVALE TRANSFER NO1",
      "isImpacting": true,
      "overFlowSiteId": 0,
      "historicSpillsList": [
        {
          "id": 344770662,
          "eventId": 841785,
          "siteUnitNumber": 12617,
          "bathingSite": "COWES",
          "eventStart": "2023-07-27T02:28:00",
          "eventStop": "2023-07-27T02:34:00",
          "duration": 6,
          "status": "Genuine",
          "associatedSiteId": 109652,
          "outfallName": "WOODVALE TRANSFER NO1",
          "isImpacting": true,
          "overFlowSiteId": 115966,
          "historicSpillsList": []
        }
      ]
    },
    {
      "id": 344794496,
      "eventId": 841317,
      "siteUnitNumber": 12591,
      "bathingSite": "LITTLEHAMPTON",
      "eventStart": "2023-07-27T00:36:00",
      "eventStop": "2023-07-27T02:31:00",
      "duration": 115,
      "status": "Genuine",
      "associatedSiteId": 109965,
      "outfallName": "SEA ROAD LITTLEHAMPTON",
      "isImpacting": false,
      "overFlowSiteId": 0,
      "historicSpillsList": []
    },
    {
      "id": 344795155,
      "eventId": 841320,
      "siteUnitNumber": 12591,
      "bathingSite": "LITTLEHAMPTON",
      "eventStart": "2023-07-27T01:52:00",
      "eventStop": "2023-07-27T02:24:00",
      "duration": 32,
      "status": "Genuine",
      "associatedSiteId": 109968,
      "outfallName": "FORD ROAD ARUNDEL",
      "isImpacting": true,
      "overFlowSiteId": 0,
      "historicSpillsList": [
        {
          "id": 344795155,
          "eventId": 841320,
          "siteUnitNumber": 12591,
          "bathingSite": "LITTLEHAMPTON",
          "eventStart": "2023-07-27T01:52:00",
          "eventStop": "2023-07-27T02:24:00",
          "duration": 32,
          "status": "Genuine",
          "associatedSiteId": 109968,
          "outfallName": "FORD ROAD ARUNDEL",
          "isImpacting": true,
          "overFlowSiteId": 108002
        }
      ]
    },
    {
      "id": 344791502,
      "eventId": 841498,
      "siteUnitNumber": 12582,
      "bathingSite": "SEAFORD",
      "eventStart": "2023-07-27T02:08:21",
      "eventStop": "2023-07-27T02:18:18",
      "duration": 9,
      "status": "Genuine",
      "associatedSiteId": 109957,
      "outfallName": "PORTOBELLO BRIGHTON NO2",
      "isImpacting": false,
      "overFlowSiteId": 0,
      "historicSpillsList": []
    },
    {
      "id": 344791484,
      "eventId": 841667,
      "siteUnitNumber": 12582,
      "bathingSite": "SEAFORD",
      "eventStart": "2023-07-27T01:08:00",
      "eventStop": "2023-07-27T02:17:00",
      "duration": 69,
      "status": "Genuine",
      "associatedSiteId": 109957,
      "outfallName": "PORTOBELLO BRIGHTON NO2",
      "isImpacting": false,
      "overFlowSiteId": 0,
      "historicSpillsList": []
    },
    {
      "id": 344770663,
      "eventId": 841784,
      "siteUnitNumber": 12616,
      "bathingSite": "GURNARD",
      "eventStart": "2023-07-27T02:04:00",
      "eventStop": "2023-07-27T02:10:00",
      "duration": 6,
      "status": "Genuine",
      "associatedSiteId": 109652,
      "outfallName": "WOODVALE TRANSFER NO1",
      "isImpacting": true,
      "overFlowSiteId": 0,
      "historicSpillsList": [
        {
          "id": 344770664,
          "eventId": 841784,
          "siteUnitNumber": 12617,
          "bathingSite": "COWES",
          "eventStart": "2023-07-27T02:04:00",
          "eventStop": "2023-07-27T02:10:00",
          "duration": 6,
          "status": "Genuine",
          "associatedSiteId": 109652,
          "outfallName": "WOODVALE TRANSFER NO1",
          "isImpacting": true,
          "overFlowSiteId": 115966,
          "historicSpillsList": []
        }
      ]
    },
    {
      "id": 344784860,
      "eventId": 841496,
      "siteUnitNumber": 12568,
      "bathingSite": "SANDGATE",
      "eventStart": "2023-07-27T02:02:02",
      "eventStop": "2023-07-27T02:08:33",
      "duration": 6,
      "status": "Genuine",
      "associatedSiteId": 109896,
      "outfallName": "RANGE ROAD HYTHE K SHORT",
      "isImpacting": false,
      "overFlowSiteId": 0,
      "historicSpillsList": []
    },
    {
      "id": 344795803,
      "eventId": 841433,
      "siteUnitNumber": 12591,
      "bathingSite": "LITTLEHAMPTON",
      "eventStart": "2023-07-27T00:43:11",
      "eventStop": "2023-07-27T02:02:51",
      "duration": 79,
      "status": "Not Genuine",
      "associatedSiteId": 109977,
      "outfallName": "FORESHORE TANK LITTLEHAMPTON",
      "isImpacting": true,
      "overFlowSiteId": 0,
      "historicSpillsList": []
    },
    {
      "id": 344770665,
      "eventId": 841783,
      "siteUnitNumber": 12616,
      "bathingSite": "GURNARD",
      "eventStart": "2023-07-27T01:32:00",
      "eventStop": "2023-07-27T01:39:00",
      "duration": 7,
      "status": "Genuine",
      "associatedSiteId": 109652,
      "outfallName": "WOODVALE TRANSFER NO1",
      "isImpacting": true,
      "overFlowSiteId": 0,
      "historicSpillsList": [
        {
          "id": 344770666,
          "eventId": 841783,
          "siteUnitNumber": 12617,
          "bathingSite": "COWES",
          "eventStart": "2023-07-27T01:32:00",
          "eventStop": "2023-07-27T01:39:00",
          "duration": 7,
          "status": "Genuine",
          "associatedSiteId": 109652,
          "outfallName": "WOODVALE TRANSFER NO1",
          "isImpacting": true,
          "overFlowSiteId": 115966,
          "historicSpillsList": []
        }
      ]
    },
    {
      "id": 344784864,
      "eventId": 841493,
      "siteUnitNumber": 12568,
      "bathingSite": "SANDGATE",
      "eventStart": "2023-07-27T01:16:26",
      "eventStop": "2023-07-27T01:22:40",
      "duration": 6,
      "status": "Genuine",
      "associatedSiteId": 109896,
      "outfallName": "RANGE ROAD HYTHE K SHORT",
      "isImpacting": false,
      "overFlowSiteId": 0,
      "historicSpillsList": []
    },
    {
      "id": 344770021,
      "eventId": 841257,
      "siteUnitNumber": 12544,
      "bathingSite": "SHEERNESS",
      "eventStart": "2023-07-26T21:30:00",
      "eventStop": "2023-07-27T01:08:00",
      "duration": 218,
      "status": "Genuine",
      "associatedSiteId": 109614,
      "outfallName": "BRIELLE WAY WESTMINSTER",
      "isImpacting": false,
      "overFlowSiteId": 0,
      "historicSpillsList": []
    },
    {
      "id": 344809546,
      "eventId": 841143,
      "siteUnitNumber": 12615,
      "bathingSite": "COLWELL BAY",
      "eventStart": "2023-07-26T18:52:00",
      "eventStop": "2023-07-27T01:01:00",
      "duration": 369,
      "status": "Genuine",
      "associatedSiteId": 115498,
      "outfallName": "NORTON TRANSFER IOW",
      "isImpacting": true,
      "overFlowSiteId": 0,
      "historicSpillsList": [
        {
          "id": 344809546,
          "eventId": 841143,
          "siteUnitNumber": 12615,
          "bathingSite": "COLWELL BAY",
          "eventStart": "2023-07-26T18:52:00",
          "eventStop": "2023-07-27T01:01:00",
          "duration": 369,
          "status": "Genuine",
          "associatedSiteId": 115498,
          "outfallName": "NORTON TRANSFER IOW",
          "isImpacting": true,
          "overFlowSiteId": 109524
        },
        {
          "id": 344809547,
          "eventId": 841143,
          "siteUnitNumber": 12614,
          "bathingSite": "TOTLAND BAY",
          "eventStart": "2023-07-26T18:52:00",
          "eventStop": "2023-07-27T01:01:00",
          "duration": 369,
          "status": "Genuine",
          "associatedSiteId": 115498,
          "outfallName": "NORTON TRANSFER IOW",
          "isImpacting": true,
          "overFlowSiteId": 109524,
          "historicSpillsList": []
        }
      ]
    },
    {
      "id": 344770667,
      "eventId": 841782,
      "siteUnitNumber": 12616,
      "bathingSite": "GURNARD",
      "eventStart": "2023-07-27T00:53:00",
      "eventStop": "2023-07-27T00:59:00",
      "duration": 6,
      "status": "Genuine",
      "associatedSiteId": 109652,
      "outfallName": "WOODVALE TRANSFER NO1",
      "isImpacting": true,
      "overFlowSiteId": 0,
      "historicSpillsList": [
        {
          "id": 344770668,
          "eventId": 841782,
          "siteUnitNumber": 12617,
          "bathingSite": "COWES",
          "eventStart": "2023-07-27T00:53:00",
          "eventStop": "2023-07-27T00:59:00",
          "duration": 6,
          "status": "Genuine",
          "associatedSiteId": 109652,
          "outfallName": "WOODVALE TRANSFER NO1",
          "isImpacting": true,
          "overFlowSiteId": 115966,
          "historicSpillsList": []
        }
      ]
    },
    {
      "id": 344807070,
      "eventId": 841425,
      "siteUnitNumber": 12549,
      "bathingSite": "HERNE BAY CENTRAL",
      "eventStart": "2023-07-27T00:18:00",
      "eventStop": "2023-07-27T00:46:00",
      "duration": 28,
      "status": "Genuine",
      "associatedSiteId": 111724,
      "outfallName": "GAINSBOROUGH DRIVE HERNE BAY",
      "isImpacting": false,
      "overFlowSiteId": 0,
      "historicSpillsList": []
    },
    {
      "id": 344804879,
      "eventId": 841614,
      "siteUnitNumber": 12616,
      "bathingSite": "GURNARD",
      "eventStart": "2023-07-27T00:20:00",
      "eventStop": "2023-07-27T00:43:00",
      "duration": 23,
      "status": "Genuine",
      "associatedSiteId": 110701,
      "outfallName": "TERMINUS ROAD COWES 2",
      "isImpacting": true,
      "overFlowSiteId": 0,
      "historicSpillsList": [
        {
          "id": 344804879,
          "eventId": 841614,
          "siteUnitNumber": 12616,
          "bathingSite": "GURNARD",
          "eventStart": "2023-07-27T00:20:00",
          "eventStop": "2023-07-27T00:43:00",
          "duration": 23,
          "status": "Genuine",
          "associatedSiteId": 110701,
          "outfallName": "TERMINUS ROAD COWES 2",
          "isImpacting": true,
          "overFlowSiteId": 108562
        },
        {
          "id": 344804880,
          "eventId": 841614,
          "siteUnitNumber": 12617,
          "bathingSite": "COWES",
          "eventStart": "2023-07-27T00:20:00",
          "eventStop": "2023-07-27T00:43:00",
          "duration": 23,
          "status": "Genuine",
          "associatedSiteId": 110701,
          "outfallName": "TERMINUS ROAD COWES 2",
          "isImpacting": true,
          "overFlowSiteId": 108562,
          "historicSpillsList": []
        }
      ]
    },
    {
      "id": 344784868,
      "eventId": 841492,
      "siteUnitNumber": 12568,
      "bathingSite": "SANDGATE",
      "eventStart": "2023-07-27T00:34:12",
      "eventStop": "2023-07-27T00:41:33",
      "duration": 7,
      "status": "Genuine",
      "associatedSiteId": 109896,
      "outfallName": "RANGE ROAD HYTHE K SHORT",
      "isImpacting": false,
      "overFlowSiteId": 0,
      "historicSpillsList": []
    },
    {
      "id": 344782861,
      "eventId": 841323,
      "siteUnitNumber": 12547,
      "bathingSite": "WEST BEACH WHITSTABLE",
      "eventStart": "2023-07-26T22:45:00",
      "eventStop": "2023-07-27T00:37:00",
      "duration": 112,
      "status": "Genuine",
      "associatedSiteId": 109832,
      "outfallName": "GORREL NO1",
      "isImpacting": false,
      "overFlowSiteId": 0,
      "historicSpillsList": []
    },
    {
      "id": 344770669,
      "eventId": 841781,
      "siteUnitNumber": 12616,
      "bathingSite": "GURNARD",
      "eventStart": "2023-07-27T00:28:00",
      "eventStop": "2023-07-27T00:34:00",
      "duration": 6,
      "status": "Genuine",
      "associatedSiteId": 109652,
      "outfallName": "WOODVALE TRANSFER NO1",
      "isImpacting": true,
      "overFlowSiteId": 0,
      "historicSpillsList": [
        {
          "id": 344770670,
          "eventId": 841781,
          "siteUnitNumber": 12617,
          "bathingSite": "COWES",
          "eventStart": "2023-07-27T00:28:00",
          "eventStop": "2023-07-27T00:34:00",
          "duration": 6,
          "status": "Genuine",
          "associatedSiteId": 109652,
          "outfallName": "WOODVALE TRANSFER NO1",
          "isImpacting": true,
          "overFlowSiteId": 115966,
          "historicSpillsList": []
        }
      ]
    },
    {
      "id": 344784866,
      "eventId": 841424,
      "siteUnitNumber": 12568,
      "bathingSite": "SANDGATE",
      "eventStart": "2023-07-27T00:10:44",
      "eventStop": "2023-07-27T00:19:32",
      "duration": 8,
      "status": "Genuine",
      "associatedSiteId": 109896,
      "outfallName": "RANGE ROAD HYTHE K SHORT",
      "isImpacting": false,
      "overFlowSiteId": 0,
      "historicSpillsList": []
    }
  ]
}