{
  "currentPage": 551,
  "totalItems": 21025,
  "totalPages": 841,
  "items": [
    {
      "id": 344841682,
      "eventId": 633750,
      "siteUnitNumber": 12622,
      "bathingSite": "WHITECLIFF BAY",
      "eventStart": "2022-09-15T00:19:00",
      "eventStop": "2022-09-15T00:44:00",
      "duration": 25,
      "status": "Genuine",
      "associatedSiteId": 110096,
      "outfallName": "SANDOWN NO1",
      "isImpacting": true,
      "overFlowSiteId": 0,
      "historicSpillsList": [
        {
          "id": 344841682,
          "eventId": 633750,
          "siteUnitNumber": 12622,
          "bathingSite": "WHITECLIFF BAY",
          "eventStart": "2022-09-15T00:19:00",
          "eventStop": "2022-09-15T00:44:00",
          "duration": 25,
          "status": "Genuine",
          "associatedSiteId": 110096,
          "outfallName": "SANDOWN NO1",
          "isImpacting": true,
          "overFlowSiteId": 115453
        },
        {
          "id": 344841683,
          "eventId": 633750,
          "siteUnitNumber": 12623,
          "bathingSite": "YAVERLAND",
          "eventStart": "2022-09-15T00:19:00",
          "eventStop": "2022-09-15T00:44:00",
          "duration": 25,
          "status": "Genuine",
          "associatedSiteId": 110096,
          "outfallName": "SANDOWN NO1",
          "isImpacting": true,
          "overFlowSiteId": 115453,
          "historicSpillsList": []
        },
        {
          "id": 344841684,
          "eventId": 633750,
          "siteUnitNumber": 12624,
          "bathingSite": "SANDOWN",
          "eventStart": "2022-09-15T00:19:00",
          "eventStop": "2022-09-15T00:44:00",
          "duration": 25,
          "status": "Genuine",
          "associatedSiteId": 110096,
          "outfallName": "SANDOWN NO1",
          "isImpacting": true,
          "overFlowSiteId": 115453,
          "historicSpillsList": []
        }
      ]
    },
    {
      "id": 344830442,
      "eventId": 633219,
      "siteUnitNumber": 12576,
      "bathingSite": "ST LEONARDS",
      "eventStart": "2022-09-14T06:46:19",
      "eventStop": "2022-09-15T00:09:00",
      "duration": 1042,
      "status": "Genuine",
      "associatedSiteId": 109903,
      "outfallName": "BEXHILL & HASTINGS NO2",
      "isImpacting": true,
      "overFlowSiteId": 0,
      "historicSpillsList": [
        {
          "id": 344830442,
          "eventId": 633219,
          "siteUnitNumber": 12576,
          "bathingSite": "ST LEONARDS",
          "eventStart": "2022-09-14T06:46:19",
          "eventStop": "2022-09-15T00:09:00",
          "duration": 1042,
          "status": "Genuine",
          "associatedSiteId": 109903,
          "outfallName": "BEXHILL & HASTINGS NO2",
          "isImpacting": true,
          "overFlowSiteId": 115398
        },
        {
          "id": 344830443,
          "eventId": 633219,
          "siteUnitNumber": 12577,
          "bathingSite": "BEXHILL",
          "eventStart": "2022-09-14T06:46:19",
          "eventStop": "2022-09-15T00:09:00",
          "duration": 1042,
          "status": "Genuine",
          "associatedSiteId": 109903,
          "outfallName": "BEXHILL & HASTINGS NO2",
          "isImpacting": true,
          "overFlowSiteId": 115398,
          "historicSpillsList": []
        }
      ]
    },
    {
      "id": 344821000,
      "eventId": 632927,
      "siteUnitNumber": 12617,
      "bathingSite": "COWES",
      "eventStart": "2022-09-13T23:42:00",
      "eventStop": "2022-09-14T23:42:00",
      "duration": 1440,
      "status": "Genuine",
      "associatedSiteId": 109777,
      "outfallName": "APPLEY PARK RYDE TRANSFER",
      "isImpacting": true,
      "overFlowSiteId": 0,
      "historicSpillsList": [
        {
          "id": 344821001,
          "eventId": 632927,
          "siteUnitNumber": 12618,
          "bathingSite": "RYDE",
          "eventStart": "2022-09-13T23:42:00",
          "eventStop": "2022-09-14T23:42:00",
          "duration": 1440,
          "status": "Genuine",
          "associatedSiteId": 109777,
          "outfallName": "APPLEY PARK RYDE TRANSFER",
          "isImpacting": true,
          "overFlowSiteId": 108941,
          "historicSpillsList": []
        }
      ]
    },
    {
      "id": 344841686,
      "eventId": 633749,
      "siteUnitNumber": 12622,
      "bathingSite": "WHITECLIFF BAY",
      "eventStart": "2022-09-14T22:29:00",
      "eventStop": "2022-09-14T23:36:00",
      "duration": 67,
      "status": "Genuine",
      "associatedSiteId": 110096,
      "outfallName": "SANDOWN NO1",
      "isImpacting": true,
      "overFlowSiteId": 0,
      "historicSpillsList": [
        {
          "id": 344841686,
          "eventId": 633749,
          "siteUnitNumber": 12622,
          "bathingSite": "WHITECLIFF BAY",
          "eventStart": "2022-09-14T22:29:00",
          "eventStop": "2022-09-14T23:36:00",
          "duration": 67,
          "status": "Genuine",
          "associatedSiteId": 110096,
          "outfallName": "SANDOWN NO1",
          "isImpacting": true,
          "overFlowSiteId": 115453
        },
        {
          "id": 344841687,
          "eventId": 633749,
          "siteUnitNumber": 12623,
          "bathingSite": "YAVERLAND",
          "eventStart": "2022-09-14T22:29:00",
          "eventStop": "2022-09-14T23:36:00",
          "duration": 67,
          "status": "Genuine",
          "associatedSiteId": 110096,
          "outfallName": "SANDOWN NO1",
          "isImpacting": true,
          "overFlowSiteId": 115453,
          "historicSpillsList": []
        },
        {
          "id": 344841688,
          "eventId": 633749,
          "siteUnitNumber": 12624,
          "bathingSite": "SANDOWN",
          "eventStart": "2022-09-14T22:29:00",
          "eventStop": "2022-09-14T23:36:00",
          "duration": 67,
          "status": "Genuine",
          "associatedSiteId": 110096,
          "outfallName": "SANDOWN NO1",
          "isImpacting": true,
          "overFlowSiteId": 115453,
          "historicSpillsList": []
        }
      ]
    },
    {
      "id": 344841685,
      "eventId": 633097,
      "siteUnitNumber": 12624,
      "bathingSite": "SANDOWN",
      "eventStart": "2022-09-14T03:03:00",
      "eventStop": "2022-09-14T22:12:00",
      "duration": 1149,
      "status": "Genuine",
      "associatedSiteId": 110096,
      "outfallName": "SANDOWN NO1",
      "isImpacting": true,
      "overFlowSiteId": 0,
      "historicSpillsList": [
        {
          "id": 344841685,
          "eventId": 633097,
          "siteUnitNumber": 12624,
          "bathingSite": "SANDOWN",
          "eventStart": "2022-09-14T03:03:00",
          "eventStop": "2022-09-14T22:12:00",
          "duration": 1149,
          "status": "Genuine",
          "associatedSiteId": 110096,
          "outfallName": "SANDOWN NO1",
          "isImpacting": true,
          "overFlowSiteId": 115453
        },
        {
          "id": 344841691,
          "eventId": 633097,
          "siteUnitNumber": 12622,
          "bathingSite": "WHITECLIFF BAY",
          "eventStart": "2022-09-14T03:03:00",
          "eventStop": "2022-09-14T22:12:00",
          "duration": 1149,
          "status": "Genuine",
          "associatedSiteId": 110096,
          "outfallName": "SANDOWN NO1",
          "isImpacting": true,
          "overFlowSiteId": 115453,
          "historicSpillsList": []
        },
        {
          "id": 344841692,
          "eventId": 633097,
          "siteUnitNumber": 12623,
          "bathingSite": "YAVERLAND",
          "eventStart": "2022-09-14T03:03:00",
          "eventStop": "2022-09-14T22:12:00",
          "duration": 1149,
          "status": "Genuine",
          "associatedSiteId": 110096,
          "outfallName": "SANDOWN NO1",
          "isImpacting": true,
          "overFlowSiteId": 115453,
          "historicSpillsList": []
        }
      ]
    },
    {
      "id": 344828724,
      "eventId": 633188,
      "siteUnitNumber": 12568,
      "bathingSite": "SANDGATE",
      "eventStart": "2022-09-14T06:15:00",
      "eventStop": "2022-09-14T16:57:00",
      "duration": 642,
      "status": "Genuine",
      "associatedSiteId": 109897,
      "outfallName": "RANGE ROAD HYTHE K LONG",
      "isImpacting": true,
      "overFlowSiteId": 0,
      "historicSpillsList": [
        {
          "id": 344828724,
          "eventId": 633188,
          "siteUnitNumber": 12568,
          "bathingSite": "SANDGATE",
          "eventStart": "2022-09-14T06:15:00",
          "eventStop": "2022-09-14T16:57:00",
          "duration": 642,
          "status": "Genuine",
          "associatedSiteId": 109897,
          "outfallName": "RANGE ROAD HYTHE K LONG",
          "isImpacting": true,
          "overFlowSiteId": 116048
        },
        {
          "id": 344828725,
          "eventId": 633188,
          "siteUnitNumber": 12569,
          "bathingSite": "HYTHE",
          "eventStart": "2022-09-14T06:15:00",
          "eventStop": "2022-09-14T16:57:00",
          "duration": 642,
          "status": "Genuine",
          "associatedSiteId": 109897,
          "outfallName": "RANGE ROAD HYTHE K LONG",
          "isImpacting": true,
          "overFlowSiteId": 116048,
          "historicSpillsList": []
        }
      ]
    },
    {
      "id": 344845840,
      "eventId": 633098,
      "siteUnitNumber": 12619,
      "bathingSite": "SEAGROVE",
      "eventStart": "2022-09-14T05:03:00",
      "eventStop": "2022-09-14T16:35:00",
      "duration": 692,
      "status": "Genuine",
      "associatedSiteId": 110097,
      "outfallName": "SANDOWN NO2",
      "isImpacting": true,
      "overFlowSiteId": 0,
      "historicSpillsList": [
        {
          "id": 344845843,
          "eventId": 633098,
          "siteUnitNumber": 12623,
          "bathingSite": "YAVERLAND",
          "eventStart": "2022-09-14T05:03:00",
          "eventStop": "2022-09-14T16:35:00",
          "duration": 692,
          "status": "Genuine",
          "associatedSiteId": 110097,
          "outfallName": "SANDOWN NO2",
          "isImpacting": true,
          "overFlowSiteId": 115454,
          "historicSpillsList": []
        },
        {
          "id": 344845844,
          "eventId": 633098,
          "siteUnitNumber": 12624,
          "bathingSite": "SANDOWN",
          "eventStart": "2022-09-14T05:03:00",
          "eventStop": "2022-09-14T16:35:00",
          "duration": 692,
          "status": "Genuine",
          "associatedSiteId": 110097,
          "outfallName": "SANDOWN NO2",
          "isImpacting": true,
          "overFlowSiteId": 115454,
          "historicSpillsList": []
        },
        {
          "id": 344845845,
          "eventId": 633098,
          "siteUnitNumber": 12625,
          "bathingSite": "SHANKLIN",
          "eventStart": "2022-09-14T05:03:00",
          "eventStop": "2022-09-14T16:35:00",
          "duration": 692,
          "status": "Genuine",
          "associatedSiteId": 110097,
          "outfallName": "SANDOWN NO2",
          "isImpacting": true,
          "overFlowSiteId": 115454,
          "historicSpillsList": []
        }
      ]
    },
    {
      "id": 344849343,
      "eventId": 633491,
      "siteUnitNumber": 12573,
      "bathingSite": "CAMBER",
      "eventStart": "2022-09-14T14:00:00",
      "eventStop": "2022-09-14T15:15:00",
      "duration": 75,
      "status": "Not Genuine",
      "associatedSiteId": 110958,
      "outfallName": "RYE",
      "isImpacting": false,
      "overFlowSiteId": 0,
      "historicSpillsList": []
    },
    {
      "id": 344820332,
      "eventId": 633247,
      "siteUnitNumber": 12661,
      "bathingSite": "LANGSTONE HARBOUR",
      "eventStart": "2022-09-14T07:15:00",
      "eventStop": "2022-09-14T14:31:00",
      "duration": 436,
      "status": "Genuine",
      "associatedSiteId": 109773,
      "outfallName": "BUDDS FARM HAVANT NO2",
      "isImpacting": true,
      "overFlowSiteId": 0,
      "historicSpillsList": [
        {
          "id": 344820332,
          "eventId": 633247,
          "siteUnitNumber": 12661,
          "bathingSite": "LANGSTONE HARBOUR",
          "eventStart": "2022-09-14T07:15:00",
          "eventStop": "2022-09-14T14:31:00",
          "duration": 436,
          "status": "Genuine",
          "associatedSiteId": 109773,
          "outfallName": "BUDDS FARM HAVANT NO2",
          "isImpacting": true,
          "overFlowSiteId": 115936
        }
      ]
    },
    {
      "id": 344849342,
      "eventId": 633409,
      "siteUnitNumber": 12573,
      "bathingSite": "CAMBER",
      "eventStart": "2022-09-14T10:45:00",
      "eventStop": "2022-09-14T14:30:00",
      "duration": 225,
      "status": "Genuine",
      "associatedSiteId": 110958,
      "outfallName": "RYE",
      "isImpacting": false,
      "overFlowSiteId": 0,
      "historicSpillsList": []
    },
    {
      "id": 344849550,
      "eventId": 633331,
      "siteUnitNumber": 12576,
      "bathingSite": "ST LEONARDS",
      "eventStart": "2022-09-14T07:55:00",
      "eventStop": "2022-09-14T14:04:00",
      "duration": 369,
      "status": "Genuine",
      "associatedSiteId": 111370,
      "outfallName": "YORK ROAD BEXHILL",
      "isImpacting": false,
      "overFlowSiteId": 0,
      "historicSpillsList": []
    },
    {
      "id": 344849047,
      "eventId": 633227,
      "siteUnitNumber": 12582,
      "bathingSite": "SEAFORD",
      "eventStart": "2022-09-14T06:55:17",
      "eventStop": "2022-09-14T12:29:54",
      "duration": 334,
      "status": "Genuine",
      "associatedSiteId": 110920,
      "outfallName": "NEWHAVEN",
      "isImpacting": false,
      "overFlowSiteId": 0,
      "historicSpillsList": []
    },
    {
      "id": 344824554,
      "eventId": 633139,
      "siteUnitNumber": 12548,
      "bathingSite": "TANKERTON",
      "eventStart": "2022-09-14T04:58:30",
      "eventStop": "2022-09-14T12:29:00",
      "duration": 450,
      "status": "Genuine",
      "associatedSiteId": 109830,
      "outfallName": "SWALECLIFFE NO1",
      "isImpacting": true,
      "overFlowSiteId": 0,
      "historicSpillsList": [
        {
          "id": 344824554,
          "eventId": 633139,
          "siteUnitNumber": 12548,
          "bathingSite": "TANKERTON",
          "eventStart": "2022-09-14T04:58:30",
          "eventStop": "2022-09-14T12:29:00",
          "duration": 450,
          "status": "Genuine",
          "associatedSiteId": 109830,
          "outfallName": "SWALECLIFFE NO1",
          "isImpacting": true,
          "overFlowSiteId": 115444
        },
        {
          "id": 344824555,
          "eventId": 633139,
          "siteUnitNumber": 12549,
          "bathingSite": "HERNE BAY CENTRAL",
          "eventStart": "2022-09-14T04:58:30",
          "eventStop": "2022-09-14T12:29:00",
          "duration": 450,
          "status": "Genuine",
          "associatedSiteId": 109830,
          "outfallName": "SWALECLIFFE NO1",
          "isImpacting": true,
          "overFlowSiteId": 115444,
          "historicSpillsList": []
        }
      ]
    },
    {
      "id": 344826528,
      "eventId": 633360,
      "siteUnitNumber": 12579,
      "bathingSite": "PEVENSEY BAY",
      "eventStart": "2022-09-14T09:27:00",
      "eventStop": "2022-09-14T12:21:00",
      "duration": 174,
      "status": "Genuine",
      "associatedSiteId": 109891,
      "outfallName": "MONTAGUE WAY WESTHAM",
      "isImpacting": false,
      "overFlowSiteId": 0,
      "historicSpillsList": []
    },
    {
      "id": 344839651,
      "eventId": 633253,
      "siteUnitNumber": 12567,
      "bathingSite": "FOLKESTONE",
      "eventStart": "2022-09-14T07:33:07",
      "eventStop": "2022-09-14T12:15:00",
      "duration": 281,
      "status": "Genuine",
      "associatedSiteId": 110010,
      "outfallName": "THE STADE FOLKESTONE",
      "isImpacting": true,
      "overFlowSiteId": 0,
      "historicSpillsList": [
        {
          "id": 344839651,
          "eventId": 633253,
          "siteUnitNumber": 12567,
          "bathingSite": "FOLKESTONE",
          "eventStart": "2022-09-14T07:33:07",
          "eventStop": "2022-09-14T12:15:00",
          "duration": 281,
          "status": "Genuine",
          "associatedSiteId": 110010,
          "outfallName": "THE STADE FOLKESTONE",
          "isImpacting": true,
          "overFlowSiteId": 108909
        }
      ]
    },
    {
      "id": 344832782,
      "eventId": 633365,
      "siteUnitNumber": 12620,
      "bathingSite": "ST HELENS",
      "eventStart": "2022-09-14T10:11:00",
      "eventStop": "2022-09-14T12:05:00",
      "duration": 114,
      "status": "Genuine",
      "associatedSiteId": 109937,
      "outfallName": "HILLWAY BEMBRIDGE",
      "isImpacting": false,
      "overFlowSiteId": 0,
      "historicSpillsList": []
    },
    {
      "id": 344817935,
      "eventId": 633132,
      "siteUnitNumber": 12616,
      "bathingSite": "GURNARD",
      "eventStart": "2022-09-14T04:45:00",
      "eventStop": "2022-09-14T12:03:00",
      "duration": 438,
      "status": "Genuine",
      "associatedSiteId": 109705,
      "outfallName": "SPRINGHILL COWES TRANSFER",
      "isImpacting": true,
      "overFlowSiteId": 0,
      "historicSpillsList": [
        {
          "id": 344817936,
          "eventId": 633132,
          "siteUnitNumber": 12617,
          "bathingSite": "COWES",
          "eventStart": "2022-09-14T04:45:00",
          "eventStop": "2022-09-14T12:03:00",
          "duration": 438,
          "status": "Genuine",
          "associatedSiteId": 109705,
          "outfallName": "SPRINGHILL COWES TRANSFER",
          "isImpacting": true,
          "overFlowSiteId": 108943,
          "historicSpillsList": []
        }
      ]
    },
    {
      "id": 344852496,
      "eventId": 633051,
      "siteUnitNumber": 12614,
      "bathingSite": "TOTLAND BAY",
      "eventStart": "2022-09-14T03:13:53",
      "eventStop": "2022-09-14T12:01:00",
      "duration": 527,
      "status": "Genuine",
      "associatedSiteId": 115498,
      "outfallName": "NORTON TRANSFER IOW",
      "isImpacting": true,
      "overFlowSiteId": 0,
      "historicSpillsList": [
        {
          "id": 344852496,
          "eventId": 633051,
          "siteUnitNumber": 12614,
          "bathingSite": "TOTLAND BAY",
          "eventStart": "2022-09-14T03:13:53",
          "eventStop": "2022-09-14T12:01:00",
          "duration": 527,
          "status": "Genuine",
          "associatedSiteId": 115498,
          "outfallName": "NORTON TRANSFER IOW",
          "isImpacting": true,
          "overFlowSiteId": 109524
        },
        {
          "id": 344852497,
          "eventId": 633051,
          "siteUnitNumber": 12615,
          "bathingSite": "COLWELL BAY",
          "eventStart": "2022-09-14T03:13:53",
          "eventStop": "2022-09-14T12:01:00",
          "duration": 527,
          "status": "Genuine",
          "associatedSiteId": 115498,
          "outfallName": "NORTON TRANSFER IOW",
          "isImpacting": true,
          "overFlowSiteId": 109524,
          "historicSpillsList": []
        }
      ]
    },
    {
      "id": 344833232,
      "eventId": 633314,
      "siteUnitNumber": 12620,
      "bathingSite": "ST HELENS",
      "eventStart": "2022-09-14T08:28:00",
      "eventStop": "2022-09-14T11:50:00",
      "duration": 202,
      "status": "Genuine",
      "associatedSiteId": 109939,
      "outfallName": "LANE END ROAD BEMBRIDGE",
      "isImpacting": true,
      "overFlowSiteId": 0,
      "historicSpillsList": [
        {
          "id": 344833229,
          "eventId": 633314,
          "siteUnitNumber": 12621,
          "bathingSite": "BEMBRIDGE",
          "eventStart": "2022-09-14T08:28:00",
          "eventStop": "2022-09-14T11:50:00",
          "duration": 202,
          "status": "Genuine",
          "associatedSiteId": 109939,
          "outfallName": "LANE END ROAD BEMBRIDGE",
          "isImpacting": true,
          "overFlowSiteId": 108533,
          "historicSpillsList": []
        }
      ]
    },
    {
      "id": 344848732,
      "eventId": 633026,
      "siteUnitNumber": 12620,
      "bathingSite": "ST HELENS",
      "eventStart": "2022-09-14T02:23:20",
      "eventStop": "2022-09-14T10:29:00",
      "duration": 485,
      "status": "Genuine",
      "associatedSiteId": 110761,
      "outfallName": "BRADING",
      "isImpacting": true,
      "overFlowSiteId": 0,
      "historicSpillsList": [
        {
          "id": 344848732,
          "eventId": 633026,
          "siteUnitNumber": 12620,
          "bathingSite": "ST HELENS",
          "eventStart": "2022-09-14T02:23:20",
          "eventStop": "2022-09-14T10:29:00",
          "duration": 485,
          "status": "Genuine",
          "associatedSiteId": 110761,
          "outfallName": "BRADING",
          "isImpacting": true,
          "overFlowSiteId": 113676
        }
      ]
    },
    {
      "id": 344837400,
      "eventId": 633205,
      "siteUnitNumber": 12591,
      "bathingSite": "LITTLEHAMPTON",
      "eventStart": "2022-09-14T07:02:00",
      "eventStop": "2022-09-14T10:27:00",
      "duration": 205,
      "status": "Genuine",
      "associatedSiteId": 109965,
      "outfallName": "SEA ROAD LITTLEHAMPTON",
      "isImpacting": true,
      "overFlowSiteId": 0,
      "historicSpillsList": [
        {
          "id": 344837400,
          "eventId": 633205,
          "siteUnitNumber": 12591,
          "bathingSite": "LITTLEHAMPTON",
          "eventStart": "2022-09-14T07:02:00",
          "eventStop": "2022-09-14T10:27:00",
          "duration": 205,
          "status": "Genuine",
          "associatedSiteId": 109965,
          "outfallName": "SEA ROAD LITTLEHAMPTON",
          "isImpacting": true,
          "overFlowSiteId": 109368
        }
      ]
    },
    {
      "id": 344822763,
      "eventId": 633226,
      "siteUnitNumber": 12567,
      "bathingSite": "FOLKESTONE",
      "eventStart": "2022-09-14T07:00:00",
      "eventStop": "2022-09-14T10:09:00",
      "duration": 189,
      "status": "Genuine",
      "associatedSiteId": 109794,
      "outfallName": "GRANVILLE PARADE SANDGATE",
      "isImpacting": false,
      "overFlowSiteId": 0,
      "historicSpillsList": []
    },
    {
      "id": 344840145,
      "eventId": 633161,
      "siteUnitNumber": 12623,
      "bathingSite": "YAVERLAND",
      "eventStart": "2022-09-14T05:44:29",
      "eventStop": "2022-09-14T09:53:00",
      "duration": 248,
      "status": "Genuine",
      "associatedSiteId": 110029,
      "outfallName": "HOPE BEACH SHANKLIN NEW",
      "isImpacting": true,
      "overFlowSiteId": 0,
      "historicSpillsList": [
        {
          "id": 344840147,
          "eventId": 633161,
          "siteUnitNumber": 12625,
          "bathingSite": "SHANKLIN",
          "eventStart": "2022-09-14T05:44:29",
          "eventStop": "2022-09-14T09:53:00",
          "duration": 248,
          "status": "Genuine",
          "associatedSiteId": 110029,
          "outfallName": "HOPE BEACH SHANKLIN NEW",
          "isImpacting": true,
          "overFlowSiteId": 109389,
          "historicSpillsList": []
        }
      ]
    },
    {
      "id": 344836498,
      "eventId": 633274,
      "siteUnitNumber": 12594,
      "bathingSite": "BOGNOR REGIS EAST",
      "eventStart": "2022-09-14T07:39:00",
      "eventStop": "2022-09-14T09:42:00",
      "duration": 123,
      "status": "Genuine",
      "associatedSiteId": 109959,
      "outfallName": "WEST PARK BOGNOR REGIS",
      "isImpacting": false,
      "overFlowSiteId": 0,
      "historicSpillsList": []
    },
    {
      "id": 344822548,
      "eventId": 633017,
      "siteUnitNumber": 12618,
      "bathingSite": "RYDE",
      "eventStart": "2022-09-14T02:17:00",
      "eventStop": "2022-09-14T09:35:00",
      "duration": 438,
      "status": "Genuine",
      "associatedSiteId": 109790,
      "outfallName": "GREAT PRESTON ROAD RYDE",
      "isImpacting": true,
      "overFlowSiteId": 0,
      "historicSpillsList": [
        {
          "id": 344822548,
          "eventId": 633017,
          "siteUnitNumber": 12618,
          "bathingSite": "RYDE",
          "eventStart": "2022-09-14T02:17:00",
          "eventStop": "2022-09-14T09:35:00",
          "duration": 438,
          "status": "Genuine",
          "associatedSiteId": 109790,
          "outfallName": "GREAT PRESTON ROAD RYDE",
          "isImpacting": true,
          "overFlowSiteId": 109304
        },
        {
          "id": 344822549,
          "eventId": 633017,
          "siteUnitNumber": 12619,
          "bathingSite": "SEAGROVE",
          "eventStart": "2022-09-14T02:17:00",
          "eventStop": "2022-09-14T09:35:00",
          "duration": 438,
          "status": "Genuine",
          "associatedSiteId": 109790,
          "outfallName": "GREAT PRESTON ROAD RYDE",
          "isImpacting": true,
          "overFlowSiteId": 109304,
          "historicSpillsList": []
        }
      ]
    }
  ]
}