{
  "currentPage": 162,
  "totalItems": 21025,
  "totalPages": 841,
  "items": [
    {
      "id": 344797278,
      "eventId": 889535,
      "siteUnitNumber": 12623,
      "bathingSite": "YAVERLAND",
      "eventStart": "2023-10-28T07:34:00",
      "eventStop": "2023-10-28T07:37:00",
      "duration": 3,
      "status": "Genuine",
      "associatedSiteId": 110029,
      "outfallName": "HOPE BEACH SHANKLIN NEW",
      "isImpacting": false,
      "overFlowSiteId": 0,
      "historicSpillsList": []
    },
    {
      "id": 344797740,
      "eventId": 883259,
      "siteUnitNumber": 12582,
      "bathingSite": "SEAFORD",
      "eventStart": "2023-10-28T07:26:30",
      "eventStop": "2023-10-28T07:32:08",
      "duration": 5,
      "status": "Genuine",
      "associatedSiteId": 110047,
      "outfallName": "CLIFF END SEAFORD",
      "isImpacting": true,
      "overFlowSiteId": 0,
      "historicSpillsList": [
        {
          "id": 344797740,
          "eventId": 883259,
          "siteUnitNumber": 12582,
          "bathingSite": "SEAFORD",
          "eventStart": "2023-10-28T07:26:30",
          "eventStop": "2023-10-28T07:32:08",
          "duration": 5,
          "status": "Genuine",
          "associatedSiteId": 110047,
          "outfallName": "CLIFF END SEAFORD",
          "isImpacting": true,
          "overFlowSiteId": 101257
        }
      ]
    },
    {
      "id": 344797741,
      "eventId": 883247,
      "siteUnitNumber": 12582,
      "bathingSite": "SEAFORD",
      "eventStart": "2023-10-28T07:01:20",
      "eventStop": "2023-10-28T07:11:01",
      "duration": 9,
      "status": "Genuine",
      "associatedSiteId": 110047,
      "outfallName": "CLIFF END SEAFORD",
      "isImpacting": true,
      "overFlowSiteId": 0,
      "historicSpillsList": [
        {
          "id": 344797741,
          "eventId": 883247,
          "siteUnitNumber": 12582,
          "bathingSite": "SEAFORD",
          "eventStart": "2023-10-28T07:01:20",
          "eventStop": "2023-10-28T07:11:01",
          "duration": 9,
          "status": "Genuine",
          "associatedSiteId": 110047,
          "outfallName": "CLIFF END SEAFORD",
          "isImpacting": true,
          "overFlowSiteId": 101257
        }
      ]
    },
    {
      "id": 344788946,
      "eventId": 883326,
      "siteUnitNumber": 12587,
      "bathingSite": "SOUTHWICK",
      "eventStart": "2023-10-28T07:07:00",
      "eventStop": "2023-10-28T07:11:00",
      "duration": 4,
      "status": "Genuine",
      "associatedSiteId": 109922,
      "outfallName": "ROPETACKLE STREET SHOREHAM",
      "isImpacting": false,
      "overFlowSiteId": 0,
      "historicSpillsList": []
    },
    {
      "id": 344789067,
      "eventId": 883203,
      "siteUnitNumber": 12587,
      "bathingSite": "SOUTHWICK",
      "eventStart": "2023-10-28T06:54:00",
      "eventStop": "2023-10-28T07:05:00",
      "duration": 11,
      "status": "Genuine",
      "associatedSiteId": 109923,
      "outfallName": "THE GREEN SOUTHWICK",
      "isImpacting": false,
      "overFlowSiteId": 0,
      "historicSpillsList": []
    },
    {
      "id": 344779450,
      "eventId": 886489,
      "siteUnitNumber": 12618,
      "bathingSite": "RYDE",
      "eventStart": "2023-10-28T06:42:00",
      "eventStop": "2023-10-28T06:52:00",
      "duration": 10,
      "status": "Genuine",
      "associatedSiteId": 109781,
      "outfallName": "SPENCER ROAD RYDE",
      "isImpacting": true,
      "overFlowSiteId": 0,
      "historicSpillsList": [
        {
          "id": 344779450,
          "eventId": 886489,
          "siteUnitNumber": 12618,
          "bathingSite": "RYDE",
          "eventStart": "2023-10-28T06:42:00",
          "eventStop": "2023-10-28T06:52:00",
          "duration": 10,
          "status": "Genuine",
          "associatedSiteId": 109781,
          "outfallName": "SPENCER ROAD RYDE",
          "isImpacting": true,
          "overFlowSiteId": 108566
        }
      ]
    },
    {
      "id": 344788943,
      "eventId": 883209,
      "siteUnitNumber": 12587,
      "bathingSite": "SOUTHWICK",
      "eventStart": "2023-10-28T06:46:00",
      "eventStop": "2023-10-28T06:50:00",
      "duration": 4,
      "status": "Genuine",
      "associatedSiteId": 109922,
      "outfallName": "ROPETACKLE STREET SHOREHAM",
      "isImpacting": false,
      "overFlowSiteId": 0,
      "historicSpillsList": []
    },
    {
      "id": 344783849,
      "eventId": 887944,
      "siteUnitNumber": 12579,
      "bathingSite": "PEVENSEY BAY",
      "eventStart": "2023-10-28T06:44:00",
      "eventStop": "2023-10-28T06:50:00",
      "duration": 6,
      "status": "Genuine",
      "associatedSiteId": 109889,
      "outfallName": "RATTLE ROAD WESTHAM",
      "isImpacting": false,
      "overFlowSiteId": 0,
      "historicSpillsList": []
    },
    {
      "id": 344784780,
      "eventId": 883178,
      "siteUnitNumber": 12568,
      "bathingSite": "SANDGATE",
      "eventStart": "2023-10-28T06:34:34",
      "eventStop": "2023-10-28T06:42:01",
      "duration": 7,
      "status": "Genuine",
      "associatedSiteId": 109896,
      "outfallName": "RANGE ROAD HYTHE K SHORT",
      "isImpacting": false,
      "overFlowSiteId": 0,
      "historicSpillsList": []
    },
    {
      "id": 344797276,
      "eventId": 889533,
      "siteUnitNumber": 12624,
      "bathingSite": "SANDOWN",
      "eventStart": "2023-10-28T06:34:00",
      "eventStop": "2023-10-28T06:38:00",
      "duration": 4,
      "status": "Genuine",
      "associatedSiteId": 110029,
      "outfallName": "HOPE BEACH SHANKLIN NEW",
      "isImpacting": false,
      "overFlowSiteId": 0,
      "historicSpillsList": []
    },
    {
      "id": 344780371,
      "eventId": 883164,
      "siteUnitNumber": 12661,
      "bathingSite": "LANGSTONE HARBOUR",
      "eventStart": "2023-10-28T06:10:01",
      "eventStop": "2023-10-28T06:37:00",
      "duration": 26,
      "status": "Genuine",
      "associatedSiteId": 109819,
      "outfallName": "COURT LANE COSHAM",
      "isImpacting": true,
      "overFlowSiteId": 0,
      "historicSpillsList": [
        {
          "id": 344780371,
          "eventId": 883164,
          "siteUnitNumber": 12661,
          "bathingSite": "LANGSTONE HARBOUR",
          "eventStart": "2023-10-28T06:10:01",
          "eventStop": "2023-10-28T06:37:00",
          "duration": 26,
          "status": "Genuine",
          "associatedSiteId": 109819,
          "outfallName": "COURT LANE COSHAM",
          "isImpacting": true,
          "overFlowSiteId": 115958
        }
      ]
    },
    {
      "id": 344790293,
      "eventId": 889511,
      "siteUnitNumber": 12619,
      "bathingSite": "SEAGROVE",
      "eventStart": "2023-10-28T02:33:00",
      "eventStop": "2023-10-28T06:37:00",
      "duration": 244,
      "status": "Genuine",
      "associatedSiteId": 109938,
      "outfallName": "THE POINT BEMBRIDGE",
      "isImpacting": true,
      "overFlowSiteId": 0,
      "historicSpillsList": [
        {
          "id": 344790294,
          "eventId": 889511,
          "siteUnitNumber": 12620,
          "bathingSite": "ST HELENS",
          "eventStart": "2023-10-28T02:33:00",
          "eventStop": "2023-10-28T06:37:00",
          "duration": 244,
          "status": "Genuine",
          "associatedSiteId": 109938,
          "outfallName": "THE POINT BEMBRIDGE",
          "isImpacting": true,
          "overFlowSiteId": 110194,
          "historicSpillsList": []
        }
      ]
    },
    {
      "id": 344772189,
      "eventId": 889512,
      "siteUnitNumber": 12614,
      "bathingSite": "TOTLAND BAY",
      "eventStart": "2023-10-28T05:29:00",
      "eventStop": "2023-10-28T06:36:00",
      "duration": 67,
      "status": "Genuine",
      "associatedSiteId": 109657,
      "outfallName": "THE PROMENADE TOTLAND PIER NO2",
      "isImpacting": false,
      "overFlowSiteId": 0,
      "historicSpillsList": []
    },
    {
      "id": 344811816,
      "eventId": 882964,
      "siteUnitNumber": 12577,
      "bathingSite": "BEXHILL",
      "eventStart": "2023-10-28T03:15:00",
      "eventStop": "2023-10-28T06:30:00",
      "duration": 195,
      "status": "Genuine",
      "associatedSiteId": 115501,
      "outfallName": "LONDON ROAD BEXHILL",
      "isImpacting": true,
      "overFlowSiteId": 0,
      "historicSpillsList": [
        {
          "id": 344811816,
          "eventId": 882964,
          "siteUnitNumber": 12577,
          "bathingSite": "BEXHILL",
          "eventStart": "2023-10-28T03:15:00",
          "eventStop": "2023-10-28T06:30:00",
          "duration": 195,
          "status": "Genuine",
          "associatedSiteId": 115501,
          "outfallName": "LONDON ROAD BEXHILL",
          "isImpacting": true,
          "overFlowSiteId": 108171
        }
      ]
    },
    {
      "id": 344773695,
      "eventId": 889495,
      "siteUnitNumber": 12616,
      "bathingSite": "GURNARD",
      "eventStart": "2023-10-28T05:47:00",
      "eventStop": "2023-10-28T06:27:00",
      "duration": 40,
      "status": "Genuine",
      "associatedSiteId": 109700,
      "outfallName": "MARKET HILL COWES",
      "isImpacting": false,
      "overFlowSiteId": 0,
      "historicSpillsList": []
    },
    {
      "id": 344797714,
      "eventId": 882971,
      "siteUnitNumber": 12582,
      "bathingSite": "SEAFORD",
      "eventStart": "2023-10-28T03:51:22",
      "eventStop": "2023-10-28T06:26:00",
      "duration": 154,
      "status": "Genuine",
      "associatedSiteId": 110046,
      "outfallName": "BEACH ROAD NEWHAVEN",
      "isImpacting": false,
      "overFlowSiteId": 0,
      "historicSpillsList": []
    },
    {
      "id": 344794998,
      "eventId": 883098,
      "siteUnitNumber": 12592,
      "bathingSite": "MIDDLETON-ON-SEA",
      "eventStart": "2023-10-28T05:26:37",
      "eventStop": "2023-10-28T06:23:00",
      "duration": 56,
      "status": "Genuine",
      "associatedSiteId": 109967,
      "outfallName": "GLOUCESTER ROAD BOGNOR",
      "isImpacting": true,
      "overFlowSiteId": 0,
      "historicSpillsList": [
        {
          "id": 344794999,
          "eventId": 883098,
          "siteUnitNumber": 12593,
          "bathingSite": "FELPHAM",
          "eventStart": "2023-10-28T05:26:37",
          "eventStop": "2023-10-28T06:23:00",
          "duration": 56,
          "status": "Genuine",
          "associatedSiteId": 109967,
          "outfallName": "GLOUCESTER ROAD BOGNOR",
          "isImpacting": true,
          "overFlowSiteId": 103299,
          "historicSpillsList": []
        }
      ]
    },
    {
      "id": 344783854,
      "eventId": 887943,
      "siteUnitNumber": 12579,
      "bathingSite": "PEVENSEY BAY",
      "eventStart": "2023-10-28T05:32:00",
      "eventStop": "2023-10-28T06:18:00",
      "duration": 46,
      "status": "Genuine",
      "associatedSiteId": 109889,
      "outfallName": "RATTLE ROAD WESTHAM",
      "isImpacting": false,
      "overFlowSiteId": 0,
      "historicSpillsList": []
    },
    {
      "id": 344806908,
      "eventId": 882382,
      "siteUnitNumber": 12576,
      "bathingSite": "ST LEONARDS",
      "eventStart": "2023-10-27T23:54:08",
      "eventStop": "2023-10-28T06:15:00",
      "duration": 380,
      "status": "Genuine",
      "associatedSiteId": 111370,
      "outfallName": "YORK ROAD BEXHILL",
      "isImpacting": false,
      "overFlowSiteId": 0,
      "historicSpillsList": []
    },
    {
      "id": 344797281,
      "eventId": 889532,
      "siteUnitNumber": 12623,
      "bathingSite": "YAVERLAND",
      "eventStart": "2023-10-28T06:08:00",
      "eventStop": "2023-10-28T06:11:00",
      "duration": 3,
      "status": "Genuine",
      "associatedSiteId": 110029,
      "outfallName": "HOPE BEACH SHANKLIN NEW",
      "isImpacting": false,
      "overFlowSiteId": 0,
      "historicSpillsList": []
    },
    {
      "id": 344784784,
      "eventId": 883140,
      "siteUnitNumber": 12568,
      "bathingSite": "SANDGATE",
      "eventStart": "2023-10-28T06:03:54",
      "eventStop": "2023-10-28T06:10:55",
      "duration": 7,
      "status": "Genuine",
      "associatedSiteId": 109896,
      "outfallName": "RANGE ROAD HYTHE K SHORT",
      "isImpacting": false,
      "overFlowSiteId": 0,
      "historicSpillsList": []
    },
    {
      "id": 344780248,
      "eventId": 883220,
      "siteUnitNumber": 12661,
      "bathingSite": "LANGSTONE HARBOUR",
      "eventStart": "2023-10-28T04:08:00",
      "eventStop": "2023-10-28T05:58:00",
      "duration": 110,
      "status": "Genuine",
      "associatedSiteId": 109817,
      "outfallName": "MAINLAND DRAYTON",
      "isImpacting": true,
      "overFlowSiteId": 0,
      "historicSpillsList": [
        {
          "id": 344780248,
          "eventId": 883220,
          "siteUnitNumber": 12661,
          "bathingSite": "LANGSTONE HARBOUR",
          "eventStart": "2023-10-28T04:08:00",
          "eventStop": "2023-10-28T05:58:00",
          "duration": 110,
          "status": "Genuine",
          "associatedSiteId": 109817,
          "outfallName": "MAINLAND DRAYTON",
          "isImpacting": true,
          "overFlowSiteId": 115960
        }
      ]
    },
    {
      "id": 344797287,
      "eventId": 889531,
      "siteUnitNumber": 12623,
      "bathingSite": "YAVERLAND",
      "eventStart": "2023-10-28T05:52:00",
      "eventStop": "2023-10-28T05:57:00",
      "duration": 5,
      "status": "Genuine",
      "associatedSiteId": 110029,
      "outfallName": "HOPE BEACH SHANKLIN NEW",
      "isImpacting": false,
      "overFlowSiteId": 0,
      "historicSpillsList": []
    },
    {
      "id": 344774593,
      "eventId": 883122,
      "siteUnitNumber": 12616,
      "bathingSite": "GURNARD",
      "eventStart": "2023-10-28T05:52:04",
      "eventStop": "2023-10-28T05:54:22",
      "duration": 2,
      "status": "Not Genuine",
      "associatedSiteId": 109703,
      "outfallName": "CASTLE STREET COWES",
      "isImpacting": true,
      "overFlowSiteId": 0,
      "historicSpillsList": []
    },
    {
      "id": 344784782,
      "eventId": 883109,
      "siteUnitNumber": 12568,
      "bathingSite": "SANDGATE",
      "eventStart": "2023-10-28T05:43:57",
      "eventStop": "2023-10-28T05:51:34",
      "duration": 7,
      "status": "Genuine",
      "associatedSiteId": 109896,
      "outfallName": "RANGE ROAD HYTHE K SHORT",
      "isImpacting": false,
      "overFlowSiteId": 0,
      "historicSpillsList": []
    }
  ]
}