{
  "currentPage": 581,
  "totalItems": 21025,
  "totalPages": 841,
  "items": [
    {
      "id": 344819499,
      "eventId": 578572,
      "siteUnitNumber": 12606,
      "bathingSite": "LEE-ON-SOLENT",
      "eventStart": "2022-04-06T08:55:16",
      "eventStop": "2022-04-06T09:01:01",
      "duration": 5,
      "status": "Under Review",
      "associatedSiteId": 109732,
      "outfallName": "PEEL COMMON",
      "isImpacting": true,
      "overFlowSiteId": 0,
      "historicSpillsList": [
        {
          "id": 344819499,
          "eventId": 578572,
          "siteUnitNumber": 12606,
          "bathingSite": "LEE-ON-SOLENT",
          "eventStart": "2022-04-06T08:55:16",
          "eventStop": "2022-04-06T09:01:01",
          "duration": 5,
          "status": "Under Review",
          "associatedSiteId": 109732,
          "outfallName": "PEEL COMMON",
          "isImpacting": true,
          "overFlowSiteId": 115426
        },
        {
          "id": 344819500,
          "eventId": 578572,
          "siteUnitNumber": 12607,
          "bathingSite": "HILLHEAD",
          "eventStart": "2022-04-06T08:55:16",
          "eventStop": "2022-04-06T09:01:01",
          "duration": 5,
          "status": "Under Review",
          "associatedSiteId": 109732,
          "outfallName": "PEEL COMMON",
          "isImpacting": true,
          "overFlowSiteId": 115426,
          "historicSpillsList": []
        },
        {
          "id": 344819501,
          "eventId": 578572,
          "siteUnitNumber": 12603,
          "bathingSite": "EASTNEY",
          "eventStart": "2022-04-06T08:55:16",
          "eventStop": "2022-04-06T09:01:01",
          "duration": 5,
          "status": "Under Review",
          "associatedSiteId": 109732,
          "outfallName": "PEEL COMMON",
          "isImpacting": true,
          "overFlowSiteId": 115426,
          "historicSpillsList": []
        },
        {
          "id": 344819502,
          "eventId": 578572,
          "siteUnitNumber": 12604,
          "bathingSite": "SOUTHSEA EAST",
          "eventStart": "2022-04-06T08:55:16",
          "eventStop": "2022-04-06T09:01:01",
          "duration": 5,
          "status": "Under Review",
          "associatedSiteId": 109732,
          "outfallName": "PEEL COMMON",
          "isImpacting": true,
          "overFlowSiteId": 115426,
          "historicSpillsList": []
        },
        {
          "id": 344819503,
          "eventId": 578572,
          "siteUnitNumber": 12605,
          "bathingSite": "STOKES BAY",
          "eventStart": "2022-04-06T08:55:16",
          "eventStop": "2022-04-06T09:01:01",
          "duration": 5,
          "status": "Under Review",
          "associatedSiteId": 109732,
          "outfallName": "PEEL COMMON",
          "isImpacting": true,
          "overFlowSiteId": 115426,
          "historicSpillsList": []
        }
      ]
    },
    {
      "id": 344827626,
      "eventId": 577834,
      "siteUnitNumber": 12568,
      "bathingSite": "SANDGATE",
      "eventStart": "2022-04-04T08:38:13",
      "eventStop": "2022-04-04T08:50:07",
      "duration": 11,
      "status": "Not Genuine",
      "associatedSiteId": 109896,
      "outfallName": "RANGE ROAD HYTHE K SHORT",
      "isImpacting": true,
      "overFlowSiteId": 0,
      "historicSpillsList": []
    },
    {
      "id": 344822398,
      "eventId": 577404,
      "siteUnitNumber": 12618,
      "bathingSite": "RYDE",
      "eventStart": "2022-04-03T06:45:00",
      "eventStop": "2022-04-03T07:00:00",
      "duration": 15,
      "status": "Not Genuine",
      "associatedSiteId": 109787,
      "outfallName": "SALTERNS ROAD SEAVIEW",
      "isImpacting": true,
      "overFlowSiteId": 0,
      "historicSpillsList": []
    },
    {
      "id": 344826233,
      "eventId": 577330,
      "siteUnitNumber": 12662,
      "bathingSite": "CHICHESTER HARBOUR",
      "eventStart": "2022-04-02T23:44:17",
      "eventStop": "2022-04-03T00:15:00",
      "duration": 30,
      "status": "Not Genuine",
      "associatedSiteId": 109853,
      "outfallName": "CHIDHAM",
      "isImpacting": true,
      "overFlowSiteId": 0,
      "historicSpillsList": []
    },
    {
      "id": 344826234,
      "eventId": 577315,
      "siteUnitNumber": 12662,
      "bathingSite": "CHICHESTER HARBOUR",
      "eventStart": "2022-04-02T22:30:00",
      "eventStop": "2022-04-02T22:45:00",
      "duration": 15,
      "status": "Not Genuine",
      "associatedSiteId": 109853,
      "outfallName": "CHIDHAM",
      "isImpacting": true,
      "overFlowSiteId": 0,
      "historicSpillsList": []
    },
    {
      "id": 344812577,
      "eventId": 576875,
      "siteUnitNumber": 12546,
      "bathingSite": "LEYSDOWN",
      "eventStart": "2022-04-01T19:51:52",
      "eventStop": "2022-04-01T23:00:00",
      "duration": 188,
      "status": "Not Genuine",
      "associatedSiteId": 109613,
      "outfallName": "BARROWS BROOK EASTCHURCH",
      "isImpacting": true,
      "overFlowSiteId": 0,
      "historicSpillsList": []
    },
    {
      "id": 344812578,
      "eventId": 576851,
      "siteUnitNumber": 12546,
      "bathingSite": "LEYSDOWN",
      "eventStart": "2022-04-01T18:15:00",
      "eventStop": "2022-04-01T19:45:00",
      "duration": 90,
      "status": "Not Genuine",
      "associatedSiteId": 109613,
      "outfallName": "BARROWS BROOK EASTCHURCH",
      "isImpacting": true,
      "overFlowSiteId": 0,
      "historicSpillsList": []
    },
    {
      "id": 344812579,
      "eventId": 576796,
      "siteUnitNumber": 12546,
      "bathingSite": "LEYSDOWN",
      "eventStart": "2022-04-01T15:43:38",
      "eventStop": "2022-04-01T17:30:00",
      "duration": 106,
      "status": "Not Genuine",
      "associatedSiteId": 109613,
      "outfallName": "BARROWS BROOK EASTCHURCH",
      "isImpacting": true,
      "overFlowSiteId": 0,
      "historicSpillsList": []
    },
    {
      "id": 344828766,
      "eventId": 576601,
      "siteUnitNumber": 12568,
      "bathingSite": "SANDGATE",
      "eventStart": "2022-04-01T09:34:00",
      "eventStop": "2022-04-01T11:56:00",
      "duration": 142,
      "status": "Genuine",
      "associatedSiteId": 109897,
      "outfallName": "RANGE ROAD HYTHE K LONG",
      "isImpacting": true,
      "overFlowSiteId": 0,
      "historicSpillsList": [
        {
          "id": 344828766,
          "eventId": 576601,
          "siteUnitNumber": 12568,
          "bathingSite": "SANDGATE",
          "eventStart": "2022-04-01T09:34:00",
          "eventStop": "2022-04-01T11:56:00",
          "duration": 142,
          "status": "Genuine",
          "associatedSiteId": 109897,
          "outfallName": "RANGE ROAD HYTHE K LONG",
          "isImpacting": true,
          "overFlowSiteId": 116048
        },
        {
          "id": 344828767,
          "eventId": 576601,
          "siteUnitNumber": 12569,
          "bathingSite": "HYTHE",
          "eventStart": "2022-04-01T09:34:00",
          "eventStop": "2022-04-01T11:56:00",
          "duration": 142,
          "status": "Genuine",
          "associatedSiteId": 109897,
          "outfallName": "RANGE ROAD HYTHE K LONG",
          "isImpacting": true,
          "overFlowSiteId": 116048,
          "historicSpillsList": []
        }
      ]
    },
    {
      "id": 344824643,
      "eventId": 576572,
      "siteUnitNumber": 12548,
      "bathingSite": "TANKERTON",
      "eventStart": "2022-04-01T06:08:56",
      "eventStop": "2022-04-01T11:50:45",
      "duration": 341,
      "status": "Genuine",
      "associatedSiteId": 109830,
      "outfallName": "SWALECLIFFE NO1",
      "isImpacting": true,
      "overFlowSiteId": 0,
      "historicSpillsList": [
        {
          "id": 344824643,
          "eventId": 576572,
          "siteUnitNumber": 12548,
          "bathingSite": "TANKERTON",
          "eventStart": "2022-04-01T06:08:56",
          "eventStop": "2022-04-01T11:50:45",
          "duration": 341,
          "status": "Genuine",
          "associatedSiteId": 109830,
          "outfallName": "SWALECLIFFE NO1",
          "isImpacting": true,
          "overFlowSiteId": 115444
        },
        {
          "id": 344824638,
          "eventId": 576572,
          "siteUnitNumber": 12549,
          "bathingSite": "HERNE BAY CENTRAL",
          "eventStart": "2022-04-01T06:08:56",
          "eventStop": "2022-04-01T11:50:45",
          "duration": 341,
          "status": "Genuine",
          "associatedSiteId": 109830,
          "outfallName": "SWALECLIFFE NO1",
          "isImpacting": true,
          "overFlowSiteId": 115444,
          "historicSpillsList": []
        }
      ]
    },
    {
      "id": 344828770,
      "eventId": 576567,
      "siteUnitNumber": 12568,
      "bathingSite": "SANDGATE",
      "eventStart": "2022-04-01T05:00:00",
      "eventStop": "2022-04-01T05:45:00",
      "duration": 45,
      "status": "Genuine",
      "associatedSiteId": 109897,
      "outfallName": "RANGE ROAD HYTHE K LONG",
      "isImpacting": true,
      "overFlowSiteId": 0,
      "historicSpillsList": [
        {
          "id": 344828770,
          "eventId": 576567,
          "siteUnitNumber": 12568,
          "bathingSite": "SANDGATE",
          "eventStart": "2022-04-01T05:00:00",
          "eventStop": "2022-04-01T05:45:00",
          "duration": 45,
          "status": "Genuine",
          "associatedSiteId": 109897,
          "outfallName": "RANGE ROAD HYTHE K LONG",
          "isImpacting": true,
          "overFlowSiteId": 116048
        },
        {
          "id": 344828771,
          "eventId": 576567,
          "siteUnitNumber": 12569,
          "bathingSite": "HYTHE",
          "eventStart": "2022-04-01T05:00:00",
          "eventStop": "2022-04-01T05:45:00",
          "duration": 45,
          "status": "Genuine",
          "associatedSiteId": 109897,
          "outfallName": "RANGE ROAD HYTHE K LONG",
          "isImpacting": true,
          "overFlowSiteId": 116048,
          "historicSpillsList": []
        }
      ]
    },
    {
      "id": 344812580,
      "eventId": 576379,
      "siteUnitNumber": 12546,
      "bathingSite": "LEYSDOWN",
      "eventStart": "2022-03-31T18:11:48",
      "eventStop": "2022-03-31T21:30:00",
      "duration": 198,
      "status": "Not Genuine",
      "associatedSiteId": 109613,
      "outfallName": "BARROWS BROOK EASTCHURCH",
      "isImpacting": true,
      "overFlowSiteId": 0,
      "historicSpillsList": []
    },
    {
      "id": 344828768,
      "eventId": 576260,
      "siteUnitNumber": 12568,
      "bathingSite": "SANDGATE",
      "eventStart": "2022-03-31T12:15:00",
      "eventStop": "2022-03-31T15:00:00",
      "duration": 165,
      "status": "Genuine",
      "associatedSiteId": 109897,
      "outfallName": "RANGE ROAD HYTHE K LONG",
      "isImpacting": true,
      "overFlowSiteId": 0,
      "historicSpillsList": [
        {
          "id": 344828768,
          "eventId": 576260,
          "siteUnitNumber": 12568,
          "bathingSite": "SANDGATE",
          "eventStart": "2022-03-31T12:15:00",
          "eventStop": "2022-03-31T15:00:00",
          "duration": 165,
          "status": "Genuine",
          "associatedSiteId": 109897,
          "outfallName": "RANGE ROAD HYTHE K LONG",
          "isImpacting": true,
          "overFlowSiteId": 116048
        },
        {
          "id": 344828769,
          "eventId": 576260,
          "siteUnitNumber": 12569,
          "bathingSite": "HYTHE",
          "eventStart": "2022-03-31T12:15:00",
          "eventStop": "2022-03-31T15:00:00",
          "duration": 165,
          "status": "Genuine",
          "associatedSiteId": 109897,
          "outfallName": "RANGE ROAD HYTHE K LONG",
          "isImpacting": true,
          "overFlowSiteId": 116048,
          "historicSpillsList": []
        }
      ]
    },
    {
      "id": 344824641,
      "eventId": 576266,
      "siteUnitNumber": 12548,
      "bathingSite": "TANKERTON",
      "eventStart": "2022-03-31T12:46:13",
      "eventStop": "2022-03-31T13:17:40",
      "duration": 31,
      "status": "Genuine",
      "associatedSiteId": 109830,
      "outfallName": "SWALECLIFFE NO1",
      "isImpacting": true,
      "overFlowSiteId": 0,
      "historicSpillsList": [
        {
          "id": 344824641,
          "eventId": 576266,
          "siteUnitNumber": 12548,
          "bathingSite": "TANKERTON",
          "eventStart": "2022-03-31T12:46:13",
          "eventStop": "2022-03-31T13:17:40",
          "duration": 31,
          "status": "Genuine",
          "associatedSiteId": 109830,
          "outfallName": "SWALECLIFFE NO1",
          "isImpacting": true,
          "overFlowSiteId": 115444
        },
        {
          "id": 344824642,
          "eventId": 576266,
          "siteUnitNumber": 12549,
          "bathingSite": "HERNE BAY CENTRAL",
          "eventStart": "2022-03-31T12:46:13",
          "eventStop": "2022-03-31T13:17:40",
          "duration": 31,
          "status": "Genuine",
          "associatedSiteId": 109830,
          "outfallName": "SWALECLIFFE NO1",
          "isImpacting": true,
          "overFlowSiteId": 115444,
          "historicSpillsList": []
        }
      ]
    },
    {
      "id": 344824644,
      "eventId": 576244,
      "siteUnitNumber": 12548,
      "bathingSite": "TANKERTON",
      "eventStart": "2022-03-31T12:06:34",
      "eventStop": "2022-03-31T12:22:54",
      "duration": 16,
      "status": "Genuine",
      "associatedSiteId": 109830,
      "outfallName": "SWALECLIFFE NO1",
      "isImpacting": true,
      "overFlowSiteId": 0,
      "historicSpillsList": [
        {
          "id": 344824644,
          "eventId": 576244,
          "siteUnitNumber": 12548,
          "bathingSite": "TANKERTON",
          "eventStart": "2022-03-31T12:06:34",
          "eventStop": "2022-03-31T12:22:54",
          "duration": 16,
          "status": "Genuine",
          "associatedSiteId": 109830,
          "outfallName": "SWALECLIFFE NO1",
          "isImpacting": true,
          "overFlowSiteId": 115444
        },
        {
          "id": 344824645,
          "eventId": 576244,
          "siteUnitNumber": 12549,
          "bathingSite": "HERNE BAY CENTRAL",
          "eventStart": "2022-03-31T12:06:34",
          "eventStop": "2022-03-31T12:22:54",
          "duration": 16,
          "status": "Genuine",
          "associatedSiteId": 109830,
          "outfallName": "SWALECLIFFE NO1",
          "isImpacting": true,
          "overFlowSiteId": 115444,
          "historicSpillsList": []
        }
      ]
    },
    {
      "id": 344824646,
      "eventId": 576234,
      "siteUnitNumber": 12548,
      "bathingSite": "TANKERTON",
      "eventStart": "2022-03-31T11:26:06",
      "eventStop": "2022-03-31T11:57:55",
      "duration": 31,
      "status": "Genuine",
      "associatedSiteId": 109830,
      "outfallName": "SWALECLIFFE NO1",
      "isImpacting": true,
      "overFlowSiteId": 0,
      "historicSpillsList": [
        {
          "id": 344824646,
          "eventId": 576234,
          "siteUnitNumber": 12548,
          "bathingSite": "TANKERTON",
          "eventStart": "2022-03-31T11:26:06",
          "eventStop": "2022-03-31T11:57:55",
          "duration": 31,
          "status": "Genuine",
          "associatedSiteId": 109830,
          "outfallName": "SWALECLIFFE NO1",
          "isImpacting": true,
          "overFlowSiteId": 115444
        },
        {
          "id": 344824647,
          "eventId": 576234,
          "siteUnitNumber": 12549,
          "bathingSite": "HERNE BAY CENTRAL",
          "eventStart": "2022-03-31T11:26:06",
          "eventStop": "2022-03-31T11:57:55",
          "duration": 31,
          "status": "Genuine",
          "associatedSiteId": 109830,
          "outfallName": "SWALECLIFFE NO1",
          "isImpacting": true,
          "overFlowSiteId": 115444,
          "historicSpillsList": []
        }
      ]
    },
    {
      "id": 344828774,
      "eventId": 575936,
      "siteUnitNumber": 12568,
      "bathingSite": "SANDGATE",
      "eventStart": "2022-03-30T19:45:00",
      "eventStop": "2022-03-30T20:32:00",
      "duration": 47,
      "status": "Genuine",
      "associatedSiteId": 109897,
      "outfallName": "RANGE ROAD HYTHE K LONG",
      "isImpacting": true,
      "overFlowSiteId": 0,
      "historicSpillsList": [
        {
          "id": 344828774,
          "eventId": 575936,
          "siteUnitNumber": 12568,
          "bathingSite": "SANDGATE",
          "eventStart": "2022-03-30T19:45:00",
          "eventStop": "2022-03-30T20:32:00",
          "duration": 47,
          "status": "Genuine",
          "associatedSiteId": 109897,
          "outfallName": "RANGE ROAD HYTHE K LONG",
          "isImpacting": true,
          "overFlowSiteId": 116048
        },
        {
          "id": 344828775,
          "eventId": 575936,
          "siteUnitNumber": 12569,
          "bathingSite": "HYTHE",
          "eventStart": "2022-03-30T19:45:00",
          "eventStop": "2022-03-30T20:32:00",
          "duration": 47,
          "status": "Genuine",
          "associatedSiteId": 109897,
          "outfallName": "RANGE ROAD HYTHE K LONG",
          "isImpacting": true,
          "overFlowSiteId": 116048,
          "historicSpillsList": []
        }
      ]
    },
    {
      "id": 344849077,
      "eventId": 575815,
      "siteUnitNumber": 12582,
      "bathingSite": "SEAFORD",
      "eventStart": "2022-03-30T16:10:30",
      "eventStop": "2022-03-30T18:31:23",
      "duration": 140,
      "status": "Genuine",
      "associatedSiteId": 110920,
      "outfallName": "NEWHAVEN",
      "isImpacting": true,
      "overFlowSiteId": 0,
      "historicSpillsList": [
        {
          "id": 344849077,
          "eventId": 575815,
          "siteUnitNumber": 12582,
          "bathingSite": "SEAFORD",
          "eventStart": "2022-03-30T16:10:30",
          "eventStop": "2022-03-30T18:31:23",
          "duration": 140,
          "status": "Genuine",
          "associatedSiteId": 110920,
          "outfallName": "NEWHAVEN",
          "isImpacting": true,
          "overFlowSiteId": 116065
        }
      ]
    },
    {
      "id": 344824076,
      "eventId": 574525,
      "siteUnitNumber": 12609,
      "bathingSite": "LEPE",
      "eventStart": "2022-03-26T21:43:15",
      "eventStop": "2022-03-26T21:46:52",
      "duration": 3,
      "status": "Not Genuine",
      "associatedSiteId": 109825,
      "outfallName": "WEST COMMON FAWLEY",
      "isImpacting": true,
      "overFlowSiteId": 0,
      "historicSpillsList": []
    },
    {
      "id": 344824077,
      "eventId": 574150,
      "siteUnitNumber": 12609,
      "bathingSite": "LEPE",
      "eventStart": "2022-03-25T21:25:28",
      "eventStop": "2022-03-25T21:29:09",
      "duration": 3,
      "status": "Not Genuine",
      "associatedSiteId": 109825,
      "outfallName": "WEST COMMON FAWLEY",
      "isImpacting": true,
      "overFlowSiteId": 0,
      "historicSpillsList": []
    },
    {
      "id": 344824078,
      "eventId": 573674,
      "siteUnitNumber": 12609,
      "bathingSite": "LEPE",
      "eventStart": "2022-03-24T15:38:10",
      "eventStop": "2022-03-24T15:40:57",
      "duration": 2,
      "status": "Not Genuine",
      "associatedSiteId": 109825,
      "outfallName": "WEST COMMON FAWLEY",
      "isImpacting": true,
      "overFlowSiteId": 0,
      "historicSpillsList": []
    },
    {
      "id": 344824079,
      "eventId": 573324,
      "siteUnitNumber": 12609,
      "bathingSite": "LEPE",
      "eventStart": "2022-03-23T20:09:50",
      "eventStop": "2022-03-23T20:15:05",
      "duration": 5,
      "status": "Not Genuine",
      "associatedSiteId": 109825,
      "outfallName": "WEST COMMON FAWLEY",
      "isImpacting": true,
      "overFlowSiteId": 0,
      "historicSpillsList": []
    },
    {
      "id": 344824080,
      "eventId": 573318,
      "siteUnitNumber": 12609,
      "bathingSite": "LEPE",
      "eventStart": "2022-03-23T17:38:37",
      "eventStop": "2022-03-23T17:41:54",
      "duration": 3,
      "status": "Not Genuine",
      "associatedSiteId": 109825,
      "outfallName": "WEST COMMON FAWLEY",
      "isImpacting": true,
      "overFlowSiteId": 0,
      "historicSpillsList": []
    },
    {
      "id": 344824081,
      "eventId": 573163,
      "siteUnitNumber": 12609,
      "bathingSite": "LEPE",
      "eventStart": "2022-03-23T14:09:48",
      "eventStop": "2022-03-23T14:12:42",
      "duration": 2,
      "status": "Not Genuine",
      "associatedSiteId": 109825,
      "outfallName": "WEST COMMON FAWLEY",
      "isImpacting": true,
      "overFlowSiteId": 0,
      "historicSpillsList": []
    },
    {
      "id": 344824082,
      "eventId": 572844,
      "siteUnitNumber": 12609,
      "bathingSite": "LEPE",
      "eventStart": "2022-03-22T18:38:15",
      "eventStop": "2022-03-22T18:42:35",
      "duration": 4,
      "status": "Not Genuine",
      "associatedSiteId": 109825,
      "outfallName": "WEST COMMON FAWLEY",
      "isImpacting": true,
      "overFlowSiteId": 0,
      "historicSpillsList": []
    }
  ]
}