{
  "currentPage": 104,
  "totalItems": 21025,
  "totalPages": 841,
  "items": [
    {
      "id": 344766514,
      "eventId": 896474,
      "siteUnitNumber": 12615,
      "bathingSite": "COLWELL BAY",
      "eventStart": "2023-11-05T10:12:08",
      "eventStop": "2023-11-05T10:25:23",
      "duration": 13,
      "status": "Genuine",
      "associatedSiteId": 115498,
      "outfallName": "NORTON TRANSFER IOW",
      "isImpacting": true,
      "overFlowSiteId": 0,
      "historicSpillsList": [
        {
          "id": 344766514,
          "eventId": 896474,
          "siteUnitNumber": 12615,
          "bathingSite": "COLWELL BAY",
          "eventStart": "2023-11-05T10:12:08",
          "eventStop": "2023-11-05T10:25:23",
          "duration": 13,
          "status": "Genuine",
          "associatedSiteId": 115498,
          "outfallName": "NORTON TRANSFER IOW",
          "isImpacting": true,
          "overFlowSiteId": 109524
        },
        {
          "id": 344766515,
          "eventId": 896474,
          "siteUnitNumber": 12614,
          "bathingSite": "TOTLAND BAY",
          "eventStart": "2023-11-05T10:12:08",
          "eventStop": "2023-11-05T10:25:23",
          "duration": 13,
          "status": "Genuine",
          "associatedSiteId": 115498,
          "outfallName": "NORTON TRANSFER IOW",
          "isImpacting": true,
          "overFlowSiteId": 109524,
          "historicSpillsList": []
        }
      ]
    },
    {
      "id": 344741994,
      "eventId": 896541,
      "siteUnitNumber": 12568,
      "bathingSite": "SANDGATE",
      "eventStart": "2023-11-05T10:21:09",
      "eventStop": "2023-11-05T10:23:34",
      "duration": 2,
      "status": "Genuine",
      "associatedSiteId": 109896,
      "outfallName": "RANGE ROAD HYTHE K SHORT",
      "isImpacting": false,
      "overFlowSiteId": 0,
      "historicSpillsList": []
    },
    {
      "id": 344741998,
      "eventId": 896540,
      "siteUnitNumber": 12568,
      "bathingSite": "SANDGATE",
      "eventStart": "2023-11-05T10:16:59",
      "eventStop": "2023-11-05T10:19:14",
      "duration": 2,
      "status": "Genuine",
      "associatedSiteId": 109896,
      "outfallName": "RANGE ROAD HYTHE K SHORT",
      "isImpacting": false,
      "overFlowSiteId": 0,
      "historicSpillsList": []
    },
    {
      "id": 344741996,
      "eventId": 896539,
      "siteUnitNumber": 12568,
      "bathingSite": "SANDGATE",
      "eventStart": "2023-11-05T10:12:58",
      "eventStop": "2023-11-05T10:15:03",
      "duration": 2,
      "status": "Genuine",
      "associatedSiteId": 109896,
      "outfallName": "RANGE ROAD HYTHE K SHORT",
      "isImpacting": false,
      "overFlowSiteId": 0,
      "historicSpillsList": []
    },
    {
      "id": 344742000,
      "eventId": 896538,
      "siteUnitNumber": 12568,
      "bathingSite": "SANDGATE",
      "eventStart": "2023-11-05T10:09:02",
      "eventStop": "2023-11-05T10:11:07",
      "duration": 2,
      "status": "Genuine",
      "associatedSiteId": 109896,
      "outfallName": "RANGE ROAD HYTHE K SHORT",
      "isImpacting": false,
      "overFlowSiteId": 0,
      "historicSpillsList": []
    },
    {
      "id": 344766516,
      "eventId": 896472,
      "siteUnitNumber": 12614,
      "bathingSite": "TOTLAND BAY",
      "eventStart": "2023-11-05T10:08:07",
      "eventStop": "2023-11-05T10:10:31",
      "duration": 2,
      "status": "Genuine",
      "associatedSiteId": 115498,
      "outfallName": "NORTON TRANSFER IOW",
      "isImpacting": true,
      "overFlowSiteId": 0,
      "historicSpillsList": [
        {
          "id": 344766516,
          "eventId": 896472,
          "siteUnitNumber": 12614,
          "bathingSite": "TOTLAND BAY",
          "eventStart": "2023-11-05T10:08:07",
          "eventStop": "2023-11-05T10:10:31",
          "duration": 2,
          "status": "Genuine",
          "associatedSiteId": 115498,
          "outfallName": "NORTON TRANSFER IOW",
          "isImpacting": true,
          "overFlowSiteId": 109524
        },
        {
          "id": 344766517,
          "eventId": 896472,
          "siteUnitNumber": 12615,
          "bathingSite": "COLWELL BAY",
          "eventStart": "2023-11-05T10:08:07",
          "eventStop": "2023-11-05T10:10:31",
          "duration": 2,
          "status": "Genuine",
          "associatedSiteId": 115498,
          "outfallName": "NORTON TRANSFER IOW",
          "isImpacting": true,
          "overFlowSiteId": 109524,
          "historicSpillsList": []
        }
      ]
    },
    {
      "id": 344742004,
      "eventId": 896537,
      "siteUnitNumber": 12568,
      "bathingSite": "SANDGATE",
      "eventStart": "2023-11-05T10:04:52",
      "eventStop": "2023-11-05T10:07:06",
      "duration": 2,
      "status": "Genuine",
      "associatedSiteId": 109896,
      "outfallName": "RANGE ROAD HYTHE K SHORT",
      "isImpacting": false,
      "overFlowSiteId": 0,
      "historicSpillsList": []
    },
    {
      "id": 344753434,
      "eventId": 896458,
      "siteUnitNumber": 12575,
      "bathingSite": "HASTINGS PELHAM BEACH",
      "eventStart": "2023-11-05T09:56:26",
      "eventStop": "2023-11-05T10:05:18",
      "duration": 8,
      "status": "Genuine",
      "associatedSiteId": 109982,
      "outfallName": "COOMBS HASTINGS",
      "isImpacting": false,
      "overFlowSiteId": 0,
      "historicSpillsList": []
    },
    {
      "id": 344742002,
      "eventId": 896536,
      "siteUnitNumber": 12568,
      "bathingSite": "SANDGATE",
      "eventStart": "2023-11-05T10:00:36",
      "eventStop": "2023-11-05T10:03:02",
      "duration": 2,
      "status": "Genuine",
      "associatedSiteId": 109896,
      "outfallName": "RANGE ROAD HYTHE K SHORT",
      "isImpacting": false,
      "overFlowSiteId": 0,
      "historicSpillsList": []
    },
    {
      "id": 344766518,
      "eventId": 896456,
      "siteUnitNumber": 12614,
      "bathingSite": "TOTLAND BAY",
      "eventStart": "2023-11-05T09:53:10",
      "eventStop": "2023-11-05T10:02:04",
      "duration": 8,
      "status": "Genuine",
      "associatedSiteId": 115498,
      "outfallName": "NORTON TRANSFER IOW",
      "isImpacting": true,
      "overFlowSiteId": 0,
      "historicSpillsList": [
        {
          "id": 344766518,
          "eventId": 896456,
          "siteUnitNumber": 12614,
          "bathingSite": "TOTLAND BAY",
          "eventStart": "2023-11-05T09:53:10",
          "eventStop": "2023-11-05T10:02:04",
          "duration": 8,
          "status": "Genuine",
          "associatedSiteId": 115498,
          "outfallName": "NORTON TRANSFER IOW",
          "isImpacting": true,
          "overFlowSiteId": 109524
        },
        {
          "id": 344766519,
          "eventId": 896456,
          "siteUnitNumber": 12615,
          "bathingSite": "COLWELL BAY",
          "eventStart": "2023-11-05T09:53:10",
          "eventStop": "2023-11-05T10:02:04",
          "duration": 8,
          "status": "Genuine",
          "associatedSiteId": 115498,
          "outfallName": "NORTON TRANSFER IOW",
          "isImpacting": true,
          "overFlowSiteId": 109524,
          "historicSpillsList": []
        }
      ]
    },
    {
      "id": 344742006,
      "eventId": 896535,
      "siteUnitNumber": 12568,
      "bathingSite": "SANDGATE",
      "eventStart": "2023-11-05T09:56:25",
      "eventStop": "2023-11-05T09:58:51",
      "duration": 2,
      "status": "Genuine",
      "associatedSiteId": 109896,
      "outfallName": "RANGE ROAD HYTHE K SHORT",
      "isImpacting": false,
      "overFlowSiteId": 0,
      "historicSpillsList": []
    },
    {
      "id": 344742010,
      "eventId": 896534,
      "siteUnitNumber": 12568,
      "bathingSite": "SANDGATE",
      "eventStart": "2023-11-05T09:52:06",
      "eventStop": "2023-11-05T09:54:30",
      "duration": 2,
      "status": "Genuine",
      "associatedSiteId": 109896,
      "outfallName": "RANGE ROAD HYTHE K SHORT",
      "isImpacting": false,
      "overFlowSiteId": 0,
      "historicSpillsList": []
    },
    {
      "id": 344742008,
      "eventId": 896533,
      "siteUnitNumber": 12568,
      "bathingSite": "SANDGATE",
      "eventStart": "2023-11-05T09:47:56",
      "eventStop": "2023-11-05T09:50:11",
      "duration": 2,
      "status": "Genuine",
      "associatedSiteId": 109896,
      "outfallName": "RANGE ROAD HYTHE K SHORT",
      "isImpacting": false,
      "overFlowSiteId": 0,
      "historicSpillsList": []
    },
    {
      "id": 344766524,
      "eventId": 896434,
      "siteUnitNumber": 12614,
      "bathingSite": "TOTLAND BAY",
      "eventStart": "2023-11-05T09:42:51",
      "eventStop": "2023-11-05T09:47:22",
      "duration": 4,
      "status": "Genuine",
      "associatedSiteId": 115498,
      "outfallName": "NORTON TRANSFER IOW",
      "isImpacting": true,
      "overFlowSiteId": 0,
      "historicSpillsList": [
        {
          "id": 344766524,
          "eventId": 896434,
          "siteUnitNumber": 12614,
          "bathingSite": "TOTLAND BAY",
          "eventStart": "2023-11-05T09:42:51",
          "eventStop": "2023-11-05T09:47:22",
          "duration": 4,
          "status": "Genuine",
          "associatedSiteId": 115498,
          "outfallName": "NORTON TRANSFER IOW",
          "isImpacting": true,
          "overFlowSiteId": 109524
        },
        {
          "id": 344766525,
          "eventId": 896434,
          "siteUnitNumber": 12615,
          "bathingSite": "COLWELL BAY",
          "eventStart": "2023-11-05T09:42:51",
          "eventStop": "2023-11-05T09:47:22",
          "duration": 4,
          "status": "Genuine",
          "associatedSiteId": 115498,
          "outfallName": "NORTON TRANSFER IOW",
          "isImpacting": true,
          "overFlowSiteId": 109524,
          "historicSpillsList": []
        }
      ]
    },
    {
      "id": 344753440,
      "eventId": 896432,
      "siteUnitNumber": 12575,
      "bathingSite": "HASTINGS PELHAM BEACH",
      "eventStart": "2023-11-05T09:39:03",
      "eventStop": "2023-11-05T09:46:42",
      "duration": 7,
      "status": "Genuine",
      "associatedSiteId": 109982,
      "outfallName": "COOMBS HASTINGS",
      "isImpacting": false,
      "overFlowSiteId": 0,
      "historicSpillsList": []
    },
    {
      "id": 344742012,
      "eventId": 896532,
      "siteUnitNumber": 12568,
      "bathingSite": "SANDGATE",
      "eventStart": "2023-11-05T09:43:56",
      "eventStop": "2023-11-05T09:46:11",
      "duration": 2,
      "status": "Genuine",
      "associatedSiteId": 109896,
      "outfallName": "RANGE ROAD HYTHE K SHORT",
      "isImpacting": false,
      "overFlowSiteId": 0,
      "historicSpillsList": []
    },
    {
      "id": 344742016,
      "eventId": 896531,
      "siteUnitNumber": 12568,
      "bathingSite": "SANDGATE",
      "eventStart": "2023-11-05T09:39:55",
      "eventStop": "2023-11-05T09:42:10",
      "duration": 2,
      "status": "Genuine",
      "associatedSiteId": 109896,
      "outfallName": "RANGE ROAD HYTHE K SHORT",
      "isImpacting": false,
      "overFlowSiteId": 0,
      "historicSpillsList": []
    },
    {
      "id": 344766526,
      "eventId": 896413,
      "siteUnitNumber": 12615,
      "bathingSite": "COLWELL BAY",
      "eventStart": "2023-11-05T09:25:28",
      "eventStop": "2023-11-05T09:40:19",
      "duration": 14,
      "status": "Genuine",
      "associatedSiteId": 115498,
      "outfallName": "NORTON TRANSFER IOW",
      "isImpacting": true,
      "overFlowSiteId": 0,
      "historicSpillsList": [
        {
          "id": 344766526,
          "eventId": 896413,
          "siteUnitNumber": 12615,
          "bathingSite": "COLWELL BAY",
          "eventStart": "2023-11-05T09:25:28",
          "eventStop": "2023-11-05T09:40:19",
          "duration": 14,
          "status": "Genuine",
          "associatedSiteId": 115498,
          "outfallName": "NORTON TRANSFER IOW",
          "isImpacting": true,
          "overFlowSiteId": 109524
        },
        {
          "id": 344766527,
          "eventId": 896413,
          "siteUnitNumber": 12614,
          "bathingSite": "TOTLAND BAY",
          "eventStart": "2023-11-05T09:25:28",
          "eventStop": "2023-11-05T09:40:19",
          "duration": 14,
          "status": "Genuine",
          "associatedSiteId": 115498,
          "outfallName": "NORTON TRANSFER IOW",
          "isImpacting": true,
          "overFlowSiteId": 109524,
          "historicSpillsList": []
        }
      ]
    },
    {
      "id": 344742014,
      "eventId": 896530,
      "siteUnitNumber": 12568,
      "bathingSite": "SANDGATE",
      "eventStart": "2023-11-05T09:35:44",
      "eventStop": "2023-11-05T09:38:10",
      "duration": 2,
      "status": "Genuine",
      "associatedSiteId": 109896,
      "outfallName": "RANGE ROAD HYTHE K SHORT",
      "isImpacting": false,
      "overFlowSiteId": 0,
      "historicSpillsList": []
    },
    {
      "id": 344742018,
      "eventId": 896529,
      "siteUnitNumber": 12568,
      "bathingSite": "SANDGATE",
      "eventStart": "2023-11-05T09:31:44",
      "eventStop": "2023-11-05T09:34:09",
      "duration": 2,
      "status": "Genuine",
      "associatedSiteId": 109896,
      "outfallName": "RANGE ROAD HYTHE K SHORT",
      "isImpacting": false,
      "overFlowSiteId": 0,
      "historicSpillsList": []
    },
    {
      "id": 344742022,
      "eventId": 896528,
      "siteUnitNumber": 12568,
      "bathingSite": "SANDGATE",
      "eventStart": "2023-11-05T09:27:45",
      "eventStop": "2023-11-05T09:30:09",
      "duration": 2,
      "status": "Genuine",
      "associatedSiteId": 109896,
      "outfallName": "RANGE ROAD HYTHE K SHORT",
      "isImpacting": false,
      "overFlowSiteId": 0,
      "historicSpillsList": []
    },
    {
      "id": 344753438,
      "eventId": 896412,
      "siteUnitNumber": 12575,
      "bathingSite": "HASTINGS PELHAM BEACH",
      "eventStart": "2023-11-05T09:20:28",
      "eventStop": "2023-11-05T09:29:32",
      "duration": 9,
      "status": "Genuine",
      "associatedSiteId": 109982,
      "outfallName": "COOMBS HASTINGS",
      "isImpacting": false,
      "overFlowSiteId": 0,
      "historicSpillsList": []
    },
    {
      "id": 344742020,
      "eventId": 896527,
      "siteUnitNumber": 12568,
      "bathingSite": "SANDGATE",
      "eventStart": "2023-11-05T09:23:44",
      "eventStop": "2023-11-05T09:26:00",
      "duration": 2,
      "status": "Genuine",
      "associatedSiteId": 109896,
      "outfallName": "RANGE ROAD HYTHE K SHORT",
      "isImpacting": false,
      "overFlowSiteId": 0,
      "historicSpillsList": []
    },
    {
      "id": 344742024,
      "eventId": 896526,
      "siteUnitNumber": 12568,
      "bathingSite": "SANDGATE",
      "eventStart": "2023-11-05T09:19:47",
      "eventStop": "2023-11-05T09:22:11",
      "duration": 2,
      "status": "Genuine",
      "associatedSiteId": 109896,
      "outfallName": "RANGE ROAD HYTHE K SHORT",
      "isImpacting": false,
      "overFlowSiteId": 0,
      "historicSpillsList": []
    },
    {
      "id": 344742028,
      "eventId": 896525,
      "siteUnitNumber": 12568,
      "bathingSite": "SANDGATE",
      "eventStart": "2023-11-05T09:15:58",
      "eventStop": "2023-11-05T09:18:11",
      "duration": 2,
      "status": "Genuine",
      "associatedSiteId": 109896,
      "outfallName": "RANGE ROAD HYTHE K SHORT",
      "isImpacting": false,
      "overFlowSiteId": 0,
      "historicSpillsList": []
    }
  ]
}