{
  "currentPage": 749,
  "totalItems": 18701,
  "totalPages": 749,
  "items": [
    {
      "id": 344029142,
      "eventId": 302395,
      "siteUnitNumber": 12591,
      "bathingSite": "LITTLEHAMPTON",
      "eventStart": "2020-12-31T22:08:00",
      "eventStop": "2021-01-01T03:47:00",
      "duration": 339,
      "status": "Genuine",
      "associatedSiteId": 109977,
      "outfallName": "FORESHORE TANK LITTLEHAMPTON",
      "isImpacting": true,
      "overFlowSiteId": 0,
      "historicSpillsList": [
        {
          "id": 344029142,
          "eventId": 302395,
          "siteUnitNumber": 12591,
          "bathingSite": "LITTLEHAMPTON",
          "eventStart": "2020-12-31T22:08:00",
          "eventStop": "2021-01-01T03:47:00",
          "duration": 339,
          "status": "Genuine",
          "associatedSiteId": 109977,
          "outfallName": "FORESHORE TANK LITTLEHAMPTON",
          "isImpacting": true,
          "overFlowSiteId": 109390
        }
      ]
    }
  ]
}