{
  "currentPage": 312,
  "totalItems": 18701,
  "totalPages": 749,
  "items": [
    {
      "id": 343980223,
      "eventId": 812807,
      "siteUnitNumber": 12587,
      "bathingSite": "SOUTHWICK",
      "eventStart": "2023-02-14T05:33:59",
      "eventStop": "2023-02-14T05:38:50",
      "duration": 4,
      "status": "Genuine",
      "associatedSiteId": 109929,
      "outfallName": "SHOREHAM NO1",
      "isImpacting": true,
      "overFlowSiteId": 0,
      "historicSpillsList": [
        {
          "id": 343980223,
          "eventId": 812807,
          "siteUnitNumber": 12587,
          "bathingSite": "SOUTHWICK",
          "eventStart": "2023-02-14T05:33:59",
          "eventStop": "2023-02-14T05:38:50",
          "duration": 4,
          "status": "Genuine",
          "associatedSiteId": 109929,
          "outfallName": "SHOREHAM NO1",
          "isImpacting": true,
          "overFlowSiteId": 115434
        },
        {
          "id": 343980224,
          "eventId": 812807,
          "siteUnitNumber": 12588,
          "bathingSite": "SHOREHAM BEACH",
          "eventStart": "2023-02-14T05:33:59",
          "eventStop": "2023-02-14T05:38:50",
          "duration": 4,
          "status": "Genuine",
          "associatedSiteId": 109929,
          "outfallName": "SHOREHAM NO1",
          "isImpacting": true,
          "overFlowSiteId": 115434,
          "historicSpillsList": []
        },
        {
          "id": 343980231,
          "eventId": 812807,
          "siteUnitNumber": 12586,
          "bathingSite": "HOVE",
          "eventStart": "2023-02-14T05:33:59",
          "eventStop": "2023-02-14T05:38:50",
          "duration": 4,
          "status": "Genuine",
          "associatedSiteId": 109929,
          "outfallName": "SHOREHAM NO1",
          "isImpacting": true,
          "overFlowSiteId": 115434,
          "historicSpillsList": []
        }
      ]
    },
    {
      "id": 343980228,
      "eventId": 812806,
      "siteUnitNumber": 12586,
      "bathingSite": "HOVE",
      "eventStart": "2023-02-14T03:45:00",
      "eventStop": "2023-02-14T03:47:00",
      "duration": 2,
      "status": "Genuine",
      "associatedSiteId": 109929,
      "outfallName": "SHOREHAM NO1",
      "isImpacting": true,
      "overFlowSiteId": 0,
      "historicSpillsList": [
        {
          "id": 343980228,
          "eventId": 812806,
          "siteUnitNumber": 12586,
          "bathingSite": "HOVE",
          "eventStart": "2023-02-14T03:45:00",
          "eventStop": "2023-02-14T03:47:00",
          "duration": 2,
          "status": "Genuine",
          "associatedSiteId": 109929,
          "outfallName": "SHOREHAM NO1",
          "isImpacting": true,
          "overFlowSiteId": 115434
        },
        {
          "id": 343980229,
          "eventId": 812806,
          "siteUnitNumber": 12587,
          "bathingSite": "SOUTHWICK",
          "eventStart": "2023-02-14T03:45:00",
          "eventStop": "2023-02-14T03:47:00",
          "duration": 2,
          "status": "Genuine",
          "associatedSiteId": 109929,
          "outfallName": "SHOREHAM NO1",
          "isImpacting": true,
          "overFlowSiteId": 115434,
          "historicSpillsList": []
        },
        {
          "id": 343980230,
          "eventId": 812806,
          "siteUnitNumber": 12588,
          "bathingSite": "SHOREHAM BEACH",
          "eventStart": "2023-02-14T03:45:00",
          "eventStop": "2023-02-14T03:47:00",
          "duration": 2,
          "status": "Genuine",
          "associatedSiteId": 109929,
          "outfallName": "SHOREHAM NO1",
          "isImpacting": true,
          "overFlowSiteId": 115434,
          "historicSpillsList": []
        }
      ]
    },
    {
      "id": 343980234,
      "eventId": 812805,
      "siteUnitNumber": 12586,
      "bathingSite": "HOVE",
      "eventStart": "2023-02-14T02:07:55",
      "eventStop": "2023-02-14T02:13:25",
      "duration": 5,
      "status": "Genuine",
      "associatedSiteId": 109929,
      "outfallName": "SHOREHAM NO1",
      "isImpacting": true,
      "overFlowSiteId": 0,
      "historicSpillsList": [
        {
          "id": 343980234,
          "eventId": 812805,
          "siteUnitNumber": 12586,
          "bathingSite": "HOVE",
          "eventStart": "2023-02-14T02:07:55",
          "eventStop": "2023-02-14T02:13:25",
          "duration": 5,
          "status": "Genuine",
          "associatedSiteId": 109929,
          "outfallName": "SHOREHAM NO1",
          "isImpacting": true,
          "overFlowSiteId": 115434
        },
        {
          "id": 343980235,
          "eventId": 812805,
          "siteUnitNumber": 12587,
          "bathingSite": "SOUTHWICK",
          "eventStart": "2023-02-14T02:07:55",
          "eventStop": "2023-02-14T02:13:25",
          "duration": 5,
          "status": "Genuine",
          "associatedSiteId": 109929,
          "outfallName": "SHOREHAM NO1",
          "isImpacting": true,
          "overFlowSiteId": 115434,
          "historicSpillsList": []
        },
        {
          "id": 343980236,
          "eventId": 812805,
          "siteUnitNumber": 12588,
          "bathingSite": "SHOREHAM BEACH",
          "eventStart": "2023-02-14T02:07:55",
          "eventStop": "2023-02-14T02:13:25",
          "duration": 5,
          "status": "Genuine",
          "associatedSiteId": 109929,
          "outfallName": "SHOREHAM NO1",
          "isImpacting": true,
          "overFlowSiteId": 115434,
          "historicSpillsList": []
        }
      ]
    },
    {
      "id": 343980232,
      "eventId": 812804,
      "siteUnitNumber": 12587,
      "bathingSite": "SOUTHWICK",
      "eventStart": "2023-02-13T21:24:34",
      "eventStop": "2023-02-13T21:32:00",
      "duration": 7,
      "status": "Genuine",
      "associatedSiteId": 109929,
      "outfallName": "SHOREHAM NO1",
      "isImpacting": true,
      "overFlowSiteId": 0,
      "historicSpillsList": [
        {
          "id": 343980232,
          "eventId": 812804,
          "siteUnitNumber": 12587,
          "bathingSite": "SOUTHWICK",
          "eventStart": "2023-02-13T21:24:34",
          "eventStop": "2023-02-13T21:32:00",
          "duration": 7,
          "status": "Genuine",
          "associatedSiteId": 109929,
          "outfallName": "SHOREHAM NO1",
          "isImpacting": true,
          "overFlowSiteId": 115434
        },
        {
          "id": 343980233,
          "eventId": 812804,
          "siteUnitNumber": 12588,
          "bathingSite": "SHOREHAM BEACH",
          "eventStart": "2023-02-13T21:24:34",
          "eventStop": "2023-02-13T21:32:00",
          "duration": 7,
          "status": "Genuine",
          "associatedSiteId": 109929,
          "outfallName": "SHOREHAM NO1",
          "isImpacting": true,
          "overFlowSiteId": 115434,
          "historicSpillsList": []
        },
        {
          "id": 343980240,
          "eventId": 812804,
          "siteUnitNumber": 12586,
          "bathingSite": "HOVE",
          "eventStart": "2023-02-13T21:24:34",
          "eventStop": "2023-02-13T21:32:00",
          "duration": 7,
          "status": "Genuine",
          "associatedSiteId": 109929,
          "outfallName": "SHOREHAM NO1",
          "isImpacting": true,
          "overFlowSiteId": 115434,
          "historicSpillsList": []
        }
      ]
    },
    {
      "id": 343980237,
      "eventId": 812803,
      "siteUnitNumber": 12586,
      "bathingSite": "HOVE",
      "eventStart": "2023-02-13T20:42:05",
      "eventStop": "2023-02-13T21:08:00",
      "duration": 25,
      "status": "Genuine",
      "associatedSiteId": 109929,
      "outfallName": "SHOREHAM NO1",
      "isImpacting": true,
      "overFlowSiteId": 0,
      "historicSpillsList": [
        {
          "id": 343980237,
          "eventId": 812803,
          "siteUnitNumber": 12586,
          "bathingSite": "HOVE",
          "eventStart": "2023-02-13T20:42:05",
          "eventStop": "2023-02-13T21:08:00",
          "duration": 25,
          "status": "Genuine",
          "associatedSiteId": 109929,
          "outfallName": "SHOREHAM NO1",
          "isImpacting": true,
          "overFlowSiteId": 115434
        },
        {
          "id": 343980238,
          "eventId": 812803,
          "siteUnitNumber": 12587,
          "bathingSite": "SOUTHWICK",
          "eventStart": "2023-02-13T20:42:05",
          "eventStop": "2023-02-13T21:08:00",
          "duration": 25,
          "status": "Genuine",
          "associatedSiteId": 109929,
          "outfallName": "SHOREHAM NO1",
          "isImpacting": true,
          "overFlowSiteId": 115434,
          "historicSpillsList": []
        },
        {
          "id": 343980239,
          "eventId": 812803,
          "siteUnitNumber": 12588,
          "bathingSite": "SHOREHAM BEACH",
          "eventStart": "2023-02-13T20:42:05",
          "eventStop": "2023-02-13T21:08:00",
          "duration": 25,
          "status": "Genuine",
          "associatedSiteId": 109929,
          "outfallName": "SHOREHAM NO1",
          "isImpacting": true,
          "overFlowSiteId": 115434,
          "historicSpillsList": []
        }
      ]
    },
    {
      "id": 343980243,
      "eventId": 812802,
      "siteUnitNumber": 12586,
      "bathingSite": "HOVE",
      "eventStart": "2023-02-13T09:30:00",
      "eventStop": "2023-02-13T09:45:00",
      "duration": 15,
      "status": "Genuine",
      "associatedSiteId": 109929,
      "outfallName": "SHOREHAM NO1",
      "isImpacting": true,
      "overFlowSiteId": 0,
      "historicSpillsList": [
        {
          "id": 343980243,
          "eventId": 812802,
          "siteUnitNumber": 12586,
          "bathingSite": "HOVE",
          "eventStart": "2023-02-13T09:30:00",
          "eventStop": "2023-02-13T09:45:00",
          "duration": 15,
          "status": "Genuine",
          "associatedSiteId": 109929,
          "outfallName": "SHOREHAM NO1",
          "isImpacting": true,
          "overFlowSiteId": 115434
        },
        {
          "id": 343980244,
          "eventId": 812802,
          "siteUnitNumber": 12587,
          "bathingSite": "SOUTHWICK",
          "eventStart": "2023-02-13T09:30:00",
          "eventStop": "2023-02-13T09:45:00",
          "duration": 15,
          "status": "Genuine",
          "associatedSiteId": 109929,
          "outfallName": "SHOREHAM NO1",
          "isImpacting": true,
          "overFlowSiteId": 115434,
          "historicSpillsList": []
        },
        {
          "id": 343980245,
          "eventId": 812802,
          "siteUnitNumber": 12588,
          "bathingSite": "SHOREHAM BEACH",
          "eventStart": "2023-02-13T09:30:00",
          "eventStop": "2023-02-13T09:45:00",
          "duration": 15,
          "status": "Genuine",
          "associatedSiteId": 109929,
          "outfallName": "SHOREHAM NO1",
          "isImpacting": true,
          "overFlowSiteId": 115434,
          "historicSpillsList": []
        }
      ]
    },
    {
      "id": 343992404,
      "eventId": 756239,
      "siteUnitNumber": 12625,
      "bathingSite": "SHANKLIN",
      "eventStart": "2023-02-09T09:32:00",
      "eventStop": "2023-02-09T10:46:00",
      "duration": 74,
      "status": "Genuine",
      "associatedSiteId": 110097,
      "outfallName": "SANDOWN NO2",
      "isImpacting": true,
      "overFlowSiteId": 0,
      "historicSpillsList": [
        {
          "id": 343992408,
          "eventId": 756239,
          "siteUnitNumber": 12623,
          "bathingSite": "YAVERLAND",
          "eventStart": "2023-02-09T09:32:00",
          "eventStop": "2023-02-09T10:46:00",
          "duration": 74,
          "status": "Genuine",
          "associatedSiteId": 110097,
          "outfallName": "SANDOWN NO2",
          "isImpacting": true,
          "overFlowSiteId": 115454,
          "historicSpillsList": []
        }
      ]
    },
    {
      "id": 343997095,
      "eventId": 755317,
      "siteUnitNumber": 12582,
      "bathingSite": "SEAFORD",
      "eventStart": "2023-02-07T18:39:58",
      "eventStop": "2023-02-07T18:49:08",
      "duration": 9,
      "status": "Genuine",
      "associatedSiteId": 110920,
      "outfallName": "NEWHAVEN",
      "isImpacting": false,
      "overFlowSiteId": 0,
      "historicSpillsList": []
    },
    {
      "id": 343982352,
      "eventId": 752362,
      "siteUnitNumber": 12582,
      "bathingSite": "SEAFORD",
      "eventStart": "2023-02-01T21:45:00",
      "eventStop": "2023-02-01T22:00:00",
      "duration": 15,
      "status": "Genuine",
      "associatedSiteId": 109957,
      "outfallName": "PORTOBELLO BRIGHTON NO2",
      "isImpacting": false,
      "overFlowSiteId": 0,
      "historicSpillsList": []
    },
    {
      "id": 343985444,
      "eventId": 750496,
      "siteUnitNumber": 12591,
      "bathingSite": "LITTLEHAMPTON",
      "eventStart": "2023-01-30T09:40:00",
      "eventStop": "2023-01-30T11:08:00",
      "duration": 88,
      "status": "Genuine",
      "associatedSiteId": 109965,
      "outfallName": "SEA ROAD LITTLEHAMPTON",
      "isImpacting": false,
      "overFlowSiteId": 0,
      "historicSpillsList": []
    },
    {
      "id": 343985443,
      "eventId": 750486,
      "siteUnitNumber": 12591,
      "bathingSite": "LITTLEHAMPTON",
      "eventStart": "2023-01-30T00:08:00",
      "eventStop": "2023-01-30T00:44:00",
      "duration": 36,
      "status": "Genuine",
      "associatedSiteId": 109965,
      "outfallName": "SEA ROAD LITTLEHAMPTON",
      "isImpacting": false,
      "overFlowSiteId": 0,
      "historicSpillsList": []
    },
    {
      "id": 343985442,
      "eventId": 750485,
      "siteUnitNumber": 12591,
      "bathingSite": "LITTLEHAMPTON",
      "eventStart": "2023-01-29T13:19:00",
      "eventStop": "2023-01-29T17:02:00",
      "duration": 223,
      "status": "Genuine",
      "associatedSiteId": 109965,
      "outfallName": "SEA ROAD LITTLEHAMPTON",
      "isImpacting": false,
      "overFlowSiteId": 0,
      "historicSpillsList": []
    },
    {
      "id": 343985460,
      "eventId": 749487,
      "siteUnitNumber": 12591,
      "bathingSite": "LITTLEHAMPTON",
      "eventStart": "2023-01-29T10:46:00",
      "eventStop": "2023-01-29T12:34:00",
      "duration": 108,
      "status": "Genuine",
      "associatedSiteId": 109965,
      "outfallName": "SEA ROAD LITTLEHAMPTON",
      "isImpacting": false,
      "overFlowSiteId": 0,
      "historicSpillsList": []
    },
    {
      "id": 343985447,
      "eventId": 750484,
      "siteUnitNumber": 12591,
      "bathingSite": "LITTLEHAMPTON",
      "eventStart": "2023-01-28T14:59:00",
      "eventStop": "2023-01-28T22:59:00",
      "duration": 480,
      "status": "Genuine",
      "associatedSiteId": 109965,
      "outfallName": "SEA ROAD LITTLEHAMPTON",
      "isImpacting": false,
      "overFlowSiteId": 0,
      "historicSpillsList": []
    },
    {
      "id": 343985465,
      "eventId": 748675,
      "siteUnitNumber": 12591,
      "bathingSite": "LITTLEHAMPTON",
      "eventStart": "2023-01-28T09:52:00",
      "eventStop": "2023-01-28T13:18:00",
      "duration": 206,
      "status": "Genuine",
      "associatedSiteId": 109965,
      "outfallName": "SEA ROAD LITTLEHAMPTON",
      "isImpacting": false,
      "overFlowSiteId": 0,
      "historicSpillsList": []
    },
    {
      "id": 343985446,
      "eventId": 750479,
      "siteUnitNumber": 12591,
      "bathingSite": "LITTLEHAMPTON",
      "eventStart": "2023-01-27T21:40:00",
      "eventStop": "2023-01-28T00:43:00",
      "duration": 183,
      "status": "Genuine",
      "associatedSiteId": 109965,
      "outfallName": "SEA ROAD LITTLEHAMPTON",
      "isImpacting": false,
      "overFlowSiteId": 0,
      "historicSpillsList": []
    },
    {
      "id": 343980249,
      "eventId": 756324,
      "siteUnitNumber": 12586,
      "bathingSite": "HOVE",
      "eventStart": "2023-01-27T20:38:00",
      "eventStop": "2023-01-27T21:14:00",
      "duration": 36,
      "status": "Genuine",
      "associatedSiteId": 109929,
      "outfallName": "SHOREHAM NO1",
      "isImpacting": true,
      "overFlowSiteId": 0,
      "historicSpillsList": [
        {
          "id": 343980249,
          "eventId": 756324,
          "siteUnitNumber": 12586,
          "bathingSite": "HOVE",
          "eventStart": "2023-01-27T20:38:00",
          "eventStop": "2023-01-27T21:14:00",
          "duration": 36,
          "status": "Genuine",
          "associatedSiteId": 109929,
          "outfallName": "SHOREHAM NO1",
          "isImpacting": true,
          "overFlowSiteId": 115434
        },
        {
          "id": 343980241,
          "eventId": 756324,
          "siteUnitNumber": 12587,
          "bathingSite": "SOUTHWICK",
          "eventStart": "2023-01-27T20:38:00",
          "eventStop": "2023-01-27T21:14:00",
          "duration": 36,
          "status": "Genuine",
          "associatedSiteId": 109929,
          "outfallName": "SHOREHAM NO1",
          "isImpacting": true,
          "overFlowSiteId": 115434,
          "historicSpillsList": []
        },
        {
          "id": 343980242,
          "eventId": 756324,
          "siteUnitNumber": 12588,
          "bathingSite": "SHOREHAM BEACH",
          "eventStart": "2023-01-27T20:38:00",
          "eventStop": "2023-01-27T21:14:00",
          "duration": 36,
          "status": "Genuine",
          "associatedSiteId": 109929,
          "outfallName": "SHOREHAM NO1",
          "isImpacting": true,
          "overFlowSiteId": 115434,
          "historicSpillsList": []
        }
      ]
    },
    {
      "id": 343985445,
      "eventId": 750478,
      "siteUnitNumber": 12591,
      "bathingSite": "LITTLEHAMPTON",
      "eventStart": "2023-01-27T18:22:00",
      "eventStop": "2023-01-27T20:18:00",
      "duration": 116,
      "status": "Genuine",
      "associatedSiteId": 109965,
      "outfallName": "SEA ROAD LITTLEHAMPTON",
      "isImpacting": false,
      "overFlowSiteId": 0,
      "historicSpillsList": []
    },
    {
      "id": 343980246,
      "eventId": 756323,
      "siteUnitNumber": 12586,
      "bathingSite": "HOVE",
      "eventStart": "2023-01-27T17:43:00",
      "eventStop": "2023-01-27T17:53:00",
      "duration": 10,
      "status": "Genuine",
      "associatedSiteId": 109929,
      "outfallName": "SHOREHAM NO1",
      "isImpacting": true,
      "overFlowSiteId": 0,
      "historicSpillsList": [
        {
          "id": 343980246,
          "eventId": 756323,
          "siteUnitNumber": 12586,
          "bathingSite": "HOVE",
          "eventStart": "2023-01-27T17:43:00",
          "eventStop": "2023-01-27T17:53:00",
          "duration": 10,
          "status": "Genuine",
          "associatedSiteId": 109929,
          "outfallName": "SHOREHAM NO1",
          "isImpacting": true,
          "overFlowSiteId": 115434
        },
        {
          "id": 343980247,
          "eventId": 756323,
          "siteUnitNumber": 12587,
          "bathingSite": "SOUTHWICK",
          "eventStart": "2023-01-27T17:43:00",
          "eventStop": "2023-01-27T17:53:00",
          "duration": 10,
          "status": "Genuine",
          "associatedSiteId": 109929,
          "outfallName": "SHOREHAM NO1",
          "isImpacting": true,
          "overFlowSiteId": 115434,
          "historicSpillsList": []
        },
        {
          "id": 343980248,
          "eventId": 756323,
          "siteUnitNumber": 12588,
          "bathingSite": "SHOREHAM BEACH",
          "eventStart": "2023-01-27T17:43:00",
          "eventStop": "2023-01-27T17:53:00",
          "duration": 10,
          "status": "Genuine",
          "associatedSiteId": 109929,
          "outfallName": "SHOREHAM NO1",
          "isImpacting": true,
          "overFlowSiteId": 115434,
          "historicSpillsList": []
        }
      ]
    },
    {
      "id": 343985464,
      "eventId": 747782,
      "siteUnitNumber": 12591,
      "bathingSite": "LITTLEHAMPTON",
      "eventStart": "2023-01-27T09:45:00",
      "eventStop": "2023-01-27T17:52:00",
      "duration": 487,
      "status": "Genuine",
      "associatedSiteId": 109965,
      "outfallName": "SEA ROAD LITTLEHAMPTON",
      "isImpacting": true,
      "overFlowSiteId": 0,
      "historicSpillsList": [
        {
          "id": 343985464,
          "eventId": 747782,
          "siteUnitNumber": 12591,
          "bathingSite": "LITTLEHAMPTON",
          "eventStart": "2023-01-27T09:45:00",
          "eventStop": "2023-01-27T17:52:00",
          "duration": 487,
          "status": "Genuine",
          "associatedSiteId": 109965,
          "outfallName": "SEA ROAD LITTLEHAMPTON",
          "isImpacting": true,
          "overFlowSiteId": 109368
        }
      ]
    },
    {
      "id": 343980252,
      "eventId": 756320,
      "siteUnitNumber": 12586,
      "bathingSite": "HOVE",
      "eventStart": "2023-01-27T17:04:00",
      "eventStop": "2023-01-27T17:08:00",
      "duration": 4,
      "status": "Genuine",
      "associatedSiteId": 109929,
      "outfallName": "SHOREHAM NO1",
      "isImpacting": true,
      "overFlowSiteId": 0,
      "historicSpillsList": [
        {
          "id": 343980252,
          "eventId": 756320,
          "siteUnitNumber": 12586,
          "bathingSite": "HOVE",
          "eventStart": "2023-01-27T17:04:00",
          "eventStop": "2023-01-27T17:08:00",
          "duration": 4,
          "status": "Genuine",
          "associatedSiteId": 109929,
          "outfallName": "SHOREHAM NO1",
          "isImpacting": true,
          "overFlowSiteId": 115434
        },
        {
          "id": 343980253,
          "eventId": 756320,
          "siteUnitNumber": 12587,
          "bathingSite": "SOUTHWICK",
          "eventStart": "2023-01-27T17:04:00",
          "eventStop": "2023-01-27T17:08:00",
          "duration": 4,
          "status": "Genuine",
          "associatedSiteId": 109929,
          "outfallName": "SHOREHAM NO1",
          "isImpacting": true,
          "overFlowSiteId": 115434,
          "historicSpillsList": []
        },
        {
          "id": 343980254,
          "eventId": 756320,
          "siteUnitNumber": 12588,
          "bathingSite": "SHOREHAM BEACH",
          "eventStart": "2023-01-27T17:04:00",
          "eventStop": "2023-01-27T17:08:00",
          "duration": 4,
          "status": "Genuine",
          "associatedSiteId": 109929,
          "outfallName": "SHOREHAM NO1",
          "isImpacting": true,
          "overFlowSiteId": 115434,
          "historicSpillsList": []
        }
      ]
    },
    {
      "id": 343967092,
      "eventId": 747290,
      "siteUnitNumber": 12607,
      "bathingSite": "HILLHEAD",
      "eventStart": "2023-01-26T14:10:48",
      "eventStop": "2023-01-26T15:23:57",
      "duration": 73,
      "status": "Genuine",
      "associatedSiteId": 109716,
      "outfallName": "CROFTON TITCHFIELD",
      "isImpacting": false,
      "overFlowSiteId": 0,
      "historicSpillsList": []
    },
    {
      "id": 343985450,
      "eventId": 750477,
      "siteUnitNumber": 12591,
      "bathingSite": "LITTLEHAMPTON",
      "eventStart": "2023-01-26T09:39:00",
      "eventStop": "2023-01-26T10:39:00",
      "duration": 60,
      "status": "Genuine",
      "associatedSiteId": 109965,
      "outfallName": "SEA ROAD LITTLEHAMPTON",
      "isImpacting": false,
      "overFlowSiteId": 0,
      "historicSpillsList": []
    },
    {
      "id": 343972576,
      "eventId": 746404,
      "siteUnitNumber": 12548,
      "bathingSite": "TANKERTON",
      "eventStart": "2023-01-25T19:55:00",
      "eventStop": "2023-01-26T03:46:00",
      "duration": 471,
      "status": "Genuine",
      "associatedSiteId": 109830,
      "outfallName": "SWALECLIFFE NO1",
      "isImpacting": true,
      "overFlowSiteId": 0,
      "historicSpillsList": [
        {
          "id": 343972576,
          "eventId": 746404,
          "siteUnitNumber": 12548,
          "bathingSite": "TANKERTON",
          "eventStart": "2023-01-25T19:55:00",
          "eventStop": "2023-01-26T03:46:00",
          "duration": 471,
          "status": "Genuine",
          "associatedSiteId": 109830,
          "outfallName": "SWALECLIFFE NO1",
          "isImpacting": true,
          "overFlowSiteId": 115444
        },
        {
          "id": 343972577,
          "eventId": 746404,
          "siteUnitNumber": 12549,
          "bathingSite": "HERNE BAY CENTRAL",
          "eventStart": "2023-01-25T19:55:00",
          "eventStop": "2023-01-26T03:46:00",
          "duration": 471,
          "status": "Genuine",
          "associatedSiteId": 109830,
          "outfallName": "SWALECLIFFE NO1",
          "isImpacting": true,
          "overFlowSiteId": 115444,
          "historicSpillsList": []
        }
      ]
    },
    {
      "id": 343978322,
      "eventId": 746505,
      "siteUnitNumber": 12576,
      "bathingSite": "ST LEONARDS",
      "eventStart": "2023-01-25T21:53:22",
      "eventStop": "2023-01-26T02:43:50",
      "duration": 290,
      "status": "Genuine",
      "associatedSiteId": 109903,
      "outfallName": "BEXHILL & HASTINGS NO2",
      "isImpacting": true,
      "overFlowSiteId": 0,
      "historicSpillsList": [
        {
          "id": 343978322,
          "eventId": 746505,
          "siteUnitNumber": 12576,
          "bathingSite": "ST LEONARDS",
          "eventStart": "2023-01-25T21:53:22",
          "eventStop": "2023-01-26T02:43:50",
          "duration": 290,
          "status": "Genuine",
          "associatedSiteId": 109903,
          "outfallName": "BEXHILL & HASTINGS NO2",
          "isImpacting": true,
          "overFlowSiteId": 115398
        },
        {
          "id": 343978323,
          "eventId": 746505,
          "siteUnitNumber": 12577,
          "bathingSite": "BEXHILL",
          "eventStart": "2023-01-25T21:53:22",
          "eventStop": "2023-01-26T02:43:50",
          "duration": 290,
          "status": "Genuine",
          "associatedSiteId": 109903,
          "outfallName": "BEXHILL & HASTINGS NO2",
          "isImpacting": true,
          "overFlowSiteId": 115398,
          "historicSpillsList": []
        }
      ]
    }
  ]
}