{
  "currentPage": 179,
  "totalItems": 18701,
  "totalPages": 749,
  "items": [
    {
      "id": 343939610,
      "eventId": 874716,
      "siteUnitNumber": 12582,
      "bathingSite": "SEAFORD",
      "eventStart": "2023-10-20T02:50:40",
      "eventStop": "2023-10-20T02:56:44",
      "duration": 6,
      "status": "Genuine",
      "associatedSiteId": 109957,
      "outfallName": "PORTOBELLO BRIGHTON NO2",
      "isImpacting": true,
      "overFlowSiteId": 0,
      "historicSpillsList": [
        {
          "id": 343939611,
          "eventId": 874716,
          "siteUnitNumber": 12583,
          "bathingSite": "SALTDEAN",
          "eventStart": "2023-10-20T02:50:40",
          "eventStop": "2023-10-20T02:56:44",
          "duration": 6,
          "status": "Genuine",
          "associatedSiteId": 109957,
          "outfallName": "PORTOBELLO BRIGHTON NO2",
          "isImpacting": true,
          "overFlowSiteId": 116012,
          "historicSpillsList": []
        }
      ]
    },
    {
      "id": 343939608,
      "eventId": 874689,
      "siteUnitNumber": 12582,
      "bathingSite": "SEAFORD",
      "eventStart": "2023-10-20T02:40:51",
      "eventStop": "2023-10-20T02:44:51",
      "duration": 4,
      "status": "Genuine",
      "associatedSiteId": 109957,
      "outfallName": "PORTOBELLO BRIGHTON NO2",
      "isImpacting": true,
      "overFlowSiteId": 0,
      "historicSpillsList": [
        {
          "id": 343939609,
          "eventId": 874689,
          "siteUnitNumber": 12583,
          "bathingSite": "SALTDEAN",
          "eventStart": "2023-10-20T02:40:51",
          "eventStop": "2023-10-20T02:44:51",
          "duration": 4,
          "status": "Genuine",
          "associatedSiteId": 109957,
          "outfallName": "PORTOBELLO BRIGHTON NO2",
          "isImpacting": true,
          "overFlowSiteId": 116012,
          "historicSpillsList": []
        }
      ]
    },
    {
      "id": 343929807,
      "eventId": 874608,
      "siteUnitNumber": 12548,
      "bathingSite": "TANKERTON",
      "eventStart": "2023-10-20T01:20:21",
      "eventStop": "2023-10-20T02:29:00",
      "duration": 68,
      "status": "Genuine",
      "associatedSiteId": 109830,
      "outfallName": "SWALECLIFFE NO1",
      "isImpacting": true,
      "overFlowSiteId": 0,
      "historicSpillsList": [
        {
          "id": 343929808,
          "eventId": 874608,
          "siteUnitNumber": 12549,
          "bathingSite": "HERNE BAY CENTRAL",
          "eventStart": "2023-10-20T01:20:21",
          "eventStop": "2023-10-20T02:29:00",
          "duration": 68,
          "status": "Genuine",
          "associatedSiteId": 109830,
          "outfallName": "SWALECLIFFE NO1",
          "isImpacting": true,
          "overFlowSiteId": 115444,
          "historicSpillsList": []
        }
      ]
    },
    {
      "id": 343939612,
      "eventId": 874677,
      "siteUnitNumber": 12582,
      "bathingSite": "SEAFORD",
      "eventStart": "2023-10-20T02:25:05",
      "eventStop": "2023-10-20T02:28:51",
      "duration": 3,
      "status": "Genuine",
      "associatedSiteId": 109957,
      "outfallName": "PORTOBELLO BRIGHTON NO2",
      "isImpacting": true,
      "overFlowSiteId": 0,
      "historicSpillsList": [
        {
          "id": 343939613,
          "eventId": 874677,
          "siteUnitNumber": 12583,
          "bathingSite": "SALTDEAN",
          "eventStart": "2023-10-20T02:25:05",
          "eventStop": "2023-10-20T02:28:51",
          "duration": 3,
          "status": "Genuine",
          "associatedSiteId": 109957,
          "outfallName": "PORTOBELLO BRIGHTON NO2",
          "isImpacting": true,
          "overFlowSiteId": 116012,
          "historicSpillsList": []
        }
      ]
    },
    {
      "id": 343939616,
      "eventId": 874669,
      "siteUnitNumber": 12582,
      "bathingSite": "SEAFORD",
      "eventStart": "2023-10-20T02:16:33",
      "eventStop": "2023-10-20T02:21:59",
      "duration": 5,
      "status": "Genuine",
      "associatedSiteId": 109957,
      "outfallName": "PORTOBELLO BRIGHTON NO2",
      "isImpacting": true,
      "overFlowSiteId": 0,
      "historicSpillsList": [
        {
          "id": 343939617,
          "eventId": 874669,
          "siteUnitNumber": 12583,
          "bathingSite": "SALTDEAN",
          "eventStart": "2023-10-20T02:16:33",
          "eventStop": "2023-10-20T02:21:59",
          "duration": 5,
          "status": "Genuine",
          "associatedSiteId": 109957,
          "outfallName": "PORTOBELLO BRIGHTON NO2",
          "isImpacting": true,
          "overFlowSiteId": 116012,
          "historicSpillsList": []
        }
      ]
    },
    {
      "id": 343938724,
      "eventId": 874204,
      "siteUnitNumber": 12620,
      "bathingSite": "ST HELENS",
      "eventStart": "2023-10-19T22:35:00",
      "eventStop": "2023-10-20T02:19:00",
      "duration": 224,
      "status": "Genuine",
      "associatedSiteId": 109939,
      "outfallName": "LANE END ROAD BEMBRIDGE",
      "isImpacting": true,
      "overFlowSiteId": 0,
      "historicSpillsList": [
        {
          "id": 343938725,
          "eventId": 874204,
          "siteUnitNumber": 12621,
          "bathingSite": "BEMBRIDGE",
          "eventStart": "2023-10-19T22:35:00",
          "eventStop": "2023-10-20T02:19:00",
          "duration": 224,
          "status": "Genuine",
          "associatedSiteId": 109939,
          "outfallName": "LANE END ROAD BEMBRIDGE",
          "isImpacting": true,
          "overFlowSiteId": 108533,
          "historicSpillsList": []
        }
      ]
    },
    {
      "id": 343939614,
      "eventId": 874433,
      "siteUnitNumber": 12582,
      "bathingSite": "SEAFORD",
      "eventStart": "2023-10-19T22:40:21",
      "eventStop": "2023-10-20T02:13:00",
      "duration": 212,
      "status": "Genuine",
      "associatedSiteId": 109957,
      "outfallName": "PORTOBELLO BRIGHTON NO2",
      "isImpacting": true,
      "overFlowSiteId": 0,
      "historicSpillsList": [
        {
          "id": 343939614,
          "eventId": 874433,
          "siteUnitNumber": 12582,
          "bathingSite": "SEAFORD",
          "eventStart": "2023-10-19T22:40:21",
          "eventStop": "2023-10-20T02:13:00",
          "duration": 212,
          "status": "Genuine",
          "associatedSiteId": 109957,
          "outfallName": "PORTOBELLO BRIGHTON NO2",
          "isImpacting": true,
          "overFlowSiteId": 116012
        },
        {
          "id": 343939615,
          "eventId": 874433,
          "siteUnitNumber": 12583,
          "bathingSite": "SALTDEAN",
          "eventStart": "2023-10-19T22:40:21",
          "eventStop": "2023-10-20T02:13:00",
          "duration": 212,
          "status": "Genuine",
          "associatedSiteId": 109957,
          "outfallName": "PORTOBELLO BRIGHTON NO2",
          "isImpacting": true,
          "overFlowSiteId": 116012,
          "historicSpillsList": []
        }
      ]
    },
    {
      "id": 343948905,
      "eventId": 876766,
      "siteUnitNumber": 12619,
      "bathingSite": "SEAGROVE",
      "eventStart": "2023-10-20T01:28:00",
      "eventStop": "2023-10-20T02:05:00",
      "duration": 37,
      "status": "Genuine",
      "associatedSiteId": 110097,
      "outfallName": "SANDOWN NO2",
      "isImpacting": true,
      "overFlowSiteId": 0,
      "historicSpillsList": [
        {
          "id": 343948898,
          "eventId": 876766,
          "siteUnitNumber": 12623,
          "bathingSite": "YAVERLAND",
          "eventStart": "2023-10-20T01:28:00",
          "eventStop": "2023-10-20T02:05:00",
          "duration": 37,
          "status": "Genuine",
          "associatedSiteId": 110097,
          "outfallName": "SANDOWN NO2",
          "isImpacting": true,
          "overFlowSiteId": 115454,
          "historicSpillsList": []
        },
        {
          "id": 343948899,
          "eventId": 876766,
          "siteUnitNumber": 12624,
          "bathingSite": "SANDOWN",
          "eventStart": "2023-10-20T01:28:00",
          "eventStop": "2023-10-20T02:05:00",
          "duration": 37,
          "status": "Genuine",
          "associatedSiteId": 110097,
          "outfallName": "SANDOWN NO2",
          "isImpacting": true,
          "overFlowSiteId": 115454,
          "historicSpillsList": []
        },
        {
          "id": 343948900,
          "eventId": 876766,
          "siteUnitNumber": 12625,
          "bathingSite": "SHANKLIN",
          "eventStart": "2023-10-20T01:28:00",
          "eventStop": "2023-10-20T02:05:00",
          "duration": 37,
          "status": "Genuine",
          "associatedSiteId": 110097,
          "outfallName": "SANDOWN NO2",
          "isImpacting": true,
          "overFlowSiteId": 115454,
          "historicSpillsList": []
        }
      ]
    },
    {
      "id": 343925769,
      "eventId": 874150,
      "siteUnitNumber": 12661,
      "bathingSite": "LANGSTONE HARBOUR",
      "eventStart": "2023-10-19T22:30:00",
      "eventStop": "2023-10-20T02:00:00",
      "duration": 210,
      "status": "Genuine",
      "associatedSiteId": 109773,
      "outfallName": "BUDDS FARM HAVANT NO2",
      "isImpacting": true,
      "overFlowSiteId": 0,
      "historicSpillsList": [
        {
          "id": 343925769,
          "eventId": 874150,
          "siteUnitNumber": 12661,
          "bathingSite": "LANGSTONE HARBOUR",
          "eventStart": "2023-10-19T22:30:00",
          "eventStop": "2023-10-20T02:00:00",
          "duration": 210,
          "status": "Genuine",
          "associatedSiteId": 109773,
          "outfallName": "BUDDS FARM HAVANT NO2",
          "isImpacting": true,
          "overFlowSiteId": 116279
        }
      ]
    },
    {
      "id": 343923367,
      "eventId": 874134,
      "siteUnitNumber": 12616,
      "bathingSite": "GURNARD",
      "eventStart": "2023-10-19T21:21:14",
      "eventStop": "2023-10-20T01:30:38",
      "duration": 249,
      "status": "Genuine",
      "associatedSiteId": 109705,
      "outfallName": "SPRINGHILL COWES TRANSFER",
      "isImpacting": true,
      "overFlowSiteId": 0,
      "historicSpillsList": [
        {
          "id": 343923368,
          "eventId": 874134,
          "siteUnitNumber": 12617,
          "bathingSite": "COWES",
          "eventStart": "2023-10-19T21:21:14",
          "eventStop": "2023-10-20T01:30:38",
          "duration": 249,
          "status": "Genuine",
          "associatedSiteId": 109705,
          "outfallName": "SPRINGHILL COWES TRANSFER",
          "isImpacting": true,
          "overFlowSiteId": 108943,
          "historicSpillsList": []
        }
      ]
    },
    {
      "id": 343957706,
      "eventId": 874509,
      "siteUnitNumber": 12614,
      "bathingSite": "TOTLAND BAY",
      "eventStart": "2023-10-19T21:45:00",
      "eventStop": "2023-10-20T01:30:00",
      "duration": 225,
      "status": "Genuine",
      "associatedSiteId": 115498,
      "outfallName": "NORTON TRANSFER IOW",
      "isImpacting": true,
      "overFlowSiteId": 0,
      "historicSpillsList": [
        {
          "id": 343957706,
          "eventId": 874509,
          "siteUnitNumber": 12614,
          "bathingSite": "TOTLAND BAY",
          "eventStart": "2023-10-19T21:45:00",
          "eventStop": "2023-10-20T01:30:00",
          "duration": 225,
          "status": "Genuine",
          "associatedSiteId": 115498,
          "outfallName": "NORTON TRANSFER IOW",
          "isImpacting": true,
          "overFlowSiteId": 108544
        },
        {
          "id": 343957707,
          "eventId": 874509,
          "siteUnitNumber": 12615,
          "bathingSite": "COLWELL BAY",
          "eventStart": "2023-10-19T21:45:00",
          "eventStop": "2023-10-20T01:30:00",
          "duration": 225,
          "status": "Genuine",
          "associatedSiteId": 115498,
          "outfallName": "NORTON TRANSFER IOW",
          "isImpacting": true,
          "overFlowSiteId": 108544,
          "historicSpillsList": []
        }
      ]
    },
    {
      "id": 343939043,
      "eventId": 875820,
      "siteUnitNumber": 12575,
      "bathingSite": "HASTINGS PELHAM BEACH",
      "eventStart": "2023-10-20T01:19:00",
      "eventStop": "2023-10-20T01:28:00",
      "duration": 9,
      "status": "Genuine",
      "associatedSiteId": 109950,
      "outfallName": "ST HELENS DOWN HASTINGS",
      "isImpacting": false,
      "overFlowSiteId": 0,
      "historicSpillsList": []
    },
    {
      "id": 343955110,
      "eventId": 874535,
      "siteUnitNumber": 12576,
      "bathingSite": "ST LEONARDS",
      "eventStart": "2023-10-20T01:07:08",
      "eventStop": "2023-10-20T01:24:00",
      "duration": 16,
      "status": "Genuine",
      "associatedSiteId": 111370,
      "outfallName": "YORK ROAD BEXHILL",
      "isImpacting": false,
      "overFlowSiteId": 0,
      "historicSpillsList": []
    },
    {
      "id": 343939041,
      "eventId": 875819,
      "siteUnitNumber": 12575,
      "bathingSite": "HASTINGS PELHAM BEACH",
      "eventStart": "2023-10-20T00:55:00",
      "eventStop": "2023-10-20T01:18:00",
      "duration": 23,
      "status": "Genuine",
      "associatedSiteId": 109950,
      "outfallName": "ST HELENS DOWN HASTINGS",
      "isImpacting": true,
      "overFlowSiteId": 0,
      "historicSpillsList": [
        {
          "id": 343939041,
          "eventId": 875819,
          "siteUnitNumber": 12575,
          "bathingSite": "HASTINGS PELHAM BEACH",
          "eventStart": "2023-10-20T00:55:00",
          "eventStop": "2023-10-20T01:18:00",
          "duration": 23,
          "status": "Genuine",
          "associatedSiteId": 109950,
          "outfallName": "ST HELENS DOWN HASTINGS",
          "isImpacting": true,
          "overFlowSiteId": 109050
        }
      ]
    },
    {
      "id": 343943210,
      "eventId": 874180,
      "siteUnitNumber": 12592,
      "bathingSite": "MIDDLETON-ON-SEA",
      "eventStart": "2023-10-19T22:17:00",
      "eventStop": "2023-10-20T01:14:00",
      "duration": 177,
      "status": "Genuine",
      "associatedSiteId": 109967,
      "outfallName": "GLOUCESTER ROAD BOGNOR",
      "isImpacting": true,
      "overFlowSiteId": 0,
      "historicSpillsList": [
        {
          "id": 343943211,
          "eventId": 874180,
          "siteUnitNumber": 12593,
          "bathingSite": "FELPHAM",
          "eventStart": "2023-10-19T22:17:00",
          "eventStop": "2023-10-20T01:14:00",
          "duration": 177,
          "status": "Genuine",
          "associatedSiteId": 109967,
          "outfallName": "GLOUCESTER ROAD BOGNOR",
          "isImpacting": true,
          "overFlowSiteId": 103299,
          "historicSpillsList": []
        }
      ]
    },
    {
      "id": 343939182,
      "eventId": 876850,
      "siteUnitNumber": 12583,
      "bathingSite": "SALTDEAN",
      "eventStart": "2023-10-20T01:07:00",
      "eventStop": "2023-10-20T01:11:00",
      "duration": 4,
      "status": "Genuine",
      "associatedSiteId": 109955,
      "outfallName": "PORTOBELLO BRIGHTON NO1",
      "isImpacting": true,
      "overFlowSiteId": 0,
      "historicSpillsList": [
        {
          "id": 343939182,
          "eventId": 876850,
          "siteUnitNumber": 12583,
          "bathingSite": "SALTDEAN",
          "eventStart": "2023-10-20T01:07:00",
          "eventStop": "2023-10-20T01:11:00",
          "duration": 4,
          "status": "Genuine",
          "associatedSiteId": 109955,
          "outfallName": "PORTOBELLO BRIGHTON NO1",
          "isImpacting": true,
          "overFlowSiteId": 111606
        }
      ]
    },
    {
      "id": 343948909,
      "eventId": 876761,
      "siteUnitNumber": 12619,
      "bathingSite": "SEAGROVE",
      "eventStart": "2023-10-19T20:22:00",
      "eventStop": "2023-10-20T01:03:00",
      "duration": 281,
      "status": "Genuine",
      "associatedSiteId": 110097,
      "outfallName": "SANDOWN NO2",
      "isImpacting": true,
      "overFlowSiteId": 0,
      "historicSpillsList": [
        {
          "id": 343948912,
          "eventId": 876761,
          "siteUnitNumber": 12623,
          "bathingSite": "YAVERLAND",
          "eventStart": "2023-10-19T20:22:00",
          "eventStop": "2023-10-20T01:03:00",
          "duration": 281,
          "status": "Genuine",
          "associatedSiteId": 110097,
          "outfallName": "SANDOWN NO2",
          "isImpacting": true,
          "overFlowSiteId": 115454,
          "historicSpillsList": []
        },
        {
          "id": 343948903,
          "eventId": 876761,
          "siteUnitNumber": 12624,
          "bathingSite": "SANDOWN",
          "eventStart": "2023-10-19T20:22:00",
          "eventStop": "2023-10-20T01:03:00",
          "duration": 281,
          "status": "Genuine",
          "associatedSiteId": 110097,
          "outfallName": "SANDOWN NO2",
          "isImpacting": true,
          "overFlowSiteId": 115454,
          "historicSpillsList": []
        },
        {
          "id": 343948904,
          "eventId": 876761,
          "siteUnitNumber": 12625,
          "bathingSite": "SHANKLIN",
          "eventStart": "2023-10-19T20:22:00",
          "eventStop": "2023-10-20T01:03:00",
          "duration": 281,
          "status": "Genuine",
          "associatedSiteId": 110097,
          "outfallName": "SANDOWN NO2",
          "isImpacting": true,
          "overFlowSiteId": 115454,
          "historicSpillsList": []
        }
      ]
    },
    {
      "id": 343937561,
      "eventId": 874182,
      "siteUnitNumber": 12586,
      "bathingSite": "HOVE",
      "eventStart": "2023-10-19T22:00:31",
      "eventStop": "2023-10-20T01:00:00",
      "duration": 179,
      "status": "Genuine",
      "associatedSiteId": 109929,
      "outfallName": "SHOREHAM NO1",
      "isImpacting": true,
      "overFlowSiteId": 0,
      "historicSpillsList": [
        {
          "id": 343937561,
          "eventId": 874182,
          "siteUnitNumber": 12586,
          "bathingSite": "HOVE",
          "eventStart": "2023-10-19T22:00:31",
          "eventStop": "2023-10-20T01:00:00",
          "duration": 179,
          "status": "Genuine",
          "associatedSiteId": 109929,
          "outfallName": "SHOREHAM NO1",
          "isImpacting": true,
          "overFlowSiteId": 115434
        },
        {
          "id": 343937562,
          "eventId": 874182,
          "siteUnitNumber": 12587,
          "bathingSite": "SOUTHWICK",
          "eventStart": "2023-10-19T22:00:31",
          "eventStop": "2023-10-20T01:00:00",
          "duration": 179,
          "status": "Genuine",
          "associatedSiteId": 109929,
          "outfallName": "SHOREHAM NO1",
          "isImpacting": true,
          "overFlowSiteId": 115434,
          "historicSpillsList": []
        },
        {
          "id": 343937563,
          "eventId": 874182,
          "siteUnitNumber": 12588,
          "bathingSite": "SHOREHAM BEACH",
          "eventStart": "2023-10-19T22:00:31",
          "eventStop": "2023-10-20T01:00:00",
          "duration": 179,
          "status": "Genuine",
          "associatedSiteId": 109929,
          "outfallName": "SHOREHAM NO1",
          "isImpacting": true,
          "overFlowSiteId": 115434,
          "historicSpillsList": []
        }
      ]
    },
    {
      "id": 343939049,
      "eventId": 874524,
      "siteUnitNumber": 12575,
      "bathingSite": "HASTINGS PELHAM BEACH",
      "eventStart": "2023-10-20T00:52:00",
      "eventStop": "2023-10-20T00:54:00",
      "duration": 2,
      "status": "Genuine",
      "associatedSiteId": 109950,
      "outfallName": "ST HELENS DOWN HASTINGS",
      "isImpacting": false,
      "overFlowSiteId": 0,
      "historicSpillsList": []
    },
    {
      "id": 343939181,
      "eventId": 876849,
      "siteUnitNumber": 12583,
      "bathingSite": "SALTDEAN",
      "eventStart": "2023-10-20T00:46:00",
      "eventStop": "2023-10-20T00:49:00",
      "duration": 3,
      "status": "Genuine",
      "associatedSiteId": 109955,
      "outfallName": "PORTOBELLO BRIGHTON NO1",
      "isImpacting": true,
      "overFlowSiteId": 0,
      "historicSpillsList": [
        {
          "id": 343939181,
          "eventId": 876849,
          "siteUnitNumber": 12583,
          "bathingSite": "SALTDEAN",
          "eventStart": "2023-10-20T00:46:00",
          "eventStop": "2023-10-20T00:49:00",
          "duration": 3,
          "status": "Genuine",
          "associatedSiteId": 109955,
          "outfallName": "PORTOBELLO BRIGHTON NO1",
          "isImpacting": true,
          "overFlowSiteId": 111606
        }
      ]
    },
    {
      "id": 343939184,
      "eventId": 876848,
      "siteUnitNumber": 12583,
      "bathingSite": "SALTDEAN",
      "eventStart": "2023-10-20T00:33:00",
      "eventStop": "2023-10-20T00:38:00",
      "duration": 5,
      "status": "Genuine",
      "associatedSiteId": 109955,
      "outfallName": "PORTOBELLO BRIGHTON NO1",
      "isImpacting": true,
      "overFlowSiteId": 0,
      "historicSpillsList": [
        {
          "id": 343939184,
          "eventId": 876848,
          "siteUnitNumber": 12583,
          "bathingSite": "SALTDEAN",
          "eventStart": "2023-10-20T00:33:00",
          "eventStop": "2023-10-20T00:38:00",
          "duration": 5,
          "status": "Genuine",
          "associatedSiteId": 109955,
          "outfallName": "PORTOBELLO BRIGHTON NO1",
          "isImpacting": true,
          "overFlowSiteId": 111606
        }
      ]
    },
    {
      "id": 343939622,
      "eventId": 874098,
      "siteUnitNumber": 12582,
      "bathingSite": "SEAFORD",
      "eventStart": "2023-10-19T22:00:00",
      "eventStop": "2023-10-20T00:30:00",
      "duration": 150,
      "status": "Genuine",
      "associatedSiteId": 109957,
      "outfallName": "PORTOBELLO BRIGHTON NO2",
      "isImpacting": false,
      "overFlowSiteId": 0,
      "historicSpillsList": []
    },
    {
      "id": 343918823,
      "eventId": 876212,
      "siteUnitNumber": 12616,
      "bathingSite": "GURNARD",
      "eventStart": "2023-10-20T00:23:00",
      "eventStop": "2023-10-20T00:28:00",
      "duration": 5,
      "status": "Genuine",
      "associatedSiteId": 109652,
      "outfallName": "WOODVALE TRANSFER NO1",
      "isImpacting": false,
      "overFlowSiteId": 0,
      "historicSpillsList": []
    },
    {
      "id": 343939183,
      "eventId": 876847,
      "siteUnitNumber": 12583,
      "bathingSite": "SALTDEAN",
      "eventStart": "2023-10-20T00:21:00",
      "eventStop": "2023-10-20T00:25:00",
      "duration": 4,
      "status": "Genuine",
      "associatedSiteId": 109955,
      "outfallName": "PORTOBELLO BRIGHTON NO1",
      "isImpacting": true,
      "overFlowSiteId": 0,
      "historicSpillsList": [
        {
          "id": 343939183,
          "eventId": 876847,
          "siteUnitNumber": 12583,
          "bathingSite": "SALTDEAN",
          "eventStart": "2023-10-20T00:21:00",
          "eventStop": "2023-10-20T00:25:00",
          "duration": 4,
          "status": "Genuine",
          "associatedSiteId": 109955,
          "outfallName": "PORTOBELLO BRIGHTON NO1",
          "isImpacting": true,
          "overFlowSiteId": 111606
        }
      ]
    },
    {
      "id": 343927425,
      "eventId": 877842,
      "siteUnitNumber": 12618,
      "bathingSite": "RYDE",
      "eventStart": "2023-10-19T22:09:00",
      "eventStop": "2023-10-20T00:18:00",
      "duration": 129,
      "status": "Genuine",
      "associatedSiteId": 109778,
      "outfallName": "PRINCE CONSORT RYDE NEW",
      "isImpacting": true,
      "overFlowSiteId": 0,
      "historicSpillsList": [
        {
          "id": 343927425,
          "eventId": 877842,
          "siteUnitNumber": 12618,
          "bathingSite": "RYDE",
          "eventStart": "2023-10-19T22:09:00",
          "eventStop": "2023-10-20T00:18:00",
          "duration": 129,
          "status": "Genuine",
          "associatedSiteId": 109778,
          "outfallName": "PRINCE CONSORT RYDE NEW",
          "isImpacting": true,
          "overFlowSiteId": 108043
        }
      ]
    }
  ]
}