{
  "currentPage": 466,
  "totalItems": 18701,
  "totalPages": 749,
  "items": [
    {
      "id": 343967049,
      "eventId": 652741,
      "siteUnitNumber": 12606,
      "bathingSite": "LEE-ON-SOLENT",
      "eventStart": "2022-11-02T23:22:49",
      "eventStop": "2022-11-02T23:48:37",
      "duration": 25,
      "status": "Genuine",
      "associatedSiteId": 109715,
      "outfallName": "SALTERNS ROAD HILL HEAD",
      "isImpacting": true,
      "overFlowSiteId": 0,
      "historicSpillsList": [
        {
          "id": 343967050,
          "eventId": 652741,
          "siteUnitNumber": 12607,
          "bathingSite": "HILLHEAD",
          "eventStart": "2022-11-02T23:22:49",
          "eventStop": "2022-11-02T23:48:37",
          "duration": 25,
          "status": "Genuine",
          "associatedSiteId": 109715,
          "outfallName": "SALTERNS ROAD HILL HEAD",
          "isImpacting": true,
          "overFlowSiteId": 108441,
          "historicSpillsList": []
        }
      ]
    },
    {
      "id": 343971140,
      "eventId": 652705,
      "siteUnitNumber": 12661,
      "bathingSite": "LANGSTONE HARBOUR",
      "eventStart": "2022-11-02T23:08:00",
      "eventStop": "2022-11-02T23:44:55",
      "duration": 36,
      "status": "Genuine",
      "associatedSiteId": 109818,
      "outfallName": "KIRTLEY CLOSE DRAYTON",
      "isImpacting": true,
      "overFlowSiteId": 0,
      "historicSpillsList": [
        {
          "id": 343971140,
          "eventId": 652705,
          "siteUnitNumber": 12661,
          "bathingSite": "LANGSTONE HARBOUR",
          "eventStart": "2022-11-02T23:08:00",
          "eventStop": "2022-11-02T23:44:55",
          "duration": 36,
          "status": "Genuine",
          "associatedSiteId": 109818,
          "outfallName": "KIRTLEY CLOSE DRAYTON",
          "isImpacting": true,
          "overFlowSiteId": 108774
        }
      ]
    },
    {
      "id": 343978552,
      "eventId": 652432,
      "siteUnitNumber": 12576,
      "bathingSite": "ST LEONARDS",
      "eventStart": "2022-11-02T12:35:22",
      "eventStop": "2022-11-02T23:41:00",
      "duration": 665,
      "status": "Genuine",
      "associatedSiteId": 109903,
      "outfallName": "BEXHILL & HASTINGS NO2",
      "isImpacting": true,
      "overFlowSiteId": 0,
      "historicSpillsList": [
        {
          "id": 343978552,
          "eventId": 652432,
          "siteUnitNumber": 12576,
          "bathingSite": "ST LEONARDS",
          "eventStart": "2022-11-02T12:35:22",
          "eventStop": "2022-11-02T23:41:00",
          "duration": 665,
          "status": "Genuine",
          "associatedSiteId": 109903,
          "outfallName": "BEXHILL & HASTINGS NO2",
          "isImpacting": true,
          "overFlowSiteId": 115398
        },
        {
          "id": 343978553,
          "eventId": 652432,
          "siteUnitNumber": 12577,
          "bathingSite": "BEXHILL",
          "eventStart": "2022-11-02T12:35:22",
          "eventStop": "2022-11-02T23:41:00",
          "duration": 665,
          "status": "Genuine",
          "associatedSiteId": 109903,
          "outfallName": "BEXHILL & HASTINGS NO2",
          "isImpacting": true,
          "overFlowSiteId": 115398,
          "historicSpillsList": []
        }
      ]
    },
    {
      "id": 343996059,
      "eventId": 652615,
      "siteUnitNumber": 12616,
      "bathingSite": "GURNARD",
      "eventStart": "2022-11-02T22:18:00",
      "eventStop": "2022-11-02T23:39:00",
      "duration": 81,
      "status": "Genuine",
      "associatedSiteId": 110701,
      "outfallName": "TERMINUS ROAD COWES 2",
      "isImpacting": true,
      "overFlowSiteId": 0,
      "historicSpillsList": [
        {
          "id": 343996059,
          "eventId": 652615,
          "siteUnitNumber": 12616,
          "bathingSite": "GURNARD",
          "eventStart": "2022-11-02T22:18:00",
          "eventStop": "2022-11-02T23:39:00",
          "duration": 81,
          "status": "Genuine",
          "associatedSiteId": 110701,
          "outfallName": "TERMINUS ROAD COWES 2",
          "isImpacting": true,
          "overFlowSiteId": 108563
        },
        {
          "id": 343996060,
          "eventId": 652615,
          "siteUnitNumber": 12617,
          "bathingSite": "COWES",
          "eventStart": "2022-11-02T22:18:00",
          "eventStop": "2022-11-02T23:39:00",
          "duration": 81,
          "status": "Genuine",
          "associatedSiteId": 110701,
          "outfallName": "TERMINUS ROAD COWES 2",
          "isImpacting": true,
          "overFlowSiteId": 108563,
          "historicSpillsList": []
        }
      ]
    },
    {
      "id": 343963067,
      "eventId": 652881,
      "siteUnitNumber": 12615,
      "bathingSite": "COLWELL BAY",
      "eventStart": "2022-11-02T22:38:00",
      "eventStop": "2022-11-02T23:38:00",
      "duration": 60,
      "status": "Genuine",
      "associatedSiteId": 109657,
      "outfallName": "THE PROMENADE TOTLAND PIER NO2",
      "isImpacting": false,
      "overFlowSiteId": 0,
      "historicSpillsList": []
    },
    {
      "id": 343962287,
      "eventId": 652732,
      "siteUnitNumber": 12616,
      "bathingSite": "GURNARD",
      "eventStart": "2022-11-02T23:10:00",
      "eventStop": "2022-11-02T23:27:38",
      "duration": 17,
      "status": "Genuine",
      "associatedSiteId": 109652,
      "outfallName": "WOODVALE TRANSFER NO1",
      "isImpacting": true,
      "overFlowSiteId": 0,
      "historicSpillsList": [
        {
          "id": 343962288,
          "eventId": 652732,
          "siteUnitNumber": 12617,
          "bathingSite": "COWES",
          "eventStart": "2022-11-02T23:10:00",
          "eventStop": "2022-11-02T23:27:38",
          "duration": 17,
          "status": "Genuine",
          "associatedSiteId": 109652,
          "outfallName": "WOODVALE TRANSFER NO1",
          "isImpacting": true,
          "overFlowSiteId": 115966,
          "historicSpillsList": []
        }
      ]
    },
    {
      "id": 343971233,
      "eventId": 652679,
      "siteUnitNumber": 12661,
      "bathingSite": "LANGSTONE HARBOUR",
      "eventStart": "2022-11-02T22:56:00",
      "eventStop": "2022-11-02T23:26:00",
      "duration": 30,
      "status": "Genuine",
      "associatedSiteId": 109820,
      "outfallName": "ST ANDREWS ROAD PORTSMOUTH",
      "isImpacting": true,
      "overFlowSiteId": 0,
      "historicSpillsList": [
        {
          "id": 343971233,
          "eventId": 652679,
          "siteUnitNumber": 12661,
          "bathingSite": "LANGSTONE HARBOUR",
          "eventStart": "2022-11-02T22:56:00",
          "eventStop": "2022-11-02T23:26:00",
          "duration": 30,
          "status": "Genuine",
          "associatedSiteId": 109820,
          "outfallName": "ST ANDREWS ROAD PORTSMOUTH",
          "isImpacting": true,
          "overFlowSiteId": 108474
        }
      ]
    },
    {
      "id": 343964861,
      "eventId": 653810,
      "siteUnitNumber": 12616,
      "bathingSite": "GURNARD",
      "eventStart": "2022-11-02T22:20:00",
      "eventStop": "2022-11-02T23:26:00",
      "duration": 66,
      "status": "Genuine",
      "associatedSiteId": 109700,
      "outfallName": "MARKET HILL COWES",
      "isImpacting": false,
      "overFlowSiteId": 0,
      "historicSpillsList": []
    },
    {
      "id": 343965287,
      "eventId": 652680,
      "siteUnitNumber": 12616,
      "bathingSite": "GURNARD",
      "eventStart": "2022-11-02T22:46:00",
      "eventStop": "2022-11-02T23:22:00",
      "duration": 36,
      "status": "Genuine",
      "associatedSiteId": 109702,
      "outfallName": "ALBANY ROAD EAST COWES",
      "isImpacting": false,
      "overFlowSiteId": 0,
      "historicSpillsList": []
    },
    {
      "id": 343963384,
      "eventId": 652635,
      "siteUnitNumber": 12615,
      "bathingSite": "COLWELL BAY",
      "eventStart": "2022-11-02T22:26:00",
      "eventStop": "2022-11-02T23:20:00",
      "duration": 54,
      "status": "Genuine",
      "associatedSiteId": 109665,
      "outfallName": "THORLEY ROAD BOULDNOR",
      "isImpacting": false,
      "overFlowSiteId": 0,
      "historicSpillsList": []
    },
    {
      "id": 343965779,
      "eventId": 652654,
      "siteUnitNumber": 12616,
      "bathingSite": "GURNARD",
      "eventStart": "2022-11-02T22:40:33",
      "eventStop": "2022-11-02T23:17:00",
      "duration": 36,
      "status": "Genuine",
      "associatedSiteId": 109704,
      "outfallName": "EGYPT POINT COWES",
      "isImpacting": true,
      "overFlowSiteId": 0,
      "historicSpillsList": [
        {
          "id": 343965780,
          "eventId": 652654,
          "siteUnitNumber": 12617,
          "bathingSite": "COWES",
          "eventStart": "2022-11-02T22:40:33",
          "eventStop": "2022-11-02T23:17:00",
          "duration": 36,
          "status": "Genuine",
          "associatedSiteId": 109704,
          "outfallName": "EGYPT POINT COWES",
          "isImpacting": true,
          "overFlowSiteId": 116213,
          "historicSpillsList": []
        }
      ]
    },
    {
      "id": 343988437,
      "eventId": 653811,
      "siteUnitNumber": 12625,
      "bathingSite": "SHANKLIN",
      "eventStart": "2022-11-02T22:56:01",
      "eventStop": "2022-11-02T23:15:00",
      "duration": 18,
      "status": "Genuine",
      "associatedSiteId": 110034,
      "outfallName": "LUCCOMBE",
      "isImpacting": false,
      "overFlowSiteId": 0,
      "historicSpillsList": []
    },
    {
      "id": 343963236,
      "eventId": 652631,
      "siteUnitNumber": 12615,
      "bathingSite": "COLWELL BAY",
      "eventStart": "2022-11-02T22:24:00",
      "eventStop": "2022-11-02T23:13:00",
      "duration": 49,
      "status": "Genuine",
      "associatedSiteId": 109663,
      "outfallName": "THE INSTITUTE YARMOUTH NO1",
      "isImpacting": false,
      "overFlowSiteId": 0,
      "historicSpillsList": []
    },
    {
      "id": 343996057,
      "eventId": 652626,
      "siteUnitNumber": 12616,
      "bathingSite": "GURNARD",
      "eventStart": "2022-11-02T22:15:00",
      "eventStop": "2022-11-02T23:10:00",
      "duration": 55,
      "status": "Genuine",
      "associatedSiteId": 110701,
      "outfallName": "TERMINUS ROAD COWES 2",
      "isImpacting": true,
      "overFlowSiteId": 0,
      "historicSpillsList": [
        {
          "id": 343996057,
          "eventId": 652626,
          "siteUnitNumber": 12616,
          "bathingSite": "GURNARD",
          "eventStart": "2022-11-02T22:15:00",
          "eventStop": "2022-11-02T23:10:00",
          "duration": 55,
          "status": "Genuine",
          "associatedSiteId": 110701,
          "outfallName": "TERMINUS ROAD COWES 2",
          "isImpacting": true,
          "overFlowSiteId": 108562
        },
        {
          "id": 343996058,
          "eventId": 652626,
          "siteUnitNumber": 12617,
          "bathingSite": "COWES",
          "eventStart": "2022-11-02T22:15:00",
          "eventStop": "2022-11-02T23:10:00",
          "duration": 55,
          "status": "Genuine",
          "associatedSiteId": 110701,
          "outfallName": "TERMINUS ROAD COWES 2",
          "isImpacting": true,
          "overFlowSiteId": 108562,
          "historicSpillsList": []
        }
      ]
    },
    {
      "id": 343965429,
      "eventId": 652655,
      "siteUnitNumber": 12616,
      "bathingSite": "GURNARD",
      "eventStart": "2022-11-02T22:41:19",
      "eventStop": "2022-11-02T22:44:22",
      "duration": 3,
      "status": "Genuine",
      "associatedSiteId": 109703,
      "outfallName": "CASTLE STREET COWES",
      "isImpacting": true,
      "overFlowSiteId": 0,
      "historicSpillsList": [
        {
          "id": 343965429,
          "eventId": 652655,
          "siteUnitNumber": 12616,
          "bathingSite": "GURNARD",
          "eventStart": "2022-11-02T22:41:19",
          "eventStop": "2022-11-02T22:44:22",
          "duration": 3,
          "status": "Genuine",
          "associatedSiteId": 109703,
          "outfallName": "CASTLE STREET COWES",
          "isImpacting": true,
          "overFlowSiteId": 108822
        },
        {
          "id": 343965430,
          "eventId": 652655,
          "siteUnitNumber": 12617,
          "bathingSite": "COWES",
          "eventStart": "2022-11-02T22:41:19",
          "eventStop": "2022-11-02T22:44:22",
          "duration": 3,
          "status": "Genuine",
          "associatedSiteId": 109703,
          "outfallName": "CASTLE STREET COWES",
          "isImpacting": true,
          "overFlowSiteId": 108822,
          "historicSpillsList": []
        }
      ]
    },
    {
      "id": 343969158,
      "eventId": 652524,
      "siteUnitNumber": 12618,
      "bathingSite": "RYDE",
      "eventStart": "2022-11-02T18:49:00",
      "eventStop": "2022-11-02T20:22:00",
      "duration": 93,
      "status": "Genuine",
      "associatedSiteId": 109777,
      "outfallName": "APPLEY PARK RYDE TRANSFER",
      "isImpacting": false,
      "overFlowSiteId": 0,
      "historicSpillsList": []
    },
    {
      "id": 343979803,
      "eventId": 652493,
      "siteUnitNumber": 12587,
      "bathingSite": "SOUTHWICK",
      "eventStart": "2022-11-02T16:32:49",
      "eventStop": "2022-11-02T18:45:00",
      "duration": 132,
      "status": "Genuine",
      "associatedSiteId": 109922,
      "outfallName": "ROPETACKLE STREET SHOREHAM",
      "isImpacting": false,
      "overFlowSiteId": 0,
      "historicSpillsList": []
    },
    {
      "id": 343969154,
      "eventId": 654018,
      "siteUnitNumber": 12617,
      "bathingSite": "COWES",
      "eventStart": "2022-11-02T06:27:00",
      "eventStop": "2022-11-02T12:24:00",
      "duration": 357,
      "status": "Genuine",
      "associatedSiteId": 109777,
      "outfallName": "APPLEY PARK RYDE TRANSFER",
      "isImpacting": true,
      "overFlowSiteId": 0,
      "historicSpillsList": [
        {
          "id": 343969155,
          "eventId": 654018,
          "siteUnitNumber": 12618,
          "bathingSite": "RYDE",
          "eventStart": "2022-11-02T06:27:00",
          "eventStop": "2022-11-02T12:24:00",
          "duration": 357,
          "status": "Genuine",
          "associatedSiteId": 109777,
          "outfallName": "APPLEY PARK RYDE TRANSFER",
          "isImpacting": true,
          "overFlowSiteId": 108941,
          "historicSpillsList": []
        }
      ]
    },
    {
      "id": 343978550,
      "eventId": 652381,
      "siteUnitNumber": 12576,
      "bathingSite": "ST LEONARDS",
      "eventStart": "2022-11-02T10:42:47",
      "eventStop": "2022-11-02T12:15:47",
      "duration": 93,
      "status": "Genuine",
      "associatedSiteId": 109903,
      "outfallName": "BEXHILL & HASTINGS NO2",
      "isImpacting": true,
      "overFlowSiteId": 0,
      "historicSpillsList": [
        {
          "id": 343978550,
          "eventId": 652381,
          "siteUnitNumber": 12576,
          "bathingSite": "ST LEONARDS",
          "eventStart": "2022-11-02T10:42:47",
          "eventStop": "2022-11-02T12:15:47",
          "duration": 93,
          "status": "Genuine",
          "associatedSiteId": 109903,
          "outfallName": "BEXHILL & HASTINGS NO2",
          "isImpacting": true,
          "overFlowSiteId": 115398
        },
        {
          "id": 343978551,
          "eventId": 652381,
          "siteUnitNumber": 12577,
          "bathingSite": "BEXHILL",
          "eventStart": "2022-11-02T10:42:47",
          "eventStop": "2022-11-02T12:15:47",
          "duration": 93,
          "status": "Genuine",
          "associatedSiteId": 109903,
          "outfallName": "BEXHILL & HASTINGS NO2",
          "isImpacting": true,
          "overFlowSiteId": 115398,
          "historicSpillsList": []
        }
      ]
    },
    {
      "id": 343978556,
      "eventId": 652312,
      "siteUnitNumber": 12576,
      "bathingSite": "ST LEONARDS",
      "eventStart": "2022-11-02T08:17:48",
      "eventStop": "2022-11-02T10:30:00",
      "duration": 132,
      "status": "Genuine",
      "associatedSiteId": 109903,
      "outfallName": "BEXHILL & HASTINGS NO2",
      "isImpacting": true,
      "overFlowSiteId": 0,
      "historicSpillsList": [
        {
          "id": 343978556,
          "eventId": 652312,
          "siteUnitNumber": 12576,
          "bathingSite": "ST LEONARDS",
          "eventStart": "2022-11-02T08:17:48",
          "eventStop": "2022-11-02T10:30:00",
          "duration": 132,
          "status": "Genuine",
          "associatedSiteId": 109903,
          "outfallName": "BEXHILL & HASTINGS NO2",
          "isImpacting": true,
          "overFlowSiteId": 115398
        },
        {
          "id": 343978557,
          "eventId": 652312,
          "siteUnitNumber": 12577,
          "bathingSite": "BEXHILL",
          "eventStart": "2022-11-02T08:17:48",
          "eventStop": "2022-11-02T10:30:00",
          "duration": 132,
          "status": "Genuine",
          "associatedSiteId": 109903,
          "outfallName": "BEXHILL & HASTINGS NO2",
          "isImpacting": true,
          "overFlowSiteId": 115398,
          "historicSpillsList": []
        }
      ]
    },
    {
      "id": 343997726,
      "eventId": 651463,
      "siteUnitNumber": 12576,
      "bathingSite": "ST LEONARDS",
      "eventStart": "2022-11-01T14:21:51",
      "eventStop": "2022-11-02T09:21:00",
      "duration": 1139,
      "status": "Genuine",
      "associatedSiteId": 111370,
      "outfallName": "YORK ROAD BEXHILL",
      "isImpacting": false,
      "overFlowSiteId": 0,
      "historicSpillsList": []
    },
    {
      "id": 343978554,
      "eventId": 652289,
      "siteUnitNumber": 12576,
      "bathingSite": "ST LEONARDS",
      "eventStart": "2022-11-02T07:46:53",
      "eventStop": "2022-11-02T08:04:55",
      "duration": 18,
      "status": "Genuine",
      "associatedSiteId": 109903,
      "outfallName": "BEXHILL & HASTINGS NO2",
      "isImpacting": true,
      "overFlowSiteId": 0,
      "historicSpillsList": [
        {
          "id": 343978554,
          "eventId": 652289,
          "siteUnitNumber": 12576,
          "bathingSite": "ST LEONARDS",
          "eventStart": "2022-11-02T07:46:53",
          "eventStop": "2022-11-02T08:04:55",
          "duration": 18,
          "status": "Genuine",
          "associatedSiteId": 109903,
          "outfallName": "BEXHILL & HASTINGS NO2",
          "isImpacting": true,
          "overFlowSiteId": 115398
        },
        {
          "id": 343978555,
          "eventId": 652289,
          "siteUnitNumber": 12577,
          "bathingSite": "BEXHILL",
          "eventStart": "2022-11-02T07:46:53",
          "eventStop": "2022-11-02T08:04:55",
          "duration": 18,
          "status": "Genuine",
          "associatedSiteId": 109903,
          "outfallName": "BEXHILL & HASTINGS NO2",
          "isImpacting": true,
          "overFlowSiteId": 115398,
          "historicSpillsList": []
        }
      ]
    },
    {
      "id": 343978560,
      "eventId": 652280,
      "siteUnitNumber": 12576,
      "bathingSite": "ST LEONARDS",
      "eventStart": "2022-11-02T07:11:17",
      "eventStop": "2022-11-02T07:34:25",
      "duration": 23,
      "status": "Genuine",
      "associatedSiteId": 109903,
      "outfallName": "BEXHILL & HASTINGS NO2",
      "isImpacting": true,
      "overFlowSiteId": 0,
      "historicSpillsList": [
        {
          "id": 343978560,
          "eventId": 652280,
          "siteUnitNumber": 12576,
          "bathingSite": "ST LEONARDS",
          "eventStart": "2022-11-02T07:11:17",
          "eventStop": "2022-11-02T07:34:25",
          "duration": 23,
          "status": "Genuine",
          "associatedSiteId": 109903,
          "outfallName": "BEXHILL & HASTINGS NO2",
          "isImpacting": true,
          "overFlowSiteId": 115398
        },
        {
          "id": 343978561,
          "eventId": 652280,
          "siteUnitNumber": 12577,
          "bathingSite": "BEXHILL",
          "eventStart": "2022-11-02T07:11:17",
          "eventStop": "2022-11-02T07:34:25",
          "duration": 23,
          "status": "Genuine",
          "associatedSiteId": 109903,
          "outfallName": "BEXHILL & HASTINGS NO2",
          "isImpacting": true,
          "overFlowSiteId": 115398,
          "historicSpillsList": []
        }
      ]
    },
    {
      "id": 343978558,
      "eventId": 652254,
      "siteUnitNumber": 12576,
      "bathingSite": "ST LEONARDS",
      "eventStart": "2022-11-02T06:26:07",
      "eventStop": "2022-11-02T06:44:29",
      "duration": 18,
      "status": "Genuine",
      "associatedSiteId": 109903,
      "outfallName": "BEXHILL & HASTINGS NO2",
      "isImpacting": true,
      "overFlowSiteId": 0,
      "historicSpillsList": [
        {
          "id": 343978558,
          "eventId": 652254,
          "siteUnitNumber": 12576,
          "bathingSite": "ST LEONARDS",
          "eventStart": "2022-11-02T06:26:07",
          "eventStop": "2022-11-02T06:44:29",
          "duration": 18,
          "status": "Genuine",
          "associatedSiteId": 109903,
          "outfallName": "BEXHILL & HASTINGS NO2",
          "isImpacting": true,
          "overFlowSiteId": 115398
        },
        {
          "id": 343978559,
          "eventId": 652254,
          "siteUnitNumber": 12577,
          "bathingSite": "BEXHILL",
          "eventStart": "2022-11-02T06:26:07",
          "eventStop": "2022-11-02T06:44:29",
          "duration": 18,
          "status": "Genuine",
          "associatedSiteId": 109903,
          "outfallName": "BEXHILL & HASTINGS NO2",
          "isImpacting": true,
          "overFlowSiteId": 115398,
          "historicSpillsList": []
        }
      ]
    },
    {
      "id": 343997523,
      "eventId": 652310,
      "siteUnitNumber": 12573,
      "bathingSite": "CAMBER",
      "eventStart": "2022-11-01T21:51:00",
      "eventStop": "2022-11-02T06:02:00",
      "duration": 491,
      "status": "Genuine",
      "associatedSiteId": 110958,
      "outfallName": "RYE",
      "isImpacting": false,
      "overFlowSiteId": 0,
      "historicSpillsList": []
    }
  ]
}