{
  "currentPage": 628,
  "totalItems": 21025,
  "totalPages": 841,
  "items": [
    {
      "id": 344825638,
      "eventId": 534445,
      "siteUnitNumber": 12549,
      "bathingSite": "HERNE BAY CENTRAL",
      "eventStart": "2021-12-25T02:22:00",
      "eventStop": "2021-12-25T04:49:00",
      "duration": 147,
      "status": "Genuine",
      "associatedSiteId": 109835,
      "outfallName": "SWALECLIFFE NO2",
      "isImpacting": true,
      "overFlowSiteId": 0,
      "historicSpillsList": [
        {
          "id": 344825638,
          "eventId": 534445,
          "siteUnitNumber": 12549,
          "bathingSite": "HERNE BAY CENTRAL",
          "eventStart": "2021-12-25T02:22:00",
          "eventStop": "2021-12-25T04:49:00",
          "duration": 147,
          "status": "Genuine",
          "associatedSiteId": 109835,
          "outfallName": "SWALECLIFFE NO2",
          "isImpacting": true,
          "overFlowSiteId": 115445
        },
        {
          "id": 344825639,
          "eventId": 534445,
          "siteUnitNumber": 12548,
          "bathingSite": "TANKERTON",
          "eventStart": "2021-12-25T02:22:00",
          "eventStop": "2021-12-25T04:49:00",
          "duration": 147,
          "status": "Genuine",
          "associatedSiteId": 109835,
          "outfallName": "SWALECLIFFE NO2",
          "isImpacting": true,
          "overFlowSiteId": 115445,
          "historicSpillsList": []
        }
      ]
    },
    {
      "id": 344818761,
      "eventId": 535081,
      "siteUnitNumber": 12616,
      "bathingSite": "GURNARD",
      "eventStart": "2021-12-25T03:49:00",
      "eventStop": "2021-12-25T04:16:00",
      "duration": 27,
      "status": "Genuine",
      "associatedSiteId": 109707,
      "outfallName": "MEDINA ROAD COWES",
      "isImpacting": true,
      "overFlowSiteId": 0,
      "historicSpillsList": [
        {
          "id": 344818761,
          "eventId": 535081,
          "siteUnitNumber": 12616,
          "bathingSite": "GURNARD",
          "eventStart": "2021-12-25T03:49:00",
          "eventStop": "2021-12-25T04:16:00",
          "duration": 27,
          "status": "Genuine",
          "associatedSiteId": 109707,
          "outfallName": "MEDINA ROAD COWES",
          "isImpacting": true,
          "overFlowSiteId": 108537
        },
        {
          "id": 344818762,
          "eventId": 535081,
          "siteUnitNumber": 12617,
          "bathingSite": "COWES",
          "eventStart": "2021-12-25T03:49:00",
          "eventStop": "2021-12-25T04:16:00",
          "duration": 27,
          "status": "Genuine",
          "associatedSiteId": 109707,
          "outfallName": "MEDINA ROAD COWES",
          "isImpacting": true,
          "overFlowSiteId": 108537,
          "historicSpillsList": []
        }
      ]
    },
    {
      "id": 344849355,
      "eventId": 534562,
      "siteUnitNumber": 12573,
      "bathingSite": "CAMBER",
      "eventStart": "2021-12-25T02:45:00",
      "eventStop": "2021-12-25T04:15:00",
      "duration": 90,
      "status": "Genuine",
      "associatedSiteId": 110958,
      "outfallName": "RYE",
      "isImpacting": true,
      "overFlowSiteId": 0,
      "historicSpillsList": [
        {
          "id": 344849355,
          "eventId": 534562,
          "siteUnitNumber": 12573,
          "bathingSite": "CAMBER",
          "eventStart": "2021-12-25T02:45:00",
          "eventStop": "2021-12-25T04:15:00",
          "duration": 90,
          "status": "Genuine",
          "associatedSiteId": 110958,
          "outfallName": "RYE",
          "isImpacting": true,
          "overFlowSiteId": 115433
        }
      ]
    },
    {
      "id": 344812581,
      "eventId": 534296,
      "siteUnitNumber": 12546,
      "bathingSite": "LEYSDOWN",
      "eventStart": "2021-12-24T22:50:07",
      "eventStop": "2021-12-25T04:14:00",
      "duration": 323,
      "status": "Genuine",
      "associatedSiteId": 109613,
      "outfallName": "BARROWS BROOK EASTCHURCH",
      "isImpacting": true,
      "overFlowSiteId": 0,
      "historicSpillsList": [
        {
          "id": 344812581,
          "eventId": 534296,
          "siteUnitNumber": 12546,
          "bathingSite": "LEYSDOWN",
          "eventStart": "2021-12-24T22:50:07",
          "eventStop": "2021-12-25T04:14:00",
          "duration": 323,
          "status": "Genuine",
          "associatedSiteId": 109613,
          "outfallName": "BARROWS BROOK EASTCHURCH",
          "isImpacting": true,
          "overFlowSiteId": 108109
        }
      ]
    },
    {
      "id": 344848115,
      "eventId": 534565,
      "siteUnitNumber": 12616,
      "bathingSite": "GURNARD",
      "eventStart": "2021-12-25T03:41:17",
      "eventStop": "2021-12-25T04:00:00",
      "duration": 18,
      "status": "Genuine",
      "associatedSiteId": 110701,
      "outfallName": "TERMINUS ROAD COWES 2",
      "isImpacting": true,
      "overFlowSiteId": 0,
      "historicSpillsList": [
        {
          "id": 344848115,
          "eventId": 534565,
          "siteUnitNumber": 12616,
          "bathingSite": "GURNARD",
          "eventStart": "2021-12-25T03:41:17",
          "eventStop": "2021-12-25T04:00:00",
          "duration": 18,
          "status": "Genuine",
          "associatedSiteId": 110701,
          "outfallName": "TERMINUS ROAD COWES 2",
          "isImpacting": true,
          "overFlowSiteId": 108563
        },
        {
          "id": 344848116,
          "eventId": 534565,
          "siteUnitNumber": 12617,
          "bathingSite": "COWES",
          "eventStart": "2021-12-25T03:41:17",
          "eventStop": "2021-12-25T04:00:00",
          "duration": 18,
          "status": "Genuine",
          "associatedSiteId": 110701,
          "outfallName": "TERMINUS ROAD COWES 2",
          "isImpacting": true,
          "overFlowSiteId": 108563,
          "historicSpillsList": []
        }
      ]
    },
    {
      "id": 344816769,
      "eventId": 534881,
      "siteUnitNumber": 12616,
      "bathingSite": "GURNARD",
      "eventStart": "2021-12-25T03:49:05",
      "eventStop": "2021-12-25T03:58:32",
      "duration": 9,
      "status": "Genuine",
      "associatedSiteId": 109700,
      "outfallName": "MARKET HILL COWES",
      "isImpacting": true,
      "overFlowSiteId": 0,
      "historicSpillsList": [
        {
          "id": 344816769,
          "eventId": 534881,
          "siteUnitNumber": 12616,
          "bathingSite": "GURNARD",
          "eventStart": "2021-12-25T03:49:05",
          "eventStop": "2021-12-25T03:58:32",
          "duration": 9,
          "status": "Genuine",
          "associatedSiteId": 109700,
          "outfallName": "MARKET HILL COWES",
          "isImpacting": true,
          "overFlowSiteId": 109299
        },
        {
          "id": 344816770,
          "eventId": 534881,
          "siteUnitNumber": 12617,
          "bathingSite": "COWES",
          "eventStart": "2021-12-25T03:49:05",
          "eventStop": "2021-12-25T03:58:32",
          "duration": 9,
          "status": "Genuine",
          "associatedSiteId": 109700,
          "outfallName": "MARKET HILL COWES",
          "isImpacting": true,
          "overFlowSiteId": 109299,
          "historicSpillsList": []
        }
      ]
    },
    {
      "id": 344848113,
      "eventId": 534566,
      "siteUnitNumber": 12616,
      "bathingSite": "GURNARD",
      "eventStart": "2021-12-25T03:44:01",
      "eventStop": "2021-12-25T03:53:00",
      "duration": 8,
      "status": "Genuine",
      "associatedSiteId": 110701,
      "outfallName": "TERMINUS ROAD COWES 2",
      "isImpacting": true,
      "overFlowSiteId": 0,
      "historicSpillsList": [
        {
          "id": 344848113,
          "eventId": 534566,
          "siteUnitNumber": 12616,
          "bathingSite": "GURNARD",
          "eventStart": "2021-12-25T03:44:01",
          "eventStop": "2021-12-25T03:53:00",
          "duration": 8,
          "status": "Genuine",
          "associatedSiteId": 110701,
          "outfallName": "TERMINUS ROAD COWES 2",
          "isImpacting": true,
          "overFlowSiteId": 108562
        },
        {
          "id": 344848114,
          "eventId": 534566,
          "siteUnitNumber": 12617,
          "bathingSite": "COWES",
          "eventStart": "2021-12-25T03:44:01",
          "eventStop": "2021-12-25T03:53:00",
          "duration": 8,
          "status": "Genuine",
          "associatedSiteId": 110701,
          "outfallName": "TERMINUS ROAD COWES 2",
          "isImpacting": true,
          "overFlowSiteId": 108562,
          "historicSpillsList": []
        }
      ]
    },
    {
      "id": 344825546,
      "eventId": 534214,
      "siteUnitNumber": 12547,
      "bathingSite": "WEST BEACH WHITSTABLE",
      "eventStart": "2021-12-24T22:08:25",
      "eventStop": "2021-12-25T03:31:00",
      "duration": 322,
      "status": "Genuine",
      "associatedSiteId": 109832,
      "outfallName": "GORREL NO1",
      "isImpacting": true,
      "overFlowSiteId": 0,
      "historicSpillsList": [
        {
          "id": 344825546,
          "eventId": 534214,
          "siteUnitNumber": 12547,
          "bathingSite": "WEST BEACH WHITSTABLE",
          "eventStart": "2021-12-24T22:08:25",
          "eventStop": "2021-12-25T03:31:00",
          "duration": 322,
          "status": "Genuine",
          "associatedSiteId": 109832,
          "outfallName": "GORREL NO1",
          "isImpacting": true,
          "overFlowSiteId": 103279
        },
        {
          "id": 344825547,
          "eventId": 534214,
          "siteUnitNumber": 12548,
          "bathingSite": "TANKERTON",
          "eventStart": "2021-12-24T22:08:25",
          "eventStop": "2021-12-25T03:31:00",
          "duration": 322,
          "status": "Genuine",
          "associatedSiteId": 109832,
          "outfallName": "GORREL NO1",
          "isImpacting": true,
          "overFlowSiteId": 103279,
          "historicSpillsList": []
        }
      ]
    },
    {
      "id": 344815610,
      "eventId": 534505,
      "siteUnitNumber": 12551,
      "bathingSite": "HERNE BAY",
      "eventStart": "2021-12-25T01:45:00",
      "eventStop": "2021-12-25T03:16:00",
      "duration": 91,
      "status": "Genuine",
      "associatedSiteId": 109676,
      "outfallName": "KINGS HALL HERNE BAY A",
      "isImpacting": true,
      "overFlowSiteId": 0,
      "historicSpillsList": [
        {
          "id": 344815610,
          "eventId": 534505,
          "siteUnitNumber": 12551,
          "bathingSite": "HERNE BAY",
          "eventStart": "2021-12-25T01:45:00",
          "eventStop": "2021-12-25T03:16:00",
          "duration": 91,
          "status": "Genuine",
          "associatedSiteId": 109676,
          "outfallName": "KINGS HALL HERNE BAY A",
          "isImpacting": true,
          "overFlowSiteId": 108096
        },
        {
          "id": 344815611,
          "eventId": 534505,
          "siteUnitNumber": 12549,
          "bathingSite": "HERNE BAY CENTRAL",
          "eventStart": "2021-12-25T01:45:00",
          "eventStop": "2021-12-25T03:16:00",
          "duration": 91,
          "status": "Genuine",
          "associatedSiteId": 109676,
          "outfallName": "KINGS HALL HERNE BAY A",
          "isImpacting": true,
          "overFlowSiteId": 108096,
          "historicSpillsList": []
        }
      ]
    },
    {
      "id": 344812670,
      "eventId": 534543,
      "siteUnitNumber": 12544,
      "bathingSite": "SHEERNESS",
      "eventStart": "2021-12-25T02:45:00",
      "eventStop": "2021-12-25T03:00:00",
      "duration": 15,
      "status": "Genuine",
      "associatedSiteId": 109614,
      "outfallName": "BRIELLE WAY WESTMINSTER",
      "isImpacting": true,
      "overFlowSiteId": 0,
      "historicSpillsList": [
        {
          "id": 344812670,
          "eventId": 534543,
          "siteUnitNumber": 12544,
          "bathingSite": "SHEERNESS",
          "eventStart": "2021-12-25T02:45:00",
          "eventStop": "2021-12-25T03:00:00",
          "duration": 15,
          "status": "Genuine",
          "associatedSiteId": 109614,
          "outfallName": "BRIELLE WAY WESTMINSTER",
          "isImpacting": true,
          "overFlowSiteId": 108810
        }
      ]
    },
    {
      "id": 344849354,
      "eventId": 534461,
      "siteUnitNumber": 12573,
      "bathingSite": "CAMBER",
      "eventStart": "2021-12-25T00:36:00",
      "eventStop": "2021-12-25T02:33:00",
      "duration": 117,
      "status": "Genuine",
      "associatedSiteId": 110958,
      "outfallName": "RYE",
      "isImpacting": true,
      "overFlowSiteId": 0,
      "historicSpillsList": [
        {
          "id": 344849354,
          "eventId": 534461,
          "siteUnitNumber": 12573,
          "bathingSite": "CAMBER",
          "eventStart": "2021-12-25T00:36:00",
          "eventStop": "2021-12-25T02:33:00",
          "duration": 117,
          "status": "Genuine",
          "associatedSiteId": 110958,
          "outfallName": "RYE",
          "isImpacting": true,
          "overFlowSiteId": 115433
        }
      ]
    },
    {
      "id": 344842225,
      "eventId": 536530,
      "siteUnitNumber": 12622,
      "bathingSite": "WHITECLIFF BAY",
      "eventStart": "2021-12-25T02:04:00",
      "eventStop": "2021-12-25T02:21:00",
      "duration": 17,
      "status": "Genuine",
      "associatedSiteId": 110096,
      "outfallName": "SANDOWN NO1",
      "isImpacting": true,
      "overFlowSiteId": 0,
      "historicSpillsList": [
        {
          "id": 344842225,
          "eventId": 536530,
          "siteUnitNumber": 12622,
          "bathingSite": "WHITECLIFF BAY",
          "eventStart": "2021-12-25T02:04:00",
          "eventStop": "2021-12-25T02:21:00",
          "duration": 17,
          "status": "Genuine",
          "associatedSiteId": 110096,
          "outfallName": "SANDOWN NO1",
          "isImpacting": true,
          "overFlowSiteId": 115453
        },
        {
          "id": 344842226,
          "eventId": 536530,
          "siteUnitNumber": 12623,
          "bathingSite": "YAVERLAND",
          "eventStart": "2021-12-25T02:04:00",
          "eventStop": "2021-12-25T02:21:00",
          "duration": 17,
          "status": "Genuine",
          "associatedSiteId": 110096,
          "outfallName": "SANDOWN NO1",
          "isImpacting": true,
          "overFlowSiteId": 115453,
          "historicSpillsList": []
        },
        {
          "id": 344842227,
          "eventId": 536530,
          "siteUnitNumber": 12624,
          "bathingSite": "SANDOWN",
          "eventStart": "2021-12-25T02:04:00",
          "eventStop": "2021-12-25T02:21:00",
          "duration": 17,
          "status": "Genuine",
          "associatedSiteId": 110096,
          "outfallName": "SANDOWN NO1",
          "isImpacting": true,
          "overFlowSiteId": 115453,
          "historicSpillsList": []
        }
      ]
    },
    {
      "id": 344812671,
      "eventId": 534539,
      "siteUnitNumber": 12544,
      "bathingSite": "SHEERNESS",
      "eventStart": "2021-12-25T01:59:26",
      "eventStop": "2021-12-25T02:15:00",
      "duration": 15,
      "status": "Genuine",
      "associatedSiteId": 109614,
      "outfallName": "BRIELLE WAY WESTMINSTER",
      "isImpacting": true,
      "overFlowSiteId": 0,
      "historicSpillsList": [
        {
          "id": 344812671,
          "eventId": 534539,
          "siteUnitNumber": 12544,
          "bathingSite": "SHEERNESS",
          "eventStart": "2021-12-25T01:59:26",
          "eventStop": "2021-12-25T02:15:00",
          "duration": 15,
          "status": "Genuine",
          "associatedSiteId": 109614,
          "outfallName": "BRIELLE WAY WESTMINSTER",
          "isImpacting": true,
          "overFlowSiteId": 108810
        }
      ]
    },
    {
      "id": 344812672,
      "eventId": 534450,
      "siteUnitNumber": 12544,
      "bathingSite": "SHEERNESS",
      "eventStart": "2021-12-25T01:00:00",
      "eventStop": "2021-12-25T01:45:00",
      "duration": 45,
      "status": "Genuine",
      "associatedSiteId": 109614,
      "outfallName": "BRIELLE WAY WESTMINSTER",
      "isImpacting": true,
      "overFlowSiteId": 0,
      "historicSpillsList": [
        {
          "id": 344812672,
          "eventId": 534450,
          "siteUnitNumber": 12544,
          "bathingSite": "SHEERNESS",
          "eventStart": "2021-12-25T01:00:00",
          "eventStop": "2021-12-25T01:45:00",
          "duration": 45,
          "status": "Genuine",
          "associatedSiteId": 109614,
          "outfallName": "BRIELLE WAY WESTMINSTER",
          "isImpacting": true,
          "overFlowSiteId": 108810
        }
      ]
    },
    {
      "id": 344825292,
      "eventId": 541312,
      "siteUnitNumber": 12548,
      "bathingSite": "TANKERTON",
      "eventStart": "2021-12-25T01:24:00",
      "eventStop": "2021-12-25T01:39:00",
      "duration": 15,
      "status": "Genuine",
      "associatedSiteId": 109831,
      "outfallName": "TANKERTON CIRCUS",
      "isImpacting": true,
      "overFlowSiteId": 0,
      "historicSpillsList": [
        {
          "id": 344825292,
          "eventId": 541312,
          "siteUnitNumber": 12548,
          "bathingSite": "TANKERTON",
          "eventStart": "2021-12-25T01:24:00",
          "eventStop": "2021-12-25T01:39:00",
          "duration": 15,
          "status": "Genuine",
          "associatedSiteId": 109831,
          "outfallName": "TANKERTON CIRCUS",
          "isImpacting": true,
          "overFlowSiteId": 103280
        },
        {
          "id": 344825293,
          "eventId": 541312,
          "siteUnitNumber": 12547,
          "bathingSite": "WEST BEACH WHITSTABLE",
          "eventStart": "2021-12-25T01:24:00",
          "eventStop": "2021-12-25T01:39:00",
          "duration": 15,
          "status": "Genuine",
          "associatedSiteId": 109831,
          "outfallName": "TANKERTON CIRCUS",
          "isImpacting": true,
          "overFlowSiteId": 103280,
          "historicSpillsList": []
        }
      ]
    },
    {
      "id": 344842229,
      "eventId": 536515,
      "siteUnitNumber": 12622,
      "bathingSite": "WHITECLIFF BAY",
      "eventStart": "2021-12-25T01:08:00",
      "eventStop": "2021-12-25T01:23:00",
      "duration": 15,
      "status": "Genuine",
      "associatedSiteId": 110096,
      "outfallName": "SANDOWN NO1",
      "isImpacting": true,
      "overFlowSiteId": 0,
      "historicSpillsList": [
        {
          "id": 344842229,
          "eventId": 536515,
          "siteUnitNumber": 12622,
          "bathingSite": "WHITECLIFF BAY",
          "eventStart": "2021-12-25T01:08:00",
          "eventStop": "2021-12-25T01:23:00",
          "duration": 15,
          "status": "Genuine",
          "associatedSiteId": 110096,
          "outfallName": "SANDOWN NO1",
          "isImpacting": true,
          "overFlowSiteId": 115453
        },
        {
          "id": 344842230,
          "eventId": 536515,
          "siteUnitNumber": 12623,
          "bathingSite": "YAVERLAND",
          "eventStart": "2021-12-25T01:08:00",
          "eventStop": "2021-12-25T01:23:00",
          "duration": 15,
          "status": "Genuine",
          "associatedSiteId": 110096,
          "outfallName": "SANDOWN NO1",
          "isImpacting": true,
          "overFlowSiteId": 115453,
          "historicSpillsList": []
        },
        {
          "id": 344842231,
          "eventId": 536515,
          "siteUnitNumber": 12624,
          "bathingSite": "SANDOWN",
          "eventStart": "2021-12-25T01:08:00",
          "eventStop": "2021-12-25T01:23:00",
          "duration": 15,
          "status": "Genuine",
          "associatedSiteId": 110096,
          "outfallName": "SANDOWN NO1",
          "isImpacting": true,
          "overFlowSiteId": 115453,
          "historicSpillsList": []
        }
      ]
    },
    {
      "id": 344826291,
      "eventId": 534349,
      "siteUnitNumber": 12544,
      "bathingSite": "SHEERNESS",
      "eventStart": "2021-12-25T00:06:31",
      "eventStop": "2021-12-25T01:02:00",
      "duration": 55,
      "status": "Genuine",
      "associatedSiteId": 109869,
      "outfallName": "GRAIN NO2",
      "isImpacting": true,
      "overFlowSiteId": 0,
      "historicSpillsList": [
        {
          "id": 344826291,
          "eventId": 534349,
          "siteUnitNumber": 12544,
          "bathingSite": "SHEERNESS",
          "eventStart": "2021-12-25T00:06:31",
          "eventStop": "2021-12-25T01:02:00",
          "duration": 55,
          "status": "Genuine",
          "associatedSiteId": 109869,
          "outfallName": "GRAIN NO2",
          "isImpacting": true,
          "overFlowSiteId": 115411
        }
      ]
    },
    {
      "id": 344812673,
      "eventId": 534362,
      "siteUnitNumber": 12544,
      "bathingSite": "SHEERNESS",
      "eventStart": "2021-12-24T23:42:23",
      "eventStop": "2021-12-25T00:45:00",
      "duration": 62,
      "status": "Genuine",
      "associatedSiteId": 109614,
      "outfallName": "BRIELLE WAY WESTMINSTER",
      "isImpacting": true,
      "overFlowSiteId": 0,
      "historicSpillsList": [
        {
          "id": 344812673,
          "eventId": 534362,
          "siteUnitNumber": 12544,
          "bathingSite": "SHEERNESS",
          "eventStart": "2021-12-24T23:42:23",
          "eventStop": "2021-12-25T00:45:00",
          "duration": 62,
          "status": "Genuine",
          "associatedSiteId": 109614,
          "outfallName": "BRIELLE WAY WESTMINSTER",
          "isImpacting": true,
          "overFlowSiteId": 108810
        }
      ]
    },
    {
      "id": 344842228,
      "eventId": 536505,
      "siteUnitNumber": 12624,
      "bathingSite": "SANDOWN",
      "eventStart": "2021-12-24T23:53:00",
      "eventStop": "2021-12-25T00:37:00",
      "duration": 44,
      "status": "Genuine",
      "associatedSiteId": 110096,
      "outfallName": "SANDOWN NO1",
      "isImpacting": true,
      "overFlowSiteId": 0,
      "historicSpillsList": [
        {
          "id": 344842228,
          "eventId": 536505,
          "siteUnitNumber": 12624,
          "bathingSite": "SANDOWN",
          "eventStart": "2021-12-24T23:53:00",
          "eventStop": "2021-12-25T00:37:00",
          "duration": 44,
          "status": "Genuine",
          "associatedSiteId": 110096,
          "outfallName": "SANDOWN NO1",
          "isImpacting": true,
          "overFlowSiteId": 115453
        },
        {
          "id": 344842234,
          "eventId": 536505,
          "siteUnitNumber": 12622,
          "bathingSite": "WHITECLIFF BAY",
          "eventStart": "2021-12-24T23:53:00",
          "eventStop": "2021-12-25T00:37:00",
          "duration": 44,
          "status": "Genuine",
          "associatedSiteId": 110096,
          "outfallName": "SANDOWN NO1",
          "isImpacting": true,
          "overFlowSiteId": 115453,
          "historicSpillsList": []
        },
        {
          "id": 344842235,
          "eventId": 536505,
          "siteUnitNumber": 12623,
          "bathingSite": "YAVERLAND",
          "eventStart": "2021-12-24T23:53:00",
          "eventStop": "2021-12-25T00:37:00",
          "duration": 44,
          "status": "Genuine",
          "associatedSiteId": 110096,
          "outfallName": "SANDOWN NO1",
          "isImpacting": true,
          "overFlowSiteId": 115453,
          "historicSpillsList": []
        }
      ]
    },
    {
      "id": 344812768,
      "eventId": 534381,
      "siteUnitNumber": 12544,
      "bathingSite": "SHEERNESS",
      "eventStart": "2021-12-25T00:25:00",
      "eventStop": "2021-12-25T00:33:00",
      "duration": 8,
      "status": "Genuine",
      "associatedSiteId": 109616,
      "outfallName": "SOUTH STREET QUEENBOROUGH",
      "isImpacting": true,
      "overFlowSiteId": 0,
      "historicSpillsList": [
        {
          "id": 344812768,
          "eventId": 534381,
          "siteUnitNumber": 12544,
          "bathingSite": "SHEERNESS",
          "eventStart": "2021-12-25T00:25:00",
          "eventStop": "2021-12-25T00:33:00",
          "duration": 8,
          "status": "Genuine",
          "associatedSiteId": 109616,
          "outfallName": "SOUTH STREET QUEENBOROUGH",
          "isImpacting": true,
          "overFlowSiteId": 108732
        }
      ]
    },
    {
      "id": 344812769,
      "eventId": 534344,
      "siteUnitNumber": 12544,
      "bathingSite": "SHEERNESS",
      "eventStart": "2021-12-24T23:54:58",
      "eventStop": "2021-12-25T00:07:27",
      "duration": 12,
      "status": "Genuine",
      "associatedSiteId": 109616,
      "outfallName": "SOUTH STREET QUEENBOROUGH",
      "isImpacting": true,
      "overFlowSiteId": 0,
      "historicSpillsList": [
        {
          "id": 344812769,
          "eventId": 534344,
          "siteUnitNumber": 12544,
          "bathingSite": "SHEERNESS",
          "eventStart": "2021-12-24T23:54:58",
          "eventStop": "2021-12-25T00:07:27",
          "duration": 12,
          "status": "Genuine",
          "associatedSiteId": 109616,
          "outfallName": "SOUTH STREET QUEENBOROUGH",
          "isImpacting": true,
          "overFlowSiteId": 108732
        }
      ]
    },
    {
      "id": 344837456,
      "eventId": 535653,
      "siteUnitNumber": 12591,
      "bathingSite": "LITTLEHAMPTON",
      "eventStart": "2021-12-24T22:10:00",
      "eventStop": "2021-12-25T00:07:00",
      "duration": 117,
      "status": "Genuine",
      "associatedSiteId": 109965,
      "outfallName": "SEA ROAD LITTLEHAMPTON",
      "isImpacting": true,
      "overFlowSiteId": 0,
      "historicSpillsList": [
        {
          "id": 344837456,
          "eventId": 535653,
          "siteUnitNumber": 12591,
          "bathingSite": "LITTLEHAMPTON",
          "eventStart": "2021-12-24T22:10:00",
          "eventStop": "2021-12-25T00:07:00",
          "duration": 117,
          "status": "Genuine",
          "associatedSiteId": 109965,
          "outfallName": "SEA ROAD LITTLEHAMPTON",
          "isImpacting": true,
          "overFlowSiteId": 109368
        }
      ]
    },
    {
      "id": 344812770,
      "eventId": 534043,
      "siteUnitNumber": 12544,
      "bathingSite": "SHEERNESS",
      "eventStart": "2021-12-24T20:00:00",
      "eventStop": "2021-12-24T23:45:00",
      "duration": 225,
      "status": "Genuine",
      "associatedSiteId": 109616,
      "outfallName": "SOUTH STREET QUEENBOROUGH",
      "isImpacting": true,
      "overFlowSiteId": 0,
      "historicSpillsList": [
        {
          "id": 344812770,
          "eventId": 534043,
          "siteUnitNumber": 12544,
          "bathingSite": "SHEERNESS",
          "eventStart": "2021-12-24T20:00:00",
          "eventStop": "2021-12-24T23:45:00",
          "duration": 225,
          "status": "Genuine",
          "associatedSiteId": 109616,
          "outfallName": "SOUTH STREET QUEENBOROUGH",
          "isImpacting": true,
          "overFlowSiteId": 108732
        }
      ]
    },
    {
      "id": 344842239,
      "eventId": 536504,
      "siteUnitNumber": 12622,
      "bathingSite": "WHITECLIFF BAY",
      "eventStart": "2021-12-24T22:18:00",
      "eventStop": "2021-12-24T23:36:00",
      "duration": 78,
      "status": "Genuine",
      "associatedSiteId": 110096,
      "outfallName": "SANDOWN NO1",
      "isImpacting": true,
      "overFlowSiteId": 0,
      "historicSpillsList": [
        {
          "id": 344842239,
          "eventId": 536504,
          "siteUnitNumber": 12622,
          "bathingSite": "WHITECLIFF BAY",
          "eventStart": "2021-12-24T22:18:00",
          "eventStop": "2021-12-24T23:36:00",
          "duration": 78,
          "status": "Genuine",
          "associatedSiteId": 110096,
          "outfallName": "SANDOWN NO1",
          "isImpacting": true,
          "overFlowSiteId": 115453
        },
        {
          "id": 344842232,
          "eventId": 536504,
          "siteUnitNumber": 12623,
          "bathingSite": "YAVERLAND",
          "eventStart": "2021-12-24T22:18:00",
          "eventStop": "2021-12-24T23:36:00",
          "duration": 78,
          "status": "Genuine",
          "associatedSiteId": 110096,
          "outfallName": "SANDOWN NO1",
          "isImpacting": true,
          "overFlowSiteId": 115453,
          "historicSpillsList": []
        },
        {
          "id": 344842233,
          "eventId": 536504,
          "siteUnitNumber": 12624,
          "bathingSite": "SANDOWN",
          "eventStart": "2021-12-24T22:18:00",
          "eventStop": "2021-12-24T23:36:00",
          "duration": 78,
          "status": "Genuine",
          "associatedSiteId": 110096,
          "outfallName": "SANDOWN NO1",
          "isImpacting": true,
          "overFlowSiteId": 115453,
          "historicSpillsList": []
        }
      ]
    },
    {
      "id": 344849100,
      "eventId": 533990,
      "siteUnitNumber": 12582,
      "bathingSite": "SEAFORD",
      "eventStart": "2021-12-24T18:22:46",
      "eventStop": "2021-12-24T23:32:03",
      "duration": 309,
      "status": "Genuine",
      "associatedSiteId": 110920,
      "outfallName": "NEWHAVEN",
      "isImpacting": true,
      "overFlowSiteId": 0,
      "historicSpillsList": [
        {
          "id": 344849100,
          "eventId": 533990,
          "siteUnitNumber": 12582,
          "bathingSite": "SEAFORD",
          "eventStart": "2021-12-24T18:22:46",
          "eventStop": "2021-12-24T23:32:03",
          "duration": 309,
          "status": "Genuine",
          "associatedSiteId": 110920,
          "outfallName": "NEWHAVEN",
          "isImpacting": true,
          "overFlowSiteId": 116065
        }
      ]
    }
  ]
}