{
  "currentPage": 477,
  "totalItems": 18701,
  "totalPages": 749,
  "items": [
    {
      "id": 343996073,
      "eventId": 644139,
      "siteUnitNumber": 12616,
      "bathingSite": "GURNARD",
      "eventStart": "2022-10-20T09:00:00",
      "eventStop": "2022-10-20T09:05:23",
      "duration": 5,
      "status": "Genuine",
      "associatedSiteId": 110701,
      "outfallName": "TERMINUS ROAD COWES 2",
      "isImpacting": true,
      "overFlowSiteId": 0,
      "historicSpillsList": [
        {
          "id": 343996073,
          "eventId": 644139,
          "siteUnitNumber": 12616,
          "bathingSite": "GURNARD",
          "eventStart": "2022-10-20T09:00:00",
          "eventStop": "2022-10-20T09:05:23",
          "duration": 5,
          "status": "Genuine",
          "associatedSiteId": 110701,
          "outfallName": "TERMINUS ROAD COWES 2",
          "isImpacting": true,
          "overFlowSiteId": 108563
        },
        {
          "id": 343996074,
          "eventId": 644139,
          "siteUnitNumber": 12617,
          "bathingSite": "COWES",
          "eventStart": "2022-10-20T09:00:00",
          "eventStop": "2022-10-20T09:05:23",
          "duration": 5,
          "status": "Genuine",
          "associatedSiteId": 110701,
          "outfallName": "TERMINUS ROAD COWES 2",
          "isImpacting": true,
          "overFlowSiteId": 108563,
          "historicSpillsList": []
        }
      ]
    },
    {
      "id": 343976900,
      "eventId": 644099,
      "siteUnitNumber": 12568,
      "bathingSite": "SANDGATE",
      "eventStart": "2022-10-20T07:22:00",
      "eventStop": "2022-10-20T07:55:00",
      "duration": 33,
      "status": "Genuine",
      "associatedSiteId": 109897,
      "outfallName": "RANGE ROAD HYTHE K LONG",
      "isImpacting": true,
      "overFlowSiteId": 0,
      "historicSpillsList": [
        {
          "id": 343976900,
          "eventId": 644099,
          "siteUnitNumber": 12568,
          "bathingSite": "SANDGATE",
          "eventStart": "2022-10-20T07:22:00",
          "eventStop": "2022-10-20T07:55:00",
          "duration": 33,
          "status": "Genuine",
          "associatedSiteId": 109897,
          "outfallName": "RANGE ROAD HYTHE K LONG",
          "isImpacting": true,
          "overFlowSiteId": 116048
        }
      ]
    },
    {
      "id": 343973467,
      "eventId": 643993,
      "siteUnitNumber": 12547,
      "bathingSite": "WEST BEACH WHITSTABLE",
      "eventStart": "2022-10-20T07:10:10",
      "eventStop": "2022-10-20T07:45:00",
      "duration": 34,
      "status": "Genuine",
      "associatedSiteId": 109831,
      "outfallName": "TANKERTON CIRCUS",
      "isImpacting": true,
      "overFlowSiteId": 0,
      "historicSpillsList": [
        {
          "id": 343973462,
          "eventId": 643993,
          "siteUnitNumber": 12548,
          "bathingSite": "TANKERTON",
          "eventStart": "2022-10-20T07:10:10",
          "eventStop": "2022-10-20T07:45:00",
          "duration": 34,
          "status": "Genuine",
          "associatedSiteId": 109831,
          "outfallName": "TANKERTON CIRCUS",
          "isImpacting": true,
          "overFlowSiteId": 103280,
          "historicSpillsList": []
        }
      ]
    },
    {
      "id": 343973463,
      "eventId": 644010,
      "siteUnitNumber": 12547,
      "bathingSite": "WEST BEACH WHITSTABLE",
      "eventStart": "2022-10-20T07:15:00",
      "eventStop": "2022-10-20T07:32:00",
      "duration": 17,
      "status": "Genuine",
      "associatedSiteId": 109831,
      "outfallName": "TANKERTON CIRCUS",
      "isImpacting": true,
      "overFlowSiteId": 0,
      "historicSpillsList": [
        {
          "id": 343973464,
          "eventId": 644010,
          "siteUnitNumber": 12548,
          "bathingSite": "TANKERTON",
          "eventStart": "2022-10-20T07:15:00",
          "eventStop": "2022-10-20T07:32:00",
          "duration": 17,
          "status": "Genuine",
          "associatedSiteId": 109831,
          "outfallName": "TANKERTON CIRCUS",
          "isImpacting": true,
          "overFlowSiteId": 102252,
          "historicSpillsList": []
        }
      ]
    },
    {
      "id": 343973460,
      "eventId": 644664,
      "siteUnitNumber": 12547,
      "bathingSite": "WEST BEACH WHITSTABLE",
      "eventStart": "2022-10-20T07:06:00",
      "eventStop": "2022-10-20T07:24:00",
      "duration": 18,
      "status": "Genuine",
      "associatedSiteId": 109831,
      "outfallName": "TANKERTON CIRCUS",
      "isImpacting": true,
      "overFlowSiteId": 0,
      "historicSpillsList": [
        {
          "id": 343973460,
          "eventId": 644664,
          "siteUnitNumber": 12547,
          "bathingSite": "WEST BEACH WHITSTABLE",
          "eventStart": "2022-10-20T07:06:00",
          "eventStop": "2022-10-20T07:24:00",
          "duration": 18,
          "status": "Genuine",
          "associatedSiteId": 109831,
          "outfallName": "TANKERTON CIRCUS",
          "isImpacting": true,
          "overFlowSiteId": 103281
        },
        {
          "id": 343973461,
          "eventId": 644664,
          "siteUnitNumber": 12548,
          "bathingSite": "TANKERTON",
          "eventStart": "2022-10-20T07:06:00",
          "eventStop": "2022-10-20T07:24:00",
          "duration": 18,
          "status": "Genuine",
          "associatedSiteId": 109831,
          "outfallName": "TANKERTON CIRCUS",
          "isImpacting": true,
          "overFlowSiteId": 103281,
          "historicSpillsList": []
        }
      ]
    },
    {
      "id": 343984662,
      "eventId": 643005,
      "siteUnitNumber": 12595,
      "bathingSite": "BOGNOR REGIS (ALDWICK)",
      "eventStart": "2022-10-17T06:00:00",
      "eventStop": "2022-10-17T13:02:00",
      "duration": 422,
      "status": "Genuine",
      "associatedSiteId": 109959,
      "outfallName": "WEST PARK BOGNOR REGIS",
      "isImpacting": true,
      "overFlowSiteId": 0,
      "historicSpillsList": [
        {
          "id": 343984667,
          "eventId": 643005,
          "siteUnitNumber": 12594,
          "bathingSite": "BOGNOR REGIS EAST",
          "eventStart": "2022-10-17T06:00:00",
          "eventStop": "2022-10-17T13:02:00",
          "duration": 422,
          "status": "Genuine",
          "associatedSiteId": 109959,
          "outfallName": "WEST PARK BOGNOR REGIS",
          "isImpacting": true,
          "overFlowSiteId": 108160,
          "historicSpillsList": []
        }
      ]
    },
    {
      "id": 343988735,
      "eventId": 643155,
      "siteUnitNumber": 12593,
      "bathingSite": "FELPHAM",
      "eventStart": "2022-10-17T09:56:29",
      "eventStop": "2022-10-17T12:57:00",
      "duration": 180,
      "status": "Genuine",
      "associatedSiteId": 110095,
      "outfallName": "LIDSEY",
      "isImpacting": true,
      "overFlowSiteId": 0,
      "historicSpillsList": [
        {
          "id": 343988735,
          "eventId": 643155,
          "siteUnitNumber": 12593,
          "bathingSite": "FELPHAM",
          "eventStart": "2022-10-17T09:56:29",
          "eventStop": "2022-10-17T12:57:00",
          "duration": 180,
          "status": "Genuine",
          "associatedSiteId": 110095,
          "outfallName": "LIDSEY",
          "isImpacting": true,
          "overFlowSiteId": 115776
        }
      ]
    },
    {
      "id": 343989797,
      "eventId": 643039,
      "siteUnitNumber": 12624,
      "bathingSite": "SANDOWN",
      "eventStart": "2022-10-17T07:24:00",
      "eventStop": "2022-10-17T11:46:00",
      "duration": 262,
      "status": "Genuine",
      "associatedSiteId": 110096,
      "outfallName": "SANDOWN NO1",
      "isImpacting": true,
      "overFlowSiteId": 0,
      "historicSpillsList": [
        {
          "id": 343989797,
          "eventId": 643039,
          "siteUnitNumber": 12624,
          "bathingSite": "SANDOWN",
          "eventStart": "2022-10-17T07:24:00",
          "eventStop": "2022-10-17T11:46:00",
          "duration": 262,
          "status": "Genuine",
          "associatedSiteId": 110096,
          "outfallName": "SANDOWN NO1",
          "isImpacting": true,
          "overFlowSiteId": 115453
        },
        {
          "id": 343989803,
          "eventId": 643039,
          "siteUnitNumber": 12622,
          "bathingSite": "WHITECLIFF BAY",
          "eventStart": "2022-10-17T07:24:00",
          "eventStop": "2022-10-17T11:46:00",
          "duration": 262,
          "status": "Genuine",
          "associatedSiteId": 110096,
          "outfallName": "SANDOWN NO1",
          "isImpacting": true,
          "overFlowSiteId": 115453,
          "historicSpillsList": []
        }
      ]
    },
    {
      "id": 343985572,
      "eventId": 643504,
      "siteUnitNumber": 12591,
      "bathingSite": "LITTLEHAMPTON",
      "eventStart": "2022-10-17T07:36:00",
      "eventStop": "2022-10-17T10:33:00",
      "duration": 177,
      "status": "Genuine",
      "associatedSiteId": 109965,
      "outfallName": "SEA ROAD LITTLEHAMPTON",
      "isImpacting": true,
      "overFlowSiteId": 0,
      "historicSpillsList": [
        {
          "id": 343985572,
          "eventId": 643504,
          "siteUnitNumber": 12591,
          "bathingSite": "LITTLEHAMPTON",
          "eventStart": "2022-10-17T07:36:00",
          "eventStop": "2022-10-17T10:33:00",
          "duration": 177,
          "status": "Genuine",
          "associatedSiteId": 109965,
          "outfallName": "SEA ROAD LITTLEHAMPTON",
          "isImpacting": true,
          "overFlowSiteId": 109368
        }
      ]
    },
    {
      "id": 343986626,
      "eventId": 643012,
      "siteUnitNumber": 12591,
      "bathingSite": "LITTLEHAMPTON",
      "eventStart": "2022-10-17T06:24:00",
      "eventStop": "2022-10-17T09:46:00",
      "duration": 202,
      "status": "Genuine",
      "associatedSiteId": 109977,
      "outfallName": "FORESHORE TANK LITTLEHAMPTON",
      "isImpacting": true,
      "overFlowSiteId": 0,
      "historicSpillsList": [
        {
          "id": 343986626,
          "eventId": 643012,
          "siteUnitNumber": 12591,
          "bathingSite": "LITTLEHAMPTON",
          "eventStart": "2022-10-17T06:24:00",
          "eventStop": "2022-10-17T09:46:00",
          "duration": 202,
          "status": "Genuine",
          "associatedSiteId": 109977,
          "outfallName": "FORESHORE TANK LITTLEHAMPTON",
          "isImpacting": true,
          "overFlowSiteId": 109390
        }
      ]
    },
    {
      "id": 343986427,
      "eventId": 643014,
      "siteUnitNumber": 12592,
      "bathingSite": "MIDDLETON-ON-SEA",
      "eventStart": "2022-10-17T06:24:00",
      "eventStop": "2022-10-17T09:10:00",
      "duration": 166,
      "status": "Genuine",
      "associatedSiteId": 109972,
      "outfallName": "BOGNOR MAIN",
      "isImpacting": true,
      "overFlowSiteId": 0,
      "historicSpillsList": [
        {
          "id": 343986428,
          "eventId": 643014,
          "siteUnitNumber": 12593,
          "bathingSite": "FELPHAM",
          "eventStart": "2022-10-17T06:24:00",
          "eventStop": "2022-10-17T09:10:00",
          "duration": 166,
          "status": "Genuine",
          "associatedSiteId": 109972,
          "outfallName": "BOGNOR MAIN",
          "isImpacting": true,
          "overFlowSiteId": 107412,
          "historicSpillsList": []
        }
      ]
    },
    {
      "id": 343969178,
      "eventId": 643702,
      "siteUnitNumber": 12617,
      "bathingSite": "COWES",
      "eventStart": "2022-10-17T04:47:00",
      "eventStop": "2022-10-17T08:58:00",
      "duration": 251,
      "status": "Genuine",
      "associatedSiteId": 109777,
      "outfallName": "APPLEY PARK RYDE TRANSFER",
      "isImpacting": true,
      "overFlowSiteId": 0,
      "historicSpillsList": [
        {
          "id": 343969178,
          "eventId": 643702,
          "siteUnitNumber": 12617,
          "bathingSite": "COWES",
          "eventStart": "2022-10-17T04:47:00",
          "eventStop": "2022-10-17T08:58:00",
          "duration": 251,
          "status": "Genuine",
          "associatedSiteId": 109777,
          "outfallName": "APPLEY PARK RYDE TRANSFER",
          "isImpacting": true,
          "overFlowSiteId": 108941
        },
        {
          "id": 343969179,
          "eventId": 643702,
          "siteUnitNumber": 12618,
          "bathingSite": "RYDE",
          "eventStart": "2022-10-17T04:47:00",
          "eventStop": "2022-10-17T08:58:00",
          "duration": 251,
          "status": "Genuine",
          "associatedSiteId": 109777,
          "outfallName": "APPLEY PARK RYDE TRANSFER",
          "isImpacting": true,
          "overFlowSiteId": 108941,
          "historicSpillsList": []
        }
      ]
    },
    {
      "id": 343982492,
      "eventId": 643063,
      "siteUnitNumber": 12582,
      "bathingSite": "SEAFORD",
      "eventStart": "2022-10-17T07:32:00",
      "eventStop": "2022-10-17T08:41:00",
      "duration": 69,
      "status": "Genuine",
      "associatedSiteId": 109957,
      "outfallName": "PORTOBELLO BRIGHTON NO2",
      "isImpacting": false,
      "overFlowSiteId": 0,
      "historicSpillsList": []
    },
    {
      "id": 343980343,
      "eventId": 643075,
      "siteUnitNumber": 12587,
      "bathingSite": "SOUTHWICK",
      "eventStart": "2022-10-17T07:52:47",
      "eventStop": "2022-10-17T08:11:33",
      "duration": 18,
      "status": "Genuine",
      "associatedSiteId": 109929,
      "outfallName": "SHOREHAM NO1",
      "isImpacting": true,
      "overFlowSiteId": 0,
      "historicSpillsList": [
        {
          "id": 343980343,
          "eventId": 643075,
          "siteUnitNumber": 12587,
          "bathingSite": "SOUTHWICK",
          "eventStart": "2022-10-17T07:52:47",
          "eventStop": "2022-10-17T08:11:33",
          "duration": 18,
          "status": "Genuine",
          "associatedSiteId": 109929,
          "outfallName": "SHOREHAM NO1",
          "isImpacting": true,
          "overFlowSiteId": 115434
        },
        {
          "id": 343980344,
          "eventId": 643075,
          "siteUnitNumber": 12588,
          "bathingSite": "SHOREHAM BEACH",
          "eventStart": "2022-10-17T07:52:47",
          "eventStop": "2022-10-17T08:11:33",
          "duration": 18,
          "status": "Genuine",
          "associatedSiteId": 109929,
          "outfallName": "SHOREHAM NO1",
          "isImpacting": true,
          "overFlowSiteId": 115434,
          "historicSpillsList": []
        },
        {
          "id": 343980348,
          "eventId": 643075,
          "siteUnitNumber": 12586,
          "bathingSite": "HOVE",
          "eventStart": "2022-10-17T07:52:47",
          "eventStop": "2022-10-17T08:11:33",
          "duration": 18,
          "status": "Genuine",
          "associatedSiteId": 109929,
          "outfallName": "SHOREHAM NO1",
          "isImpacting": true,
          "overFlowSiteId": 115434,
          "historicSpillsList": []
        }
      ]
    },
    {
      "id": 343986259,
      "eventId": 643630,
      "siteUnitNumber": 12591,
      "bathingSite": "LITTLEHAMPTON",
      "eventStart": "2022-10-17T06:25:19",
      "eventStop": "2022-10-17T07:40:00",
      "duration": 74,
      "status": "Genuine",
      "associatedSiteId": 109971,
      "outfallName": "BROADMARK LANE RUSTINGTON",
      "isImpacting": true,
      "overFlowSiteId": 0,
      "historicSpillsList": [
        {
          "id": 343986259,
          "eventId": 643630,
          "siteUnitNumber": 12591,
          "bathingSite": "LITTLEHAMPTON",
          "eventStart": "2022-10-17T06:25:19",
          "eventStop": "2022-10-17T07:40:00",
          "duration": 74,
          "status": "Genuine",
          "associatedSiteId": 109971,
          "outfallName": "BROADMARK LANE RUSTINGTON",
          "isImpacting": true,
          "overFlowSiteId": 107443
        }
      ]
    },
    {
      "id": 343986062,
      "eventId": 642998,
      "siteUnitNumber": 12591,
      "bathingSite": "LITTLEHAMPTON",
      "eventStart": "2022-10-17T05:49:09",
      "eventStop": "2022-10-17T07:37:00",
      "duration": 107,
      "status": "Genuine",
      "associatedSiteId": 109968,
      "outfallName": "FORD ROAD ARUNDEL",
      "isImpacting": true,
      "overFlowSiteId": 0,
      "historicSpillsList": [
        {
          "id": 343986062,
          "eventId": 642998,
          "siteUnitNumber": 12591,
          "bathingSite": "LITTLEHAMPTON",
          "eventStart": "2022-10-17T05:49:09",
          "eventStop": "2022-10-17T07:37:00",
          "duration": 107,
          "status": "Genuine",
          "associatedSiteId": 109968,
          "outfallName": "FORD ROAD ARUNDEL",
          "isImpacting": true,
          "overFlowSiteId": 108002
        }
      ]
    },
    {
      "id": 343985571,
      "eventId": 643040,
      "siteUnitNumber": 12591,
      "bathingSite": "LITTLEHAMPTON",
      "eventStart": "2022-10-17T07:09:00",
      "eventStop": "2022-10-17T07:28:00",
      "duration": 19,
      "status": "Genuine",
      "associatedSiteId": 109965,
      "outfallName": "SEA ROAD LITTLEHAMPTON",
      "isImpacting": false,
      "overFlowSiteId": 0,
      "historicSpillsList": []
    },
    {
      "id": 343985834,
      "eventId": 643003,
      "siteUnitNumber": 12592,
      "bathingSite": "MIDDLETON-ON-SEA",
      "eventStart": "2022-10-17T06:00:00",
      "eventStop": "2022-10-17T06:57:00",
      "duration": 57,
      "status": "Genuine",
      "associatedSiteId": 109967,
      "outfallName": "GLOUCESTER ROAD BOGNOR",
      "isImpacting": false,
      "overFlowSiteId": 0,
      "historicSpillsList": []
    },
    {
      "id": 344002858,
      "eventId": 643027,
      "siteUnitNumber": 12591,
      "bathingSite": "LITTLEHAMPTON",
      "eventStart": "2022-10-17T06:38:00",
      "eventStop": "2022-10-17T06:48:00",
      "duration": 10,
      "status": "Genuine",
      "associatedSiteId": 115703,
      "outfallName": "STATION ROAD RUSTINGTON",
      "isImpacting": true,
      "overFlowSiteId": 0,
      "historicSpillsList": [
        {
          "id": 344002858,
          "eventId": 643027,
          "siteUnitNumber": 12591,
          "bathingSite": "LITTLEHAMPTON",
          "eventStart": "2022-10-17T06:38:00",
          "eventStop": "2022-10-17T06:48:00",
          "duration": 10,
          "status": "Genuine",
          "associatedSiteId": 115703,
          "outfallName": "STATION ROAD RUSTINGTON",
          "isImpacting": true,
          "overFlowSiteId": 111809
        }
      ]
    },
    {
      "id": 343985570,
      "eventId": 643013,
      "siteUnitNumber": 12591,
      "bathingSite": "LITTLEHAMPTON",
      "eventStart": "2022-10-17T06:15:00",
      "eventStop": "2022-10-17T06:34:00",
      "duration": 19,
      "status": "Genuine",
      "associatedSiteId": 109965,
      "outfallName": "SEA ROAD LITTLEHAMPTON",
      "isImpacting": false,
      "overFlowSiteId": 0,
      "historicSpillsList": []
    },
    {
      "id": 343985048,
      "eventId": 643004,
      "siteUnitNumber": 12591,
      "bathingSite": "LITTLEHAMPTON",
      "eventStart": "2022-10-17T06:00:00",
      "eventStop": "2022-10-17T06:15:00",
      "duration": 15,
      "status": "Genuine",
      "associatedSiteId": 109961,
      "outfallName": "TOWN QUAY ARUNDEL",
      "isImpacting": false,
      "overFlowSiteId": 0,
      "historicSpillsList": []
    },
    {
      "id": 343986540,
      "eventId": 643044,
      "siteUnitNumber": 12593,
      "bathingSite": "FELPHAM",
      "eventStart": "2022-10-17T05:43:00",
      "eventStop": "2022-10-17T06:03:00",
      "duration": 20,
      "status": "Genuine",
      "associatedSiteId": 109973,
      "outfallName": "ALDWICK AVENUE BOGNOR",
      "isImpacting": true,
      "overFlowSiteId": 0,
      "historicSpillsList": [
        {
          "id": 343986540,
          "eventId": 643044,
          "siteUnitNumber": 12593,
          "bathingSite": "FELPHAM",
          "eventStart": "2022-10-17T05:43:00",
          "eventStop": "2022-10-17T06:03:00",
          "duration": 20,
          "status": "Genuine",
          "associatedSiteId": 109973,
          "outfallName": "ALDWICK AVENUE BOGNOR",
          "isImpacting": true,
          "overFlowSiteId": 103303
        },
        {
          "id": 343986541,
          "eventId": 643044,
          "siteUnitNumber": 12594,
          "bathingSite": "BOGNOR REGIS EAST",
          "eventStart": "2022-10-17T05:43:00",
          "eventStop": "2022-10-17T06:03:00",
          "duration": 20,
          "status": "Genuine",
          "associatedSiteId": 109973,
          "outfallName": "ALDWICK AVENUE BOGNOR",
          "isImpacting": true,
          "overFlowSiteId": 103303,
          "historicSpillsList": []
        },
        {
          "id": 343986542,
          "eventId": 643044,
          "siteUnitNumber": 12595,
          "bathingSite": "BOGNOR REGIS (ALDWICK)",
          "eventStart": "2022-10-17T05:43:00",
          "eventStop": "2022-10-17T06:03:00",
          "duration": 20,
          "status": "Genuine",
          "associatedSiteId": 109973,
          "outfallName": "ALDWICK AVENUE BOGNOR",
          "isImpacting": true,
          "overFlowSiteId": 103303,
          "historicSpillsList": []
        },
        {
          "id": 343986543,
          "eventId": 643044,
          "siteUnitNumber": 12596,
          "bathingSite": "PAGHAM",
          "eventStart": "2022-10-17T05:43:00",
          "eventStop": "2022-10-17T06:03:00",
          "duration": 20,
          "status": "Genuine",
          "associatedSiteId": 109973,
          "outfallName": "ALDWICK AVENUE BOGNOR",
          "isImpacting": true,
          "overFlowSiteId": 103303,
          "historicSpillsList": []
        }
      ]
    },
    {
      "id": 343996075,
      "eventId": 643011,
      "siteUnitNumber": 12616,
      "bathingSite": "GURNARD",
      "eventStart": "2022-10-17T05:00:00",
      "eventStop": "2022-10-17T05:38:00",
      "duration": 38,
      "status": "Genuine",
      "associatedSiteId": 110701,
      "outfallName": "TERMINUS ROAD COWES 2",
      "isImpacting": true,
      "overFlowSiteId": 0,
      "historicSpillsList": [
        {
          "id": 343996075,
          "eventId": 643011,
          "siteUnitNumber": 12616,
          "bathingSite": "GURNARD",
          "eventStart": "2022-10-17T05:00:00",
          "eventStop": "2022-10-17T05:38:00",
          "duration": 38,
          "status": "Genuine",
          "associatedSiteId": 110701,
          "outfallName": "TERMINUS ROAD COWES 2",
          "isImpacting": true,
          "overFlowSiteId": 108562
        },
        {
          "id": 343996076,
          "eventId": 643011,
          "siteUnitNumber": 12617,
          "bathingSite": "COWES",
          "eventStart": "2022-10-17T05:00:00",
          "eventStop": "2022-10-17T05:38:00",
          "duration": 38,
          "status": "Genuine",
          "associatedSiteId": 110701,
          "outfallName": "TERMINUS ROAD COWES 2",
          "isImpacting": true,
          "overFlowSiteId": 108562,
          "historicSpillsList": []
        }
      ]
    },
    {
      "id": 343971816,
      "eventId": 643002,
      "siteUnitNumber": 12604,
      "bathingSite": "SOUTHSEA EAST",
      "eventStart": "2022-10-17T05:07:00",
      "eventStop": "2022-10-17T05:33:00",
      "duration": 26,
      "status": "Genuine",
      "associatedSiteId": 109822,
      "outfallName": "PIER ROAD SOUTHSEA",
      "isImpacting": true,
      "overFlowSiteId": 0,
      "historicSpillsList": [
        {
          "id": 343971816,
          "eventId": 643002,
          "siteUnitNumber": 12604,
          "bathingSite": "SOUTHSEA EAST",
          "eventStart": "2022-10-17T05:07:00",
          "eventStop": "2022-10-17T05:33:00",
          "duration": 26,
          "status": "Genuine",
          "associatedSiteId": 109822,
          "outfallName": "PIER ROAD SOUTHSEA",
          "isImpacting": true,
          "overFlowSiteId": 108469
        },
        {
          "id": 343971817,
          "eventId": 643002,
          "siteUnitNumber": 12605,
          "bathingSite": "STOKES BAY",
          "eventStart": "2022-10-17T05:07:00",
          "eventStop": "2022-10-17T05:33:00",
          "duration": 26,
          "status": "Genuine",
          "associatedSiteId": 109822,
          "outfallName": "PIER ROAD SOUTHSEA",
          "isImpacting": true,
          "overFlowSiteId": 108469,
          "historicSpillsList": []
        }
      ]
    },
    {
      "id": 343988449,
      "eventId": 643103,
      "siteUnitNumber": 12625,
      "bathingSite": "SHANKLIN",
      "eventStart": "2022-10-17T04:53:00",
      "eventStop": "2022-10-17T05:22:00",
      "duration": 29,
      "status": "Genuine",
      "associatedSiteId": 110034,
      "outfallName": "LUCCOMBE",
      "isImpacting": false,
      "overFlowSiteId": 0,
      "historicSpillsList": []
    }
  ]
}