{
  "currentPage": 550,
  "totalItems": 21025,
  "totalPages": 841,
  "items": [
    {
      "id": 344821874,
      "eventId": 635323,
      "siteUnitNumber": 12618,
      "bathingSite": "RYDE",
      "eventStart": "2022-09-23T08:00:00",
      "eventStop": "2022-09-23T10:24:00",
      "duration": 144,
      "status": "Genuine",
      "associatedSiteId": 109778,
      "outfallName": "PRINCE CONSORT RYDE NEW",
      "isImpacting": true,
      "overFlowSiteId": 0,
      "historicSpillsList": [
        {
          "id": 344821874,
          "eventId": 635323,
          "siteUnitNumber": 12618,
          "bathingSite": "RYDE",
          "eventStart": "2022-09-23T08:00:00",
          "eventStop": "2022-09-23T10:24:00",
          "duration": 144,
          "status": "Genuine",
          "associatedSiteId": 109778,
          "outfallName": "PRINCE CONSORT RYDE NEW",
          "isImpacting": true,
          "overFlowSiteId": 108043
        }
      ]
    },
    {
      "id": 344834326,
      "eventId": 635360,
      "siteUnitNumber": 12582,
      "bathingSite": "SEAFORD",
      "eventStart": "2022-09-23T09:15:00",
      "eventStop": "2022-09-23T10:00:00",
      "duration": 45,
      "status": "Genuine",
      "associatedSiteId": 109957,
      "outfallName": "PORTOBELLO BRIGHTON NO2",
      "isImpacting": false,
      "overFlowSiteId": 0,
      "historicSpillsList": []
    },
    {
      "id": 344852484,
      "eventId": 635340,
      "siteUnitNumber": 12614,
      "bathingSite": "TOTLAND BAY",
      "eventStart": "2022-09-23T08:00:00",
      "eventStop": "2022-09-23T10:00:00",
      "duration": 120,
      "status": "Genuine",
      "associatedSiteId": 115498,
      "outfallName": "NORTON TRANSFER IOW",
      "isImpacting": true,
      "overFlowSiteId": 0,
      "historicSpillsList": [
        {
          "id": 344852484,
          "eventId": 635340,
          "siteUnitNumber": 12614,
          "bathingSite": "TOTLAND BAY",
          "eventStart": "2022-09-23T08:00:00",
          "eventStop": "2022-09-23T10:00:00",
          "duration": 120,
          "status": "Genuine",
          "associatedSiteId": 115498,
          "outfallName": "NORTON TRANSFER IOW",
          "isImpacting": true,
          "overFlowSiteId": 108544
        },
        {
          "id": 344852485,
          "eventId": 635340,
          "siteUnitNumber": 12615,
          "bathingSite": "COLWELL BAY",
          "eventStart": "2022-09-23T08:00:00",
          "eventStop": "2022-09-23T10:00:00",
          "duration": 120,
          "status": "Genuine",
          "associatedSiteId": 115498,
          "outfallName": "NORTON TRANSFER IOW",
          "isImpacting": true,
          "overFlowSiteId": 108544,
          "historicSpillsList": []
        }
      ]
    },
    {
      "id": 344849048,
      "eventId": 635386,
      "siteUnitNumber": 12582,
      "bathingSite": "SEAFORD",
      "eventStart": "2022-09-23T08:56:21",
      "eventStop": "2022-09-23T09:59:12",
      "duration": 62,
      "status": "Genuine",
      "associatedSiteId": 110920,
      "outfallName": "NEWHAVEN",
      "isImpacting": false,
      "overFlowSiteId": 0,
      "historicSpillsList": []
    },
    {
      "id": 344848730,
      "eventId": 635303,
      "siteUnitNumber": 12620,
      "bathingSite": "ST HELENS",
      "eventStart": "2022-09-23T07:42:33",
      "eventStop": "2022-09-23T09:53:34",
      "duration": 131,
      "status": "Genuine",
      "associatedSiteId": 110761,
      "outfallName": "BRADING",
      "isImpacting": true,
      "overFlowSiteId": 0,
      "historicSpillsList": [
        {
          "id": 344848730,
          "eventId": 635303,
          "siteUnitNumber": 12620,
          "bathingSite": "ST HELENS",
          "eventStart": "2022-09-23T07:42:33",
          "eventStop": "2022-09-23T09:53:34",
          "duration": 131,
          "status": "Genuine",
          "associatedSiteId": 110761,
          "outfallName": "BRADING",
          "isImpacting": true,
          "overFlowSiteId": 113676
        }
      ]
    },
    {
      "id": 344836495,
      "eventId": 635299,
      "siteUnitNumber": 12594,
      "bathingSite": "BOGNOR REGIS EAST",
      "eventStart": "2022-09-23T07:34:00",
      "eventStop": "2022-09-23T09:51:00",
      "duration": 137,
      "status": "Genuine",
      "associatedSiteId": 109959,
      "outfallName": "WEST PARK BOGNOR REGIS",
      "isImpacting": false,
      "overFlowSiteId": 0,
      "historicSpillsList": []
    },
    {
      "id": 344832184,
      "eventId": 635366,
      "siteUnitNumber": 12586,
      "bathingSite": "HOVE",
      "eventStart": "2022-09-23T09:03:01",
      "eventStop": "2022-09-23T09:32:27",
      "duration": 29,
      "status": "Genuine",
      "associatedSiteId": 109929,
      "outfallName": "SHOREHAM NO1",
      "isImpacting": true,
      "overFlowSiteId": 0,
      "historicSpillsList": [
        {
          "id": 344832184,
          "eventId": 635366,
          "siteUnitNumber": 12586,
          "bathingSite": "HOVE",
          "eventStart": "2022-09-23T09:03:01",
          "eventStop": "2022-09-23T09:32:27",
          "duration": 29,
          "status": "Genuine",
          "associatedSiteId": 109929,
          "outfallName": "SHOREHAM NO1",
          "isImpacting": true,
          "overFlowSiteId": 115434
        },
        {
          "id": 344832179,
          "eventId": 635366,
          "siteUnitNumber": 12587,
          "bathingSite": "SOUTHWICK",
          "eventStart": "2022-09-23T09:03:01",
          "eventStop": "2022-09-23T09:32:27",
          "duration": 29,
          "status": "Genuine",
          "associatedSiteId": 109929,
          "outfallName": "SHOREHAM NO1",
          "isImpacting": true,
          "overFlowSiteId": 115434,
          "historicSpillsList": []
        },
        {
          "id": 344832180,
          "eventId": 635366,
          "siteUnitNumber": 12588,
          "bathingSite": "SHOREHAM BEACH",
          "eventStart": "2022-09-23T09:03:01",
          "eventStop": "2022-09-23T09:32:27",
          "duration": 29,
          "status": "Genuine",
          "associatedSiteId": 109929,
          "outfallName": "SHOREHAM NO1",
          "isImpacting": true,
          "overFlowSiteId": 115434,
          "historicSpillsList": []
        }
      ]
    },
    {
      "id": 344822546,
      "eventId": 635263,
      "siteUnitNumber": 12618,
      "bathingSite": "RYDE",
      "eventStart": "2022-09-23T06:56:00",
      "eventStop": "2022-09-23T09:07:00",
      "duration": 131,
      "status": "Genuine",
      "associatedSiteId": 109790,
      "outfallName": "GREAT PRESTON ROAD RYDE",
      "isImpacting": true,
      "overFlowSiteId": 0,
      "historicSpillsList": [
        {
          "id": 344822546,
          "eventId": 635263,
          "siteUnitNumber": 12618,
          "bathingSite": "RYDE",
          "eventStart": "2022-09-23T06:56:00",
          "eventStop": "2022-09-23T09:07:00",
          "duration": 131,
          "status": "Genuine",
          "associatedSiteId": 109790,
          "outfallName": "GREAT PRESTON ROAD RYDE",
          "isImpacting": true,
          "overFlowSiteId": 109304
        },
        {
          "id": 344822547,
          "eventId": 635263,
          "siteUnitNumber": 12619,
          "bathingSite": "SEAGROVE",
          "eventStart": "2022-09-23T06:56:00",
          "eventStop": "2022-09-23T09:07:00",
          "duration": 131,
          "status": "Genuine",
          "associatedSiteId": 109790,
          "outfallName": "GREAT PRESTON ROAD RYDE",
          "isImpacting": true,
          "overFlowSiteId": 109304,
          "historicSpillsList": []
        }
      ]
    },
    {
      "id": 344813121,
      "eventId": 635260,
      "siteUnitNumber": 12616,
      "bathingSite": "GURNARD",
      "eventStart": "2022-09-23T06:45:00",
      "eventStop": "2022-09-23T08:45:00",
      "duration": 120,
      "status": "Genuine",
      "associatedSiteId": 109650,
      "outfallName": "MARSH ROAD GURNARD",
      "isImpacting": true,
      "overFlowSiteId": 0,
      "historicSpillsList": [
        {
          "id": 344813121,
          "eventId": 635260,
          "siteUnitNumber": 12616,
          "bathingSite": "GURNARD",
          "eventStart": "2022-09-23T06:45:00",
          "eventStop": "2022-09-23T08:45:00",
          "duration": 120,
          "status": "Genuine",
          "associatedSiteId": 109650,
          "outfallName": "MARSH ROAD GURNARD",
          "isImpacting": true,
          "overFlowSiteId": 107441
        }
      ]
    },
    {
      "id": 344852486,
      "eventId": 635305,
      "siteUnitNumber": 12615,
      "bathingSite": "COLWELL BAY",
      "eventStart": "2022-09-23T07:49:00",
      "eventStop": "2022-09-23T08:44:00",
      "duration": 55,
      "status": "Genuine",
      "associatedSiteId": 115498,
      "outfallName": "NORTON TRANSFER IOW",
      "isImpacting": true,
      "overFlowSiteId": 0,
      "historicSpillsList": [
        {
          "id": 344852486,
          "eventId": 635305,
          "siteUnitNumber": 12615,
          "bathingSite": "COLWELL BAY",
          "eventStart": "2022-09-23T07:49:00",
          "eventStop": "2022-09-23T08:44:00",
          "duration": 55,
          "status": "Genuine",
          "associatedSiteId": 115498,
          "outfallName": "NORTON TRANSFER IOW",
          "isImpacting": true,
          "overFlowSiteId": 109524
        },
        {
          "id": 344852487,
          "eventId": 635305,
          "siteUnitNumber": 12614,
          "bathingSite": "TOTLAND BAY",
          "eventStart": "2022-09-23T07:49:00",
          "eventStop": "2022-09-23T08:44:00",
          "duration": 55,
          "status": "Genuine",
          "associatedSiteId": 115498,
          "outfallName": "NORTON TRANSFER IOW",
          "isImpacting": true,
          "overFlowSiteId": 109524,
          "historicSpillsList": []
        }
      ]
    },
    {
      "id": 344832997,
      "eventId": 635271,
      "siteUnitNumber": 12620,
      "bathingSite": "ST HELENS",
      "eventStart": "2022-09-23T06:57:04",
      "eventStop": "2022-09-23T08:36:00",
      "duration": 98,
      "status": "Genuine",
      "associatedSiteId": 109938,
      "outfallName": "THE POINT BEMBRIDGE",
      "isImpacting": true,
      "overFlowSiteId": 0,
      "historicSpillsList": [
        {
          "id": 344832997,
          "eventId": 635271,
          "siteUnitNumber": 12620,
          "bathingSite": "ST HELENS",
          "eventStart": "2022-09-23T06:57:04",
          "eventStop": "2022-09-23T08:36:00",
          "duration": 98,
          "status": "Genuine",
          "associatedSiteId": 109938,
          "outfallName": "THE POINT BEMBRIDGE",
          "isImpacting": true,
          "overFlowSiteId": 110194
        }
      ]
    },
    {
      "id": 344840272,
      "eventId": 635559,
      "siteUnitNumber": 12625,
      "bathingSite": "SHANKLIN",
      "eventStart": "2022-09-23T07:36:00",
      "eventStop": "2022-09-23T08:10:00",
      "duration": 34,
      "status": "Genuine",
      "associatedSiteId": 110034,
      "outfallName": "LUCCOMBE",
      "isImpacting": false,
      "overFlowSiteId": 0,
      "historicSpillsList": []
    },
    {
      "id": 344812483,
      "eventId": 635375,
      "siteUnitNumber": 12618,
      "bathingSite": "RYDE",
      "eventStart": "2022-09-23T07:02:00",
      "eventStop": "2022-09-23T08:03:00",
      "duration": 61,
      "status": "Genuine",
      "associatedSiteId": 102971,
      "outfallName": "SPRING VALE",
      "isImpacting": false,
      "overFlowSiteId": 0,
      "historicSpillsList": []
    },
    {
      "id": 344822011,
      "eventId": 635267,
      "siteUnitNumber": 12618,
      "bathingSite": "RYDE",
      "eventStart": "2022-09-23T06:57:04",
      "eventStop": "2022-09-23T07:45:00",
      "duration": 47,
      "status": "Genuine",
      "associatedSiteId": 109780,
      "outfallName": "LADIES WALK BINSTEAD",
      "isImpacting": true,
      "overFlowSiteId": 0,
      "historicSpillsList": [
        {
          "id": 344822011,
          "eventId": 635267,
          "siteUnitNumber": 12618,
          "bathingSite": "RYDE",
          "eventStart": "2022-09-23T06:57:04",
          "eventStop": "2022-09-23T07:45:00",
          "duration": 47,
          "status": "Genuine",
          "associatedSiteId": 109780,
          "outfallName": "LADIES WALK BINSTEAD",
          "isImpacting": true,
          "overFlowSiteId": 107406
        }
      ]
    },
    {
      "id": 344817095,
      "eventId": 636361,
      "siteUnitNumber": 12616,
      "bathingSite": "GURNARD",
      "eventStart": "2022-09-23T07:21:00",
      "eventStop": "2022-09-23T07:41:00",
      "duration": 20,
      "status": "Genuine",
      "associatedSiteId": 109702,
      "outfallName": "ALBANY ROAD EAST COWES",
      "isImpacting": true,
      "overFlowSiteId": 0,
      "historicSpillsList": [
        {
          "id": 344817095,
          "eventId": 636361,
          "siteUnitNumber": 12616,
          "bathingSite": "GURNARD",
          "eventStart": "2022-09-23T07:21:00",
          "eventStop": "2022-09-23T07:41:00",
          "duration": 20,
          "status": "Genuine",
          "associatedSiteId": 109702,
          "outfallName": "ALBANY ROAD EAST COWES",
          "isImpacting": true,
          "overFlowSiteId": 116071
        },
        {
          "id": 344817096,
          "eventId": 636361,
          "siteUnitNumber": 12617,
          "bathingSite": "COWES",
          "eventStart": "2022-09-23T07:21:00",
          "eventStop": "2022-09-23T07:41:00",
          "duration": 20,
          "status": "Genuine",
          "associatedSiteId": 109702,
          "outfallName": "ALBANY ROAD EAST COWES",
          "isImpacting": true,
          "overFlowSiteId": 116071,
          "historicSpillsList": []
        }
      ]
    },
    {
      "id": 344818737,
      "eventId": 635221,
      "siteUnitNumber": 12616,
      "bathingSite": "GURNARD",
      "eventStart": "2022-09-23T05:40:00",
      "eventStop": "2022-09-23T07:31:00",
      "duration": 111,
      "status": "Genuine",
      "associatedSiteId": 109707,
      "outfallName": "MEDINA ROAD COWES",
      "isImpacting": false,
      "overFlowSiteId": 0,
      "historicSpillsList": []
    },
    {
      "id": 344847927,
      "eventId": 635218,
      "siteUnitNumber": 12617,
      "bathingSite": "COWES",
      "eventStart": "2022-09-23T05:34:14",
      "eventStop": "2022-09-23T07:16:00",
      "duration": 101,
      "status": "Genuine",
      "associatedSiteId": 110701,
      "outfallName": "TERMINUS ROAD COWES 2",
      "isImpacting": true,
      "overFlowSiteId": 0,
      "historicSpillsList": [
        {
          "id": 344847927,
          "eventId": 635218,
          "siteUnitNumber": 12617,
          "bathingSite": "COWES",
          "eventStart": "2022-09-23T05:34:14",
          "eventStop": "2022-09-23T07:16:00",
          "duration": 101,
          "status": "Genuine",
          "associatedSiteId": 110701,
          "outfallName": "TERMINUS ROAD COWES 2",
          "isImpacting": true,
          "overFlowSiteId": 108563
        },
        {
          "id": 344847928,
          "eventId": 635218,
          "siteUnitNumber": 12616,
          "bathingSite": "GURNARD",
          "eventStart": "2022-09-23T05:34:14",
          "eventStop": "2022-09-23T07:16:00",
          "duration": 101,
          "status": "Genuine",
          "associatedSiteId": 110701,
          "outfallName": "TERMINUS ROAD COWES 2",
          "isImpacting": true,
          "overFlowSiteId": 108563,
          "historicSpillsList": []
        }
      ]
    },
    {
      "id": 344821930,
      "eventId": 635259,
      "siteUnitNumber": 12618,
      "bathingSite": "RYDE",
      "eventStart": "2022-09-23T06:40:35",
      "eventStop": "2022-09-23T07:03:00",
      "duration": 22,
      "status": "Genuine",
      "associatedSiteId": 109779,
      "outfallName": "ASHEY ROAD RYDE",
      "isImpacting": false,
      "overFlowSiteId": 0,
      "historicSpillsList": []
    },
    {
      "id": 344847925,
      "eventId": 635232,
      "siteUnitNumber": 12616,
      "bathingSite": "GURNARD",
      "eventStart": "2022-09-23T05:45:00",
      "eventStop": "2022-09-23T06:48:00",
      "duration": 63,
      "status": "Genuine",
      "associatedSiteId": 110701,
      "outfallName": "TERMINUS ROAD COWES 2",
      "isImpacting": true,
      "overFlowSiteId": 0,
      "historicSpillsList": [
        {
          "id": 344847925,
          "eventId": 635232,
          "siteUnitNumber": 12616,
          "bathingSite": "GURNARD",
          "eventStart": "2022-09-23T05:45:00",
          "eventStop": "2022-09-23T06:48:00",
          "duration": 63,
          "status": "Genuine",
          "associatedSiteId": 110701,
          "outfallName": "TERMINUS ROAD COWES 2",
          "isImpacting": true,
          "overFlowSiteId": 108562
        },
        {
          "id": 344847926,
          "eventId": 635232,
          "siteUnitNumber": 12617,
          "bathingSite": "COWES",
          "eventStart": "2022-09-23T05:45:00",
          "eventStop": "2022-09-23T06:48:00",
          "duration": 63,
          "status": "Genuine",
          "associatedSiteId": 110701,
          "outfallName": "TERMINUS ROAD COWES 2",
          "isImpacting": true,
          "overFlowSiteId": 108562,
          "historicSpillsList": []
        }
      ]
    },
    {
      "id": 344816703,
      "eventId": 635558,
      "siteUnitNumber": 12616,
      "bathingSite": "GURNARD",
      "eventStart": "2022-09-23T05:39:08",
      "eventStop": "2022-09-23T06:43:00",
      "duration": 63,
      "status": "Genuine",
      "associatedSiteId": 109700,
      "outfallName": "MARKET HILL COWES",
      "isImpacting": false,
      "overFlowSiteId": 0,
      "historicSpillsList": []
    },
    {
      "id": 344817097,
      "eventId": 635227,
      "siteUnitNumber": 12616,
      "bathingSite": "GURNARD",
      "eventStart": "2022-09-23T05:51:00",
      "eventStop": "2022-09-23T06:29:00",
      "duration": 38,
      "status": "Genuine",
      "associatedSiteId": 109702,
      "outfallName": "ALBANY ROAD EAST COWES",
      "isImpacting": false,
      "overFlowSiteId": 0,
      "historicSpillsList": []
    },
    {
      "id": 344817593,
      "eventId": 635224,
      "siteUnitNumber": 12616,
      "bathingSite": "GURNARD",
      "eventStart": "2022-09-23T05:45:00",
      "eventStop": "2022-09-23T06:13:00",
      "duration": 28,
      "status": "Genuine",
      "associatedSiteId": 109704,
      "outfallName": "EGYPT POINT COWES",
      "isImpacting": true,
      "overFlowSiteId": 0,
      "historicSpillsList": [
        {
          "id": 344817594,
          "eventId": 635224,
          "siteUnitNumber": 12617,
          "bathingSite": "COWES",
          "eventStart": "2022-09-23T05:45:00",
          "eventStop": "2022-09-23T06:13:00",
          "duration": 28,
          "status": "Genuine",
          "associatedSiteId": 109704,
          "outfallName": "EGYPT POINT COWES",
          "isImpacting": true,
          "overFlowSiteId": 116213,
          "historicSpillsList": []
        }
      ]
    },
    {
      "id": 344818517,
      "eventId": 643775,
      "siteUnitNumber": 12616,
      "bathingSite": "GURNARD",
      "eventStart": "2022-09-23T05:42:00",
      "eventStop": "2022-09-23T06:05:00",
      "duration": 23,
      "status": "Genuine",
      "associatedSiteId": 109706,
      "outfallName": "HIGH STREET COWES",
      "isImpacting": true,
      "overFlowSiteId": 0,
      "historicSpillsList": [
        {
          "id": 344818517,
          "eventId": 643775,
          "siteUnitNumber": 12616,
          "bathingSite": "GURNARD",
          "eventStart": "2022-09-23T05:42:00",
          "eventStop": "2022-09-23T06:05:00",
          "duration": 23,
          "status": "Genuine",
          "associatedSiteId": 109706,
          "outfallName": "HIGH STREET COWES",
          "isImpacting": true,
          "overFlowSiteId": 108528
        },
        {
          "id": 344818518,
          "eventId": 643775,
          "siteUnitNumber": 12617,
          "bathingSite": "COWES",
          "eventStart": "2022-09-23T05:42:00",
          "eventStop": "2022-09-23T06:05:00",
          "duration": 23,
          "status": "Genuine",
          "associatedSiteId": 109706,
          "outfallName": "HIGH STREET COWES",
          "isImpacting": true,
          "overFlowSiteId": 108528,
          "historicSpillsList": []
        }
      ]
    },
    {
      "id": 344854409,
      "eventId": 634024,
      "siteUnitNumber": 12577,
      "bathingSite": "BEXHILL",
      "eventStart": "2022-09-16T15:34:22",
      "eventStop": "2022-09-16T16:00:00",
      "duration": 25,
      "status": "Not Genuine",
      "associatedSiteId": 115500,
      "outfallName": "BEXHILL DOWN",
      "isImpacting": true,
      "overFlowSiteId": 0,
      "historicSpillsList": []
    },
    {
      "id": 344828720,
      "eventId": 633769,
      "siteUnitNumber": 12568,
      "bathingSite": "SANDGATE",
      "eventStart": "2022-09-15T11:00:00",
      "eventStop": "2022-09-15T11:30:00",
      "duration": 30,
      "status": "Not Genuine",
      "associatedSiteId": 109897,
      "outfallName": "RANGE ROAD HYTHE K LONG",
      "isImpacting": false,
      "overFlowSiteId": 0,
      "historicSpillsList": []
    }
  ]
}