{
  "currentPage": 225,
  "totalItems": 18701,
  "totalPages": 749,
  "items": [
    {
      "id": 343979891,
      "eventId": 847163,
      "siteUnitNumber": 12587,
      "bathingSite": "SOUTHWICK",
      "eventStart": "2023-08-14T07:58:00",
      "eventStop": "2023-08-14T08:02:00",
      "duration": 4,
      "status": "Genuine",
      "associatedSiteId": 109923,
      "outfallName": "THE GREEN SOUTHWICK",
      "isImpacting": false,
      "overFlowSiteId": 0,
      "historicSpillsList": []
    },
    {
      "id": 343979897,
      "eventId": 847162,
      "siteUnitNumber": 12587,
      "bathingSite": "SOUTHWICK",
      "eventStart": "2023-08-14T07:52:00",
      "eventStop": "2023-08-14T07:56:00",
      "duration": 4,
      "status": "Genuine",
      "associatedSiteId": 109923,
      "outfallName": "THE GREEN SOUTHWICK",
      "isImpacting": false,
      "overFlowSiteId": 0,
      "historicSpillsList": []
    },
    {
      "id": 343972417,
      "eventId": 845755,
      "siteUnitNumber": 12548,
      "bathingSite": "TANKERTON",
      "eventStart": "2023-08-07T23:08:15",
      "eventStop": "2023-08-07T23:30:00",
      "duration": 21,
      "status": "Genuine",
      "associatedSiteId": 109830,
      "outfallName": "SWALECLIFFE NO1",
      "isImpacting": false,
      "overFlowSiteId": 0,
      "historicSpillsList": []
    },
    {
      "id": 343965973,
      "eventId": 845463,
      "siteUnitNumber": 12616,
      "bathingSite": "GURNARD",
      "eventStart": "2023-08-06T19:29:00",
      "eventStop": "2023-08-06T21:34:00",
      "duration": 125,
      "status": "Genuine",
      "associatedSiteId": 109705,
      "outfallName": "SPRINGHILL COWES TRANSFER",
      "isImpacting": true,
      "overFlowSiteId": 0,
      "historicSpillsList": [
        {
          "id": 343965974,
          "eventId": 845463,
          "siteUnitNumber": 12617,
          "bathingSite": "COWES",
          "eventStart": "2023-08-06T19:29:00",
          "eventStop": "2023-08-06T21:34:00",
          "duration": 125,
          "status": "Genuine",
          "associatedSiteId": 109705,
          "outfallName": "SPRINGHILL COWES TRANSFER",
          "isImpacting": true,
          "overFlowSiteId": 108943,
          "historicSpillsList": []
        }
      ]
    },
    {
      "id": 343995635,
      "eventId": 845334,
      "siteUnitNumber": 12616,
      "bathingSite": "GURNARD",
      "eventStart": "2023-08-06T19:13:00",
      "eventStop": "2023-08-06T19:15:00",
      "duration": 2,
      "status": "Genuine",
      "associatedSiteId": 110701,
      "outfallName": "TERMINUS ROAD COWES 2",
      "isImpacting": true,
      "overFlowSiteId": 0,
      "historicSpillsList": [
        {
          "id": 343995635,
          "eventId": 845334,
          "siteUnitNumber": 12616,
          "bathingSite": "GURNARD",
          "eventStart": "2023-08-06T19:13:00",
          "eventStop": "2023-08-06T19:15:00",
          "duration": 2,
          "status": "Genuine",
          "associatedSiteId": 110701,
          "outfallName": "TERMINUS ROAD COWES 2",
          "isImpacting": true,
          "overFlowSiteId": 108562
        },
        {
          "id": 343995636,
          "eventId": 845334,
          "siteUnitNumber": 12617,
          "bathingSite": "COWES",
          "eventStart": "2023-08-06T19:13:00",
          "eventStop": "2023-08-06T19:15:00",
          "duration": 2,
          "status": "Genuine",
          "associatedSiteId": 110701,
          "outfallName": "TERMINUS ROAD COWES 2",
          "isImpacting": true,
          "overFlowSiteId": 108562,
          "historicSpillsList": []
        }
      ]
    },
    {
      "id": 343965975,
      "eventId": 845318,
      "siteUnitNumber": 12616,
      "bathingSite": "GURNARD",
      "eventStart": "2023-08-06T08:13:00",
      "eventStop": "2023-08-06T18:56:00",
      "duration": 643,
      "status": "Genuine",
      "associatedSiteId": 109705,
      "outfallName": "SPRINGHILL COWES TRANSFER",
      "isImpacting": true,
      "overFlowSiteId": 0,
      "historicSpillsList": [
        {
          "id": 343965976,
          "eventId": 845318,
          "siteUnitNumber": 12617,
          "bathingSite": "COWES",
          "eventStart": "2023-08-06T08:13:00",
          "eventStop": "2023-08-06T18:56:00",
          "duration": 643,
          "status": "Genuine",
          "associatedSiteId": 109705,
          "outfallName": "SPRINGHILL COWES TRANSFER",
          "isImpacting": true,
          "overFlowSiteId": 108943,
          "historicSpillsList": []
        }
      ]
    },
    {
      "id": 343965583,
      "eventId": 845464,
      "siteUnitNumber": 12616,
      "bathingSite": "GURNARD",
      "eventStart": "2023-08-06T16:44:00",
      "eventStop": "2023-08-06T16:48:00",
      "duration": 4,
      "status": "Genuine",
      "associatedSiteId": 109704,
      "outfallName": "EGYPT POINT COWES",
      "isImpacting": true,
      "overFlowSiteId": 0,
      "historicSpillsList": [
        {
          "id": 343965584,
          "eventId": 845464,
          "siteUnitNumber": 12617,
          "bathingSite": "COWES",
          "eventStart": "2023-08-06T16:44:00",
          "eventStop": "2023-08-06T16:48:00",
          "duration": 4,
          "status": "Genuine",
          "associatedSiteId": 109704,
          "outfallName": "EGYPT POINT COWES",
          "isImpacting": true,
          "overFlowSiteId": 116213,
          "historicSpillsList": []
        }
      ]
    },
    {
      "id": 343995639,
      "eventId": 845273,
      "siteUnitNumber": 12616,
      "bathingSite": "GURNARD",
      "eventStart": "2023-08-06T16:05:00",
      "eventStop": "2023-08-06T16:34:00",
      "duration": 29,
      "status": "Genuine",
      "associatedSiteId": 110701,
      "outfallName": "TERMINUS ROAD COWES 2",
      "isImpacting": true,
      "overFlowSiteId": 0,
      "historicSpillsList": [
        {
          "id": 343995639,
          "eventId": 845273,
          "siteUnitNumber": 12616,
          "bathingSite": "GURNARD",
          "eventStart": "2023-08-06T16:05:00",
          "eventStop": "2023-08-06T16:34:00",
          "duration": 29,
          "status": "Genuine",
          "associatedSiteId": 110701,
          "outfallName": "TERMINUS ROAD COWES 2",
          "isImpacting": true,
          "overFlowSiteId": 108563
        },
        {
          "id": 343995640,
          "eventId": 845273,
          "siteUnitNumber": 12617,
          "bathingSite": "COWES",
          "eventStart": "2023-08-06T16:05:00",
          "eventStop": "2023-08-06T16:34:00",
          "duration": 29,
          "status": "Genuine",
          "associatedSiteId": 110701,
          "outfallName": "TERMINUS ROAD COWES 2",
          "isImpacting": true,
          "overFlowSiteId": 108563,
          "historicSpillsList": []
        }
      ]
    },
    {
      "id": 343965143,
      "eventId": 845276,
      "siteUnitNumber": 12616,
      "bathingSite": "GURNARD",
      "eventStart": "2023-08-06T16:06:34",
      "eventStop": "2023-08-06T16:27:00",
      "duration": 20,
      "status": "Genuine",
      "associatedSiteId": 109702,
      "outfallName": "ALBANY ROAD EAST COWES",
      "isImpacting": false,
      "overFlowSiteId": 0,
      "historicSpillsList": []
    },
    {
      "id": 343965585,
      "eventId": 845278,
      "siteUnitNumber": 12616,
      "bathingSite": "GURNARD",
      "eventStart": "2023-08-06T16:09:15",
      "eventStop": "2023-08-06T16:25:00",
      "duration": 15,
      "status": "Genuine",
      "associatedSiteId": 109704,
      "outfallName": "EGYPT POINT COWES",
      "isImpacting": true,
      "overFlowSiteId": 0,
      "historicSpillsList": [
        {
          "id": 343965586,
          "eventId": 845278,
          "siteUnitNumber": 12617,
          "bathingSite": "COWES",
          "eventStart": "2023-08-06T16:09:15",
          "eventStop": "2023-08-06T16:25:00",
          "duration": 15,
          "status": "Genuine",
          "associatedSiteId": 109704,
          "outfallName": "EGYPT POINT COWES",
          "isImpacting": true,
          "overFlowSiteId": 116213,
          "historicSpillsList": []
        }
      ]
    },
    {
      "id": 343966533,
      "eventId": 845274,
      "siteUnitNumber": 12616,
      "bathingSite": "GURNARD",
      "eventStart": "2023-08-06T16:04:03",
      "eventStop": "2023-08-06T16:20:44",
      "duration": 16,
      "status": "Genuine",
      "associatedSiteId": 109706,
      "outfallName": "HIGH STREET COWES",
      "isImpacting": false,
      "overFlowSiteId": 0,
      "historicSpillsList": []
    },
    {
      "id": 343964555,
      "eventId": 845275,
      "siteUnitNumber": 12616,
      "bathingSite": "GURNARD",
      "eventStart": "2023-08-06T16:08:00",
      "eventStop": "2023-08-06T16:13:00",
      "duration": 5,
      "status": "Genuine",
      "associatedSiteId": 109700,
      "outfallName": "MARKET HILL COWES",
      "isImpacting": false,
      "overFlowSiteId": 0,
      "historicSpillsList": []
    },
    {
      "id": 343966825,
      "eventId": 845272,
      "siteUnitNumber": 12616,
      "bathingSite": "GURNARD",
      "eventStart": "2023-08-06T16:04:00",
      "eventStop": "2023-08-06T16:13:00",
      "duration": 9,
      "status": "Genuine",
      "associatedSiteId": 109707,
      "outfallName": "MEDINA ROAD COWES",
      "isImpacting": false,
      "overFlowSiteId": 0,
      "historicSpillsList": []
    },
    {
      "id": 343995633,
      "eventId": 845481,
      "siteUnitNumber": 12616,
      "bathingSite": "GURNARD",
      "eventStart": "2023-08-06T15:29:00",
      "eventStop": "2023-08-06T15:32:00",
      "duration": 3,
      "status": "Genuine",
      "associatedSiteId": 110701,
      "outfallName": "TERMINUS ROAD COWES 2",
      "isImpacting": true,
      "overFlowSiteId": 0,
      "historicSpillsList": [
        {
          "id": 343995633,
          "eventId": 845481,
          "siteUnitNumber": 12616,
          "bathingSite": "GURNARD",
          "eventStart": "2023-08-06T15:29:00",
          "eventStop": "2023-08-06T15:32:00",
          "duration": 3,
          "status": "Genuine",
          "associatedSiteId": 110701,
          "outfallName": "TERMINUS ROAD COWES 2",
          "isImpacting": true,
          "overFlowSiteId": 108562
        },
        {
          "id": 343995634,
          "eventId": 845481,
          "siteUnitNumber": 12617,
          "bathingSite": "COWES",
          "eventStart": "2023-08-06T15:29:00",
          "eventStop": "2023-08-06T15:32:00",
          "duration": 3,
          "status": "Genuine",
          "associatedSiteId": 110701,
          "outfallName": "TERMINUS ROAD COWES 2",
          "isImpacting": true,
          "overFlowSiteId": 108562,
          "historicSpillsList": []
        }
      ]
    },
    {
      "id": 343995641,
      "eventId": 845260,
      "siteUnitNumber": 12616,
      "bathingSite": "GURNARD",
      "eventStart": "2023-08-06T15:25:00",
      "eventStop": "2023-08-06T15:29:00",
      "duration": 4,
      "status": "Genuine",
      "associatedSiteId": 110701,
      "outfallName": "TERMINUS ROAD COWES 2",
      "isImpacting": true,
      "overFlowSiteId": 0,
      "historicSpillsList": [
        {
          "id": 343995641,
          "eventId": 845260,
          "siteUnitNumber": 12616,
          "bathingSite": "GURNARD",
          "eventStart": "2023-08-06T15:25:00",
          "eventStop": "2023-08-06T15:29:00",
          "duration": 4,
          "status": "Genuine",
          "associatedSiteId": 110701,
          "outfallName": "TERMINUS ROAD COWES 2",
          "isImpacting": true,
          "overFlowSiteId": 108562
        },
        {
          "id": 343995642,
          "eventId": 845260,
          "siteUnitNumber": 12617,
          "bathingSite": "COWES",
          "eventStart": "2023-08-06T15:25:00",
          "eventStop": "2023-08-06T15:29:00",
          "duration": 4,
          "status": "Genuine",
          "associatedSiteId": 110701,
          "outfallName": "TERMINUS ROAD COWES 2",
          "isImpacting": true,
          "overFlowSiteId": 108562,
          "historicSpillsList": []
        }
      ]
    },
    {
      "id": 343972421,
      "eventId": 845119,
      "siteUnitNumber": 12548,
      "bathingSite": "TANKERTON",
      "eventStart": "2023-08-06T00:23:20",
      "eventStop": "2023-08-06T01:24:02",
      "duration": 60,
      "status": "Genuine",
      "associatedSiteId": 109830,
      "outfallName": "SWALECLIFFE NO1",
      "isImpacting": false,
      "overFlowSiteId": 0,
      "historicSpillsList": []
    },
    {
      "id": 343988958,
      "eventId": 844653,
      "siteUnitNumber": 12623,
      "bathingSite": "YAVERLAND",
      "eventStart": "2023-08-05T09:56:57",
      "eventStop": "2023-08-05T23:16:00",
      "duration": 799,
      "status": "Genuine",
      "associatedSiteId": 110096,
      "outfallName": "SANDOWN NO1",
      "isImpacting": true,
      "overFlowSiteId": 0,
      "historicSpillsList": [
        {
          "id": 343988958,
          "eventId": 844653,
          "siteUnitNumber": 12623,
          "bathingSite": "YAVERLAND",
          "eventStart": "2023-08-05T09:56:57",
          "eventStop": "2023-08-05T23:16:00",
          "duration": 799,
          "status": "Genuine",
          "associatedSiteId": 110096,
          "outfallName": "SANDOWN NO1",
          "isImpacting": true,
          "overFlowSiteId": 115453
        },
        {
          "id": 343988959,
          "eventId": 844653,
          "siteUnitNumber": 12624,
          "bathingSite": "SANDOWN",
          "eventStart": "2023-08-05T09:56:57",
          "eventStop": "2023-08-05T23:16:00",
          "duration": 799,
          "status": "Genuine",
          "associatedSiteId": 110096,
          "outfallName": "SANDOWN NO1",
          "isImpacting": true,
          "overFlowSiteId": 115453,
          "historicSpillsList": []
        },
        {
          "id": 343988965,
          "eventId": 844653,
          "siteUnitNumber": 12622,
          "bathingSite": "WHITECLIFF BAY",
          "eventStart": "2023-08-05T09:56:57",
          "eventStop": "2023-08-05T23:16:00",
          "duration": 799,
          "status": "Genuine",
          "associatedSiteId": 110096,
          "outfallName": "SANDOWN NO1",
          "isImpacting": true,
          "overFlowSiteId": 115453,
          "historicSpillsList": []
        }
      ]
    },
    {
      "id": 343968744,
      "eventId": 845234,
      "siteUnitNumber": 12618,
      "bathingSite": "RYDE",
      "eventStart": "2023-08-05T19:00:00",
      "eventStop": "2023-08-05T22:29:00",
      "duration": 209,
      "status": "Genuine",
      "associatedSiteId": 109777,
      "outfallName": "APPLEY PARK RYDE TRANSFER",
      "isImpacting": true,
      "overFlowSiteId": 0,
      "historicSpillsList": [
        {
          "id": 343968744,
          "eventId": 845234,
          "siteUnitNumber": 12618,
          "bathingSite": "RYDE",
          "eventStart": "2023-08-05T19:00:00",
          "eventStop": "2023-08-05T22:29:00",
          "duration": 209,
          "status": "Genuine",
          "associatedSiteId": 109777,
          "outfallName": "APPLEY PARK RYDE TRANSFER",
          "isImpacting": true,
          "overFlowSiteId": 108941
        }
      ]
    },
    {
      "id": 343977798,
      "eventId": 845059,
      "siteUnitNumber": 12576,
      "bathingSite": "ST LEONARDS",
      "eventStart": "2023-08-05T20:06:18",
      "eventStop": "2023-08-05T20:15:16",
      "duration": 8,
      "status": "Genuine",
      "associatedSiteId": 109903,
      "outfallName": "BEXHILL & HASTINGS NO2",
      "isImpacting": true,
      "overFlowSiteId": 0,
      "historicSpillsList": [
        {
          "id": 343977798,
          "eventId": 845059,
          "siteUnitNumber": 12576,
          "bathingSite": "ST LEONARDS",
          "eventStart": "2023-08-05T20:06:18",
          "eventStop": "2023-08-05T20:15:16",
          "duration": 8,
          "status": "Genuine",
          "associatedSiteId": 109903,
          "outfallName": "BEXHILL & HASTINGS NO2",
          "isImpacting": true,
          "overFlowSiteId": 115398
        },
        {
          "id": 343977799,
          "eventId": 845059,
          "siteUnitNumber": 12577,
          "bathingSite": "BEXHILL",
          "eventStart": "2023-08-05T20:06:18",
          "eventStop": "2023-08-05T20:15:16",
          "duration": 8,
          "status": "Genuine",
          "associatedSiteId": 109903,
          "outfallName": "BEXHILL & HASTINGS NO2",
          "isImpacting": true,
          "overFlowSiteId": 115398,
          "historicSpillsList": []
        }
      ]
    },
    {
      "id": 343977804,
      "eventId": 844989,
      "siteUnitNumber": 12576,
      "bathingSite": "ST LEONARDS",
      "eventStart": "2023-08-05T19:01:18",
      "eventStop": "2023-08-05T19:29:06",
      "duration": 27,
      "status": "Genuine",
      "associatedSiteId": 109903,
      "outfallName": "BEXHILL & HASTINGS NO2",
      "isImpacting": true,
      "overFlowSiteId": 0,
      "historicSpillsList": [
        {
          "id": 343977804,
          "eventId": 844989,
          "siteUnitNumber": 12576,
          "bathingSite": "ST LEONARDS",
          "eventStart": "2023-08-05T19:01:18",
          "eventStop": "2023-08-05T19:29:06",
          "duration": 27,
          "status": "Genuine",
          "associatedSiteId": 109903,
          "outfallName": "BEXHILL & HASTINGS NO2",
          "isImpacting": true,
          "overFlowSiteId": 115398
        },
        {
          "id": 343977805,
          "eventId": 844989,
          "siteUnitNumber": 12577,
          "bathingSite": "BEXHILL",
          "eventStart": "2023-08-05T19:01:18",
          "eventStop": "2023-08-05T19:29:06",
          "duration": 27,
          "status": "Genuine",
          "associatedSiteId": 109903,
          "outfallName": "BEXHILL & HASTINGS NO2",
          "isImpacting": true,
          "overFlowSiteId": 115398,
          "historicSpillsList": []
        }
      ]
    },
    {
      "id": 343968746,
      "eventId": 845233,
      "siteUnitNumber": 12617,
      "bathingSite": "COWES",
      "eventStart": "2023-08-05T14:17:00",
      "eventStop": "2023-08-05T18:45:00",
      "duration": 268,
      "status": "Genuine",
      "associatedSiteId": 109777,
      "outfallName": "APPLEY PARK RYDE TRANSFER",
      "isImpacting": true,
      "overFlowSiteId": 0,
      "historicSpillsList": [
        {
          "id": 343968747,
          "eventId": 845233,
          "siteUnitNumber": 12618,
          "bathingSite": "RYDE",
          "eventStart": "2023-08-05T14:17:00",
          "eventStop": "2023-08-05T18:45:00",
          "duration": 268,
          "status": "Genuine",
          "associatedSiteId": 109777,
          "outfallName": "APPLEY PARK RYDE TRANSFER",
          "isImpacting": true,
          "overFlowSiteId": 108941,
          "historicSpillsList": []
        }
      ]
    },
    {
      "id": 343977802,
      "eventId": 844842,
      "siteUnitNumber": 12576,
      "bathingSite": "ST LEONARDS",
      "eventStart": "2023-08-05T15:57:47",
      "eventStop": "2023-08-05T18:30:00",
      "duration": 152,
      "status": "Genuine",
      "associatedSiteId": 109903,
      "outfallName": "BEXHILL & HASTINGS NO2",
      "isImpacting": true,
      "overFlowSiteId": 0,
      "historicSpillsList": [
        {
          "id": 343977802,
          "eventId": 844842,
          "siteUnitNumber": 12576,
          "bathingSite": "ST LEONARDS",
          "eventStart": "2023-08-05T15:57:47",
          "eventStop": "2023-08-05T18:30:00",
          "duration": 152,
          "status": "Genuine",
          "associatedSiteId": 109903,
          "outfallName": "BEXHILL & HASTINGS NO2",
          "isImpacting": true,
          "overFlowSiteId": 115398
        },
        {
          "id": 343977803,
          "eventId": 844842,
          "siteUnitNumber": 12577,
          "bathingSite": "BEXHILL",
          "eventStart": "2023-08-05T15:57:47",
          "eventStop": "2023-08-05T18:30:00",
          "duration": 152,
          "status": "Genuine",
          "associatedSiteId": 109903,
          "outfallName": "BEXHILL & HASTINGS NO2",
          "isImpacting": true,
          "overFlowSiteId": 115398,
          "historicSpillsList": []
        }
      ]
    },
    {
      "id": 343961453,
      "eventId": 845226,
      "siteUnitNumber": 12616,
      "bathingSite": "GURNARD",
      "eventStart": "2023-08-05T17:31:00",
      "eventStop": "2023-08-05T17:35:00",
      "duration": 4,
      "status": "Genuine",
      "associatedSiteId": 109652,
      "outfallName": "WOODVALE TRANSFER NO1",
      "isImpacting": false,
      "overFlowSiteId": 0,
      "historicSpillsList": []
    },
    {
      "id": 343965977,
      "eventId": 844776,
      "siteUnitNumber": 12616,
      "bathingSite": "GURNARD",
      "eventStart": "2023-08-05T14:23:00",
      "eventStop": "2023-08-05T16:52:00",
      "duration": 149,
      "status": "Genuine",
      "associatedSiteId": 109705,
      "outfallName": "SPRINGHILL COWES TRANSFER",
      "isImpacting": true,
      "overFlowSiteId": 0,
      "historicSpillsList": [
        {
          "id": 343965978,
          "eventId": 844776,
          "siteUnitNumber": 12617,
          "bathingSite": "COWES",
          "eventStart": "2023-08-05T14:23:00",
          "eventStop": "2023-08-05T16:52:00",
          "duration": 149,
          "status": "Genuine",
          "associatedSiteId": 109705,
          "outfallName": "SPRINGHILL COWES TRANSFER",
          "isImpacting": true,
          "overFlowSiteId": 108943,
          "historicSpillsList": []
        }
      ]
    },
    {
      "id": 343972419,
      "eventId": 844822,
      "siteUnitNumber": 12548,
      "bathingSite": "TANKERTON",
      "eventStart": "2023-08-05T15:38:56",
      "eventStop": "2023-08-05T15:54:37",
      "duration": 15,
      "status": "Genuine",
      "associatedSiteId": 109830,
      "outfallName": "SWALECLIFFE NO1",
      "isImpacting": true,
      "overFlowSiteId": 0,
      "historicSpillsList": [
        {
          "id": 343972420,
          "eventId": 844822,
          "siteUnitNumber": 12549,
          "bathingSite": "HERNE BAY CENTRAL",
          "eventStart": "2023-08-05T15:38:56",
          "eventStop": "2023-08-05T15:54:37",
          "duration": 15,
          "status": "Genuine",
          "associatedSiteId": 109830,
          "outfallName": "SWALECLIFFE NO1",
          "isImpacting": true,
          "overFlowSiteId": 115444,
          "historicSpillsList": []
        }
      ]
    }
  ]
}