{
  "currentPage": 203,
  "totalItems": 18701,
  "totalPages": 749,
  "items": [
    {
      "id": 343923927,
      "eventId": 859646,
      "siteUnitNumber": 12616,
      "bathingSite": "GURNARD",
      "eventStart": "2023-09-17T12:34:02",
      "eventStop": "2023-09-18T02:17:03",
      "duration": 823,
      "status": "Genuine",
      "associatedSiteId": 109706,
      "outfallName": "HIGH STREET COWES",
      "isImpacting": false,
      "overFlowSiteId": 0,
      "historicSpillsList": []
    },
    {
      "id": 343940872,
      "eventId": 860534,
      "siteUnitNumber": 12594,
      "bathingSite": "BOGNOR REGIS EAST",
      "eventStart": "2023-09-17T23:41:00",
      "eventStop": "2023-09-18T01:40:00",
      "duration": 119,
      "status": "Genuine",
      "associatedSiteId": 109959,
      "outfallName": "WEST PARK BOGNOR REGIS",
      "isImpacting": false,
      "overFlowSiteId": 0,
      "historicSpillsList": []
    },
    {
      "id": 343945949,
      "eventId": 859946,
      "siteUnitNumber": 12582,
      "bathingSite": "SEAFORD",
      "eventStart": "2023-09-18T00:34:03",
      "eventStop": "2023-09-18T01:38:55",
      "duration": 64,
      "status": "Genuine",
      "associatedSiteId": 110047,
      "outfallName": "CLIFF END SEAFORD",
      "isImpacting": true,
      "overFlowSiteId": 0,
      "historicSpillsList": [
        {
          "id": 343945949,
          "eventId": 859946,
          "siteUnitNumber": 12582,
          "bathingSite": "SEAFORD",
          "eventStart": "2023-09-18T00:34:03",
          "eventStop": "2023-09-18T01:38:55",
          "duration": 64,
          "status": "Genuine",
          "associatedSiteId": 110047,
          "outfallName": "CLIFF END SEAFORD",
          "isImpacting": true,
          "overFlowSiteId": 101257
        }
      ]
    },
    {
      "id": 343939676,
      "eventId": 859859,
      "siteUnitNumber": 12582,
      "bathingSite": "SEAFORD",
      "eventStart": "2023-09-17T23:15:00",
      "eventStop": "2023-09-18T01:29:00",
      "duration": 134,
      "status": "Genuine",
      "associatedSiteId": 109957,
      "outfallName": "PORTOBELLO BRIGHTON NO2",
      "isImpacting": true,
      "overFlowSiteId": 0,
      "historicSpillsList": [
        {
          "id": 343939677,
          "eventId": 859859,
          "siteUnitNumber": 12583,
          "bathingSite": "SALTDEAN",
          "eventStart": "2023-09-17T23:15:00",
          "eventStop": "2023-09-18T01:29:00",
          "duration": 134,
          "status": "Genuine",
          "associatedSiteId": 109957,
          "outfallName": "PORTOBELLO BRIGHTON NO2",
          "isImpacting": true,
          "overFlowSiteId": 116036,
          "historicSpillsList": []
        }
      ]
    },
    {
      "id": 343954141,
      "eventId": 859876,
      "siteUnitNumber": 12662,
      "bathingSite": "CHICHESTER HARBOUR",
      "eventStart": "2023-09-17T22:44:00",
      "eventStop": "2023-09-18T01:15:00",
      "duration": 151,
      "status": "Genuine",
      "associatedSiteId": 110760,
      "outfallName": "BOSHAM",
      "isImpacting": true,
      "overFlowSiteId": 0,
      "historicSpillsList": [
        {
          "id": 343954141,
          "eventId": 859876,
          "siteUnitNumber": 12662,
          "bathingSite": "CHICHESTER HARBOUR",
          "eventStart": "2023-09-17T22:44:00",
          "eventStop": "2023-09-18T01:15:00",
          "duration": 151,
          "status": "Genuine",
          "associatedSiteId": 110760,
          "outfallName": "BOSHAM",
          "isImpacting": true,
          "overFlowSiteId": 115735
        }
      ]
    },
    {
      "id": 343943994,
      "eventId": 859833,
      "siteUnitNumber": 12591,
      "bathingSite": "LITTLEHAMPTON",
      "eventStart": "2023-09-17T22:31:52",
      "eventStop": "2023-09-18T01:12:00",
      "duration": 160,
      "status": "Genuine",
      "associatedSiteId": 109977,
      "outfallName": "FORESHORE TANK LITTLEHAMPTON",
      "isImpacting": true,
      "overFlowSiteId": 0,
      "historicSpillsList": [
        {
          "id": 343943994,
          "eventId": 859833,
          "siteUnitNumber": 12591,
          "bathingSite": "LITTLEHAMPTON",
          "eventStart": "2023-09-17T22:31:52",
          "eventStop": "2023-09-18T01:12:00",
          "duration": 160,
          "status": "Genuine",
          "associatedSiteId": 109977,
          "outfallName": "FORESHORE TANK LITTLEHAMPTON",
          "isImpacting": true,
          "overFlowSiteId": 109390
        }
      ]
    },
    {
      "id": 343945202,
      "eventId": 859850,
      "siteUnitNumber": 12567,
      "bathingSite": "FOLKESTONE",
      "eventStart": "2023-09-17T23:10:00",
      "eventStop": "2023-09-18T00:49:00",
      "duration": 99,
      "status": "Genuine",
      "associatedSiteId": 110010,
      "outfallName": "THE STADE FOLKESTONE",
      "isImpacting": false,
      "overFlowSiteId": 0,
      "historicSpillsList": []
    },
    {
      "id": 343943754,
      "eventId": 859868,
      "siteUnitNumber": 12592,
      "bathingSite": "MIDDLETON-ON-SEA",
      "eventStart": "2023-09-17T23:12:28",
      "eventStop": "2023-09-18T00:33:00",
      "duration": 80,
      "status": "Genuine",
      "associatedSiteId": 109972,
      "outfallName": "BOGNOR MAIN",
      "isImpacting": true,
      "overFlowSiteId": 0,
      "historicSpillsList": [
        {
          "id": 343943756,
          "eventId": 859868,
          "siteUnitNumber": 12594,
          "bathingSite": "BOGNOR REGIS EAST",
          "eventStart": "2023-09-17T23:12:28",
          "eventStop": "2023-09-18T00:33:00",
          "duration": 80,
          "status": "Genuine",
          "associatedSiteId": 109972,
          "outfallName": "BOGNOR MAIN",
          "isImpacting": true,
          "overFlowSiteId": 107412,
          "historicSpillsList": []
        }
      ]
    },
    {
      "id": 343955197,
      "eventId": 859848,
      "siteUnitNumber": 12662,
      "bathingSite": "CHICHESTER HARBOUR",
      "eventStart": "2023-09-17T22:55:26",
      "eventStop": "2023-09-18T00:15:00",
      "duration": 79,
      "status": "Genuine",
      "associatedSiteId": 111600,
      "outfallName": "MILL LANE FISHBOURNE",
      "isImpacting": true,
      "overFlowSiteId": 0,
      "historicSpillsList": [
        {
          "id": 343955197,
          "eventId": 859848,
          "siteUnitNumber": 12662,
          "bathingSite": "CHICHESTER HARBOUR",
          "eventStart": "2023-09-17T22:55:26",
          "eventStop": "2023-09-18T00:15:00",
          "duration": 79,
          "status": "Genuine",
          "associatedSiteId": 111600,
          "outfallName": "MILL LANE FISHBOURNE",
          "isImpacting": true,
          "overFlowSiteId": 111371
        }
      ]
    },
    {
      "id": 343943328,
      "eventId": 859834,
      "siteUnitNumber": 12591,
      "bathingSite": "LITTLEHAMPTON",
      "eventStart": "2023-09-17T22:34:33",
      "eventStop": "2023-09-17T23:58:00",
      "duration": 83,
      "status": "Genuine",
      "associatedSiteId": 109968,
      "outfallName": "FORD ROAD ARUNDEL",
      "isImpacting": true,
      "overFlowSiteId": 0,
      "historicSpillsList": [
        {
          "id": 343943328,
          "eventId": 859834,
          "siteUnitNumber": 12591,
          "bathingSite": "LITTLEHAMPTON",
          "eventStart": "2023-09-17T22:34:33",
          "eventStop": "2023-09-17T23:58:00",
          "duration": 83,
          "status": "Genuine",
          "associatedSiteId": 109968,
          "outfallName": "FORD ROAD ARUNDEL",
          "isImpacting": true,
          "overFlowSiteId": 108002
        }
      ]
    },
    {
      "id": 343937580,
      "eventId": 859894,
      "siteUnitNumber": 12586,
      "bathingSite": "HOVE",
      "eventStart": "2023-09-17T23:26:02",
      "eventStop": "2023-09-17T23:36:33",
      "duration": 10,
      "status": "Genuine",
      "associatedSiteId": 109929,
      "outfallName": "SHOREHAM NO1",
      "isImpacting": true,
      "overFlowSiteId": 0,
      "historicSpillsList": [
        {
          "id": 343937580,
          "eventId": 859894,
          "siteUnitNumber": 12586,
          "bathingSite": "HOVE",
          "eventStart": "2023-09-17T23:26:02",
          "eventStop": "2023-09-17T23:36:33",
          "duration": 10,
          "status": "Genuine",
          "associatedSiteId": 109929,
          "outfallName": "SHOREHAM NO1",
          "isImpacting": true,
          "overFlowSiteId": 115434
        },
        {
          "id": 343937581,
          "eventId": 859894,
          "siteUnitNumber": 12587,
          "bathingSite": "SOUTHWICK",
          "eventStart": "2023-09-17T23:26:02",
          "eventStop": "2023-09-17T23:36:33",
          "duration": 10,
          "status": "Genuine",
          "associatedSiteId": 109929,
          "outfallName": "SHOREHAM NO1",
          "isImpacting": true,
          "overFlowSiteId": 115434,
          "historicSpillsList": []
        },
        {
          "id": 343937582,
          "eventId": 859894,
          "siteUnitNumber": 12588,
          "bathingSite": "SHOREHAM BEACH",
          "eventStart": "2023-09-17T23:26:02",
          "eventStop": "2023-09-17T23:36:33",
          "duration": 10,
          "status": "Genuine",
          "associatedSiteId": 109929,
          "outfallName": "SHOREHAM NO1",
          "isImpacting": true,
          "overFlowSiteId": 115434,
          "historicSpillsList": []
        }
      ]
    },
    {
      "id": 343946356,
      "eventId": 860588,
      "siteUnitNumber": 12622,
      "bathingSite": "WHITECLIFF BAY",
      "eventStart": "2023-09-17T11:34:00",
      "eventStop": "2023-09-17T23:19:00",
      "duration": 705,
      "status": "Genuine",
      "associatedSiteId": 110096,
      "outfallName": "SANDOWN NO1",
      "isImpacting": true,
      "overFlowSiteId": 0,
      "historicSpillsList": [
        {
          "id": 343946356,
          "eventId": 860588,
          "siteUnitNumber": 12622,
          "bathingSite": "WHITECLIFF BAY",
          "eventStart": "2023-09-17T11:34:00",
          "eventStop": "2023-09-17T23:19:00",
          "duration": 705,
          "status": "Genuine",
          "associatedSiteId": 110096,
          "outfallName": "SANDOWN NO1",
          "isImpacting": true,
          "overFlowSiteId": 115453
        },
        {
          "id": 343946357,
          "eventId": 860588,
          "siteUnitNumber": 12623,
          "bathingSite": "YAVERLAND",
          "eventStart": "2023-09-17T11:34:00",
          "eventStop": "2023-09-17T23:19:00",
          "duration": 705,
          "status": "Genuine",
          "associatedSiteId": 110096,
          "outfallName": "SANDOWN NO1",
          "isImpacting": true,
          "overFlowSiteId": 115453,
          "historicSpillsList": []
        },
        {
          "id": 343946350,
          "eventId": 860588,
          "siteUnitNumber": 12624,
          "bathingSite": "SANDOWN",
          "eventStart": "2023-09-17T11:34:00",
          "eventStop": "2023-09-17T23:19:00",
          "duration": 705,
          "status": "Genuine",
          "associatedSiteId": 110096,
          "outfallName": "SANDOWN NO1",
          "isImpacting": true,
          "overFlowSiteId": 115453,
          "historicSpillsList": []
        }
      ]
    },
    {
      "id": 343937091,
      "eventId": 859831,
      "siteUnitNumber": 12589,
      "bathingSite": "LANCING BEACH GREEN",
      "eventStart": "2023-09-17T22:31:37",
      "eventStop": "2023-09-17T23:08:00",
      "duration": 36,
      "status": "Genuine",
      "associatedSiteId": 109919,
      "outfallName": "SOMPTING ROAD WORTHING",
      "isImpacting": true,
      "overFlowSiteId": 0,
      "historicSpillsList": [
        {
          "id": 343937091,
          "eventId": 859831,
          "siteUnitNumber": 12589,
          "bathingSite": "LANCING BEACH GREEN",
          "eventStart": "2023-09-17T22:31:37",
          "eventStop": "2023-09-17T23:08:00",
          "duration": 36,
          "status": "Genuine",
          "associatedSiteId": 109919,
          "outfallName": "SOMPTING ROAD WORTHING",
          "isImpacting": true,
          "overFlowSiteId": 108336
        },
        {
          "id": 343937092,
          "eventId": 859831,
          "siteUnitNumber": 12590,
          "bathingSite": "WORTHING",
          "eventStart": "2023-09-17T22:31:37",
          "eventStop": "2023-09-17T23:08:00",
          "duration": 36,
          "status": "Genuine",
          "associatedSiteId": 109919,
          "outfallName": "SOMPTING ROAD WORTHING",
          "isImpacting": true,
          "overFlowSiteId": 108336,
          "historicSpillsList": []
        }
      ]
    },
    {
      "id": 343942683,
      "eventId": 859835,
      "siteUnitNumber": 12591,
      "bathingSite": "LITTLEHAMPTON",
      "eventStart": "2023-09-17T22:40:00",
      "eventStop": "2023-09-17T22:54:00",
      "duration": 14,
      "status": "Genuine",
      "associatedSiteId": 109965,
      "outfallName": "SEA ROAD LITTLEHAMPTON",
      "isImpacting": false,
      "overFlowSiteId": 0,
      "historicSpillsList": []
    },
    {
      "id": 343937115,
      "eventId": 859839,
      "siteUnitNumber": 12589,
      "bathingSite": "LANCING BEACH GREEN",
      "eventStart": "2023-09-17T22:39:09",
      "eventStop": "2023-09-17T22:52:00",
      "duration": 12,
      "status": "Genuine",
      "associatedSiteId": 109920,
      "outfallName": "CORTIS AVENUE WORTHING",
      "isImpacting": true,
      "overFlowSiteId": 0,
      "historicSpillsList": [
        {
          "id": 343937115,
          "eventId": 859839,
          "siteUnitNumber": 12589,
          "bathingSite": "LANCING BEACH GREEN",
          "eventStart": "2023-09-17T22:39:09",
          "eventStop": "2023-09-17T22:52:00",
          "duration": 12,
          "status": "Genuine",
          "associatedSiteId": 109920,
          "outfallName": "CORTIS AVENUE WORTHING",
          "isImpacting": true,
          "overFlowSiteId": 108212
        },
        {
          "id": 343937116,
          "eventId": 859839,
          "siteUnitNumber": 12590,
          "bathingSite": "WORTHING",
          "eventStart": "2023-09-17T22:39:09",
          "eventStop": "2023-09-17T22:52:00",
          "duration": 12,
          "status": "Genuine",
          "associatedSiteId": 109920,
          "outfallName": "CORTIS AVENUE WORTHING",
          "isImpacting": true,
          "overFlowSiteId": 108212,
          "historicSpillsList": []
        }
      ]
    },
    {
      "id": 343943911,
      "eventId": 859829,
      "siteUnitNumber": 12593,
      "bathingSite": "FELPHAM",
      "eventStart": "2023-09-17T22:28:20",
      "eventStop": "2023-09-17T22:40:00",
      "duration": 11,
      "status": "Genuine",
      "associatedSiteId": 109973,
      "outfallName": "ALDWICK AVENUE BOGNOR",
      "isImpacting": true,
      "overFlowSiteId": 0,
      "historicSpillsList": [
        {
          "id": 343943911,
          "eventId": 859829,
          "siteUnitNumber": 12593,
          "bathingSite": "FELPHAM",
          "eventStart": "2023-09-17T22:28:20",
          "eventStop": "2023-09-17T22:40:00",
          "duration": 11,
          "status": "Genuine",
          "associatedSiteId": 109973,
          "outfallName": "ALDWICK AVENUE BOGNOR",
          "isImpacting": true,
          "overFlowSiteId": 103303
        },
        {
          "id": 343943912,
          "eventId": 859829,
          "siteUnitNumber": 12594,
          "bathingSite": "BOGNOR REGIS EAST",
          "eventStart": "2023-09-17T22:28:20",
          "eventStop": "2023-09-17T22:40:00",
          "duration": 11,
          "status": "Genuine",
          "associatedSiteId": 109973,
          "outfallName": "ALDWICK AVENUE BOGNOR",
          "isImpacting": true,
          "overFlowSiteId": 103303,
          "historicSpillsList": []
        },
        {
          "id": 343943913,
          "eventId": 859829,
          "siteUnitNumber": 12595,
          "bathingSite": "BOGNOR REGIS (ALDWICK)",
          "eventStart": "2023-09-17T22:28:20",
          "eventStop": "2023-09-17T22:40:00",
          "duration": 11,
          "status": "Genuine",
          "associatedSiteId": 109973,
          "outfallName": "ALDWICK AVENUE BOGNOR",
          "isImpacting": true,
          "overFlowSiteId": 103303,
          "historicSpillsList": []
        },
        {
          "id": 343943914,
          "eventId": 859829,
          "siteUnitNumber": 12596,
          "bathingSite": "PAGHAM",
          "eventStart": "2023-09-17T22:28:20",
          "eventStop": "2023-09-17T22:40:00",
          "duration": 11,
          "status": "Genuine",
          "associatedSiteId": 109973,
          "outfallName": "ALDWICK AVENUE BOGNOR",
          "isImpacting": true,
          "overFlowSiteId": 103303,
          "historicSpillsList": []
        }
      ]
    },
    {
      "id": 343925783,
      "eventId": 859551,
      "siteUnitNumber": 12661,
      "bathingSite": "LANGSTONE HARBOUR",
      "eventStart": "2023-09-17T12:44:45",
      "eventStop": "2023-09-17T19:32:00",
      "duration": 407,
      "status": "Genuine",
      "associatedSiteId": 109773,
      "outfallName": "BUDDS FARM HAVANT NO2",
      "isImpacting": true,
      "overFlowSiteId": 0,
      "historicSpillsList": [
        {
          "id": 343925783,
          "eventId": 859551,
          "siteUnitNumber": 12661,
          "bathingSite": "LANGSTONE HARBOUR",
          "eventStart": "2023-09-17T12:44:45",
          "eventStop": "2023-09-17T19:32:00",
          "duration": 407,
          "status": "Genuine",
          "associatedSiteId": 109773,
          "outfallName": "BUDDS FARM HAVANT NO2",
          "isImpacting": true,
          "overFlowSiteId": 115936
        }
      ]
    },
    {
      "id": 343925781,
      "eventId": 859726,
      "siteUnitNumber": 12661,
      "bathingSite": "LANGSTONE HARBOUR",
      "eventStart": "2023-09-17T18:44:38",
      "eventStop": "2023-09-17T19:01:04",
      "duration": 16,
      "status": "Genuine",
      "associatedSiteId": 109773,
      "outfallName": "BUDDS FARM HAVANT NO2",
      "isImpacting": true,
      "overFlowSiteId": 0,
      "historicSpillsList": [
        {
          "id": 343925781,
          "eventId": 859726,
          "siteUnitNumber": 12661,
          "bathingSite": "LANGSTONE HARBOUR",
          "eventStart": "2023-09-17T18:44:38",
          "eventStop": "2023-09-17T19:01:04",
          "duration": 16,
          "status": "Genuine",
          "associatedSiteId": 109773,
          "outfallName": "BUDDS FARM HAVANT NO2",
          "isImpacting": true,
          "overFlowSiteId": 116279
        }
      ]
    },
    {
      "id": 343925782,
      "eventId": 859566,
      "siteUnitNumber": 12661,
      "bathingSite": "LANGSTONE HARBOUR",
      "eventStart": "2023-09-17T13:09:12",
      "eventStop": "2023-09-17T18:41:45",
      "duration": 332,
      "status": "Genuine",
      "associatedSiteId": 109773,
      "outfallName": "BUDDS FARM HAVANT NO2",
      "isImpacting": true,
      "overFlowSiteId": 0,
      "historicSpillsList": [
        {
          "id": 343925782,
          "eventId": 859566,
          "siteUnitNumber": 12661,
          "bathingSite": "LANGSTONE HARBOUR",
          "eventStart": "2023-09-17T13:09:12",
          "eventStop": "2023-09-17T18:41:45",
          "duration": 332,
          "status": "Genuine",
          "associatedSiteId": 109773,
          "outfallName": "BUDDS FARM HAVANT NO2",
          "isImpacting": true,
          "overFlowSiteId": 116279
        }
      ]
    },
    {
      "id": 343949005,
      "eventId": 864822,
      "siteUnitNumber": 12619,
      "bathingSite": "SEAGROVE",
      "eventStart": "2023-09-17T18:20:00",
      "eventStop": "2023-09-17T18:41:00",
      "duration": 21,
      "status": "Genuine",
      "associatedSiteId": 110097,
      "outfallName": "SANDOWN NO2",
      "isImpacting": true,
      "overFlowSiteId": 0,
      "historicSpillsList": [
        {
          "id": 343948998,
          "eventId": 864822,
          "siteUnitNumber": 12623,
          "bathingSite": "YAVERLAND",
          "eventStart": "2023-09-17T18:20:00",
          "eventStop": "2023-09-17T18:41:00",
          "duration": 21,
          "status": "Genuine",
          "associatedSiteId": 110097,
          "outfallName": "SANDOWN NO2",
          "isImpacting": true,
          "overFlowSiteId": 115454,
          "historicSpillsList": []
        }
      ]
    },
    {
      "id": 343949047,
      "eventId": 859504,
      "siteUnitNumber": 12624,
      "bathingSite": "SANDOWN",
      "eventStart": "2023-09-17T12:02:00",
      "eventStop": "2023-09-17T17:37:00",
      "duration": 335,
      "status": "Genuine",
      "associatedSiteId": 110097,
      "outfallName": "SANDOWN NO2",
      "isImpacting": true,
      "overFlowSiteId": 0,
      "historicSpillsList": [
        {
          "id": 343949047,
          "eventId": 859504,
          "siteUnitNumber": 12624,
          "bathingSite": "SANDOWN",
          "eventStart": "2023-09-17T12:02:00",
          "eventStop": "2023-09-17T17:37:00",
          "duration": 335,
          "status": "Genuine",
          "associatedSiteId": 110097,
          "outfallName": "SANDOWN NO2",
          "isImpacting": true,
          "overFlowSiteId": 115454
        },
        {
          "id": 343949048,
          "eventId": 859504,
          "siteUnitNumber": 12625,
          "bathingSite": "SHANKLIN",
          "eventStart": "2023-09-17T12:02:00",
          "eventStop": "2023-09-17T17:37:00",
          "duration": 335,
          "status": "Genuine",
          "associatedSiteId": 110097,
          "outfallName": "SANDOWN NO2",
          "isImpacting": true,
          "overFlowSiteId": 115454,
          "historicSpillsList": []
        },
        {
          "id": 343949056,
          "eventId": 859504,
          "siteUnitNumber": 12623,
          "bathingSite": "YAVERLAND",
          "eventStart": "2023-09-17T12:02:00",
          "eventStop": "2023-09-17T17:37:00",
          "duration": 335,
          "status": "Genuine",
          "associatedSiteId": 110097,
          "outfallName": "SANDOWN NO2",
          "isImpacting": true,
          "overFlowSiteId": 115454,
          "historicSpillsList": []
        }
      ]
    },
    {
      "id": 343931750,
      "eventId": 859597,
      "siteUnitNumber": 12662,
      "bathingSite": "CHICHESTER HARBOUR",
      "eventStart": "2023-09-17T14:12:00",
      "eventStop": "2023-09-17T16:38:00",
      "duration": 146,
      "status": "Genuine",
      "associatedSiteId": 109850,
      "outfallName": "THORNHAM",
      "isImpacting": true,
      "overFlowSiteId": 0,
      "historicSpillsList": [
        {
          "id": 343931750,
          "eventId": 859597,
          "siteUnitNumber": 12662,
          "bathingSite": "CHICHESTER HARBOUR",
          "eventStart": "2023-09-17T14:12:00",
          "eventStop": "2023-09-17T16:38:00",
          "duration": 146,
          "status": "Genuine",
          "associatedSiteId": 109850,
          "outfallName": "THORNHAM",
          "isImpacting": true,
          "overFlowSiteId": 115369
        }
      ]
    },
    {
      "id": 343924671,
      "eventId": 860172,
      "siteUnitNumber": 12606,
      "bathingSite": "LEE-ON-SOLENT",
      "eventStart": "2023-09-17T14:21:00",
      "eventStop": "2023-09-17T16:08:00",
      "duration": 107,
      "status": "Genuine",
      "associatedSiteId": 109732,
      "outfallName": "PEEL COMMON",
      "isImpacting": true,
      "overFlowSiteId": 0,
      "historicSpillsList": [
        {
          "id": 343924671,
          "eventId": 860172,
          "siteUnitNumber": 12606,
          "bathingSite": "LEE-ON-SOLENT",
          "eventStart": "2023-09-17T14:21:00",
          "eventStop": "2023-09-17T16:08:00",
          "duration": 107,
          "status": "Genuine",
          "associatedSiteId": 109732,
          "outfallName": "PEEL COMMON",
          "isImpacting": true,
          "overFlowSiteId": 115425
        },
        {
          "id": 343924672,
          "eventId": 860172,
          "siteUnitNumber": 12607,
          "bathingSite": "HILLHEAD",
          "eventStart": "2023-09-17T14:21:00",
          "eventStop": "2023-09-17T16:08:00",
          "duration": 107,
          "status": "Genuine",
          "associatedSiteId": 109732,
          "outfallName": "PEEL COMMON",
          "isImpacting": true,
          "overFlowSiteId": 115425,
          "historicSpillsList": []
        }
      ]
    },
    {
      "id": 343928245,
      "eventId": 859592,
      "siteUnitNumber": 12596,
      "bathingSite": "PAGHAM",
      "eventStart": "2023-09-17T13:46:00",
      "eventStop": "2023-09-17T16:05:00",
      "duration": 139,
      "status": "Genuine",
      "associatedSiteId": 109791,
      "outfallName": "SIDLESHAM",
      "isImpacting": true,
      "overFlowSiteId": 0,
      "historicSpillsList": [
        {
          "id": 343928245,
          "eventId": 859592,
          "siteUnitNumber": 12596,
          "bathingSite": "PAGHAM",
          "eventStart": "2023-09-17T13:46:00",
          "eventStop": "2023-09-17T16:05:00",
          "duration": 139,
          "status": "Genuine",
          "associatedSiteId": 109791,
          "outfallName": "SIDLESHAM",
          "isImpacting": true,
          "overFlowSiteId": 115807
        }
      ]
    },
    {
      "id": 343960324,
      "eventId": 859547,
      "siteUnitNumber": 12662,
      "bathingSite": "CHICHESTER HARBOUR",
      "eventStart": "2023-09-17T12:21:47",
      "eventStop": "2023-09-17T15:59:00",
      "duration": 217,
      "status": "Genuine",
      "associatedSiteId": 116025,
      "outfallName": "PRIORS LEAZE LANE NUTBOURNE",
      "isImpacting": true,
      "overFlowSiteId": 0,
      "historicSpillsList": [
        {
          "id": 343960324,
          "eventId": 859547,
          "siteUnitNumber": 12662,
          "bathingSite": "CHICHESTER HARBOUR",
          "eventStart": "2023-09-17T12:21:47",
          "eventStop": "2023-09-17T15:59:00",
          "duration": 217,
          "status": "Genuine",
          "associatedSiteId": 116025,
          "outfallName": "PRIORS LEAZE LANE NUTBOURNE",
          "isImpacting": true,
          "overFlowSiteId": 111267
        }
      ]
    }
  ]
}