{
  "currentPage": 494,
  "totalItems": 21025,
  "totalPages": 841,
  "items": [
    {
      "id": 344822090,
      "eventId": 670039,
      "siteUnitNumber": 12618,
      "bathingSite": "RYDE",
      "eventStart": "2022-11-16T18:12:43",
      "eventStop": "2022-11-16T19:45:00",
      "duration": 92,
      "status": "Genuine",
      "associatedSiteId": 109782,
      "outfallName": "AUGUSTA ROAD RYDE",
      "isImpacting": true,
      "overFlowSiteId": 0,
      "historicSpillsList": [
        {
          "id": 344822090,
          "eventId": 670039,
          "siteUnitNumber": 12618,
          "bathingSite": "RYDE",
          "eventStart": "2022-11-16T18:12:43",
          "eventStop": "2022-11-16T19:45:00",
          "duration": 92,
          "status": "Genuine",
          "associatedSiteId": 109782,
          "outfallName": "AUGUSTA ROAD RYDE",
          "isImpacting": true,
          "overFlowSiteId": 102348
        }
      ]
    },
    {
      "id": 344817557,
      "eventId": 670112,
      "siteUnitNumber": 12616,
      "bathingSite": "GURNARD",
      "eventStart": "2022-11-16T18:43:00",
      "eventStop": "2022-11-16T19:42:00",
      "duration": 59,
      "status": "Genuine",
      "associatedSiteId": 109704,
      "outfallName": "EGYPT POINT COWES",
      "isImpacting": true,
      "overFlowSiteId": 0,
      "historicSpillsList": [
        {
          "id": 344817558,
          "eventId": 670112,
          "siteUnitNumber": 12617,
          "bathingSite": "COWES",
          "eventStart": "2022-11-16T18:43:00",
          "eventStop": "2022-11-16T19:42:00",
          "duration": 59,
          "status": "Genuine",
          "associatedSiteId": 109704,
          "outfallName": "EGYPT POINT COWES",
          "isImpacting": true,
          "overFlowSiteId": 108518,
          "historicSpillsList": []
        }
      ]
    },
    {
      "id": 344822117,
      "eventId": 670062,
      "siteUnitNumber": 12618,
      "bathingSite": "RYDE",
      "eventStart": "2022-11-16T18:27:03",
      "eventStop": "2022-11-16T19:38:18",
      "duration": 71,
      "status": "Genuine",
      "associatedSiteId": 109784,
      "outfallName": "PARK ROAD RYDE",
      "isImpacting": false,
      "overFlowSiteId": 0,
      "historicSpillsList": []
    },
    {
      "id": 344833608,
      "eventId": 670551,
      "siteUnitNumber": 12583,
      "bathingSite": "SALTDEAN",
      "eventStart": "2022-11-16T18:30:13",
      "eventStop": "2022-11-16T19:38:00",
      "duration": 67,
      "status": "Not Genuine",
      "associatedSiteId": 109955,
      "outfallName": "PORTOBELLO BRIGHTON NO1",
      "isImpacting": true,
      "overFlowSiteId": 0,
      "historicSpillsList": []
    },
    {
      "id": 344827596,
      "eventId": 670260,
      "siteUnitNumber": 12568,
      "bathingSite": "SANDGATE",
      "eventStart": "2022-11-16T19:23:18",
      "eventStop": "2022-11-16T19:32:27",
      "duration": 9,
      "status": "Genuine",
      "associatedSiteId": 109896,
      "outfallName": "RANGE ROAD HYTHE K SHORT",
      "isImpacting": true,
      "overFlowSiteId": 0,
      "historicSpillsList": [
        {
          "id": 344827597,
          "eventId": 670260,
          "siteUnitNumber": 12569,
          "bathingSite": "HYTHE",
          "eventStart": "2022-11-16T19:23:18",
          "eventStop": "2022-11-16T19:32:27",
          "duration": 9,
          "status": "Genuine",
          "associatedSiteId": 109896,
          "outfallName": "RANGE ROAD HYTHE K SHORT",
          "isImpacting": true,
          "overFlowSiteId": 116112,
          "historicSpillsList": []
        }
      ]
    },
    {
      "id": 344833379,
      "eventId": 671100,
      "siteUnitNumber": 12619,
      "bathingSite": "SEAGROVE",
      "eventStart": "2022-11-16T19:00:00",
      "eventStop": "2022-11-16T19:30:00",
      "duration": 30,
      "status": "Genuine",
      "associatedSiteId": 109941,
      "outfallName": "LATIMER ROAD ST HELENS",
      "isImpacting": false,
      "overFlowSiteId": 0,
      "historicSpillsList": []
    },
    {
      "id": 344823033,
      "eventId": 670059,
      "siteUnitNumber": 12661,
      "bathingSite": "LANGSTONE HARBOUR",
      "eventStart": "2022-11-16T18:26:00",
      "eventStop": "2022-11-16T19:30:00",
      "duration": 64,
      "status": "Not Genuine",
      "associatedSiteId": 109820,
      "outfallName": "ST ANDREWS ROAD PORTSMOUTH",
      "isImpacting": true,
      "overFlowSiteId": 0,
      "historicSpillsList": []
    },
    {
      "id": 344818679,
      "eventId": 670159,
      "siteUnitNumber": 12616,
      "bathingSite": "GURNARD",
      "eventStart": "2022-11-16T19:02:37",
      "eventStop": "2022-11-16T19:17:55",
      "duration": 15,
      "status": "Not Genuine",
      "associatedSiteId": 109707,
      "outfallName": "MEDINA ROAD COWES",
      "isImpacting": false,
      "overFlowSiteId": 0,
      "historicSpillsList": []
    },
    {
      "id": 344817227,
      "eventId": 670156,
      "siteUnitNumber": 12616,
      "bathingSite": "GURNARD",
      "eventStart": "2022-11-16T19:00:00",
      "eventStop": "2022-11-16T19:04:00",
      "duration": 4,
      "status": "Genuine",
      "associatedSiteId": 109703,
      "outfallName": "CASTLE STREET COWES",
      "isImpacting": true,
      "overFlowSiteId": 0,
      "historicSpillsList": [
        {
          "id": 344817227,
          "eventId": 670156,
          "siteUnitNumber": 12616,
          "bathingSite": "GURNARD",
          "eventStart": "2022-11-16T19:00:00",
          "eventStop": "2022-11-16T19:04:00",
          "duration": 4,
          "status": "Genuine",
          "associatedSiteId": 109703,
          "outfallName": "CASTLE STREET COWES",
          "isImpacting": true,
          "overFlowSiteId": 108822
        },
        {
          "id": 344817228,
          "eventId": 670156,
          "siteUnitNumber": 12617,
          "bathingSite": "COWES",
          "eventStart": "2022-11-16T19:00:00",
          "eventStop": "2022-11-16T19:04:00",
          "duration": 4,
          "status": "Genuine",
          "associatedSiteId": 109703,
          "outfallName": "CASTLE STREET COWES",
          "isImpacting": true,
          "overFlowSiteId": 108822,
          "historicSpillsList": []
        }
      ]
    },
    {
      "id": 344815063,
      "eventId": 671149,
      "siteUnitNumber": 12615,
      "bathingSite": "COLWELL BAY",
      "eventStart": "2022-11-16T18:43:00",
      "eventStop": "2022-11-16T18:48:00",
      "duration": 5,
      "status": "Genuine",
      "associatedSiteId": 109664,
      "outfallName": "THE INSTITUTE YARMOUTH NO2",
      "isImpacting": false,
      "overFlowSiteId": 0,
      "historicSpillsList": []
    },
    {
      "id": 344831472,
      "eventId": 755789,
      "siteUnitNumber": 12590,
      "bathingSite": "WORTHING",
      "eventStart": "2022-11-16T18:29:08",
      "eventStop": "2022-11-16T18:45:00",
      "duration": 15,
      "status": "Genuine",
      "associatedSiteId": 109912,
      "outfallName": "SEA LANE GORING",
      "isImpacting": false,
      "overFlowSiteId": 0,
      "historicSpillsList": []
    },
    {
      "id": 344818681,
      "eventId": 669997,
      "siteUnitNumber": 12616,
      "bathingSite": "GURNARD",
      "eventStart": "2022-11-16T18:18:00",
      "eventStop": "2022-11-16T18:38:00",
      "duration": 20,
      "status": "Genuine",
      "associatedSiteId": 109707,
      "outfallName": "MEDINA ROAD COWES",
      "isImpacting": false,
      "overFlowSiteId": 0,
      "historicSpillsList": []
    },
    {
      "id": 344841458,
      "eventId": 667568,
      "siteUnitNumber": 12623,
      "bathingSite": "YAVERLAND",
      "eventStart": "2022-11-15T10:21:48",
      "eventStop": "2022-11-16T18:35:21",
      "duration": 1933,
      "status": "Genuine",
      "associatedSiteId": 110096,
      "outfallName": "SANDOWN NO1",
      "isImpacting": true,
      "overFlowSiteId": 0,
      "historicSpillsList": [
        {
          "id": 344841458,
          "eventId": 667568,
          "siteUnitNumber": 12623,
          "bathingSite": "YAVERLAND",
          "eventStart": "2022-11-15T10:21:48",
          "eventStop": "2022-11-16T18:35:21",
          "duration": 1933,
          "status": "Genuine",
          "associatedSiteId": 110096,
          "outfallName": "SANDOWN NO1",
          "isImpacting": true,
          "overFlowSiteId": 115453
        },
        {
          "id": 344841459,
          "eventId": 667568,
          "siteUnitNumber": 12624,
          "bathingSite": "SANDOWN",
          "eventStart": "2022-11-15T10:21:48",
          "eventStop": "2022-11-16T18:35:21",
          "duration": 1933,
          "status": "Genuine",
          "associatedSiteId": 110096,
          "outfallName": "SANDOWN NO1",
          "isImpacting": true,
          "overFlowSiteId": 115453,
          "historicSpillsList": []
        },
        {
          "id": 344841465,
          "eventId": 667568,
          "siteUnitNumber": 12622,
          "bathingSite": "WHITECLIFF BAY",
          "eventStart": "2022-11-15T10:21:48",
          "eventStop": "2022-11-16T18:35:21",
          "duration": 1933,
          "status": "Genuine",
          "associatedSiteId": 110096,
          "outfallName": "SANDOWN NO1",
          "isImpacting": true,
          "overFlowSiteId": 115453,
          "historicSpillsList": []
        }
      ]
    },
    {
      "id": 344821928,
      "eventId": 670054,
      "siteUnitNumber": 12618,
      "bathingSite": "RYDE",
      "eventStart": "2022-11-16T18:20:54",
      "eventStop": "2022-11-16T18:35:00",
      "duration": 14,
      "status": "Genuine",
      "associatedSiteId": 109779,
      "outfallName": "ASHEY ROAD RYDE",
      "isImpacting": false,
      "overFlowSiteId": 0,
      "historicSpillsList": []
    },
    {
      "id": 344849317,
      "eventId": 669971,
      "siteUnitNumber": 12573,
      "bathingSite": "CAMBER",
      "eventStart": "2022-11-16T17:30:00",
      "eventStop": "2022-11-16T18:30:00",
      "duration": 60,
      "status": "Not Genuine",
      "associatedSiteId": 110958,
      "outfallName": "RYE",
      "isImpacting": false,
      "overFlowSiteId": 0,
      "historicSpillsList": []
    },
    {
      "id": 344818439,
      "eventId": 668684,
      "siteUnitNumber": 12616,
      "bathingSite": "GURNARD",
      "eventStart": "2022-11-16T04:17:11",
      "eventStop": "2022-11-16T18:28:32",
      "duration": 851,
      "status": "Genuine",
      "associatedSiteId": 109706,
      "outfallName": "HIGH STREET COWES",
      "isImpacting": false,
      "overFlowSiteId": 0,
      "historicSpillsList": []
    },
    {
      "id": 344817229,
      "eventId": 670038,
      "siteUnitNumber": 12616,
      "bathingSite": "GURNARD",
      "eventStart": "2022-11-16T18:12:36",
      "eventStop": "2022-11-16T18:19:24",
      "duration": 6,
      "status": "Genuine",
      "associatedSiteId": 109703,
      "outfallName": "CASTLE STREET COWES",
      "isImpacting": true,
      "overFlowSiteId": 0,
      "historicSpillsList": [
        {
          "id": 344817229,
          "eventId": 670038,
          "siteUnitNumber": 12616,
          "bathingSite": "GURNARD",
          "eventStart": "2022-11-16T18:12:36",
          "eventStop": "2022-11-16T18:19:24",
          "duration": 6,
          "status": "Genuine",
          "associatedSiteId": 109703,
          "outfallName": "CASTLE STREET COWES",
          "isImpacting": true,
          "overFlowSiteId": 108822
        },
        {
          "id": 344817230,
          "eventId": 670038,
          "siteUnitNumber": 12617,
          "bathingSite": "COWES",
          "eventStart": "2022-11-16T18:12:36",
          "eventStop": "2022-11-16T18:19:24",
          "duration": 6,
          "status": "Genuine",
          "associatedSiteId": 109703,
          "outfallName": "CASTLE STREET COWES",
          "isImpacting": true,
          "overFlowSiteId": 108822,
          "historicSpillsList": []
        }
      ]
    },
    {
      "id": 344831477,
      "eventId": 755787,
      "siteUnitNumber": 12590,
      "bathingSite": "WORTHING",
      "eventStart": "2022-11-16T17:55:20",
      "eventStop": "2022-11-16T18:15:00",
      "duration": 19,
      "status": "Genuine",
      "associatedSiteId": 109912,
      "outfallName": "SEA LANE GORING",
      "isImpacting": false,
      "overFlowSiteId": 0,
      "historicSpillsList": []
    },
    {
      "id": 344820063,
      "eventId": 669979,
      "siteUnitNumber": 12661,
      "bathingSite": "LANGSTONE HARBOUR",
      "eventStart": "2022-11-16T17:45:42",
      "eventStop": "2022-11-16T18:01:23",
      "duration": 15,
      "status": "Genuine",
      "associatedSiteId": 109772,
      "outfallName": "BUDDS FARM HAVANT NO1",
      "isImpacting": true,
      "overFlowSiteId": 0,
      "historicSpillsList": [
        {
          "id": 344820063,
          "eventId": 669979,
          "siteUnitNumber": 12661,
          "bathingSite": "LANGSTONE HARBOUR",
          "eventStart": "2022-11-16T17:45:42",
          "eventStop": "2022-11-16T18:01:23",
          "duration": 15,
          "status": "Genuine",
          "associatedSiteId": 109772,
          "outfallName": "BUDDS FARM HAVANT NO1",
          "isImpacting": true,
          "overFlowSiteId": 116073
        }
      ]
    },
    {
      "id": 344833509,
      "eventId": 669948,
      "siteUnitNumber": 12575,
      "bathingSite": "HASTINGS PELHAM BEACH",
      "eventStart": "2022-11-16T17:41:12",
      "eventStop": "2022-11-16T17:57:00",
      "duration": 15,
      "status": "Genuine",
      "associatedSiteId": 109950,
      "outfallName": "ST HELENS DOWN HASTINGS",
      "isImpacting": false,
      "overFlowSiteId": 0,
      "historicSpillsList": []
    },
    {
      "id": 344831476,
      "eventId": 755786,
      "siteUnitNumber": 12590,
      "bathingSite": "WORTHING",
      "eventStart": "2022-11-16T17:17:46",
      "eventStop": "2022-11-16T17:45:50",
      "duration": 28,
      "status": "Genuine",
      "associatedSiteId": 109912,
      "outfallName": "SEA LANE GORING",
      "isImpacting": false,
      "overFlowSiteId": 0,
      "historicSpillsList": []
    },
    {
      "id": 344820061,
      "eventId": 672485,
      "siteUnitNumber": 12661,
      "bathingSite": "LANGSTONE HARBOUR",
      "eventStart": "2022-11-16T17:30:00",
      "eventStop": "2022-11-16T17:45:42",
      "duration": 15,
      "status": "Not Genuine",
      "associatedSiteId": 109772,
      "outfallName": "BUDDS FARM HAVANT NO1",
      "isImpacting": true,
      "overFlowSiteId": 0,
      "historicSpillsList": []
    },
    {
      "id": 344820322,
      "eventId": 667456,
      "siteUnitNumber": 12661,
      "bathingSite": "LANGSTONE HARBOUR",
      "eventStart": "2022-11-15T09:00:00",
      "eventStop": "2022-11-16T17:41:00",
      "duration": 1961,
      "status": "Genuine",
      "associatedSiteId": 109773,
      "outfallName": "BUDDS FARM HAVANT NO2",
      "isImpacting": true,
      "overFlowSiteId": 0,
      "historicSpillsList": [
        {
          "id": 344820322,
          "eventId": 667456,
          "siteUnitNumber": 12661,
          "bathingSite": "LANGSTONE HARBOUR",
          "eventStart": "2022-11-15T09:00:00",
          "eventStop": "2022-11-16T17:41:00",
          "duration": 1961,
          "status": "Genuine",
          "associatedSiteId": 109773,
          "outfallName": "BUDDS FARM HAVANT NO2",
          "isImpacting": true,
          "overFlowSiteId": 115936
        }
      ]
    },
    {
      "id": 344849316,
      "eventId": 669966,
      "siteUnitNumber": 12573,
      "bathingSite": "CAMBER",
      "eventStart": "2022-11-16T17:00:00",
      "eventStop": "2022-11-16T17:15:00",
      "duration": 15,
      "status": "Not Genuine",
      "associatedSiteId": 110958,
      "outfallName": "RYE",
      "isImpacting": false,
      "overFlowSiteId": 0,
      "historicSpillsList": []
    },
    {
      "id": 344822938,
      "eventId": 669835,
      "siteUnitNumber": 12661,
      "bathingSite": "LANGSTONE HARBOUR",
      "eventStart": "2022-11-16T16:53:28",
      "eventStop": "2022-11-16T17:08:42",
      "duration": 15,
      "status": "Genuine",
      "associatedSiteId": 109818,
      "outfallName": "KIRTLEY CLOSE DRAYTON",
      "isImpacting": true,
      "overFlowSiteId": 0,
      "historicSpillsList": [
        {
          "id": 344822938,
          "eventId": 669835,
          "siteUnitNumber": 12661,
          "bathingSite": "LANGSTONE HARBOUR",
          "eventStart": "2022-11-16T16:53:28",
          "eventStop": "2022-11-16T17:08:42",
          "duration": 15,
          "status": "Genuine",
          "associatedSiteId": 109818,
          "outfallName": "KIRTLEY CLOSE DRAYTON",
          "isImpacting": true,
          "overFlowSiteId": 108774
        }
      ]
    }
  ]
}