{
  "currentPage": 252,
  "totalItems": 18701,
  "totalPages": 749,
  "items": [
    {
      "id": 343995709,
      "eventId": 814110,
      "siteUnitNumber": 12616,
      "bathingSite": "GURNARD",
      "eventStart": "2023-05-08T20:10:00",
      "eventStop": "2023-05-08T22:36:00",
      "duration": 146,
      "status": "Genuine",
      "associatedSiteId": 110701,
      "outfallName": "TERMINUS ROAD COWES 2",
      "isImpacting": true,
      "overFlowSiteId": 0,
      "historicSpillsList": [
        {
          "id": 343995709,
          "eventId": 814110,
          "siteUnitNumber": 12616,
          "bathingSite": "GURNARD",
          "eventStart": "2023-05-08T20:10:00",
          "eventStop": "2023-05-08T22:36:00",
          "duration": 146,
          "status": "Genuine",
          "associatedSiteId": 110701,
          "outfallName": "TERMINUS ROAD COWES 2",
          "isImpacting": true,
          "overFlowSiteId": 108562
        },
        {
          "id": 343995710,
          "eventId": 814110,
          "siteUnitNumber": 12617,
          "bathingSite": "COWES",
          "eventStart": "2023-05-08T20:10:00",
          "eventStop": "2023-05-08T22:36:00",
          "duration": 146,
          "status": "Genuine",
          "associatedSiteId": 110701,
          "outfallName": "TERMINUS ROAD COWES 2",
          "isImpacting": true,
          "overFlowSiteId": 108562,
          "historicSpillsList": []
        }
      ]
    },
    {
      "id": 343971732,
      "eventId": 814262,
      "siteUnitNumber": 12605,
      "bathingSite": "STOKES BAY",
      "eventStart": "2023-05-08T22:30:00",
      "eventStop": "2023-05-08T22:33:00",
      "duration": 3,
      "status": "Genuine",
      "associatedSiteId": 109822,
      "outfallName": "PIER ROAD SOUTHSEA",
      "isImpacting": true,
      "overFlowSiteId": 0,
      "historicSpillsList": [
        {
          "id": 343971732,
          "eventId": 814262,
          "siteUnitNumber": 12605,
          "bathingSite": "STOKES BAY",
          "eventStart": "2023-05-08T22:30:00",
          "eventStop": "2023-05-08T22:33:00",
          "duration": 3,
          "status": "Genuine",
          "associatedSiteId": 109822,
          "outfallName": "PIER ROAD SOUTHSEA",
          "isImpacting": true,
          "overFlowSiteId": 108469
        },
        {
          "id": 343971733,
          "eventId": 814262,
          "siteUnitNumber": 12604,
          "bathingSite": "SOUTHSEA EAST",
          "eventStart": "2023-05-08T22:30:00",
          "eventStop": "2023-05-08T22:33:00",
          "duration": 3,
          "status": "Genuine",
          "associatedSiteId": 109822,
          "outfallName": "PIER ROAD SOUTHSEA",
          "isImpacting": true,
          "overFlowSiteId": 108469,
          "historicSpillsList": []
        }
      ]
    },
    {
      "id": 343985928,
      "eventId": 858332,
      "siteUnitNumber": 12591,
      "bathingSite": "LITTLEHAMPTON",
      "eventStart": "2023-05-08T22:22:00",
      "eventStop": "2023-05-08T22:26:00",
      "duration": 4,
      "status": "Genuine",
      "associatedSiteId": 109968,
      "outfallName": "FORD ROAD ARUNDEL",
      "isImpacting": true,
      "overFlowSiteId": 0,
      "historicSpillsList": [
        {
          "id": 343985928,
          "eventId": 858332,
          "siteUnitNumber": 12591,
          "bathingSite": "LITTLEHAMPTON",
          "eventStart": "2023-05-08T22:22:00",
          "eventStop": "2023-05-08T22:26:00",
          "duration": 4,
          "status": "Genuine",
          "associatedSiteId": 109968,
          "outfallName": "FORD ROAD ARUNDEL",
          "isImpacting": true,
          "overFlowSiteId": 108002
        }
      ]
    },
    {
      "id": 343971718,
      "eventId": 815121,
      "siteUnitNumber": 12604,
      "bathingSite": "SOUTHSEA EAST",
      "eventStart": "2023-05-08T22:14:00",
      "eventStop": "2023-05-08T22:17:00",
      "duration": 3,
      "status": "Genuine",
      "associatedSiteId": 109822,
      "outfallName": "PIER ROAD SOUTHSEA",
      "isImpacting": true,
      "overFlowSiteId": 0,
      "historicSpillsList": [
        {
          "id": 343971718,
          "eventId": 815121,
          "siteUnitNumber": 12604,
          "bathingSite": "SOUTHSEA EAST",
          "eventStart": "2023-05-08T22:14:00",
          "eventStop": "2023-05-08T22:17:00",
          "duration": 3,
          "status": "Genuine",
          "associatedSiteId": 109822,
          "outfallName": "PIER ROAD SOUTHSEA",
          "isImpacting": true,
          "overFlowSiteId": 108469
        },
        {
          "id": 343971719,
          "eventId": 815121,
          "siteUnitNumber": 12605,
          "bathingSite": "STOKES BAY",
          "eventStart": "2023-05-08T22:14:00",
          "eventStop": "2023-05-08T22:17:00",
          "duration": 3,
          "status": "Genuine",
          "associatedSiteId": 109822,
          "outfallName": "PIER ROAD SOUTHSEA",
          "isImpacting": true,
          "overFlowSiteId": 108469,
          "historicSpillsList": []
        }
      ]
    },
    {
      "id": 343985927,
      "eventId": 858331,
      "siteUnitNumber": 12591,
      "bathingSite": "LITTLEHAMPTON",
      "eventStart": "2023-05-08T22:13:00",
      "eventStop": "2023-05-08T22:17:00",
      "duration": 4,
      "status": "Genuine",
      "associatedSiteId": 109968,
      "outfallName": "FORD ROAD ARUNDEL",
      "isImpacting": true,
      "overFlowSiteId": 0,
      "historicSpillsList": [
        {
          "id": 343985927,
          "eventId": 858331,
          "siteUnitNumber": 12591,
          "bathingSite": "LITTLEHAMPTON",
          "eventStart": "2023-05-08T22:13:00",
          "eventStop": "2023-05-08T22:17:00",
          "duration": 4,
          "status": "Genuine",
          "associatedSiteId": 109968,
          "outfallName": "FORD ROAD ARUNDEL",
          "isImpacting": true,
          "overFlowSiteId": 108002
        }
      ]
    },
    {
      "id": 344000352,
      "eventId": 814913,
      "siteUnitNumber": 12614,
      "bathingSite": "TOTLAND BAY",
      "eventStart": "2023-05-08T21:40:00",
      "eventStop": "2023-05-08T22:14:00",
      "duration": 34,
      "status": "Genuine",
      "associatedSiteId": 115498,
      "outfallName": "NORTON TRANSFER IOW",
      "isImpacting": true,
      "overFlowSiteId": 0,
      "historicSpillsList": [
        {
          "id": 344000352,
          "eventId": 814913,
          "siteUnitNumber": 12614,
          "bathingSite": "TOTLAND BAY",
          "eventStart": "2023-05-08T21:40:00",
          "eventStop": "2023-05-08T22:14:00",
          "duration": 34,
          "status": "Genuine",
          "associatedSiteId": 115498,
          "outfallName": "NORTON TRANSFER IOW",
          "isImpacting": true,
          "overFlowSiteId": 108544
        },
        {
          "id": 344000353,
          "eventId": 814913,
          "siteUnitNumber": 12615,
          "bathingSite": "COLWELL BAY",
          "eventStart": "2023-05-08T21:40:00",
          "eventStop": "2023-05-08T22:14:00",
          "duration": 34,
          "status": "Genuine",
          "associatedSiteId": 115498,
          "outfallName": "NORTON TRANSFER IOW",
          "isImpacting": true,
          "overFlowSiteId": 108544,
          "historicSpillsList": []
        }
      ]
    },
    {
      "id": 343985946,
      "eventId": 814232,
      "siteUnitNumber": 12591,
      "bathingSite": "LITTLEHAMPTON",
      "eventStart": "2023-05-08T22:05:00",
      "eventStop": "2023-05-08T22:09:00",
      "duration": 4,
      "status": "Genuine",
      "associatedSiteId": 109968,
      "outfallName": "FORD ROAD ARUNDEL",
      "isImpacting": true,
      "overFlowSiteId": 0,
      "historicSpillsList": [
        {
          "id": 343985946,
          "eventId": 814232,
          "siteUnitNumber": 12591,
          "bathingSite": "LITTLEHAMPTON",
          "eventStart": "2023-05-08T22:05:00",
          "eventStop": "2023-05-08T22:09:00",
          "duration": 4,
          "status": "Genuine",
          "associatedSiteId": 109968,
          "outfallName": "FORD ROAD ARUNDEL",
          "isImpacting": true,
          "overFlowSiteId": 108002
        }
      ]
    },
    {
      "id": 343965147,
      "eventId": 814157,
      "siteUnitNumber": 12616,
      "bathingSite": "GURNARD",
      "eventStart": "2023-05-08T21:12:00",
      "eventStop": "2023-05-08T22:09:00",
      "duration": 57,
      "status": "Genuine",
      "associatedSiteId": 109702,
      "outfallName": "ALBANY ROAD EAST COWES",
      "isImpacting": false,
      "overFlowSiteId": 0,
      "historicSpillsList": []
    },
    {
      "id": 343966831,
      "eventId": 814188,
      "siteUnitNumber": 12616,
      "bathingSite": "GURNARD",
      "eventStart": "2023-05-08T20:50:00",
      "eventStop": "2023-05-08T22:05:00",
      "duration": 75,
      "status": "Genuine",
      "associatedSiteId": 109707,
      "outfallName": "MEDINA ROAD COWES",
      "isImpacting": false,
      "overFlowSiteId": 0,
      "historicSpillsList": []
    },
    {
      "id": 343963015,
      "eventId": 814227,
      "siteUnitNumber": 12614,
      "bathingSite": "TOTLAND BAY",
      "eventStart": "2023-05-08T21:47:59",
      "eventStop": "2023-05-08T22:04:44",
      "duration": 16,
      "status": "Genuine",
      "associatedSiteId": 109657,
      "outfallName": "THE PROMENADE TOTLAND PIER NO2",
      "isImpacting": false,
      "overFlowSiteId": 0,
      "historicSpillsList": []
    },
    {
      "id": 343963221,
      "eventId": 814129,
      "siteUnitNumber": 12615,
      "bathingSite": "COLWELL BAY",
      "eventStart": "2023-05-08T20:28:00",
      "eventStop": "2023-05-08T22:04:00",
      "duration": 96,
      "status": "Genuine",
      "associatedSiteId": 109663,
      "outfallName": "THE INSTITUTE YARMOUTH NO1",
      "isImpacting": false,
      "overFlowSiteId": 0,
      "historicSpillsList": []
    },
    {
      "id": 343971734,
      "eventId": 814216,
      "siteUnitNumber": 12604,
      "bathingSite": "SOUTHSEA EAST",
      "eventStart": "2023-05-08T22:01:00",
      "eventStop": "2023-05-08T22:03:00",
      "duration": 2,
      "status": "Genuine",
      "associatedSiteId": 109822,
      "outfallName": "PIER ROAD SOUTHSEA",
      "isImpacting": true,
      "overFlowSiteId": 0,
      "historicSpillsList": [
        {
          "id": 343971734,
          "eventId": 814216,
          "siteUnitNumber": 12604,
          "bathingSite": "SOUTHSEA EAST",
          "eventStart": "2023-05-08T22:01:00",
          "eventStop": "2023-05-08T22:03:00",
          "duration": 2,
          "status": "Genuine",
          "associatedSiteId": 109822,
          "outfallName": "PIER ROAD SOUTHSEA",
          "isImpacting": true,
          "overFlowSiteId": 108469
        },
        {
          "id": 343971735,
          "eventId": 814216,
          "siteUnitNumber": 12605,
          "bathingSite": "STOKES BAY",
          "eventStart": "2023-05-08T22:01:00",
          "eventStop": "2023-05-08T22:03:00",
          "duration": 2,
          "status": "Genuine",
          "associatedSiteId": 109822,
          "outfallName": "PIER ROAD SOUTHSEA",
          "isImpacting": true,
          "overFlowSiteId": 108469,
          "historicSpillsList": []
        }
      ]
    },
    {
      "id": 343985948,
      "eventId": 814228,
      "siteUnitNumber": 12591,
      "bathingSite": "LITTLEHAMPTON",
      "eventStart": "2023-05-08T21:56:46",
      "eventStop": "2023-05-08T21:59:00",
      "duration": 2,
      "status": "Genuine",
      "associatedSiteId": 109968,
      "outfallName": "FORD ROAD ARUNDEL",
      "isImpacting": true,
      "overFlowSiteId": 0,
      "historicSpillsList": [
        {
          "id": 343985948,
          "eventId": 814228,
          "siteUnitNumber": 12591,
          "bathingSite": "LITTLEHAMPTON",
          "eventStart": "2023-05-08T21:56:46",
          "eventStop": "2023-05-08T21:59:00",
          "duration": 2,
          "status": "Genuine",
          "associatedSiteId": 109968,
          "outfallName": "FORD ROAD ARUNDEL",
          "isImpacting": true,
          "overFlowSiteId": 108002
        }
      ]
    },
    {
      "id": 343971722,
      "eventId": 814972,
      "siteUnitNumber": 12604,
      "bathingSite": "SOUTHSEA EAST",
      "eventStart": "2023-05-08T21:41:00",
      "eventStop": "2023-05-08T21:43:00",
      "duration": 2,
      "status": "Genuine",
      "associatedSiteId": 109822,
      "outfallName": "PIER ROAD SOUTHSEA",
      "isImpacting": true,
      "overFlowSiteId": 0,
      "historicSpillsList": [
        {
          "id": 343971722,
          "eventId": 814972,
          "siteUnitNumber": 12604,
          "bathingSite": "SOUTHSEA EAST",
          "eventStart": "2023-05-08T21:41:00",
          "eventStop": "2023-05-08T21:43:00",
          "duration": 2,
          "status": "Genuine",
          "associatedSiteId": 109822,
          "outfallName": "PIER ROAD SOUTHSEA",
          "isImpacting": true,
          "overFlowSiteId": 108469
        },
        {
          "id": 343971723,
          "eventId": 814972,
          "siteUnitNumber": 12605,
          "bathingSite": "STOKES BAY",
          "eventStart": "2023-05-08T21:41:00",
          "eventStop": "2023-05-08T21:43:00",
          "duration": 2,
          "status": "Genuine",
          "associatedSiteId": 109822,
          "outfallName": "PIER ROAD SOUTHSEA",
          "isImpacting": true,
          "overFlowSiteId": 108469,
          "historicSpillsList": []
        }
      ]
    },
    {
      "id": 343971736,
      "eventId": 814168,
      "siteUnitNumber": 12604,
      "bathingSite": "SOUTHSEA EAST",
      "eventStart": "2023-05-08T21:26:00",
      "eventStop": "2023-05-08T21:30:00",
      "duration": 4,
      "status": "Genuine",
      "associatedSiteId": 109822,
      "outfallName": "PIER ROAD SOUTHSEA",
      "isImpacting": true,
      "overFlowSiteId": 0,
      "historicSpillsList": [
        {
          "id": 343971736,
          "eventId": 814168,
          "siteUnitNumber": 12604,
          "bathingSite": "SOUTHSEA EAST",
          "eventStart": "2023-05-08T21:26:00",
          "eventStop": "2023-05-08T21:30:00",
          "duration": 4,
          "status": "Genuine",
          "associatedSiteId": 109822,
          "outfallName": "PIER ROAD SOUTHSEA",
          "isImpacting": true,
          "overFlowSiteId": 108469
        },
        {
          "id": 343971737,
          "eventId": 814168,
          "siteUnitNumber": 12605,
          "bathingSite": "STOKES BAY",
          "eventStart": "2023-05-08T21:26:00",
          "eventStop": "2023-05-08T21:30:00",
          "duration": 4,
          "status": "Genuine",
          "associatedSiteId": 109822,
          "outfallName": "PIER ROAD SOUTHSEA",
          "isImpacting": true,
          "overFlowSiteId": 108469,
          "historicSpillsList": []
        }
      ]
    },
    {
      "id": 343963366,
      "eventId": 814140,
      "siteUnitNumber": 12614,
      "bathingSite": "TOTLAND BAY",
      "eventStart": "2023-05-08T20:44:00",
      "eventStop": "2023-05-08T21:03:00",
      "duration": 19,
      "status": "Genuine",
      "associatedSiteId": 109665,
      "outfallName": "THORLEY ROAD BOULDNOR",
      "isImpacting": false,
      "overFlowSiteId": 0,
      "historicSpillsList": []
    },
    {
      "id": 343965597,
      "eventId": 814030,
      "siteUnitNumber": 12616,
      "bathingSite": "GURNARD",
      "eventStart": "2023-05-08T15:58:38",
      "eventStop": "2023-05-08T16:24:37",
      "duration": 25,
      "status": "Genuine",
      "associatedSiteId": 109704,
      "outfallName": "EGYPT POINT COWES",
      "isImpacting": true,
      "overFlowSiteId": 0,
      "historicSpillsList": [
        {
          "id": 343965598,
          "eventId": 814030,
          "siteUnitNumber": 12617,
          "bathingSite": "COWES",
          "eventStart": "2023-05-08T15:58:38",
          "eventStop": "2023-05-08T16:24:37",
          "duration": 25,
          "status": "Genuine",
          "associatedSiteId": 109704,
          "outfallName": "EGYPT POINT COWES",
          "isImpacting": true,
          "overFlowSiteId": 116213,
          "historicSpillsList": []
        }
      ]
    },
    {
      "id": 343988594,
      "eventId": 813202,
      "siteUnitNumber": 12593,
      "bathingSite": "FELPHAM",
      "eventStart": "2023-05-06T10:47:42",
      "eventStop": "2023-05-07T23:39:00",
      "duration": 2211,
      "status": "Genuine",
      "associatedSiteId": 110095,
      "outfallName": "LIDSEY",
      "isImpacting": true,
      "overFlowSiteId": 0,
      "historicSpillsList": [
        {
          "id": 343988594,
          "eventId": 813202,
          "siteUnitNumber": 12593,
          "bathingSite": "FELPHAM",
          "eventStart": "2023-05-06T10:47:42",
          "eventStop": "2023-05-07T23:39:00",
          "duration": 2211,
          "status": "Genuine",
          "associatedSiteId": 110095,
          "outfallName": "LIDSEY",
          "isImpacting": true,
          "overFlowSiteId": 115776
        }
      ]
    },
    {
      "id": 343968858,
      "eventId": 813667,
      "siteUnitNumber": 12617,
      "bathingSite": "COWES",
      "eventStart": "2023-05-07T04:16:00",
      "eventStop": "2023-05-07T04:21:00",
      "duration": 5,
      "status": "Genuine",
      "associatedSiteId": 109777,
      "outfallName": "APPLEY PARK RYDE TRANSFER",
      "isImpacting": false,
      "overFlowSiteId": 0,
      "historicSpillsList": []
    },
    {
      "id": 343968860,
      "eventId": 813666,
      "siteUnitNumber": 12617,
      "bathingSite": "COWES",
      "eventStart": "2023-05-07T03:23:00",
      "eventStop": "2023-05-07T03:29:00",
      "duration": 6,
      "status": "Genuine",
      "associatedSiteId": 109777,
      "outfallName": "APPLEY PARK RYDE TRANSFER",
      "isImpacting": false,
      "overFlowSiteId": 0,
      "historicSpillsList": []
    },
    {
      "id": 343968862,
      "eventId": 813665,
      "siteUnitNumber": 12618,
      "bathingSite": "RYDE",
      "eventStart": "2023-05-07T01:31:00",
      "eventStop": "2023-05-07T01:36:00",
      "duration": 5,
      "status": "Genuine",
      "associatedSiteId": 109777,
      "outfallName": "APPLEY PARK RYDE TRANSFER",
      "isImpacting": false,
      "overFlowSiteId": 0,
      "historicSpillsList": []
    },
    {
      "id": 343989045,
      "eventId": 813662,
      "siteUnitNumber": 12622,
      "bathingSite": "WHITECLIFF BAY",
      "eventStart": "2023-05-07T00:21:00",
      "eventStop": "2023-05-07T00:54:00",
      "duration": 33,
      "status": "Genuine",
      "associatedSiteId": 110096,
      "outfallName": "SANDOWN NO1",
      "isImpacting": false,
      "overFlowSiteId": 0,
      "historicSpillsList": []
    },
    {
      "id": 343968864,
      "eventId": 813155,
      "siteUnitNumber": 12617,
      "bathingSite": "COWES",
      "eventStart": "2023-05-06T09:35:11",
      "eventStop": "2023-05-07T00:31:00",
      "duration": 895,
      "status": "Genuine",
      "associatedSiteId": 109777,
      "outfallName": "APPLEY PARK RYDE TRANSFER",
      "isImpacting": true,
      "overFlowSiteId": 0,
      "historicSpillsList": [
        {
          "id": 343968865,
          "eventId": 813155,
          "siteUnitNumber": 12618,
          "bathingSite": "RYDE",
          "eventStart": "2023-05-06T09:35:11",
          "eventStop": "2023-05-07T00:31:00",
          "duration": 895,
          "status": "Genuine",
          "associatedSiteId": 109777,
          "outfallName": "APPLEY PARK RYDE TRANSFER",
          "isImpacting": true,
          "overFlowSiteId": 108941,
          "historicSpillsList": []
        }
      ]
    },
    {
      "id": 343989050,
      "eventId": 813661,
      "siteUnitNumber": 12622,
      "bathingSite": "WHITECLIFF BAY",
      "eventStart": "2023-05-06T22:39:00",
      "eventStop": "2023-05-06T23:24:00",
      "duration": 45,
      "status": "Genuine",
      "associatedSiteId": 110096,
      "outfallName": "SANDOWN NO1",
      "isImpacting": false,
      "overFlowSiteId": 0,
      "historicSpillsList": []
    },
    {
      "id": 343985303,
      "eventId": 813787,
      "siteUnitNumber": 12591,
      "bathingSite": "LITTLEHAMPTON",
      "eventStart": "2023-05-06T22:26:00",
      "eventStop": "2023-05-06T23:07:00",
      "duration": 41,
      "status": "Genuine",
      "associatedSiteId": 109965,
      "outfallName": "SEA ROAD LITTLEHAMPTON",
      "isImpacting": true,
      "overFlowSiteId": 0,
      "historicSpillsList": [
        {
          "id": 343985303,
          "eventId": 813787,
          "siteUnitNumber": 12591,
          "bathingSite": "LITTLEHAMPTON",
          "eventStart": "2023-05-06T22:26:00",
          "eventStop": "2023-05-06T23:07:00",
          "duration": 41,
          "status": "Genuine",
          "associatedSiteId": 109965,
          "outfallName": "SEA ROAD LITTLEHAMPTON",
          "isImpacting": true,
          "overFlowSiteId": 109368
        }
      ]
    }
  ]
}