{
  "currentPage": 240,
  "totalItems": 18701,
  "totalPages": 749,
  "items": [
    {
      "id": 343968828,
      "eventId": 829692,
      "siteUnitNumber": 12618,
      "bathingSite": "RYDE",
      "eventStart": "2023-06-20T20:05:00",
      "eventStop": "2023-06-20T20:08:00",
      "duration": 3,
      "status": "Genuine",
      "associatedSiteId": 109777,
      "outfallName": "APPLEY PARK RYDE TRANSFER",
      "isImpacting": false,
      "overFlowSiteId": 0,
      "historicSpillsList": []
    },
    {
      "id": 343968830,
      "eventId": 829691,
      "siteUnitNumber": 12617,
      "bathingSite": "COWES",
      "eventStart": "2023-06-20T18:46:00",
      "eventStop": "2023-06-20T18:50:00",
      "duration": 4,
      "status": "Genuine",
      "associatedSiteId": 109777,
      "outfallName": "APPLEY PARK RYDE TRANSFER",
      "isImpacting": false,
      "overFlowSiteId": 0,
      "historicSpillsList": []
    },
    {
      "id": 343968832,
      "eventId": 828723,
      "siteUnitNumber": 12617,
      "bathingSite": "COWES",
      "eventStart": "2023-06-20T05:00:54",
      "eventStop": "2023-06-20T18:04:58",
      "duration": 784,
      "status": "Genuine",
      "associatedSiteId": 109777,
      "outfallName": "APPLEY PARK RYDE TRANSFER",
      "isImpacting": true,
      "overFlowSiteId": 0,
      "historicSpillsList": [
        {
          "id": 343968833,
          "eventId": 828723,
          "siteUnitNumber": 12618,
          "bathingSite": "RYDE",
          "eventStart": "2023-06-20T05:00:54",
          "eventStop": "2023-06-20T18:04:58",
          "duration": 784,
          "status": "Genuine",
          "associatedSiteId": 109777,
          "outfallName": "APPLEY PARK RYDE TRANSFER",
          "isImpacting": true,
          "overFlowSiteId": 108941,
          "historicSpillsList": []
        }
      ]
    },
    {
      "id": 343977864,
      "eventId": 829460,
      "siteUnitNumber": 12576,
      "bathingSite": "ST LEONARDS",
      "eventStart": "2023-06-20T14:31:38",
      "eventStop": "2023-06-20T14:49:26",
      "duration": 17,
      "status": "Genuine",
      "associatedSiteId": 109903,
      "outfallName": "BEXHILL & HASTINGS NO2",
      "isImpacting": true,
      "overFlowSiteId": 0,
      "historicSpillsList": [
        {
          "id": 343977864,
          "eventId": 829460,
          "siteUnitNumber": 12576,
          "bathingSite": "ST LEONARDS",
          "eventStart": "2023-06-20T14:31:38",
          "eventStop": "2023-06-20T14:49:26",
          "duration": 17,
          "status": "Genuine",
          "associatedSiteId": 109903,
          "outfallName": "BEXHILL & HASTINGS NO2",
          "isImpacting": true,
          "overFlowSiteId": 115398
        },
        {
          "id": 343977865,
          "eventId": 829460,
          "siteUnitNumber": 12577,
          "bathingSite": "BEXHILL",
          "eventStart": "2023-06-20T14:31:38",
          "eventStop": "2023-06-20T14:49:26",
          "duration": 17,
          "status": "Genuine",
          "associatedSiteId": 109903,
          "outfallName": "BEXHILL & HASTINGS NO2",
          "isImpacting": true,
          "overFlowSiteId": 115398,
          "historicSpillsList": []
        }
      ]
    },
    {
      "id": 343976362,
      "eventId": 829210,
      "siteUnitNumber": 12568,
      "bathingSite": "SANDGATE",
      "eventStart": "2023-06-20T08:45:00",
      "eventStop": "2023-06-20T14:24:00",
      "duration": 339,
      "status": "Genuine",
      "associatedSiteId": 109897,
      "outfallName": "RANGE ROAD HYTHE K LONG",
      "isImpacting": true,
      "overFlowSiteId": 0,
      "historicSpillsList": [
        {
          "id": 343976362,
          "eventId": 829210,
          "siteUnitNumber": 12568,
          "bathingSite": "SANDGATE",
          "eventStart": "2023-06-20T08:45:00",
          "eventStop": "2023-06-20T14:24:00",
          "duration": 339,
          "status": "Genuine",
          "associatedSiteId": 109897,
          "outfallName": "RANGE ROAD HYTHE K LONG",
          "isImpacting": true,
          "overFlowSiteId": 116048
        },
        {
          "id": 343976363,
          "eventId": 829210,
          "siteUnitNumber": 12569,
          "bathingSite": "HYTHE",
          "eventStart": "2023-06-20T08:45:00",
          "eventStop": "2023-06-20T14:24:00",
          "duration": 339,
          "status": "Genuine",
          "associatedSiteId": 109897,
          "outfallName": "RANGE ROAD HYTHE K LONG",
          "isImpacting": true,
          "overFlowSiteId": 116048,
          "historicSpillsList": []
        }
      ]
    },
    {
      "id": 343977862,
      "eventId": 829001,
      "siteUnitNumber": 12576,
      "bathingSite": "ST LEONARDS",
      "eventStart": "2023-06-20T07:06:13",
      "eventStop": "2023-06-20T14:09:30",
      "duration": 423,
      "status": "Genuine",
      "associatedSiteId": 109903,
      "outfallName": "BEXHILL & HASTINGS NO2",
      "isImpacting": true,
      "overFlowSiteId": 0,
      "historicSpillsList": [
        {
          "id": 343977862,
          "eventId": 829001,
          "siteUnitNumber": 12576,
          "bathingSite": "ST LEONARDS",
          "eventStart": "2023-06-20T07:06:13",
          "eventStop": "2023-06-20T14:09:30",
          "duration": 423,
          "status": "Genuine",
          "associatedSiteId": 109903,
          "outfallName": "BEXHILL & HASTINGS NO2",
          "isImpacting": true,
          "overFlowSiteId": 115398
        },
        {
          "id": 343977863,
          "eventId": 829001,
          "siteUnitNumber": 12577,
          "bathingSite": "BEXHILL",
          "eventStart": "2023-06-20T07:06:13",
          "eventStop": "2023-06-20T14:09:30",
          "duration": 423,
          "status": "Genuine",
          "associatedSiteId": 109903,
          "outfallName": "BEXHILL & HASTINGS NO2",
          "isImpacting": true,
          "overFlowSiteId": 115398,
          "historicSpillsList": []
        }
      ]
    },
    {
      "id": 343961092,
      "eventId": 829152,
      "siteUnitNumber": 12544,
      "bathingSite": "SHEERNESS",
      "eventStart": "2023-06-20T08:29:00",
      "eventStop": "2023-06-20T13:25:00",
      "duration": 296,
      "status": "Genuine",
      "associatedSiteId": 109619,
      "outfallName": "WARDS HILL ROAD MINSTER IOS",
      "isImpacting": false,
      "overFlowSiteId": 0,
      "historicSpillsList": []
    },
    {
      "id": 343997050,
      "eventId": 829337,
      "siteUnitNumber": 12582,
      "bathingSite": "SEAFORD",
      "eventStart": "2023-06-20T10:50:34",
      "eventStop": "2023-06-20T12:46:42",
      "duration": 116,
      "status": "Genuine",
      "associatedSiteId": 110920,
      "outfallName": "NEWHAVEN",
      "isImpacting": false,
      "overFlowSiteId": 0,
      "historicSpillsList": []
    },
    {
      "id": 343960821,
      "eventId": 829148,
      "siteUnitNumber": 12544,
      "bathingSite": "SHEERNESS",
      "eventStart": "2023-06-20T08:01:32",
      "eventStop": "2023-06-20T12:23:00",
      "duration": 261,
      "status": "Genuine",
      "associatedSiteId": 109614,
      "outfallName": "BRIELLE WAY WESTMINSTER",
      "isImpacting": false,
      "overFlowSiteId": 0,
      "historicSpillsList": []
    },
    {
      "id": 343995371,
      "eventId": 829306,
      "siteUnitNumber": 12559,
      "bathingSite": "BOTANY BAY BROADSTAIRS",
      "eventStart": "2023-06-20T10:04:00",
      "eventStop": "2023-06-20T11:23:00",
      "duration": 79,
      "status": "Genuine",
      "associatedSiteId": 110673,
      "outfallName": "BROADSTAIRS SSO 1",
      "isImpacting": true,
      "overFlowSiteId": 0,
      "historicSpillsList": [
        {
          "id": 343995371,
          "eventId": 829306,
          "siteUnitNumber": 12559,
          "bathingSite": "BOTANY BAY BROADSTAIRS",
          "eventStart": "2023-06-20T10:04:00",
          "eventStop": "2023-06-20T11:23:00",
          "duration": 79,
          "status": "Genuine",
          "associatedSiteId": 110673,
          "outfallName": "BROADSTAIRS SSO 1",
          "isImpacting": true,
          "overFlowSiteId": 116106
        },
        {
          "id": 343995372,
          "eventId": 829306,
          "siteUnitNumber": 12560,
          "bathingSite": "JOSS BAY BROADSTAIRS",
          "eventStart": "2023-06-20T10:04:00",
          "eventStop": "2023-06-20T11:23:00",
          "duration": 79,
          "status": "Genuine",
          "associatedSiteId": 110673,
          "outfallName": "BROADSTAIRS SSO 1",
          "isImpacting": true,
          "overFlowSiteId": 116106,
          "historicSpillsList": []
        }
      ]
    },
    {
      "id": 343980171,
      "eventId": 828785,
      "siteUnitNumber": 12586,
      "bathingSite": "HOVE",
      "eventStart": "2023-06-20T06:15:00",
      "eventStop": "2023-06-20T11:15:00",
      "duration": 300,
      "status": "Genuine",
      "associatedSiteId": 109929,
      "outfallName": "SHOREHAM NO1",
      "isImpacting": true,
      "overFlowSiteId": 0,
      "historicSpillsList": [
        {
          "id": 343980171,
          "eventId": 828785,
          "siteUnitNumber": 12586,
          "bathingSite": "HOVE",
          "eventStart": "2023-06-20T06:15:00",
          "eventStop": "2023-06-20T11:15:00",
          "duration": 300,
          "status": "Genuine",
          "associatedSiteId": 109929,
          "outfallName": "SHOREHAM NO1",
          "isImpacting": true,
          "overFlowSiteId": 115434
        },
        {
          "id": 343980172,
          "eventId": 828785,
          "siteUnitNumber": 12587,
          "bathingSite": "SOUTHWICK",
          "eventStart": "2023-06-20T06:15:00",
          "eventStop": "2023-06-20T11:15:00",
          "duration": 300,
          "status": "Genuine",
          "associatedSiteId": 109929,
          "outfallName": "SHOREHAM NO1",
          "isImpacting": true,
          "overFlowSiteId": 115434,
          "historicSpillsList": []
        },
        {
          "id": 343980173,
          "eventId": 828785,
          "siteUnitNumber": 12588,
          "bathingSite": "SHOREHAM BEACH",
          "eventStart": "2023-06-20T06:15:00",
          "eventStop": "2023-06-20T11:15:00",
          "duration": 300,
          "status": "Genuine",
          "associatedSiteId": 109929,
          "outfallName": "SHOREHAM NO1",
          "isImpacting": true,
          "overFlowSiteId": 115434,
          "historicSpillsList": []
        }
      ]
    },
    {
      "id": 343988586,
      "eventId": 829211,
      "siteUnitNumber": 12593,
      "bathingSite": "FELPHAM",
      "eventStart": "2023-06-20T08:45:51",
      "eventStop": "2023-06-20T11:10:00",
      "duration": 144,
      "status": "Genuine",
      "associatedSiteId": 110095,
      "outfallName": "LIDSEY",
      "isImpacting": true,
      "overFlowSiteId": 0,
      "historicSpillsList": [
        {
          "id": 343988586,
          "eventId": 829211,
          "siteUnitNumber": 12593,
          "bathingSite": "FELPHAM",
          "eventStart": "2023-06-20T08:45:51",
          "eventStop": "2023-06-20T11:10:00",
          "duration": 144,
          "status": "Genuine",
          "associatedSiteId": 110095,
          "outfallName": "LIDSEY",
          "isImpacting": true,
          "overFlowSiteId": 115776
        }
      ]
    },
    {
      "id": 343972469,
      "eventId": 829157,
      "siteUnitNumber": 12548,
      "bathingSite": "TANKERTON",
      "eventStart": "2023-06-20T08:29:00",
      "eventStop": "2023-06-20T10:46:00",
      "duration": 137,
      "status": "Genuine",
      "associatedSiteId": 109830,
      "outfallName": "SWALECLIFFE NO1",
      "isImpacting": false,
      "overFlowSiteId": 0,
      "historicSpillsList": []
    },
    {
      "id": 343997055,
      "eventId": 828829,
      "siteUnitNumber": 12582,
      "bathingSite": "SEAFORD",
      "eventStart": "2023-06-20T06:12:45",
      "eventStop": "2023-06-20T10:40:45",
      "duration": 268,
      "status": "Genuine",
      "associatedSiteId": 110920,
      "outfallName": "NEWHAVEN",
      "isImpacting": false,
      "overFlowSiteId": 0,
      "historicSpillsList": []
    },
    {
      "id": 343987797,
      "eventId": 829194,
      "siteUnitNumber": 12567,
      "bathingSite": "FOLKESTONE",
      "eventStart": "2023-06-20T08:37:55",
      "eventStop": "2023-06-20T10:35:00",
      "duration": 117,
      "status": "Genuine",
      "associatedSiteId": 110010,
      "outfallName": "THE STADE FOLKESTONE",
      "isImpacting": true,
      "overFlowSiteId": 0,
      "historicSpillsList": [
        {
          "id": 343987797,
          "eventId": 829194,
          "siteUnitNumber": 12567,
          "bathingSite": "FOLKESTONE",
          "eventStart": "2023-06-20T08:37:55",
          "eventStop": "2023-06-20T10:35:00",
          "duration": 117,
          "status": "Genuine",
          "associatedSiteId": 110010,
          "outfallName": "THE STADE FOLKESTONE",
          "isImpacting": true,
          "overFlowSiteId": 108909
        }
      ]
    },
    {
      "id": 343989020,
      "eventId": 828774,
      "siteUnitNumber": 12622,
      "bathingSite": "WHITECLIFF BAY",
      "eventStart": "2023-06-20T05:45:00",
      "eventStop": "2023-06-20T10:31:00",
      "duration": 286,
      "status": "Genuine",
      "associatedSiteId": 110096,
      "outfallName": "SANDOWN NO1",
      "isImpacting": true,
      "overFlowSiteId": 0,
      "historicSpillsList": [
        {
          "id": 343989020,
          "eventId": 828774,
          "siteUnitNumber": 12622,
          "bathingSite": "WHITECLIFF BAY",
          "eventStart": "2023-06-20T05:45:00",
          "eventStop": "2023-06-20T10:31:00",
          "duration": 286,
          "status": "Genuine",
          "associatedSiteId": 110096,
          "outfallName": "SANDOWN NO1",
          "isImpacting": true,
          "overFlowSiteId": 115453
        },
        {
          "id": 343989021,
          "eventId": 828774,
          "siteUnitNumber": 12623,
          "bathingSite": "YAVERLAND",
          "eventStart": "2023-06-20T05:45:00",
          "eventStop": "2023-06-20T10:31:00",
          "duration": 286,
          "status": "Genuine",
          "associatedSiteId": 110096,
          "outfallName": "SANDOWN NO1",
          "isImpacting": true,
          "overFlowSiteId": 115453,
          "historicSpillsList": []
        },
        {
          "id": 343989022,
          "eventId": 828774,
          "siteUnitNumber": 12624,
          "bathingSite": "SANDOWN",
          "eventStart": "2023-06-20T05:45:00",
          "eventStop": "2023-06-20T10:31:00",
          "duration": 286,
          "status": "Genuine",
          "associatedSiteId": 110096,
          "outfallName": "SANDOWN NO1",
          "isImpacting": true,
          "overFlowSiteId": 115453,
          "historicSpillsList": []
        }
      ]
    },
    {
      "id": 343970945,
      "eventId": 829187,
      "siteUnitNumber": 12567,
      "bathingSite": "FOLKESTONE",
      "eventStart": "2023-06-20T08:27:12",
      "eventStop": "2023-06-20T10:00:02",
      "duration": 92,
      "status": "Genuine",
      "associatedSiteId": 109794,
      "outfallName": "GRANVILLE PARADE SANDGATE",
      "isImpacting": false,
      "overFlowSiteId": 0,
      "historicSpillsList": []
    },
    {
      "id": 343983515,
      "eventId": 829279,
      "siteUnitNumber": 12594,
      "bathingSite": "BOGNOR REGIS EAST",
      "eventStart": "2023-06-20T09:49:00",
      "eventStop": "2023-06-20T09:52:00",
      "duration": 3,
      "status": "Genuine",
      "associatedSiteId": 109959,
      "outfallName": "WEST PARK BOGNOR REGIS",
      "isImpacting": true,
      "overFlowSiteId": 0,
      "historicSpillsList": [
        {
          "id": 343983517,
          "eventId": 829279,
          "siteUnitNumber": 12596,
          "bathingSite": "PAGHAM",
          "eventStart": "2023-06-20T09:49:00",
          "eventStop": "2023-06-20T09:52:00",
          "duration": 3,
          "status": "Genuine",
          "associatedSiteId": 109959,
          "outfallName": "WEST PARK BOGNOR REGIS",
          "isImpacting": true,
          "overFlowSiteId": 108160,
          "historicSpillsList": []
        }
      ]
    },
    {
      "id": 343986586,
      "eventId": 828725,
      "siteUnitNumber": 12591,
      "bathingSite": "LITTLEHAMPTON",
      "eventStart": "2023-06-20T05:31:00",
      "eventStop": "2023-06-20T09:17:00",
      "duration": 226,
      "status": "Genuine",
      "associatedSiteId": 109977,
      "outfallName": "FORESHORE TANK LITTLEHAMPTON",
      "isImpacting": true,
      "overFlowSiteId": 0,
      "historicSpillsList": [
        {
          "id": 343986586,
          "eventId": 828725,
          "siteUnitNumber": 12591,
          "bathingSite": "LITTLEHAMPTON",
          "eventStart": "2023-06-20T05:31:00",
          "eventStop": "2023-06-20T09:17:00",
          "duration": 226,
          "status": "Genuine",
          "associatedSiteId": 109977,
          "outfallName": "FORESHORE TANK LITTLEHAMPTON",
          "isImpacting": true,
          "overFlowSiteId": 109390
        }
      ]
    },
    {
      "id": 343983521,
      "eventId": 828733,
      "siteUnitNumber": 12594,
      "bathingSite": "BOGNOR REGIS EAST",
      "eventStart": "2023-06-20T05:03:00",
      "eventStop": "2023-06-20T09:15:00",
      "duration": 252,
      "status": "Genuine",
      "associatedSiteId": 109959,
      "outfallName": "WEST PARK BOGNOR REGIS",
      "isImpacting": true,
      "overFlowSiteId": 0,
      "historicSpillsList": [
        {
          "id": 343983521,
          "eventId": 828733,
          "siteUnitNumber": 12594,
          "bathingSite": "BOGNOR REGIS EAST",
          "eventStart": "2023-06-20T05:03:00",
          "eventStop": "2023-06-20T09:15:00",
          "duration": 252,
          "status": "Genuine",
          "associatedSiteId": 109959,
          "outfallName": "WEST PARK BOGNOR REGIS",
          "isImpacting": true,
          "overFlowSiteId": 108160
        }
      ]
    },
    {
      "id": 343960917,
      "eventId": 829209,
      "siteUnitNumber": 12544,
      "bathingSite": "SHEERNESS",
      "eventStart": "2023-06-20T08:51:00",
      "eventStop": "2023-06-20T09:11:00",
      "duration": 20,
      "status": "Genuine",
      "associatedSiteId": 109616,
      "outfallName": "SOUTH STREET QUEENBOROUGH",
      "isImpacting": true,
      "overFlowSiteId": 0,
      "historicSpillsList": [
        {
          "id": 343960917,
          "eventId": 829209,
          "siteUnitNumber": 12544,
          "bathingSite": "SHEERNESS",
          "eventStart": "2023-06-20T08:51:00",
          "eventStop": "2023-06-20T09:11:00",
          "duration": 20,
          "status": "Genuine",
          "associatedSiteId": 109616,
          "outfallName": "SOUTH STREET QUEENBOROUGH",
          "isImpacting": true,
          "overFlowSiteId": 108732
        }
      ]
    },
    {
      "id": 343960919,
      "eventId": 829191,
      "siteUnitNumber": 12544,
      "bathingSite": "SHEERNESS",
      "eventStart": "2023-06-20T08:34:39",
      "eventStop": "2023-06-20T08:41:46",
      "duration": 7,
      "status": "Genuine",
      "associatedSiteId": 109616,
      "outfallName": "SOUTH STREET QUEENBOROUGH",
      "isImpacting": true,
      "overFlowSiteId": 0,
      "historicSpillsList": [
        {
          "id": 343960919,
          "eventId": 829191,
          "siteUnitNumber": 12544,
          "bathingSite": "SHEERNESS",
          "eventStart": "2023-06-20T08:34:39",
          "eventStop": "2023-06-20T08:41:46",
          "duration": 7,
          "status": "Genuine",
          "associatedSiteId": 109616,
          "outfallName": "SOUTH STREET QUEENBOROUGH",
          "isImpacting": true,
          "overFlowSiteId": 108732
        }
      ]
    },
    {
      "id": 343961145,
      "eventId": 829109,
      "siteUnitNumber": 12550,
      "bathingSite": "MINSTER LEAS",
      "eventStart": "2023-06-20T07:54:16",
      "eventStop": "2023-06-20T08:39:00",
      "duration": 44,
      "status": "Genuine",
      "associatedSiteId": 109620,
      "outfallName": "WESTCLIFFE DRIVE MINSTER IOS",
      "isImpacting": false,
      "overFlowSiteId": 0,
      "historicSpillsList": []
    },
    {
      "id": 343961183,
      "eventId": 829142,
      "siteUnitNumber": 12544,
      "bathingSite": "SHEERNESS",
      "eventStart": "2023-06-20T08:12:00",
      "eventStop": "2023-06-20T08:38:00",
      "duration": 26,
      "status": "Genuine",
      "associatedSiteId": 109621,
      "outfallName": "NOREEN AVENUE SHEERNESS",
      "isImpacting": true,
      "overFlowSiteId": 0,
      "historicSpillsList": [
        {
          "id": 343961183,
          "eventId": 829142,
          "siteUnitNumber": 12544,
          "bathingSite": "SHEERNESS",
          "eventStart": "2023-06-20T08:12:00",
          "eventStop": "2023-06-20T08:38:00",
          "duration": 26,
          "status": "Genuine",
          "associatedSiteId": 109621,
          "outfallName": "NOREEN AVENUE SHEERNESS",
          "isImpacting": true,
          "overFlowSiteId": 108809
        },
        {
          "id": 343961184,
          "eventId": 829142,
          "siteUnitNumber": 12550,
          "bathingSite": "MINSTER LEAS",
          "eventStart": "2023-06-20T08:12:00",
          "eventStop": "2023-06-20T08:38:00",
          "duration": 26,
          "status": "Genuine",
          "associatedSiteId": 109621,
          "outfallName": "NOREEN AVENUE SHEERNESS",
          "isImpacting": true,
          "overFlowSiteId": 108809,
          "historicSpillsList": []
        }
      ]
    },
    {
      "id": 343960918,
      "eventId": 829096,
      "siteUnitNumber": 12544,
      "bathingSite": "SHEERNESS",
      "eventStart": "2023-06-20T07:48:00",
      "eventStop": "2023-06-20T08:29:00",
      "duration": 41,
      "status": "Genuine",
      "associatedSiteId": 109616,
      "outfallName": "SOUTH STREET QUEENBOROUGH",
      "isImpacting": true,
      "overFlowSiteId": 0,
      "historicSpillsList": [
        {
          "id": 343960918,
          "eventId": 829096,
          "siteUnitNumber": 12544,
          "bathingSite": "SHEERNESS",
          "eventStart": "2023-06-20T07:48:00",
          "eventStop": "2023-06-20T08:29:00",
          "duration": 41,
          "status": "Genuine",
          "associatedSiteId": 109616,
          "outfallName": "SOUTH STREET QUEENBOROUGH",
          "isImpacting": true,
          "overFlowSiteId": 108732
        }
      ]
    }
  ]
}